,real,predicted
0,1.0,0.4793724715709686
1,1.0,0.3845471739768982
2,0.0,0.5009835958480835
3,1.0,0.4599559307098388
4,1.0,0.559943437576294
5,0.0,0.5535761713981628
6,1.0,0.6286583542823792
7,0.0,0.6993433237075806
8,0.0,0.218528926372528
9,1.0,0.5215249061584473
10,0.0,0.5489442944526672
11,0.0,0.5049247741699219
12,0.0,0.4812300503253937
13,1.0,0.6843823790550232
14,1.0,0.7098950147628784
15,0.0,0.46469247341156
16,1.0,0.4511348903179168
17,1.0,0.3290930688381195
18,1.0,0.3763311207294464
19,1.0,0.7461860179901123
20,0.0,0.818459153175354
21,1.0,0.8310316801071167
22,0.0,0.3417882621288299
23,1.0,0.4927948415279388
24,1.0,0.5029565691947937
25,0.0,0.2173075377941131
26,1.0,0.4723611176013946
27,0.0,0.3336455821990967
28,0.0,0.5323535799980164
29,1.0,0.3682845532894134
30,1.0,0.5801410675048828
31,0.0,0.6548312306404114
32,0.0,0.5495444536209106
33,1.0,0.4549753367900848
34,1.0,0.3013283312320709
35,1.0,0.5042479634284973
36,1.0,0.6880563497543335
37,0.0,0.3671954572200775
38,0.0,0.3175396025180816
39,0.0,0.5730804204940796
40,0.0,0.7854897379875183
41,1.0,0.2864968776702881
42,1.0,0.2797059416770935
43,1.0,0.4908775687217712
44,0.0,0.6759175062179565
45,1.0,0.6021048426628113
46,1.0,0.7204732894897461
47,0.0,0.3396370708942413
48,1.0,0.6334958672523499
49,1.0,0.2316631078720092
50,0.0,0.736255943775177
51,0.0,0.397647500038147
52,1.0,0.748011589050293
53,0.0,0.5235303044319153
54,0.0,0.6884958744049072
55,1.0,0.5720306038856506
56,1.0,0.6051954627037048
57,0.0,0.2381246387958526
58,1.0,0.410408079624176
59,1.0,0.5493864417076111
60,1.0,0.2353016436100006
61,1.0,0.3878749012947082
62,1.0,0.4688798785209656
63,0.0,0.2409725487232208
64,0.0,0.4706784188747406
65,1.0,0.5759634971618652
66,0.0,0.4257977902889251
67,1.0,0.6728023886680603
68,1.0,0.4186654090881347
69,1.0,0.5141979455947876
70,1.0,0.6663340926170349
71,1.0,0.6509549617767334
72,1.0,0.553997278213501
73,1.0,0.3785634934902191
74,0.0,0.5360386371612549
75,0.0,0.6179489493370056
76,1.0,0.3365736901760101
77,1.0,0.6728505492210388
78,1.0,0.4376611709594726
79,1.0,0.6063944101333618
80,1.0,0.5907078385353088
81,1.0,0.4585239589214325
82,0.0,0.376537024974823
83,1.0,0.5323289632797241
84,0.0,0.5886834859848022
85,0.0,0.3258481621742248
86,0.0,0.9037903547286988
87,1.0,0.2616753280162811
88,1.0,0.2644199132919311
89,0.0,0.6113351583480835
90,1.0,0.1446909457445144
91,0.0,0.4397386610507965
92,1.0,0.8258224129676819
93,1.0,0.3823355138301849
94,1.0,0.5190634727478027
95,0.0,0.8752362132072449
96,1.0,0.8609585165977478
97,0.0,0.5554136037826538
98,1.0,0.2861786484718323
99,0.0,0.94159597158432
100,1.0,0.7869947552680969
101,0.0,0.707059919834137
102,1.0,0.8276344537734985
103,1.0,0.3555501699447632
104,0.0,0.562134325504303
105,0.0,0.4317344129085541
106,1.0,0.9400637149810792
107,1.0,0.5760810971260071
108,1.0,0.4494626820087433
109,0.0,0.6568149924278259
110,1.0,0.3986707627773285
111,0.0,0.308643639087677
112,0.0,0.3986014723777771
113,1.0,0.7454108595848083
114,1.0,0.296490728855133
115,0.0,0.2604904472827911
116,1.0,0.3625038266181946
117,1.0,0.2614595293998718
118,0.0,0.5342568159103394
119,0.0,0.6413907408714294
120,0.0,0.492816150188446
121,1.0,0.5613923072814941
122,1.0,0.529248058795929
123,1.0,0.380409300327301
124,1.0,0.6166489720344543
125,0.0,0.6328651309013367
126,1.0,0.4710220098495483
127,0.0,0.4406701326370239
128,0.0,0.5471278429031372
129,1.0,0.7758406400680542
130,0.0,0.5632479190826416
131,0.0,0.7352834939956665
132,1.0,0.638687252998352
133,0.0,0.4904206395149231
134,1.0,0.6207465529441833
135,0.0,0.6191245913505554
136,1.0,0.3488225042819977
137,0.0,0.3839563727378845
138,0.0,0.3822163045406341
139,1.0,0.5143134593963623
140,1.0,0.2832719385623932
141,1.0,0.4510359764099121
142,1.0,0.5947303771972656
143,0.0,0.6614720225334167
144,1.0,0.6935436129570007
145,0.0,0.3527377247810364
146,1.0,0.5624431371688843
147,0.0,0.4439141154289245
148,0.0,0.7358359098434448
149,1.0,0.5803714990615845
150,1.0,0.499567300081253
151,0.0,0.4666720926761627
152,1.0,0.6055363416671753
153,0.0,0.3440067768096924
154,0.0,0.6119970083236694
155,0.0,0.6513839960098267
156,0.0,0.828055202960968
157,0.0,0.6319292187690735
158,1.0,0.6278390884399414
159,1.0,0.4354698061943054
160,1.0,0.2677711546421051
161,0.0,0.501522421836853
162,1.0,0.6885903477668762
163,1.0,0.3677310943603515
164,1.0,0.5574167966842651
165,1.0,0.595003604888916
166,1.0,0.683475136756897
167,0.0,0.295079618692398
168,1.0,0.6207848191261292
169,1.0,0.5175789594650269
170,1.0,0.4613016545772552
171,0.0,0.3732803761959076
172,1.0,0.6427305340766907
173,0.0,0.5126048922538757
174,1.0,0.3739453256130218
175,1.0,0.5075455904006958
176,0.0,0.6572933793067932
177,1.0,0.446865439414978
178,1.0,0.5107808113098145
179,1.0,0.4345614016056061
180,0.0,0.6496553421020508
181,0.0,0.3902879059314728
182,0.0,0.6488202214241028
183,0.0,0.5189489126205444
184,1.0,0.6474059224128723
185,1.0,0.4157699644565582
186,1.0,0.5896803140640259
187,0.0,0.795626699924469
188,0.0,0.7387299537658691
189,1.0,0.6531051397323608
190,1.0,0.3281431794166565
191,1.0,0.4565081894397735
192,1.0,0.5613224506378174
193,1.0,0.2940508723258972
194,1.0,0.5195087194442749
