,real,predicted
0,1.0,0.21176803
1,0.0,0.60435545
2,1.0,0.38380587
3,0.0,0.52349526
4,0.0,0.75793076
5,0.0,0.86354184
6,1.0,0.8824371
7,0.0,0.36331034
8,1.0,0.7361336
9,0.0,0.44363973
10,1.0,0.5912023
11,0.0,0.58890647
12,1.0,0.69142485
13,0.0,0.5048633
14,0.0,0.49929592
15,1.0,0.6679472
16,1.0,0.46374303
17,1.0,0.15284699
18,1.0,0.022388339
19,1.0,0.09016982
20,1.0,0.11771363
21,0.0,0.08036268
22,1.0,0.14559951
23,1.0,0.2744367
24,0.0,0.23373893
25,1.0,0.30617023
26,1.0,0.823434
27,0.0,0.9924831
28,0.0,0.9521489
29,0.0,0.84250206
30,0.0,0.66599065
31,1.0,0.76028925
32,1.0,0.5515558
33,0.0,0.44537103
34,0.0,0.53765345
35,0.0,0.9526789
36,1.0,0.8610774
37,1.0,0.00010524509
38,1.0,0.0015876591
39,0.0,0.20389882
40,1.0,0.747014
41,1.0,0.4958612
42,1.0,0.50834906
43,0.0,0.52288353
44,0.0,0.4669114
45,0.0,0.45196018
46,1.0,0.4799465
47,1.0,0.5527825
48,0.0,0.70780635
49,1.0,0.9123076
50,0.0,0.8429494
51,1.0,0.840817
52,1.0,0.37955457
53,1.0,0.16341218
54,1.0,0.21896052
55,0.0,0.2839154
56,1.0,0.47570488
57,0.0,0.60510725
58,1.0,0.6568455
59,1.0,0.6340964
60,0.0,0.4417297
61,1.0,0.37393618
62,1.0,0.5371868
63,1.0,0.42711753
64,0.0,0.31912562
65,1.0,0.25909832
66,0.0,0.3346846
67,1.0,0.55000794
68,1.0,0.2862321
69,0.0,0.049138486
70,0.0,0.58051467
71,1.0,0.60038316
72,0.0,0.4828534
73,0.0,0.483352
74,0.0,0.4483052
75,1.0,0.5495844
76,0.0,0.55561733
77,1.0,0.55936974
78,1.0,0.45718893
79,0.0,0.37450844
80,0.0,0.4571415
81,0.0,0.47158733
82,0.0,0.4860746
83,1.0,0.5129629
84,1.0,0.46337596
85,0.0,0.96875465
86,1.0,0.5704864
87,0.0,0.17643374
88,0.0,0.67355734
89,1.0,0.691828
90,0.0,0.9842028
91,1.0,0.74986273
92,0.0,0.549083
93,1.0,0.6385311
94,0.0,0.4379574
95,0.0,0.42394137
96,0.0,0.47019982
97,1.0,0.5187463
98,0.0,0.29861075
99,1.0,0.3018807
100,0.0,0.61494327
101,0.0,0.70094246
102,0.0,0.70929193
103,1.0,0.6354698
104,1.0,0.49025396
105,0.0,0.21162581
106,1.0,0.41243425
107,1.0,0.5253764
108,1.0,0.516391
109,1.0,0.49965876
110,1.0,0.45965788
111,1.0,0.59694284
112,1.0,0.555877
113,0.0,0.4401018
114,1.0,0.5048054
115,1.0,0.72076356
116,1.0,0.71010983
117,1.0,0.6291491
118,0.0,0.7300028
119,1.0,0.5919488
120,1.0,0.39993486
121,1.0,0.17393109
122,0.0,0.09754369
123,0.0,0.34404132
124,1.0,0.5699044
125,0.0,0.13552064
126,1.0,0.6188574
127,0.0,0.5573647
128,1.0,0.61171484
129,1.0,0.58033496
130,1.0,0.6159495
131,0.0,0.6126136
132,1.0,0.5306917
133,0.0,0.37678742
134,0.0,0.40886047
135,0.0,0.515768
136,1.0,0.4904784
137,0.0,0.2857828
138,1.0,0.5180884
139,0.0,0.5356485
140,1.0,0.54510695
141,0.0,0.40017587
142,1.0,0.51269776
143,0.0,0.49589747
144,1.0,0.5875044
145,1.0,0.59350234
146,1.0,0.7052604
147,1.0,0.5342858
148,1.0,0.46530518
149,0.0,0.43496025
150,0.0,0.47482663
151,1.0,0.978801
152,0.0,0.1929014
153,1.0,0.6292975
154,0.0,0.34755045
155,0.0,0.090333074
156,1.0,0.49280477
157,1.0,0.17511213
158,1.0,0.5374028
159,1.0,0.46916905
160,0.0,0.041743726
161,1.0,0.4109574
162,0.0,0.37741926
163,1.0,0.5192946
164,1.0,0.5684343
165,0.0,0.4812615
166,1.0,0.28439844
167,0.0,0.9431087
168,0.0,0.8027969
169,1.0,0.65074587
170,0.0,0.5362115
171,1.0,0.92102987
172,1.0,0.68254256
173,1.0,0.8316386
174,1.0,0.8243224
175,0.0,0.6425675
176,1.0,0.32632697
177,1.0,0.15485343
178,0.0,0.06596923
179,0.0,0.22005743
180,1.0,0.48729756
181,1.0,0.8111622
182,1.0,0.86466753
183,0.0,0.46593747
184,1.0,0.51342064
185,1.0,0.6753227
186,1.0,0.7524646
187,1.0,0.7007642
188,1.0,0.5836849
189,1.0,0.4440787
190,0.0,0.4492013
191,0.0,0.41049653
192,0.0,0.6061372
193,0.0,0.5677339
194,1.0,0.7346349
