,real,predicted
0,1.0,0.5126772
1,0.0,0.40081412
2,1.0,0.5959987
3,0.0,0.59583175
4,0.0,0.6067755
5,0.0,0.5213021
6,1.0,0.45544285
7,0.0,0.5606698
8,1.0,0.59760773
9,0.0,0.4574444
10,1.0,0.60564166
11,0.0,0.45170996
12,1.0,0.58426255
13,0.0,0.52275383
14,0.0,0.52880317
15,1.0,0.5680969
16,1.0,0.49700066
17,1.0,0.5166672
18,1.0,0.52965176
19,1.0,0.59306306
20,1.0,0.5214499
21,0.0,0.4497838
22,1.0,0.54406005
23,1.0,0.509346
24,0.0,0.49103466
25,1.0,0.5861084
26,1.0,0.5745718
27,0.0,0.47067547
28,0.0,0.6139007
29,0.0,0.47944096
30,0.0,0.50500065
31,1.0,0.5525724
32,1.0,0.51294833
33,0.0,0.58891046
34,0.0,0.57383096
35,0.0,0.6724556
36,1.0,0.5321438
37,1.0,0.5545386
38,1.0,0.5332116
39,0.0,0.523555
40,1.0,0.56072813
41,1.0,0.5765462
42,1.0,0.5925887
43,0.0,0.5948737
44,0.0,0.50511897
45,0.0,0.49900883
46,1.0,0.5809978
47,1.0,0.5307252
48,0.0,0.5252269
49,1.0,0.5518422
50,0.0,0.47458726
51,1.0,0.52098024
52,1.0,0.4979808
53,1.0,0.4945186
54,1.0,0.6097487
55,0.0,0.42626804
56,1.0,0.5687975
57,0.0,0.43006334
58,1.0,0.45868975
59,1.0,0.5748783
60,0.0,0.60904133
61,1.0,0.44316518
62,1.0,0.5065125
63,1.0,0.47882357
64,0.0,0.5340772
65,1.0,0.5253837
66,0.0,0.49913746
67,1.0,0.583365
68,1.0,0.5119038
69,0.0,0.6210366
70,0.0,0.44741267
71,1.0,0.5436557
72,0.0,0.5412985
73,0.0,0.58748156
74,0.0,0.45098782
75,1.0,0.6039056
76,0.0,0.5474922
77,1.0,0.5398328
78,1.0,0.49369484
79,0.0,0.61567795
80,0.0,0.49060714
81,0.0,0.5116633
82,0.0,0.53758776
83,1.0,0.6385238
84,1.0,0.5817576
85,0.0,0.37405413
86,1.0,0.57295525
87,0.0,0.6402744
88,0.0,0.58159214
89,1.0,0.5657396
90,0.0,0.4396093
91,1.0,0.4912128
92,0.0,0.4751176
93,1.0,0.58847266
94,0.0,0.5663381
95,0.0,0.48324
96,0.0,0.5119387
97,1.0,0.49939147
98,0.0,0.49621266
99,1.0,0.5149833
100,0.0,0.58576626
101,0.0,0.45171374
102,0.0,0.53841823
103,1.0,0.5979406
104,1.0,0.5739707
105,0.0,0.5214006
106,1.0,0.44814226
107,1.0,0.49514243
108,1.0,0.56875646
109,1.0,0.478997
110,1.0,0.58970374
111,1.0,0.43035492
112,1.0,0.55271614
113,0.0,0.42990628
114,1.0,0.55553246
115,1.0,0.5318921
116,1.0,0.46728227
117,1.0,0.46840134
118,0.0,0.5070443
119,1.0,0.6229654
120,1.0,0.48293668
121,1.0,0.51033294
122,0.0,0.47278056
123,0.0,0.4845852
124,1.0,0.60563284
125,0.0,0.48095983
126,1.0,0.54079914
127,0.0,0.5502926
128,1.0,0.5707295
129,1.0,0.4738395
130,1.0,0.53608614
131,0.0,0.5989057
132,1.0,0.558704
133,0.0,0.5160197
134,0.0,0.47944075
135,0.0,0.59935343
136,1.0,0.5432187
137,0.0,0.54935807
138,1.0,0.5664382
139,0.0,0.4635341
140,1.0,0.5334854
141,0.0,0.5166075
142,1.0,0.6081541
143,0.0,0.51492065
144,1.0,0.5214561
145,1.0,0.5522011
146,1.0,0.53218096
147,1.0,0.45649585
148,1.0,0.590998
149,0.0,0.43271536
150,0.0,0.5716648
151,1.0,0.6106437
152,0.0,0.40861586
153,1.0,0.6914391
154,0.0,0.52640206
155,0.0,0.6221418
156,1.0,0.5084644
157,1.0,0.5166943
158,1.0,0.5120754
159,1.0,0.5789525
160,0.0,0.5237067
161,1.0,0.56006634
162,0.0,0.52887046
163,1.0,0.61401856
164,1.0,0.501203
165,0.0,0.44626948
166,1.0,0.52741796
167,0.0,0.5570358
168,0.0,0.62754256
169,1.0,0.56959367
170,0.0,0.5137958
171,1.0,0.65142524
172,1.0,0.4699566
173,1.0,0.62212604
174,1.0,0.5303703
175,0.0,0.4192611
176,1.0,0.47687376
177,1.0,0.59264344
178,0.0,0.45337787
179,0.0,0.51938134
180,1.0,0.61507046
181,1.0,0.566094
182,1.0,0.4886227
183,0.0,0.47377977
184,1.0,0.59259963
185,1.0,0.50534344
186,1.0,0.5794601
187,1.0,0.4915642
188,1.0,0.5913495
189,1.0,0.58286226
190,0.0,0.4294835
191,0.0,0.4677886
192,0.0,0.6232914
193,0.0,0.43370348
194,1.0,0.58174497
