,real,predicted
0,1.0,0.5608144
1,0.0,0.7883177
2,1.0,0.7195999
3,0.0,0.57933253
4,0.0,0.76606613
5,0.0,0.62030375
6,1.0,0.42727777
7,0.0,0.4554549
8,1.0,0.55969435
9,0.0,0.4536227
10,1.0,0.5723218
11,0.0,0.6340773
12,1.0,0.7425221
13,0.0,0.75802946
14,0.0,0.6368985
15,1.0,0.60820526
16,1.0,0.5070849
17,1.0,0.4985705
18,1.0,0.5730612
19,1.0,0.55591416
20,1.0,0.54954183
21,0.0,0.49294668
22,1.0,0.51119787
23,1.0,0.52960163
24,0.0,0.64618653
25,1.0,0.65636796
26,1.0,0.6920826
27,0.0,0.64223397
28,0.0,0.5791756
29,0.0,0.4784715
30,0.0,0.4764633
31,1.0,0.5675902
32,1.0,0.5299062
33,0.0,0.53497434
34,0.0,0.56276155
35,0.0,0.88832206
36,1.0,0.7228805
37,1.0,0.4537312
38,1.0,0.51184225
39,0.0,0.52091056
40,1.0,0.5296079
41,1.0,0.51644707
42,1.0,0.6489283
43,0.0,0.5976373
44,0.0,0.49684724
45,0.0,0.45830053
46,1.0,0.57960266
47,1.0,0.5079542
48,0.0,0.51683575
49,1.0,0.5759739
50,0.0,0.4658103
51,1.0,0.5438332
52,1.0,0.4790033
53,1.0,0.5896845
54,1.0,0.5818982
55,0.0,0.58366877
56,1.0,0.65389895
57,0.0,0.6333477
58,1.0,0.62163234
59,1.0,0.548312
60,0.0,0.5804137
61,1.0,0.5337614
62,1.0,0.4965548
63,1.0,0.5080937
64,0.0,0.5321798
65,1.0,0.58372426
66,0.0,0.45783526
67,1.0,0.5797915
68,1.0,0.44239813
69,0.0,0.5327504
70,0.0,0.5544657
71,1.0,0.50634366
72,0.0,0.5304999
73,0.0,0.5418702
74,0.0,0.47755137
75,1.0,0.5101151
76,0.0,0.4567649
77,1.0,0.47273326
78,1.0,0.5802753
79,0.0,0.5623364
80,0.0,0.56560385
81,0.0,0.49479267
82,0.0,0.5072063
83,1.0,0.5493879
84,1.0,0.48198202
85,0.0,0.4579841
86,1.0,0.5542051
87,0.0,0.5409754
88,0.0,0.55949223
89,1.0,0.50544626
90,0.0,0.42480245
91,1.0,0.52034193
92,0.0,0.52571595
93,1.0,0.5952569
94,0.0,0.530996
95,0.0,0.52348393
96,0.0,0.58124393
97,1.0,0.5481978
98,0.0,0.4484653
99,1.0,0.52804947
100,0.0,0.50825995
101,0.0,0.51972157
102,0.0,0.5212794
103,1.0,0.5449696
104,1.0,0.43182677
105,0.0,0.4263471
106,1.0,0.54172534
107,1.0,0.5288311
108,1.0,0.6366012
109,1.0,0.6743402
110,1.0,0.59587824
111,1.0,0.5965722
112,1.0,0.57105875
113,0.0,0.5769248
114,1.0,0.57389843
115,1.0,0.45428672
116,1.0,0.46586192
117,1.0,0.5464239
118,0.0,0.7004937
119,1.0,0.67891854
120,1.0,0.70846266
121,1.0,0.5895225
122,0.0,0.4823245
123,0.0,0.54462844
124,1.0,0.5749152
125,0.0,0.49402937
126,1.0,0.54131037
127,0.0,0.4841237
128,1.0,0.5588853
129,1.0,0.4787038
130,1.0,0.5446698
131,0.0,0.72226125
132,1.0,0.7494917
133,0.0,0.55924547
134,0.0,0.44882062
135,0.0,0.57102966
136,1.0,0.46007594
137,0.0,0.47777832
138,1.0,0.5392787
139,0.0,0.41118845
140,1.0,0.5630893
141,0.0,0.51789457
142,1.0,0.5824411
143,0.0,0.48429722
144,1.0,0.5117371
145,1.0,0.56037045
146,1.0,0.5156473
147,1.0,0.55006766
148,1.0,0.6223443
149,0.0,0.62169254
150,0.0,0.63095134
151,1.0,0.89829016
152,0.0,0.5343985
153,1.0,0.64086384
154,0.0,0.64567834
155,0.0,0.5263053
156,1.0,0.48638308
157,1.0,0.56772166
158,1.0,0.5903323
159,1.0,0.6202218
160,0.0,0.69751894
161,1.0,0.50264406
162,0.0,0.50951207
163,1.0,0.5641625
164,1.0,0.45166802
165,0.0,0.5773053
166,1.0,0.72148824
167,0.0,0.5409381
168,0.0,0.5898342
169,1.0,0.5743043
170,0.0,0.42312106
171,1.0,0.5308349
172,1.0,0.52010965
173,1.0,0.64158654
174,1.0,0.6037981
175,0.0,0.44152465
176,1.0,0.5400734
177,1.0,0.54319423
178,0.0,0.4604126
179,0.0,0.55449724
180,1.0,0.5493499
181,1.0,0.505187
182,1.0,0.4602237
183,0.0,0.5272138
184,1.0,0.56769854
185,1.0,0.4929263
186,1.0,0.51775724
187,1.0,0.6442696
188,1.0,0.6531365
189,1.0,0.5404703
190,0.0,0.45888937
191,0.0,0.54764926
192,0.0,0.6836795
193,0.0,0.43801054
194,1.0,0.45553255
