,real,predicted
0,1.0,0.49958462
1,0.0,0.50131524
2,1.0,0.5023117
3,0.0,0.5027575
4,0.0,0.5009445
5,0.0,0.5008102
6,1.0,0.5012257
7,0.0,0.5007037
8,1.0,0.50015354
9,0.0,0.50036824
10,1.0,0.50045025
11,0.0,0.50090677
12,1.0,0.5018698
13,0.0,0.50249475
14,0.0,0.50096995
15,1.0,0.50122315
16,1.0,0.50069857
17,1.0,0.500624
18,1.0,0.5008368
19,1.0,0.50131553
20,1.0,0.5005828
21,0.0,0.50044626
22,1.0,0.5001847
23,1.0,0.50013363
24,0.0,0.5012559
25,1.0,0.5013166
26,1.0,0.50170666
27,0.0,0.5000528
28,0.0,0.49964914
29,0.0,0.4996535
30,0.0,0.5000584
31,1.0,0.4999684
32,1.0,0.50000614
33,0.0,0.5006368
34,0.0,0.5006971
35,0.0,0.5012538
36,1.0,0.5017432
37,1.0,0.50133115
38,1.0,0.5004496
39,0.0,0.50114584
40,1.0,0.5009728
41,1.0,0.5006935
42,1.0,0.5006905
43,0.0,0.50065845
44,0.0,0.5003304
45,0.0,0.4998706
46,1.0,0.50054544
47,1.0,0.500584
48,0.0,0.5006469
49,1.0,0.5001964
50,0.0,0.49984154
51,1.0,0.5002414
52,1.0,0.50014865
53,1.0,0.50086
54,1.0,0.5012816
55,0.0,0.5012713
56,1.0,0.5011118
57,0.0,0.5017816
58,1.0,0.50063425
59,1.0,0.5009951
60,0.0,0.49997672
61,1.0,0.49961418
62,1.0,0.49988407
63,1.0,0.5001403
64,0.0,0.50022393
65,1.0,0.4999809
66,0.0,0.49983147
67,1.0,0.5006681
68,1.0,0.50056314
69,0.0,0.50026894
70,0.0,0.49971426
71,1.0,0.49998486
72,0.0,0.50032914
73,0.0,0.49987063
74,0.0,0.4996314
75,1.0,0.500025
76,0.0,0.5001224
77,1.0,0.5000573
78,1.0,0.5003119
79,0.0,0.5013981
80,0.0,0.501059
81,0.0,0.50029814
82,0.0,0.5006524
83,1.0,0.5004489
84,1.0,0.50046825
85,0.0,0.50103307
86,1.0,0.5005124
87,0.0,0.50058025
88,0.0,0.50023663
89,1.0,0.50017947
90,0.0,0.500445
91,1.0,0.50020266
92,0.0,0.5003142
93,1.0,0.50093496
94,0.0,0.5013635
95,0.0,0.50077933
96,0.0,0.5005197
97,1.0,0.50032246
98,0.0,0.5004509
99,1.0,0.50021094
100,0.0,0.50010616
101,0.0,0.5000585
102,0.0,0.4998885
103,1.0,0.50031173
104,1.0,0.50034535
105,0.0,0.50052315
106,1.0,0.49998158
107,1.0,0.4999749
108,1.0,0.5005381
109,1.0,0.5014136
110,1.0,0.50098544
111,1.0,0.50092095
112,1.0,0.50098944
113,0.0,0.50152326
114,1.0,0.50088793
115,1.0,0.5009112
116,1.0,0.5002448
117,1.0,0.50060534
118,0.0,0.5015369
119,1.0,0.5013586
120,1.0,0.50158423
121,1.0,0.50036174
122,0.0,0.5003872
123,0.0,0.5004959
124,1.0,0.50028646
125,0.0,0.5003132
126,1.0,0.50015026
127,0.0,0.49986425
128,1.0,0.50010073
129,1.0,0.50036526
130,1.0,0.50124097
131,0.0,0.50185376
132,1.0,0.50089514
133,0.0,0.5000352
134,0.0,0.49995402
135,0.0,0.4999576
136,1.0,0.5006447
137,0.0,0.5004873
138,1.0,0.5004745
139,0.0,0.4999401
140,1.0,0.5001375
141,0.0,0.4999172
142,1.0,0.50028795
143,0.0,0.50034034
144,1.0,0.50032693
145,1.0,0.5000504
146,1.0,0.50030994
147,1.0,0.50083196
148,1.0,0.5009936
149,0.0,0.501674
150,0.0,0.50132024
151,1.0,0.50279546
152,0.0,0.5012905
153,1.0,0.50075626
154,0.0,0.49974146
155,0.0,0.50052327
156,1.0,0.5006692
157,1.0,0.50013715
158,1.0,0.50056005
159,1.0,0.50139624
160,0.0,0.5015633
161,1.0,0.49995264
162,0.0,0.49975038
163,1.0,0.50029796
164,1.0,0.5002382
165,0.0,0.500431
166,1.0,0.5010152
167,0.0,0.5010308
168,0.0,0.50044805
169,1.0,0.5006531
170,0.0,0.5011835
171,1.0,0.5013372
172,1.0,0.500212
173,1.0,0.50148094
174,1.0,0.5018786
175,0.0,0.50029796
176,1.0,0.499946
177,1.0,0.50023127
178,0.0,0.5007016
179,0.0,0.50009793
180,1.0,0.5002273
181,1.0,0.50044835
182,1.0,0.50045496
183,0.0,0.49994
184,1.0,0.50000423
185,1.0,0.5000669
186,1.0,0.5007343
187,1.0,0.5007672
188,1.0,0.50114864
189,1.0,0.50047135
190,0.0,0.50024134
191,0.0,0.5004507
192,0.0,0.4999644
193,0.0,0.50012195
194,1.0,0.50048196
