,real,predicted
0,1.0,0.4987119
1,0.0,0.5058022
2,1.0,0.5073905
3,0.0,0.5059659
4,0.0,0.49999934
5,0.0,0.50867796
6,1.0,0.5046789
7,0.0,0.5045869
8,1.0,0.5031425
9,0.0,0.50203896
10,1.0,0.5023887
11,0.0,0.5070887
12,1.0,0.5042024
13,0.0,0.5065985
14,0.0,0.50281554
15,1.0,0.50487053
16,1.0,0.50236166
17,1.0,0.50216293
18,1.0,0.50117093
19,1.0,0.50040543
20,1.0,0.50013983
21,0.0,0.49933153
22,1.0,0.5005785
23,1.0,0.5008235
24,0.0,0.50617117
25,1.0,0.50746185
26,1.0,0.5038762
27,0.0,0.49823704
28,0.0,0.50229496
29,0.0,0.50177026
30,0.0,0.49811563
31,1.0,0.4983086
32,1.0,0.5020818
33,0.0,0.5005824
34,0.0,0.5004978
35,0.0,0.51008147
36,1.0,0.50879943
37,1.0,0.50527114
38,1.0,0.5015333
39,0.0,0.5026077
40,1.0,0.5035774
41,1.0,0.5026061
42,1.0,0.50057834
43,0.0,0.5006765
44,0.0,0.5001743
45,0.0,0.4975024
46,1.0,0.5026475
47,1.0,0.50084
48,0.0,0.4997
49,1.0,0.5015195
50,0.0,0.5005486
51,1.0,0.50211287
52,1.0,0.5016711
53,1.0,0.5032019
54,1.0,0.50227034
55,0.0,0.50382495
56,1.0,0.5022151
57,0.0,0.5019325
58,1.0,0.50231516
59,1.0,0.50105023
60,0.0,0.49977037
61,1.0,0.50011533
62,1.0,0.50000155
63,1.0,0.501901
64,0.0,0.49999875
65,1.0,0.500974
66,0.0,0.500549
67,1.0,0.50776845
68,1.0,0.504912
69,0.0,0.5023607
70,0.0,0.49985543
71,1.0,0.50579834
72,0.0,0.50266874
73,0.0,0.49967834
74,0.0,0.49964365
75,1.0,0.5012017
76,0.0,0.5011921
77,1.0,0.50039625
78,1.0,0.50421655
79,0.0,0.5023445
80,0.0,0.50497705
81,0.0,0.50337285
82,0.0,0.50347555
83,1.0,0.5026662
84,1.0,0.5009896
85,0.0,0.5082165
86,1.0,0.506323
87,0.0,0.5052698
88,0.0,0.50240797
89,1.0,0.50001055
90,0.0,0.50131094
91,1.0,0.5020051
92,0.0,0.5052038
93,1.0,0.5017134
94,0.0,0.5053156
95,0.0,0.5027167
96,0.0,0.5003253
97,1.0,0.49670443
98,0.0,0.50133723
99,1.0,0.50385195
100,0.0,0.50172937
101,0.0,0.4999177
102,0.0,0.5020535
103,1.0,0.5004547
104,1.0,0.5006419
105,0.0,0.5017641
106,1.0,0.5009211
107,1.0,0.50295335
108,1.0,0.502928
109,1.0,0.5031829
110,1.0,0.5002807
111,1.0,0.5015387
112,1.0,0.50292665
113,0.0,0.50537574
114,1.0,0.50229734
115,1.0,0.50129116
116,1.0,0.49976128
117,1.0,0.49932706
118,0.0,0.50285786
119,1.0,0.5062504
120,1.0,0.5006504
121,1.0,0.49954477
122,0.0,0.4975714
123,0.0,0.49850544
124,1.0,0.50106496
125,0.0,0.5003266
126,1.0,0.50107384
127,0.0,0.5029793
128,1.0,0.5057762
129,1.0,0.5031228
130,1.0,0.5032663
131,0.0,0.5009136
132,1.0,0.49921253
133,0.0,0.49841973
134,0.0,0.50148565
135,0.0,0.50166976
136,1.0,0.5028829
137,0.0,0.50062656
138,1.0,0.50524473
139,0.0,0.5018532
140,1.0,0.49937773
141,0.0,0.5025549
142,1.0,0.5059463
143,0.0,0.50185
144,1.0,0.5010629
145,1.0,0.5005915
146,1.0,0.49955842
147,1.0,0.50078976
148,1.0,0.50189817
149,0.0,0.5039484
150,0.0,0.50462836
151,1.0,0.5136058
152,0.0,0.5135275
153,1.0,0.5272166
154,0.0,0.5160726
155,0.0,0.5068836
156,1.0,0.49896288
157,1.0,0.4994343
158,1.0,0.5029305
159,1.0,0.5025285
160,0.0,0.49949774
161,1.0,0.50178605
162,0.0,0.5002132
163,1.0,0.50023043
164,1.0,0.5004957
165,0.0,0.50138146
166,1.0,0.50090224
167,0.0,0.5020975
168,0.0,0.5059668
169,1.0,0.51404595
170,0.0,0.50724626
171,1.0,0.5078209
172,1.0,0.50408787
173,1.0,0.5024777
174,1.0,0.50055736
175,0.0,0.4983693
176,1.0,0.5020137
177,1.0,0.5003148
178,0.0,0.50139886
179,0.0,0.50498587
180,1.0,0.50451654
181,1.0,0.5014987
182,1.0,0.50318867
183,0.0,0.5021505
184,1.0,0.50591713
185,1.0,0.50298864
186,1.0,0.5036082
187,1.0,0.5035745
188,1.0,0.5026146
189,1.0,0.50143176
190,0.0,0.5031345
191,0.0,0.50182736
192,0.0,0.49881852
193,0.0,0.5000864
194,1.0,0.50320137
