,real,predicted
0,1.0,0.5247223
1,0.0,0.49024755
2,1.0,0.51744926
3,0.0,0.49923185
4,0.0,0.5186438
5,0.0,0.5253883
6,1.0,0.531242
7,0.0,0.526921
8,1.0,0.5252699
9,0.0,0.52223146
10,1.0,0.5270205
11,0.0,0.49470732
12,1.0,0.5166843
13,0.0,0.49746227
14,0.0,0.525198
15,1.0,0.5169803
16,1.0,0.51724774
17,1.0,0.5071331
18,1.0,0.51417375
19,1.0,0.51495945
20,1.0,0.51406413
21,0.0,0.5168689
22,1.0,0.5093554
23,1.0,0.51798594
24,0.0,0.49783424
25,1.0,0.51916015
26,1.0,0.51424897
27,0.0,0.5330959
28,0.0,0.52083904
29,0.0,0.5186968
30,0.0,0.5169003
31,1.0,0.50780934
32,1.0,0.50663483
33,0.0,0.5219303
34,0.0,0.5246751
35,0.0,0.53828585
36,1.0,0.5245976
37,1.0,0.51895815
38,1.0,0.5025714
39,0.0,0.5092789
40,1.0,0.52294856
41,1.0,0.51822615
42,1.0,0.5094899
43,0.0,0.51544225
44,0.0,0.52055514
45,0.0,0.5126446
46,1.0,0.52248937
47,1.0,0.5142161
48,0.0,0.5244059
49,1.0,0.5190851
50,0.0,0.5142763
51,1.0,0.5146479
52,1.0,0.51042855
53,1.0,0.50378746
54,1.0,0.51230216
55,0.0,0.49813282
56,1.0,0.53530663
57,0.0,0.5073998
58,1.0,0.5272535
59,1.0,0.51232445
60,0.0,0.5221038
61,1.0,0.5205135
62,1.0,0.52601826
63,1.0,0.52148813
64,0.0,0.53199375
65,1.0,0.52175426
66,0.0,0.5184434
67,1.0,0.52044713
68,1.0,0.51285005
69,0.0,0.5158579
70,0.0,0.51406807
71,1.0,0.50266194
72,0.0,0.50588274
73,0.0,0.50708914
74,0.0,0.51601404
75,1.0,0.5101167
76,0.0,0.5130424
77,1.0,0.5111692
78,1.0,0.5055702
79,0.0,0.51903343
80,0.0,0.51584905
81,0.0,0.5204034
82,0.0,0.5100336
83,1.0,0.5160712
84,1.0,0.5128251
85,0.0,0.5042407
86,1.0,0.5114039
87,0.0,0.50644445
88,0.0,0.50922924
89,1.0,0.5180736
90,0.0,0.51531553
91,1.0,0.50834346
92,0.0,0.4935608
93,1.0,0.514282
94,0.0,0.507287
95,0.0,0.5230582
96,0.0,0.5225405
97,1.0,0.522414
98,0.0,0.50985026
99,1.0,0.50050014
100,0.0,0.5073368
101,0.0,0.509188
102,0.0,0.5124558
103,1.0,0.51275194
104,1.0,0.5168996
105,0.0,0.5130032
106,1.0,0.51677257
107,1.0,0.5100899
108,1.0,0.49904
109,1.0,0.5038086
110,1.0,0.520874
111,1.0,0.50884235
112,1.0,0.51072925
113,0.0,0.50647193
114,1.0,0.5198234
115,1.0,0.5194757
116,1.0,0.50851786
117,1.0,0.50901085
118,0.0,0.49811536
119,1.0,0.5153037
120,1.0,0.5042306
121,1.0,0.50972754
122,0.0,0.5150484
123,0.0,0.51862085
124,1.0,0.5128396
125,0.0,0.50346
126,1.0,0.5046905
127,0.0,0.5101832
128,1.0,0.5230244
129,1.0,0.5200279
130,1.0,0.5002862
131,0.0,0.51333475
132,1.0,0.5158002
133,0.0,0.52169544
134,0.0,0.5082946
135,0.0,0.5152412
136,1.0,0.5180184
137,0.0,0.5194499
138,1.0,0.5294334
139,0.0,0.5215234
140,1.0,0.5273766
141,0.0,0.51256794
142,1.0,0.5241123
143,0.0,0.5285948
144,1.0,0.52222574
145,1.0,0.51474434
146,1.0,0.52097017
147,1.0,0.5099106
148,1.0,0.520707
149,0.0,0.5043989
150,0.0,0.54238397
151,1.0,0.5534278
152,0.0,0.52422225
153,1.0,0.55308855
154,0.0,0.5162914
155,0.0,0.5383337
156,1.0,0.5299409
157,1.0,0.51871824
158,1.0,0.50900686
159,1.0,0.517763
160,0.0,0.5135602
161,1.0,0.5197881
162,0.0,0.5073565
163,1.0,0.5239989
164,1.0,0.52245426
165,0.0,0.52118474
166,1.0,0.5287301
167,0.0,0.5208869
168,0.0,0.52437043
169,1.0,0.52137506
170,0.0,0.52312595
171,1.0,0.540665
172,1.0,0.5066854
173,1.0,0.51513004
174,1.0,0.5138846
175,0.0,0.5244052
176,1.0,0.51367706
177,1.0,0.5175813
178,0.0,0.52489114
179,0.0,0.5149098
180,1.0,0.51992774
181,1.0,0.52606577
182,1.0,0.52331895
183,0.0,0.52942115
184,1.0,0.51963353
185,1.0,0.5247698
186,1.0,0.51576555
187,1.0,0.50902784
188,1.0,0.51600987
189,1.0,0.5233505
190,0.0,0.51029754
191,0.0,0.5223285
192,0.0,0.50603604
193,0.0,0.50886893
194,1.0,0.51564753
