,real,predicted
0,1.0,0.5041675
1,0.0,0.50194144
2,1.0,0.5163991
3,0.0,0.51106864
4,0.0,0.51392835
5,0.0,0.5175342
6,1.0,0.5113523
7,0.0,0.50826764
8,1.0,0.50817907
9,0.0,0.50253975
10,1.0,0.5042601
11,0.0,0.5011357
12,1.0,0.5077853
13,0.0,0.50650257
14,0.0,0.51196694
15,1.0,0.5114702
16,1.0,0.50563884
17,1.0,0.5039082
18,1.0,0.504639
19,1.0,0.5042239
20,1.0,0.503918
21,0.0,0.5030492
22,1.0,0.5043362
23,1.0,0.5028384
24,0.0,0.50333184
25,1.0,0.51612854
26,1.0,0.5105757
27,0.0,0.5091094
28,0.0,0.50992644
29,0.0,0.5084265
30,0.0,0.50658983
31,1.0,0.5051872
32,1.0,0.5048544
33,0.0,0.5055093
34,0.0,0.506846
35,0.0,0.53296036
36,1.0,0.51154196
37,1.0,0.501621
38,1.0,0.49957892
39,0.0,0.5002473
40,1.0,0.50660354
41,1.0,0.5032484
42,1.0,0.50208515
43,0.0,0.5024875
44,0.0,0.5047964
45,0.0,0.504725
46,1.0,0.50556487
47,1.0,0.5032315
48,0.0,0.50195694
49,1.0,0.5036413
50,0.0,0.50130767
51,1.0,0.5022592
52,1.0,0.5009813
53,1.0,0.50077266
54,1.0,0.5006923
55,0.0,0.501265
56,1.0,0.5094754
57,0.0,0.50697595
58,1.0,0.51417005
59,1.0,0.50729245
60,0.0,0.50557405
61,1.0,0.50643694
62,1.0,0.5045586
63,1.0,0.5035371
64,0.0,0.5022693
65,1.0,0.5032149
66,0.0,0.50200284
67,1.0,0.5211524
68,1.0,0.50174284
69,0.0,0.49905354
70,0.0,0.50065213
71,1.0,0.5034981
72,0.0,0.49821454
73,0.0,0.4992426
74,0.0,0.49947765
75,1.0,0.50090235
76,0.0,0.4989624
77,1.0,0.49929953
78,1.0,0.50017846
79,0.0,0.49981374
80,0.0,0.5024409
81,0.0,0.5011154
82,0.0,0.50181764
83,1.0,0.5025496
84,1.0,0.49941397
85,0.0,0.49039796
86,1.0,0.4955569
87,0.0,0.49622333
88,0.0,0.49925682
89,1.0,0.5007196
90,0.0,0.49920198
91,1.0,0.5004676
92,0.0,0.4995842
93,1.0,0.5025467
94,0.0,0.501479
95,0.0,0.50523716
96,0.0,0.5050331
97,1.0,0.50430995
98,0.0,0.5025535
99,1.0,0.5049339
100,0.0,0.5020433
101,0.0,0.50164914
102,0.0,0.5024489
103,1.0,0.5015399
104,1.0,0.50027835
105,0.0,0.499431
106,1.0,0.50108755
107,1.0,0.5011503
108,1.0,0.501569
109,1.0,0.50277776
110,1.0,0.5032452
111,1.0,0.5033196
112,1.0,0.504698
113,0.0,0.5071192
114,1.0,0.51307243
115,1.0,0.5116423
116,1.0,0.5089986
117,1.0,0.50756407
118,0.0,0.50735205
119,1.0,0.51728606
120,1.0,0.51182055
121,1.0,0.5090472
122,0.0,0.50722927
123,0.0,0.5097212
124,1.0,0.50887316
125,0.0,0.5024385
126,1.0,0.50243926
127,0.0,0.5020192
128,1.0,0.5060287
129,1.0,0.5032738
130,1.0,0.50363755
131,0.0,0.5041517
132,1.0,0.5065384
133,0.0,0.5058275
134,0.0,0.50786984
135,0.0,0.5084511
136,1.0,0.5075021
137,0.0,0.5026096
138,1.0,0.5174193
139,0.0,0.5043922
140,1.0,0.5042221
141,0.0,0.50244766
142,1.0,0.5199797
143,0.0,0.50727385
144,1.0,0.5074804
145,1.0,0.50386417
146,1.0,0.50242245
147,1.0,0.50222164
148,1.0,0.5027891
149,0.0,0.5041421
150,0.0,0.51513106
151,1.0,0.54496235
152,0.0,0.49383086
153,1.0,0.50708336
154,0.0,0.49405712
155,0.0,0.49952683
156,1.0,0.502573
157,1.0,0.5004757
158,1.0,0.5145727
159,1.0,0.50823146
160,0.0,0.50379777
161,1.0,0.50816524
162,0.0,0.504712
163,1.0,0.50635344
164,1.0,0.50390255
165,0.0,0.50259334
166,1.0,0.50708
167,0.0,0.50191826
168,0.0,0.50480264
169,1.0,0.5121118
170,0.0,0.4968627
171,1.0,0.5021113
172,1.0,0.49886492
173,1.0,0.500092
174,1.0,0.50049055
175,0.0,0.50086206
176,1.0,0.5039233
177,1.0,0.50127316
178,0.0,0.50055027
179,0.0,0.5044068
180,1.0,0.50568044
181,1.0,0.500278
182,1.0,0.49933162
183,0.0,0.49957126
184,1.0,0.5044408
185,1.0,0.50029767
186,1.0,0.49970275
187,1.0,0.4990436
188,1.0,0.49956232
189,1.0,0.49999335
190,0.0,0.5000159
191,0.0,0.50329417
192,0.0,0.5032345
193,0.0,0.50320023
194,1.0,0.5047046
