,real,predicted
0,1.0,0.5027728
1,0.0,0.50393105
2,1.0,0.5054647
3,0.0,0.5042214
4,0.0,0.5049237
5,0.0,0.51590884
6,1.0,0.50969356
7,0.0,0.5079934
8,1.0,0.5064614
9,0.0,0.50323886
10,1.0,0.5049672
11,0.0,0.50390226
12,1.0,0.5042475
13,0.0,0.5033704
14,0.0,0.50598484
15,1.0,0.51117724
16,1.0,0.50322056
17,1.0,0.5010307
18,1.0,0.50071
19,1.0,0.50017875
20,1.0,0.5000771
21,0.0,0.50034654
22,1.0,0.50097704
23,1.0,0.50044435
24,0.0,0.5028287
25,1.0,0.50497526
26,1.0,0.50356454
27,0.0,0.50355417
28,0.0,0.5045159
29,0.0,0.50292677
30,0.0,0.50198543
31,1.0,0.49617484
32,1.0,0.49385887
33,0.0,0.49503443
34,0.0,0.49907616
35,0.0,0.5277959
36,1.0,0.51129293
37,1.0,0.5068261
38,1.0,0.50324637
39,0.0,0.5020814
40,1.0,0.5043241
41,1.0,0.50333095
42,1.0,0.5025896
43,0.0,0.5021583
44,0.0,0.5033576
45,0.0,0.5025047
46,1.0,0.505381
47,1.0,0.50207734
48,0.0,0.50139374
49,1.0,0.50581604
50,0.0,0.5016428
51,1.0,0.50495225
52,1.0,0.50384355
53,1.0,0.5026688
54,1.0,0.5027717
55,0.0,0.5023508
56,1.0,0.5056143
57,0.0,0.5041262
58,1.0,0.50913024
59,1.0,0.50582147
60,0.0,0.5049916
61,1.0,0.5053564
62,1.0,0.504734
63,1.0,0.5043013
64,0.0,0.5040399
65,1.0,0.5041697
66,0.0,0.5031431
67,1.0,0.5171197
68,1.0,0.50783676
69,0.0,0.50555974
70,0.0,0.50498575
71,1.0,0.50319576
72,0.0,0.4982914
73,0.0,0.49905047
74,0.0,0.5009336
75,1.0,0.50358653
76,0.0,0.50212264
77,1.0,0.5036105
78,1.0,0.50252134
79,0.0,0.5026031
80,0.0,0.50522023
81,0.0,0.504403
82,0.0,0.5059071
83,1.0,0.5052217
84,1.0,0.50274587
85,0.0,0.5063588
86,1.0,0.50652355
87,0.0,0.50478595
88,0.0,0.50508046
89,1.0,0.50532615
90,0.0,0.50428027
91,1.0,0.50229967
92,0.0,0.50199825
93,1.0,0.50264454
94,0.0,0.5026479
95,0.0,0.50357985
96,0.0,0.5038905
97,1.0,0.50369036
98,0.0,0.5023908
99,1.0,0.504115
100,0.0,0.5024138
101,0.0,0.5036554
102,0.0,0.5056178
103,1.0,0.5058965
104,1.0,0.5047699
105,0.0,0.5034582
106,1.0,0.5043598
107,1.0,0.50331175
108,1.0,0.5025377
109,1.0,0.502752
110,1.0,0.5032187
111,1.0,0.5033551
112,1.0,0.5036827
113,0.0,0.50396305
114,1.0,0.50400794
115,1.0,0.5032104
116,1.0,0.5024545
117,1.0,0.50226116
118,0.0,0.5029601
119,1.0,0.5066713
120,1.0,0.5010665
121,1.0,0.50270987
122,0.0,0.5031683
123,0.0,0.5039494
124,1.0,0.49918392
125,0.0,0.4823416
126,1.0,0.49540168
127,0.0,0.498777
128,1.0,0.50607675
129,1.0,0.5026288
130,1.0,0.50214016
131,0.0,0.5018781
132,1.0,0.50259125
133,0.0,0.5004035
134,0.0,0.5030096
135,0.0,0.50395375
136,1.0,0.50625426
137,0.0,0.50335693
138,1.0,0.5137087
139,0.0,0.5071429
140,1.0,0.5067479
141,0.0,0.50385517
142,1.0,0.5122317
143,0.0,0.5068895
144,1.0,0.50721246
145,1.0,0.50378436
146,1.0,0.5031035
147,1.0,0.5018676
148,1.0,0.5024737
149,0.0,0.50289655
150,0.0,0.5077593
151,1.0,0.5535243
152,0.0,0.5132749
153,1.0,0.6057706
154,0.0,0.49855837
155,0.0,0.5069137
156,1.0,0.50502455
157,1.0,0.5006816
158,1.0,0.50440085
159,1.0,0.5030686
160,0.0,0.50217474
161,1.0,0.5090114
162,0.0,0.50061363
163,1.0,0.5046174
164,1.0,0.50368905
165,0.0,0.50294924
166,1.0,0.50457436
167,0.0,0.50400007
168,0.0,0.5065567
169,1.0,0.5243745
170,0.0,0.50817937
171,1.0,0.51257247
172,1.0,0.5042828
173,1.0,0.503348
174,1.0,0.5018899
175,0.0,0.50152355
176,1.0,0.50347847
177,1.0,0.50299907
178,0.0,0.50310004
179,0.0,0.50442135
180,1.0,0.50516474
181,1.0,0.50442815
182,1.0,0.50384843
183,0.0,0.50345105
184,1.0,0.50640386
185,1.0,0.5023479
186,1.0,0.5017428
187,1.0,0.5011079
188,1.0,0.501388
189,1.0,0.50135815
190,0.0,0.50119454
191,0.0,0.50270444
192,0.0,0.49589008
193,0.0,0.49491376
194,1.0,0.50216085
