,real,predicted
0,1.0,0.77888125
1,0.0,0.6386113
2,1.0,0.73629314
3,0.0,0.58182204
4,0.0,0.80382264
5,0.0,0.84449834
6,1.0,0.42345747
7,0.0,0.6955241
8,1.0,0.8672814
9,0.0,0.9402847
10,1.0,0.8882514
11,0.0,0.7475271
12,1.0,0.84869
13,0.0,0.50938547
14,0.0,0.8731119
15,1.0,0.4169241
16,1.0,0.5689388
17,1.0,0.5400476
18,1.0,0.54792374
19,1.0,0.534692
20,1.0,0.7036194
21,0.0,0.8198298
22,1.0,0.5417618
23,1.0,0.6953276
24,0.0,0.37424028
25,1.0,0.722564
26,1.0,0.73790205
27,0.0,0.6836269
28,0.0,0.77055866
29,0.0,0.49948174
30,0.0,0.89728594
31,1.0,0.7547309
32,1.0,0.9017189
33,0.0,0.89492834
34,0.0,0.71421677
35,0.0,0.8547182
36,1.0,0.5554182
37,1.0,0.5881369
38,1.0,0.7981941
39,0.0,0.82698214
40,1.0,0.7875449
41,1.0,0.60798144
42,1.0,0.80979943
43,0.0,0.8587554
44,0.0,0.7064068
45,0.0,0.47474536
46,1.0,0.5933956
47,1.0,0.6390154
48,0.0,0.6612408
49,1.0,0.83771294
50,0.0,0.65221614
51,1.0,0.7602394
52,1.0,0.57405704
53,1.0,0.46289647
54,1.0,0.6186729
55,0.0,0.50210124
56,1.0,0.74877375
57,0.0,0.6089893
58,1.0,0.77418023
59,1.0,0.55778307
60,0.0,0.2942402
61,1.0,0.67745423
62,1.0,0.37142992
63,1.0,0.7826517
64,0.0,0.7913019
65,1.0,0.6543133
66,0.0,0.8436637
67,1.0,0.7538906
68,1.0,0.65849847
69,0.0,0.4706695
70,0.0,0.44546172
71,1.0,0.5230139
72,0.0,0.6090031
73,0.0,0.58947027
74,0.0,0.8414105
75,1.0,0.8769588
76,0.0,0.67224115
77,1.0,0.48044246
78,1.0,0.5047747
79,0.0,0.64707065
80,0.0,0.35292011
81,0.0,0.91894895
82,0.0,0.571288
83,1.0,0.5520649
84,1.0,0.6605214
85,0.0,0.8313886
86,1.0,0.4531563
87,0.0,0.37961087
88,0.0,0.9352206
89,1.0,0.8215705
90,0.0,0.59472346
91,1.0,0.59498847
92,0.0,0.79247534
93,1.0,0.7022848
94,0.0,0.39717886
95,0.0,0.4751584
96,0.0,0.74856174
97,1.0,0.45621967
98,0.0,0.5365243
99,1.0,0.6272988
100,0.0,0.5437064
101,0.0,0.49826297
102,0.0,0.5754506
103,1.0,0.6756461
104,1.0,0.44830567
105,0.0,0.4993062
106,1.0,0.5875664
107,1.0,0.6617578
108,1.0,0.5027906
109,1.0,0.6870914
110,1.0,0.72939
111,1.0,0.35388458
112,1.0,0.5485431
113,0.0,0.4158328
114,1.0,0.7562406
115,1.0,0.5927074
116,1.0,0.667055
117,1.0,0.7666674
118,0.0,0.5239708
119,1.0,0.7677657
120,1.0,0.31347972
121,1.0,0.78550094
122,0.0,0.66615397
123,0.0,0.22892034
124,1.0,0.8810175
125,0.0,0.5237881
126,1.0,0.77245784
127,0.0,0.59704494
128,1.0,0.513322
129,1.0,0.6885115
130,1.0,0.5487321
131,0.0,0.7862818
132,1.0,0.27883452
133,0.0,0.7212407
134,0.0,0.58307827
135,0.0,0.68566304
136,1.0,0.80116844
137,0.0,0.46208155
138,1.0,0.83375746
139,0.0,0.69955516
140,1.0,0.66922474
141,0.0,0.60652417
142,1.0,0.6847675
143,0.0,0.78620446
144,1.0,0.65560347
145,1.0,0.7147412
146,1.0,0.72699934
147,1.0,0.6094464
148,1.0,0.61529344
149,0.0,0.6641145
150,0.0,0.8231961
151,1.0,0.8047051
152,0.0,0.4957055
153,1.0,0.6236682
154,0.0,0.40068012
155,0.0,0.41461122
156,1.0,0.5766302
157,1.0,0.5131356
158,1.0,0.8457375
159,1.0,0.7679383
160,0.0,0.40182006
161,1.0,0.38285986
162,0.0,0.553051
163,1.0,0.6221512
164,1.0,0.581452
165,0.0,0.7048368
166,1.0,0.70820516
167,0.0,0.5522855
168,0.0,0.6961374
169,1.0,0.9067174
170,0.0,0.42161995
171,1.0,0.5616461
172,1.0,0.61837536
173,1.0,0.89613026
174,1.0,0.8736578
175,0.0,0.5515146
176,1.0,0.81686676
177,1.0,0.35591525
178,0.0,0.6735346
179,0.0,0.48206112
180,1.0,0.6475709
181,1.0,0.8896921
182,1.0,0.7900834
183,0.0,0.9568034
184,1.0,0.74190587
185,1.0,0.7435371
186,1.0,0.77244467
187,1.0,0.8603915
188,1.0,0.67934406
189,1.0,0.83215725
190,0.0,0.76551706
191,0.0,0.68034774
192,0.0,0.87483597
193,0.0,0.45574608
194,1.0,0.9051702
