,real,predicted
0,1.0,0.99353975
1,0.0,0.99575186
2,1.0,0.97837913
3,0.0,0.9953886
4,0.0,0.92375785
5,0.0,0.9844961
6,1.0,0.97948897
7,0.0,0.7666718
8,1.0,0.99938667
9,0.0,0.99988544
10,1.0,0.9999579
11,0.0,0.8518438
12,1.0,0.97663057
13,0.0,0.9988257
14,0.0,0.99984574
15,1.0,0.6717752
16,1.0,0.9557231
17,1.0,0.95263463
18,1.0,0.64126813
19,1.0,0.77665967
20,1.0,0.9942979
21,0.0,0.95040154
22,1.0,0.5147081
23,1.0,0.9960592
24,0.0,0.9492147
25,1.0,0.9806403
26,1.0,0.99700385
27,0.0,0.9689456
28,0.0,0.9672687
29,0.0,0.98791224
30,0.0,0.9993561
31,1.0,0.97367144
32,1.0,0.9798473
33,0.0,0.99961805
34,0.0,0.9928818
35,0.0,0.8983546
36,1.0,0.9932672
37,1.0,0.7574829
38,1.0,0.99660563
39,0.0,0.9974571
40,1.0,0.99322915
41,1.0,0.97101384
42,1.0,0.93551934
43,0.0,0.9992716
44,0.0,0.9429742
45,0.0,0.94363517
46,1.0,0.85908735
47,1.0,0.5347714
48,0.0,0.94140685
49,1.0,0.9878094
50,0.0,0.9930456
51,1.0,0.9961383
52,1.0,0.98913014
53,1.0,0.6644924
54,1.0,0.99124205
55,0.0,0.99209607
56,1.0,0.90158594
57,0.0,0.9740815
58,1.0,0.990123
59,1.0,0.9715587
60,0.0,0.8998484
61,1.0,0.8919253
62,1.0,0.7477421
63,1.0,0.9941758
64,0.0,0.9957092
65,1.0,0.9888448
66,0.0,0.9979976
67,1.0,0.9980773
68,1.0,0.6610803
69,0.0,0.6063874
70,0.0,0.9264164
71,1.0,0.72130424
72,0.0,0.99527234
73,0.0,0.9025901
74,0.0,0.922252
75,1.0,0.99599445
76,0.0,0.9768858
77,1.0,0.5269947
78,1.0,0.7274286
79,0.0,0.9738401
80,0.0,0.9507545
81,0.0,0.9991698
82,0.0,0.7050078
83,1.0,0.94864094
84,1.0,0.8551751
85,0.0,0.999892
86,1.0,0.889927
87,0.0,0.8127715
88,0.0,0.99998546
89,1.0,0.9951133
90,0.0,0.99995136
91,1.0,0.9463848
92,0.0,0.99722207
93,1.0,0.879202
94,0.0,0.43702197
95,0.0,0.045917135
96,0.0,0.98390365
97,1.0,0.9998388
98,0.0,0.08129452
99,1.0,0.8490323
100,0.0,0.41328812
101,0.0,0.9821842
102,0.0,0.7676203
103,1.0,0.9764364
104,1.0,0.93978727
105,0.0,0.90329814
106,1.0,0.8860651
107,1.0,0.93552774
108,1.0,0.9900733
109,1.0,0.98798335
110,1.0,0.99688655
111,1.0,0.79949266
112,1.0,0.9493839
113,0.0,0.21010432
114,1.0,0.97078425
115,1.0,0.92299056
116,1.0,0.6073061
117,1.0,0.87208587
118,0.0,0.792474
119,1.0,0.97083503
120,1.0,0.94128454
121,1.0,0.9835482
122,0.0,0.9661162
123,0.0,0.33465788
124,1.0,0.9959636
125,0.0,0.60561556
126,1.0,0.9770741
127,0.0,0.98450965
128,1.0,0.99574935
129,1.0,0.8850509
130,1.0,0.9612572
131,0.0,0.99312496
132,1.0,0.90852773
133,0.0,0.9345523
134,0.0,0.96363705
135,0.0,0.94898415
136,1.0,0.9143983
137,0.0,0.22236407
138,1.0,0.99695385
139,0.0,0.99564964
140,1.0,0.98850536
141,0.0,0.9460014
142,1.0,0.9945253
143,0.0,0.99731064
144,1.0,0.9924999
145,1.0,0.9023056
146,1.0,0.9964774
147,1.0,0.9555603
148,1.0,0.7405111
149,0.0,0.8308327
150,0.0,0.994921
151,1.0,0.9655569
152,0.0,0.8849257
153,1.0,0.90651697
154,0.0,0.93538517
155,0.0,0.6295308
156,1.0,0.9983046
157,1.0,0.97156775
158,1.0,0.9994616
159,1.0,0.9946136
160,0.0,0.297916
161,1.0,0.52829134
162,0.0,0.33981782
163,1.0,0.8023144
164,1.0,0.781835
165,0.0,0.4269968
166,1.0,0.6697947
167,0.0,0.99722373
168,0.0,0.99526656
169,1.0,0.9995952
170,0.0,0.99035954
171,1.0,0.94929796
172,1.0,0.99826044
173,1.0,0.99998856
174,1.0,0.9999825
175,0.0,0.9855317
176,1.0,0.56571287
177,1.0,0.99758637
178,0.0,0.99442047
179,0.0,0.85759515
180,1.0,0.8543825
181,1.0,0.99932516
182,1.0,0.98932743
183,0.0,0.99997354
184,1.0,0.9995875
185,1.0,0.99990845
186,1.0,0.98384076
187,1.0,0.99967444
188,1.0,0.9992411
189,1.0,0.9998153
190,0.0,0.9745703
191,0.0,0.9574525
192,0.0,0.999688
193,0.0,0.95046526
194,1.0,0.9997211
