,real,predicted
0,1.0,0.79690003
1,0.0,0.6669516
2,1.0,0.6664398
3,0.0,0.62224257
4,0.0,0.60455614
5,0.0,0.6458688
6,1.0,0.70730025
7,0.0,0.7023177
8,1.0,0.7171688
9,0.0,0.48547184
10,1.0,0.8193069
11,0.0,0.41376838
12,1.0,0.6713368
13,0.0,0.3852123
14,0.0,0.5674754
15,1.0,0.57759583
16,1.0,0.6521578
17,1.0,0.3071754
18,1.0,0.40688467
19,1.0,0.54517967
20,1.0,0.68501616
21,0.0,0.5029724
22,1.0,0.5689318
23,1.0,0.6572234
24,0.0,0.40350193
25,1.0,0.71761364
26,1.0,0.72656924
27,0.0,0.66771007
28,0.0,0.66011333
29,0.0,0.69114304
30,0.0,0.8409389
31,1.0,0.5843482
32,1.0,0.5891411
33,0.0,0.71110046
34,0.0,0.32269844
35,0.0,0.5947299
36,1.0,0.6545498
37,1.0,0.59094054
38,1.0,0.6943529
39,0.0,0.6771566
40,1.0,0.5897475
41,1.0,0.50957286
42,1.0,0.55951005
43,0.0,0.4500721
44,0.0,0.6731142
45,0.0,0.6439567
46,1.0,0.5287441
47,1.0,0.44097206
48,0.0,0.5073058
49,1.0,0.5559666
50,0.0,0.7231542
51,1.0,0.60724777
52,1.0,0.648936
53,1.0,0.45485845
54,1.0,0.7256304
55,0.0,0.47863716
56,1.0,0.67590725
57,0.0,0.54610604
58,1.0,0.52284527
59,1.0,0.665666
60,0.0,0.54888684
61,1.0,0.6207825
62,1.0,0.60843116
63,1.0,0.5951151
64,0.0,0.7316736
65,1.0,0.538608
66,0.0,0.83728963
67,1.0,0.5411923
68,1.0,0.6014585
69,0.0,0.83626753
70,0.0,0.4710055
71,1.0,0.6779475
72,0.0,0.7116734
73,0.0,0.44397572
74,0.0,0.5108234
75,1.0,0.79677296
76,0.0,0.44614697
77,1.0,0.43207464
78,1.0,0.5674378
79,0.0,0.479326
80,0.0,0.3619038
81,0.0,0.81253886
82,0.0,0.6630645
83,1.0,0.6512582
84,1.0,0.5264365
85,0.0,0.74604416
86,1.0,0.44494638
87,0.0,0.6937267
88,0.0,0.7309571
89,1.0,0.5656612
90,0.0,0.7446334
91,1.0,0.68404406
92,0.0,0.32091326
93,1.0,0.53914654
94,0.0,0.50873536
95,0.0,0.47126248
96,0.0,0.779924
97,1.0,0.5897891
98,0.0,0.3986904
99,1.0,0.6599027
100,0.0,0.42672524
101,0.0,0.6191003
102,0.0,0.5035212
103,1.0,0.7172282
104,1.0,0.62165964
105,0.0,0.57511383
106,1.0,0.56221783
107,1.0,0.721701
108,1.0,0.4110768
109,1.0,0.54753315
110,1.0,0.7330847
111,1.0,0.5095428
112,1.0,0.53912485
113,0.0,0.45144984
114,1.0,0.6967769
115,1.0,0.5035875
116,1.0,0.5649128
117,1.0,0.5188768
118,0.0,0.46127748
119,1.0,0.57832694
120,1.0,0.6599412
121,1.0,0.68792707
122,0.0,0.7690539
123,0.0,0.42702818
124,1.0,0.8531693
125,0.0,0.5488682
126,1.0,0.43394473
127,0.0,0.70817745
128,1.0,0.5477273
129,1.0,0.6785293
130,1.0,0.47977442
131,0.0,0.7487342
132,1.0,0.5102001
133,0.0,0.6472985
134,0.0,0.6264676
135,0.0,0.35367477
136,1.0,0.7869154
137,0.0,0.55320376
138,1.0,0.5765635
139,0.0,0.6176329
140,1.0,0.6020622
141,0.0,0.5074274
142,1.0,0.6410853
143,0.0,0.71338624
144,1.0,0.75319886
145,1.0,0.6175749
146,1.0,0.6798131
147,1.0,0.37785116
148,1.0,0.62835646
149,0.0,0.43158367
150,0.0,0.81648743
151,1.0,0.41350162
152,0.0,0.7043779
153,1.0,0.71435255
154,0.0,0.56135774
155,0.0,0.61146796
156,1.0,0.6166995
157,1.0,0.52251166
158,1.0,0.56191534
159,1.0,0.664061
160,0.0,0.46894872
161,1.0,0.48717502
162,0.0,0.5585527
163,1.0,0.55485785
164,1.0,0.7472886
165,0.0,0.3493388
166,1.0,0.5551591
167,0.0,0.7240822
168,0.0,0.5313572
169,1.0,0.7548524
170,0.0,0.52381706
171,1.0,0.7617895
172,1.0,0.6200042
173,1.0,0.70390445
174,1.0,0.7990596
175,0.0,0.3836864
176,1.0,0.71693444
177,1.0,0.4917033
178,0.0,0.36536318
179,0.0,0.6738483
180,1.0,0.63509625
181,1.0,0.7457158
182,1.0,0.61843956
183,0.0,0.674438
184,1.0,0.73255384
185,1.0,0.5800039
186,1.0,0.7110517
187,1.0,0.74795586
188,1.0,0.6276512
189,1.0,0.68643314
190,0.0,0.6517037
191,0.0,0.6005404
192,0.0,0.6972835
193,0.0,0.4462107
194,1.0,0.71947414
