,real,predicted
0,1.0,0.5076742
1,0.0,0.5105309
2,1.0,0.51194966
3,0.0,0.5107144
4,0.0,0.5106725
5,0.0,0.51408905
6,1.0,0.512241
7,0.0,0.5129943
8,1.0,0.50320417
9,0.0,0.5058964
10,1.0,0.5062129
11,0.0,0.5110316
12,1.0,0.5081599
13,0.0,0.5092323
14,0.0,0.50839716
15,1.0,0.50837094
16,1.0,0.5057897
17,1.0,0.5078969
18,1.0,0.5022977
19,1.0,0.50387067
20,1.0,0.50136006
21,0.0,0.5032927
22,1.0,0.5049506
23,1.0,0.5044577
24,0.0,0.5069695
25,1.0,0.5096141
26,1.0,0.50867087
27,0.0,0.5085962
28,0.0,0.5098851
29,0.0,0.51012766
30,0.0,0.5066365
31,1.0,0.49840912
32,1.0,0.5005774
33,0.0,0.49901807
34,0.0,0.49758223
35,0.0,0.50469726
36,1.0,0.5026327
37,1.0,0.5039505
38,1.0,0.50726706
39,0.0,0.5071062
40,1.0,0.50822556
41,1.0,0.5082587
42,1.0,0.5068343
43,0.0,0.50555193
44,0.0,0.50468373
45,0.0,0.5006669
46,1.0,0.5018027
47,1.0,0.50096977
48,0.0,0.5002402
49,1.0,0.50035775
50,0.0,0.49963266
51,1.0,0.50178593
52,1.0,0.50270665
53,1.0,0.5034418
54,1.0,0.50315094
55,0.0,0.50567454
56,1.0,0.5080128
57,0.0,0.5094895
58,1.0,0.51005805
59,1.0,0.5093754
60,0.0,0.5085131
61,1.0,0.50835884
62,1.0,0.50369483
63,1.0,0.5046933
64,0.0,0.5004106
65,1.0,0.5010876
66,0.0,0.49904996
67,1.0,0.50233185
68,1.0,0.50259423
69,0.0,0.5008076
70,0.0,0.5004236
71,1.0,0.5021393
72,0.0,0.5015175
73,0.0,0.4998574
74,0.0,0.49901307
75,1.0,0.4987808
76,0.0,0.49899852
77,1.0,0.4997622
78,1.0,0.50100094
79,0.0,0.5006085
80,0.0,0.50297105
81,0.0,0.50349534
82,0.0,0.5061347
83,1.0,0.50665987
84,1.0,0.5061695
85,0.0,0.5124977
86,1.0,0.51478255
87,0.0,0.5146747
88,0.0,0.5124219
89,1.0,0.5100735
90,0.0,0.5099898
91,1.0,0.5077648
92,0.0,0.5042267
93,1.0,0.50287527
94,0.0,0.50302505
95,0.0,0.50327665
96,0.0,0.5027211
97,1.0,0.50021565
98,0.0,0.50171864
99,1.0,0.50045097
100,0.0,0.49990726
101,0.0,0.4995889
102,0.0,0.50147045
103,1.0,0.5025327
104,1.0,0.502825
105,0.0,0.50282866
106,1.0,0.5036855
107,1.0,0.5030273
108,1.0,0.5035896
109,1.0,0.50438416
110,1.0,0.5031226
111,1.0,0.5035572
112,1.0,0.5037047
113,0.0,0.50602764
114,1.0,0.5049018
115,1.0,0.5031465
116,1.0,0.50429296
117,1.0,0.5052537
118,0.0,0.50532645
119,1.0,0.5063312
120,1.0,0.5048214
121,1.0,0.5056606
122,0.0,0.50485975
123,0.0,0.5036629
124,1.0,0.5026718
125,0.0,0.4995236
126,1.0,0.5014124
127,0.0,0.49966064
128,1.0,0.5005391
129,1.0,0.4988022
130,1.0,0.50274503
131,0.0,0.50421846
132,1.0,0.50144327
133,0.0,0.50379217
134,0.0,0.5042971
135,0.0,0.50469
136,1.0,0.50335115
137,0.0,0.4985911
138,1.0,0.50409037
139,0.0,0.5055035
140,1.0,0.503374
141,0.0,0.50435585
142,1.0,0.5070707
143,0.0,0.5044771
144,1.0,0.5042919
145,1.0,0.5036827
146,1.0,0.50203633
147,1.0,0.5041723
148,1.0,0.5033362
149,0.0,0.5059618
150,0.0,0.5061505
151,1.0,0.5094049
152,0.0,0.50725067
153,1.0,0.5107994
154,0.0,0.5086957
155,0.0,0.50757265
156,1.0,0.50378746
157,1.0,0.50368017
158,1.0,0.50427365
159,1.0,0.50340366
160,0.0,0.50154793
161,1.0,0.5009749
162,0.0,0.5028287
163,1.0,0.5042458
164,1.0,0.5023631
165,0.0,0.5031407
166,1.0,0.50249445
167,0.0,0.50246793
168,0.0,0.50597316
169,1.0,0.5097536
170,0.0,0.50733113
171,1.0,0.5092558
172,1.0,0.5110853
173,1.0,0.511622
174,1.0,0.51046
175,0.0,0.5082228
176,1.0,0.50815314
177,1.0,0.50626194
178,0.0,0.50707436
179,0.0,0.5056139
180,1.0,0.5084584
181,1.0,0.5066138
182,1.0,0.50934684
183,0.0,0.5101077
184,1.0,0.51171744
185,1.0,0.508229
186,1.0,0.5105713
187,1.0,0.51118827
188,1.0,0.509971
189,1.0,0.5080464
190,0.0,0.5096606
191,0.0,0.51163703
192,0.0,0.50847775
193,0.0,0.50663483
194,1.0,0.506097
