,real,predicted
0,1.0,0.47427499294281
1,1.0,0.4850794076919555
2,0.0,0.4728807210922241
3,1.0,0.5084323287010193
4,1.0,0.4977617859840393
5,0.0,0.5511770844459534
6,1.0,0.5136797428131104
7,0.0,0.5155586004257202
8,0.0,0.5222933888435364
9,1.0,0.4920931160449981
10,0.0,0.4936689734458923
11,0.0,0.5361202955245972
12,0.0,0.4696425199508667
13,1.0,0.4643110930919647
14,1.0,0.5375266671180725
15,0.0,0.4787710607051849
16,1.0,0.3936254978179931
17,1.0,0.5107354521751404
18,1.0,0.4913060665130615
19,1.0,0.4930818974971771
20,0.0,0.4809498488903045
21,1.0,0.6042945384979248
22,0.0,0.5079473853111267
23,1.0,0.5341811776161194
24,1.0,0.5151503086090088
25,0.0,0.4739088714122772
26,1.0,0.4618664085865021
27,0.0,0.4804396033287048
28,0.0,0.5016956925392151
29,1.0,0.5282905101776123
30,1.0,0.4777812361717224
31,0.0,0.5140025019645691
32,0.0,0.4819832444190979
33,1.0,0.5156776309013367
34,1.0,0.4747783541679382
35,1.0,0.4946516752243042
36,1.0,0.5524094700813293
37,0.0,0.4634015560150146
38,0.0,0.4658188223838806
39,0.0,0.5255934000015259
40,0.0,0.5311496257781982
41,1.0,0.4877307415008545
42,1.0,0.4571081697940826
43,1.0,0.4357506036758423
44,0.0,0.5478999018669128
45,1.0,0.5772708654403687
46,1.0,0.4275283515453338
47,0.0,0.5314319133758545
48,1.0,0.6015095710754395
49,1.0,0.4520987868309021
50,0.0,0.5157665014266968
51,0.0,0.5625710487365723
52,1.0,0.5517052412033081
53,0.0,0.5081189870834351
54,0.0,0.4603071510791778
55,1.0,0.4967037439346313
56,1.0,0.4509252905845642
57,0.0,0.4558901190757751
58,1.0,0.4112835228443146
59,1.0,0.5038454532623291
60,1.0,0.4595448076725006
61,1.0,0.4785404205322265
62,1.0,0.4995341598987579
63,0.0,0.5307860970497131
64,0.0,0.5201270580291748
65,1.0,0.5210758447647095
66,0.0,0.5715100169181824
67,1.0,0.5385684370994568
68,1.0,0.4525028467178345
69,1.0,0.4638631939888
70,1.0,0.5002138018608093
71,1.0,0.4109434783458709
72,1.0,0.5229941606521606
73,1.0,0.4596192836761474
74,0.0,0.4617084562778473
75,0.0,0.501789927482605
76,1.0,0.4498932063579559
77,1.0,0.4768425226211548
78,1.0,0.3587882220745086
79,1.0,0.4918208122253418
80,1.0,0.519891083240509
81,1.0,0.5310428738594055
82,0.0,0.5657871961593628
83,1.0,0.460761547088623
84,0.0,0.558560848236084
85,0.0,0.4815804362297058
86,0.0,0.5050531625747681
87,1.0,0.4796468913555145
88,1.0,0.4618670046329498
89,0.0,0.4694958329200744
90,1.0,0.4420342743396759
91,0.0,0.4959960877895355
92,1.0,0.5438655018806458
93,1.0,0.4888007044792175
94,1.0,0.5150358080863953
95,0.0,0.5944339036941528
96,1.0,0.5065841674804688
97,0.0,0.453019231557846
98,1.0,0.4868958592414856
99,0.0,0.4816866815090179
100,1.0,0.4645589590072632
101,0.0,0.4944507479667663
102,1.0,0.5347394943237305
103,1.0,0.3978687822818756
104,0.0,0.5158236026763916
105,0.0,0.4671264886856079
106,1.0,0.545943558216095
107,1.0,0.5492612719535828
108,1.0,0.4520589411258697
109,0.0,0.4657830893993377
110,1.0,0.4990729093551636
111,0.0,0.4551889598369598
112,0.0,0.4383866190910339
113,1.0,0.4960074424743652
114,1.0,0.3907476961612701
115,0.0,0.5233466029167175
116,1.0,0.4996238350868225
117,1.0,0.4612807035446167
118,0.0,0.5791334509849548
119,0.0,0.4694462418556213
120,0.0,0.5049392580986023
121,1.0,0.4925633370876312
122,1.0,0.4829578995704651
123,1.0,0.4479353129863739
124,1.0,0.4958113133907318
125,0.0,0.4826333522796631
126,1.0,0.4891688525676727
127,0.0,0.5204973220825195
128,0.0,0.5354174971580505
129,1.0,0.5006850957870483
130,0.0,0.4678383469581604
131,0.0,0.4743940234184265
132,1.0,0.4197113215923309
133,0.0,0.3937497138977051
134,1.0,0.5375438928604126
135,0.0,0.4181423485279083
136,1.0,0.4879771769046783
137,0.0,0.4882532060146332
138,0.0,0.5048470497131348
139,1.0,0.5245440006256104
140,1.0,0.4569492638111114
141,1.0,0.42402383685112
142,1.0,0.420037180185318
143,0.0,0.5294497609138489
144,1.0,0.547423243522644
145,0.0,0.4710622131824493
146,1.0,0.532217800617218
147,0.0,0.4758965671062469
148,0.0,0.4739661812782287
149,1.0,0.5654383301734924
150,1.0,0.474992573261261
151,0.0,0.414867490530014
152,1.0,0.5710235834121704
153,0.0,0.5173080563545227
154,0.0,0.4864458441734314
155,0.0,0.5251317024230957
156,0.0,0.5237188339233398
157,0.0,0.4992900490760803
158,1.0,0.481279194355011
159,1.0,0.3925328254699707
160,1.0,0.5023292303085327
161,0.0,0.4708365201950073
162,1.0,0.520683765411377
163,1.0,0.5021944046020508
164,1.0,0.4899398982524872
165,1.0,0.497701346874237
166,1.0,0.4664832651615143
167,0.0,0.5284705758094788
168,1.0,0.4828481674194336
169,1.0,0.5294421911239624
170,1.0,0.5638904571533203
171,0.0,0.46187424659729
172,1.0,0.5265817046165466
173,0.0,0.4727091193199157
174,1.0,0.4761032462120056
175,1.0,0.487016886472702
176,0.0,0.5643025636672974
177,1.0,0.5064904093742371
178,1.0,0.5014545321464539
179,1.0,0.5135076642036438
180,0.0,0.4647838771343231
181,0.0,0.4975330233573913
182,0.0,0.5402395725250244
183,0.0,0.5081738233566284
184,1.0,0.4993764758110046
185,1.0,0.4246284365653991
186,1.0,0.4685661792755127
187,0.0,0.4818576574325561
188,0.0,0.4887593984603882
189,1.0,0.5022837519645691
190,1.0,0.4962248802185058
191,1.0,0.4257773756980896
192,1.0,0.5412842631340027
193,1.0,0.4669343531131744
194,1.0,0.4964827299118042
