,user,text,likes,retweets,replies,is_thread
0,yyuvane albert@yyuvane,Lets discuss about #ETHEREUM #Money2020EuropeJoin group chat on Telegramtelegram.me,1,0,0,False
1,Patrizio Stavola@halovast,"The #Blockchain Wars: How Startups & Enterprises Are Competing To Create The Web 2.0 #ethereum #hyperledger #bitcoinThe Blockchain Wars: How Startups And Enterprises Are Competing To Create The Web 2.0Instead of one trusted central entity, like the Federal Reserve, the federation of blockchain users are the distributed trusted authority.forbes.com",3,0,0,False
2,Last is me!@thelastisme,"We are excited to announce the launch of the ""Last is me"" lottery! http://lastis.me #Ethereum #ProvablyFair #TimeBased",6,4,1,False
3,5 Star General@5StarStocks,"""positive cash flow, a strong balance sheet, and no direct competitors.""
http://seekingalpha.com/article/3964153-takung-art-company-profitable-growing-monopoly-trading-radar… $SLVP $LORL $VGM $CVGW $JOE $DBB $AIMC $ETHTakung Art Company: Profitable Growing Monopoly Trading Under The Radar (NYSEMKT:TKAT)Takung Art Company has an interesting high margin business model. It has positive cash flow, a strong balance sheet, and no direct competitors.seekingalpha.com",3,1,0,False
4,Bitcoin Info@CloudMiningInfo,Cloud mining with a registered company.20%Promo https://hashflare.io/r/CCFEE999-HF16BDAY20… #blockchain #ethereum #cryptocurrency #Cloud,1,0,0,False
5,Aleksandr Zykov@jTeego,EthereumWall: Decentralized and open public message board built on the #Ethereum Blockchain http://goo.gl/tu2z6m,1,0,0,False
6,LiTMAS@LiTMASme,#Ethereum : the competitor to Bitcoin which could transform entire industries http://ow.ly/10Ebib,3,0,0,False
7,Gusaru@_gusaru_,"Transactive Grid : The Power Grid of the People, by the People - NEWSBTC http://newsbtc.com/2016/04/11/transactive-grid-power-by-for-people/… #blockchain #ethereum #startupTransactive Grid : The Power Grid of the People, by the PeopleTransactive Grid empowers and encourages people to produce and share renewable energy, for a cleaner environment and money. Read more...newsbtc.com",1,0,0,False
8,ALΞCO@a_l_e_c_o,"Transaction #bitcoin for buy #cryptocurrency #token #Waves from ICO #wavesplatform can see #ethereum #SmartContract
https://wavesplatform.com/contract_info",2,0,0,False
9,Joel Kotarski@joelkotarski,Good short video (~3 mins) on What is Proof of Work / Proof of Stake for #blockchain #ethereum #bitcoin #fintechWhat is Proof of Work / Proof of StakeStart trading Bitcoin and cryptocurrency here: http://bit.ly/2Vptr2XThis short video explains the concepts of Proof of Work (POW) and Proof of Stake (POS) in...youtube.com,0,0,0,False
10,Local Crypto@LocalCrypto,"The first #Ethereum meetup in Ireland, happening in our office in Cork City. Learn how to use smart contracts http://meetup.com/Cork-Ethereum-Meetup/events/230370454/…",1,0,0,False
11,Gergo Bakos@znurgl,"Reinventing the Retail Energy Market in the UK - Paul Ellis, Electron & Toby Proctor https://youtu.be/jJ-NCSFbYFo #ethereum #blockchain",0,0,0,False
12,lestherat  @lestherat,"#DES Destiny Coin 1.6 mo coins, First Smart Contract Asset over Expanse chain, cap mark only 100k usd, buy @BittrexExchange #BTC #LTC #ETH",0,0,0,False
13,TweetETH@tweetETHinfo,"Ambassador Abdulaziz, Head of African Studies PORAD debating at yesterdays Seminar. #MoFA #PORAD #Eth @TafereDeju",1,1,0,False
14,Charles Douthat@creiddouthat,@Jaxx_io by @Kryptokit adds HD support to #Ethereum ecosystem. Available in their new #Jaxx $BTC / $ETH Wallet. https://m.reddit.com/r/ethereum/comments/4e1hfh/jaxx_by_kryptokit_adds_hd_support_to_ethereum/…,1,0,0,False
15,OpenLedger@OpenLedgerDC,#BTS 2.0 #OpenLedger warm-up to launch with #DGD presale via #CCEDK acount #digixdao https://bitcointalk.org/index.php?topic=1437366.msg14541487#msg14541487… #ethereum #BitShares #OBITS,2,0,0,False
16,Vindyne8@Vindyne8,#Radium is available on @amazon Cloud! — Project Radium $rads #fintech #btc #eth #bts @CryptoOz #RT,4,1,0,False
17,Cryptocoin Faucets@ccfaucets,ETH - New Ethereum faucet! Get up to 0.08888880 Ether every 30 minutes. http://bit.ly/20E1j5F #eth #ethereum #etherfaucet,0,0,0,False
18,fintechfolk@fintechfolk,Thanks @Kme0000 for registering for FinTechFolk - http://zpr.io/Mnfj #fintech #ethereum #bitcoin #blockchain,2,1,0,False
19,bitwagePaolo@NatSecCyberWonk,"UK #Regulators Declare Start of ""Beautiful Friendship"" With #Bitcoin #Ethereum http://cointelegraph.com/news/uk-regulators-declare-start-of-beautiful-friendship-with-bitcoin-ethereum?ref=432… #aml #compliance #fintech #BlockchainUK Regulators Declare Start of ""Beautiful Friendship"" With Bitcoin, EthereumRepresentatives of UK regulators announce a regulatory sandbox for fintech companies, including regulation waivers.cointelegraph.com",1,0,0,False
20,Fintech news@currencies111,"CEX.IO Bitcoin Exchange Launches Ethereum Trading
http://newsbtc.com/2016/04/14/cex-io-bitcoin-exchange-launches-ethereum-trading/…
#Btc #ethereum #altcoin",2,0,0,False
21,Patrizio Stavola@halovast,“One of the questions that often comes up in discussions about #Ethereum is how to earn money with developing dapps” https://blog.slock.it/blockchain-businesses-and-self-improving-daos-e1510efe82de#.swt9wvie4…,6,5,0,False
22,iCE3 Exchange @ICE3X,CEX.IO Adds Ethereum Trading as Ether Price Falls Below $8 http://financemagnates.com/cryptocurrency/trading/cex-io-launches-ethereum-trading-ether-falls-8/… #ICE3X #bitcoin #ethereum #price,1,0,0,False
23,Ethereum UAE@Ethereum_UAE,"Money 20/20 Highlights: Blythe Masters, Blockchain Innovation http://ift.tt/1Nbg7q2 #Ethereum",2,0,0,False
24,@fyrstikken@fyrstikken,All #Traders welcome to #SmokeBreak every day at 4:20 AM/PM #NewYork Time. #Lisk #Ethereum http://connect.stakepool.com,6,3,1,False
25,Igor Lilic ∞@ililic,https://github.com/BSDStudios/ethr - EthR An #Ethereum package for R - Check out what it can do: https://youtube.com/watch?v=jJ-NCSFbYFo…BSDStudios/ethrAn Ethereum package for R. Contribute to BSDStudios/ethr development by creating an account on GitHub.github.com,5,6,0,False
26,Ξ Fly Guy Ξ (flyguy.eth)@FlyGuyInTheSky,#Ethereum back above 0.02000 with a 15% gain for day. Chart looking a bit healthier.,1,0,0,False
27,Joshua  Bloom@profjsb,"Coming era of the decentralized stack with #blockchain, #ipfs, #ethereum
http://blogs.lse.ac.uk/businessreview/2016/04/14/blockchain-will-usher-in-the-era-of-decentralised-computing/…",5,1,0,False
28,ΞTHΞЯΞUM ÐΞV NΞWS ⟠@Eth_Dev_News,BBT @BitsBeTrippin #Ether R9 280x Toxic fastest 6x 280x rig to date at 134+ m/h 1160 core/1875mem #gamedev #ethereumFrom Bitsbetrippin,1,2,0,False
29,fav@btsfav,"Buy #Ethereum with FIAT (SEPA, OKpay, Skrill and more) ► http://favd.xyz/23wxZn3",3,0,0,False
30,Andrew Quentson@Aquentson,"Calls Intensify to Update US Fintech Regulations as London Races Ahead #fintech #bitcoin #blockchain #ethereumUS Comptroller of the Currency Calls for Innovative Regulations on...Comptroller of the Currency Thomas J. Curry, who heads an independent department in charge of supervising all U.S. national banks, stated in a speechbitcoinmagazine.com",1,0,0,False
31,creme.ai@creme_ai,"UK Regulators Declare Start of ""Beautiful Friendship"" With #Bitcoin, #Ethereum http://cointelegraph.com/news/uk-regulators-declare-start-of-beautiful-friendship-with-bitcoin-ethereum…",2,0,0,False
32,Zeth Couceiro@Zeth_Plexus,"Kraken Gains Series B Investment, Pushes #Bitcoin Services & #Ethereum in Japan - #Bitcoin #Cryptocurrency #funding https://cryptocoinsnews.com/kraken-series-b-bitcoin-ethereum-japan/…",1,0,0,False
33,CryptoPromotions@CoinPromo,Missed The Boat $XMR $ETH? Checkout #Transfercoin https://bitcointalk.org/index.php?topic=1203975.0… #Android #DarkSend #CrossSend #Rokos $TX,1,1,0,False
34,Vindyne8@Vindyne8,Check out the $Bios #BiosCrypto new website: http://bioscrypto.com #fintech #btc #eth @BitcoinGarden @CryptoOz #RT,18,13,0,False
35,Distributed@DistLedger,"This week: @Microsoft Gets Serious About #Blockchain Tech, Including #Ethereum https://godistributed.com/articles/microsoft-gets-serious-about-blockchain-tech-including-ethereum/…",6,3,0,False
36,Rajan Trivedi@RajanTrivedi,"@cdixon: #Ethereum has open software, more developers, & no creators fleeing. I bet the regulators are hellaconfusedGIF",1,0,0,False
37,ALTIS@AltisInvest,#Ethereum price The short-term upward trend is actually a rebound toward the medium-term downward dynamics #EtherEthereum (ETH) Price Trends: 4/14/2016Ethereum’s price is currently in a rebound towards the downward trend. How deep will this rebound be?cointelegraph.com,1,0,0,False
38,Kishore Seshagiri@seshak,Has anyone tried getting a value from a smart contract to b displayed in a node JS Ui?It works with #ethereum wallet but not with custom UI,1,0,0,False
39,Cognizant Quick Left@quickleft,We engaged with Nexus and @MakerDAO on an #Ethereum code review. See what we found... http://qlt.cc/1S6d5FV,1,2,0,False
40,Bob Summerwill@BobSummerwill,"We have a new Ethereum development tool :-)
""Ethereum Studio"", from @CampEther, by @mandeleil and friends! https://reddit.com/r/ethereum/comments/4erik4/new_ethereum_studio_is_ready_for_you/…
#ethereum[New] Ethereum Studio is ready for youPosted in r/ethereum by u/romanmandeleil • 102 points and 69 commentsreddit.com",12,9,0,False
41,BACKFEED@Backfeed_cc,"5 things you should know about the #blockchain
http://cio.com/article/3053942/5-things-you-should-know-about-the-blockchain.html…
#ethereum #bitcoin",1,3,0,False
42,Bob Summerwill@BobSummerwill,"FANTASTIC Ethereum slides from @peter_szilagyi inspired by @leashless:
https://ethereum.karalabe.com/talks/2016-hinta-en.html#1…
#ethereum",13,6,3,False
43,"Mr. Jeff Cliff, BSc@jeffcliff1",@TheRockTrading Thanks for accepting #ethereum ...as soon as I figure out how to send it to you it's probably yours,2,0,0,False
44,fav@btsfav,Enter for a Chance to win 1 #Ether ─ http://favd.xyz/1T5wfsv #Ethereum,1,0,0,False
45,rssbtc.com@rssbtc,"Ethereum Market Cap Moved by Greed, Reason and Escape from Bitcoin -  http://bit.ly/1XxIBee
#tech #finance #ethereum",2,1,0,False
46,sekisan@sekisan,#Ethereum : the competitor to Bitcoin which could transform entire industries http://ow.ly/10Ebkp,0,0,0,False
47,Jean-Pierre Buntinx@jdebunt,Learn Smart Contracts in 8 weeks with Ethereum Stream Course https://news.bitcoin.com/learn-8-weeks-ethereum-stream-course/… #ethereum #exosphere #developer #coding #news,2,0,0,False
48,Vindyne8@Vindyne8,#BiosCrypto RoadMap Check $bios out https://bitcointalk.org/index.php?topic=1406700.0… #fintech #btc #eth #RT https://pic.twitter.com/LTgjXbzcLn,13,14,0,False
49,creme.ai@creme_ai,"""We're in the business of making money, not choosing ideologies."" #ether #Bitcoin https://itunes.apple.com/de/podcast/podcast-bitcoin-knowledge/id301670981?l=en&mt=2#episodeGuid=http%3A%2F%2Fwww.bitcoin.kn%2F%3Fp%3D1697…",2,0,0,False
50,Fintech news@currencies111,"UK Regulators Declare Start of ""Beautiful Friendship"" With Bitcoin, Ethereum
http://cointelegraph.com/news/uk-regulators-declare-start-of-beautiful-friendship-with-bitcoin-ethereum?ref=6145…
#ethereum #UK #Bitcoin",1,0,0,False
51,Péter Szilágyi@peter_szilagyi,"As promised, the English version of my #Ethereum 101 slides from the Babes-Bolyai University's #CS camp. Njoy ;) https://ethereum.karalabe.com/talks/2016-hinta-en.html…",34,20,1,False
52,ConsenSys@Consensys,An interesting discussion addressing  #energy on #blockchain #future #ethereum http://buff.ly/1SDK9z6,6,5,0,False
53,AGRAMZ THE PEOPLES HOST@LL_COOL_GRAMZ,@h1ghdef dis shit grew on me Lil bro this #Ether record  @ Jacksonville Fl 32218 https://instagram.com/p/BELWPCYEHQK/,0,0,0,False
54,BitWaRRior@bitwarriorX,"Replying to @JonathanCohenj@altcoinplayer If people starts treating #ETH as the new #LTC, does it not follows that as #BTC goes up, #ETH should also raise in value?",1,0,0,False
55,FrankSchuil@FrankSchuil,ETH/BTC is becoming a standard trading pair on exchanges. Irreversible trend http://virtual-strategy.com/2016/04/13/cexio-bitcoin-exchange-launches-ether-trading-adds-ethbtc-and-ethusd-pairs#axzz45mID6URe… Disclosure: long #ETH @ethereumproject,4,2,0,False
56,Rithy Thul@rithythul,"Retweeted Tosch (@ToschDev):

Independent Crowdfundings are on the rise. #Ethereum #5, #Lisk #15 and #Augur #22... http://fb.me/7V6Yt4GBV",1,0,0,False
57,Wayne Vaughan@WayneVaughan,".@krakenfx CEO "" Today we're more of an #Ethereum exchange than a #Bitcoin exchange"" Interview with @TraceMayer. http://bitcoin.kn/2016/04/kraken-ceo-jesse-powell-largest-bitcoin-exchange/…",4,1,0,False
58,ethereum.network@EthereumNetw,"Actually calculating US taxes for #Ethereum and #Bitcoin
http://bitcoinist.net/bitcoin-and-taxes-2016/…",2,1,0,False
59,creme.ai@creme_ai,"Now and then ;) #etherQuote TweetH&HN@hhnmag · Apr 14, 2016In the 1930s, #ether was considered the safest #anesthetic: http://ow.ly/10F0TF #TBT #ThrowbackThursday",1,1,0,False
60,Brave New Coin@bravenewcoin,"#Ethereum price; $8.76 USD up 18% in 24hrs, See the 90 day chart > http://ow.ly/10EiSN",1,0,0,False
61,Fintech news@currencies111,"Ethereum Market Cap Moved by Greed, Reason and Escape from Bitcoin
http://cointelegraph.com/news/ethereum-market-cap-moved-by-greed-reason-and-escape-from-bitcoin?ref=6145…
#ethereum #altcoin #cryptocurrencyEthereum Market Cap Moved by Greed, Reason and Escape from BitcoinEthereum capitalisation has been catalysed by developmental factors, intrinsic value, speculation and human nature, experts say.cointelegraph.com",1,0,0,False
62,nexussquared@nexussquared,"@GasteigerZRH and @nexussquared now @FinTechNL! Come and join us there! #blockchain #fintech #Bitcoin #ethereumQuote Tweet𝘈𝘯𝘥𝘳𝘦𝘪 𝘔𝘢𝘳𝘵𝘤𝘩𝘰𝘶𝘬@martchouk · Apr 14, 2016.@GasteigerZRH from @nexussquared on blockchain stage.",2,1,0,False
63,Bitcoin@bitcoinpoet,"Will Create Dapp/Smart Contracts For You: Hello, I work with a programmer who has experience with se... http://bit.ly/1SD1Oqx #ethereum",1,1,0,False
64,Pelle Brændgaard (we are hiring)@PelleB,A great way to start #Ethereum smart contract development: Ethereum Studio is ready for you http://buff.ly/1Vs86Ae,1,1,0,False
65,Marc De Mesel@MarcDeMesel,Lowered My Exposure to NXT: https://youtu.be/H-2sxs2VYH4 $NXT #NXT #Dashpay #cryptocurrency #altcoins #bitcoin #Ethereum #Litecoin #PeercoinLowered My Exposure to NXTyoutube.com,2,1,2,False
66,Nopie BlackjinCrypto@Blackjincrypto,"Multicurrency Cryptowallet with built-in instant exchange
https://goo.gl/dvLCfz
#bitcoin $BTC $DOGE $NMC $PPC $VRC #cryptocurrency $ETH",1,1,0,False
67,Brave New Coin@bravenewcoin,Our new relationship with Money Partners Group is a huge win for #Bitcoin and #Ethereum http://ow.ly/10E3TY,1,2,0,False
69,notsofast@notsofast,Oh nice my order filled. Short $ETH at 2.0444M sats.,4,1,0,False
70,Michael Yuhn@mikeyuhn,"@waves takes on permissioned #BlockChains @wesleyyuhn1 @Finextra #BaaS, #EBaaS, #Ethereum, #BaaP, #BusinessProcessQuote TweetFINTECHNA@fintechna · Apr 14, 2016WAVES raises $2m in 24 hours in bid to take on permissioned blockchains: WAVES open blockchain raised... http://binged.it/1qUeBz6 #fintech",1,0,0,False
71,CryproTrap@CryptoTrap,"•Copy/Paste $ETH code
•Change the name
•Premine it 
•Post ICO ANN on BCT
•Go to bed
•Wake up with at least a million dollars",20,7,3,False
72,ethereum.network@EthereumNetw,"Lots of #Ethereum fellows in the top 100 #blockchain influencers list 250 top blockchain influencers on Twitter - Jay PalterWe may look back on 2016 as the year of the blockchain. Whether or not that comes to be, the …jaypalter.ca",1,2,0,False
73,NEWSBTC@newsbtc,"CEX.IO #Bitcoin exchange launched #trading Ethers,#currency used by  #Ethereum decentralised http://newsbtc.com/2016/04/14/cex-io-bitcoin-exchange-launches-ethereum-trading/…",1,0,0,False
74,Gnosis@gnosisPM,"#Bitcoin price on 5/15? http://bit.ly/1SOjBvp
Test your skills in our #ethereum #PredictionMarket!",1,1,1,False
75,Paul Elosegui@paule,"Reality check for #ethereum ""smart-contracts are simply one method for restricting the transactions performed in a database"" @CoinSciences",1,0,0,False
76,Ali Güçlü@aliguclu,"CoinTelegraph : #Ethereum Market Cap Moved by Greed, Reason and Escape from #Bitcoin … https://twitter.com/CoinTelegraph/status/720630092758720516…)Quote TweetCointelegraph@Cointelegraph · Apr 14, 2016#Ethereum Market Cap Moved by Greed, Reason and Escape from #Bitcoin http://cointelegraph.com/news/ethereum-market-cap-moved-by-greed-reason-and-escape-from-bitcoin… @ethereumproject",0,0,0,False
85,₿TCKYLE@BTCKYLE,"$BTC/ETH chart - Something like this - leaning bullish $ETHPoloniex BTC/ETH Chart - Published on Coinigy.com on April 14th, 2016 at 11:37 PM.Poloniex BTC/ETH Chart - Indicators used: Volume (true, 20) - Interval: 60. Published on Coinigy.com on April 14th, 2016 at 11:37 PM.coinigy.com",0,0,0,False
86,ethereum.network@EthereumNetw,"#Ethereum Studio, the development environment for #solidity #Smart Contracts by @CampEther
http://blog.ether.camp/post/142794388568/ethereum-studio-is-ready-for-you…",1,2,0,False
87,Ryan Zurrer@rzurrer,@joeykrug447 if @AugurProject was live already the #predictionmarket of Pr. Dilma's impeachment would be insane volume from Brazil #ethereum,1,0,0,False
88,Michael Yuhn@mikeyuhn,Why #Blockchain may transform Insurance before Banks @wesleyyuhn1 @DailyFinTech http://wesleyyuhnfintech.com/?edition_id=70dc9c20-0289-11e6-8295-002590a5ba2d… #InsurTech #BaaS #EBaaS #Ethereum,0,0,0,False
89,Chris P Thompson@CryptoBooksAlt,#bitcoin #ethereum #nem please follow Crypto Books,1,0,0,False
91,cash Card CRYPTO ⟠@CashCardCrypto,"Replying to @BITech@SAI, send #bitcoin or #ethereum?",0,0,0,False
92,Transfer Dev@Transfer_dev,"Trade #Transfercoin @BittrexExchange https://bittrex.com/Market/Index?MarketName=BTC-TX… ""The Next Generation Crypto-Exchange"" $TX $ETH",3,3,0,False
93,Zero Filter@zerofiltertruth,We been saying some time now @marshalls / @tjmaxx prices getting too heady but this takes cake $TJX $XRT $ETH $RH $M,1,0,0,False
95,Coach Troy Merrick@tmerrick166,"Slidin to NSB listening to Nas, gettin my mind ready #Ether",0,0,0,False
107,Ethereum SE@StackEthereum,Trustlessness and Provability in DApp design http://ethereum.stackexchange.com/questions/3019/trustlessness-and-provability-in-dapp-design… #ethereum #contractdesign #dappdevelopment #trust,0,0,0,False
108,Sam@smithsam,"#bitcoin is currently 11x #ethereum, which itself is double the rest combinedQuote TweetSam@smithsam · Apr 14, 2016market cap of top bitcoinish chains currently $7.43 bn, of which #bitcoin is 88% (#ethereum: 8%)",0,0,0,False
110,Sam@smithsam,"market cap of top bitcoinish chains currently $7.43 bn, of which #bitcoin is 88% (#ethereum: 8%)",0,0,0,False
111,r0b1nuk @r0b1nuk1,#ethereum is still a very profitable mine but there is better out there!!!,1,0,0,False
112,Travis J Thayer@travisjthayer,"“You Can’t Do It Without a Blockchain, Here’s Why” by @ConsenSysLLC https://medium.com/@ConsenSys/you-can-t-do-it-without-a-blockchain-here-s-why-f1b00ffa7e40#.vxqvg1wsc… #blockchain #ethereum",0,0,0,False
114,Fatal Son aka KeithVannontheBeat@FatalSon,You about the only one that thinks Jay Z murdered Nas..... @rude_jude #ether,1,0,0,False
115,King @king_of_indiana,"Replying to @king_of_indiana#Ether RT @EastSideKris: ""Gay-Z & Cock-A-Fella Records""....... Shit still hurts ",0,0,0,False
116,Branch 22 Capital@Branch22Capital,Just calculated that maintaining the #Ethereum network for 20 seconds may take the energy of 6*10^15 household refrigerators. #fintech,0,0,0,False
117,Copenhagen Ethereum@cphethereum,Very successful meetup today. Copenhagen #ethereum meetup are building their own #DAO to agree on future dates.,0,0,0,False
118,Cryptociraptor@cryptociraptor,"The Blockchain Wars: How Startups And Enterprises Are Competing To Create The Web 2.0 via @forbes http://forbes.com/sites/jonathanchester/2016/04/14/the-blockchain-wars-how-startups-and-enterprises-are-competing-to-create-the-web-2-0/#55a28ee525e0… #ethereumThe Blockchain Wars: How Startups And Enterprises Are Competing To Create The Web 2.0Instead of one trusted central entity, like the Federal Reserve, the federation of blockchain users are the distributed trusted authority.forbes.com",0,0,0,False
125,Ethereum Price@EthereumPrice_,"#Ethereum: Ether Price Index
1 ETH =0.019736Ƀ XBT = $8.371250 USD
Today: +3.03%⬆︎ Last 24h: +1.12%⬆︎
https://ethereum-price.com",0,0,0,False
126,David Liam@crazydaveorama,#CEX.IO #Bitcoin Exchange Launches #Ethereum Trading https://cryptocoinsnews.com/cex-io-bitcoin-exchange-launches-ethereum-trading/… via @CryptoCoinsNews,0,0,0,False
127,Rrrrrrrrrrricharrrrrrrrrrrd Orrrrrrrrrrava@RICH_ORAVA,#TheNeonDemon emerges from the #ether http://youtu.be/cipOTUO0CmU,0,0,0,False
128,BitcoinAgile@bitcoinagile,"#ethereum to switch to PoS before November 1, 2017 #btc #news http://bit.ly/1SEm0Iy",0,0,0,False
129,anselgithubtest@ansellindnergit,"Replying to @The_FutureReset@The_FutureReset Good day human, the #ether price is B0.019334 [L0V]",0,0,0,False
130,anselgithubtest@ansellindnergit,"Replying to @The_FutureReset@The_FutureReset Hello, the #ether price is $8.3026 [bpB]",0,0,0,False
131,Cloud Mining Monitor@cmmonitorcom,#Ethereum #Cloudmining': 14.04.2016 Payment received. 6 MHs - 0.10556645 ETH. From Genesis Mining.Genesis Mining (Ethereum Mining)cmmonitor.com,0,0,0,False
133,Everth.@Everthsp,"11"" inch  rainbow an easy Job for The sato rod #てんから #tenkara #mexico #entrevalles #eth #flyfishing https://instagram.com/p/BEMcUmaM21s/",0,0,0,False
134,cryptinsight@cryptinsight,MaidSafeCoin trading and new environment $eth $maid http://bit.ly/1NbaN68,0,0,0,False
138,YOᗪI ᕼEᖇᗰᗩᗯᗩᑎ@YodiHermawan,#WAVES Raises $2M in 24hrs Despite #Ethereum Contract Issue: Open #blockchain platform… http://goo.gl/fb/mNMTJM #vk,0,0,0,False
139,CRYPTOCOINTALK@cryptocointalk,WAVES Raises $2M in 24hrs Despite Ethereum Contract Issue https://cryptocointalk.com/topic/46243-bitcoincom-waves-raises-2m-in-24hrs-despite-ethereum-contract-issue/… #altcoin $ETH #finance #marketing #ICO #crowdfund,1,0,0,False
140,Bitcoin Info@CloudMiningInfo,Cloud mining with a registered company. 20%Promo https://hashflare.io/r/CCFEE999-HF16BDAY20… #ethereum #eth #cryptocoins #cryptocurrencyGIF,0,0,0,False
142,Bitcoin Info@CloudMiningInfo,Cloud mining with a registered company.20%discount https://hashflare.io/r/CCFEE999-HF16BDAY20… #trade #forex #btc #eth #invest #litecoinGIF,0,0,0,False
143,Bitcoin Info@CloudMiningInfo,Cloud mining with a registered company. 20% #discount https://hashflare.io/r/CCFEE999-HF16BDAY20… #bitcoin #scrypt #ethereum #eth #doge #dogecoin #invest #trade,1,0,0,False
145,Heel_@Cutrolosophy,"#PhilJackson bout to #Ether #NYKnicksQuote TweetFrank Isola@TheFrankIsola · Apr 14, 2016Phil Jackson confirms that he has not reached out to any coaching candidates. Kurt Rambis was & is his guy.",1,0,0,False
147,BitcoinAgile@bitcoinagile,WAVES Raises $2M in 24hrs Despite #ethereum Contract Issue #news #channel #Bitcoin #bAgile http://bitcoinschannel.com/waves-raises-2m-in-24hrs-despite-ethereum-contract-issue…,0,0,0,False
148,optictopic@optictopic,"Stay aware of the DAOs
https://daohub.org
#DAO #Ethereum #decentralization",0,0,0,False
149,BitcoinAgile@bitcoinagile,Altcoin News - AltcoinsNews WAVES Raises $2M in 24hrs Despite #ethereum Contract Issue - http://altcoinsnews.com/waves-raises-2m-in-24hrs-despite-ethereum-contract-issue…,0,0,0,False
150,BitcoinAgile@bitcoinagile,WAVES ICO Surpasses US$2m Despite #ethereum Contract Issue #banks #Blockchain #Coinbase http://bit.ly/1Nb1kvA,0,0,0,False
151,ALΞCO@a_l_e_c_o,#Ethereum Price Trends: 4/14/2016 point for a stop is the medium-term resistance of $10 @Poloniex @bitfinexEthereum (ETH) Price Trends: 4/14/2016Ethereum’s price is currently in a rebound towards the downward trend. How deep will this rebound be?cointelegraph.com,0,0,0,False
152,Christine Sukasih@Christine_S025,#WAVES Raises $2M in 24hrs Despite #Ethereum Contract Issue: Open #blockchain platform WAVES… http://goo.gl/fb/nVBvNH,0,0,0,False
153,Widget 4 Bitcoin@widget4bc,WAVES Raises $2M in 24hrs Despite #Ethereum Contract Issue: Open #blockchain platform WAVES… http://short.4bc.co/ttasks,0,0,0,False
156,Steven Nerayoff@stevennerayoff,"Ethereum Market Cap Moved by Greed, Reason and Escape from Bitcoin http://cointelegraph.com/news/ethereum-market-cap-moved-by-greed-reason-and-escape-from-bitcoin… #bitcoin #blockchain #Ethereum",2,3,0,False
159,@mit@jangidamit99,Check out Bohemian Round Beach Tapestry Roundie Mandala Yoga Mat Blue Indian Hippie Towel  #eth http://ebay.com/itm/Bohemian-Round-Beach-Tapestry-Roundie-Mandala-Yoga-Mat-Blue-Indian-Hippie-Towel/282004967114?roken=cUgayN&soutkn=wgpFex… via @eBay,0,0,0,False
160,Bitcoin Info@CloudMiningInfo,Get started with cloud mining and a registered company. 20% discount https://hashflare.io/r/CCFEE999-HF16BDAY20… #eth #scrypt #bitcoin #btc #cryptocoins #invest,0,0,0,False
162,jasphy@imjasphyyy,#RPG - #Ether Collab ,1,0,0,False
163,Lamp Toast@Iamptoast,Alts still down and bitcoin barely moved. Something needs to make a move $BTC $ETH $RADS,0,0,0,False
164,anselgithubtest@ansellindnergit,"Replying to @The_FutureReset@The_FutureReset Hi,the #ether price is $8.3026 [cyV]",0,0,0,False
165,BitcoinAgile@bitcoinagile,Nexus #ethereum Code Review  Quick Left http://bit.ly/1NaWQFb,0,0,0,False
166,Shuvro A@1wrld1crrncy,"#Ethereum Market Cap Moved by Greed, Reason and Escape from #Bitcoin http://goo.gl/jWT95M @CoinTelegraph @iykearu",0,0,0,False
167,Rodrigo Paulo Gomes []@bgcoin,"Excellent Presentation:
Blockchain, Bitcoin, Ethereum
Global Consensus
http://ethereum.karalabe.com/talks/2016-hinta-en.html#1…
#ethereum #bitcoin #blockchain",0,0,0,False
169,BitcoinTalkRadio.com@btctalkradio,CEX.IO Offers Buying & Selling Ethers with Bitcoin & USD. http://bitcointalkradio.com/cex-io-offers-buying-selling-ethers-with-bitcoin-usd/… #ethereum #bitcoin #Ether,0,0,0,False
170,BitcoinAgile@bitcoinagile,The Rock Trading Update: #ethereum and Margin Trading - Altcoinmarkt #Altcoins #Bitcoin http://bit.ly/1NaVsmf,1,0,0,False
171,Julia Edling@bitcointonic,#Ethereum Trading Now On CEX.IO #Bitcoin Exchange: Famous for user-friendly experience of… http://dlvr.it/L3Xs0V,0,0,0,False
173,Francisco Vera@Fran_flash,We won't need energy companies anymore #ethereum http://coindesk.com/ethereum-used-first-paid-energy-trade-using-blockchain-technology/…,1,0,0,False
175,Store@atostore,@hashflare Why is there no maintenance fee when mining #ethereum ?,1,0,0,False
177,Ethereum SE@StackEthereum,How does ethereum keep track of changes on smart contract storage? http://ethereum.stackexchange.com/questions/3014/how-does-ethereum-keep-track-of-changes-on-smart-contract-storage… #ethereum #smartcontracts #statetriepruning,1,0,0,False
179,Ether Pricing@EtherPricing,#bitfinex to offer margin trading tomorrow. http://etherpricing.com #ethereum #ether #eth #bitcoin,0,0,0,False
180,How To Get Bitcoins  #KBF@htgbitcoins,"UK Regulators Declare Start of ""Beautiful Friendship"" With #Bitcoin, #Ethereum http://cointelegraph.com/news/uk-regulators-declare-start-of-beautiful-friendship-with-bitcoin-ethereum… #fintech",0,0,0,False
182,Ethereum UAE@Ethereum_UAE,Keeping the Blockchain Open in the Shadow of Tech Giants http://ift.tt/1VZlaM4 #Ethereum,0,0,0,False
183,cash Card CRYPTO ⟠@CashCardCrypto,"Y'all better get your Crypto on
Buy #bitcoin (BTC) #bitshares (BTS) DASH #ethereum (ETH) #factom (FCT) #monero (XMR)",1,1,0,False
184,BitcoinAgile@bitcoinagile,"#ethereum Market Cap Increased High by Greed, Reason and Escape from #bitcoin http://altcointoday.com/ethereum-market-cap-increased-high…",2,0,0,False
186,BitcoinAgile@bitcoinagile,Bitminer.eu Guarantee 99.9% Up Time and User-Friendly Interface #ethereum #Bitcoin #scrypt http://bit.ly/1NaMV2y,1,0,0,False
187,Julia Vaingurt@julia_vaingurt,"大丈夫 http://cur.lv/xf69m
#bitcoin #trading #ethereum #altcoin #bitcoinexchange Start trading anonymously and make money with #BTC",0,0,0,False
190,Bitcoin Info@CloudMiningInfo,Get started with cloud mining and a registered company. 20% discount https://hashflare.io/r/CCFEE999-HF16BDAY20… #eth #scrypt #bitcoin #btc #cryptocoins #mining,0,0,0,False
191,Bill Santamour@bsantamour,"In the 1930s, #ether was considered the safest #anesthetic: http://ow.ly/10F0TF #TBT #ThrowbackThursday",0,0,0,False
192,Andrew Quentson@Aquentson,"The Future is Underway #bitcoin #blockchain #ethereumQuote TweetLSE Business Review@LSEforBusiness · Apr 14, 2016Blockchain will usher in the era of decentralised computing @BrucePon @BigchainDB @ascribeIO http://buff.ly/1T4MbuY",0,0,0,False
193,Store@atostore,"@hashflare on the Log section of the History page, is the value in BTC even for the Ether miners? #ethereum",1,0,0,False
194,Bitcoin Info@CloudMiningInfo,Get started with cloud mining and a registered company. 20% #discount https://hashflare.io/r/CCFEE999-HF16BDAY20… #blockchain #btc #ethGIF,1,0,0,False
196,Bitcoin Info@CloudMiningInfo,Get started with cloud mining and a registered company. 20% #discount https://goo.gl/wjckPC #eth #scrypt #btcGIF,0,0,0,False
198,Bob Summerwill@BobSummerwill,"Check out the Electron project (UK energy)
It ould make lovely children with @ConsenSys transactive grid!
#ethereumQuote TweetCryptoCompare@CryptoCompare · Apr 14, 2016First video from our London Ethereum Meetup is out: Reinventing the Retail Energy in the UK, Electron & @innovateuk https://youtube.com/watch?v=jJ-NCSFbYFo…",5,3,0,False
199,Wheel of Doge@WheelofDoge,"Sending #dogecoins at fast speeds. #bitcoin #altcoin #ethereum #cryptocurrencyGfycat - Create, Discover and Share Awesome GIFsWatch and share more GIFs, videos, and memes on Gfycatgfycat.com",0,0,0,False
200,Crypto ― logen@cryptologen,"#Ethereum Market Cap Moved by Greed, Reason and Escape from #Bitcoin http://cointelegraph.com/news/ethereum-market-cap-moved-by-greed-reason-and-escape-from-bitcoin?ref=5281…
#cryptocurrency #altcoin #ETHEthereum Market Cap Moved by Greed, Reason and Escape from BitcoinEthereum capitalisation has been catalysed by developmental factors, intrinsic value, speculation and human nature, experts say.cointelegraph.com",3,3,0,False
201,Crypto ― logen@cryptologen,"#Ethereum (#ETH) Price Trends: 4/14/2016 http://cointelegraph.com/news/ethereum-eth-price-trends-4142016?ref=5281…
#altcoin #cryptocurrency #exchangeEthereum (ETH) Price Trends: 4/14/2016Ethereum’s price is currently in a rebound towards the downward trend. How deep will this rebound be?cointelegraph.com",2,0,0,False
202,Julia Edling@bitcointonic,#Ethereum Prices Week of 4/14/2016: Ethereum’s price is currently in a rebound towards the… http://dlvr.it/L3VfSC,0,0,0,False
204,fintechfolk@fintechfolk,Thanks @richard_asdf for registering for FinTechFolk - http://zpr.io/Mnfj #fintech #ethereum #bitcoin #blockchain,1,0,0,False
205,fav@btsfav,#Ethereum Studio is ready for you http://favd.xyz/23I5cZ6,1,0,0,False
206,Widget 4 Bitcoin@widget4bc,"#Ethereum #Market Cap Moved by Greed, Reason and Escape from #Bitcoin: #Ethereum… http://short.4bc.co/ttasks",0,0,0,False
207,4BC@aff4bc,"#Ethereum #Market Cap Moved by Greed, Reason and Escape from #Bitcoin: #Ethereum… http://short.4bc.co/ttasks",0,0,0,False
208,Bitcoin Directory@dir4bc,"#Ethereum #Market Cap Moved by Greed, Reason and Escape from #Bitcoin: #Ethereum… http://short.4bc.co/ttasks",0,0,0,False
210,BitcoinAgile@bitcoinagile,#ethereum Studio is ready for you http://bit.ly/1Vs3WbO,0,0,0,False
211,Bitcoin Info@CloudMiningInfo,"Get started with cloud mining today, with a registered company. #discount on SHA-256 https://goo.gl/wjckPC #eth #scrypt #investment",1,0,0,False
212,CoinGecko@coingecko,The latest Ethereum price is USD 8.41. For historical #Ethereum price charts - http://buff.ly/1Y3h6Jz,1,0,0,False
213,YOᗪI ᕼEᖇᗰᗩᗯᗩᑎ@YodiHermawan,"#Ethereum #Market Cap Moved by Greed, Reason and Escape from #Bitcoin: <![CDATA… http://goo.gl/fb/8MXu94 #vk",0,0,0,False
214,AltcoinWeekly@altcoinweekly,The latest Ethereum price is USD 8.41. For historical #Ethereum price charts - http://buff.ly/1Y3h6Jz,0,0,0,False
216,Ethereum SE@StackEthereum,Synchronization failed http://ethereum.stackexchange.com/questions/3006/synchronization-failed… #ethereum #mining #blockchain #miningpools,0,0,0,False
217,forklog.media@forklogmedia,"#Ethereum Expands Across #Cryptocurrency Exchanges
http://forklog.net/ethereum-expands-across-cryptocurrency-exchanges/…",0,0,0,False
218,BitcoinAgile@bitcoinagile,Introducing Proof Of Physical Address #ethereum #blockchain #kyc https://medium.com/@ConsenSys/introducing-proof-of-physical-address-acf54fc95f21…,3,2,0,False
223,Cointelegraph@Cointelegraph,"#Ethereum Market Cap Moved by Greed, Reason and Escape from #Bitcoin http://cointelegraph.com/news/ethereum-market-cap-moved-by-greed-reason-and-escape-from-bitcoin… @ethereumproject",3,7,1,False
224,CloudPay@Nadia_Griffiths,#Ethereum (ETH) Price Trends: 4/14/2016 http://bit.ly/20EAe2f,0,0,0,False
225,How To Get Bitcoins  #KBF@htgbitcoins,Cryptosteel: The Ultimate Cold Storage Wallet https://indiegogo.com/projects/cryptosteel-the-ultimate-cold-storage-wallet#/… @cryptosteel #privacy #ethereum #startup,0,0,0,False
226,Ethereum Price@EthereumPrice_,"#Ethereum: Ether Price Index
1 ETH =0.019808Ƀ XBT = $8.486800 USD
Today: +3.41%⬆︎ Last 24h: +4.31%⬆︎
https://ethereum-price.com",1,0,0,False
227,Crypto Dood@BitcoinDood,"@SallyrenSally $OK $BATA $TX $BITB $DOGE $NXT $NEU $SYS $DASH $LTC
$ETH $MOJO $COXST $NOTE $KOBO $XVG $MYR $START $TTC $MYR",2,0,0,False
229,Раб Божий@Diener_Gottes,#Ethereum (#ETH) Price Trends: 4/14/2016: <![CDATA[ Ethereum's price is currently in a… http://goo.gl/fb/DUWGlT,0,0,0,False
230,Ethereum SE@StackEthereum,How growing contract storage increases the gas spending? http://ethereum.stackexchange.com/questions/3002/how-growing-contract-storage-increases-the-gas-spending… #ethereum #contractdesign #gas #evm #storage #gaslimit,0,0,0,False
231,Supply Chain Social Network@SupplyChainSN,"http://MedSupplyChain.com : In the 1930s, #ether was considered the safest #anesthetic: #TBT… http://dlvr.it/L3THNz",0,0,0,False
232,H&HN@hhnmag,"In the 1930s, #ether was considered the safest #anesthetic: http://ow.ly/10F0TF #TBT #ThrowbackThursday",1,2,0,False
234,Bitcoin@bitcoinpoet,'Forking systems' as a Governance Mechanism for DAOs - your feedback is welcome:       submitted by ... http://bit.ly/1SD1Oab #ethereum,1,0,0,False
235,YOᗪI ᕼEᖇᗰᗩᗯᗩᑎ@YodiHermawan,#Ethereum (#ETH) Price Trends: 4/14/2016: <![CDATA[ Ethereum's price is currently in a… http://goo.gl/fb/zHYzi2 #vk,0,0,0,False
238,Bob Summerwill@BobSummerwill,"Replying to @BobSummerwill@paraboul @markpapadakis @jasonhand @jarradhope Because they're doing ""chat as a platform"", but on #ethereum with DAPPs.",1,0,0,False
239,CoinFox@coin_fox,"#Cryptocurrency exchange CEX.IO now allows exchanging #ether for #bitcoins and #USD
http://goo.gl/Vlxfh5",0,0,0,False
241,Inzhoop.eth@inzhoop,"UK Regulators Announce the Start of “Beautiful Friendship” With Bitcoin, #Ethereum",0,0,0,False
242,Patrizio Stavola@halovast,#Ethereum: the competitor to #Bitcoin which could transform entire industries http://newstatesman.com/culture/observations/2016/04/ethereum-competitor-bitcoin-which-could-transform-entire-industries… #blockchain,1,1,0,False
243,Patrizio Stavola@halovast,#Ethereum vs Mossack Fonseca: The #IBC and it’s #blockchain alternatives https://blog.stakeventures.com/articles/ethereum-vs-mossack-fonseca… #bitcoin #mossackfonseca #panamapapers,1,0,0,False
244,Patrizio Stavola@halovast,"""#Blockchain will usher in the era of #decentralised #computing"" by @brucepon https://linkedin.com/pulse/blockchain-usher-era-decentralised-computing-bruce-pon… #ethereum #bitcoin",1,0,0,False
245,Cryptinc@Cryptinc,"#CEX.IO #Bitcoin #Exchange Launches #Ethereum Trading -Bitcoin (BTC) news & cryptocurrency news today, price & analysisNewsBTC is a cryptocurrency news service that covers latest bitcoin news today, technical analysis & price for bitcoin and other altcoins.newsbtc.com",0,0,0,False
246,Genesis Mining Promo@Genesis_Mining,Get Paid Daily!!! Promo U5HTP9 or http://genesis-mining-promo-codes.com save up to 6% now #cryptocurrency #crypto #ethereum #bitcoin #newyorktimes #profit,1,0,0,False
248,Ethereum SE@StackEthereum,Gas limit vs gas usage http://ethereum.stackexchange.com/questions/3000/gas-limit-vs-gas-usage… #ethereum #gaslimit,0,0,0,False
249,Ethereum SE@StackEthereum,how to easliy share solidity code that other can test? http://ethereum.stackexchange.com/questions/2997/how-to-easliy-share-solidity-code-that-other-can-test… #ethereum #solidity #dappdevelopment #soliditybrowser,0,0,0,False
250,Ali Güçlü@aliguclu,"CoinTelegraph : #Ethereum (#ETH) Price Trends: 4/14/2016 http://cointelegraph.com/news/ethereum-eth-price-trends-4142016… … https://twitter.com/CoinTelegraph/status/720604673200254976…)Quote TweetCointelegraph@Cointelegraph · Apr 14, 2016#Ethereum (#ETH) Price Trends: 4/14/2016 http://cointelegraph.com/news/ethereum-eth-price-trends-4142016…",0,0,0,False
251,Widget 4 Bitcoin@widget4bc,##ETHereum (ETH) Price Trends: 4/14/2016: Ethereum's price is currently in a rebound… http://short.4bc.co/ttasks,0,0,0,False
252,4BC@aff4bc,##ETHereum (ETH) Price Trends: 4/14/2016: Ethereum's price is currently in a rebound… http://short.4bc.co/ttasks,0,0,0,False
253,Bitcoin Directory@dir4bc,##ETHereum (ETH) Price Trends: 4/14/2016: Ethereum's price is currently in a rebound… http://short.4bc.co/ttasks,0,0,0,False
254,Young Yang@FreeNuts,"Buy some $ETH according to the EMA and MACD TA result of the 12H chart:

https://coinigy.com/s/i/570f965f/",0,0,0,False
255,Ethereum UAE@Ethereum_UAE,NEW MONEY: Not the Next Bitcoin the Next Dollar http://ift.tt/1VrF2Ja #Ethereum,0,0,0,False
257,Ethereum SE@StackEthereum,How to calculate the average hashrate when ethminer's hashrates are variable? http://ethereum.stackexchange.com/questions/2994/how-to-calculate-the-average-hashrate-when-ethminers-hashrates-are-variable… #ethereum #mining #hashrate #miner,0,0,0,False
258,Ethereum SE@StackEthereum,compare values in contracts http://ethereum.stackexchange.com/questions/2996/compare-values-in-contracts… #ethereum #solidity #dappdevelopment,0,0,0,False
260,Rithy Thul@rithythul,"Retweeted Tosch (@ToschDev):

Independent Crowdfundings are on the rise. #Ethereum #5, #Lisk #15 and #Augur #22... http://fb.me/55swXe7py",0,0,0,False
261,Ethereum Canada@EthereumCanada,"Power to the people - the blockchain's consumer energy revolution begins in New York #EthereumPower to the people - the blockchain's consumer energy revolution begins in New YorkTransActive Grid, a joint-venture between ConsenSys and L03 Energy, goes live in New York with first paid transaction.ibtimes.co.uk",3,2,0,False
262,Ethereum SE@StackEthereum,Problems with API Oraclize and Morden testnet http://ethereum.stackexchange.com/questions/2993/problems-with-api-oraclize-and-morden-testnet… #ethereum #goethereum #oracles #morden,0,0,0,False
267,BitcoinAgile@bitcoinagile,CEX.IO #bitcoin Exchange Launches #ethereum Trading - CCN: Financial Bitcoin & http://bit.ly/1qrjcbh,0,0,0,False
268,Ethereum SE@StackEthereum,GPU works but cannot find a solution http://ethereum.stackexchange.com/questions/2992/gpu-works-but-cannot-find-a-solution… #ethereum #mining #ether #gpu #hashrate,0,0,0,False
269,indxio@indxio,#Russia Market Close || #Bitcoin: $422.87 | 370.48 EUR||  #Litecoin: 0.0076 BTC  || #Ethereum: 0.0199 BTC   || $BTC $LTC $ETH $RUB,0,0,0,False
270,Christine Michelle@ChristineChadwi,Ethereum Used for ‘First’ Paid Energy Trade Using Blockchain Tech http://altcointoday.com/ethereum-used-first-paid-energy-trade-using-blockchain-tech/… via @ #SolarEnergy #Ethereum,1,1,0,False
271,trollbox_txt@trollbox_txt,$ETH has been stagnating a bit over the last month or two. This dip is just what's needed. A bit like pruning a rose bush.,0,0,0,False
272,Datarella@Datarella,Reinventing the Retail Energy Market in the UK #ethereum #blockchain https://m.youtube.com/watch?v=jJ-NCSFbYFo&rdm=1z9zm35zd&client=mv-google&layout=mobile…,0,0,0,False
273,Ethereum Price@EthereumPrice_,"#Ethereum: Ether Price Index
1 ETH =0.019787Ƀ XBT = $8.371550 USD
Today: +3.30%⬆︎ Last 24h: +8.77%⬆︎
https://ethereum-price.com",0,0,0,False
276,Ethereum SE@StackEthereum,Where does the consumed ether/gas go? http://ethereum.stackexchange.com/questions/2988/where-does-the-consumed-ether-gas-go… #ethereum #ether #gas #smartcontracts #gasprice,0,0,0,False
278,BitcoinAgile@bitcoinagile,#ethereum Price Technical Analysis: Chance Of Upside Break Looms http://altcointoday.com/ethereum-price-technical-analysis-chance-upside-break-looms…,2,0,0,False
279,Rodrigo Paulo Gomes []@bgcoin,"Excellent article: Blockchain will usher in the era of decentralised computing
https://linkedin.com/pulse/blockchain-usher-era-decentralised-computing-bruce-pon…
#blockchain #ethereum #bitcoinBlockchain will usher in the era of decentralised computingBy now, you’ve heard of blockchain, the technology that underlies Bitcoin. Blockchains are a type of decentralisation technology that will fundamentally change the way our financial services,...linkedin.com",1,0,0,False
280,Ethereum SE@StackEthereum,How can I represent decimal values in Solidity? http://ethereum.stackexchange.com/questions/2987/how-can-i-represent-decimal-values-in-solidity… #ethereum #solidity #smartcontracts,0,0,0,False
281,Cloud Mining Monitor@cmmonitorcom,#Ethereum #Cloudmining': 14.04.2016 Payment received. 5 MHs - 0.06164107 ETH. From MyCoinCloud.MyCoinCloud (Ethereum Mining)cmmonitor.com,0,0,0,False
282,Maksim@balance_ra,"Quite nice read. "" #ethereum does to value-based interactions what the Web did to information-based interactions"" https://medium.com/@maciejolpinski/why-i-m-optimistic-about-ethereum-even-though-most-dapps-will-fail-ab122b569be9#.8v3h392f3…",0,0,0,False
283,Blockchange@Blockchange_ME,Talented Students To Get Employed by Ethereal Labs and ConsenSys At Exosphere Ac... http://coint.co/2xwm #ethereal #ethereum #blockchain,0,0,0,False
284,Blockchange@Blockchange_ME,Ethereal (ETH) Price Trends: 4/13/2016 http://coint.co/2xwj #ethereum #ethereal #blockchain,0,0,0,False
285,ΠД£ЪДК@Malbak_EvenFame,Check #UTAH & #ETHER - #PROBATIONVACATION: #LOSTINASIA #Episode1 #Turkey @tehgrifters on @Vimeo https://vimeo.com/162600945?ref=tw-share… #Graffiti #SubwayUTAH & ETHER - PROBATION VACATION: LOST IN ASIA (Episode 1 - Turkey)Get the book here: http://bit.ly/1q95Akx All episodes here: https://vimeo.com/album/3898902 EPISODE 1 TURKEY 2006  (INSTANBUL & ANKARA) UTAH &…vimeo.com,1,0,0,False
288,El Mago  @goosenoble,Replying to @WhalePanda@WhalePanda some $eth maximalists still in 'euphoria' stage.,0,0,0,False
289,Blockchange@Blockchange_ME,"UK Regulators Declare Start of ""Beautiful Friendship"" With Bitcoin, Ethereal http://coint.co/2xwf #ethereum #bitcoin #blockchain",1,0,0,False
290,Peter Schnürer@schnuerer_peter,# ixEthereum We live stream #Ethereum Meetup Zurich with @TaylorGerring on 19th April. You may send questions on twitter,0,0,0,False
292,Patrizio Stavola@halovast,Russian venture capital firm Life.SREDA launches #Blockchain Investment Fund. http://coinfox.info/news/5296-russian-venture-capital-firm-launches-blockchain-investment-fund… #ethereum #bitcoinRussian venture capital firm launches Blockchain Investment FundLife.SREDA hopes to raise US $100 million from middle-size banks for blockchain development in banking by the end of 2017.coinfox.info,4,3,0,False
293,#SmartEthereum@SmartEthereum,"We are very close to launching our official alpha release of etheroll - a decentralized, #ethereumQuote TweetΞTHΞROll@etheroll · Apr 13, 2016We are very close to launching our official alpha release of etheroll - a decentralized, provably fair Ethereum dice game! #ethereum",1,0,0,False
294,#SmartEthereum@SmartEthereum,"Looking for help with lottery contract ""Error during Contract Execution"": Hi guys, I'm writing on be..#EthereumQuote TweetBitcoin@bitcoinpoet · Apr 13, 2016Looking for help with lottery contract ""Error during Contract Execution"": Hi guys, I'm writing on be... http://bit.ly/1VX1Mzj #ethereum",1,0,0,False
298,#SmartEthereum@SmartEthereum,"#ethereum will go back above 220 but also may dip again. I think patients is keyQuote Tweetdruid andrew@andyypants · Apr 13, 2016I think #ethereum will go back above 220 but also may dip again. I think patients is key now. keep buy orders open and hold what you get low",0,0,0,False
299,#SmartEthereum@SmartEthereum,Great use case for #insuretech #blockchain #ethereum https://twitter.com/andrewmargetts/status/720498334188888064…This Tweet is unavailable.,0,0,0,False
300,#SmartEthereum@SmartEthereum,"#Ethereum : the competitor to Bitcoin which could transform entire industries http://ow.ly/10EbibQuote TweetLiTMAS@LiTMASme · Apr 14, 2016#Ethereum : the competitor to Bitcoin which could transform entire industries http://ow.ly/10Ebib",1,0,0,False
301,#SmartEthereum@SmartEthereum,"#Bitcoin conference Russia @BitcoinConfRu:
The #Ethereum boom is here
Next conference in Prague, May 19Quote Tweetethereum.network@EthereumNetw · Apr 14, 2016results from #Bitcoin conference Russia @BitcoinConfRu:
The #Ethereum boom is here
http://bitcoinist.net/bitcoin-conference-russia-ethereum/…
Next conference in Prague, May 19",0,0,0,False
302,#SmartEthereum@SmartEthereum,"Explaining DAOs to a non-technical person in 10 points #blockchain #ethereum #DAO http://medium.com/@maciejolpinsk…Quote TweetBitcoinAgile@bitcoinagile · Apr 14, 2016Explaining DAOs to a non-technical person in 10 points #blockchain #ethereum #DAO https://medium.com/@maciejolpinski/explaining-daos-to-a-non-technical-person-in-10-points-9a9618e718e8…",0,0,0,False
303,#SmartEthereum@SmartEthereum,"“You Can’t Do It Without a #Blockchain, Here’s Why” by @ConsenSysLLC http://medium.com/@ConsenSys/you… #ethereum #bitcoinQuote TweetPatrizio Stavola@halovast · Apr 14, 2016“You Can’t Do It Without a #Blockchain, Here’s Why” by @ConsenSysLLC https://medium.com/@ConsenSys/you-can-t-do-it-without-a-blockchain-here-s-why-f1b00ffa7e40#.9nv04uhu8… #ethereum #bitcoin",1,0,0,False
304,#SmartEthereum@SmartEthereum,"#Ethereum : the competitor to Bitcoin which could transform entire industries http://ow.ly/10EbkpQuote TweetKazunori Seki@sekisanchi · Apr 14, 2016#Ethereum : the competitor to Bitcoin which could transform entire industries http://ow.ly/10Ebkp",1,0,0,False
305,Chokri AlGhanmi@GhanmiChokri,CoinMama gives you an option to buy #bitcoin and #Ethereum worldwide with credit card instantly.… https://instagram.com/p/BC01R_AO-AI/,0,0,0,False
306,#SmartEthereum@SmartEthereum,"ETH-USD Bouncing Upward From Psychological $7 Handle #fintech #ethereum http://bit.ly/1RUYBGKQuote TweetBitcoinAgile@bitcoinagile · Apr 13, 2016ETH-USD Bouncing Upward From Psychological $7 Handle #fintech #ethereum http://bit.ly/1RUYBGK",0,0,0,False
308,Cryptospark@Cryptosparks,"#Ethereum price; $8.76 USD up 18% in 24hrs, See the 90 day chart > http://ow.ly/10EiSN",0,0,0,False
309,Juan Blanco@juanfranblanco,@resharper  Many thanks for your open source license for Nethereum #ethereum,0,0,0,False
310,Kazunori Seki@sekisanchi,#Ethereum : the competitor to Bitcoin which could transform entire industries http://ow.ly/10Ebkp,0,0,0,False
312,Ethereum Price@EthereumPrice_,"#Ethereum: Ether Price Index
1 ETH =0.020362Ƀ XBT = $8.652005 USD
Today: +6.30%⬆︎ Last 24h: +15.97%⬆︎
https://ethereum-price.com",0,0,0,False
314,Ethereum SE@StackEthereum,can the browser-solidity access contracts values with the in memory tester? http://ethereum.stackexchange.com/questions/2979/can-the-browser-solidity-access-contracts-values-with-the-in-memory-tester… #ethereum #solidity #dappdevelopment,0,0,0,False
315,TweetETH@tweetETHinfo,"Mr Jonathan Paris, discussing ""The Future of China in Africa"" at the PORAD Seminar yesterday. #MFA #Eth @TafereDeju",0,0,0,False
316,CryptoPromotions@CoinPromo,If You Want To Securely Store #Transfercoin Off-Line Make Your Paper Wallets Here http://transfercoinwallets.tk $TX $ETH,1,1,0,False
317,Patrizio Stavola@halovast,"“You Can’t Do It Without a #Blockchain, Here’s Why” by @ConsenSysLLC https://medium.com/@ConsenSys/you-can-t-do-it-without-a-blockchain-here-s-why-f1b00ffa7e40#.9nv04uhu8… #ethereum #bitcoin",2,1,0,False
318,BitcoinAgile@bitcoinagile,"Explaining DAOs to a non-technical person in 10 points #blockchain #ethereum #DAOExplaining DAOs to a non-technical person in 10 pointsI’m seeing a lot of questions about DAOs on Reddit and elsewhere. So I’ve decided to offer my explanation — hopefully, it will help someone…medium.com",2,2,0,False
319,Patrizio Stavola@halovast,"“Explaining #DAO to a non-technical person in 10 points” by @maciejolpinski https://medium.com/@maciejolpinski/explaining-daos-to-a-non-technical-person-in-10-points-9a9618e718e8#.un309gm7z… #ethereum #blockchainExplaining DAOs to a non-technical person in 10 pointsI’m seeing a lot of questions about DAOs on Reddit and elsewhere. So I’ve decided to offer my explanation — hopefully, it will help someone…medium.com",1,0,0,False
320,Young Yang@FreeNuts,"The 12H SAR and RSI TA shows that $ETH is going up: 

https://coinigy.com/s/i/570f53b6/",0,0,0,False
321,Ethereum SE@StackEthereum,How do we design identity management systems in Ethereum? [on hold] http://ethereum.stackexchange.com/questions/2966/how-do-we-design-identity-management-systems-in-ethereum… #ethereum #contractdesign #designpatterns,0,0,0,False
322,Ethereum SE@StackEthereum,"Sent ether from wallet to bittrex, 12 hours later no balance on bittrex http://ethereum.stackexchange.com/questions/2967/sent-ether-from-wallet-to-bittrex-12-hours-later-no-balance-on-bittrex… #ethereum #goethereum #transactions #ether",0,0,0,False
323,Ethereum SE@StackEthereum,Can I Mine with The Linux OS that I use To Already Mine With? [on hold] http://ethereum.stackexchange.com/questions/2973/can-i-mine-with-the-linux-os-that-i-use-to-already-mine-with… #ethereum #mining #ether #bamt,0,0,0,False
325,BitcoinAgile@bitcoinagile,"<div>Kraken Gains Series B Investment, Pushes #bitcoin Services & #ethereum in Japan</div> - TekyBoy's Chronicles http://uberstuff.xyz/?p=956",1,2,0,False
326,CryptoCompare@CryptoCompare,"new #blockchain fund on the block
San Fran Fed Chief warns on #crypto
#ethereum bounces as #bitcoin has small lossDaily market update: 17 June 2019 | CryptoCompare.comWe bring you all the data in the world of crypto currencies and Bitcoin in an easily digestible value added format and we give you the tools you need to make that decision. Join the discussion on our...cryptocompare.com",0,0,0,False
327,BitcoinAgile@bitcoinagile,CEX.IO #bitcoin Exchange Launches #ethereum Trading #fintech #BTC #News http://bit.ly/1V33qjX,1,0,0,False
328,ALΞCO@a_l_e_c_o,Course #ether goes UP @Poloniex #ethereum #Blockchain #Bitcoin,0,0,0,False
330,CloudPay@Nadia_Griffiths,Learn Smart Contracts in 8 weeks with #Ethereum Stream Course http://ln.is/news.bitcoin.com/XZD19…,1,0,0,False
331,ethereum.network@EthereumNetw,"results from #Bitcoin conference Russia @BitcoinConfRu:
The #Ethereum boom is here
http://bitcoinist.net/bitcoin-conference-russia-ethereum/…
Next conference in Prague, May 19",3,2,0,False
335,Ethereum SE@StackEthereum,data is not stored in contract when struct has more than 2 attributes? http://ethereum.stackexchange.com/questions/2977/data-is-not-stored-in-contract-when-struct-has-more-than-2-attributes… #ethereum #goethereum #solidity #console,0,0,0,False
336,AltCoinExpert@alt_expert,"""CEX.IO Bitcoin Exchange Launches Ethereum Trading"" #ethereum http://newsbtc.com/2016/04/14/cex-io-bitcoin-exchange-launches-ethereum-trading/…",0,0,0,False
337,wome@peterpank123,Mine #bitcoin #ether #dash or other coins on the cloud! Use Genesis-Mining! 3% discount code: 41PR3T http://genesis-mining.com #ethereum promo,0,0,0,False
340,indxio@indxio,#China Market Close || #Bitcoin: $422.51 | 369.18 EUR||  #Litecoin: 0.0076 BTC  || #Ethereum: 0.0201 BTC   || $BTC $LTC $ETH $RMB,0,0,0,False
341,ethereum.network@EthereumNetw,"Seats for the #Ethereum London meetup with @VitalikButerin are gone, but the event will be streamedQuote TweetEthereum@ethereum · Apr 13, 2016Ethereum's @VitalikButerin to present at the London Ethereum Meetup on April 19th http://meetup.com/ethereum/events/230347773/… #blockchain #ETHLDN",11,6,0,False
342,ethereum.network@EthereumNetw,".@jaxx_io now offering #Ethereum HD walletsQuote TweetJaxx Liberty@jaxx_io · Apr 13, 2016Inside the Jaxx HD Upgrade for #Ethereum: http://ow.ly/10DgjP",3,4,0,False
343,BitcoinAgile@bitcoinagile,"CEX.IO Launches #ethereum Trading, Enables Buying Ether Using Visa, MasterCard - EconoTimes http://bit.ly/1SbQzsa",1,1,0,False
344,BitcoinAgile@bitcoinagile,"CEX-IO #bitcoin Exchange Launches #ethereum Trading #Bitcoinnews #cex.io #etherbtc #etherusd #ethereumtradingBitcoin (BTC) news & cryptocurrency news today, price & analysisNewsBTC is a cryptocurrency news service that covers latest bitcoin news today, technical analysis & price for bitcoin and other altcoins.newsbtc.com",2,0,0,False
345,BitcoinAgile@bitcoinagile,CEX.IO #bitcoin Exchange Launches #ethereum Trading – CoinSpeaker #bitcoindebitcard #cex.io http://coinspeaker.com/2016/04/14/cex-io-bitcoin-exchange-launches-ethereum-trading…,2,2,0,False
346,Раб Божий@Diener_Gottes,CEX.IO Bitcoin Exchange Launches #Ethereum Trading: CEX.IO Bitcoin exchange launched trading… http://goo.gl/fb/Dl9RQx,0,0,0,False
347,ConALTist@ConALTist,..like an obstacle course through hell's kitchen. #bitcoin #digibyte #eth #fct,0,0,0,False
348,Cryptinc@Cryptinc,"#Kraken Gains Series B Investment, Pushes #Bitcoin Services & #Ethereum in #Japan - https://goo.gl/4L555A",0,0,0,False
349,BitcoinAgile@bitcoinagile,#ethereum Price Technical Analysis  Risk Of Upside Break Looms #bitcoin #crypto #BTC #News http://bit.ly/1V2WBii,1,1,0,False
350,AltcoinWeekly@altcoinweekly,The latest Ethereum price is USD 8.51. For historical #Ethereum price charts - http://buff.ly/1Y3h6Jz,0,0,0,False
351,ALΞCO@a_l_e_c_o,"#Bitcoin & #litecoin & #ethereum to Bank, to @skrill, to @PayPal #blockchain
https://medium.com/@BitcoinLondon/ethereum-trading-now-available-at-bitcoinlondon-org-along-with-bitcoin-and-litecoin-2f27404875f9#.frjjz8idf…",0,0,0,False
352,ALΞCO@a_l_e_c_o,"#ethereum to Bank, #ether to @skrill, #ether to @PayPal
https://medium.com/@BitcoinLondon/ethereum-trading-now-available-at-bitcoinlondon-org-along-with-bitcoin-and-litecoin-2f27404875f9#.frjjz8idf…",0,0,0,False
354,ethereum.network@EthereumNetw,".@krakenfx Gains Series B #Investment, Pushes #Bitcoin & #Ethereum services in #Japan
http://bit.ly/1qRC5Vz",1,1,0,False
356,ethereum.network@EthereumNetw,".@DigixGlobal offering #gold transfer on the #Ethereum #blockchainDigix: Gold-Backed Ethereum Smart Contracts for AllGold-backed Ethereum token offering Digix has completed its crowdsale, opening up decentralized gold-backed smart contracts to anyone.news.bitcoin.com",1,0,0,False
357,Ethereum Price@EthereumPrice_,"#Ethereum: Ether Price Index
1 ETH =0.020030Ƀ XBT = $8.481000 USD
Today: +4.57%⬆︎ Last 24h: +15.63%⬆︎
https://ethereum-price.com",0,0,0,False
358,CRYPTOCOINTALK@cryptocointalk,Learn Smart Contracts in 8 weeks with #Ethereum Stream Course  https://cryptocointalk.com/topic/46222-bitcoincom-learn-smart-contracts-in-8-weeks-with-ethereum-stream-course/… #altcoin $ETH #development,4,2,0,False
359,Innovation&CyberSec@DiCSanews,#Ethereum: the competitor to #Bitcoin which could transform entire industries http://newstatesman.com/culture/observations/2016/04/ethereum-competitor-bitcoin-which-could-transform-entire-industries… #fintech,1,0,0,False
361,Thomas J. Quinlan@thomas_quinlan,Is the price of #Ethereum following the standard bubble chart?  It looks that… https://goo.gl/007iFx,0,0,0,False
363,On The Blockchain @OnTheBlockChain,"Hopefully others will follow this

UK Regulators Declare Start of ""Beautiful Friendship"" With #Bitcoin, #Ethereum
http://cointelegraph.com/news/uk-regulators-declare-start-of-beautiful-friendship-with-bitcoin-ethereum…",1,0,0,False
364,BitcoinAgile@bitcoinagile,#ethereum Price Technical Analysis  Risk Of Upside Break Looms - NEWSBTC #ethereumnews http://newsbtc.com/2016/04/14/ethereum-price-technical-analysis-risk-upside-break-looms…,0,0,0,False
365,ΞTHΞЯΞUM ÐΞV NΞWS ⟠@Eth_Dev_News,Replying to @BitsBeTrippinBBT @BitsBeTrippin #Ether R9 280x Toxic fastest 6x 280x rig to date at 134+ m/h 1160 core/1875mem #gamedev #ethereumFrom Bitsbetrippin,1,2,0,False
