,user,text,likes,retweets,replies,is_thread
0,NCFA Canada@NCFACanada,"Why Corporations Love #Ethereum ? #cryptocurrency #bitcoin #fintechWhy Corporations Love EthereumEthereum, the world's second most valuable cryptocurrency network after Bitcoin, recently fell victim to a sophisticated hack within one of its third par...huffpost.com",2,0,0,False
1,Sean@wefivekings,"Digital currency #Steem soars.  http://gu.com/p/4zmhg/stw.  The first killer #blockchain app is finally here.  #bitcoin #ethereumDigital currency Steem soars 1,000% in value in two weeksCurrency behind social media website Steemit, in which users are rewarded or paid based number of ‘thumbs up’, has rocketed to more than $150m in valuetheguardian.com",13,10,0,False
2,David Liam@crazydaveorama,#Razormind Targets #Ethereum by #Crowdfunding #DeOS #Blockchain on July 15 http://cointelegraph.com/news/razormind-targets-ethereum-by-crowdfunding-deos-blockchain-on-july-15… #cryptocurrency #altcoinRazormind Targets Ethereum by Crowdfunding DeOS Blockchain on July 15Ethereum rival Razormind to start crowdsale for their DeOS tokens ÐEOS Friday July 15 at 12pm GMT. CT provides its details.cointelegraph.com,1,0,0,False
3,The Infosec recruiter - Ricki Burke@CyberSecRicki,#Bitcoin rival #Ethereum fights for its survival after $50million #heist #cyberheist #hacked http://buff.ly/29MreVv,4,8,1,False
4,This Is Crypto@globalwork365,Start your experience with #cryptocurrency #trading at: https://bitbillions.com/cryptocurrency-trading-platform/… #bitcoin #altcoin #ethereum,2,0,0,False
5,Parity Technologies@ParityTech,"Read our new blog post: ""In support of a hard fork"" #ethereum #ethcore #blockchain #TheDAOEthcore blog post: In support of a hard forkPosted in r/ethereum by u/Blue-Chain • 97 points and 160 commentsreddit.com",36,34,3,False
6,Myles Gilsenan@mylesgilsenan,A $50M Hack Tests the Values of Communities Run by Code http://motherboard.vice.com/read/thedao via @motherboard #ethereum #bitcoin,1,0,0,False
7,Ivolotion@ivolotion,This german Slock.it thing was bad for #ETH. This german #LSK thing is doing much more better. Expect 1000% up when BTC pauses its rally,2,0,0,False
8,Matthew Mills@mgbmills,Smart contracts are neither smart nor contracts - shades of #DAO conversations. #ethereum #blockchain @stoneandchalk @theliberteco,2,0,0,False
9,Joseph Viscomi ∞@jjviscomi,.@ethereumproject Hard #coding addresses into a #protocol doesn't fix everything. #Ethereum is in #beta #theDAO was #Experimental. #MoveOn!,1,1,0,False
10,tgerring.eth@TaylorGerring,The great #blockchain debate. Will #Bitcoin and #Ethereum fork? http://huffingtonpost.com/entry/the-debate-rages-on-are-blockchains-in-crisis_us_5783e63ee4b0f06648f57df2…,5,9,2,False
11,Agorise@Agorise_world,"The 6 reasons #Odoo users are installing the ""BlockPay for Odoo"" module https://steemit.com/bitcoin/@kencode/blockpay-for-odoo-demo-with-smartcoins-wallet… #bitcoin #ethereum #dash #dogecoin #litecoinBlockPay for Odoo demo with Smartcoins Wallet — SteemitProof Of Concept (POC) of the BlockPay for Odoo point of sale (POS) system. See the BlockPay ""S""… by kencodesteemit.com",6,2,1,False
12,#SmartEthereum@SmartEthereum,#securityhour @ethereumSS for help with your #security needs http://ethereumsecurityservices.com/contact/ http://fb.me/11QwczVlZ #Ethereum #cybersecurity,3,4,0,False
13,Zeth Couceiro@Zeth_Plexus,"#Blockchain: Be Prepared https://finextra.com/blogposting/12843/blockchain-be-prepared… via @Finextra #fintech #finserv #Ethereum #DLT #DistributedLedgerBlockchain: Be PreparedJust about every call I get from a bank lately seems to ask, “What should we be doing about blockcha...finextra.com",4,0,0,False
14,Miss Sheree@missdiorsheree,Claim on #Ethereum as stolen Intellectual Property | http://cointelegraph.com/news/developer-claims-ethereum-is-stolen-intellectual-property-files-complaints-with-fbi… via @CoinTelegraph #blockchain #tech #law #IP #rights,2,0,0,False
15,Augur@AugurProject,Submit your Ethereum Address to http://sale.augur.net! http://blog.augur.net/2016/07/12/submit-your-ethereum-address-to-sale-augur-net/… via @AugurProject #augur #ethereum,19,15,0,False
16,Nick Ayton@NickAyton,Nice Map #blockchain landscape http://ln.is/businessinsider.com/BKeNf… @PullNews @cloudnthings @Stevewal63 @blockchaincoach @BlockchainAge #ethereumTHE BLOCKCHAIN REPORT: Why the technology behind Bitcoin is seeing widespread investment and early...businessinsider.com,8,5,0,False
17,Carlo van Wyk@thecarlo,Ethereum Price Technical Analysis  ETH Facing Tough Resistance - NEWSBTC http://newsbtc.com/2016/07/12/ethereum-price-technical-analysis-eth-facing-tough-resistance/… #ethereum #fintech,1,0,0,False
18,Freewallet@freewalletorg,#bitcoinhalving = #freewallet doubling. #bitcoin #ethereum and #monero wallets are on the #AppStore now!,3,0,0,False
19,muhammad ridwan@meongblack261,Free Ethereum every 5 minutes http://eth-faucet.com/?r=0x7e2d11495c668ce38d55d96f2c162f92c2acb8b1… #ethereum via @FreeCryptoCo,1,1,0,False
20,webonanza@webonanza,"New post on Webonanza: ""There Are No Decentralized Autonomous Organizations"" https://webonanza.com/2016/07/12/there-are-no-decentralized-autonomous-organisations/… #bitcoin #thedao #ethereum #blockchainThere Will Be No Decentralized Autonomous OrganizationsThere’s been a lot of talk about the idea of a DAO but the closest we come to a “real” DAO (a “Decentralized Autonomous Organization”) is actually the Bitcoin network …webonanza.com",3,5,0,False
21,Alex Beregszaszi@alexberegszaszi,Are you an #Ethereum purist? You should be using helpeth: npm install -g helpeth.,5,1,0,False
22,Randy Hilarski@RandyHilarski,LE3:  Gabe Rovick - Unmanned Aerial Vehicles and the F... http://slninja.com/NBgv #Bitcoin #Ethereum #CryptoCurrency,7,0,0,False
23,Ades@ades,"'Smart Contracts' (Ethereum/The DAO) vs 'Smart Transactions' (Nxt/Ardor). Which one will succeed?

#ethereum #thedao #nxt #ardor",2,2,0,False
24,Mike Sarge@Mike_Sarge,Look what I saw on iTunes as an upcoming album!! #Salutes #ETH,2,2,0,False
25,Nxt Crypto Nerd@nxtcryptonerd,#Etherparty Slated for August Release - Looking for Beta Testers - http://ow.ly/lCFq3026Ar0 #ethereum,1,1,0,False
26,Sillytuna (hiring devs) @sillytuna,"Smart contract security examples - bug found and bounty claimed by Veox https://github.com/PeterBorah/smart-contract-security-examples/issues/3… @PeterBorah @el33th4xor @vessenes #ethereumPossible drain vector in TokenWithInvariants.sol? · Issue #3 · PeterBorah/smart-contract-security...I think 7d7ef27 might have introduced an attack vector. Also not sure what is meant by ""griefing"" in that commit. As I understand, the contract demonstrates how recursive calls to...github.com",4,7,0,False
27,Animal Neotropical@aneotropical,Your #donation also in #Ethereum - please help us to help now! - 0x0c36316598a8e6c0120f19df187e2f0fdd982579 - Thanks.,1,3,1,False
28,/r/Augur@AugurFeed,#reddit Submit your Ethereum Address to http://sale.augur.net! http://bit.ly/29Fu9lA #ethereum #augur,8,10,1,False
29,a5ym4e@a5ym4e,"On #Ponzi 's, Equity Derivatives, and #ethereum http://bit.ly/2a7hFAG @digitsu @The_DAO_Project @ethereumproject",0,0,0,False
30,KLmoney@KLmoney8,"If #Ethereum Foundation is neutral it should negotiate with pools, as it did during the hack, to ensure option offered for no-fork miners.",2,3,1,False
31,B9lab@b9lab,Great to see face to face some pioneers of cohort 1 visiting us yesterday! @petegarvin @oliverhastings #ethereum,3,3,0,False
32,Randy Hilarski@RandyHilarski,Craig Wright provides poor proof that he is Satoshi an... http://slninja.com/8Agv #Bitcoin #Ethereum #CryptoCurrency,7,1,0,False
33,Nick Ayton@NickAyton,"A much needed upgrade of the #Internet will be delivered by #AI and #ethereum #DAO Couldnt come soonerArtificial Intelligence Is Setting Up the Internet for a Huge Clash With EuropeDeep learning, the latest in AI technology, could clash with new regulations from the European Union, the world's single largest online market.wired.com",2,0,0,False
34,RELab ETH Zurich@RELabETHZ,#Cybathlon Symposium early registration ends this Friday http://cybathlon-symposium.ethz.ch #BCI #prosthetics #exoskeleton #assistivetechnologies #ETH,3,0,0,False
35,Cointelegraph@Cointelegraph,"#Altcoins Price Analysis (Week of July 12th): #Ethereum, #Litecoin and #DASH https://cointelegraph.com/news/altcoins-price-analysis-week-of-july-12th-ethereum-litecoin-and-dash…",6,7,0,False
36,Francisco Gordillo@FGordillo,#bitcoin #blockchain JPMorgan Exploring Blockchain for Trade Finance: A senior trade finance... http://bit.ly/29zgnw6 #ethereum #ether,0,0,0,False
37,Hijro@hijro,"""Distributed Trade Hackathon and #Blockchain Conference"" Read @allcoinsnews coverage at http://allcoinsnews.com/2016/07/11/distributed-trade-hackathon-and-blockchain-conference/… #SCF #crypto #ethereum",1,2,0,False
38,BitBay@BitBay,#Lisk Adoption Growing as Currency Added to ShapeShift Exchange http://bitcoinist.net/lisk-adoption-shapeshift-exchange/… via @bitcoinist #LSK #Bitcoin #ethereum,1,0,0,False
39,YOCoin@YOC_Crypto,"We are going to fix the orphan blocks issue, feel free to reach us support@yocoin.org

#bitcoin #YoCoin #waves #ethereum #Dax #bittrex",6,7,0,False
40,Gflaterr on Parler & Gab @gflaterr,"#ether #etherium #ETH Chart
https://coingecko.com/en/price_charts/ethereum/usd…
@buddendorf @Doomed_Society #crypto",2,4,0,False
41,/r/Ethereum@r_Ethereum,Blockchain investments and the new problem asset for conventional VCs http://bit.ly/29NF3qs #EthereumBlockchain investments and the new problem asset for conventional VCsPosted in r/ethereum by u/coinfund • 2 points and 0 commentsreddit.com,1,1,0,False
42,Angelo Littera@bluepulsar971,"http://coindesk.com/ethereum-dao-dumb-smart-contracts/… ""Why Ethereum Needs 'Dumb' Contracts"" #ethereum #blockchainWhy Ethereum Needs 'Dumb' Contracts - CoinDeskEthereum entrepreneur Daniel Cawrey discusses the recent demise of The DAO and how that impacts the future of smart contracts.coindesk.com",1,1,0,False
43,John Gerryts@phonikg,"If your in #HamOnt tomorrow and interested in having a beer & learn about #ethereum, I'll be speaking @ http://codercamphamilton.com!! @bpoetz",4,3,0,False
44,Cointelegraph@Cointelegraph,Razormind Targets #Ethereum by #Crowdfunding DeOS #Blockchain on July 15 https://cointelegraph.com/news/razormind-targets-ethereum-by-crowdfunding-deos-blockchain-on-july-15…,10,13,0,False
45,Proof of Work@proofofwork,The #Ethereum foundation should have stayed away from #TheDAO meltdown @IOHK_Charles @coinscrum,4,3,3,False
46,Julia Edling@bitcointonic,"Price Analysis od Altcoins (Week of July 12th) : #Litecoin, DASH and #Ethereum: When will… http://dlvr.it/LnClpk",1,0,0,False
47,EasyBit@EasyBitATM,"Developer claims #ethereum is stolen intellectual property, files complaints with the FBI: http://cointelegraph.com/news/developer-claims-ethereum-is-stolen-intellectual-property-files-complaints-with-fbi…",1,0,0,False
48,Stephan Tual@stephantual,Check this really cool #ethereum app by the excellent @tjayrush- https://youtube.com/watch?v=ZZDV1yAgces…  - http://ethslurp.comEthSlurp BasicsTutorial for EthSlurp which allows you to pull a list of transactions off of the Ethererum block chain from any valid address including smart contracts.See a...youtube.com,6,8,0,False
49,The Intersectionist ¯\_(ツ)_/¯@DeanDemellweek,"The cost of innovation: in support of #DAO hardfork - An opinion of Ethcore 
https://blog.ethcore.io/in-support-of-a-hard-fork/… #Ethereum",0,0,0,False
50,Steve Waldron @Stevewal63,#Razormind Targets #Ethereum by Crowdfunding DeOS #Blockchain on July 15 http://cointelegraph.com/news/razormind-targets-ethereum-by-crowdfunding-deos-blockchain-on-july-15…,1,1,0,False
51,Joe DMT@fearcollector,Get ready for $EXP skyrocket in 3 days. Everything you buy untill then it's in a good price range. $eth $lsk $dao $sys $nxt $xem $xmr $dash,7,4,1,False
52,Vindyne8@Vindyne8,$BRX #CrowdSale is LIVE on @BittrexExchange ! Learn More About The Coin Here At http://breakoutcoin.com!! $BTC $ETH,7,8,0,False
53,Vella (Real account from April 2016)@cryptotrader85,"Get #paid to post! Come join me and many other members who are getting paid to post on #cryptocurrency http://cryptohub.site/index.php
#BTC #ETH",0,0,0,False
54,Crypto₿ull@CryptoBull,Trade 33x leveraged #ETHEREUM and 100x leveraged #Bitcoin on Bitmex: https://bitmex.com/register/pw4ld4,2,1,0,False
55,ETH Zurich@ETH_en,Sarah Springman wins this year's school admin. archery competition between #UZH and #ETH - congratulations!,6,2,0,False
56,Ansel Lindner@AnselLindner,"Outrageous. Anticompetitive. Cowardly. 

#Ethereum Foundation next.

https://cryptocoinsnews.com/sec-issues-cease-and-desist-order-against-bit-and-authorized-participant-levies-fine/…",1,0,0,False
57,Sinz @Sinzfeldt,"Is that a bird? No, is it a plane? Nope. It's #Ethereum soaring through the skies like the #2 crypto it was always meant to be. #BearsRekt",3,0,0,False
58,Bitcoin@bitcoinpoet,Where did this come from? EtherDelta and is it safe?:       submitted by    /u/TonyMcCarp  [link]  ... http://bit.ly/29Cck2X #ethereumWhere did this come from? EtherDelta and is it safe?Posted in r/ethereum by u/TonyMcCarp • 62 points and 29 commentsreddit.com,3,0,0,False
59,CoinGecko@coingecko,The latest Ethereum price is USD 10.59. For historical #Ethereum price charts - http://buff.ly/29Mt1L4,0,0,0,False
60,Bob Summerwill@BobSummerwill,"""The Geth team does not have a bias against the fork."" - @peter_szilagyi
https://reddit.com/r/ethereum/comments/4sgihm/ethcore_blog_post_in_support_of_a_hard_fork/d59e1vs?st=iqk37sd7&sh=241f89d4…
#ethereumEthcore blog post: In support of a hard forkPosted in r/ethereum by u/Blue-Chain • 102 points and 160 commentsreddit.com",3,1,0,False
61,Alberto Jauregui | esoteRICK.eth @DisruptBanksy,http://ift.tt/29MRTmk Razormind Targets Ethereum by Crowdfunding DeOS Blockchain on July 15 - CoinTelegraph #ethereum #ether,0,0,0,False
62,AltcoinWeekly@altcoinweekly,The latest Ethereum price is USD 10.59. For historical #Ethereum price charts - http://buff.ly/29MttIW,0,0,0,False
63,vDice@vDice_io,"We’re upgrading our Contracts and adding a new game…

Whole process will be complete in next 24-hrs. Thanks.

#ethereum",1,1,0,False
64,MasterTrader777 #BNB@ToshiDesk,How did that build go? #CryptosCloset #Ethmining #ETH $ETH #MTR #ToshiDesk #Crypto #BitsBeTrippin,1,1,1,False
65,Adam Meister@TechBalt,What I learned at the #Bitcoin #halving party https://youtube.com/watch?v=qPDyeD4_KmI… @solled @CoinspaceIO #Ethereum #Altcoins #Blockchain #Fintech $BTCWhat I learned at the 2016 Bitcoin halving partyI hope you had a fun Bitcoin halving day. Only 4 years until the 2020 halving! I got to meet some great people today and in this video I share some of what I...youtube.com,2,0,0,False
66,ETHNews@ETHNews_,"#Ethereum Analysis: #Ether Price Ranging Follow-Through on Correction
http://ow.ly/eLhl302baNy",1,1,0,False
67,a5ym4e@a5ym4e,MT @BobSummerwill #ethereum...(#cplusplus re-licensing) http://bit.ly/29FOmrz @ethereumproject @TheASF @ethchris #hyperledgerproject,1,1,0,False
68,SingularDTV@SingularDTV,"Great article by @juliadaimio on #bitcoin and #ethereum and #gold on @CoinTelegraph
http://bit.ly/29AXUWi",2,2,0,False
69,vessenes@vessenes,"Solid. #Token systems need more paranoia in  #Ethereum in general.Quote TweetSillytuna (hiring devs) @sillytuna · Jul 12, 2016Smart contract security examples - bug found and bounty claimed by Veox https://github.com/PeterBorah/smart-contract-security-examples/issues/3… @PeterBorah @el33th4xor @vessenes #ethereum",3,1,0,False
70,Bob Summerwill@BobSummerwill,"Great chat on #Hyperledger and #Ethereum via @Altoros :-)
#opensource #blockchain #publicchain #privatechainQuote TweetAltoros@Altoros · Jul 7, 2016#Hyperledger/#Ethereum Discussion Makes P2P/B2B Distinction: http://altoros.com/blog/hyperledger-ethereum-discussion-makes-p2p-b2b-distinction/… | Ft. @ajodowd & @nicksdjohnsonGIF",4,4,0,False
71,Charles H@larslfe,Autopilot use should be recorded on the blockchain to prove use. @elonmusk @VitalikButerin #ethereum @ethereumproject,1,1,1,False
72,The Tony Buzan Group@Tony_Buzan,@Times_Chess.    #Art is in The #Ether!,2,1,1,False
73,SingularDTV@SingularDTV,"Great piece by @Charlesbovaird on trading #ethereum featured on @coindesk
@ConsenSysLLC
http://bit.ly/29zFbuh",2,0,0,False
74,MasterTrader777 #BNB@ToshiDesk,Replying to @BitsBeTrippinHow did that build go? #CryptosCloset #Ethmining #ETH $ETH #MTR #ToshiDesk #Crypto #BitsBeTrippin,1,1,1,False
76,Bitcoin@bitcoinpoet,DAO is Empty Again:       submitted by    /u/theTBTFdao  [link]   [comments]  http://bit.ly/29FTATY #ethereumDAO is Empty AgainPosted in r/ethereum by u/theTBTFdao • 0 points and 1 commentreddit.com,1,0,0,False
77,EtherFire@TheEtherFire,When is the #eth #HardFork happening?,0,0,0,False
79,Rimbit @rimbit,Patreon Group On This Forum http://rimbit.com/threads/patreon-group-on-this-forum.5628/… #bitcoin #ethereum,0,0,0,False
82,SingularDTV@SingularDTV,"@CoinTelegraph on the @SingularDTV #CODE #ethereum#dao @ethereumproject @ConsenSysLLC
http://bit.ly/29rEOlm",1,0,0,False
83,vDice@vDice_io,"Don’t forget to sign-up to our mailing list.

https://blog.vdice.io
#ethereum #blockchain",1,0,0,False
86,Ethereum UAE@Ethereum_UAE,Blockchain Coders Win Grant to Fix Smart Contracts With 'Legalese' http://ift.tt/2a7f7Cn #Ethereum,1,0,0,False
87,cryptinsight@cryptinsight,Vacations #ethereum #bitcoin http://rimbit.com/threads/vacations.5623…,1,0,0,False
88,Rimbit @rimbit,Vacations http://rimbit.com/threads/vacations.5623/… #bitcoin #ethereum,0,0,0,False
89,Francisco Gordillo@FGordillo,#bitcoin #blockchain Blockchain Coders Win Grant to Fix Smart Contracts With 'Legalese': Sma... http://bit.ly/2a7eN6U #ethereum #ether,0,0,0,False
90,Coinstats@coinstats,"Ethereum - ETH
Price: $10.4806
Change in 1h: +0.32%
Market cap: $858622019.0
Ranking: 2
#Ethereum #ETH",0,0,0,False
91,Ethereum SE@StackEthereum,Why Hasn't Digix's DAO Been Hacked? [on hold] http://ethereum.stackexchange.com/questions/7050/why-hasnt-digixs-dao-been-hacked… #ethereum #digix,0,0,0,False
92,a5ym4e@a5ym4e,@koeppelmann:#gnosis- #ethereum Prediction Market https://youtu.be/AKcd9YUeFD0 @YouTube @gnosisPM @ethereumproject @The_DAO_Project @AugurProject,0,0,0,False
94,vDice@vDice_io,"OK, new contracts deployed. 24hrs and the new game will be live.

#ethereum #blockchain",0,0,0,False
95,THE CRYPTO Big 6@crypto_big_6,"Its Video Tuesday! Big #BTC Movement On Deck, #DASH Rallies to the 200 DMA, #ETH In Triangle Awaiting Hard Fo... http://bit.ly/29zY8Xr",1,0,0,False
97,ilbitcoin@ilBitcoin,"""Developer Claims Ethereum is Stolen Intellectual Property, Files Complaints with FBI"" http://cointelegraph.com/news/developer-claims-ethereum-is-stolen-intellectual-property-files-complaints-with-fbi… #bitcoin #ethereum",0,0,0,False
99,Ethereum SE@StackEthereum,Why Hasn't Digix's DAO Been Hacked? http://ethereum.stackexchange.com/questions/7050/why-hasnt-digixs-dao-been-hacked… #ethereum #digix,0,0,0,False
100,CL Taylor@DigitWealthNews,Cryptocurrencies Charged With Assault http://goo.gl/FjvDz4 #finteknews #fintech #bitcoin #humor #ethereum,0,0,0,False
101,/r/Ethereum@r_Ethereum,"http://Locals.world: tool to run local community (decentralised app, running on Ethereum and IPFS) http://bit.ly/29zVJvU #Ethereum",0,0,0,False
102,/r/Ethereum@r_Ethereum,MEGABUG - cpp-ethereum homecoming http://bit.ly/29zVilx #EthereumMEGABUG - cpp-ethereum homecomingPosted in r/ethereum by u/bobsummerwill • 35 points and 9 commentsreddit.com,0,0,0,False
104,/r/Ethereum@r_Ethereum,Testing smart contracts http://bit.ly/29Hd4GW #Ethereum,0,0,0,False
105,Coinstats@coinstats,"Ethereum - ETH
Price: $10.4508
Change in 1h: -0.92%
Market cap: $856166374.0
Ranking: 2
#Ethereum #ETH",0,0,0,False
107,⛧ God of Gaming ⛧@TheGodofGamez,To be tested is good. The challenged life may be the best therapist. $ETH,0,0,0,False
108,Barry@Barry_McComber,@Poloniex getting lots of #steem requests today? #ethereum #bitcoin,0,0,0,False
109,John Slazas@JSservices,#ethereum $ETH STRUGGLING BELOW 11.05 targetring 7.65 on any new move lower. Notable support at 9.25 has the potential to stabilize #ETH,0,0,0,False
110,CoinFolio@coinfolioapp,"Replying to @coinfolioappor maybe days ? Watch your Portfolio with CoinFolio - 
https://appsto.re/de/ttStbb.i #bitcoin #ethereum #litecoin #nxt",0,0,0,False
111,Barry@Barry_McComber,#Steem hit a high of $3.14 USD this hour. #bittrex #bitcoin #ethereum,0,0,0,False
112,Barry@Barry_McComber,#bittrex has been flooded with new account requests. I hope they can hold up. #Bitcoin #ethereum #steemit,0,0,0,False
113,Alberto Jauregui | esoteRICK.eth @DisruptBanksy,http://ift.tt/29LBOOF Freewallet Ethereum Wallet Now Available for iOS Platform - newsBTC #ethereum #ether,0,0,0,False
114,Ethereum Monkey@EthMonkey,Freewallet Ethereum Wallet Now Available for iOS Platform - NEWSBTC #ethereum http://newsbtc.com/2016/07/12/freewallet-ethereum-wallet-on-ios/…,0,0,0,False
116,/r/Ethereum@r_Ethereum,"On Ponzi’s, Equity Derivatives, and Ethereum http://bit.ly/29Lynb5 #EthereumOn Ponzi’s, Equity Derivatives, and EthereumPosted in r/ethereum by u/tropser • 0 points and 10 commentsreddit.com",1,0,0,False
117,/r/Ethereum@r_Ethereum,Ethereum Everywhere (C++ relicensing) http://bit.ly/29Ly3Ja #Ethereum,1,0,0,False
118,/r/Ethereum@r_Ethereum,Submit your Ethereum Address to http://sale.augur.net! http://bit.ly/2a6XId3 #Ethereum,1,0,0,False
120,Coinstats@coinstats,"Ethereum - ETH
Price: $10.5607
Change in 1h: +0.13%
Market cap: $865161035.0
Ranking: 2
#Ethereum #ETH",0,0,0,False
121,Ethereum Price@EthereumPrice_,"#Ethereum: Ether Price Index
1 ETH =0.015764Ƀ XBT = $10.568000 USD
Today: -2.07%⬇︎ Last 24h: -2.69%⬇︎
https://ethereum-price.com",0,0,0,False
122,Rimbit @rimbit,Rimbitpi Web User Interface http://rimbit.com/threads/rimbitpi-web-user-interface.5627/… #bitcoin #ethereum,0,0,0,False
123,Bob Summerwill@BobSummerwill,"""Ethereum Everywhere (C++ re-licensing)""
https://bobsummerwill.com/2016/07/12/ethereum-everywhere/…
#ethereum #cplusplus",12,9,0,False
124,AltcoinWeekly@altcoinweekly,The latest Ethereum price is USD 10.57. For historical #Ethereum price charts - http://buff.ly/29NcOrX,0,0,0,False
125,CoinGecko@coingecko,The latest Ethereum price is USD 10.57. For historical #Ethereum price charts - http://buff.ly/29NcMk0,0,0,0,False
127,Heike Anna Krüger@GameEvangelist,"An other #Startup #accelarator in Zurich. Ok, at least it's #ETH branded... Needed?",1,0,0,False
128,eh shea stone@ehsheastone,Is there room for both? http://huff.to/29xJk1U #BitCoin #Ethereum #Cryptocurrency #AltCoin,0,0,0,False
129,Ludvig Derning@whynotbother,Replying to @ClimateCoinis this account about the #ClimateCoin on top of #ether and or is the project alive or dead??,0,0,0,False
132,Vic Arulchandran@VicArulchandran,"Blythe Masters becomes #ChiefBlockchainOfficer of Santander haha!
#Blockchain #bitcoin #ethereum #DAHBlythe Masters quits as chairwoman of Santander Consumer USAMove after less than a year adds to the uncertainty about the Spanish bank’s US operationsft.com",1,0,0,False
133,"Nathan ""M"" Maynes@nathanmaynes",Is @21 Bitcoin computer similar to #ether based applications?,0,0,0,False
134,Coinstats@coinstats,"Ethereum - ETH
Price: $10.5593
Change in 1h: +0.1%
Market cap: $865033543.0
Ranking: 2
#Ethereum #ETH",0,0,0,False
136,/r/Ethereum@r_Ethereum,"Climatecoin: Ethereum-based, finalist at MIT's ClimateColab http://bit.ly/29N65hN #EthereumClimatecoin: Ethereum-based, finalist at MIT's ClimateColabPosted in r/ethereum by u/ItsAConspiracy • 30 points and 9 commentsreddit.com",1,3,1,False
137,bitcoin new's@jagga_dakku004,Exchange your #bitcoins with #altcoins such as #DASH #Litecoin #Ethereum And #USD http://goo.gl/l8Wtr6,1,0,0,False
139,Francisco Gordillo@FGordillo,#bitcoin #blockchain The Dutch Central Bank is Preparing its Boldest Blockchain Experiment Y... http://bit.ly/29zx36O #ethereum #ether,0,0,0,False
141,Crypdex@CrypdexLLC,converted 22.37 mBTC $14.97 USD to ETH #Ethereum,0,0,0,False
142,Cryptopatterns@Cryptopatterns,"#BTC target per YESTERDAY'S post is $690. Move from there important. Patterns doing the job! #Bitcion #ETH #EthereumBTC ETH Charts: Tales from the cryptoBTC/USD 4 Hour Chart – Says BTC is going higher Monday July 11, 2016  6:15 AM With a big move likely coming, I check as many charts as possible for clues about timing. This means various time…cryptopatterns.wordpress.com",0,0,0,False
143,MeeseeksBTC@Meeseeks100BTC,"RT Start mining $ETH or $BTC together with people from all over the world.

https://goo.gl/tYClLG",0,0,0,False
144,Coinstats@coinstats,"Ethereum - ETH
Price: $10.5808
Change in 1h: +0.15%
Market cap: $866780771.0
Ranking: 2
#Ethereum #ETH",0,0,0,False
145,Ameer Rosic@AmeerRosic,Is #Youtube in Trouble? #Blockchain is coming! http://bit.ly/1tgKTVz #ethereum #bitcoin,1,3,0,False
146,Ethereum SE@StackEthereum,How can I use .deployed() with a constructor argument? http://ethereum.stackexchange.com/questions/7048/how-can-i-use-deployed-with-a-constructor-argument… #ethereum #etherpudding,0,0,0,False
147,alx@cryptoalx,"Big #BTC Movement On Deck, #Dash and #ETH Analysis http://dashpaymagazine.com/index.php/2016/07/12/bitcoin-ethereum-dash-price-analysis/…",1,0,0,False
149,Bitcoin girl@FarhaMastani,"#Bitcoin Surpasses #Gold #Trading in #Brazil
#blockchain
#ethereum
#unocoinBitcoin Surpasses Gold Trading in Brazil, Bitcoin India, Bitcoin NewsBitcoin Surpasses Gold Trading in Brazil,big difference is the thousand years track record of gold against just seven years of bitcoin,Globally, gold is still an asset with higher volumes than bitcoinbitex.in",1,0,0,False
150,/r/Ethereum@r_Ethereum,"Can Ethereum, through collaborative analysis and Group-Decision Making, strike gold (or copper, or ... http://bit.ly/2a6vIGH #Ethereum",0,0,0,False
151,/r/Ethereum@r_Ethereum,"Before stating a pro or anti HF opinion, first start off with how much you, or your organization ha... http://bit.ly/2a6we7r #Ethereum",1,0,0,False
152,/r/Ethereum@r_Ethereum,Need input for trustless Poker Card Game scheme http://bit.ly/2a6wnYn #EthereumNeed input for trustless Poker Card Game schemeI'm learning to code Solidity by trying to build poker card games leveraging the Ethereum blockchain. I'm interested to know what you guys think...reddit.com,1,1,0,False
153,cryptinsight@cryptinsight,"#bitcoin Surpasses Gold Trading in Brazil, Bitcoin India, Bitcoin News #ethereum #blockchain #Gold #Trading #BrazilBitcoin Surpasses Gold Trading in Brazil, Bitcoin India, Bitcoin NewsBitcoin Surpasses Gold Trading in Brazil,big difference is the thousand years track record of gold against just seven years of bitcoin,Globally, gold is still an asset with higher volumes than bitcoinbitex.in",1,0,0,False
154,Bitex.in@bitex_in,"#Bitcoin Surpasses #Gold #Trading in #Brazil
#blockchain
#ethereum
#unocoin http://fb.me/7yydx3wUd",1,0,0,False
155,Ameer Rosic@AmeerRosic,Could #Blockchain Technology Bankrupt #Spotify? http://bit.ly/1tgKTVz #ethereum #bitcoin,1,1,0,False
158,⛧ God of Gaming ⛧@TheGodofGamez,Vision without action is a daydream. Action without vision is a nightmare. $ETH,0,0,0,False
159,⛧ God of Gaming ⛧@TheGodofGamez,Bad things are not the worst things that can happen to us. Nothing is the worst thing that can happen to us! $ETH,1,0,0,False
160,CoinIdol@CoinIdol,"#Altcoin Price Trends: Rising Interest from Investors -
https://coinidol.com/altcoin-price-trends-rising-interest-from-investors/… #altcoins #litecoin #dogecoin #ether",0,0,0,False
161,EtherBlockchain.io@etherblockchain,"@SingularDTV is using #CODE to build a Decentralized Entertainment Industry on the #ether #blockchain.Quote TweetSingularDTV@SingularDTV · Jul 11, 2016@SingularDTV CEO Zach LeBeau on #DAO to the #CODE @ConsenSysLLC #decentralization #ethereum
http://bit.ly/29yC2Le",0,0,0,False
162,JΞFF@jeffehh,"Replying to @Dyndfor destress you should have come to the #ethereum office, we were playing with the Vive all day! ",1,0,0,False
163,EtherBlockchain.io@etherblockchain,"""In support of a hard fork"" by @ethcoreproject #ether #blockchain #hardfork #ethereum https://blog.ethcore.io/in-support-of-a-hard-fork/…",0,0,0,False
164,Francisco Gordillo@FGordillo,#bitcoin #blockchain IBM to Open Blockchain Development Center With Singapore Regulators: IB... http://bit.ly/29OnxPP #ethereum #ether,1,0,0,False
167,Coinstats@coinstats,"Ethereum - ETH
Price: $10.6601
Change in 1h: +0.02%
Market cap: $873244281.0
Ranking: 2
#Ethereum #ETH",0,0,0,False
169,/r/Ethereum@r_Ethereum,"The Attacker has likely hedged by buying DAO Tokens. A HF won't remove him from the system. http://bit.ly/29z53Ac #EthereumThe Attacker has likely hedged by buying DAO Tokens. A HF won't...The Attacker is assumed to have entered a large short position shortly prior to his infiltration of TheDAO. The subsequent drop in price, post...reddit.com",0,0,0,False
170,/r/Ethereum@r_Ethereum,"Need to move Eth out of a wallet http://bit.ly/29GsNGy #EthereumNeed to move Eth out of a walletBut I'm having problems syncing, The sync goes to a certain point and just gives out an error, I've tried -fast, -slow, different locations all...reddit.com",0,0,0,False
171,/r/Ethereum@r_Ethereum,Suits vs. Hoodies: The battle for Blockchain dominance http://bit.ly/29GsHhZ #EthereumSuits vs. Hoodies: The battle for Blockchain dominancePosted in r/ethereum by u/vuvs • 7 points and 3 commentsreddit.com,0,0,0,False
172,/r/Ethereum@r_Ethereum,dAO Curator Whitelisted as part of the dark dAO http://bit.ly/29z5oTK #Ethereum,0,0,0,False
175,TᕼE ᕼYᑭEᖇ@the_hyper,Anyone out there with thoughts around @ethereumproject and ERP? #ethereum @blockchain #blockchain #BlockchainRevolution,0,0,0,False
176,Alex.eth@AlexanderFisher,In support of a hard fork http://buff.ly/29G6XTn #ethereum,0,0,0,False
177,Julia Vaingurt@julia_vaingurt,"Always Appreciate The Stranger Who Is There For You http://cur.lv/10ety4
#Bitcoin #Ethereum #CryptoCurrency http://cur.lv/10ety5",2,0,0,False
179,Ethereum Monkey@EthMonkey,"Is Ethereum, a new virtual currency, the new Bitcoin 2.0? - The Economic Times #ethereum http://economictimes.indiatimes.com/news/international/business/is-ethereum-a-new-virtual-currency-the-new-bitcoin-2-0/articleshow/51582644.cms…",0,0,0,False
180,#SmartEthereum@SmartEthereum,#Razormind Targets #Ethereum by #Crowdfunding #DeOS #Blockchain on July 15 http://cointelegraph.com/news/razormind… #cryptocurrency #altcoin,1,0,0,False
183,Chris Harvey@ChrisHarveyEsq,"#BitCoin gained 50% value in 1st half of 2016.  But #Ether, of #Ethereum platform, gained 1,250%. Bravo. http://coindesk.com/bitcoin-price-h1-report-2016/… @dtapscott",0,0,0,False
184,⛧ God of Gaming ⛧@TheGodofGamez,Much wisdom often goes with fewer words. $ETH,0,0,0,False
185,David Liam@crazydaveorama,"#Ethereum Price Technical Analysis – #ETH Facing Tough Resistance http://newsbtc.com/2016/07/12/ethereum-price-technical-analysis-eth-facing-tough-resistance/… #cryptocurrency #altcoinEthereum Price Technical Analysis – ETH Facing Tough ResistanceEthereum price after weakening started trading in a range. It looks like it is facing a tough resistance on the upside, which is stalling gains.newsbtc.com",0,0,0,False
186,Marius Kjærstad@MKjrstad,"The EU is moving away from its bail-in regime. Use #Ethereum to avoid inflation following bail-outsItalian bond yields fall with bank deal in sightItalian government borrowing costs edged lower on Tuesday, narrowing the gap with benchmark Germany, as Rome moved closer to a deal to safeguard the country's struggling banks.reuters.com",0,0,0,False
187,Tim Schaffner@ChaosTempo,"One more opportunity this summer!
#FTF
#ETH",12,5,0,False
189,⛧ God of Gaming ⛧@TheGodofGamez,Don't cry because it's over. Smile because it happened. $ETH,0,0,0,False
190,Coinstats@coinstats,"Ethereum - ETH
Price: $10.6557
Change in 1h: -0.31%
Market cap: $872873271.0
Ranking: 2
#Ethereum #ETH",0,0,0,False
191,Bits Investments LLC@BitsInvestments,WhatToMine - Crypto coins mining calculator. #Bitcoin #Ethereum Ethash #X11 #X13 #CryptoNight https://whattomine.com,0,0,0,False
192,Cass Sanford@casssanford,"Very cool @ChronicledInc to use #Ethereum’s #Blockchain to Secure Sneakers in Honor of #Kanye http://coinjournal.net/ethereums-blockchain-secure-sneakers-honor-kanye-west/… via @CoinjournalEthereum’s Blockchain to Secure Sneakers in Honor of Kanye West | Coin JournalChronicled, a Silicon Valley based start-up, has unveiled a new method to verify the…coinjournal.net",2,2,0,False
193,Julia Edling@bitcointonic,#Ethereum Targeted by Ethereum Through Crowdfunding #DeOS #Blockchain on July 15:… http://dlvr.it/LnBjFc,1,0,0,False
194,ZotSell@ZotSell,#Ethereum Contract Security Techniques and Tips http://buff.ly/29w95Kq,0,0,0,False
195,Francisco Gordillo@FGordillo,#bitcoin #blockchain Santander Names Blythe Masters Senior Blockchain Advisor: Banco Santand... http://bit.ly/29O2fle #ethereum #ether,0,0,0,False
196,Stephan Tual@stephantual,"The DAO's Curator was whitelisted as part of the DarkDAO - door's opened -  https://etherscan.io/tx/0x9257c2e0a11de7b7427d4607f5908d6448278070bb73500139387930826fedc0… #thedao #ethereum #blockchainEthereum Transaction Hash (Txhash) Details | EtherscanEthereum (ETH) detailed transaction info for txhash 0x9257c2e0a11de7b7427d4607f5908d6448278070bb73500139387930826fedc0. The transaction status, block confirmation, gas fee, Ether (ETH), and token...etherscan.io",22,19,4,False
197,/r/Ethereum@r_Ethereum,How to build server less applications for Mist - Ethereum Blog http://bit.ly/29yO2pS #Ethereum,0,0,0,False
198,/r/Ethereum@r_Ethereum,Add a Github webhook and report you source to the Function Signature Database http://bit.ly/29Geu4q #EthereumAdd a Github webhook and report you source to the Function...TLDR Add a webhook to any of your github repositories that contain Ethereum contract source code for the URL...reddit.com,0,0,0,False
199,/r/Ethereum@r_Ethereum,A $50M Hack Tests the Values of Communities Run by Code http://bit.ly/29Gdbmi #Ethereum,0,0,0,False
200,Jeff Joltes@DevItBetter,#Ethereum Reaches Near Unanimous Agreement to Hardfork (97%) http://jolt.es/29RTE3O #Ethereum #tech,0,0,0,False
201,s@ShelleyLOConnor,"Simply explained #Blockchain #fintech #ethereumQuote TweetSpiros Margaris@SpirosMargaris · Jul 11, 2016A $50M Hack Tests the Values of Communities Run by Code 

http://bit.ly/29E48Cj #fintech @motherboard",1,0,0,False
202,Aaron Maoate@AaronMaoate,Imagine if a bank was robbed and we could just mark the serial # of the missing cash as invalid. Sounds like a #ethereum hardfork to me,0,0,0,False
203,Alberto Jauregui | esoteRICK.eth @DisruptBanksy,http://ift.tt/2a5QR3u How to build server less applications for Mist #ethereum #ether,0,0,0,False
204,BitcoinAgile@bitcoinagile,Diamonds are Forever: On the #ethereum #blockchain - #bitcoin Bragger #EthereumFoundation http://bitcoinbragger.com/diamonds-are-forever-on-the-ethereum-blockchain…,1,0,0,False
205,Augur@AugurProject,Augur's @TonySwish will be talking at the Boise Idaho Bitcoin Meetup on July 20th! Info below #augur #ethereum https://twitter.com/TonySwish/status/752881926919294976…This Tweet is unavailable.,1,2,0,False
206,Dinaro Ly@DinaroLy,"#Ethereum Community Still Torn Over #DAO Attack Fix - http://bankinnovation.net/2016/07/as-decision-time-nears-ethereum-community-still-torn-over-dao-attack-fix/… #cryptocurrency #blockchain #securityAs Decision Nears, Ethereum Community Still Torn Over DAO Attack FixFor a brief moment on Friday, it seemed that the Ethereum development community was (almost) unanimous in their decision tobankautomationnews.com",0,0,0,False
207,Ethereum Price@EthereumPrice_,"#Ethereum: Ether Price Index
1 ETH =0.016292Ƀ XBT = $10.723500 USD
Today: +1.21%⬆︎ Last 24h: +0.06%⬆︎
https://ethereum-price.com",0,0,0,False
208,rinnova energia@rinnova_nrg,How to build server less applications for Mist: Ethereum is not meant to be a platform to build eso... http://bit.ly/29G8sB2 #ethereum,1,0,0,False
209,BitcoinAgile@bitcoinagile,How to build server less applications for Mist - #ethereum Blog #blockchain #dev #contracts https://blog.ethereum.org/2016/07/12/build-server-less-applications-mist…,1,0,0,False
210,Rimbit @rimbit,When will more RimbitPis be available for purchase? http://rimbit.com/threads/when-will-more-rimbitpis-be-available-for-purchase.4844/… #bitcoin #ethereum,0,0,0,False
211,Francisco Gordillo@FGordillo,#bitcoin #blockchain South African Bank Joins R3 Blockchain Consortium: One of South Africa’... http://bit.ly/29EGHtu #ethereum #ether,1,0,0,False
212,Ether Electronics@etherelectronic,"Dreams are our moments before this moment and the moments ahead of us!

#ETHER #gadgets #k… http://ift.tt/2a5Nn0S",0,0,0,False
213,Ether Electronics@etherelectronic,"Dreams are our moments before this moment and the moments ahead of us!

#ETHER #gadgets… https://instagram.com/p/BHw9Q3_DyJt/",0,0,0,False
214,Dillon The Dogé @dillonthedoge,My office heater. #ethereum,3,1,0,False
216,BitShares Hub@bitshareshub,"""#BlockPay for @Odoo "" demo and proof of concept with #SmartcoinsWallet https://steemit.com/bitcoin/@kencode/blockpay-for-odoo-demo-with-smartcoins-wallet… #bitcoin #ethereum #Bitshares @coindeskBlockPay for Odoo demo with Smartcoins Wallet — SteemitProof Of Concept (POC) of the BlockPay for Odoo point of sale (POS) system. See the BlockPay ""S""… by kencodesteemit.com",1,1,0,False
218,enricotalin@enricotalin,#Ethereum Contract Security Techniques and Tips http://buff.ly/29w8VCY,1,0,0,False
220,/r/Ethereum@r_Ethereum,Developers! Blockchain needs us! http://bit.ly/29LGdD2 #EthereumDevelopers! Blockchain needs us!Posted in r/ethereum by u/b9lab-elias • 12 points and 2 commentsreddit.com,0,0,0,False
221,Coinstats@coinstats,"Ethereum - ETH
Price: $10.6406
Change in 1h: -0.38%
Market cap: $871607872.0
Ranking: 2
#Ethereum #ETH",0,0,0,False
224,BigTEquityAlerts@BigEquityAlerts,Ethan Allen Interiors hits a 1 month high http://tinyurl.com/jp7sbmd $ETH #EthanAllenInteriors,0,0,0,False
225,Ameer Rosic@AmeerRosic,5 Blockchain Applications That will Revolutionize The world http://bit.ly/1U4aha8 #Blockchain #Bitcoin #ethereum,1,0,0,False
226,Alberto Jauregui | esoteRICK.eth @DisruptBanksy,http://ift.tt/29NBDko Freewallet's Ethereum Wallet on Google Play is now available for iOS users - Finextra #ethereum #ether,0,0,0,False
228,TBM NEWS@TBMGPT_News,Beginner’s Guide to #Ethereum Mining – How to Mine Ethereum on Your PC? https://99bitcoins.com/guide-ethereum-mining-how-to-mine-ethereum/… via @99bitcoinshq,0,0,0,False
229,WhaleFund@WhaleFund,"#Altcoins Price Analysis (Week of July 12th): #Ethereum, #Litecoin and #DASHAltcoins Price Analysis (Week of July 12th): Ethereum, Litecoin and DASHThe reason for a weak, flat-like movement on altcoin markets is the undergoing correction of a larger scalecointelegraph.com",0,0,0,False
230,TyrionTrader@TheXrn,"When will the attacker can spend they funds, someone know the exact date ? $ETH #Ethereum",1,0,0,False
231,Ethereum UAE@Ethereum_UAE,Razormind Targets Ethereum by Crowdfunding DeOS Blockchain on July 15 http://ift.tt/29uDbP1 #Ethereum,0,0,0,False
232,Ali Güçlü@aliguclu,"CoinTelegraph : Razormind Targets #Ethereum by #Crowdfunding DeOS #Blockchain on July 15 … https://twitter.com/CoinTelegraph/status/752853494953025536…)Quote TweetCointelegraph@Cointelegraph · Jul 12, 2016Razormind Targets #Ethereum by #Crowdfunding DeOS #Blockchain on July 15 https://cointelegraph.com/news/razormind-targets-ethereum-by-crowdfunding-deos-blockchain-on-july-15…",0,0,0,False
234,Francisco Gordillo@FGordillo,#bitcoin #blockchain SolidX Seeking to List Bitcoin Trust on New York Stock Exchange: Blockc... http://bit.ly/29ANj8x #ethereum #ether,1,0,0,False
237,Coinstats@coinstats,"Ethereum - ETH
Price: $10.6794
Change in 1h: -0.46%
Market cap: $874772176.0
Ranking: 2
#Ethereum #ETH",0,0,0,False
238,Ameer Rosic@AmeerRosic,5 Blockchain Applications That Will Transform Society http://bit.ly/1U4aha8 #Blockchain #Bitcoin #ethereum,1,1,0,False
239,⛧ God of Gaming ⛧@TheGodofGamez,The power of intuitive understanding will protect you from harm until the end of your days. $ETH,1,0,0,False
241,Ethereum Monkey@EthMonkey,Freewallet's Ethereum Wallet on Google Play is now available for iOS users #ethereum https://finextra.com/pressarticle/65230/freewallets-ethereum-wallet-on-google-play-is-now-available-for-ios-users…,0,0,0,False
242,Ethereum SE@StackEthereum,Does web3.js have deserialization methods? http://ethereum.stackexchange.com/questions/7040/does-web3-js-have-deserialization-methods… #ethereum #web3js,1,0,0,False
243,/r/Ethereum@r_Ethereum,"Coinscrum with Charles Hoskinson tonight on Bricklane, London http://bit.ly/29yiyjE #EthereumCoinscrum with Charles Hoskinson tonight on Bricklane, LondonPosted in r/ethereum by u/Coinscrum • 1 point and 1 commentreddit.com",0,0,0,False
244,/r/Ethereum@r_Ethereum,Real uses for Ethereum http://bit.ly/29yiv7l #Ethereum,0,0,0,False
245,/r/Ethereum@r_Ethereum,Is this the latest on the DAO hard fork? http://bit.ly/29yjQek #Ethereum,0,0,0,False
246,/r/Ethereum@r_Ethereum,"Request/Suggestion: Chatbot on Mist browser? http://bit.ly/29FLvOi #EthereumRequest/Suggestion: Chatbot on Mist browser?I understand how busy everyone is given the fork. Still, I saw IBMs chatbot API and thought the notion may be useful to providing a necessary help...reddit.com",1,0,0,False
247,/r/Ethereum@r_Ethereum,A Decentralized Escape Hatch for DAOs http://bit.ly/29yhX1t #Ethereum,0,0,0,False
248,Julia Vaingurt@julia_vaingurt,"http://cur.lv/10emo0
 Bitcoin And Ethereum Drift Down After Halving - Huffington Post #ethereum #ether",1,0,0,False
249,Alberto Jauregui | esoteRICK.eth @DisruptBanksy,http://ift.tt/29tj2MO Bitcoin And Ethereum Drift Down After Halving - Huffington Post #ethereum #ether,1,0,0,False
250,BitcoinAgile@bitcoinagile,#ethereum Price Technical Analysis: Resistance Stalling Gains http://bit.ly/29TtgXC,0,0,0,False
251,Ethereum UAE@Ethereum_UAE,"Altcoins Price Analysis (Week of July 12th): Ethereum, Litecoin and DASH http://ift.tt/29NnF1Q #EthereumAltcoins Price Analysis (Week of July 12th): Ethereum, Litecoin and DASHThe reason for a weak, flat-like movement on altcoin markets is the undergoing correction of a larger scalecointelegraph.com",0,0,0,False
252,Ethereum UAE@Ethereum_UAE,"Developer Claims Ethereum is Stolen Intellectual Property, Files Complaints with FBI http://ift.tt/29yAbpE #Ethereum",0,0,0,False
253,Ethereum UAE@Ethereum_UAE,Etherparty Nears Beta Phase To Enable Non-Developers Create Smart Contracts http://ift.tt/29yACQJ #Ethereum,0,0,0,False
254,indxio@indxio,#Russia Market Close || #Bitcoin: $655.76 | 573.94 EUR||  #Litecoin: 0.0076 BTC  || #Ethereum: 0.0245 BTC   || $BTC $LTC $ETH $RUB,0,0,0,False
255,Ethereum SE@StackEthereum,Contract deployment workflow with truffle/ether-pudding http://ethereum.stackexchange.com/questions/7037/contract-deployment-workflow-with-truffle-ether-pudding… #ethereum #goethereum #truffle,0,0,0,False
256,Emmanuel Faustin@emmanuelfaustin,Free Ethereum every 5 minutes http://etherfaucet.net/?r=0xe4f3a3EBcd9e5562Fd05ddBCc04E5500A27C970E… #ethereum via @FreeCryptoCo,0,0,0,False
257,BitcoinAgile@bitcoinagile,There Are No Decentralized Autonomous Organizations #blockchain #ethereum #bitcoin #thedao https://webonanza.com/2016/07/12/there-are-no-decentralized-autonomous-organizations…,1,0,0,False
259,Coinstats@coinstats,"Ethereum - ETH
Price: $10.7354
Change in 1h: -0.16%
Market cap: $879344877.0
Ranking: 2
#Ethereum #ETH",0,0,0,False
260,Ethereum Price@EthereumPrice_,"#Ethereum: Ether Price Index
1 ETH =0.016391Ƀ XBT = $10.764000 USD
Today: +1.82%⬆︎ Last 24h: +1.72%⬆︎
https://ethereum-price.com",0,0,0,False
261,BitcoinBuzz vega9@BitcoinBuzzV9,http://bitcoinbuzz.vega9.com - Hot topics: #stratis #ethereum #bitcoin #blockchain #btc #crypto,0,0,0,False
262,Rimbit @rimbit,Industry Report: The Halving That Came And Went http://rimbit.com/threads/industry-report-the-halving-that-came-and-went.5624/… #bitcoin #ethereum,0,0,0,False
263,Bitcoin@crypto_bitcoins,"#Altcoins Price Analysis (Week of July 12th): #Ethereum, #Litecoin and #DASH https://cointelegraph.com/news/altcoins-price-analysis-week-of-july-12th-ethereum-litecoin-and-dash… #crypto",0,0,0,False
264,Cointon@CointonDotCom,"#Altcoins Price Analysis (Week of July 12th): #Ethereum, #Litecoin and #DASH https://cointelegraph.com/news/altcoins-price-analysis-week-of-july-12th-ethereum-litecoin-and-dash… #crypto",0,0,0,False
265,Ugo Cupcic@ugocupcic,Giving a talk at #ETH Zurich this Friday about @shadowrobot roadmap to useful robotic. http://buff.ly/29TnxRp #DLMC2016,1,0,0,False
266,CryptoDeCrypt @CryptoDeCrypt,Win free Ether with this random rotator faucet!!! http://rotator.ethfaucet.net/?r=0x95174601032Ee5F755CD4EcC0Fa735Ed9488194b… #ethereum,0,0,0,False
267,FK@FedKassad,Replying to @hitbtcAre you guys living under a rock or something? $DAO $ETH $BTC,0,0,0,False
268,Bitcoin@bitcoinpoet,Ethcore blog post: In support of a hard fork:       submitted by    /u/Blue-Chain  [link]   [comments]  http://bit.ly/29FBf8T #ethereumEthcore blog post: In support of a hard forkPosted in r/ethereum by u/Blue-Chain • 101 points and 160 commentsreddit.com,1,0,0,False
269,Bitcoin@bitcoinpoet,"Raising Awareness for cryptocurrencies!: If we want Ethereum and other Cryptos to grow, we need use... http://bit.ly/29EeWRE #ethereumRaising Awareness for cryptocurrencies!If we want Ethereum and other Cryptos to grow, we need use cases in the offline world. One strenghts of Ethereum is the fast Blocktime. But is it...reddit.com",1,3,0,False
271,fintechfolk@fintechfolk,Thanks @miguelangelogs for registering for FinTechFolk - http://zpr.io/Mnfj #fintech #ethereum #bitcoin #blockchain,0,0,0,False
273,YOᗪI ᕼEᖇᗰᗩᗯᗩᑎ@YodiHermawan,"Altcoins Price Analysis (Week of July 12th): #Ethereum, #Litecoin and #DASH: <![CDATA… http://goo.gl/fb/hafff2 #vk",0,0,0,False
274,/r/Ethereum@r_Ethereum,"Raising Awareness for cryptocurrencies! http://bit.ly/29EeWRE #EthereumRaising Awareness for cryptocurrencies!If we want Ethereum and other Cryptos to grow, we need use cases in the offline world. One strenghts of Ethereum is the fast Blocktime. But is it...reddit.com",1,0,0,False
275,/r/Ethereum@r_Ethereum,Ethereum's Killer App: Freedom of Contract - http://Cryptolawyer.net http://bit.ly/29AyLWu #EthereumEthereum's Killer App: Freedom of Contract - Cryptolawyer.netPosted in r/ethereum by u/Hermel • 19 points and 11 commentsreddit.com,1,0,0,False
276,B9lab@b9lab,Exited about a great line-up of developers starting #Certified #Ethereum #Developer #course later this afternoon! https://academy.b9lab.com/courses/B9lab/X16-2/2016-2/about…,1,0,0,False
277,⛧ God of Gaming ⛧@TheGodofGamez,There are no failures — just experiences and your reactions to them. $ETH,0,0,0,False
278,Coinstats@coinstats,"Ethereum - ETH
Price: $10.7525
Change in 1h: +0.46%
Market cap: $880733144.0
Ranking: 2
#Ethereum #ETH",0,0,0,False
279,BitcoinBuzz vega9@BitcoinBuzzV9,http://bitcoinbuzz.vega9.com - Hot topics: #ethereum #stratis #bitcoin #blockchain #btc #crypto,0,0,0,False
280,BitcoinAgile@bitcoinagile,"Altcoins Price Analysis (Week of July 12th): #ethereum, Litecoin and DASH - cryptocoins4you #Bitcoin #free #ltc http://cryptocoins4you.net/2016/07/12/altcoins-price-analysis-week-of-july-12th-ethereum-litecoin-and-dash…",0,0,0,False
281,Раб Божий@Diener_Gottes,"Altcoins Price Analysis (Week of July 12th): #Ethereum, #Litecoin and #DASH: <![CDATA[ The… http://goo.gl/fb/au5sNG",0,0,0,False
283,Simon de la Rouviere @simondlr,Here's our work we've been busy with on smart contract security tips: https://github.com/ConsenSys/smart-contract-best-practices…. #ethereum #futureConsenSys/smart-contract-best-practicesA guide to smart contract security best practices. Contribute to ConsenSys/smart-contract-best-practices development by creating an account on GitHub.github.com,23,18,1,False
284,AltcoinWeekly@altcoinweekly,The latest Ethereum price is USD 10.71. For historical #Ethereum price charts - http://buff.ly/29v0fwg,0,0,0,False
285,CoinGecko@coingecko,The latest Ethereum price is USD 10.71. For historical #Ethereum price charts - http://buff.ly/29v01Fh,0,0,0,False
286,Ethereum UAE@Ethereum_UAE,"Altcoins Price Analysis (Week of July 12th): Ethereum, Litecoin and DASH http://ift.tt/29B1SeG #Ethereum",0,0,0,False
287,Ethereum SE@StackEthereum,Deploying contracts on geth http://ethereum.stackexchange.com/questions/7034/deploying-contracts-on-geth… #ethereum #goethereum #truffle,0,0,0,False
288,4BC@aff4bc,"Altcoins Price Analysis (Week of July 12th): #Ethereum, #Litecoin and #DASH: The reason for… http://dlvr.it/Ln4VVv",0,0,0,False
289,Bitcoin Directory@dir4bc,"Altcoins Price Analysis (Week of July 12th): #Ethereum, #Litecoin and #DASH: The reason for… http://dlvr.it/Ln4VSj",0,0,0,False
290,Widget 4 Bitcoin@widget4bc,"Altcoins Price Analysis (Week of July 12th): #Ethereum, #Litecoin and #DASH: The reason for… http://dlvr.it/Ln4VVH",0,0,0,False
291,BitcoinAgile@bitcoinagile,Lisk expanding as #ethereum suffers instability #cryptocurrency http://coinfox.info/news/5898-lisk-expanding-as-ethereum-suffers-instability…,1,2,0,False
292,Jesic Aleksandar@SasaJesic,#TheDAO #ethereum Calm before the storm?,1,0,0,False
293,Ali Güçlü@aliguclu,"CoinTelegraph : #Altcoins Price Analysis (Week of July 12th): #Ethereum, #Litecoin and #DA… https://twitter.com/CoinTelegraph/status/752808068325474304…)Quote TweetCointelegraph@Cointelegraph · Jul 12, 2016#Altcoins Price Analysis (Week of July 12th): #Ethereum, #Litecoin and #DASH https://cointelegraph.com/news/altcoins-price-analysis-week-of-july-12th-ethereum-litecoin-and-dash…",0,0,0,False
294,BitcoinBuzz vega9@BitcoinBuzzV9,http://bitcoinbuzz.vega9.com - Hot topics: #bitcoin #ethereum #blockchain #btc #crypto #fintech,0,0,0,False
296,BitcoinAgile@bitcoinagile,#ethereum Price Technical Analysis  ETH Facing Tough Resistance - #bitcoin Bragger #ETH/USD http://bit.ly/29xRFfX,0,0,0,False
297,Shitcoin.com@ShitcoinDotCom,#Ethereum hard fork,0,0,0,False
299,/r/Ethereum@r_Ethereum,What Are Some (Niche) Examples Of Central Registries That Urgently Need To Be Decentralized? http://bit.ly/29MXBnM #Ethereum,1,1,0,False
300,/r/Ethereum@r_Ethereum,Ethereum News: What is Steem? Should You Spend Your Ether To hold some while confidence in ether ra... http://bit.ly/29KTQlZ #Ethereum,1,1,0,False
301,/r/Ethereum@r_Ethereum,Post-halving: future is unclear but bitcoin is there to stay http://bit.ly/29MXhW0 #EthereumPost-halving: future is unclear but bitcoin is there to stayPosted in r/ethereum by u/margaritt • 3 points and 0 commentsreddit.com,5,2,0,False
303,vDice@vDice_io,"Why corporations Love #ethereum
http://huffingtonpost.com/david-seaman/why-corporations-love-eth_b_10849632.html…
#blockchain",1,0,0,False
305,sachin mehta@sachinjm,"Developer Claims Ethereum is Stolen Intellectual Property, Files Complaints with FBI http://cointelegraph.com/news/developer-claims-ethereum-is-stolen-intellectual-property-files-complaints-with-fbi… #ethereum #eth #cryptocurenisDeveloper Claims Ethereum is Stolen Intellectual Property, Files Complaints with FBIA developer who claims Ethereum is stolen intellectual property explains why he is coming to the press about the theft for the first time.cointelegraph.com",0,0,0,False
307,Crypdex@CrypdexLLC,converted 23.12 mBTC $15.01 USD to ETH #Ethereum,1,0,0,False
309,Coinstats@coinstats,"Ethereum - ETH
Price: $10.6843
Change in 1h: +0.32%
Market cap: $875118486.0
Ranking: 2
#Ethereum #ETH",0,0,0,False
310,Ethereum Price@EthereumPrice_,"#Ethereum: Ether Price Index
1 ETH =0.016476Ƀ XBT = $10.677500 USD
Today: +2.35%⬆︎ Last 24h: +0.84%⬆︎
https://ethereum-price.com",0,0,0,False
311,BitcoinAgile@bitcoinagile,Hi Rimbit Im Happy To Be Here #ethereum #bitcoin http://rimbit.com/threads/hi-rimbit-im-happy-to-be-here.5607…,1,3,0,False
312,Rimbit @rimbit,Hi Rimbit Im Happy To Be Here http://rimbit.com/threads/hi-rimbit-im-happy-to-be-here.5607/… #bitcoin #ethereum,0,0,0,False
314,/r/Ethereum@r_Ethereum,Riffle: an efficient communication system with strong anonymity http://bit.ly/29JHjxB #EthereumRiffle: an efficient communication system with strong anonymityPosted in r/ethereum by u/d11e9 • 35 points and 1 commentreddit.com,0,0,0,False
315,/r/Ethereum@r_Ethereum,"""The ultimate disaster scenario is when there is a critical problem with the system and you cannot ... http://bit.ly/2a4QYfS #Ethereum",0,0,0,False
316,/r/Ethereum@r_Ethereum,Naive question: why not blacklist stolen funds and move on? http://bit.ly/29JH9Gr #Ethereum,0,0,0,False
317,⛧ God of Gaming ⛧@TheGodofGamez,Nothing is at last sacred but the integrity of your own mind. $ETH,0,0,0,False
319,Ethereum SE@StackEthereum,pyethapp is unable to add transactions to blockchain http://ethereum.stackexchange.com/questions/7030/pyethapp-is-unable-to-add-transactions-to-blockchain… #ethereum #transactions #blockchain #synchronization #pyethapp,0,0,0,False
321,Coinstats@coinstats,"Ethereum - ETH
Price: $10.6294
Change in 1h: +1.01%
Market cap: $870603357.0
Ranking: 2
#Ethereum #ETH",0,0,0,False
322,Nick Ayton@NickAyton,Replying to @rwang0Like it Ray great chart @rwang0 #IoT #disruption @constellationr #blockchain #ethereum Ledger of Things needed,0,0,0,False
324,Julia Vaingurt@julia_vaingurt,"Elementrem - Ethereum clone smart contract BlockChain
http://cur.lv/10eeon
#eth #blockchain #bitcoin #altcoins #cryptocurrency",0,0,0,False
325,sachin mehta@sachinjm,"Elementrem - Ethereum clone smart contract BlockChain
http://goo.gl/ukGDrV #eth #blockchain #bitcoin #altcoins #cryptocurrency",0,0,0,False
326,Mlles@Mlles805,I liked a @YouTube video from @hiiperedits http://youtu.be/oa5dVWQByz0?a 7 years. #Amb #Vil #Arch #Eth,0,0,0,False
327,Crypto Bean@William42111948,Hello #dao #eth investors: Now it is time for $XVC https://twitter.com/bubblebobble123/status/752609785200140289…This Tweet is unavailable.,1,0,0,False
328,BitcoinAgile@bitcoinagile,CryptoStyle  News: #ethereum Price Technical Analysis  ETH Facing Tough Resistance  http://cryptostyle.com/news/news-ethereum-price-technical-analysis-eth-facing-tough-resistance…,1,1,0,False
329,The Tony Buzan Group@Tony_Buzan,Replying to @chess_chat@Times_Chess.    #Art is in The #Ether!,2,1,1,False
330,indxio@indxio,#China Market Close || #Bitcoin: $648.02 | 572.9 EUR||  #Litecoin: 0.0076 BTC  || #Ethereum: 0.0245 BTC   || $BTC $LTC $ETH $RMB,0,0,0,False
331,David@vengerovski,"Mango: Git completely decentralized, using #Ethereum and #IPFS / #Swarm via @alexberegszasziQuote TweetAndreas (BEWARE of giveaway scams!)@aantonop · Jul 11, 2016#git + #ipfs + #ethereum = #mango. Interesting!

“Mango: Git completely decentralised”
https://medium.com/@alexberegszaszi/mango-git-completely-decentralised-7aef8bcbcfe6#.maci1f3qu…",0,0,0,False
332,Coinstats@coinstats,"Ethereum - ETH
Price: $10.5201
Change in 1h: +0.17%
Market cap: $861636093.0
Ranking: 2
#Ethereum #ETH",0,0,0,False
333,Ethereum SE@StackEthereum,How i can access the contract functions (After run compiling the contract source code) http://ethereum.stackexchange.com/questions/7028/how-i-can-access-the-contract-functions-after-run-compiling-the-contract-source… #ethereum #web3js,0,0,0,False
339,Nick Ayton@NickAyton,Smart Contracts user cases #blockchain #ethereum Its coming your way http://ln.is/dupress.com/articles/nCW6r… @cloudnthings @Stevewal63 @dtapscott,7,6,0,False
340,Nick Ayton@NickAyton,Continuing to woo Wall Street #blockchain breakout #ethereum http://ln.is/fortune.com/2016/07/TVPK6… @cloudnthings @Stevewal63 @blockchaincoach @PullNewsWhat Wall Street’s Obsession With Blockchain Means for the Future of BankingAnd your walletfortune.com,5,4,0,False
341,/r/Ethereum@r_Ethereum,"Building a dao focused on multiple high tech applications, including a trading bot that lives on the dao. http://bit.ly/29JhLAN #Ethereum",1,1,0,False
342,⛧ God of Gaming ⛧@TheGodofGamez,People who say it cannot be done should not interrupt those who are doing it. $ETH,0,0,0,False
343,Coinstats@coinstats,"Ethereum - ETH
Price: $10.5175
Change in 1h: +0.41%
Market cap: $861409761.0
Ranking: 2
#Ethereum #ETH",0,0,0,False
344,Ethereum Price@EthereumPrice_,"#Ethereum: Ether Price Index
1 ETH =0.016193Ƀ XBT = $10.529160 USD
Today: +0.59%⬆︎ Last 24h: -2.88%⬇︎
https://ethereum-price.com",0,0,0,False
345,Kryptonews.live official account@Starfaucet,After our Devs studying it a Hard Fork wont be the answer to #Ethereum #TheDAO problems and now we have someone suing over #patent rights,1,0,0,False
346,Alberto Jauregui | esoteRICK.eth @DisruptBanksy,http://ift.tt/29AMNbC Ethereum Price Technical Analysis – ETH Facing Tough Resistance - newsBTC #ethereum #ether,1,0,0,False
347,Nick Ayton@NickAyton,Replying to @Stevewal63Which #blockchain or will it be #ethereum @Stevewal63 @thomaspower @cloudnthings @dtapscott The secret sauce is the Business Logic,7,2,1,False
349,Bitbond@Bitbond,#Dutch #bitcoin miner is asking for 14 #bitcoin to mine for #ethereum  http://buff.ly/29xqQZW #mining #business,1,0,0,False
350,Brave New Coin@bravenewcoin,"DCXR, an easy to use #API offering currency conversion between #BTC, #ETH, #LTC etc to USD, JPY & more. http://ow.ly/e6Dd300BG2X",1,0,0,False
351,BitcoinAgile@bitcoinagile,#ethereum Price Technical Analysis  ETH Facing Tough Resistance - NEWSBTC #ethereumtrade http://bit.ly/29SyxhV,1,1,0,False
355,Ethereum Monkey@EthMonkey,Ethereum Price Technical Analysis - ETH Facing Tough Resistance - NEWSBTC #ethereum http://newsbtc.com/2016/07/12/ethereum-price-technical-analysis-eth-facing-tough-resistance/…,2,0,0,False
356,Julia Vaingurt@julia_vaingurt,"Downloading and compiling the wallet on a Raspberry Pi http://cur.lv/10eaaz
#bitcoin #ethereum",1,3,0,False
357,Rimbit @rimbit,Downloading and compiling the wallet on a Raspberry Pi http://rimbit.com/threads/downloading-and-compiling-the-wallet-on-a-raspberry-pi.3393/… #bitcoin #ethereum,0,0,0,False
358,Coinstats@coinstats,"Ethereum - ETH
Price: $10.467
Change in 1h: -0.07%
Market cap: $857263475.0
Ranking: 2
#Ethereum #ETH",0,0,0,False
359,/r/Ethereum@r_Ethereum,/r/Ethereum I need your opinion. http://bit.ly/29zTppC #Ethereum,1,0,0,False
360,/r/Ethereum@r_Ethereum,What does it cost in USD to send a transaction right now? http://bit.ly/29DyG85 #Ethereum,1,0,0,False
361,/r/Ethereum@r_Ethereum,"I think I can speak for most of us (original DAO investors) that we truly believed in, and were exc... http://bit.ly/29zTrxI #Ethereum",1,0,0,False
362,/r/Ethereum@r_Ethereum,Focus. http://bit.ly/29DzdXz #Ethereum,1,0,0,False
363,/r/Ethereum@r_Ethereum,Speculation & Risk Management in Crypto #1 http://bit.ly/29zThX6 #Ethereum,1,0,0,False
365,aminechorfe@aminechorfe1,Free Ethereum every 5 minutes http://etherfaucet.net/?r=0x554490d3b8d6b046911108a84e1ec1cff574c320… #ethereum via @FreeCryptoCo,0,0,0,False
366,Kalyani Radhika@exploretorise,#Earth #Water #Fire #Air #Ether and combination of their form #quality dimension contributes to all gross characteristics of a sense object,1,0,0,False
367,Roger Stupf@rogerstupf,"Replying to @sufrankehuch, eventuell von uns #uzh #eth?",1,0,0,False
368,Ethereum SE@StackEthereum,How can I connect to geth by IPC on nodejs? http://ethereum.stackexchange.com/questions/5792/how-can-i-connect-to-geth-by-ipc-on-nodejs… #ethereum #goethereum #nodejs #ethereumjs,1,0,0,False
369,Ethereum SE@StackEthereum,Truffle WebPack problem http://ethereum.stackexchange.com/questions/6754/truffle-webpack-problem… #ethereum #truffle,1,0,0,False
370,Ethereum SE@StackEthereum,Convert (negative) int to string http://ethereum.stackexchange.com/questions/6819/convert-negative-int-to-string… #ethereum #solidity #string,1,0,0,False
371,Ethereum SE@StackEthereum,How do I configure a home.parity address for my parity node browser? http://ethereum.stackexchange.com/questions/6836/how-do-i-configure-a-home-parity-address-for-my-parity-node-browser… #ethereum #browsers #parity #configuration,1,0,0,False
372,Ethereum SE@StackEthereum,Is a hardfork more democratic then a softfork? [on hold] http://ethereum.stackexchange.com/questions/6881/is-a-hardfork-more-democratic-then-a-softfork… #ethereum #thedao #hardfork #softfork,1,0,0,False
373,Ethereum SE@StackEthereum,Math operation between int and uint http://ethereum.stackexchange.com/questions/6947/math-operation-between-int-and-uint… #ethereum #solidity #contractdevelopment,1,0,0,False
374,Ethereum SE@StackEthereum,How can I transfer ETH from one Poloniex account to another? http://ethereum.stackexchange.com/questions/6949/how-can-i-transfer-eth-from-one-poloniex-account-to-another… #ethereum #ether #poloniex,1,0,0,False
375,Ethereum SE@StackEthereum,Can you make ajax requests in a Dapp? http://ethereum.stackexchange.com/questions/6980/can-you-make-ajax-requests-in-a-dapp… #ethereum #mist #dappdevelopment,1,0,0,False
376,Ethereum SE@StackEthereum,Blockchain sync... what am I doing wrong? http://ethereum.stackexchange.com/questions/6982/blockchain-sync-what-am-i-doing-wrong… #ethereum #goethereum #synchronization,1,0,0,False
377,Ethereum SE@StackEthereum,I can't run Ethereum Wallet /Mist 0.8.0 on Ubuntu 16.04 http://ethereum.stackexchange.com/questions/6983/i-cant-run-ethereum-wallet-mist-0-8-0-on-ubuntu-16-04… #ethereum #mist,1,0,0,False
378,Ethereum SE@StackEthereum,"What does ""ERC"" stand for? http://ethereum.stackexchange.com/questions/6986/what-does-erc-stand-for… #ethereum #protocol #eip",1,0,0,False
379,Ethereum SE@StackEthereum,flag provided but not defined: -targetgaslimit http://ethereum.stackexchange.com/questions/6988/flag-provided-but-not-defined-targetgaslimit… #ethereum #gaslimit #commandline,1,0,0,False
390,Ethereum SE@StackEthereum,How to enable mining of my crypto currency? http://ethereum.stackexchange.com/questions/6989/how-to-enable-mining-of-my-crypto-currency… #ethereum #solidity #altcoin,1,0,0,False
391,Ethereum SE@StackEthereum,How to identify database of Ether http://ethereum.stackexchange.com/questions/6991/how-to-identify-database-of-ether… #ethereum #ether,1,0,0,False
392,Ethereum SE@StackEthereum,Gas too low for my contract to contract payment despite gas set http://ethereum.stackexchange.com/questions/6993/gas-too-low-for-my-contract-to-contract-payment-despite-gas-set… #ethereum #goethereum,1,0,0,False
393,Ethereum SE@StackEthereum,Mining difficulty compared to bitcoin http://ethereum.stackexchange.com/questions/6995/mining-difficulty-compared-to-bitcoin… #ethereum #mining,1,0,0,False
394,Ethereum SE@StackEthereum,Which firewall settings should I use for Geth as a non-miner using Linux Ubuntu 15.10? http://ethereum.stackexchange.com/questions/6996/which-firewall-settings-should-i-use-for-geth-as-a-non-miner-using-linux-ubuntu… #ethereum #goethereum,1,0,0,False
395,Ethereum SE@StackEthereum,How do I use the proof of work function given in here: https://ethereum.org/token#proof-of-work…? http://ethereum.stackexchange.com/questions/6997/how-do-i-use-the-proof-of-work-function-given-in-here-https-www-ethereum-org… #ethereum,1,0,0,False
396,Ethereum SE@StackEthereum,How the multisignature process working after completed the contract process http://ethereum.stackexchange.com/questions/6998/how-the-multisignature-process-working-after-completed-the-contract-process… #ethereum #web3js #multisignature,0,0,0,False
397,Ethereum SE@StackEthereum,Iterating over transactions in a private blockchain using web3.js [duplicate] http://ethereum.stackexchange.com/questions/7000/iterating-over-transactions-in-a-private-blockchain-using-web3-js… #ethereum #transactions #web3js,1,0,0,False
398,Ethereum SE@StackEthereum,How to run two nodes on the same device? http://ethereum.stackexchange.com/questions/7006/how-to-run-two-nodes-on-the-same-device… #ethereum #goethereum,1,0,0,False
399,Ethereum SE@StackEthereum,How costly is leaving a gap in an array? http://ethereum.stackexchange.com/questions/7007/how-costly-is-leaving-a-gap-in-an-array… #ethereum #solidity,1,0,0,False
400,Ethereum SE@StackEthereum,How to set a block height with testrpc? http://ethereum.stackexchange.com/questions/7012/how-to-set-a-block-height-with-testrpc… #ethereum #testrpc,1,0,0,False
401,Ethereum SE@StackEthereum,Why contract addresses are larger than account addresses? http://ethereum.stackexchange.com/questions/7016/why-contract-addresses-are-larger-than-account-addresses… #ethereum #wallets #accounts,1,0,0,False
402,Ethereum SE@StackEthereum,"mist.exe , Ethereum-Wallet.exe not a Win32 valid application http://ethereum.stackexchange.com/questions/7022/mist-exe-ethereum-wallet-exe-not-a-win32-valid-application… #ethereum #mist #wallets #windows",1,1,0,False
403,Ethereum SE@StackEthereum,who pays for gas in a refund transaction http://ethereum.stackexchange.com/questions/7026/who-pays-for-gas-in-a-refund-transaction… #ethereum #transactions #contractdevelopment #gas,1,0,0,False
406,KLmoney@KLmoney8,Replying to @KLmoney8Mining centralization within pools makes rubbish of the classic hard fork consensus process. #ethereum,1,0,0,False
412,Coinstats@coinstats,"Ethereum - ETH
Price: $10.4794
Change in 1h: +0.13%
Market cap: $858265826.0
Ranking: 2
#Ethereum #ETH",0,0,0,False
