,user,text,likes,retweets,replies,is_thread
0,฿it @nalyst@BitAnalyst,"R3: 'our business model is making people poor, so they can take on more debt'.
#r3 #cryptocurrency #bitcoin #ethereum #dashpay",1,0,0,False
1,Martin Vidler@vids76,How the #blockchain will change our society - http://bbc.in/1S9vJKo #R3 #BitCoin #cryptocurrency #Ethereum,1,0,0,False
2,Park Jae Hwa@ParkJHwa,We live in a beautiful world - #zurich #ETH #swissnacht #switzerland #nightlife #beautifulworld… https://instagram.com/p/BA2ik91iCit/,0,0,0,False
3,AlexNa@AlexNa,"16,000+ domains registered on #EtherId http://EtherId.org #ethereum",7,4,1,False
4,ethereum.network@EthereumNetw,".@blythemasters #Blockchain Startup Raises $52M from 13 Financial Firms. Via Bloomberg
Have an #Ethereum idea? ;)
http://buff.ly/1Qj9IXS",2,0,0,False
5,ndom91@ndom91,So I started syncing the #Ethereum blockchain and didnt realize how large/time consuming this would be. 5hrs later.. on block#711381,1,1,0,False
6,StockEarnings@StocksEarnings,"$ETH Since last ER, stock dropped 12%. Reporting Earnings on 1/26 After Close (Confirmed). http://ow.ly/XnA4s",0,0,0,False
7,Jesús Medina@jmedinaib,Load test.  800kg.  Structural success. #ETH #digitalfabrication,4,0,0,False
11,ethereum.network@EthereumNetw,"Prediction: $10 Billion Will Be Invested in #Blockchain Projects in 2016 via @leashless from #Ethereum
http://buff.ly/1nDiO8i",17,23,0,False
12,Ethereum Canada@EthereumCanada,"""My estimate is that we’re going to see $1 billion come into the #Ethereum ecosystem in 2016"" - @leashless http://ow.ly/Xp8R9",1,0,0,False
13,Pelle Brændgaard (we are hiring)@PelleB,"Good CypherPunk book from 1999 about a world of #crypto, #smartcontracts, decentralized markets http://amazon.com/exec/obidos/ASIN/067157809X/munditostiegler/… #Ethereum",9,4,0,False
14,Ethereum Canada@EthereumCanada,UBS donates its #Ethereum-based bond-trading platform to HIV Research. This is incredible. https://city.wsj.com/stories/fe6b7359-baf8-42ed-a069-2dc145786ccc.html…,2,2,0,False
15,(Bayede) Nkosi Kwesi@Nkosi_Kwesi,"...
I feel this like tight pussy
#Ether #Nas

I've been fucked over, left for dead, dissed and forgotten
Luck ran... http://fb.me/OT1ca0Gs",0,0,0,False
16,Bleutrade Cryptocurrency Exchange@bleutrade,1 ETH = 0.00389918 BTC at https://bleutrade.com/exchange/ETH/BTC… #ethereum #eth #bitcoin #btc #Bleutrade,0,0,0,False
17,BitcoiNapoleon@hodler_btc,#ethereum to the moon :),0,0,0,False
18,Chris Dunn@ChrisDunnTV,#Ethereum looking primed for a breakout here...,37,12,1,False
19,Vindyne8@Vindyne8,Amazing things happening to #SpreadCoin look - http://bit.ly/1OSybWD $SPR $BTC $DASH $BTS $FCT $DOGE $ETH $XMR #RT,13,14,0,False
20,Christopher Allsop@stealth2377,#Bitcoin doesn't need to fail for other #Blockchain companies to succeed. Lots of room for growth. #Ethereum http://ow.ly/3yUGyk,0,0,0,False
21,BitcoiNapoleon@hodler_btc,#Ethereum 0.0040000 BTC to kill,0,0,0,False
22,Bitfly@etherchain_org,Upload & verify the source code of your solidity contract to https://etherchain.org/account_verify/ #ethereum #Dapp #solidity,0,0,0,False
23,Dominik Schiener   @DomSchiener,"BitcoinMagazine just published my short interview on CargoChain #hackathon #bitcoin #ethereumBlockchain Solution for International Trade Takes Prize at FBS and...This article is by Krystle Vermes. In an effort to bring blockchain enthusiasts together for the sake of innovation, Wanxiang Blockchain Labs and Deloittebitcoinmagazine.com",2,1,0,False
24,Jolocom@GETJolocom,"Never stop learning! #Bitcoin, #Blockchain and #Ethereum in short videos http://buff.ly/1Pn2mWb  @JockelLohkamp",4,6,0,False
25,Kimi Sian-Yu Chen@drawpie,"You can get very rich, if you run a private chain ,haha.
#Ethereum",1,0,0,False
26,AltcoinLive bot@AltcoinLiveBot,new $ETH buywall 16.6btc @ 0.00385000 http://altcoinlive.com/bittrex-eth-btc #altcoinlive,0,0,0,False
27,clayton@clayton_dd,ETH 24.55 Ethan Allen Interiors Inc $ETH added to my watch list. Right now with ETH I am watching the last pri http://investorshangout.com/post/view?id=3497997…,0,0,0,False
28,Frontline_fx@frontline_fx,Rap Legend @Nas #ether #newyork,2,0,0,False
29,Crypto Price Ticker@TickerCrypto,Carvett #Ethercoin ETC ranked 21 http://marketcapcoin.com 1st #Bitcoin 2nd #Ripple 3rd #Marinecoin Crypto Currency …,1,0,0,False
30,Nestor Kippes@nfkip,"@ethereumproject is one of the most exciting things I heard about lately, still trying to understand it...#ETH",0,0,0,False
31,Ludlow Research@LudlowResearch,"#Pinkcoin prices creeping up (intraday chart) https://coingecko.com/en/price_charts/pinkcoin/btc…
#bitcoin #litecoin #dogecoin #ethereum #btc #ltc #doge #eth",2,1,1,False
32,Bitcoin@bitcoinpoet,Difficulty breaks 10T! First time ever?:    submitted by  cjphi  [link] [comment]  http://bit.ly/1lCEiki #ethereum,1,1,0,False
33,Nico Flores@James_005672,I just won free 0.00105200 ETHER from  http://etherfaucet.org #ether #satoshi #freeether #faucet via @etherfaucet,0,0,0,False
34,Joel Valenzuela@TheDesertLynx,"New Hampshire on the cutting edge with a new #ethereum-based ride-sharing service, Arcade City! @ArcadeCityHall http://cointelegraph.com/news/116100/arcade-city-decentralized-blockchain-based-answer-to-uber…",4,1,0,False
35,CSR info@CSR_RT,RT @ leadingincontxt: Positive #leaders stay grounded in #ethical values and use a human growth mindset. http://ift.tt/1JqdEGM; #csr #eth…,0,0,0,False
36,slock.it@slockitproject,Eugene Kaspersky (@e_kaspersky) discussing blockchains with @ChrJentzsch #wef2016 #davos2016 #ethereum,16,9,1,False
37,tgerring.eth@TaylorGerring,Are you a fan of Stack Overflow and have an #Ethereum question? Join the new Stack Exchange site! https://ethereum.stackexchange.com,8,9,1,False
38,Bleutrade Cryptocurrency Exchange@bleutrade,1 ETH = 0.00372659 BTC at https://bleutrade.com/exchange/ETH/BTC… #ethereum #eth #bitcoin #btc #Bleutrade,1,0,0,False
39,Michael Wuehler@wuehler,"Will be standing room only for Introduction to #Ethereum & #SmartContracts in #Midtown #Manhattan next MondayIntroduction to Ethereum and Smart ContractsMon, Jan 25, 2016, 6:30 PM: Join us as we kick-off 2016 with great food and a chance to network in the Ethereum NYC community.An Introduction to Ethereum and Smart ContractsJoin us for an introductionmeetup.com",1,1,0,False
40,a5ym4e@a5ym4e,"Law and State as #blockchain ""trusted intermediary"" http://bit.ly/1Qqbbxx @Backfeed_cc @yaoeo #lawtech #ethereum #CyberLaw",1,1,0,False
41,Pelle Brændgaard (we are hiring)@PelleB,E was the earliest language (1998?) for implementing #smartcontracts that I remember http://erights.org/smart-contracts/index.html… #Ethereum,1,1,0,False
42,AltcoinLive bot@AltcoinLiveBot,removed $ETH buywall 10.5btc @ 0.00385000 http://altcoinlive.com/bittrex-eth-btc #altcoinlive,1,0,0,False
43,druid andrew@andyypants,ya #FCT is good for a quick flip anyways. Not gonna be holding this hot potato too long either but its a reasonable play #ether is suicide,0,0,0,False
44,ethereum.network@EthereumNetw,"Have an #Ethereum address in your program? Use this simple snippet to show an icon identical to the one in Mist
https://github.com/alexvandesande/blockies/blob/master/ethereum-address-sample.html…",0,0,0,False
45,Bitcoin@bitcoinpoet,"Place to trade BTC for Ether?: Hey guys, I've been having trouble finding a service that provides an... http://bit.ly/1Jpvxpd #ethereumPlace to trade BTC for Ether?Hey guys, I've been having trouble finding a service that provides an ability to trade btc for ether.reddit.com",1,1,0,False
46,Bitcoin@bitcoinpoet,Help! Noob trying to learn how to install/use ethereum: So I've followed the instructions on the off... http://bit.ly/1lB0JGj #ethereum,0,0,0,False
47,BitcoinAgile@bitcoinagile,"Big Banks Boost Block Chain Startup With New Funding, Deal #Bitcoin #blockchain #Ethereum http://fortune.com/2016/01/22/digital-asset-holding-blockchain…",2,1,0,False
48,Ethereum Canada@EthereumCanada,"DEVCON1 Vids: Dangerous Old Men: Cypherpunk's Failure, #Ethereum's Success - @leashless & @imogenheap http://ow.ly/XpHGi",1,1,0,False
49,druid andrew@andyypants,still saying #ether is wayy to fluffed up to even risk anything on but there is alot less #fct and its rly just as hype prone. edging in...,1,0,0,False
50,ETH Zurich@ETH_en,#ETH start-ups spark the interest of over 100 investors during the Investor Summit this week http://bit.ly/1nCrv2L,2,3,0,False
51,BioChem Adda@BioChemAdda,"#PhD student | #Department of Plant Pathology @ #ETH Zurich #BSc or MSc in #plant science,… http://kbiosciences.org/2016/01/22/phd-student-department-of-plant-pathology-eth-zurich/…",2,2,0,False
52,Caleb Chen@bitxbitxbitcoin,Watching @Marco_Streng's @GenesisMining buildout videos for gpu mining triggers nostalgia #tnabc #btcmiami #bitcoin #litecoin #ether #x11,2,1,0,False
53,⛧ God of Gaming ⛧@TheGodofGamez,#GameCredits Live Available Supply *undefined $GMC* #gamedev #gamers $btc $ltc $doge $eth $xrp $gmc #62744,0,0,0,False
54,druid andrew@andyypants,"ah a nice little dip on $MAID ... its like the only ""hi tech"" crypto not pumped to high heaven. $ETH and $FCT see you another day hehe",0,0,0,False
55,⛧ God of Gaming ⛧@TheGodofGamez,#GAMECREDITS LIVE TICKER 1 $GMC = 0.00001840 $BTC = 0.01 $USD #gamedev #indiedev #gamer $ltc $eth $doge #97544,1,0,0,False
56,cash Card CRYPTO ⟠@CashCardCrypto,"@feindura, yup, couldn't agree more
Vlad, Charlie and the whole CC team are *super* smart - we're lucky to have 'em!
#bitcoin #ethereum",0,0,0,False
57,Simon de la Rouviere @simondlr,Wow. Going through @goboardroom's new smart contract architecture design by @iamnickdodson. Phenomenal. Pushing the boundary already.,9,2,1,False
58,Simon de la Rouviere @simondlr,Legit got shivers from reading through it. At the cusp of something really crazy. #ethereum. @goboardroom.,3,1,0,False
59,Dario UTXO @DarioUTXO,"I hadn't heard that @gavofyork (#ethereum ) was leaving for his own start-up ... anyone with insight, info or news ???",1,3,0,False
60,US Banking News@AmericanBanking,Ethan Allen Interiors Inc. $ETH Scheduled to Post Quarterly Earnings on Tuesday http://ift.tt/1PIpSaj,0,0,0,False
61,notsofast@notsofast,"Every one of my re-entries has been awesome-- $DASH at 1050000, $NXT at 1654-- except $ETH which I can't get a fill on. That buy support",0,0,0,False
62,Pelle Brændgaard (we are hiring)@PelleB,@zooko Do you know if Mark Stiegler is on twitter? An ebook version of EarthWeb would be great for all the young #ethereum whipper snappers.,1,1,1,False
63,Danny O'Neil@dannyoneil,"I've always thought @jemelehill was sharp, perhaps even a ninja. But that? That was a samurai. #ether",2,2,0,False
64,Ben King@Grimeandreason,"C'mon $ETH, let's break-out over that 400k resistance...

Feeling good in $ETH, $NXT, $DGB and $DOGE.",0,0,0,False
65,hadjout@catherinefox23,I just won free 0.00034168 ETHER from  http://etherfaucet.org #ether #satoshi #freeether #faucet via @etherfaucet,1,0,0,False
66,Danny O'Neil@dannyoneil,#Ether should henceforth refer to what @JemeleHill said about @REALStaceyDash on @nightlyshow. Lester Freamon calls that the head shot.,2,2,0,False
67,SaiMinOo@SaiMinOo87,I just won free 0.00105200 ETHER from  http://etherfaucet.org #ether #satoshi #freeether #faucet via @etherfaucet,0,0,0,False
68,tonnyx@tonnyx08,I just won free 0.00105200 ETHER from  http://etherfaucet.org #ether #satoshi #freeether #faucet via @etherfaucet,0,0,0,False
81,⛧ God of Gaming ⛧@TheGodofGamez,#GAMECREDITS LIVE TICKER 1 $GMC = 0.00001840 $BTC = 0.01 $USD #gamedev #indiedev #gamer $ltc $eth $doge #64541,1,0,0,False
84,⛧ God of Gaming ⛧@TheGodofGamez,#GAMECREDITS LIVE TICKER 1 $GMC = 0.00001840 $BTC = 0.01 $USD #gamedev #indiedev #gamer $ltc $eth $doge #99010,2,3,0,False
85,⛧ God of Gaming ⛧@TheGodofGamez,#GameCredits Live Available Supply *undefined $GMC* #gamedev #gamers $btc $ltc $doge $eth $xrp $gmc #3844,0,0,0,False
86,⛧ God of Gaming ⛧@TheGodofGamez,#GAMECREDITS LIVE TICKER 1 $GMC = 0.00001821 $BTC = 0.01 $USD #gamedev #indiedev #gamer $ltc $eth $doge #44586,1,2,0,False
88,⛧ God of Gaming ⛧@TheGodofGamez,#GAMECREDITS LIVE TICKER 1 $GMC = 0.00001821 $BTC = 0.01 $USD #gamedev #indiedev #gamer $ltc $eth $doge #15205,0,0,0,False
89,⛧ God of Gaming ⛧@TheGodofGamez,#GameCredits Live Available Supply *undefined $GMC* #gamedev #gamers $btc $ltc $doge $eth $xrp $gmc #74115,0,0,0,False
90,⛧ God of Gaming ⛧@TheGodofGamez,#GAMECREDITS LIVE TICKER 1 $GMC = 0.00001821 $BTC = 0.01 $USD #gamedev #indiedev #gamer $ltc $eth $doge #44478,1,1,0,False
91,⛧ God of Gaming ⛧@TheGodofGamez,#GameCredits Live Available Supply *undefined $GMC* #gamedev #gamers $btc $ltc $doge $eth $xrp $gmc #26165,1,0,0,False
92,⛧ God of Gaming ⛧@TheGodofGamez,#GAMECREDITS LIVE TICKER 1 $GMC = 0.00001821 $BTC = 0.01 $USD #gamedev #indiedev #gamer $ltc $eth $doge #29794,1,0,0,False
93,⛧ God of Gaming ⛧@TheGodofGamez,#GameCredits Live Available Supply *undefined $GMC* #gamedev #gamers $btc $ltc $doge $eth $xrp $gmc #61777,2,1,0,False
94,⛧ God of Gaming ⛧@TheGodofGamez,#GAMECREDITS LIVE TICKER 1 $GMC = 0.00001821 $BTC = 0.01 $USD #gamedev #indiedev #gamer $ltc $eth $doge #48516,1,0,0,False
95,⛧ God of Gaming ⛧@TheGodofGamez,#GAMECREDITS LIVE TICKER 1 $GMC = 0.00001821 $BTC = 0.01 $USD #gamedev #indiedev #gamer $ltc $eth $doge #31760,2,0,0,False
96,⛧ God of Gaming ⛧@TheGodofGamez,#GameCredits Live Available Supply *undefined $GMC* #gamedev #gamers $btc $ltc $doge $eth $xrp $gmc #88012,1,0,0,False
97,⛧ God of Gaming ⛧@TheGodofGamez,#GAMECREDITS LIVE TICKER 1 $GMC = 0.00001821 $BTC = 0.01 $USD #gamedev #indiedev #gamer $ltc $eth $doge #20633,0,0,0,False
98,⛧ God of Gaming ⛧@TheGodofGamez,#GameCredits Live Available Supply *undefined $GMC* #gamedev #gamers $btc $ltc $doge $eth $xrp $gmc #31245,0,0,0,False
99,⛧ God of Gaming ⛧@TheGodofGamez,#GAMECREDITS LIVE TICKER 1 $GMC = 0.00001806 $BTC = 0.01 $USD #gamedev #indiedev #gamer $ltc $eth $doge #39300,0,0,0,False
100,⛧ God of Gaming ⛧@TheGodofGamez,#GAMECREDITS LIVE TICKER 1 $GMC = 0.00001807 $BTC = 0.01 $USD #gamedev #indiedev #gamer $ltc $eth $doge #63326,0,0,0,False
102,⛧ God of Gaming ⛧@TheGodofGamez,#GameCredits Live Available Supply *undefined $GMC* #gamedev #gamers $btc $ltc $doge $eth $xrp $gmc #90119,0,0,0,False
104,⛧ God of Gaming ⛧@TheGodofGamez,#GAMECREDITS LIVE TICKER 1 $GMC = 0.00001821 $BTC = 0.01 $USD #gamedev #indiedev #gamer $ltc $eth $doge #53935,0,0,0,False
107,⛧ God of Gaming ⛧@TheGodofGamez,#GameCredits Live Available Supply *undefined $GMC* #gamedev #gamers $btc $ltc $doge $eth $xrp $gmc #51710,0,0,0,False
108,⛧ God of Gaming ⛧@TheGodofGamez,#GAMECREDITS LIVE TICKER 1 $GMC = 0.00001824 $BTC = 0.01 $USD #gamedev #indiedev #gamer $ltc $eth $doge #88377,0,0,0,False
109,hadjout@catherinefox23,I just won free 0.00105200 ETHER from  http://etherfaucet.org #ether #satoshi #freeether #faucet via @etherfaucet,1,0,0,False
110,⛧ God of Gaming ⛧@TheGodofGamez,#GAMECREDITS LIVE TICKER 1 $GMC = 0.00001866 $BTC = 0.01 $USD #gamedev #indiedev #gamer $ltc $eth $doge #93188,1,0,0,False
111,⛧ God of Gaming ⛧@TheGodofGamez,#GameCredits Live Available Supply *undefined $GMC* #gamedev #gamers $btc $ltc $doge $eth $xrp $gmc #79713,0,0,0,False
112,⛧ God of Gaming ⛧@TheGodofGamez,#GAMECREDITS LIVE TICKER 1 $GMC = 0.00001892 $BTC = 0.01 $USD #gamedev #indiedev #gamer $ltc $eth $doge #43793,0,0,0,False
113,⛧ God of Gaming ⛧@TheGodofGamez,#GameCredits Live Available Supply *undefined $GMC* #gamedev #gamers $btc $ltc $doge $eth $xrp $gmc #28461,0,0,0,False
115,⛧ God of Gaming ⛧@TheGodofGamez,#GAMECREDITS LIVE TICKER 1 $GMC = 0.00001892 $BTC = 0.01 $USD #gamedev #indiedev #gamer $ltc $eth $doge #93187,0,0,0,False
116,⛧ God of Gaming ⛧@TheGodofGamez,#GAMECREDITS LIVE TICKER 1 $GMC = 0.00001892 $BTC = 0.01 $USD #gamedev #indiedev #gamer $ltc $eth $doge #68157,0,0,0,False
117,⛧ God of Gaming ⛧@TheGodofGamez,#GameCredits Live Available Supply *undefined $GMC* #gamedev #gamers $btc $ltc $doge $eth $xrp $gmc #14777,0,0,0,False
118,⛧ God of Gaming ⛧@TheGodofGamez,#GAMECREDITS LIVE TICKER 1 $GMC = 0.00001847 $BTC = 0.01 $USD #gamedev #indiedev #gamer $ltc $eth $doge #29110,0,0,0,False
119,⛧ God of Gaming ⛧@TheGodofGamez,#GameCredits Live Available Supply *undefined $GMC* #gamedev #gamers $btc $ltc $doge $eth $xrp $gmc #31206,0,0,0,False
121,⛧ God of Gaming ⛧@TheGodofGamez,#GAMECREDITS LIVE TICKER 1 $GMC = 0.00001849 $BTC = 0.01 $USD #gamedev #indiedev #gamer $ltc $eth $doge #41345,0,0,0,False
122,⛧ God of Gaming ⛧@TheGodofGamez,#GameCredits Live Available Supply *undefined $GMC* #gamedev #gamers $btc $ltc $doge $eth $xrp $gmc #15067,1,0,0,False
123,⛧ God of Gaming ⛧@TheGodofGamez,#GAMECREDITS LIVE TICKER 1 $GMC = 0.00001849 $BTC = 0.01 $USD #gamedev #indiedev #gamer $ltc $eth $doge #74851,1,0,0,False
124,⛧ God of Gaming ⛧@TheGodofGamez,#GameCredits Live Available Supply *undefined $GMC* #gamedev #gamers $btc $ltc $doge $eth $xrp $gmc #87449,0,0,0,False
125,⛧ God of Gaming ⛧@TheGodofGamez,#GAMECREDITS LIVE TICKER 1 $GMC = 0.00001849 $BTC = 0.01 $USD #gamedev #indiedev #gamer $ltc $eth $doge #84322,0,0,0,False
126,⛧ God of Gaming ⛧@TheGodofGamez,#GAMECREDITS LIVE TICKER 1 $GMC = 0.00001849 $BTC = 0.01 $USD #gamedev #indiedev #gamer $ltc $eth $doge #90441,0,0,0,False
127,⛧ God of Gaming ⛧@TheGodofGamez,#GameCredits Live Available Supply *undefined $GMC* #gamedev #gamers $btc $ltc $doge $eth $xrp $gmc #21380,0,0,0,False
130,tonnyx@tonnyx08,I just won free 0.00069125 ETHER from  http://etherfaucet.org #ether #satoshi #freeether #faucet via @etherfaucet,0,0,0,False
131,⛧ God of Gaming ⛧@TheGodofGamez,#GAMECREDITS LIVE TICKER 1 $GMC = 0.00001849 $BTC = 0.01 $USD #gamedev #indiedev #gamer $ltc $eth $doge #94289,0,0,0,False
132,⛧ God of Gaming ⛧@TheGodofGamez,#GameCredits Live Available Supply *undefined $GMC* #gamedev #gamers $btc $ltc $doge $eth $xrp $gmc #50207,0,0,0,False
133,⛧ God of Gaming ⛧@TheGodofGamez,#GAMECREDITS LIVE TICKER 1 $GMC = 0.00001849 $BTC = 0.01 $USD #gamedev #indiedev #gamer $ltc $eth $doge #11177,0,0,0,False
134,⛧ God of Gaming ⛧@TheGodofGamez,#GameCredits Live Available Supply *undefined $GMC* #gamedev #gamers $btc $ltc $doge $eth $xrp $gmc #76140,0,0,0,False
135,⛧ God of Gaming ⛧@TheGodofGamez,#GAMECREDITS LIVE TICKER 1 $GMC = 0.00001879 $BTC = 0.01 $USD #gamedev #indiedev #gamer $ltc $eth $doge #34619,0,0,0,False
136,⛧ God of Gaming ⛧@TheGodofGamez,#GAMECREDITS LIVE TICKER 1 $GMC = 0.00001882 $BTC = 0.01 $USD #gamedev #indiedev #gamer $ltc $eth $doge #38592,0,0,0,False
137,⛧ God of Gaming ⛧@TheGodofGamez,#GameCredits Live Available Supply *undefined $GMC* #gamedev #gamers $btc $ltc $doge $eth $xrp $gmc #35097,0,0,0,False
138,⛧ God of Gaming ⛧@TheGodofGamez,#GAMECREDITS LIVE TICKER 1 $GMC = 0.00001882 $BTC = 0.01 $USD #gamedev #indiedev #gamer $ltc $eth $doge #55451,1,0,0,False
140,⛧ God of Gaming ⛧@TheGodofGamez,#GameCredits Live Available Supply *undefined $GMC* #gamedev #gamers $btc $ltc $doge $eth $xrp $gmc #94771,0,0,0,False
141,⛧ God of Gaming ⛧@TheGodofGamez,#GAMECREDITS LIVE TICKER 1 $GMC = 0.00001882 $BTC = 0.01 $USD #gamedev #indiedev #gamer $ltc $eth $doge #2019,1,0,0,False
146,⛧ God of Gaming ⛧@TheGodofGamez,#GameCredits Live Available Supply *undefined $GMC* #gamedev #gamers $btc $ltc $doge $eth $xrp $gmc #31497,1,0,0,False
147,⛧ God of Gaming ⛧@TheGodofGamez,#GAMECREDITS LIVE TICKER 1 $GMC = 0.00001835 $BTC = 0.01 $USD #gamedev #indiedev #gamer $ltc $eth $doge #2981,1,1,0,False
148,⛧ God of Gaming ⛧@TheGodofGamez,#GAMECREDITS LIVE TICKER 1 $GMC = 0.00001835 $BTC = 0.01 $USD #gamedev #indiedev #gamer $ltc $eth $doge #28136,1,0,0,False
149,⛧ God of Gaming ⛧@TheGodofGamez,#GameCredits Live Available Supply *undefined $GMC* #gamedev #gamers $btc $ltc $doge $eth $xrp $gmc #3064,0,0,0,False
150,⛧ God of Gaming ⛧@TheGodofGamez,#GAMECREDITS LIVE TICKER 1 $GMC = 0.00001881 $BTC = 0.01 $USD #gamedev #indiedev #gamer $ltc $eth $doge #49514,0,0,0,False
151,⛧ God of Gaming ⛧@TheGodofGamez,#GAMECREDITS LIVE TICKER 1 $GMC = 0.00001894 $BTC = 0.01 $USD #gamedev #indiedev #gamer $ltc $eth $doge #55433,0,0,0,False
152,⛧ God of Gaming ⛧@TheGodofGamez,#GameCredits Live Available Supply *undefined $GMC* #gamedev #gamers $btc $ltc $doge $eth $xrp $gmc #58796,0,0,0,False
154,albert b chu @chubert,R3CEV has used Microsoft’s #Ethereum technology to test tech with Barclays and other banks  http://bit.ly/1QgXij8 #fintech #blockchain,0,0,0,False
157,⛧ God of Gaming ⛧@TheGodofGamez,#GAMECREDITS LIVE TICKER 1 $GMC = 0.00001895 $BTC = 0.01 $USD #gamedev #indiedev #gamer $ltc $eth $doge #10148,0,0,0,False
158,⛧ God of Gaming ⛧@TheGodofGamez,#GameCredits Live Available Supply *undefined $GMC* #gamedev #gamers $btc $ltc $doge $eth $xrp $gmc #27612,0,0,0,False
159,⛧ God of Gaming ⛧@TheGodofGamez,#GAMECREDITS LIVE TICKER 1 $GMC = 0.00001898 $BTC = 0.01 $USD #gamedev #indiedev #gamer $ltc $eth $doge #93416,0,0,0,False
161,⛧ God of Gaming ⛧@TheGodofGamez,#GameCredits Live Available Supply *undefined $GMC* #gamedev #gamers $btc $ltc $doge $eth $xrp $gmc #39974,0,0,0,False
163,⛧ God of Gaming ⛧@TheGodofGamez,#GAMECREDITS LIVE TICKER 1 $GMC = 0.00001899 $BTC = 0.01 $USD #gamedev #indiedev #gamer $ltc $eth $doge #71115,1,0,0,False
165,⛧ God of Gaming ⛧@TheGodofGamez,#GAMECREDITS LIVE TICKER 1 $GMC = 0.00001748 $BTC = 0.01 $USD #gamedev #indiedev #gamer $ltc $eth $doge #13296,0,0,0,False
166,⛧ God of Gaming ⛧@TheGodofGamez,#GameCredits Live Available Supply *undefined $GMC* #gamedev #gamers $btc $ltc $doge $eth $xrp $gmc #38461,0,0,0,False
167,⛧ God of Gaming ⛧@TheGodofGamez,#GAMECREDITS LIVE TICKER 1 $GMC = 0.00001748 $BTC = 0.01 $USD #gamedev #indiedev #gamer $ltc $eth $doge #80554,0,0,0,False
168,⛧ God of Gaming ⛧@TheGodofGamez,#GameCredits Live Available Supply *undefined $GMC* #gamedev #gamers $btc $ltc $doge $eth $xrp $gmc #90365,0,0,0,False
169,⛧ God of Gaming ⛧@TheGodofGamez,#GAMECREDITS LIVE TICKER 1 $GMC = 0.00001748 $BTC = 0.01 $USD #gamedev #indiedev #gamer $ltc $eth $doge #82113,0,0,0,False
172,⛧ God of Gaming ⛧@TheGodofGamez,#GameCredits Live Available Supply *undefined $GMC* #gamedev #gamers $btc $ltc $doge $eth $xrp $gmc #67203,0,0,0,False
173,⛧ God of Gaming ⛧@TheGodofGamez,#GAMECREDITS LIVE TICKER 1 $GMC = 0.00001748 $BTC = 0.01 $USD #gamedev #indiedev #gamer $ltc $eth $doge #64551,0,0,0,False
174,cash Card CRYPTO ⟠@CashCardCrypto,"Replying to @feindura@feindura, yup, couldn't agree more
Vlad, Charlie and the whole CC team are *super* smart - we're lucky to have 'em!
#bitcoin #ethereum",0,0,0,False
175,ethereum.network@EthereumNetw,"Upload and verify the #SourceCode of your #Ethereum contract at http://buff.ly/1JnZ0zX for
Provably Open Execution
http://buff.ly/23j5B5d",0,0,0,False
176,⛧ God of Gaming ⛧@TheGodofGamez,#GAMECREDITS LIVE TICKER 1 $GMC = 0.00001748 $BTC = 0.01 $USD #gamedev #indiedev #gamer $ltc $eth $doge #19324,0,0,0,False
177,⛧ God of Gaming ⛧@TheGodofGamez,#GameCredits Live Available Supply *undefined $GMC* #gamedev #gamers $btc $ltc $doge $eth $xrp $gmc #8798,0,0,0,False
178,⛧ God of Gaming ⛧@TheGodofGamez,#GameCredits Live Available Supply *undefined $GMC* #gamedev #gamers $btc $ltc $doge $eth $xrp $gmc #97525,0,0,0,False
179,⛧ God of Gaming ⛧@TheGodofGamez,#GAMECREDITS LIVE TICKER 1 $GMC = 0.00001891 $BTC = 0.01 $USD #gamedev #indiedev #gamer $ltc $eth $doge #54533,1,0,0,False
180,⛧ God of Gaming ⛧@TheGodofGamez,#GameCredits Live Available Supply *undefined $GMC* #gamedev #gamers $btc $ltc $doge $eth $xrp $gmc #51515,0,0,0,False
181,⛧ God of Gaming ⛧@TheGodofGamez,#GAMECREDITS LIVE TICKER 1 $GMC = 0.00001891 $BTC = 0.01 $USD #gamedev #indiedev #gamer $ltc $eth $doge #86625,1,0,0,False
182,⛧ God of Gaming ⛧@TheGodofGamez,#GAMECREDITS LIVE TICKER 1 $GMC = 0.00001891 $BTC = 0.01 $USD #gamedev #indiedev #gamer $ltc $eth $doge #98684,0,0,0,False
183,⛧ God of Gaming ⛧@TheGodofGamez,#GameCredits Live Available Supply *undefined $GMC* #gamedev #gamers $btc $ltc $doge $eth $xrp $gmc #44490,0,0,0,False
186,⛧ God of Gaming ⛧@TheGodofGamez,#GAMECREDITS LIVE TICKER 1 $GMC = 0.00001891 $BTC = 0.01 $USD #gamedev #indiedev #gamer $ltc $eth $doge #36848,0,0,0,False
188,⛧ God of Gaming ⛧@TheGodofGamez,#GameCredits Live Available Supply *undefined $GMC* #gamedev #gamers $btc $ltc $doge $eth $xrp $gmc #58976,0,0,0,False
190,Pelle Brændgaard (we are hiring)@PelleB,My article featured on the @ConsenSysLLC blog now: Unpacking the term ‘Smart Contract’ http://buff.ly/1S89ZPf #ethereum,1,1,0,False
191,⛧ God of Gaming ⛧@TheGodofGamez,#GameCredits Live Available Supply *undefined $GMC* #gamedev #gamers $btc $ltc $doge $eth $xrp $gmc #37117,0,0,0,False
192,⛧ God of Gaming ⛧@TheGodofGamez,#GAMECREDITS LIVE TICKER 1 $GMC = 0.00001920 $BTC = 0.01 $USD #gamedev #indiedev #gamer $ltc $eth $doge #16733,0,0,0,False
193,⛧ God of Gaming ⛧@TheGodofGamez,#GAMECREDITS LIVE TICKER 1 $GMC = 0.00001920 $BTC = 0.01 $USD #gamedev #indiedev #gamer $ltc $eth $doge #38303,0,0,0,False
194,⛧ God of Gaming ⛧@TheGodofGamez,#GameCredits Live Available Supply *undefined $GMC* #gamedev #gamers $btc $ltc $doge $eth $xrp $gmc #1046,0,0,0,False
195,⛧ God of Gaming ⛧@TheGodofGamez,#GAMECREDITS LIVE TICKER 1 $GMC = 0.00001920 $BTC = 0.01 $USD #gamedev #indiedev #gamer $ltc $eth $doge #10047,0,0,0,False
196,⛧ God of Gaming ⛧@TheGodofGamez,#GameCredits Live Available Supply *undefined $GMC* #gamedev #gamers $btc $ltc $doge $eth $xrp $gmc #29179,0,0,0,False
197,⛧ God of Gaming ⛧@TheGodofGamez,#GAMECREDITS LIVE TICKER 1 $GMC = 0.00001920 $BTC = 0.01 $USD #gamedev #indiedev #gamer $ltc $eth $doge #16981,0,0,0,False
198,⛧ God of Gaming ⛧@TheGodofGamez,#GAMECREDITS LIVE TICKER 1 $GMC = 0.00001921 $BTC = 0.01 $USD #gamedev #indiedev #gamer $ltc $eth $doge #64103,0,0,0,False
199,⛧ God of Gaming ⛧@TheGodofGamez,#GameCredits Live Available Supply *undefined $GMC* #gamedev #gamers $btc $ltc $doge $eth $xrp $gmc #25599,0,0,0,False
201,⛧ God of Gaming ⛧@TheGodofGamez,#GameCredits Live Available Supply *undefined $GMC* #gamedev #gamers $btc $ltc $doge $eth $xrp $gmc #92744,0,0,0,False
202,⛧ God of Gaming ⛧@TheGodofGamez,#GAMECREDITS LIVE TICKER 1 $GMC = 0.00001984 $BTC = 0.01 $USD #gamedev #indiedev #gamer $ltc $eth $doge #66792,0,0,0,False
204,⛧ God of Gaming ⛧@TheGodofGamez,#GAMECREDITS LIVE TICKER 1 $GMC = 0.00001984 $BTC = 0.01 $USD #gamedev #indiedev #gamer $ltc $eth $doge #88351,0,0,0,False
205,⛧ God of Gaming ⛧@TheGodofGamez,#GameCredits Live Available Supply *undefined $GMC* #gamedev #gamers $btc $ltc $doge $eth $xrp $gmc #52673,0,0,0,False
206,⛧ God of Gaming ⛧@TheGodofGamez,#GAMECREDITS LIVE TICKER 1 $GMC = 0.00001984 $BTC = 0.01 $USD #gamedev #indiedev #gamer $ltc $eth $doge #16577,0,0,0,False
207,⛧ God of Gaming ⛧@TheGodofGamez,#GameCredits Live Available Supply *undefined $GMC* #gamedev #gamers $btc $ltc $doge $eth $xrp $gmc #95208,0,0,0,False
208,⛧ God of Gaming ⛧@TheGodofGamez,#GAMECREDITS LIVE TICKER 1 $GMC = 0.00001984 $BTC = 0.01 $USD #gamedev #indiedev #gamer $ltc $eth $doge #80296,1,0,0,False
209,⛧ God of Gaming ⛧@TheGodofGamez,#GameCredits Live Available Supply *undefined $GMC* #gamedev #gamers $btc $ltc $doge $eth $xrp $gmc #3002,0,0,0,False
210,⛧ God of Gaming ⛧@TheGodofGamez,#GAMECREDITS LIVE TICKER 1 $GMC = 0.00001984 $BTC = 0.01 $USD #gamedev #indiedev #gamer $ltc $eth $doge #83498,1,0,0,False
211,ethereum.network@EthereumNetw,"How #blockchain tech could change the way we do business
@BBC after suggestion for UK gov to adopt it
http://buff.ly/20iBTed #Ethereum",2,0,0,False
212,⛧ God of Gaming ⛧@TheGodofGamez,#GAMECREDITS LIVE TICKER 1 $GMC = 0.00001984 $BTC = 0.01 $USD #gamedev #indiedev #gamer $ltc $eth $doge #60110,1,0,0,False
213,⛧ God of Gaming ⛧@TheGodofGamez,#GAMECREDITS LIVE TICKER 1 $GMC = 0.00001984 $BTC = 0.01 $USD #gamedev #indiedev #gamer $ltc $eth $doge #76997,0,0,0,False
214,⛧ God of Gaming ⛧@TheGodofGamez,#GameCredits Live Available Supply *undefined $GMC* #gamedev #gamers $btc $ltc $doge $eth $xrp $gmc #23213,0,0,0,False
215,⛧ God of Gaming ⛧@TheGodofGamez,#GAMECREDITS LIVE TICKER 1 $GMC = 0.00001984 $BTC = 0.01 $USD #gamedev #indiedev #gamer $ltc $eth $doge #19330,0,0,0,False
216,Simon de la Rouviere @simondlr,Replying to @simondlrLegit got shivers from reading through it. At the cusp of something really crazy. #ethereum. @goboardroom.,3,1,0,False
217,⛧ God of Gaming ⛧@TheGodofGamez,#GAMECREDITS LIVE TICKER 1 $GMC = 0.00001988 $BTC = 0.01 $USD #gamedev #indiedev #gamer $ltc $eth $doge #46778,0,0,0,False
218,⛧ God of Gaming ⛧@TheGodofGamez,#GameCredits Live Available Supply *undefined $GMC* #gamedev #gamers $btc $ltc $doge $eth $xrp $gmc #81909,0,0,0,False
219,⛧ God of Gaming ⛧@TheGodofGamez,#GAMECREDITS LIVE TICKER 1 $GMC = 0.00001990 $BTC = 0.01 $USD #gamedev #indiedev #gamer $ltc $eth $doge #71259,0,0,0,False
220,⛧ God of Gaming ⛧@TheGodofGamez,#GameCredits Live Available Supply *undefined $GMC* #gamedev #gamers $btc $ltc $doge $eth $xrp $gmc #63324,0,0,0,False
221,⛧ God of Gaming ⛧@TheGodofGamez,#GAMECREDITS LIVE TICKER 1 $GMC = 0.00001990 $BTC = 0.01 $USD #gamedev #indiedev #gamer $ltc $eth $doge #57419,0,0,0,False
222,⛧ God of Gaming ⛧@TheGodofGamez,#GAMECREDITS LIVE TICKER 1 $GMC = 0.00001990 $BTC = 0.01 $USD #gamedev #indiedev #gamer $ltc $eth $doge #72062,0,0,0,False
223,⛧ God of Gaming ⛧@TheGodofGamez,#GameCredits Live Available Supply *undefined $GMC* #gamedev #gamers $btc $ltc $doge $eth $xrp $gmc #28167,0,0,0,False
224,⛧ God of Gaming ⛧@TheGodofGamez,#GAMECREDITS LIVE TICKER 1 $GMC = 0.00002051 $BTC = 0.01 $USD #gamedev #indiedev #gamer $ltc $eth $doge #18406,0,0,0,False
225,⛧ God of Gaming ⛧@TheGodofGamez,#GameCredits Live Available Supply *undefined $GMC* #gamedev #gamers $btc $ltc $doge $eth $xrp $gmc #7520,0,0,0,False
226,⛧ God of Gaming ⛧@TheGodofGamez,#GAMECREDITS LIVE TICKER 1 $GMC = 0.00002051 $BTC = 0.01 $USD #gamedev #indiedev #gamer $ltc $eth $doge #51940,0,0,0,False
228,⛧ God of Gaming ⛧@TheGodofGamez,#GAMECREDITS LIVE TICKER 1 $GMC = 0.00002051 $BTC = 0.01 $USD #gamedev #indiedev #gamer $ltc $eth $doge #34227,0,0,0,False
229,⛧ God of Gaming ⛧@TheGodofGamez,#GameCredits Live Available Supply *undefined $GMC* #gamedev #gamers $btc $ltc $doge $eth $xrp $gmc #25023,0,0,0,False
230,⛧ God of Gaming ⛧@TheGodofGamez,#GAMECREDITS LIVE TICKER 1 $GMC = 0.00002051 $BTC = 0.01 $USD #gamedev #indiedev #gamer $ltc $eth $doge #48207,0,0,0,False
231,⛧ God of Gaming ⛧@TheGodofGamez,#GameCredits Live Available Supply *undefined $GMC* #gamedev #gamers $btc $ltc $doge $eth $xrp $gmc #59924,0,0,0,False
232,⛧ God of Gaming ⛧@TheGodofGamez,#GAMECREDITS LIVE TICKER 1 $GMC = 0.00002051 $BTC = 0.01 $USD #gamedev #indiedev #gamer $ltc $eth $doge #10577,1,0,0,False
233,⛧ God of Gaming ⛧@TheGodofGamez,#GameCredits Live Available Supply *undefined $GMC* #gamedev #gamers $btc $ltc $doge $eth $xrp $gmc #17602,0,0,0,False
234,⛧ God of Gaming ⛧@TheGodofGamez,#GAMECREDITS LIVE TICKER 1 $GMC = 0.00002051 $BTC = 0.01 $USD #gamedev #indiedev #gamer $ltc $eth $doge #98543,1,0,0,False
235,⛧ God of Gaming ⛧@TheGodofGamez,#GameCredits Live Available Supply *undefined $GMC* #gamedev #gamers $btc $ltc $doge $eth $xrp $gmc #3765,0,0,0,False
236,⛧ God of Gaming ⛧@TheGodofGamez,#GAMECREDITS LIVE TICKER 1 $GMC = 0.00002053 $BTC = 0.01 $USD #gamedev #indiedev #gamer $ltc $eth $doge #21678,0,0,0,False
237,⛧ God of Gaming ⛧@TheGodofGamez,#GameCredits Live Available Supply *undefined $GMC* #gamedev #gamers $btc $ltc $doge $eth $xrp $gmc #20087,0,0,0,False
238,⛧ God of Gaming ⛧@TheGodofGamez,#GAMECREDITS LIVE TICKER 1 $GMC = 0.00002053 $BTC = 0.01 $USD #gamedev #indiedev #gamer $ltc $eth $doge #64837,0,0,0,False
240,⛧ God of Gaming ⛧@TheGodofGamez,#GAMECREDITS LIVE TICKER 1 $GMC = 0.00002053 $BTC = 0.01 $USD #gamedev #indiedev #gamer $ltc $eth $doge #66085,0,0,0,False
241,⛧ God of Gaming ⛧@TheGodofGamez,#GameCredits Live Available Supply *undefined $GMC* #gamedev #gamers $btc $ltc $doge $eth $xrp $gmc #85483,0,0,0,False
242,⛧ God of Gaming ⛧@TheGodofGamez,#GAMECREDITS LIVE TICKER 1 $GMC = 0.00002086 $BTC = 0.01 $USD #gamedev #indiedev #gamer $ltc $eth $doge #67812,1,0,0,False
243,⛧ God of Gaming ⛧@TheGodofGamez,#GameCredits Live Available Supply *undefined $GMC* #gamedev #gamers $btc $ltc $doge $eth $xrp $gmc #95119,0,0,0,False
244,⛧ God of Gaming ⛧@TheGodofGamez,#GAMECREDITS LIVE TICKER 1 $GMC = 0.00002158 $BTC = 0.01 $USD #gamedev #indiedev #gamer $ltc $eth $doge #14155,1,0,0,False
246,⛧ God of Gaming ⛧@TheGodofGamez,#GAMECREDITS LIVE TICKER 1 $GMC = 0.00002106 $BTC = 0.01 $USD #gamedev #indiedev #gamer $ltc $eth $doge #93617,0,0,0,False
247,⛧ God of Gaming ⛧@TheGodofGamez,#GameCredits Live Available Supply *undefined $GMC* #gamedev #gamers $btc $ltc $doge $eth $xrp $gmc #93851,0,0,0,False
248,⛧ God of Gaming ⛧@TheGodofGamez,#GAMECREDITS LIVE TICKER 1 $GMC = 0.00001930 $BTC = 0.01 $USD #gamedev #indiedev #gamer $ltc $eth $doge #94013,1,0,0,False
249,⛧ God of Gaming ⛧@TheGodofGamez,#GameCredits Live Available Supply *undefined $GMC* #gamedev #gamers $btc $ltc $doge $eth $xrp $gmc #11986,0,0,0,False
250,⛧ God of Gaming ⛧@TheGodofGamez,#GAMECREDITS LIVE TICKER 1 $GMC = 0.00001930 $BTC = 0.01 $USD #gamedev #indiedev #gamer $ltc $eth $doge #64306,0,0,0,False
252,⛧ God of Gaming ⛧@TheGodofGamez,#GAMECREDITS LIVE TICKER 1 $GMC = 0.00001930 $BTC = 0.01 $USD #gamedev #indiedev #gamer $ltc $eth $doge #37834,0,0,0,False
253,⛧ God of Gaming ⛧@TheGodofGamez,#GameCredits Live Available Supply *undefined $GMC* #gamedev #gamers $btc $ltc $doge $eth $xrp $gmc #36821,0,0,0,False
254,⛧ God of Gaming ⛧@TheGodofGamez,#GAMECREDITS LIVE TICKER 1 $GMC = 0.00001930 $BTC = 0.01 $USD #gamedev #indiedev #gamer $ltc $eth $doge #34912,1,0,0,False
255,⛧ God of Gaming ⛧@TheGodofGamez,#GameCredits Live Available Supply *undefined $GMC* #gamedev #gamers $btc $ltc $doge $eth $xrp $gmc #19295,0,0,0,False
256,⛧ God of Gaming ⛧@TheGodofGamez,#GAMECREDITS LIVE TICKER 1 $GMC = 0.00001930 $BTC = 0.01 $USD #gamedev #indiedev #gamer $ltc $eth $doge #91876,1,0,0,False
257,⛧ God of Gaming ⛧@TheGodofGamez,#GameCredits Live Available Supply *undefined $GMC* #gamedev #gamers $btc $ltc $doge $eth $xrp $gmc #54151,0,0,0,False
258,⛧ God of Gaming ⛧@TheGodofGamez,#GAMECREDITS LIVE TICKER 1 $GMC = 0.00001926 $BTC = 0.01 $USD #gamedev #indiedev #gamer $ltc $eth $doge #35793,1,0,0,False
259,⛧ God of Gaming ⛧@TheGodofGamez,#GameCredits Live Available Supply *undefined $GMC* #gamedev #gamers $btc $ltc $doge $eth $xrp $gmc #62369,0,0,0,False
260,⛧ God of Gaming ⛧@TheGodofGamez,#GAMECREDITS LIVE TICKER 1 $GMC = 0.00001926 $BTC = 0.01 $USD #gamedev #indiedev #gamer $ltc $eth $doge #16290,0,0,0,False
262,⛧ God of Gaming ⛧@TheGodofGamez,#GAMECREDITS LIVE TICKER 1 $GMC = 0.00001926 $BTC = 0.01 $USD #gamedev #indiedev #gamer $ltc $eth $doge #28511,0,0,0,False
263,⛧ God of Gaming ⛧@TheGodofGamez,#GameCredits Live Available Supply *undefined $GMC* #gamedev #gamers $btc $ltc $doge $eth $xrp $gmc #85838,0,0,0,False
265,⛧ God of Gaming ⛧@TheGodofGamez,#GAMECREDITS LIVE TICKER 1 $GMC = 0.00001926 $BTC = 0.01 $USD #gamedev #indiedev #gamer $ltc $eth $doge #62516,0,0,0,False
266,⛧ God of Gaming ⛧@TheGodofGamez,#GameCredits Live Available Supply *undefined $GMC* #gamedev #gamers $btc $ltc $doge $eth $xrp $gmc #27121,0,0,0,False
267,⛧ God of Gaming ⛧@TheGodofGamez,#GAMECREDITS LIVE TICKER 1 $GMC = 0.00001928 $BTC = 0.01 $USD #gamedev #indiedev #gamer $ltc $eth $doge #98241,1,0,0,False
268,⛧ God of Gaming ⛧@TheGodofGamez,#GameCredits Live Available Supply *undefined $GMC* #gamedev #gamers $btc $ltc $doge $eth $xrp $gmc #68875,2,0,0,False
269,⛧ God of Gaming ⛧@TheGodofGamez,#GAMECREDITS LIVE TICKER 1 $GMC = 0.00001928 $BTC = 0.01 $USD #gamedev #indiedev #gamer $ltc $eth $doge #34360,0,0,0,False
270,⛧ God of Gaming ⛧@TheGodofGamez,#GAMECREDITS LIVE TICKER 1 $GMC = 0.00001928 $BTC = 0.01 $USD #gamedev #indiedev #gamer $ltc $eth $doge #56109,0,0,0,False
271,AltcoinLive bot@AltcoinLiveBot,removed $ETH buywall 10.2btc @ 0.00356000 http://altcoinlive.com/bittrex-eth-btc #altcoinlive,0,0,0,False
273,Bitcoin@bitcoinpoet,"micropayments?: Like many people, I am unhappy with the present system of supporting websites throug... http://bit.ly/1Tbcn8x #ethereum",0,0,0,False
275,⛧ God of Gaming ⛧@TheGodofGamez,#GAMECREDITS LIVE TICKER 1 $GMC = 0.00001928 $BTC = 0.01 $USD #gamedev #indiedev #gamer $ltc $eth $doge #5154,0,0,0,False
276,⛧ God of Gaming ⛧@TheGodofGamez,#GameCredits Live Available Supply *undefined $GMC* #gamedev #gamers $btc $ltc $doge $eth $xrp $gmc #13174,0,0,0,False
277,⛧ God of Gaming ⛧@TheGodofGamez,#GAMECREDITS LIVE TICKER 1 $GMC = 0.00001928 $BTC = 0.01 $USD #gamedev #indiedev #gamer $ltc $eth $doge #41283,0,0,0,False
278,⛧ God of Gaming ⛧@TheGodofGamez,#GameCredits Live Available Supply *undefined $GMC* #gamedev #gamers $btc $ltc $doge $eth $xrp $gmc #80833,0,0,0,False
279,⛧ God of Gaming ⛧@TheGodofGamez,#GAMECREDITS LIVE TICKER 1 $GMC = 0.00001928 $BTC = 0.01 $USD #gamedev #indiedev #gamer $ltc $eth $doge #40745,0,0,0,False
281,⛧ God of Gaming ⛧@TheGodofGamez,#GameCredits Live Available Supply *undefined $GMC* #gamedev #gamers $btc $ltc $doge $eth $xrp $gmc #54917,0,0,0,False
