,user,text,likes,retweets,replies,is_thread
0,AltcoinLive bot@AltcoinLiveBot,updated $ETH buywall 14.1btc @ 0.02344370 http://altcoinlive.com/bittrex-eth-btc #altcoinlive (change 0.00005942),0,0,0,False
1,Conrad Johnson @ConradJohnson,@TaylorGerring addressing the #DallasEthereum meetup and answering questions from the crowd. #ethereum,5,3,0,False
2,Pelle Brændgaard (we are hiring)@PelleB,Looks great: 1.2.0 Homestead Final Release - EthereumJ http://buff.ly/1XjygT5 #ethereum #java,1,0,0,False
3,AltcoinLive bot@AltcoinLiveBot,updated $ETH buywall 14.0btc @ 0.02338428 http://altcoinlive.com/bittrex-eth-btc #altcoinlive (change 0.00005861),0,0,0,False
4,AltcoinLive bot@AltcoinLiveBot,updated $ETH buywall 14.0btc @ 0.02332567 http://altcoinlive.com/bittrex-eth-btc #altcoinlive (change 0.00005837),0,0,0,False
5,Julia Vaingurt@julia_vaingurt,"How can Ethereum be useful in Insurance Industry?: How Ethereum can be useful to Insurance Ind... http://cur.lv/x7hap
#btc #eth #news",0,0,0,False
6,AltcoinLive bot@AltcoinLiveBot,updated $ETH buywall 14.0btc @ 0.02326730 http://altcoinlive.com/bittrex-eth-btc #altcoinlive (change 0.0000534),0,0,0,False
7,AltcoinLive bot@AltcoinLiveBot,updated $ETH buywall 13.9btc @ 0.02321390 http://altcoinlive.com/bittrex-eth-btc #altcoinlive (change -0.00028561),0,0,0,False
8,Ethereum SE@StackEthereum,Deploying new contract in transaction MIX IDE http://ethereum.stackexchange.com/questions/2517/deploying-new-contract-in-transaction-mix-ide… #ethereum #solidity #contractdevelopment #mix #smartcontracts,1,0,0,False
9,AltcoinLive bot@AltcoinLiveBot,updated $ETH buywall 14.1btc @ 0.02349951 http://altcoinlive.com/bittrex-eth-btc #altcoinlive (change -0.00006239),0,0,0,False
10,AltcoinLive bot@AltcoinLiveBot,updated $ETH buywall 14.1btc @ 0.02356190 http://altcoinlive.com/bittrex-eth-btc #altcoinlive (change 0.00000008),0,0,0,False
11,AltcoinLive bot@AltcoinLiveBot,updated $ETH buywall 14.1btc @ 0.02356182 http://altcoinlive.com/bittrex-eth-btc #altcoinlive (change 0.00005473),0,0,0,False
12,tgerring.eth@TaylorGerring,Dallas #Ethereum Meetup starting soon. Join me on the live stream!Ethereum Dallas Meetup #2 - Special Guest Taylor Gerring (4/7/2016)Ethereum Dallas Meetup #2 with special guest Taylor Gerring.youtube.com,1,1,0,False
13,AltcoinLive bot@AltcoinLiveBot,updated $ETH buywall 14.1btc @ 0.02350709 http://altcoinlive.com/bittrex-eth-btc #altcoinlive (change -0.00008909),0,0,0,False
14,TradingView Ideas@TradingViewBot,Division by zero $ETH http://tradingview.com/script/fgPJ3uEt-Division-by-zero/…,0,0,0,False
15,#SmartEthereum@SmartEthereum,"Bridging the gap. #SmartContracts #EthereumNZ #ethereumQuote TweetEthereumNZ@EthereumNZ · Apr 7, 2016Bridging the gap. #SmartContracts #EthereumNZ #ethereum
http://the-blockchain.com/2016/04/06/smart-contracts-bridging-the-gap-between-the-real-world-and-blockchain/…",1,1,0,False
25,#SmartEthereum@SmartEthereum,Need #ethereum introduction material and ideas #cryptocurrency #fintech #stackexchange https://twitter.com/ethoverflow/status/718204495054954496…This Tweet is unavailable.,0,0,0,False
26,AltcoinLive bot@AltcoinLiveBot,updated $ETH buywall 14.1btc @ 0.02350629 http://altcoinlive.com/bittrex-eth-btc #altcoinlive (change 0.00000055),0,0,0,False
27,AltcoinLive bot@AltcoinLiveBot,updated $ETH buywall 14.1btc @ 0.02350574 http://altcoinlive.com/bittrex-eth-btc #altcoinlive (change 0.00000022),0,0,0,False
28,AltcoinLive bot@AltcoinLiveBot,updated $ETH buywall 14.1btc @ 0.02350552 http://altcoinlive.com/bittrex-eth-btc #altcoinlive (change 0.00000033),0,0,0,False
29,AltcoinLive bot@AltcoinLiveBot,updated $ETH buywall 14.5btc @ 0.02350519 http://altcoinlive.com/bittrex-eth-btc #altcoinlive (change 0.00000045),0,0,0,False
30,AltcoinLive bot@AltcoinLiveBot,updated $ETH buywall 14.5btc @ 0.02350474 http://altcoinlive.com/bittrex-eth-btc #altcoinlive (change 0.00000056),0,0,0,False
31,AltcoinLive bot@AltcoinLiveBot,updated $ETH buywall 14.1btc @ 0.02350418 http://altcoinlive.com/bittrex-eth-btc #altcoinlive (change 0.00000046),0,0,0,False
32,AltcoinLive bot@AltcoinLiveBot,updated $ETH buywall 14.5btc @ 0.02350372 http://altcoinlive.com/bittrex-eth-btc #altcoinlive (change 0.00000056),0,0,0,False
33,AltcoinLive bot@AltcoinLiveBot,updated $ETH buywall 14.1btc @ 0.02350316 http://altcoinlive.com/bittrex-eth-btc #altcoinlive (change 0.00000044),0,0,0,False
34,jahjasiswandi@jahjasiswandi,Free Ethereum every 5 minutes http://etherfaucet.net/?r=0x2edB14fAfDB0D88D3677cab876f71FdD54e3fbEE… #ethereum via @FreeCryptoCo,0,0,0,False
35,AltcoinLive bot@AltcoinLiveBot,updated $ETH buywall 14.5btc @ 0.02350272 http://altcoinlive.com/bittrex-eth-btc #altcoinlive (change 0.00000055),0,0,0,False
36,BlockchainSecurities.io@Available4Sale,http://YouEther.com available for purchase. #ether #bitcoin #cryptocurrency #digitalcurrency #investor #ethereum #blockchain #currency,2,0,0,False
37,AltcoinLive bot@AltcoinLiveBot,updated $ETH buywall 14.1btc @ 0.02350217 http://altcoinlive.com/bittrex-eth-btc #altcoinlive (change 0.00000057),0,0,0,False
38,AltcoinLive bot@AltcoinLiveBot,updated $ETH buywall 14.1btc @ 0.02350160 http://altcoinlive.com/bittrex-eth-btc #altcoinlive (change 0.00000066),0,0,0,False
39,AltcoinLive bot@AltcoinLiveBot,updated $ETH buywall 15.0btc @ 0.02350094 http://altcoinlive.com/bittrex-eth-btc #altcoinlive (change 0.00000058),0,0,0,False
40,AltcoinLive bot@AltcoinLiveBot,updated $ETH buywall 14.1btc @ 0.02350036 http://altcoinlive.com/bittrex-eth-btc #altcoinlive (change 0.00000034),0,0,0,False
41,AltcoinWeekly@altcoinweekly,The latest Ethereum price is USD 10.07. For historical #Ethereum price charts - http://buff.ly/1Y3h6Jz,0,0,0,False
42,CoinGecko@coingecko,The latest Ethereum price is USD 10.07. For historical #Ethereum price charts - http://buff.ly/1Y3h6Jz,0,0,0,False
43,AltcoinLive bot@AltcoinLiveBot,updated $ETH buywall 14.1btc @ 0.02350002 http://altcoinlive.com/bittrex-eth-btc #altcoinlive (change 0.00004657),0,0,0,False
44,Ethereum SE@StackEthereum,Need ethereum introduction material and ideas http://ethereum.stackexchange.com/questions/2753/need-ethereum-introduction-material-and-ideas… #ethereum #dappdevelopment #introducingethereum #conferences,0,0,0,False
45,AltcoinLive bot@AltcoinLiveBot,updated $ETH buywall 14.1btc @ 0.02345345 http://altcoinlive.com/bittrex-eth-btc #altcoinlive (change -0.00009346),0,0,0,False
46,AltcoinLive bot@AltcoinLiveBot,updated $ETH buywall 14.1btc @ 0.02354691 http://altcoinlive.com/bittrex-eth-btc #altcoinlive (change 0.00009346),0,0,0,False
47,AltcoinLive bot@AltcoinLiveBot,updated $ETH buywall 14.1btc @ 0.02345345 http://altcoinlive.com/bittrex-eth-btc #altcoinlive (change -0.00010837),0,0,0,False
48,AltcoinLive bot@AltcoinLiveBot,updated $ETH buywall 14.1btc @ 0.02356182 http://altcoinlive.com/bittrex-eth-btc #altcoinlive (change 0.00006156),0,0,0,False
49,Ruben Perez  #bitcoin@digiruben,Upgraded #Ether Hashrate to 10.5 Mh/s on @GenesisMining Use promo code PxwHUJ to save 3 % on all Hashpower packages  ( ᐛ )و,0,0,0,False
50,ETHNews@ETHNews_,#Blockchain #Tech #Startup #PlaceAVote Launches Innovative #Voting Platform #technology #Ethereum http://ow.ly/10pbaO via @blockchainers,0,0,0,False
51,Caterina Rindi@CaterinaRindi,Hint hint #ether... http://lostateminor.com/2016/04/07/man-forgets-he-bought-27-of-bitcoin-finds-out-its-now-worth-886k/… #bitcoin #blockchain,2,0,0,False
52,AltcoinLive bot@AltcoinLiveBot,updated $ETH buywall 14.1btc @ 0.02350026 http://altcoinlive.com/bittrex-eth-btc #altcoinlive (change 0.00000002),0,0,0,False
53,AltcoinLive bot@AltcoinLiveBot,updated $ETH buywall 14.1btc @ 0.02350024 http://altcoinlive.com/bittrex-eth-btc #altcoinlive (change 0.00012538),0,0,0,False
54,AltcoinLive bot@AltcoinLiveBot,updated $ETH buywall 14.0btc @ 0.02337486 http://altcoinlive.com/bittrex-eth-btc #altcoinlive (change -0.00022620),0,0,0,False
55,Ethereum SE@StackEthereum,How can Ethereum be useful in Insurance Industry? http://ethereum.stackexchange.com/questions/2752/how-can-ethereum-be-useful-in-insurance-industry… #ethereum #introducingethereum #smartcontracts,1,0,0,False
63,AltcoinLive bot@AltcoinLiveBot,updated $ETH buywall 14.2btc @ 0.02360106 http://altcoinlive.com/bittrex-eth-btc #altcoinlive (change 0.00000046),0,0,0,False
64,AltcoinLive bot@AltcoinLiveBot,updated $ETH buywall 14.6btc @ 0.02360060 http://altcoinlive.com/bittrex-eth-btc #altcoinlive (change 0.00010058),0,0,0,False
65,AltcoinLive bot@AltcoinLiveBot,updated $ETH buywall 14.1btc @ 0.02350002 http://altcoinlive.com/bittrex-eth-btc #altcoinlive (change -0.00010035),0,0,0,False
66,Garrett Koehn@KoehnGarrett,"This area is not to be ignored!  #btc #vc #ethereumVC Funding of Bitcoin Companies Rises In Q1 2016Although some people may have questioned whether or not the amount of funds invested in Bitcoin startups had surpassed its peak, it looks like there is nothing to worry about just yet. In fact, the nuthemerkle.com",0,0,0,False
67,AltcoinLive bot@AltcoinLiveBot,updated $ETH buywall 14.2btc @ 0.02360037 http://altcoinlive.com/bittrex-eth-btc #altcoinlive (change 0.00000013),0,0,0,False
68,AltcoinLive bot@AltcoinLiveBot,updated $ETH buywall 14.2btc @ 0.02360024 http://altcoinlive.com/bittrex-eth-btc #altcoinlive (change 0.00000023),0,0,0,False
69,AltcoinLive bot@AltcoinLiveBot,updated $ETH buywall 14.2btc @ 0.02360001 http://altcoinlive.com/bittrex-eth-btc #altcoinlive (change 0.00090001),0,0,0,False
70,AltcoinLive bot@AltcoinLiveBot,updated $ETH buywall 13.9btc @ 0.02270000 http://altcoinlive.com/bittrex-eth-btc #altcoinlive (change -0.00100091),0,0,0,False
71,AltcoinLive bot@AltcoinLiveBot,updated $ETH buywall 14.2btc @ 0.02370091 http://altcoinlive.com/bittrex-eth-btc #altcoinlive (change 0.00000043),0,0,0,False
72,AltcoinLive bot@AltcoinLiveBot,updated $ETH buywall 14.5btc @ 0.02370048 http://altcoinlive.com/bittrex-eth-btc #altcoinlive (change 0.00000046),0,0,0,False
73,Ethereum SE@StackEthereum,Deploying a contract over private net via CLI is not registering in blockchain http://ethereum.stackexchange.com/questions/2751/deploying-a-contract-over-private-net-via-cli-is-not-registering-in-blockchain… #ethereum #goethereum,0,0,0,False
74,Gerard Dwan@GerardDwan,"MT @kdnuggets: #Ethereum, a Virtual #Currency, Enables Transactions That Rival #Bitcoin http://nyti.ms/1V0wsiG",0,0,0,False
75,AltcoinLive bot@AltcoinLiveBot,updated $ETH buywall 14.2btc @ 0.02370002 http://altcoinlive.com/bittrex-eth-btc #altcoinlive (change -0.00008303),0,0,0,False
76,AltcoinLive bot@AltcoinLiveBot,updated $ETH buywall 14.7btc @ 0.02378305 http://altcoinlive.com/bittrex-eth-btc #altcoinlive (change 0.00003700),0,0,0,False
77,ethereum.network@EthereumNetw,"R package for #Ethereum, let the #blockchain analytics beginQuote TweetStephan Tual@stephantual · Apr 7, 2016Ok that R package for Ethereum is seriously cool. Note the Devcon One Peak in the chart. #ETHLDN",5,4,0,False
78,ⒽⒶⓇⓇⒾⓈ@HarrisTweeter21,#Ether @Nas Top 5 diss tracks made ....#ThrowbackThursday  ,1,0,0,False
79,BitcoinAgile@bitcoinagile,#ethereum Price Prediction April 7th #EthereumNews #Ethereumprice #EthereumPriceAnalysis http://bitcoin-daytrading.com/ethereum-price-prediction-april-7th…,0,0,0,False
80,englishinvancouver@engvancouver,Ethereum Price Prediction April 7th http://bitcoin-daytrading.com/ethereum-price-prediction-april-7th/… #ethereum #ether,0,0,0,False
81,Sector Zero One@SectorZeroOne,Free Ethereum every 5 minutes http://etherfaucet.net/?r=0xD91e186b5ab437E26d4114Cc970B1a91bABB3544… #ethereum via @FreeCryptoCo,0,0,0,False
82,Ethereum Price@EthereumPrice_,"#Ethereum: Ether Price Index
1 ETH =0.024311Ƀ XBT = $10.179500 USD
Today: -3.94%⬇︎ Last 24h: -5.21%⬇︎
https://ethereum-price.com",1,1,0,False
89,BitcoinBuzz vega9@BitcoinBuzzV9,http://bitcoinbuzz.vega9.com - Hot topics: #bitcoin #fintech #blockchain #btc #cryptocurrency #ethereum,0,0,0,False
90,Julia Edling@bitcointonic,Price Trend For ETH – #Ethereum On 04/07/2016: Ethereum’s price is fortifying at a key… http://dlvr.it/L0R0Sk,0,0,0,False
91,Reuben davis@reubendavis,Free Ethereum every 5 minutes http://etherfaucet.net/?r=0xd4b2b77c8b93c05849b9e869a6dd63c2de041733… #ethereum via @FreeCryptoCo,0,0,0,False
92,po𝚜𝚙i@pospigos,I think this is first #blockchain attempt to fix #democracy specifically in #america https://placeavote.com #ethereum #voting,0,0,0,False
93,fintechfolk@fintechfolk,Thanks glennhull95 for registering for FinTechFolk - http://zpr.io/Mnfj #fintech #ethereum #bitcoin #blockchain,2,0,0,False
94,AltcoinLive bot@AltcoinLiveBot,updated $ETH buywall 14.2btc @ 0.02370002 http://altcoinlive.com/bittrex-eth-btc #altcoinlive (change 0.00009957),0,0,0,False
95,AltcoinLive bot@AltcoinLiveBot,updated $ETH buywall 14.2btc @ 0.02370002 http://altcoinlive.com/bittrex-eth-btc #altcoinlive (change -0.00004420),0,0,0,False
96,Bitcoin@bitcoinpoet,I literally ELI5'd to a bunch of kids about mining today. They are pretty sure I'm a level 40 wizard... http://bit.ly/23fUWuu #ethereumI literally ELI5'd to a bunch of kids about mining today. They are...Posted in r/ethereum by u/jtnichol • 106 points and 49 commentsreddit.com,1,0,0,False
97,Bitcoin@bitcoinpoet,I updated the AutoAFKmining script that starts a minimized Ethminer after a predetermined time of in... http://bit.ly/23fUUmu #ethereumI updated the AutoAFKmining script that starts a minimized...The 5 minute timer in the last version was pegged to 50 seconds because of a typo. It is a simple Autohotkey script that automatically starts a...reddit.com,2,0,0,False
98,Makoto Inoue ( matoken.eth )@makoto_inoue,"#ethldn Hello. This is the link for London Ethereum Codeup (or DAM, Decentralised Autonomous Meetup) http://meetup.com/london-ethereum-codeup/events/230168940/… #ethereumThe first codeup (pilot)Tue, Apr 12, 2016, 6:30 PM: I am organising a study group for around 10 people who teach each other about Ethereum coding related stuff over a few beers.• Since this is the first trial, it's entirelymeetup.com",4,0,0,False
99,AltcoinLive bot@AltcoinLiveBot,updated $ETH buywall 14.3btc @ 0.02381060 http://altcoinlive.com/bittrex-eth-btc #altcoinlive (change -0.00018256),0,0,0,False
100,Julia Vaingurt@julia_vaingurt,"BitBay Offers #Ethereum Trading Against Fiat And Bitcoin http://cur.lv/x7bos
#ETH #Ether",2,1,0,False
109,BitBay@BitBay,"BitBay Offers #Ethereum Trading Against Fiat And Bitcoin http://newsbtc.com/2016/04/07/bitbay-offers-ethereum-trading-fiat-bitcoin/… #ETH #EtherBitBay Offers Ethereum Trading Against Fiat And BitcoinBitBay offers Ethereum trading markets for Bitcoin, EUR, PLN, and USD, which should attract traders from all over the world.newsbtc.com",1,0,0,False
110,AltcoinLive bot@AltcoinLiveBot,updated $ETH buywall 14.4btc @ 0.02399316 http://altcoinlive.com/bittrex-eth-btc #altcoinlive (change 0.00022333),0,0,0,False
111,AltcoinLive bot@AltcoinLiveBot,updated $ETH buywall 14.3btc @ 0.02376983 http://altcoinlive.com/bittrex-eth-btc #altcoinlive (change 0.00016906),0,0,0,False
112,AltcoinLive bot@AltcoinLiveBot,updated $ETH buywall 14.2btc @ 0.02360077 http://altcoinlive.com/bittrex-eth-btc #altcoinlive (change 0.00000076),0,0,0,False
113,AltcoinLive bot@AltcoinLiveBot,updated $ETH buywall 14.2btc @ 0.02360001 http://altcoinlive.com/bittrex-eth-btc #altcoinlive (change -0.00010000),0,0,0,False
114,#SmartEthereum@SmartEthereum,"Can #Ethereum Restore Online #Freedom & Transform the #InternetQuote TweetTrueWebPresence@truewebpresence · Apr 7, 2016Can Ethereum Restore Online Freedom & Transform the Internet? https://youtube.com/watch?v=H6bGuKN3m6E…",0,0,0,False
115,AltcoinLive bot@AltcoinLiveBot,updated $ETH buywall 14.4btc @ 0.02370001 http://altcoinlive.com/bittrex-eth-btc #altcoinlive (change 0.00015025),0,0,0,False
116,#SmartEthereum@SmartEthereum,"BitGo Engineers Launch #Ethereum Wallet Side Project http://coinacademy.co/bitgo-engineer…Quote TweetCoin Academy@CoinAcademy · Apr 7, 2016BitGo Engineers Launch Ethereum Wallet Side Project http://coinacademy.co/bitgo-engineers-launch-ethereum-wallet-side-project/…",1,0,0,False
117,#SmartEthereum@SmartEthereum,"#cryptocurrency #crypto BitBay Offers #Ethereum Trading In #Poland http://ow.ly/3diNfEQuote TweetFarah K. Miraza@farahkaifa · Apr 7, 2016#cryptocurrency #crypto BitBay Offers Ethereum Trading In Poland http://ow.ly/3diNfE",2,1,0,False
118,AltcoinLive bot@AltcoinLiveBot,updated $ETH buywall 14.1btc @ 0.02354976 http://altcoinlive.com/bittrex-eth-btc #altcoinlive (change -0.00015092),0,0,0,False
119,#SmartEthereum@SmartEthereum,"Buying an island,DAO for #ethereum national currency? #DAOforEthereum http://bitcoin-daytrading.com/buying-an-isla…Quote TweetBitcoinAgile@bitcoinagile · Apr 7, 2016Buying an island,DAO for #ethereum national currency? #DAOforEthereum http://bitcoin-daytrading.com/buying-an-islanddao-for-ethereum-national-currency…",1,0,0,False
121,AltcoinLive bot@AltcoinLiveBot,updated $ETH buywall 14.2btc @ 0.02370068 http://altcoinlive.com/bittrex-eth-btc #altcoinlive (change 0.00000012),0,0,0,False
122,Emanuel Mota@emota7,@stephantual  explaining their DAO @slockitproject #ethereum at #ETHLND,2,1,0,False
123,AltcoinLive bot@AltcoinLiveBot,updated $ETH buywall 14.2btc @ 0.02370056 http://altcoinlive.com/bittrex-eth-btc #altcoinlive (change 0.00000054),0,0,0,False
124,#SmartEthereum@SmartEthereum,"#Tokyo Stock Exchange Operator Joins NRI #Blockchain Trials #bitcoin #ethereum #fintechQuote TweetBitgear@bitgearhq · Apr 7, 2016Tokyo Stock Exchange Operator Joins NRI Blockchain Trials » http://buff.ly/1SfOyYI #bitcoin",1,0,0,False
125,AltcoinLive bot@AltcoinLiveBot,updated $ETH buywall 14.2btc @ 0.02370002 http://altcoinlive.com/bittrex-eth-btc #altcoinlive (change -0.00008281),0,0,0,False
126,AltcoinLive bot@AltcoinLiveBot,updated $ETH buywall 14.3btc @ 0.02378283 http://altcoinlive.com/bittrex-eth-btc #altcoinlive (change 0.00008466),0,0,0,False
127,AltcoinLive bot@AltcoinLiveBot,updated $ETH buywall 14.2btc @ 0.02369817 http://altcoinlive.com/bittrex-eth-btc #altcoinlive (change 0.00015126),0,0,0,False
128,AltcoinLive bot@AltcoinLiveBot,updated $ETH buywall 14.1btc @ 0.02354691 http://altcoinlive.com/bittrex-eth-btc #altcoinlive (change 0.00009839),0,0,0,False
129,#SmartEthereum@SmartEthereum,"Opportunity knocks with #blockchain #tech #fintech #cryptocurrency #ethereumQuote TweetAZ Accounting@AZaccountingfrm · Apr 7, 2016Opportunity knocks with blockchain tech http://ow.ly/10p6rZ",1,0,0,False
130,AltcoinLive bot@AltcoinLiveBot,updated $ETH buywall 14.1btc @ 0.02344852 http://altcoinlive.com/bittrex-eth-btc #altcoinlive (change 0.00005931),0,0,0,False
131,Rhian Lewis@rhian_is,'So what does the door do with the $40?' Question of the night to @stephantual at #ETHLDN #ethereum #blockchain #IoT,5,3,1,False
132,AltcoinLive bot@AltcoinLiveBot,updated $ETH buywall 14.0btc @ 0.02338921 http://altcoinlive.com/bittrex-eth-btc #altcoinlive (change -0.00009558),0,0,0,False
133,BitcoinBuzz vega9@BitcoinBuzzV9,http://bitcoinbuzz.vega9.com - Hot topics: #bitcoin #fintech #blockchain #cryptocurrency #ethereum #btc,0,0,0,False
134,AltcoinLive bot@AltcoinLiveBot,updated $ETH buywall 14.1btc @ 0.02348479 http://altcoinlive.com/bittrex-eth-btc #altcoinlive (change 0.00006191),0,0,0,False
135,AltcoinLive bot@AltcoinLiveBot,updated $ETH buywall 14.1btc @ 0.02342288 http://altcoinlive.com/bittrex-eth-btc #altcoinlive (change 0.00011913),0,0,0,False
136,#SmartEthereum@SmartEthereum,"#InnovateUK on how you can get money for your #ethereum project - 350k already went to @ProvenanceHQ - #ETHLDNQuote TweetStephan Tual@stephantual · Apr 7, 2016Innovate UK on how you can get money for your #ethereum project - 350k already went to @ProvenanceHQ - #ETHLDN https://twitter.com/CarminaDu/status/718148529584271360…",2,0,0,False
137,Kevin Osterling@kevin_osterling,#cryptocurrency same BS as fiat if its distribution continues to be proportional to CAPITAL instead of PEOPLE #ethereum #bitcoin,1,1,0,False
138,AltcoinLive bot@AltcoinLiveBot,updated $ETH buywall 14.0btc @ 0.02330375 http://altcoinlive.com/bittrex-eth-btc #altcoinlive (change 0.00005834),0,0,0,False
139,#SmartEthereum@SmartEthereum,"Amazing! RWE partner w/ @slockitproject for electric car charging on #ethereum #blockchain #IoT #automotive #techQuote TweetRhian Lewis@rhian_is · Apr 7, 2016Amazing! RWE partner w/ @slockitproject for electric car charging on #ethereum #blockchain #IoT #automotive #tech",2,0,0,False
140,ConsenSys@Consensys,"For those living in SF and interested in #Ethereum, join @koeppelmann and @ChristianPeel at their weekly meetupsSF Ethereum Developers (San Francisco, CA)*** In light of CV-19 concerns, we are postponing future events until a later date ***Welcome! This is a group for developers in and near San Francisco to learn about Ethereum and to aid in developingmeetup.com",7,7,0,False
142,Kevin Osterling@kevin_osterling,I need the decentralized #blockchain version of GOOGLE in order to see real longtail search results NOW!!! #ethereum #bitcoin,2,1,0,False
143,AltcoinLive bot@AltcoinLiveBot,updated $ETH buywall 13.9btc @ 0.02324541 http://altcoinlive.com/bittrex-eth-btc #altcoinlive (change -0.00009651),0,0,0,False
144,AltcoinLive bot@AltcoinLiveBot,updated $ETH buywall 14.0btc @ 0.02334192 http://altcoinlive.com/bittrex-eth-btc #altcoinlive (change -0.00005910),0,0,0,False
145,AltcoinLive bot@AltcoinLiveBot,updated $ETH buywall 14.0btc @ 0.02340102 http://altcoinlive.com/bittrex-eth-btc #altcoinlive (change -0.00005909),0,0,0,False
146,BitcoinAgile@bitcoinagile,"Buying an island,DAO for #ethereum national currency? #DAOforEthereum http://bitcoin-daytrading.com/buying-an-islanddao-for-ethereum-national-currency…",1,0,0,False
147,englishinvancouver@engvancouver,"Buying an island,DAO for Ethereum national currency? http://bitcoin-daytrading.com/buying-an-islanddao-for-ethereum-national-currency/… #ethereum",0,0,0,False
148,AltcoinLive bot@AltcoinLiveBot,updated $ETH buywall 14.1btc @ 0.02346011 http://altcoinlive.com/bittrex-eth-btc #altcoinlive (change -0.00008963),0,0,0,False
149,Rhian Lewis@rhian_is,"I've seen the future, and it's happening now at #ETHLONDON #blockcharge #ethereum #IoT",3,0,0,False
150,Rhian Lewis@rhian_is,Amazing! RWE partner w/ @slockitproject for electric car charging on #ethereum #blockchain #IoT #automotive #tech,18,6,0,False
151,BitcoinAgile@bitcoinagile,BitBay Offers #ethereum Trading In Poland - Altcoin Today http://altcointoday.com/octopocket-brings-finance-telegram…,0,0,0,False
152,AltcoinLive bot@AltcoinLiveBot,new $ETH sellwall 62.0btc @ 0.02405000 http://altcoinlive.com/poloniex-eth-btc… #altcoinlive,0,0,0,False
153,AltcoinLive bot@AltcoinLiveBot,new $ETH buywall 16.7btc @ 0.02380905 http://altcoinlive.com/poloniex-eth-btc… #altcoinlive,0,0,0,False
154,ConsenSys@Consensys,.@JesseGrushack and @simondlr demoing @UjoMusic to a group of music students from @BerkleeCollege ! #ethereum,16,4,0,False
155,ETHNews@ETHNews_,"#DAO #Insurance Company, Inc. http://ow.ly/10paj0 via @LinkedIn #Ethereum #ETH",1,1,0,False
156,Tim Campbell@TimCampbell_,RT M_Runners: Kicking off 2nd #LONDON #Ethereum meeting #ethldn cc DerinCag & TC_MBE   T…,0,0,0,False
157,Julia Vaingurt@julia_vaingurt,"**Cabbáge Unit Give-A-Way**
免费 $CAB http://cur.lv/x793l
#Bitcoin #Blockchain #Cryptocurrency #Ethereum #Fintech http://cur.lv/x793m",0,0,0,False
158,Stephan Tual@stephantual,"Innovate UK on how you can get money for your #ethereum project - 350k already went to @ProvenanceHQ - #ETHLDNQuote TweetCarmina Du@CarminaDu · Apr 7, 2016Packing quite a punch @innovateuk #ETHLDN",8,3,0,False
159,Conrad Johnson @ConradJohnson,"Dallas Ethereum meetup tonight at the @dallasmakers - http://meetup.com/Dallas-Ethereum-Meetup/events/229547472/… #DallasEthereum #EthereumEthereum Meetup at Dallas Makerspace - Ethereum Developer EnvironmentThu, Apr 7, 2016, 6:30 PM: Developer Edition!First - Taylor Gerring, Director of Technology for the Ethereum Foundation will be streamed to speak to our meetup group.Then - We'll be diving into Trufflmeetup.com",4,2,0,False
160,Generationhiphop@genhiphopuk,1 word #ETHER https://instagram.com/p/BD6NgeeSBYV/,0,0,0,False
161,AltcoinLive bot@AltcoinLiveBot,removed $ETH buywall 13.7btc @ 0.02730040 http://altcoinlive.com/poloniex-eth-btc… #altcoinlive,0,0,0,False
162,Chris P Thompson@CryptoBooksAlt,#ethereum please sign this petition https://petition.parliament.uk/petitions/126980/sponsors/GGtYELlAkxUvoAW4Diuz…,0,0,0,False
163,AltcoinLive bot@AltcoinLiveBot,updated $ETH buywall 14.1btc @ 0.02354974 http://altcoinlive.com/bittrex-eth-btc #altcoinlive (change -0.00008076),0,0,0,False
164,ant@ThisIsNuse,The bitcoin halving came early for $ETH and top marketcap holders accounts.,4,3,0,False
165,Adam@PogSedai,Watch “Vinay Gupta explains the #blockchain in 30 minutes. #bitcoin #ethereum #centralbank #crytopgraphy #cypherpunk https://vimeo.com/161183966,1,0,0,False
166, mysty 3.5% #GTTO@mysty,Paul Ellis of Electron kicks off talks at tonight's #ethereum #ethldn,3,0,0,False
167,AltcoinLive bot@AltcoinLiveBot,updated $ETH buywall 14.2btc @ 0.02363050 http://altcoinlive.com/bittrex-eth-btc #altcoinlive (change -0.0000626),0,0,0,False
168,AltcoinLive bot@AltcoinLiveBot,updated $ETH buywall 14.2btc @ 0.02369310 http://altcoinlive.com/bittrex-eth-btc #altcoinlive (change 0.00000011),0,0,0,False
169,AltcoinLive bot@AltcoinLiveBot,updated $ETH buywall 14.2btc @ 0.02369299 http://altcoinlive.com/bittrex-eth-btc #altcoinlive (change 0.00008118),0,0,0,False
170,Rhian Lewis@rhian_is,Why is energy a good use case for #blockchain? Read the slide! #ethereum #ETHLDN @ethereumproject,5,5,0,False
171,Emanuel Mota@emota7,Crowded London #ethereum meetup. 3 promising talks ahead. #ETHLDN,6,3,0,False
172,AltcoinLive bot@AltcoinLiveBot,updated $ETH buywall 14.2btc @ 0.02361181 http://altcoinlive.com/bittrex-eth-btc #altcoinlive (change 0.00006207),0,0,0,False
173,Sophia Grami@sophiagrami,Live from #Ethereum meetup in London! So exciting! #ethldn,2,0,0,False
174,Marketing Runners@M_Runners,Kicking off 2nd #LONDON #Ethereum meeting #ethldn cc @DerinCag & @TC_MBE ,10,5,1,False
175,AltcoinLive bot@AltcoinLiveBot,updated $ETH buywall 14.1btc @ 0.02354974 http://altcoinlive.com/bittrex-eth-btc #altcoinlive (change -0.00011754),0,0,0,False
176,AltcoinLive bot@AltcoinLiveBot,updated $ETH buywall 14.2btc @ 0.02366728 http://altcoinlive.com/bittrex-eth-btc #altcoinlive (change -0.00016755),0,0,0,False
177,AltcoinLive bot@AltcoinLiveBot,updated $ETH buywall 14.3btc @ 0.02383483 http://altcoinlive.com/bittrex-eth-btc #altcoinlive (change 0.00021106),0,0,0,False
178,AltcoinLive bot@AltcoinLiveBot,updated $ETH buywall 14.2btc @ 0.02362377 http://altcoinlive.com/bittrex-eth-btc #altcoinlive (change 0.00006195),0,0,0,False
179,Ethereum Price@EthereumPrice_,"#Ethereum: Ether Price Index
1 ETH =0.024120Ƀ XBT = $10.100800 USD
Today: -4.70%⬇︎ Last 24h: -5.76%⬇︎
https://ethereum-price.com",0,0,0,False
180,Ethereum SE@StackEthereum,Software to measure power consumption of mining? http://ethereum.stackexchange.com/questions/2747/software-to-measure-power-consumption-of-mining… #ethereum #mining #powerconsumption,0,0,0,False
188,ajlopez@ajlopez,"Truffle is a dev environment, testing framework and asset pipeline for #Ethereum https://github.com/consensys/truffle… by @ConsenSysLLC via @aeidelman",2,1,0,False
189,ValueTrader@minidowtrader,Getting up to speed on #Blockchain and #Ethereum at the #ethldn #fintech #meetup,4,1,0,False
190,AltcoinLive bot@AltcoinLiveBot,updated $ETH buywall 14.1btc @ 0.02356182 http://altcoinlive.com/bittrex-eth-btc #altcoinlive (change 0.00005045),0,0,0,False
191,rssbtc.com@rssbtc,"BitBay Offers Ethereum Trading Against Fiat And Bitcoin - http://bit.ly/1MhPBeE
#fintech #currency #ethereum @bitbayBitBay Offers Ethereum Trading Against Fiat And BitcoinBitBay offers Ethereum trading markets for Bitcoin, EUR, PLN, and USD, which should attract traders from all over the world.newsbtc.com",4,3,0,False
192,Tom Kirkham@tomkirkham,"@KrakenTrader still believe in the company, though. #ethereum",0,0,0,False
193,AltcoinLive bot@AltcoinLiveBot,updated $ETH buywall 14.2btc @ 0.02360013 http://altcoinlive.com/bittrex-eth-btc #altcoinlive (change 0.00000012),0,0,0,False
194,AltcoinLive bot@AltcoinLiveBot,updated $ETH buywall 14.2btc @ 0.02360001 http://altcoinlive.com/bittrex-eth-btc #altcoinlive (change -0.00007190),0,0,0,False
195,AltcoinLive bot@AltcoinLiveBot,updated $ETH buywall 14.2btc @ 0.02367191 http://altcoinlive.com/bittrex-eth-btc #altcoinlive (change -0.00005810),0,0,0,False
196,AltcoinLive bot@AltcoinLiveBot,updated $ETH buywall 14.2btc @ 0.02373001 http://altcoinlive.com/bittrex-eth-btc #altcoinlive (change 0.00005807),0,0,0,False
197,AltcoinLive bot@AltcoinLiveBot,updated $ETH buywall 14.2btc @ 0.02367194 http://altcoinlive.com/bittrex-eth-btc #altcoinlive (change 0.00000003),0,0,0,False
198,AltcoinLive bot@AltcoinLiveBot,updated $ETH buywall 14.2btc @ 0.02367191 http://altcoinlive.com/bittrex-eth-btc #altcoinlive (change 0.00007188),0,0,0,False
199,AltcoinLive bot@AltcoinLiveBot,updated $ETH buywall 14.2btc @ 0.02360003 http://altcoinlive.com/bittrex-eth-btc #altcoinlive (change -0.00007188),0,0,0,False
200,AltcoinLive bot@AltcoinLiveBot,updated $ETH buywall 14.2btc @ 0.02367191 http://altcoinlive.com/bittrex-eth-btc #altcoinlive (change -0.00000002),0,0,0,False
201,AltcoinLive bot@AltcoinLiveBot,updated $ETH buywall 14.2btc @ 0.02367193 http://altcoinlive.com/bittrex-eth-btc #altcoinlive (change 0.00007191),0,0,0,False
202,Michel Fornasier@michelfornasier,"When humans and robots team up #cybathlon #eth #team
https://youtube.com/watch?v=Rx9I_hYqQcM…",1,0,0,False
203,AltcoinLive bot@AltcoinLiveBot,updated $ETH buywall 14.2btc @ 0.02360002 http://altcoinlive.com/bittrex-eth-btc #altcoinlive (change 0.00006089),0,0,0,False
204,Ethereum SE@StackEthereum,how to develop a multi-step game with the contract http://ethereum.stackexchange.com/questions/2745/how-to-develop-a-multi-step-game-with-the-contract… #ethereum #contractdesign #gambling,0,0,0,False
205,Ethereum SE@StackEthereum,"Ethereum Node Stuck, Can't Sync http://ethereum.stackexchange.com/questions/2746/ethereum-node-stuck-cant-sync… #ethereum #synchronization",0,0,0,False
206,Ethereum@ethereum,"A new version of the eth-net-intelligence-api is available for the ethstats page: 
https://github.com/cubedro/eth-net-intelligence-api… #ethereum #blockchain #statscubedro/eth-net-intelligence-apiEthereum Network Intelligence API. Contribute to cubedro/eth-net-intelligence-api development by creating an account on GitHub.github.com",24,18,0,False
207,AltcoinLive bot@AltcoinLiveBot,updated $ETH buywall 14.0btc @ 0.02334213 http://altcoinlive.com/bittrex-eth-btc #altcoinlive (change 0.00005937),0,0,0,False
208,ETHNews@ETHNews_,"#RunCPA Announces #Decentralized #Ethereum #App Competition With $250,000/Year Job Prize http://ow.ly/10paaM via @CoinTelegraphRunCPA Announces Decentralized Ethereum App Competition With $250,000/Year Job PrizeRunCPA has announced a competition to find the best decentralized app on the Ethereum platform, which will be integrated with the RunCPA network.cointelegraph.com",0,0,0,False
209,AltcoinLive bot@AltcoinLiveBot,updated $ETH buywall 14.0btc @ 0.02328276 http://altcoinlive.com/bittrex-eth-btc #altcoinlive (change 0.00005964),0,0,0,False
210,Alistair Milne@alistairmilne,"Can only admire the optimism! Will go <$7 first $ETH #ethereumQuote TweetTrey Kelly@treykelly3 · Apr 7, 2016Replying to @alistairmilne@alistairmilne  NO! Going to $40 this year.",1,2,0,False
211,AltcoinLive bot@AltcoinLiveBot,updated $ETH buywall 13.9btc @ 0.02322312 http://altcoinlive.com/bittrex-eth-btc #altcoinlive (change 0.00005846),0,0,0,False
212,BACKFEED@Backfeed_cc,"#SmartContracts and #SmartCities - COALA's #Blockchain Workshops - Hong Kong

https://youtu.be/1TndgTi_wAw
#ethereum",3,2,0,False
213,The Financial Revolutionist@Fin_Revolution,#Ethereum is all the rage. See The Financial Revolutionist. @Microsoft https://cards.twitter.com/cards/18ce548jczu/1m9tt…,0,0,0,False
214,AltcoinLive bot@AltcoinLiveBot,updated $ETH buywall 13.9btc @ 0.02316466 http://altcoinlive.com/bittrex-eth-btc #altcoinlive (change -0.00006312),0,0,0,False
215,ethereum.network@EthereumNetw,"#Ethereum Mist Wallet v0.6.2 Update
Chinese and other languages supportRelease Wallet 0.6.2 (Beta 13) · ethereum/mistFixes ethereum/meteor-dapp-wallet#143 And also add chinese to the Mist interface (Not the wallet though). Thanks to @TT1943 spanish (Thanks to @franckuestein) MD5 Ethereum-Wallet-linux32-0-6-2.zi...github.com",4,1,1,False
216,"...""Then They Fight You""...@SunnyBTC","$ETH Target practice! https://tradingview.com/chart/ETHXBT/nOof3xKY-ETHXBT-Thoughts/… @BTCVIX @mBTCPizpie @BTCTooty @Jimdirect @flibbr @Lord_Ashdrake $ETHXBT #damnsoldbtc'sETHXBT Thoughts for KRAKEN:ETHXBT by SunnyBTCThink the top is in for now. Unsure if it will go for new lows, based on lack of data, but I would suggest that the bearish cycles in Gold have very likely ended and so most other 'commodity' based...tradingview.com",4,4,0,False
217,dj Thistle@DJThistle01,"""no more pullbacks""
""0.03 is the new floor""
""ETH to $100""
""I'm buying all the way down""

#Ethereum quotes 2016... #bagholding #seamanflipper",12,1,2,False
218,Bob Summerwill@BobSummerwill,"More information about Ethereum(J) v1.2.0 Homestead Final Release
http://ethereumj.io/blog/2016/04/05/release-1-dot-2-0-homestead-final-release/…
#ethereum #java",0,0,0,False
219,fintechfolk@fintechfolk,Thanks tecutlimtz for registering for FinTechFolk - http://zpr.io/Mnfj #fintech #ethereum #bitcoin #blockchain,4,0,0,False
220,Scott Robinson@scottrobo,"Replying to @WTTC@WTTC @YCI_Global Thanks! We have our fingers crossed, and are live streaming from the UK, Brazil, India and Ethiopia #gbr #bra #ind #eth",4,3,1,False
221,Kan Janyza@KanJanyza,"choose coin after rally on relative high level from last accumulation on margin polo and short it = $$$
$ETH $MAID $DASH $XMR",1,1,0,False
222,ChrisB@ChrisBlandUK,Looking forward to the Ethereum London Meetup @HavasMediaUK this evening. #ETHLDN #Ethereum,0,0,0,False
223,Marco ฿TC@Marco_BTC,"Replying to @Marco_BTC@marcoporretto Don't think to close my short before 0.02, now $ETH can crash fast!",2,2,1,False
230,Snxw @stfugetmoney,Listen to MIDNIGHT PROD. $NOW by $eth #np on #SoundCloudMIDNIGHT PROD. $NOWTRIPULATION 2016soundcloud.com,1,1,0,False
231,Ethereum SE@StackEthereum,Why is it that the Mist client can not display the transactions? http://ethereum.stackexchange.com/questions/2742/why-is-it-that-the-mist-client-can-not-display-the-transactions… #ethereum #transactions #mist #wallets,0,0,0,False
232,AltcoinLive bot@AltcoinLiveBot,updated $ETH buywall 13.9btc @ 0.02323038 http://altcoinlive.com/bittrex-eth-btc #altcoinlive (change 0.00006615),0,0,0,False
233,AltcoinLive bot@AltcoinLiveBot,updated $ETH buywall 13.9btc @ 0.02316423 http://altcoinlive.com/bittrex-eth-btc #altcoinlive (change 0.00006422),0,0,0,False
234,#SmartEthereum@SmartEthereum,"BitBay Offers #Ethereum #Trading Against Fiat And #BitcoinQuote TweetMajella de Jong@JellaBoem · Apr 7, 2016BitBay Offers Ethereum Trading Against Fiat And Bitcoin http://newsbtc.com/2016/04/07/bitbay-offers-ethereum-trading-fiat-bitcoin/…",2,0,0,False
235,AltcoinLive bot@AltcoinLiveBot,updated $ETH buywall 13.9btc @ 0.02310001 http://altcoinlive.com/bittrex-eth-btc #altcoinlive (change 0.00002400),0,0,0,False
236,AlertCo.in@AlertCoin,"@CharlyHighnoise
#Bittrex: $ETH / BTC

Alert price: <= 0.0235
Current price: 0.0235

http://AlertCo.in",0,0,0,False
237,AltcoinLive bot@AltcoinLiveBot,updated $ETH buywall 13.8btc @ 0.02307601 http://altcoinlive.com/bittrex-eth-btc #altcoinlive (change -0.00007881),0,0,0,False
238,TBM NEWS@TBMGPT_News,"BitBay Offers #Ethereum Trading Against Fiat And #Bitcoin http://newsbtc.com/2016/04/07/bitbay-offers-ethereum-trading-fiat-bitcoin/… @BitBayNewsBitBay Offers Ethereum Trading Against Fiat And BitcoinBitBay offers Ethereum trading markets for Bitcoin, EUR, PLN, and USD, which should attract traders from all over the world.newsbtc.com",1,0,0,False
239,AltcoinLive bot@AltcoinLiveBot,updated $ETH buywall 13.9btc @ 0.02315482 http://altcoinlive.com/bittrex-eth-btc #altcoinlive (change -0.00005059),0,0,0,False
240,AltcoinLive bot@AltcoinLiveBot,updated $ETH buywall 13.9btc @ 0.02320541 http://altcoinlive.com/bittrex-eth-btc #altcoinlive (change -0.00027343),0,0,0,False
241,AltcoinLive bot@AltcoinLiveBot,updated $ETH buywall 14.1btc @ 0.02347884 http://altcoinlive.com/bittrex-eth-btc #altcoinlive (change -0.00011551),0,0,0,False
242,AltcoinLive bot@AltcoinLiveBot,updated $ETH buywall 14.2btc @ 0.02359435 http://altcoinlive.com/bittrex-eth-btc #altcoinlive (change -0.00009880),0,0,0,False
243,Blockchain Works@BlockchainWorks,"Ethereum founders Vitalik and Joseph to attend Microsoft to educate developers on #EthereumEthereum Solidity Available in Visual Studio/PRNewswire/ -- ConsenSys is proud to announce the support for Ethereum's high-level programming language, Solidity into Visual Studio as a Decentralized...prnewswire.com",0,0,0,False
244,AltcoinLive bot@AltcoinLiveBot,updated $ETH buywall 14.2btc @ 0.02369315 http://altcoinlive.com/bittrex-eth-btc #altcoinlive (change -0.00006896),0,0,0,False
245,AltcoinLive bot@AltcoinLiveBot,updated $ETH buywall 14.3btc @ 0.02376211 http://altcoinlive.com/bittrex-eth-btc #altcoinlive (change 0.00005963),0,0,0,False
246,BACKFEED@Backfeed_cc,"#Ethereum explained by @VitalikButerin
https://coincenter.org/2016/03/what-is-ethereum/#.VuKVqvbB3xY.twitter…
#blockchain",11,10,0,False
247,Ethereum SE@StackEthereum,How would stablecoins work on Ethereum? http://ethereum.stackexchange.com/questions/2739/how-would-stablecoins-work-on-ethereum… #ethereum #ether #dapps #stablecoins,0,0,0,False
248,Ethereum SE@StackEthereum,Mix wont connect to nodes: Error status 0 http://ethereum.stackexchange.com/questions/2740/mix-wont-connect-to-nodes-error-status-0… #ethereum #testnets #mix #morden #connections,0,0,0,False
249,AltcoinLive bot@AltcoinLiveBot,updated $ETH buywall 14.2btc @ 0.02370248 http://altcoinlive.com/bittrex-eth-btc #altcoinlive (change -0.00007971),0,0,0,False
250,AltcoinLive bot@AltcoinLiveBot,updated $ETH buywall 14.3btc @ 0.02378219 http://altcoinlive.com/bittrex-eth-btc #altcoinlive (change -0.00006536),0,0,0,False
251,Patrizio Stavola@halovast,"How ""Open Execution"" will replace Open Source #ethereum https://linkedin.com/pulse/how-open-execution-replace-source-jason-carver…",0,0,0,False
252,bruno biondo@minouetitti,Free Ethereum every 5 minutes http://eth-faucet.com/?r=0xf949a9366bf67b72c09589e70ffeac5642ececae… #ethereum via @FreeCryptoCo,0,0,0,False
253,#SmartEthereum@SmartEthereum,"""Red Hat OpenShift #Blockchain Initiative Focuses On #Ethereum"" #bitcoin #techQuote TweetRob Viglione@robviglione · Apr 7, 2016""Red Hat OpenShift Blockchain Initiative Focuses On #Ethereum"" #bitcoin #tech https://news.bitcoin.com/red-hat-openshift-ethereum/…",1,0,0,False
254,AltcoinLive bot@AltcoinLiveBot,updated $ETH buywall 14.3btc @ 0.02384755 http://altcoinlive.com/bittrex-eth-btc #altcoinlive (change 0.00012016),0,0,0,False
255,Franck Besnard@besn0847,#ethereum #docker #blockchain #tutorial Tutorial 1 : Transfer funds between Ether accountsbesn0847/ethereum-appA simple Etheruem app to get started on Blockchains - besn0847/ethereum-appgithub.com,0,0,0,False
256,bruno biondo@minouetitti,Free Ethereum every 5 minutes http://etherfaucet.net/?r=0x123928f59033807f6b485abc881b31557f140b33… #ethereum via @FreeCryptoCo,0,0,0,False
257,AltcoinLive bot@AltcoinLiveBot,updated $ETH buywall 14.2btc @ 0.02372739 http://altcoinlive.com/bittrex-eth-btc #altcoinlive (change 0.00005986),0,0,0,False
258,AltcoinLive bot@AltcoinLiveBot,updated $ETH buywall 14.2btc @ 0.02366753 http://altcoinlive.com/bittrex-eth-btc #altcoinlive (change -0.00009461),0,0,0,False
259,#SmartEthereum@SmartEthereum,"Money in Information Theory  | George Gilder http://fee.org/articles/money… via @feeonline #bitcoin #ethereumQuote TweetFrancisco Gordillo@FGordillo · Apr 7, 2016Money in Information Theory  | George Gilder http://fee.org/articles/money-in-information-theory/… via @feeonline #bitcoin #ethereum",1,0,0,False
260,#SmartEthereum@SmartEthereum,"this is the end game…a better society for us all #ethereum #blockchainQuote Tweettgerring.eth@TaylorGerring · Apr 7, 2016this is the end game…a better society for us all #ethereum #blockchain https://twitter.com/avsa/status/718064152149798912…",1,0,0,False
261,AltcoinLive bot@AltcoinLiveBot,updated $ETH buywall 14.3btc @ 0.02376214 http://altcoinlive.com/bittrex-eth-btc #altcoinlive (change -0.00009347),0,0,0,False
262,TyrionTrader@TheXrn,$ETH time to break 0.0235,0,0,0,False
263,Bcx@bcn279,Replying to @BlockChannel@BlockChannel #gold on the #ethereum #blockchain https://digix.io,1,0,0,False
264,Philsabang@Philsabang,In the meanwhile #ETHGIF,3,0,0,False
265,AltcoinLive bot@AltcoinLiveBot,updated $ETH buywall 14.3btc @ 0.02385561 http://altcoinlive.com/bittrex-eth-btc #altcoinlive (change 0.00005965),0,0,0,False
266,Martin Vidler@vids76,#UK #fintech disrupters feature in 2/3rds of telegraph's top 50 http://bit.ly/1VAjo3H #ethereum #blockchain,0,0,0,False
267,AltcoinLive bot@AltcoinLiveBot,updated $ETH buywall 14.3btc @ 0.02379596 http://altcoinlive.com/bittrex-eth-btc #altcoinlive (change 0.00000052),0,0,0,False
268,Patrizio Stavola@halovast,What if we developed legal contracts like we developed software applications? by @ConsenSysLLC https://medium.com/@ConsenSys/what-if-we-developed-legal-contracts-like-we-developed-software-applications-1b5bc8fbb915#.dp8s8dlus… #blockchain #ethereumWhat if we developed legal contracts like we developed software applications?Guest Post by Joe Deweymedium.com,4,1,0,False
270,AltcoinLive bot@AltcoinLiveBot,updated $ETH buywall 14.3btc @ 0.02379544 http://altcoinlive.com/bittrex-eth-btc #altcoinlive (change 0.00006097),0,0,0,False
271,Crypto Games@Crypto_Games,Tomorrow is a day to play #dice without house edge! Only at http://crypto-games.net #ethereum #Dogecoin,3,0,0,False
272,AltcoinLive bot@AltcoinLiveBot,updated $ETH buywall 14.2btc @ 0.02373447 http://altcoinlive.com/bittrex-eth-btc #altcoinlive (change 0.00007098),0,0,0,False
273,AltcoinLive bot@AltcoinLiveBot,updated $ETH buywall 14.2btc @ 0.02366349 http://altcoinlive.com/bittrex-eth-btc #altcoinlive (change -0.00019214),0,0,0,False
274,AltcoinLive bot@AltcoinLiveBot,updated $ETH buywall 14.3btc @ 0.02385563 http://altcoinlive.com/bittrex-eth-btc #altcoinlive (change 0.00006099),0,0,0,False
275,AltcoinLive bot@AltcoinLiveBot,updated $ETH buywall 14.3btc @ 0.02379464 http://altcoinlive.com/bittrex-eth-btc #altcoinlive (change 0.00012206),0,0,0,False
276,CosmicTriggerThePlay@2CosmicTrigger3,Good Thursday to you! Yesterday we LEVERAGED #PanamaPapers to finish our introduction to #blockchain and #ethereum https://facebook.com/cosmictriggerplay/posts/1062336570475518…,0,0,0,False
277,CosmicTriggerThePlay@2CosmicTrigger3,Good Thursday to you! Yesterday we LEVERAGED #PanamaPapers to finish our introduction to #blockchain and #ethereum http://buff.ly/1UZ0tRO,0,0,0,False
278,AltcoinLive bot@AltcoinLiveBot,updated $ETH buywall 14.2btc @ 0.02367258 http://altcoinlive.com/bittrex-eth-btc #altcoinlive (change -0.00008917),0,0,0,False
279,AltcoinLive bot@AltcoinLiveBot,updated $ETH buywall 14.3btc @ 0.02376175 http://altcoinlive.com/bittrex-eth-btc #altcoinlive (change 0.00005947),0,0,0,False
280,AltcoinLive bot@AltcoinLiveBot,updated $ETH buywall 14.2btc @ 0.02370228 http://altcoinlive.com/bittrex-eth-btc #altcoinlive (change 0.00005990),0,0,0,False
281,CORE@cryptocointalk,"Replying to @jebus911@jebus911 yea, boy has $ETH taken a hit in price.",0,0,0,False
282,AltcoinLive bot@AltcoinLiveBot,updated $ETH buywall 14.2btc @ 0.02364238 http://altcoinlive.com/bittrex-eth-btc #altcoinlive (change 0.00005911),0,0,0,False
283,Ethereum SE@StackEthereum,"Is the term ""open execution"" wrong in any way? http://ethereum.stackexchange.com/questions/2735/is-the-term-open-execution-wrong-in-any-way… #ethereum #introducingethereum #smartcontracts",1,0,0,False
284,AltcoinLive bot@AltcoinLiveBot,updated $ETH buywall 14.1btc @ 0.02358327 http://altcoinlive.com/bittrex-eth-btc #altcoinlive (change -0.00006138),0,0,0,False
285,Dave Hoover@davehoover,Replying to @davehoover This is a great example of why I'm focused on #Ethereum over #Bitcoin.,2,1,0,False
286,BitcoinAgile@bitcoinagile,#ethereum Mining Pool: Eine Mining Pool Liste #EthereumMiningPools #EthereumPool #Mining http://ethereum-kaufen.de/ethereum-mining/ethereum-mining-pool/2016…,0,0,0,False
287,AltcoinLive bot@AltcoinLiveBot,updated $ETH buywall 14.2btc @ 0.02364465 http://altcoinlive.com/bittrex-eth-btc #altcoinlive (change -0.00007578),0,0,0,False
288,AltcoinLive bot@AltcoinLiveBot,updated $ETH buywall 14.2btc @ 0.02372043 http://altcoinlive.com/bittrex-eth-btc #altcoinlive (change -0.00009326),0,0,0,False
289,AltcoinLive bot@AltcoinLiveBot,updated $ETH buywall 14.3btc @ 0.02381369 http://altcoinlive.com/bittrex-eth-btc #altcoinlive (change -0.00011422),0,0,0,False
290,AltcoinLive bot@AltcoinLiveBot,updated $ETH buywall 14.4btc @ 0.02392791 http://altcoinlive.com/bittrex-eth-btc #altcoinlive (change -0.00011691),0,0,0,False
291,Jebus@jebus911,It look like $eth is on the edge of the shitcoin ridge to anyone else?,3,3,0,False
292,AltcoinLive bot@AltcoinLiveBot,updated $ETH buywall 14.4btc @ 0.02404482 http://altcoinlive.com/bittrex-eth-btc #altcoinlive (change -0.00006880),0,0,0,False
293,Kayrus Fenix@KayrusFenix,Claim your Free Ethereum every 5 minutes http://etherfaucet.net/?r=0x99258c63a22730f4d3d01aa725dd8d33e9c22926… #ethereum via @FreeCryptoCo,0,0,0,False
294,Ξthereum Romania@ethereumromania,"Just rolled out the second #ethereum #meetup group. Let's see how big we can make it ! http://meetup.com/Ethereum-Cluj/ #cluj #romaniaEthereum Cluj (Cluj-Napoca, Romania)Grupul cu numarul doi din Romania, ce organizeaza intalniri ce au ca principala tema proiectul Ethereum.Ethereum este o platformă ce faciliteaza implementarea si dezvoltarea de aplicații descentralizameetup.com",5,1,0,False
300,BACKFEED@Backfeed_cc,"RunCPA Announces Decentralized #Ethereum App Competition With $250,000/Year Job Prize

http://cointelegraph.com/news/runcpa-announces-decentralized-ethereum-app-competition-with-250000year-job-prize…",2,2,0,False
301,Ethereum Price@EthereumPrice_,"#Ethereum: Ether Price Index
1 ETH =0.024672Ƀ XBT = $10.325500 USD
Today: -2.52%⬇︎ Last 24h: -2.10%⬇︎
https://ethereum-price.com",0,0,0,False
302,Ethereum SE@StackEthereum,Is it conceivable to have a DApp that doesn't issue tokens? http://ethereum.stackexchange.com/questions/2733/is-it-conceivable-to-have-a-dapp-that-doesnt-issue-tokens… #ethereum #tokens,0,0,0,False
303,Orlando Pereira@Opereira,"""Ethereum and Bitcoin: To Boldly Go..."" by @NoelleInMadrid nice read! https://linkedin.com/pulse/ethereum-bitcoin-boldly-go-noelle-acheson… #bitcoin #EthereumEthereum and Bitcoin: To Boldly Go...The media seems to relish headlines proclaiming the triumph of a bitcoin rival. And it’s not surprising.linkedin.com",1,0,0,False
304,Cato CMFA@CatoCMFA,Sign up for Tuesday’s #CryptoCato conference. Registration closes soon. http://cato.org/cryptocurrency #Bitcoin #Blockchain #Ripple #EthereumCryptocurrency: The Policy Challenges of a Decentralized Revolutioncato.org,0,0,0,False
305,YOᗪI ᕼEᖇᗰᗩᗯᗩᑎ@YodiHermawan,#Ethereum (#ETH) #Price Trends: 4/07/2016: <![CDATA[ Ethereum's price is fortifying at a… http://goo.gl/fb/IRw7Wf #vk,0,0,0,False
306,AltcoinLive bot@AltcoinLiveBot,updated $ETH buywall 14.5btc @ 0.02411362 http://altcoinlive.com/bittrex-eth-btc #altcoinlive (change -0.00007425),0,0,0,False
307,CloudPay@Nadia_Griffiths,BitBay Offers #Ethereum Trading Against Fiat And #Bitcoin http://ln.is/www.newsbtc.com/2016/YyqKc…,1,0,0,False
308,Bean@BTCBean,"Short on $eth from 0.0258

Dump should be epic down to support at 0.015-0.017 area or lower",1,1,0,False
309,CloudPay@Nadia_Griffiths,#Ethereum (ETH) Price Trends: 4/07/2016 http://bit.ly/1oFkMF7,0,0,0,False
310,Pelle Brændgaard (we are hiring)@PelleB,My next article in the series: Ethereum vs Mossack Fonseca: Trusts without Trustees http://buff.ly/1q99NEZ #ethereum #panamapapers,2,1,0,False
311,Francisco Gordillo@FGordillo,"Money in Information Theory  | George Gilder http://fee.org/articles/money-in-information-theory/… via @feeonline #bitcoin #ethereumMoney in Information Theory | George GilderIn the name of managing money, the Fed is trying to manipulate investors’ timefee.org",1,0,0,False
312,AltcoinLive bot@AltcoinLiveBot,updated $ETH buywall 14.5btc @ 0.02418787 http://altcoinlive.com/bittrex-eth-btc #altcoinlive (change -0.00009454),0,0,0,False
313,Ethereum SE@StackEthereum,How is the amount of gas required by an op code determined? http://ethereum.stackexchange.com/questions/2730/how-is-the-amount-of-gas-required-by-an-op-code-determined… #ethereum #gas,0,0,0,False
314,Widget 4 Bitcoin@widget4bc,##ETHereum (ETH) #Price Trends: 4/07/2016: Ethereum's price is fortifying at a key level.… http://short.4bc.co/adI,0,0,0,False
315,4BC@aff4bc,##ETHereum (ETH) #Price Trends: 4/07/2016: Ethereum's price is fortifying at a key level.… http://short.4bc.co/adI,0,0,0,False
316,ICOcountdown@ICOcountdown,#slockit #slockit #ethereum $SLOCK http://slock.it added toICOCOUNTDOWN.COMNever miss a crowdsale again!icocountdown.com,1,0,0,False
317,Раб Божий@Diener_Gottes,#Ethereum (#ETH) #Price Trends: 4/07/2016: <![CDATA[ Ethereum's price is fortifying at a key… http://goo.gl/fb/3Msmff,0,0,0,False
318,Ethereum SE@StackEthereum,Losing connection between nodes on private network http://ethereum.stackexchange.com/questions/2727/losing-connection-between-nodes-on-private-network… #ethereum #goethereum #privateblockchain #network,0,0,0,False
319,Chris Dunn@ChrisDunnTV,Updated trade alert for #Ethereum - http://skillincubator.com/courses/cryptocurrency-mentoring-program/lectures/935132…,6,0,0,False
320,CyberPrestige@Cyber_Prestige,A New Cryptocurrency Cloud Mining Product #ETHEREUM CLOUD #MINING!! 1ETH= 0.026BTC https://oxbtc.com/?invite=Cyberprestige…,1,0,0,False
321,Fred Sullivan@fredjet,"Yes, an island state if mind in a established country with a new #ethereum contract of self governance,Quote TweetGeorge@_Georgeth_ · Apr 7, 2016DAO Island https://reddit.com/r/ethereum/comments/4dorx0/lets_buy_an_island_dao_for_ethereum/… #Ethereum #blockchain #seasteading",0,0,0,False
322,Ali Güçlü@aliguclu,"CoinTelegraph : #Ethereum (#ETH) Price Trends: 4/07/2016 http://cointelegraph.com/news/ethereum-eth-price-trends-4072016… … https://twitter.com/CoinTelegraph/status/718074746605322240…)Quote TweetCointelegraph@Cointelegraph · Apr 7, 2016#Ethereum (#ETH) Price Trends: 4/07/2016 http://cointelegraph.com/news/ethereum-eth-price-trends-4072016…",0,0,0,False
323,Cointelegraph@Cointelegraph,#Ethereum (#ETH) Price Trends: 4/07/2016 http://cointelegraph.com/news/ethereum-eth-price-trends-4072016…,4,8,0,False
324,Joss@jossmedran0,The struggle is real #lol #consciousness #awareness #divine #ether https://instagram.com/p/BD5rkvfwdjo/,0,0,0,False
325,BigAl@BigAl_crypto,Do you think $ETH brought a parachute it might be a rough ride!,1,0,0,False
326,ozerov.vladimir077@OVladimir077,"I'm part of the Lisk ICO! And you? You can exchange your #Bitcoin, #Crypti and #Ethereum! https://lisk.io/ico",1,0,0,False
327,Ethereum SE@StackEthereum,How can I accept Bitcoin payment in a smart contract? What would be the code for that? http://ethereum.stackexchange.com/questions/2724/how-can-i-accept-bitcoin-payment-in-a-smart-contract-what-would-be-the-code-for… #ethereum #bitcoin,0,0,0,False
328,AltcoinLive bot@AltcoinLiveBot,updated $ETH buywall 14.6btc @ 0.02428241 http://altcoinlive.com/bittrex-eth-btc #altcoinlive (change -0.00008868),0,0,0,False
329,tgerring.eth@TaylorGerring,"this is the end game…a better society for us all #ethereum #blockchainQuote TweetAlex Van de Sande (avsa.eth)@avsa · Apr 7, 2016You can use Ethereum to build tax heavens, but you can also use it to build governments without corruption or tax evasion. #panamapapers",17,6,0,False
330,Craig Borysowich@craigwb,Bitfinex to Enable Ethereum Shorting and Margin Trading #ethereum #blockchain #trading - http://pplx.co/t/bG4a7g26padY/,0,0,0,False
331,AltcoinLive bot@AltcoinLiveBot,updated $ETH buywall 14.6btc @ 0.02437109 http://altcoinlive.com/bittrex-eth-btc #altcoinlive (change 0.00000336),0,0,0,False
332,AltcoinLive bot@AltcoinLiveBot,updated $ETH buywall 14.6btc @ 0.02436773 http://altcoinlive.com/bittrex-eth-btc #altcoinlive (change 0.00006772),0,0,0,False
333,Will Ricketts@willricketts,@KrakenTrader I'm really not sure tbh! I LOVE the #ethereum tech but I haven't followed it as a currency at all. Is this a good time to buy?,1,0,0,False
334,AltcoinLive bot@AltcoinLiveBot,updated $ETH buywall 14.6btc @ 0.02430001 http://altcoinlive.com/bittrex-eth-btc #altcoinlive (change 0.00007667),0,0,0,False
335,BitcoinAgile@bitcoinagile,"RunCPA Announces Decentralized #ethereum App Competition With $250,000/Year Job Prize http://bit.ly/1S4S3HB",2,2,0,False
336,Ethereum Canada@EthereumCanada,"#Ethereum is 1 of @Telegraph 's ""50 technology stars changing the way we spend and save"" http://ow.ly/10lWmq",0,0,0,False
337,Brian McCaffrey@BrianMcCaffr,Free Ethereum every 5 minutes http://etherfaucet.net/?r=0x1e492260b9db581ea8505c6fcec323f8d546934d… #ethereum via @FreeCryptoCo,0,0,0,False
338,#SmartEthereum@SmartEthereum,"Mexican #Cryptocurrency Exchange Bitso Adds Ethereum Market: @BitsoEx @CoinTelegraph | #Ethereum #NewsQuote TweetBitcoin Garden (Not Giving Away ETH)@BitcoinGarden · Apr 7, 2016Mexican Cryptocurrency Exchange Bitso Adds Ethereum Market: http://bitcoingarden.tk/forum/index.php?topic=4315.msg110308#msg110308… tnx @BitsoEx @CoinTelegraph | #Ethereum #News",3,0,0,False
339,AltcoinLive bot@AltcoinLiveBot,updated $ETH buywall 14.5btc @ 0.02422334 http://altcoinlive.com/bittrex-eth-btc #altcoinlive (change 0.00000002),0,0,0,False
340,Rob Viglione@robviglione,"""Red Hat OpenShift Blockchain Initiative Focuses On #Ethereum"" #bitcoin #techRed Hat OpenShift Blockchain Initiative Focuses On EthereumIt may come as a surprise to some people to see Red Hat embracing the Ethereum blockchain for their OpenShift Blockchain initiative.news.bitcoin.com",3,1,0,False
341,anwarchoo@anwarsyahid,Free Ethereum every 5 minutes http://eth-faucet.com/?r=0x1fcb003a8f2c20a5256c9a72ce8b24ad0772b576… #ethereum via @FreeCryptoCo,0,0,0,False
342,AltcoinLive bot@AltcoinLiveBot,updated $ETH buywall 14.5btc @ 0.02422332 http://altcoinlive.com/bittrex-eth-btc #altcoinlive (change -0.00007669),0,0,0,False
343,BitBay@BitBay,"BitBay Offers #Ethereum Trading Against Fiat And Bitcoin #ETHBitBay Offers Ethereum Trading Against Fiat And BitcoinBitBay offers Ethereum trading markets for Bitcoin, EUR, PLN, and USD, which should attract traders from all over the world.newsbtc.com",1,0,0,False
344,AltcoinLive bot@AltcoinLiveBot,updated $ETH buywall 14.6btc @ 0.02430001 http://altcoinlive.com/bittrex-eth-btc #altcoinlive (change 0.00018639),0,0,0,False
345,AltcoinWeekly@altcoinweekly,The latest Ethereum price is USD 10.36. For historical #Ethereum price charts - http://buff.ly/1Y3h6Jz,0,0,0,False
346,CoinGecko@coingecko,The latest Ethereum price is USD 10.36. For historical #Ethereum price charts - http://buff.ly/1Y3h6Jz,1,1,0,False
347,AltcoinLive bot@AltcoinLiveBot,updated $ETH buywall 14.5btc @ 0.02411362 http://altcoinlive.com/bittrex-eth-btc #altcoinlive (change -0.00006072),0,0,0,False
348,MellowMoney@MellowMoneyTeam,"Our faucets lists are updated! Enjoy your free coins! http://bit.ly/1SSjfpU
#Bitcoin #ethereum #DogecoinBitcoin, Dogecoin, Litecoin & Ethereum Faucets ListsWe have updated our Bitcoin, Dogecoin, Litecoin and Ethereum faucets lists. Click on the links below to get Bitcoins, Dogecoins, Litecoins and Ethereum FOR FREE now! Get free Bitcoins! Get free Dog…mellowmoney.wordpress.com",0,0,0,False
349,AltcoinLive bot@AltcoinLiveBot,updated $ETH buywall 14.5btc @ 0.02417434 http://altcoinlive.com/bittrex-eth-btc #altcoinlive (change -0.00006061),0,0,0,False
350,indxio@indxio,#Russia Market Close || #Bitcoin: $419.62 | 370.9 EUR||  #Litecoin: 0.0077 BTC  || #Ethereum: 0.0246 BTC   || $BTC $LTC $ETH $RUB,1,0,0,False
351,Cloud Mining Monitor@cmmonitorcom,#Ethereum #Cloudmining': 07.04.2016 Payment received. 6 MHs - 0.10335600 ETH. From Genesis Mining.Genesis Mining (Ethereum Mining)cmmonitor.com,0,0,0,False
352,#SmartEthereum@SmartEthereum,"Interesting times, #Financial Transparency is coming to #Banks #Bitcoin #fintech #ethereumQuote Tweet#MelaninAcademy@BitHubAfrica · Apr 7, 2016Interesting times, Financial Transparency is coming to Banks... https://twitter.com/_bitcoinaire_/status/718043600114745344…",2,0,0,False
353,Ludvig Öberg@ludvigoeberg,@R3CEV Announces Distributed Ledger Technology #Corda http://buff.ly/1UVFVcG Might this be a competitor to private #ethereum ?,0,0,0,False
354,AXA InnovationCampus@AXA_IC,Here is @PanteraCapital's newsletter with focus on #Ethereum and public/private #blockchain http://buff.ly/1UYkbwT,3,0,0,False
355,Ethereum Price@EthereumPrice_,"#Ethereum: Ether Price Index
1 ETH =0.024851Ƀ XBT = $10.419785 USD
Today: -1.81%⬇︎ Last 24h: -3.57%⬇︎
https://ethereum-price.com",0,0,0,False
356,Ethereum SE@StackEthereum,How can I confirm validity of deployed contract? http://ethereum.stackexchange.com/questions/2720/how-can-i-confirm-validity-of-deployed-contract… #ethereum #mist #contractdeployment #code,0,0,0,False
357,$MOOVE@Hetoosmoove,Oh you think you getting girls now cause of your looks ? Negro please @Nas #ether ,0,0,0,False
358,$MOOVE@Hetoosmoove,Your whole record label gunned up and clapped quick @Nas #ether,0,0,0,False
359,AltcoinLive bot@AltcoinLiveBot,updated $ETH buywall 14.5btc @ 0.02423495 http://altcoinlive.com/bittrex-eth-btc #altcoinlive (change -0.00008693),0,0,0,False
360,#SmartEthereum@SmartEthereum,"The #Ethereum Stack Exchange is a wonderful place filled with practicle knowledge + helpful users! #blockchain #devQuote TweetEthereum@ethereum · Apr 7, 2016The Ethereum Stack Exchange is a wonderful place filled with practicle knowledge + helpful users! http://ethereum.stackexchange.com #blockchain #dev",0,0,0,False
361,AltcoinLive bot@AltcoinLiveBot,updated $ETH buywall 14.6btc @ 0.02432188 http://altcoinlive.com/bittrex-eth-btc #altcoinlive (change -0.00009247),0,0,0,False
362,AltcoinLive bot@AltcoinLiveBot,updated $ETH buywall 14.6btc @ 0.02441435 http://altcoinlive.com/bittrex-eth-btc #altcoinlive (change -0.00006449),0,0,0,False
363,CryptoCompare@CryptoCompare,"Great piece mentioning #ethereum by @Fin_Revolution - worth a read to get the whole picture in #fintech #Bitcoin
http://thefinancialrevolutionist.com/weekly-briefing/this-fintech-ceo-is-no-zoolander…",6,2,0,False
364,AltcoinLive bot@AltcoinLiveBot,updated $ETH buywall 14.7btc @ 0.02447884 http://altcoinlive.com/bittrex-eth-btc #altcoinlive (change 0.00006144),0,0,0,False
365,Checkoin@checkoin,Checkoin: open standard to secure the circulation of physical cryptocoins. https://checkoin.org #Bitcoin #Ethereum #Money #Privacy,2,1,0,False
366,AltcoinLive bot@AltcoinLiveBot,updated $ETH buywall 14.7btc @ 0.02441740 http://altcoinlive.com/bittrex-eth-btc #altcoinlive (change 0.0000611),0,0,0,False
367,Bitcoin Garden (Not Giving Away ETH)@BitcoinGarden,Mexican Cryptocurrency Exchange Bitso Adds Ethereum Market: http://bitcoingarden.tk/forum/index.php?topic=4315.msg110308#msg110308… tnx @BitsoEx @CoinTelegraph | #Ethereum #News,7,5,0,False
368,AltcoinLive bot@AltcoinLiveBot,updated $ETH buywall 14.6btc @ 0.02435630 http://altcoinlive.com/bittrex-eth-btc #altcoinlive (change -0.00008365),0,0,0,False
369,fav@btsfav,"Buy #Ethereum with FIAT (SEPA, OKpay, Skrill and more) ► http://favd.xyz/1UYzPIJ",1,1,0,False
370,BitcoinAgile@bitcoinagile,BitBay Offers #ethereum Trading Against Fiat And #bitcoin #news #channel #BTC #bAgile http://bit.ly/1WeAu7N,2,1,0,False
371,AltcoinLive bot@AltcoinLiveBot,updated $ETH buywall 14.7btc @ 0.02443995 http://altcoinlive.com/bittrex-eth-btc #altcoinlive (change -0.00006172),0,0,0,False
372,AltcoinLive bot@AltcoinLiveBot,updated $ETH buywall 14.7btc @ 0.02450167 http://altcoinlive.com/bittrex-eth-btc #altcoinlive (change 0.00006172),0,0,0,False
373,Ethereum SE@StackEthereum,Splice Struct Entry by Index in Solidity http://ethereum.stackexchange.com/questions/2668/splice-struct-entry-by-index-in-solidity… #ethereum #solidity #contractdevelopment #struct,0,0,0,False
374,Ethereum SE@StackEthereum,"What's the best Hardware for Mining Ether? http://ethereum.stackexchange.com/questions/2719/whats-the-best-hardware-for-mining-ether… #ethereum #mining #gpu #hardwareWhat's the best hardware for Mining Ether?As my title says, I am a complete newbie to the Ethereum Project, but not to the cryptography in general. Although this will be the first time I will consider investing in the mining process. And I...ethereum.stackexchange.com",0,0,0,False
376,Riko@CryptologyPriv,"BitBay Offers Ethereum Trading Against Fiat And Bitcoin.
http://newsbtc.com/2016/04/07/bitbay-offers-ethereum-trading-fiat-bitcoin/… #btc #eth #ethereum #bitcoin",1,0,0,False
377,Johan Nygren@resilience_me,"pseudonym parties in virtual reality :) #ethereumQuote TweetBitcoinAgile@bitcoinagile · Apr 5, 2016Anti-Sybil Protocol using virtual Pseudonym Parties #blockchain #basicincome https://medium.com/@unlisted/anti-sybil-protocol-using-virtual-pseudonym-parties-10276fcf3b20…",1,0,0,False
378,AltcoinLive bot@AltcoinLiveBot,updated $ETH buywall 14.7btc @ 0.02443995 http://altcoinlive.com/bittrex-eth-btc #altcoinlive (change -0.00014305),0,0,0,False
379,#bitcoinlightning | taproot @bgcoin,"IBM Combines Blockchain Tech With Artificial Intelligence To Virtually Turn Back Time
http://ibtimes.com/ibm-combines-blockchain-technology-artificial-intelligence-virtually-turn-back-time-2349130…
#blockchain #AI #ethereumIBM Combines Blockchain Technology With Artificial Intelligence To Virtually Turn Back TimeIBM is investigating how combining its artificial intelligence and Internet of Things units with blockchain technology could boost security.ibtimes.com",1,1,0,False
380,AltcoinLive bot@AltcoinLiveBot,updated $ETH buywall 14.7btc @ 0.02458300 http://altcoinlive.com/bittrex-eth-btc #altcoinlive (change 0.00006508),0,0,0,False
381,Felon Tusk@FedKassad,So are people really buying $lisk IOU @ 0.014 or are @YobitExchange just pumping the price by buying their own tokens? #btc #eth,1,0,0,False
382,AltcoinLive bot@AltcoinLiveBot,updated $ETH buywall 14.7btc @ 0.02451792 http://altcoinlive.com/bittrex-eth-btc #altcoinlive (change 0.00006239),0,0,0,False
383,Ethereum SE@StackEthereum,Is it possible to have mappings inside mappings? http://ethereum.stackexchange.com/questions/2718/is-it-possible-to-have-mappings-inside-mappings… #ethereum #solidity #contractdevelopment #mapping #struct,0,0,0,False
384,Cloud Mining Monitor@cmmonitorcom,#Ethereum #Cloudmining': 07.04.2016 Payment received. 5 MHs - 0.07139757 ETH. From MyCoinCloud.MyCoinCloud (Ethereum Mining)cmmonitor.com,0,0,0,False
385,AltcoinLive bot@AltcoinLiveBot,updated $ETH buywall 14.7btc @ 0.02445553 http://altcoinlive.com/bittrex-eth-btc #altcoinlive (change 0.00006185),0,0,0,False
386,AltcoinLive bot@AltcoinLiveBot,updated $ETH buywall 14.6btc @ 0.02439368 http://altcoinlive.com/bittrex-eth-btc #altcoinlive (change -0.00006346),0,0,0,False
387,AltcoinLive bot@AltcoinLiveBot,updated $ETH buywall 14.7btc @ 0.02445714 http://altcoinlive.com/bittrex-eth-btc #altcoinlive (change 0.00006260),0,0,0,False
388,AltcoinLive bot@AltcoinLiveBot,updated $ETH buywall 14.6btc @ 0.02439454 http://altcoinlive.com/bittrex-eth-btc #altcoinlive (change 0.00006182),0,0,0,False
389,Ethereum SE@StackEthereum,About mappings inside mappings http://ethereum.stackexchange.com/questions/2718/about-mappings-inside-mappings… #ethereum #solidity #mapping #struct,1,0,0,False
390,AltcoinLive bot@AltcoinLiveBot,updated $ETH buywall 14.6btc @ 0.02433272 http://altcoinlive.com/bittrex-eth-btc #altcoinlive (change -0.00008754),0,0,0,False
391,AltcoinLive bot@AltcoinLiveBot,updated $ETH buywall 14.7btc @ 0.02442026 http://altcoinlive.com/bittrex-eth-btc #altcoinlive (change -0.00008567),0,0,0,False
392,AltcoinLive bot@AltcoinLiveBot,updated $ETH buywall 14.7btc @ 0.02450593 http://altcoinlive.com/bittrex-eth-btc #altcoinlive (change 0.00006598),0,0,0,False
393,AltcoinLive bot@AltcoinLiveBot,updated $ETH buywall 14.7btc @ 0.02443995 http://altcoinlive.com/bittrex-eth-btc #altcoinlive (change -0.00021861),0,0,0,False
394,AltcoinLive bot@AltcoinLiveBot,updated $ETH buywall 14.8btc @ 0.02465856 http://altcoinlive.com/bittrex-eth-btc #altcoinlive (change -0.00009715),0,0,0,False
395,AltcoinLive bot@AltcoinLiveBot,updated $ETH buywall 14.9btc @ 0.02475571 http://altcoinlive.com/bittrex-eth-btc #altcoinlive (change 0.00006270),0,0,0,False
396,po𝚜𝚙i@pospigos,"Yep. As I'd expect, you need to hear @leashless put #ethereum and the #blockchain in historical context https://vimeo.com/161183966 #futurism",3,2,0,False
397,BitcoinAgile@bitcoinagile,#ethereum Price Analysis: ETH/USD Under Bearish Trend #EthereumPrice #ETHUSD #USdollar http://fxnewscall.com/ethereum-price-analysis-ethusd-under-bearish-trend/1937630…,0,0,0,False
398,BitcoinAgile@bitcoinagile,BitBay Offers #ethereum Trading Against Fiat And #bitcoin #bitbay #fiatcurrency http://newsbtc.com/2016/04/07/bitbay-offers-ethereum-trading-fiat-bitcoin…,0,0,0,False
405,AltcoinLive bot@AltcoinLiveBot,updated $ETH buywall 14.8btc @ 0.02469301 http://altcoinlive.com/bittrex-eth-btc #altcoinlive (change -0.00006177),0,0,0,False
406,CryptKeeper@CryptKeeperBTT,Red Hat OpenShift #Blockchain Initiative Focuses On #Ethereum https://news.bitcoin.com/red-hat-openshift-ethereum/…,0,0,0,False
407,Ethereum SE@StackEthereum,Smart contract based betting http://ethereum.stackexchange.com/questions/2717/smart-contract-based-betting… #ethereum #transactions #contractdesign #contractdevelopment #ether #dapps,0,0,0,False
408,AltcoinLive bot@AltcoinLiveBot,updated $ETH buywall 14.9btc @ 0.02475478 http://altcoinlive.com/bittrex-eth-btc #altcoinlive (change 0.00006203),0,0,0,False
409,David Stancel@dave_stancel,Will the #blockchain and #ethereum save the world?Saving the World Through Crypto: The Humanitarian BlockchainThe Humanitarian Blockchain is taking on the worst problems facing the world's poor through innovative use of blockchain technology and non-governmental solutions.cointelegraph.com,2,0,0,False
410,AltcoinLive bot@AltcoinLiveBot,updated $ETH buywall 14.8btc @ 0.02469275 http://altcoinlive.com/bittrex-eth-btc #altcoinlive (change 0.00006426),0,0,0,False
411,AltcoinLive bot@AltcoinLiveBot,updated $ETH buywall 14.8btc @ 0.02462849 http://altcoinlive.com/bittrex-eth-btc #altcoinlive (change -0.00012163),0,0,0,False
412,ethereum.network@EthereumNetw,".@Run_CPA Announces Decentralized #Ethereum App Competition With $250,000/Year Job PrizeRunCPA Announces Decentralized Ethereum App Competition With $250,000/Year Job PrizeRunCPA has announced a competition to find the best decentralized app on the Ethereum platform, which will be integrated with the RunCPA network.cointelegraph.com",4,2,0,False
413,CI_2806@coin_investor,A very handy site for @cyberfundio coin investors/traders #bitcoin #ethereum #azure #altcoin http://cyber.fund,0,0,0,False
414,AltcoinLive bot@AltcoinLiveBot,updated $ETH buywall 14.9btc @ 0.02475012 http://altcoinlive.com/bittrex-eth-btc #altcoinlive (change -0.00006276),0,0,0,False
415,Blockchange@Blockchange_ME,Ethereal Price Technical Analysis 04/07/2016 – 100 MA As Resistance - NEWSBTC http://newsbtc.com/2016/04/07/ethereum-price-technical-analysis-04072016-100-ma-resistance/… #ethereum #ethereal,0,0,0,False
416,AltcoinLive bot@AltcoinLiveBot,updated $ETH buywall 14.9btc @ 0.02481288 http://altcoinlive.com/bittrex-eth-btc #altcoinlive (change 0.00006276),0,0,0,False
417,AltcoinLive bot@AltcoinLiveBot,updated $ETH buywall 14.9btc @ 0.02475012 http://altcoinlive.com/bittrex-eth-btc #altcoinlive (change -0.00012037),0,0,0,False
418,Marco ฿TC@Marco_BTC,Replying to @Cryptoelite@Cryptoelite Soon! Today I think to see $ETH at 0.024 again...,0,0,0,False
419,AltcoinLive bot@AltcoinLiveBot,updated $ETH buywall 14.9btc @ 0.02487049 http://altcoinlive.com/bittrex-eth-btc #altcoinlive (change 0.00006306),0,0,0,False
420,AltcoinLive bot@AltcoinLiveBot,updated $ETH buywall 14.9btc @ 0.02480743 http://altcoinlive.com/bittrex-eth-btc #altcoinlive (change 0.00006246),0,0,0,False
421,AltcoinLive bot@AltcoinLiveBot,updated $ETH buywall 14.8btc @ 0.02474497 http://altcoinlive.com/bittrex-eth-btc #altcoinlive (change 0.00006526),0,0,0,False
422,Ethereum SE@StackEthereum,"newcomer here, any suggestions about developing a new smart contract http://ethereum.stackexchange.com/questions/2715/newcomer-here-any-suggestions-about-developing-a-new-smart-contract… #ethereum #contractdesign",0,0,0,False
431,AltcoinLive bot@AltcoinLiveBot,updated $ETH buywall 14.8btc @ 0.02467971 http://altcoinlive.com/bittrex-eth-btc #altcoinlive (change 0.00006251),0,0,0,False
432,AltcoinLive bot@AltcoinLiveBot,updated $ETH buywall 14.8btc @ 0.02461720 http://altcoinlive.com/bittrex-eth-btc #altcoinlive (change -0.00004924),0,0,0,False
433,AltcoinLive bot@AltcoinLiveBot,updated $ETH buywall 14.8btc @ 0.02466644 http://altcoinlive.com/bittrex-eth-btc #altcoinlive (change -0.00006614),0,0,0,False
434,AltcoinLive bot@AltcoinLiveBot,updated $ETH buywall 14.8btc @ 0.02473258 http://altcoinlive.com/bittrex-eth-btc #altcoinlive (change -0.00002446),0,0,0,False
435,AltcoinLive bot@AltcoinLiveBot,updated $ETH buywall 14.9btc @ 0.02475704 http://altcoinlive.com/bittrex-eth-btc #altcoinlive (change -0.00014467),0,0,0,False
436,BitcoinAgile@bitcoinagile,#ethereum Price Technical Analysis 04/07/2016 – 100 MA As Resistance - newsBTC - Corner Stone Finee States http://bit.ly/1MgKoDR,1,0,0,False
437,Vladimir Lazarev@Lamaster173,PhD in #physics about #InternetOfThings & #Ai in new #socialnetwork #zioncity #blochain #bitcoin #ethereum RUSПРОФЕССОР АТОМНОЙ ФИЗИКИ О ПРОЕКТЕ ZION.CITYМЫ ОБРАТИЛИСЬ ЗА КОНСУЛЬТАЦИИ О МОДЕЛИ АРХИТЕКТУРЫ ZION.CITY. В ЭТОМ ВИДЕО АЛЕКСАНДР ПАНИН ПРОФЕССОР UTAH VALLEY UNIVERSITY USA ДАЛ СВОЮ ЛИЧНУЮ ОЦЕНКУ НАШЕМУ...youtube.com,1,0,0,False
438,Julia Vaingurt@julia_vaingurt,Bitcoinist Giveaways: 50 WageCan Bitcoin Debit Cards Up For Grabs #Bitcoin #Wekhan #Ethereum v… More - http://cur.lv/x6s1h,2,0,0,False
439,Ethereum Price@EthereumPrice_,"#Ethereum: Ether Price Index
1 ETH =0.025257Ƀ XBT = $10.615060 USD
Today: -0.21%⬇︎ Last 24h: +3.51%⬆︎
https://ethereum-price.com",0,0,0,False
440,Mr Accelerator@accx,"Microsoft continues to embrace Ethereum and Bitcoin, I'm glad to see they ""get it"" https://news.bitcoin.com/microsoft-embrace-digital-currency/… #bitcoin #ethereum #fintech",4,0,0,False
441,Drake moves Fan@Steak_Shirt,Interested in mining cryptocurrency? Use promo-code: r8UBTu for 3% discount at http://ift.tt/1mvVNC1 #ethereum #bitcoin #invest #eth #btc,1,0,0,False
442,Cyber Phil ₿ ₿ ₿ ¯\_(ツ)_/¯ ₿ ₿ ₿@H4ck3rPh1ll,With #LISKIOU emerging #coinmarkets seem to recover #ETH +4% DGB +11% AMP +6% #BTC #Bitcoin,0,0,0,False
443,superskalar @marcobahn,What if we developed legal contracts like we developed software applications? #ethereum #smartcontracts #consensys https://lnkd.in/e_ZYkcx,1,1,0,False
444,CryptoCompare@CryptoCompare,"UK FCA grants @circlepay Electronic money licence
@openbazaar sees first drug listing
#ethereum up 4% on thin volumeDaily market update: 17 June 2019 | CryptoCompare.comWe bring you all the data in the world of crypto currencies and Bitcoin in an easily digestible value added format and we give you the tools you need to make that decision. Join the discussion on our...cryptocompare.com",1,0,0,False
445,Bitcoin@bitcoinpoet,YSK about EthStats if you don't know:   submitted by    /u/frankenmint  [link]   [comments] http://bit.ly/1oEizKg #ethereum,0,0,0,False
446,Keith Johnston@keith__johnston,"Another reason for the #Ethereum #blockchain to take Uber outQuote TweetForbes Tech@ForbesTech · Apr 7, 2016Uber just patented riders' least favorite features of the service: surge pricing http://onforb.es/1Xh8Oxo",3,0,0,False
447,BitcoinProfits@profits_bitcoin,BITCOIN VS. ETHEREUM EXPLAINED FOR NOOBZ   Why MICROSOFT Likes It http://vid.staged.com/SIrs #ethereum #bitcoin,1,1,0,False
448,Eth@EtherCoins,"Giving the last touches to @wavesplatform ICO site - Almost ready to go!
#BTC #bitcoin #ethereum #crypto #fintech",12,9,0,False
449,Patrizio Stavola@halovast,"Red Hat Introduces New Initiative for #Blockchain Software Vendors, @ConsenSysLLC as strategic partner #ethereum http://businesswire.com/news/home/20160405005730/en/Red-Hat-Introduces-Partner-Initiative-Blockchain-Software…",0,0,0,False
450,Michael Parsons@BitcoinByte,Gold Backed #Digix Raises Millions in Hours on #Ethereum #Blockchain #Crowdsale @DigixGlobal https://cryptocoinsnews.com/digix-millions-ethereum-blockchain-crowdsale/…,1,0,0,False
451,indxio@indxio,#China Market Close || #Bitcoin: $419.38 | 365.9 EUR||  #Litecoin: 0.0077 BTC  || #Ethereum: 0.0253 BTC   || $BTC $LTC $ETH $RMB,0,0,0,False
452,Jean-Paul Luijten@jeanpaulluijten,"#Ethereum, a Virtual Currency, Enables Transactions That Rival Bitcoin’s - The New York TimesEthereum, a Virtual Currency, Enables Transactions That Rival Bitcoin’s (Published 2016)In addition to virtual currency, Ethereum also provides a way to create online markets and programmable transactions known as smart contracts.nytimes.com",0,0,0,False
453,BitcoinBuzz vega9@BitcoinBuzzV9,http://bitcoinbuzz.vega9.com - Hot topics: #bitcoin #ethereum #hatersgonnahate #lulz #btc #crypto,0,0,0,False
454,Julia Vaingurt@julia_vaingurt,full video of my bitcoin &amp; blockchain talk from sxsw #atlassian #ethereum #ipfs #bitshares #maidsa… More - http://cur.lv/x6ohf,1,0,0,False
455,Accelerator Frankfurt@accelerator_ffm,"@jbieder123 @accelerator_ffm feature @TheMarker, leading financial mag in IL. #blockchain #ethereum @slockitproject",1,0,0,False
456,ethereum.network@EthereumNetw,"Built on #Ethereum, Vunk convinces game makers to issue virtual game objects on the #blockchain! @freemyvunk",6,4,0,False
457,AltcoinLive bot@AltcoinLiveBot,updated $ETH buywall 14.9btc @ 0.02490171 http://altcoinlive.com/bittrex-eth-btc #altcoinlive (change 0.00008334),0,0,0,False
458,AltcoinLive bot@AltcoinLiveBot,updated $ETH buywall 14.9btc @ 0.02481837 http://altcoinlive.com/bittrex-eth-btc #altcoinlive (change -0.00017358),0,0,0,False
459,PS_PC-Parts@PS_PC_Parts,RiteAV - Cat6 Network Ethernet Cable - B http://amzn.to/1NeFFft #RiteAV #- #Cat6 #Network #Eth,0,0,0,False
460,CryptoKaiserParabolica@iz_me_alex,"Mining Ethereum - #Dragonmine offers the best bang for the buck - chart included 
#ethereum #mining #blockchain... http://fb.me/2xqUAs6z6",1,0,0,False
461,BitcoinAgile@bitcoinagile,BlockApps is hiring #Ethereum #Blockapps https://linkedin.com/pulse/blockapps-hiring-kieren-james-lubin…,1,0,0,False
462,John Lilic ₿ Ξ ∞@JohnLilic,We're hiring devs @blockapps. If interested dm me https://linkedin.com/pulse/blockapps-hiring-kieren-james-lubin… #Ethereum #Blockapps,2,4,0,False
463,AltcoinLive bot@AltcoinLiveBot,updated $ETH buywall 15.0btc @ 0.02499195 http://altcoinlive.com/bittrex-eth-btc #altcoinlive (change -0.00002848),0,0,0,False
464,AltcoinLive bot@AltcoinLiveBot,updated $ETH buywall 15.0btc @ 0.02502043 http://altcoinlive.com/bittrex-eth-btc #altcoinlive (change 0.00006263),0,0,0,False
465,AltcoinLive bot@AltcoinLiveBot,updated $ETH buywall 15.0btc @ 0.02495780 http://altcoinlive.com/bittrex-eth-btc #altcoinlive (change 0.00006269),0,0,0,False
466,AltcoinLive bot@AltcoinLiveBot,updated $ETH buywall 14.9btc @ 0.02489511 http://altcoinlive.com/bittrex-eth-btc #altcoinlive (change -0.00020183),0,0,0,False
467,AltcoinLive bot@AltcoinLiveBot,updated $ETH buywall 15.1btc @ 0.02509694 http://altcoinlive.com/bittrex-eth-btc #altcoinlive (change 0.00006378),0,0,0,False
468,Ethereum Price@EthereumPrice_,"#Ethereum: Ether Price Index
1 ETH =0.025490Ƀ XBT = $10.737500 USD
Today: +0.72%⬆︎ Last 24h: +4.23%⬆︎
https://ethereum-price.com",0,0,0,False
469,BitcoinBuzz vega9@BitcoinBuzzV9,http://bitcoinbuzz.vega9.com - Hot topics: #bitcoin #ethereum #hatersgonnahate #lulz #btc #blockchain,0,0,0,False
471,AltcoinLive bot@AltcoinLiveBot,updated $ETH buywall 15.0btc @ 0.02503316 http://altcoinlive.com/bittrex-eth-btc #altcoinlive (change -0.00007738),0,0,0,False
472,CORE@cryptocointalk,Red Hat OpenShift Blockchain Initiative Focuses On Ethereum https://cryptocointalk.com/topic/46048-bitcoincom-red-hat-openshift-blockchain-initiative-focuses-on-ethereum/… #altcoin $ETH #software #Linux,0,0,0,False
473,AltcoinLive bot@AltcoinLiveBot,updated $ETH buywall 15.1btc @ 0.02511054 http://altcoinlive.com/bittrex-eth-btc #altcoinlive (change -0.00014612),0,0,0,False
474,ΞTHΞЯΞUM ÐΞV NΞWS ⟠@Eth_Dev_News,hAtErS gOnNa hAtE/#Eth slAyiNg yA broke aSs cReW [#Ether Mining Rigs by @BitsBeTrippin] #ethereum  #gamedev #indiedevFrom Bitsbetrippin,12,24,0,False
475,AltcoinLive bot@AltcoinLiveBot,updated $ETH buywall 15.2btc @ 0.02525666 http://altcoinlive.com/bittrex-eth-btc #altcoinlive (change 0.00009300),0,0,0,False
476,Bitsbetrippin@BitsBeTrippin,"R9 380x @GIGABYTE_VGA  6x underclocked and running #eth #ethereum , covered in next episode in edition 6xR9 390 rig",6,5,1,False
477,AltcoinLive bot@AltcoinLiveBot,updated $ETH buywall 15.1btc @ 0.02516366 http://altcoinlive.com/bittrex-eth-btc #altcoinlive (change 0.00006325),0,0,0,False
478,AltcoinLive bot@AltcoinLiveBot,updated $ETH buywall 15.1btc @ 0.02510041 http://altcoinlive.com/bittrex-eth-btc #altcoinlive (change 0.00006307),0,0,0,False
479,UnifyCosmos@MeditationStars,I am one with the universe. Nothing limits my nature. #meditation #crystals #ether #ethere… https://twitter.com/psychedelicsunflower1…,2,0,0,False
480,AltcoinLive bot@AltcoinLiveBot,updated $ETH buywall 15.0btc @ 0.02503734 http://altcoinlive.com/bittrex-eth-btc #altcoinlive (change 0.00006273),0,0,0,False
481,AltcoinLive bot@AltcoinLiveBot,updated $ETH buywall 15.0btc @ 0.02497461 http://altcoinlive.com/bittrex-eth-btc #altcoinlive (change 0.00006298),0,0,0,False
