,user,text,likes,retweets,replies,is_thread
0,Mohandas Menon@mohanstatsman,"If Michael Phelps was a country, he would be ranked joint 39, with Ethiopia - with 21 #GOLD in #Olympics
Phelps in 5 Games
#ETH 13
#Rio2016",122,146,5,False
1,Richard Johnson@_richjohnson,Blockchain Reveals Feet of Clay http://marketsmedia.com/blockchain-reveals-feet-clay/… via @marketsmedia #blockchain #ethereumBlockchain Reveals Feet of Clay - Markets MediaFailure of the DAO demonstrates the technology's shortcomings.marketsmedia.com,1,0,0,False
2,ronan.eth@wighawag,Etherplay is coming soon. Register for beta at http://etherplay.io to play #videogames on #ethereum #gamedev,3,3,1,False
3,Daily Mail Online@MailOnline,#ETH swimmer 'Robel the Whale' known for his unathletic paunch is RETIRING http://dailym.ai/2aN4OEk,55,106,10,False
4,Silicon Talent@silicontalent,#Lisk #Waves #ethereum #P2P #Fintech Roger Aitken discusses #Bitcoin and #blockchain applications https://google.co.uk/amp/www.forbes.com/sites/rogeraitken/2016/08/10/making-blockchain-waves-with-national-currencies-mobilizing-centralized-order-matching/amp/?client=ms-android-samsung…,3,5,0,False
5,Thomas Power@thomaspower,we are 105 members now come & join us please message me on @WhatsApp +447875695012 #blockchain #ethereum #SaaS #ArtificialIntelligence #AI,56,13,1,False
6,Jacob Czepluch@_czepluch,"Nice to see the thing you're working on, being all over the #blockchain medias. http://ibtimes.co.uk/ethereums-lightning-network-raiden-strike-iot-micropayments-1575258… #brainbot #raiden #ethereumEthereum's 'Lightning Network' Raiden to strike IoT and micropaymentsRaiden creator Heiko Hees said a 100K transactions per second proof of concept could happen by end of August.ibtimes.co.uk",12,3,0,False
7,Compevo Business IT@CompevoIT,$60Million #Bitcoin Heist ... - https://compevo.com/blog/60million-bitcoin-heist-from-bitfinex-exchange/… #Blockchain #Cybersecurity #Ethereum #Fraud #Heister #Hosting #Mtgox #Robbery,4,1,0,False
8,Randy Hilarski@RandyHilarski,LE17: Jacques Voorhees – How He Revolutionized the D... http://slninja.com/raiv #Bitcoin #Ethereum #CryptoCurrency,7,0,0,False
9,"Trade Alerts, Trade Ideas and Crypto @AlertTrade",#cfd #crypto ― Crypto volatility alert in 15 min #bitcoin #ethereum #ethereumclassic #namecoin #litecoin  via http://RobotsFX.org,2,2,0,False
10,Etherplay@etherplay,Announcing Etherplay : Play Skill Games On Ethereum at http://etherplay.io  ! #ethereum #gamedev #videogames #blockchainEtherplay - Game Studio Building Unstoppable Games on EthereumGame Studio Building Unstoppable Games on Ethereumetherplay.io,3,0,0,False
11,Alex.eth@AlexanderFisher,The Next Generation of Open Source Blockchains? http://buff.ly/2aTC2kt #ethereum #bitcoin #fintech,2,0,0,False
12,MisterChip (English)@MisterChiping,"#PHELPSFACTS
Michael Phelps equals Etiopía #ETH with 21 #gold medals. Just 31 countries (NOCs) ahead of him.",14,22,0,False
13,SingularDTV@SingularDTV,"@ConsenSysLLC on the zero-dollar #DAO called commonwealths. Check it out: https://media.consensys.net/2016/08/10/zero-dollar-daos/…
#blockchain #decentralization #ethereumZero Dollar DAOsThe DAO has given the world a glimpse into the promise of general purpose blockchains. A headless investment fund worth hundreds of millions of dollars sounds crazy to most people and wasn’t even…media.consensys.net",5,0,0,False
14,Fauceting@fauceting2016,Get traffic for your website using ETH at http://fauceting.com! #ETH #ether #ethereum #faucet #cryptocurrency,0,0,0,False
15,kim macleod@bakerygirl9,"Thinking Of #Investing In #Ether? Get Started Now! 3% Discount w/ Coupon - 8rRBkl http://dld.bz/eMnVB
#Ethereum",0,0,0,False
16,TheUltraAliens@TheUltraAliens,"""Bruce Wanker on the Bitfinex Hack""

#bitcoin #bitfinex #ethereum #litecoin $etc $btc $ltc $eth
https://youtu.be/f7yVyIPATWc",2,0,0,False
17,cryptograffiti@cryptograffiti,"Sorry.

#ethereum #bitcoin #blockchain #cryptocurrency",7,0,0,False
18,Coinscrum@coinscrum,"Coinscrum {Social} w/ @StefanDGeorge from @gnosisPM : LDN 16/08 : Register now at http://meetup.com/coinscrum/events/232920841/… #ethereum #bitcoin @ProofOfWorkCoinscrum {Social} with Stefan George of Gnosis & ConsensysTue, Aug 16, 2016, 6:00 PM: Coinscrum (http://www.coinscrum.com) are looking forward to welcoming Stefan George, co-founder of the Gnosis (http://gnosis.pm/) prediction market platform, to London on Tmeetup.com",3,4,0,False
19,Bob Summerwill@BobSummerwill,"I think that my ""Ethereum Everywhere"" article flew under the radar a month or so ago.
So here is a re-post
https://bobsummerwill.com/2016/07/12/ethereum-everywhere/…
#ethereumEthereum Everywhere“The Ethereum Foundation’s mission is to promote and support research, development and education to bring decentralized protocols and tools to the world that empower developers to produce nex…bobsummerwill.com",29,24,0,False
20,Ian Allison@IanAllison123,#Ethereum's 'Lightning Network' Raiden to strike #IoT and micropaymentsEthereum's 'Lightning Network' Raiden to strike IoT and micropaymentsRaiden creator Heiko Hees said a 100K transactions per second proof of concept could happen by end of August.ibtimes.co.uk,30,26,0,False
21,Alex.eth@AlexanderFisher,Anatomy of SingularDTV’s CODE (Centrally Organized Distributed Entity) — Medium http://buff.ly/2aM01qP #ethereum,1,0,0,False
22,Chris Burniske@cburniske,3/ Can't emphasize enough how imp @coincenter's paper on #cryptocurrency classification is 4 #Bitcoin #Ethereum ++Framework for Securities Regulation of Cryptocurrencies - Coin CenterWe lay out the case for treating some cryptocurrencies as securities—and some not.coincenter.org,4,0,0,False
23,John Lilic ₿ Ξ ∞@JohnLilic,.#Ethereum dev meet up happening now at #Microsoft #Tokyo HQ #GoingGlobal,5,0,0,False
24,ICONOMI@iconomicom,Introducing New Financial Instruments for a Decentralised Economy https://medium.com/iconominet/introducing-new-financial-instruments-for-a-decentralised-economy-43399edcf2e7#.dfvegy5u3… #ethereum #bitcoin #investments #fund #CTF #ETF,105,232,0,False
25,Colony@joincolony,"Colony's own @elena_di explains how to write a (more) robust #smartcontract in #solidity on #ethereum. #blockchainWriting robust smart contracts in SolidityBefore contract function code executes, it’s a good idea to validate who triggered it and what inputs are given.blog.colony.io",7,5,0,False
26,BitcoinAgile@bitcoinagile,Can you move the #blockchain Roaming\#ethereum folder to another drive? How? http://bit.ly/2b4YLuf,2,5,0,False
27, Digital Humanitarian +SocialGood HSC@PhilipOgola,Stunning view of the much touted Addis Ababa Light Rail #ETH0:10128 views,3,2,0,False
28,Randy Hilarski@RandyHilarski,We Got Kicked Off Federal Reserve Bank Property For Ta... http://slninja.com/xZhv #Bitcoin #Ethereum #CryptoCurrency,10,2,0,False
29,Augur@AugurProject,"Writing a Smarter Contract http://marketsmedia.com/writing-smarter-contract/… via @marketsmedia #augur #ethereumWriting a Smarter Contract - Markets MediaFaulty 'smart' contracts could cost Wall Street millions, if not more.marketsmedia.com",7,6,0,False
30,MightyEther@mightybitcoin,Ethereum's 'Lightning Network' Raiden to strike IoT and micropayments http://ibt.uk/A6bnO via @IBTimesUK #ethereum,2,5,0,False
31,Vindyne8@Vindyne8,$draco DT Asset Pool http://bit.ly/2bhht2n asset-backed value for #drachmaetoken #fintech #btc #eth #RT,11,11,0,False
32,Bitcoin Trader@BTC_PRO,Shorting NZDUSD for a gap fill. Trade #forex #Bitcoin & #ethereum. Opn live accnt in 30 sec! https://goo.gl/th7eNQ,1,1,1,False
33,Null TX@nulltxnews,"Ethereum splitter can be a powerful tool http://themerkle.com/shapeshift-introduces-new-ethereum-splitter-tool/… #ethereum #cryptocurrency #ethereumnews $eth $etcShapeShift Introduces New Ethereum Splitter ToolShapeShift, the popular instant cryptocurrency exchange platform, has added a new feature. For quite some time now, there has been confusion on how users can separate their Ethereum and Ethereum Classthemerkle.com",1,0,0,False
34,Bitcoin Sportsbook @SportsbookBTC,#Ethereum Classic Price Technical Analysis – Continue Selling ETC by… http://dlvr.it/M0YbSw #Ethereum #btc,1,0,0,False
35,24@Alttrade,"Short $DAO without leverage -> Follow instructions below, No account needed.
$ETH $ETC",6,0,0,False
36,Marius Kjærstad@MKjrstad,#ETC is right now showing us what to expect from #BTC once #ETH overtakes it. Network effects are king. Small blockers are in for a surprise,6,2,2,False
37,EvntBrwse-US/Americas@EventBrowseUS,Best NYC #Geek Event Today: 'Gnosis Prediction Markets And State Channels' by #ethereum - http://bit.ly/2aRkuY0,1,1,0,False
38,Crypto Talk@crypto_talk,"Ethereum Price Technical Analysis - $ETH SHORT https://tradingview.com/x/8TWflTBI/
#ETH #ethereum #BTC #Bitcoin",2,0,0,False
39,Beyond the void #blockchaingame@BeyondVoidGame,"Thank you #Steemit for publishing an article about @BeyondVoidGame #cryptonews #ethereumQuote TweetGame Tokens Tech@gametokenstech · Aug 10, 2016NEW | @BeyondVoidGame choses ETH fork and $BCY enter the larger marketplace - https://steemit.com/crypto-news/@renegadegaming/beyond-the-void-chooses-ethereum-forked-or-renegade-gaming…",1,2,0,False
40,Augur@AugurProject,Joey Krug from Augur speaks at Coinbase HQ: https://youtu.be/kvWtGIgjkV4 via @YouTube @coinbase #bitcoin #ethereum #augur,8,7,0,False
41,John Lilic ₿ Ξ ∞@JohnLilic,Happening now in #Tokyo @StefanDGeorge talking #Gnosis #SmartContractJapan meetup at #Microsoft #Ethereum #ConsenSys,15,9,0,False
42,OONI@OpenObservatory,"Ethiopia: Internet Shutdown Amidst Recent Protests?
https://ooni.torproject.org/post/ethiopia-internet-shutdown-amidst-recent-protests/…
#Eth
#OromoProtests
#KeepItOnEthiopia: Internet Shutdown Amidst Recent Protests?Nearly 100 deaths and thousands of arrests have been reported in Ethiopia over the last days, as part of protests against the marginalization and persecution of the Oromos and Amharas, Ethiopia’s two...ooni.org",3,8,0,False
43,Martin Storm Larsen@MrStormLars,#Ethereum 's 'Lightning Network' Raiden to strike #IoT and micropayments http://ibt.uk/A6bnO via @IBTimesUK #blockchain,2,3,0,False
44,ethereum.network@EthereumNetw,"#Ethereum's 'Lightning Network' Raiden, helping #IoT and #micropayments
next step in a month: PoC with 100,000 txs/s
http://ibtimes.co.uk/ethereums-lightning-network-raiden-strike-iot-micropayments-1575258…",3,3,0,False
45,Adam Richard@adamwrichard,#Ethereum and Ethereum Classic: #Consensus and #Immutability #ETH #ETC https://youtube.com/watch?v=3Q3Bdtjo0X8…,2,0,0,False
46,Bitcoin@bitcoinpoet,CoinOffering Issues 'CryptoShares' Using Ethereum: BTCManager Exclusive Interview:       submitted ... http://bit.ly/2b33E75 #ethereum,1,2,0,False
47,CRYPTOCOINTALK@cryptocointalk,Three #Eastern #European Exchanges Are In Hot Water Over $ETC Tokens https://cryptocointalk.com/topic/49131-themerkle-three-eastern-european-exchanges-are-in-hot-water-over-etc-tokens/… #altcoin #Ethereum #finance #trading #business,1,1,0,False
48,BitcoinAgile@bitcoinagile,#ethereum: Here Come The Big Banks #bitcoin http://bit.ly/2bhweVo,8,9,0,False
49,CoinIdol@CoinIdol,First Featured #Movie Funded By #Bitcoin And #Ethereum - https://coinidol.com/first-featured-movie-funded-by-bitcoin-and-ethereum/… @HedleyProd #investing #filmmaking,3,1,0,False
50,Uphold@UpholdInc,Check out our blog re: #Ethereum Classic http://bit.ly/2aN3h0M  funds will be delivered to members within the next few weeks!  #HardFork,2,2,0,False
51,NEWSBTC@newsbtc,"#Ethereum Price Technical Analysis – Targets Achieved, Buy Dips More? http://ow.ly/ZaA930367bO by @AayushJs #btc #usd",2,6,0,False
52,Brave New Coin@bravenewcoin,"Discover #Ethereum Classic on BNC; Trading Pairs, Exchanges & Asset Profile  http://ow.ly/h6a33033lEP",4,3,0,False
53,STΞFAAN PONNΞT@sponnet,Ppl exchaging #localcoin with http://locals.world  a cryptocurrency app from #Antwerp on our #ethereum meetup !,3,1,1,False
54,0xc1c4da@0xc1c4da,#Ethereum will improve global economic prosperity & will raise the average quality of life for every human being,1,2,0,False
55,SingularDTV@SingularDTV,DaveVandervort on #ethics & the modern #robot http://bit.ly/29I7PsY #cyberpunk #blockchain #ethereum @ConsenSysLLC,7,5,0,False
56,Bob Summerwill@BobSummerwill,"New releases for Parity and pyethapp in the last few days
Links to all the clients are always updated at:
http://ethdocs.org/en/latest/ethereum-clients/choosing-a-client.html…
#ethereum",1,2,0,False
57,Adriana Belotti @abelotti,"And the plot thickens #blockchain #ethereumQuote Tweetforklog.media@forklogmedia · Aug 10, 2016Three Russian Exchanges Suspected of Defrauding User #ETC Funds
http://forklog.net/three-russian-exchanges-suspected-of-defrauding-user-funds/…",1,1,0,False
58,AminCad@AminCad,Ethereum's 'Lightning Network' Raiden to strike IoT and micropayments http://ibt.uk/A6bnO via @IBTimesUK #ethereum,1,3,0,False
59,Omar Bham (Crypt0)@crypt0snews,"https://youtu.be/S--QVTMKMPI
Ethereum News: Ether Price on the Climb, Bitfinix Selfishness, Developers #investing #ethereum #blockchain #newsEp. #61- Ethereum News: Eth Price Climbing, Bfx Selfishness, ETC... 𝙏𝙝𝙖𝙣𝙠 𝙔𝙤𝙪 𝙁𝙤𝙧 𝙒𝙖𝙩𝙘𝙝𝙞𝙣𝙜!  Remember to subscribe and hit the bell """" icon, so you don't miss your daily cryptocurrency news!-~-~~-~~~...youtube.com",1,0,0,False
60,STΞFAAN PONNΞT@sponnet,#ethereum #meetup kickoff @gerriesmits on #blockchain for non-techies http://meetup.com/API-Craftsmanship/events/233085318/…,1,2,0,False
61,Whalepool@whalepool,Bitfinex executives chatting on audio Teamspeak WhalePool https://whalepool.io/connect/teamspeak…  175 users #bitcoin #ethereum,1,0,0,False
62,HedleyProductions@HedleyProd,Article on @CoinIdol about our project #bitcoin #ethereum #filmmaking @VultureCaps @JabulonCryptoBCFirst Featured Movie Funded By Bitcoin And EthereumIndependent film studio Hedley Production and Vulture Capital announced the crowdsale of a new Ethereum-based cryptocurrency token called VCAP to fund feature film production.coinidol.com,3,7,0,False
63,BTCMANAGER@btc_manager,"Read BTCMANAGER's Latest #ETHUSD Price Analysis
https://btcmanager.com/price-analysis/eth-usd-breaks-out-to-the-upside-targeting-15-39/…
#ether #crypto #trading #ethereumclassic",1,1,0,False
64,7Olympics@7olympics,#ETH Robel Habte captures hearts around the world after his determined 100m Freestyle Heat at the #Rio2016 #Olympics https://youtube.com/watch?v=HfQCfSLrq30&feature=youtu.be…,7,2,2,False
65,Mihai Alisie@MihaiAlisie,"Exciting times! Raiden network PoC scheduled for August! 

Target 100K transactions per second #ethereum #blockchainQuote TweetIan Allison@IanAllison123 · Aug 10, 2016#Ethereum's 'Lightning Network' Raiden to strike #IoT and micropayments http://ibtimes.co.uk/ethereums-lightning-network-raiden-strike-iot-micropayments-1575258…",23,18,1,False
66,Collin Crypto@CollinCrypto,"Replying to @CollinCrypto.@CryptOrca FYI: OP never replied to my message seeking confirmation, but he replied elsewhere. Milo & this post are confirmed BS. $ETC $ETH",6,2,0,False
67,Bob Summerwill@BobSummerwill,"Got a crap old Mac?  You are in luck.
cpp-ethereum-v1.3.0 and today's solidity-v0.3.6 release re-added support for OS X Mavericks!
#ethereum",6,1,1,False
68,Ansel Lindner@AnselLindner,White hat hackers trying to cash out their loot on poloniex. This is an admission of the utility of$ETC by the $ETH foundation.,3,1,1,False
69,BTCMANAGER@btc_manager,"@CoinOffering Issues Shares for First Time Ever on #Ethereum #Blockchain
Read more here: https://btcmanager.com/news/coinoffering-issues-cryptoshares-using-ethereum/…",1,1,0,False
70,NEWSBTC@newsbtc,#Ethereum Classic Price Technical Analysis – Continue Selling ETC http://ow.ly/pSzi3036a7C by @AayushJs #btc #etc,5,0,0,False
71,NEWSBTC@newsbtc,Is #Ethereum Classic Spelling Trouble for Barry Silbert? http://ow.ly/YKhG3036EPP by @gautham_n #etc #bitcoin,2,5,1,False
72,SingularDTV@SingularDTV,"SingularDTV takes a look a closer look... @singularityhub @singularityu @futurism @AKlokus #singularity #ethereum
https://singulardtv.com/videos?ytid=9VqcF2HbnW4…",7,7,0,False
73,FinLock@MikelQuintero,Ethereum's 'Lightning Network' Raiden to strike IoT and micropayments #ether #ethereum #IoT #bitcoin http://ibtimes.co.uk/ethereums-lightning-network-raiden-strike-iot-micropayments-1575258…,0,0,0,False
74,Zeth Couceiro@Zeth_Plexus,Ethereum's #LightningNetwork #Raiden to strike #IoT and #micropayments http://ibt.uk/A6bnO @IBTimesUK #ethereum #blockchain #fintech,3,1,0,False
82,swalayan alkhairaat@salsispalu,"How #Peercoin Got A Boost From #Bitcoin Halving http://bit.ly/2b1055k
#etc #eth #ethereum #poloniex #lisk #factom #vip",0,0,0,False
83,Francisco Gordillo@FGordillo,#bitcoin #blockchain Bitfinex Draws Robust Volume as Traders Test Experimental BFX Tokens: A... http://bit.ly/2aXg8fT #ethereum #ether,1,0,0,False
84,Suresh Naidu@supereagle1,"Adopt now...#XEGAINS #BITCOIN #ETHEREUM #fintechDigital currencies are getting closer to becoming mainstreamAt a recent conference, Federal Reserve Chair Janet Yellen encouraged bankers to learn about digital currency.thestreet.com",0,0,0,False
85,Alberto Jauregui | esoteRICK.eth @DisruptBanksy,http://ift.tt/2b9fLU5 Ethereum: Here Come The Big Banks - Huffington Post #ethereum #ether,0,0,0,False
86,BitcoinAgile@bitcoinagile,Sydneys 2nd #ethereum One-Day Workshop #Sydney #geth #api #smartcontracts http://ethnews.com/sydney-autralia-ethereum-one-day-workshop…,1,2,0,False
87,ETHNews@ETHNews_,#Sydney’s 2nd #Ethereum One-Day Workshop #geth #api #smartcontracts http://ow.ly/ZX5N3037Iu3,0,0,0,False
90,Rimbit @rimbit,A Review Of The Evga Gtx 1070 Sc Acx 3.0 http://rimbit.com/posts/12584 #bitcoin #ethereum,0,0,0,False
93,Ethereum Monkey@EthMonkey,A Review of The EVGA GTX 1070 SC ACX 3.0 - http://Bitcoinist.net #ethereum http://bitcoinist.net/a-review-of-evga-gtx-1070-sc-acx-3-0/…,0,0,0,False
94,Ethereum UAE@Ethereum_UAE,A Review of The EVGA GTX 1070 SC ACX 3.0 http://ift.tt/2aMy4MN #Ethereum,0,0,0,False
95,Thorsten@digitaldonkey09,What are prediction markets according to #Gnosis ? Getting into details at a #ethereum meetup @ThinkRiseNY,2,0,0,False
96,David Liam@crazydaveorama,Blogger David Seaman Calls #Ethereum Classic a Scam; Questions Silbert’s and CoinDesk’s Roles http://disq.us/t/2ble97r,1,0,0,False
97,David Liam@crazydaveorama,"Three Eastern European Exchanges Are In Hot Water Over #ETC Tokens http://disq.us/t/2blle0o #Ethereum #altcoinThree Eastern European Exchanges Are In Hot Water Over ETC TokensAlthough using cryptocurrency is very much frowned upon in Russia, Bitcoin exchanges do exist. Unfortunately, some of these platforms are suspected of defrauding users. More specifically, these exchanthemerkle.com",0,0,0,False
98,/r/Ethereum@r_Ethereum,Wrote a proposal for a .eth name registrar that would fight name squatting without requiring fees. ... http://bit.ly/2b55ioH #Ethereum,0,0,0,False
99,Cryptomate@Cryptomate,Want to open a Cryptomate exchange in your home country?  Visit http://Cryptomate.org for details! #Bitcoin #Ethereum #Litecoin #DASH,2,2,0,False
100,Blockgeeks@Blockgks,25 GENIUSES WHO ARE CREATING THE FUTURE OF BUSINESS http://snip.ly/avrq9 #Blockchain #Ethereum,0,0,0,False
102,Coinstats@coinstats,"Ethereum Classic - ETC
Price: $1.68943
Change in 1h: -2.22%
Market cap: $139942221.0
Ranking: 6
#Ethereum Classic #ETC",0,0,0,False
103,Coinstats@coinstats,"Ethereum - ETH
Price: $12.1338
Change in 1h: +0.14%
Market cap: $1005328563.0
Ranking: 2
#Ethereum #ETH",0,0,0,False
104,Bitcoin Updater@BitcoinUpdater,Jaxx To Be First Dash Wallet for iOS #ethereum http://soco.space/K5p30R,1,0,0,False
105,⛧ God of Gaming ⛧@TheGodofGamez,Wisdom is the reward you get for a lifetime of listening when you'd have preferred to talk. $ETH,0,0,0,False
106,@NeoTrades@bitcoinhackers.org@RedPillTrading,"Best thing about an $ETC bounce is watching the haters squirm. Why hate on a coin? Just play the charts, make money, and shut up. #Ethereum",2,1,1,False
108,btcglad@btcgladiator,Update: All four withdrawals ( $BTC and $ETH ) are complete. Now about that 36%...,0,0,0,False
109,MeeseeksBTC@Meeseeks100BTC,"RT Start mining $ETH or $BTC together with people from all over the world.

https://goo.gl/tYClLG",0,0,0,False
110,Tigray Legend@Tigray_Legend,"#AmharaProtests & #OromoProtests protest all you want PEACEFULLY. don't cause any destruction of property or violence.

#Ethiopia #ETH",0,0,0,False
111,Ethereum Monkey@EthMonkey,Coinbase Co-Founder: Possibility That Ether Blows Past Bitcoin is Very Real #ethereum http://cointelegraph.com/news/coinbase-ceo-possibility-that-ether-blows-past-bitcoin-is-very-real…,0,0,0,False
112,Blockgeeks@Blockgks,The #Blockchain is the new Google http://snip.ly/7tjfx #Ethereum #Bitcoin #Cryptocurrency,1,0,0,False
113,laserdario@cryptodario,"There is a fake Barry Silbert account trying to manipulate the $ETC prize.
Fake: @barryslibert
Real: @barrysilbert
@eth_classic #ethereum",2,1,0,False
114,Coinstats@coinstats,"Ethereum Classic - ETC
Price: $1.73009
Change in 1h: +2.52%
Market cap: $143307832.0
Ranking: 6
#Ethereum Classic #ETC",0,0,0,False
115,Coinstats@coinstats,"Ethereum - ETH
Price: $12.1064
Change in 1h: -0.24%
Market cap: $1003041948.0
Ranking: 2
#Ethereum #ETH",0,0,0,False
116,Krunox@krunox123,"Marius Kjærstad on Twitter: ""#ETC is right now showing us what to expect from #BTC once #ETH overtakes it. Network effects are king. Small …",0,0,0,False
117,Timo Ξberhard@ZhuBajie72,Replying to @ZhuBajie72BEWARE: Looking at it on the 4h another test of low 1900s cannot be outruled... #Ethereum $ETH $ETHXBT @krakenfx,0,0,0,False
118,/r/Ethereum@r_Ethereum,"Marius Kjærstad on Twitter: ""#ETC is right now showing us what to expect from #BTC once #ETH overta... http://bit.ly/2aHmsHT #EthereumMarius Kjærstad on Twitter: ""#ETC is right now showing us what to...Posted in r/ethereum by u/sandakersmann • 3 points and 5 commentsreddit.com",0,0,0,False
119,/r/Ethereum@r_Ethereum,"I think that my ""Ethereum Everywhere"" article flew under the Radar a Month ago, so here is a repost http://bit.ly/2aToKqD #Ethereum",0,0,0,False
120,/r/Ethereum@r_Ethereum,Parity 1.2.4 stable released http://bit.ly/2aTpz2Q #Ethereum,0,0,0,False
121,/r/Ethereum@r_Ethereum,"ConsenSys Weekly: Zero Dollar DAOs, Designing Safer Smart Contracts, and This Week in Blockchain http://bit.ly/2aHm0t5 #Ethereum",0,0,0,False
123,Timo Ξberhard@ZhuBajie72,Replying to @ZhuBajie72Zoomed Out... #Ethereum #Ether $ETH $ETHXBT @krakenfx,0,0,0,False
124,John Gerryts@phonikg,"Another great thread from @BobSummerwill - great view & fair approach to all crypto-currencies  #ETH #ETC #BitcoinQuote TweetBob Summerwill@BobSummerwill · Aug 10, 2016Replying to @crossdianastasiWe've learnt that minority chains can be viable.  That is great.
I support https://bobsummerwill.com/2016/07/12/ethereum-everywhere/….
Let the forks abound.",1,0,0,False
125,LAPITH@bhumharit,RT silicontalent: #Lisk #Waves #ethereum #P2P #Fintech Roger Aitken discusses #Bitcoin and #blockchain applicatio…Making Blockchain Waves With National Currencies Mobilizing Centralized Order MatchingDie-hard fans claim bitcoin is a panacea for the world’s financial ills and will be adopted for everything from bank clearing to stock exchanges. But this future-gazing misses where the use cases are...forbes.com,1,0,0,False
126,btcglad@btcgladiator,Update: Two of four withdrawals $BTC and $ETH on blockchain. Two to go. + have to figure out a plan for the $BFXCoin.,0,0,0,False
127,Spotlights3.0@Spotlights3_0,Ethereum (ETH and ETC) Price Trends (Week of August 8st) https://cointelegraph.com/news/ethereum-eth-and-etc-price-trends-week-of-august-8st… #ethereum #eth #etc https://pic.twitter.com/fBo92etXLyEthereum (ETH and ETC) Price Trends (Week of August 8th)The natural growth of Ethereum’s price continues. The time has come to determine the long-term direction.cointelegraph.com,0,0,0,False
128,WL. Smith@follownewsnow,"#DailyMailAU #ETH swimmer 'Robel the Whale' known for his unathletic paunch is RETIRING  http://dailym.ai/2aN4OEk pic....  @FollowNewsNowHome | Daily Mail OnlineMailOnline - get the latest breaking news, celebrity photos, viral videos, science & tech news, and top stories from MailOnline and the Daily Mail newspaper.dailymail.co.uk",1,1,0,False
130,Francisco Taveira@jftaveira1993,What Is Fueling #EthiopiaProtests? http://voanews.com/content/what-is-fueling-ethiopia-protests/3459102.html… #ETH #Oromo #Amhara #OromoProtests #AmharaProtests,0,0,0,False
131,Crypto University@crytouniversity,Let's Talk Bitcoin! #244 - Investing in the Blockchain http://vid.staged.com/1uVs #btcjapan #btcchina #ethereum.co.id,1,1,0,False
132,Timo Ξberhard@ZhuBajie72,"Breakup Confirmed / Uptrend Ignited... #Ethereum #Ether $ETH $ETHXBT @krakenfx >>> 
https://tradingview.com/chart/ETHXBT/9qHNDek8-Breakup-Confirmed-Uptrend-Ignited/…",1,4,0,False
133,ᵗʰᵉᴊᴀᴍᴇʟ @dARKojAMEL,"#ETH swimmer 'Robel the Whale' for his unathletic paunch is RETIRING http://dailym.ai/2aBJ699 https://pic.twitter.com/zzX1VdQMYs""Home | Daily Mail OnlineMailOnline - get the latest breaking news, celebrity photos, viral videos, science & tech news, and top stories from MailOnline and the Daily Mail newspaper.dailymail.co.uk",0,0,0,False
134,Blockgeeks@Blockgks,#Airbnb just acquired a team of bitcoin and #blockchain experts http://snip.ly/66ft0 #Ethereum,1,0,0,False
135,Coinstats@coinstats,"Ethereum Classic - ETC
Price: $1.68878
Change in 1h: +2.21%
Market cap: $139883922.0
Ranking: 6
#Ethereum Classic #ETC",0,0,0,False
136,Coinstats@coinstats,"Ethereum - ETH
Price: $12.1353
Change in 1h: -0.71%
Market cap: $1005425929.0
Ranking: 2
#Ethereum #ETH",0,0,0,False
137,Ethereum Price@EthereumPrice_,"#Ethereum: Ether Price Index
1 ETH =0.020381Ƀ XBT = $12.111750 USD
Today: +1.31%⬆︎ Last 24h: +1.62%⬆︎
https://ethereum-price.com",1,0,0,False
140,0xc1c4da@0xc1c4da,"#Ethereum will give fair, ubiquitous access to #legaltech, ultimately elevating all of humanity",6,5,1,False
141,laserdario@cryptodario,"Disclaimer: opinions expressed here are solely my own.

Or are they?

#ethereum",1,0,0,False
142,laserdario@cryptodario,"so to summarize:
- traitors
- hypocrites
- dictators

#ethereum",0,0,0,False
143,Rimbit @rimbit,Hi From Montreal http://rimbit.com/posts/12565 #bitcoin #ethereum,0,0,0,False
145,laserdario@cryptodario,"What I've learned so far about #ethereum devs: they

- betrayed their own principles
- keep advertising them
- are leaders (ur submissive)",0,0,0,False
148,bruna@Brulisi,A message from Barry Silbert to me $ETH $ETC,1,2,0,False
149,Corner Coin@Corner_Coin,"For digital currency to succeed, people need connectivity into the #bitcoin and #ethereum networks https://goo.gl/EL7XDP #fintech",0,0,0,False
150,/r/Ethereum@r_Ethereum,Solidity Version 0.3.6 Released http://bit.ly/2aTc8jE #Ethereum,1,0,0,False
151,/r/Ethereum@r_Ethereum,My wallet contains both pre-fork and post-fork ETH. How to split ETH/ETC? http://bit.ly/2aTcIOc #Ethereum,1,0,0,False
152,/r/Ethereum@r_Ethereum,Fiat is the dominant currency for money laundering and other crimes because it's not based on a blockchain http://bit.ly/2aH9YAg #Ethereum,1,0,0,False
153,Trap Killa @ggm_mx,"Oh fine then, praise #RobelHabte #eth but hate on #AlexaMoreno #mex.... REALLY?!",0,0,0,False
154,Ross Christie@rosschristie20,Neither #ETH or #KEN feature on the #Rio2016 medal table. Just wait for the #Athletics and I'm sure that will all change. #OlympicGames,0,0,0,False
156,Cryptopatterns@Cryptopatterns,$ETH 's strange day today could be the start of another bullish pattern-see chart #ethereum $ETF $BTC #bitcoin,2,1,0,False
158,USA News@1USNews,"GET FREE #DOGE
Win dogecoin every 60 minutes
http://goo.gl/hE5Bk6
#doge #dogecoin
#Ethereum
#bitcoin #litecoin #gold #PrimeDay",0,0,0,False
159,Bob Summerwill@BobSummerwill,"We just topped 20,000 subscribers on the /r/ethereum sub-Reddit.   Wow!
https://reddit.com/r/ethereum/comments/4wz7p9/20000_readers/…
#ethereum #community20.000 Readers !!!Welcome to the Futurereddit.com",4,7,0,False
160,Michael Wuehler@wuehler,"Decentralizd Prediction Markets on #Ethereum tonight! #Gnosis with @malloc8 @ThinkRiseNY http://meetu.ps/2YX6vb @gnosisPMGnosis Prediction MarketsWed, Aug 10, 2016, 6:30 PM: Gnosis is the first decentralized prediction market platform. It is built on Ethereum and has been incubated by ConsenSys. Gnosis was founded for Martin Koeppelmann and Stemeetup.com",4,8,0,False
161,Khes Daar™@Khes_b,Ethiopian swimmer displays a non-athletic paunch for 100 metres http://dailym.ai/2aJIT0T #Ethiopia #ETH #EthiopiaProtests,1,0,0,False
162,Blockgeeks@Blockgks,How #Blockchain Technology Can Reinvent The Power Grid http://snip.ly/k7p0q #ethereum #Bitcoin,0,0,0,False
163,sanyiitufa@sanyiitufa1,"I wish someone shares his own pocket #ETH constitution to Mr.Reda like #MrKhan who doesn't know it grants right to live, notify to protest..",0,0,0,False
164,Coinstats@coinstats,"Ethereum Classic - ETC
Price: $1.64072
Change in 1h: -4.64%
Market cap: $135900987.0
Ranking: 6
#Ethereum Classic #ETC",0,0,0,False
165,Coinstats@coinstats,"Ethereum - ETH
Price: $12.2453
Change in 1h: +1.29%
Market cap: $1014523714.0
Ranking: 2
#Ethereum #ETH",0,0,0,False
166,VIAVI Latin America@VIAVILATAM,Best Practices Ethernet Testing 10M - 100G: Join us for our webinar w/ @microlease on best practices for #Eth... http://bit.ly/2aT90nw,0,0,0,False
167,VIAVI Brasil@VIAVIBrasil,Best Practices Ethernet Testing 10M - 100G: Join us for our webinar w/ @microlease on best practices for #Eth... http://bit.ly/2aT90nw,0,0,0,False
169,アシタカ@AshitakaSama_,"Any #conservatives or #libertarians out in the #ether fancy checking out a #Political #blog? 
http://fatmanfatworld.wordpress.com",1,0,0,False
171,BitcoinAgile@bitcoinagile,ETH-USD Breaks Out to the Upside; Targeting $15.39 #ethereum #ETHUSD #crypto #ether https://btcmanager.com/price-analysis/eth-usd-breaks-out-to-the-upside-targeting-15-39…,1,2,0,False
172,Francisco Taveira@jftaveira1993,#Ethiopia’s regime has killed hundreds. Why is the West still giving it aid? https://washingtonpost.com/opinions/global-opinions/ethiopias-regime-has-killed-hundreds-why-is-the-west-still-giving-it-aid/2016/08/09/3adc4dac-5e58-11e6-9d2f-b1a3564181a1_story.html… #ETH #EthiopiaProtests #Oromo #Amhara,0,0,0,False
173,Cloud Mining Monitor@cmmonitorcom,#Ethereum #Cloudmining': 10.08.2016 Payment received. 6 MHs - 0.04357283 ETH. From Genesis Mining.Genesis Mining (Ethereum Mining)cmmonitor.com,1,2,0,False
174,Ashenafi L.@ashu_LY,"Deeply conserners. #eth #usaQuote Tweetወርቄ@MerfeQulef · Aug 10, 2016In the last 9 months alone #USA was deeply/gravelly (concerned) five times about Ethiopia. But, they are 'allies'.",0,0,0,False
175,Francisco Gordillo@FGordillo,#bitcoin #blockchain Bitfinex Offers $3.6 Million Bounty in Bid to Recover Stolen Bitcoin: B... http://bit.ly/2bgXNzm #ethereum #ether,0,0,0,False
176,Tigray Legend@Tigray_Legend,Replying to @AJStreamThere is not that much dissident voices because it can be an ethnic time-bomb between Amhara + Oromo.  National Security #ETH,1,0,0,False
177,Francisco Taveira@jftaveira1993,What's The Economic Impact Of #Ethiopia's Response To Protests? http://afkinsider.com/131068/economic-effects-ethiopian-protests/… #EthiopiaProtests #ETH #Oromo #Amhara,0,0,0,False
178,Francisco Taveira@jftaveira1993,Who are the #Amhara people involved in #Ethiopia's anti-government protests? http://ibtimes.co.uk/who-are-amhara-people-involved-ethiopias-anti-government-protests-1575177… #EthiopiaProtests #AmharaProtests #ETH,0,0,0,False
179,BitcoinAgile@bitcoinagile,Etherplay: Games on #ethereum #Etherplay http://ethnews.com/etherplay-games-on-ethereum…,1,1,0,False
180,ETHNews@ETHNews_,#Etherplay: Games on #Ethereum http://ow.ly/nJ4s3037f42,1,0,0,False
181,Numerati. Twetch#: @1033@MirakhorHassan,Replying to @CryptoMob @avtarsehra and @Poloniexeventually folks will realize hacker funds will be blocked at exchanges. Less $etc than $eth.,0,0,0,False
182,Blockgeeks@Blockgks,How #blockchain technology can prevent the next financial crisis http://snip.ly/1voll #Bitcoin #Ethereum,1,1,0,False
183,Coinstats@coinstats,"Ethereum Classic - ETC
Price: $1.71456
Change in 1h: -1.87%
Market cap: $142015823.0
Ranking: 6
#Ethereum Classic #ETC",0,0,0,False
184,/r/Ethereum@r_Ethereum,"If I name a variable ""owner"", does that make the address owner the legal owner? http://bit.ly/2b4pKWz #EthereumIf I name a variable ""owner"", does that make the address owner the...SARCASM TAG But more than half of ETH holders seem to think so. How do we solve this problem? Attempts to change the ""contract"" terminology are...reddit.com",0,0,0,False
185,/r/Ethereum@r_Ethereum,"How to Install ETH and ETC in same computer, and works with CLI interface – Trustfarm DEV http://bit.ly/2b4pQOb #Ethereum",0,0,0,False
186,Coinstats@coinstats,"Ethereum - ETH
Price: $12.0848
Change in 1h: -0.34%
Market cap: $1001210699.0
Ranking: 2
#Ethereum #ETH",0,0,0,False
187,Ric Olsen@Ric9871Ric,"Start #Mining #Ether Without Purchasing Any Hardware

3% Discount With Coupon Code 8rRBkl

http://dld.bz/eMnVB",0,0,0,False
188,Etheregen@etheregen,"Replying to @eth_classic and @PoloniexYou could also get out of this ordeal by joining the Etheregen chain. More info @ http://reddit.com/r/etheregen #EthereumEthereum Regenesis • r/EtheregenEthereum Regenesis is the ""vanilla"" version of the Ethereum blockchain. It uses a new genesis block. This means that funds held on other chains by...reddit.com",1,1,0,False
189,bruna@Brulisi,"If you are a fanboy don't answer this pool(sorry)
Do you rly think it is a possible that $ETC and $ETH reach parity?No it's not36.7%I'm sure it is63.3%30 votes·Final results",0,0,0,False
190,Ethereum SE@StackEthereum,For how long a file is stored in Filecoin and IPFS? http://ethereum.stackexchange.com/questions/7936/for-how-long-a-file-is-stored-in-filecoin-and-ipfs… #ethereum #storage #ipfs #decentralization,1,0,0,False
191,Ethereum SE@StackEthereum,Mining Nanopool for 24H with Radeon RX 480 and yet no shares found http://ethereum.stackexchange.com/questions/7937/mining-nanopool-for-24h-with-radeon-rx-480-and-yet-no-shares-found… #ethereum #mining #ether #cppethereum,0,0,0,False
192,Ethereum SE@StackEthereum,Cannot catch every event (logs) from contract - catch a couple of random events instead http://ethereum.stackexchange.com/questions/7935/cannot-catch-every-event-logs-from-contract-catch-a-couple-of-random-events… #ethereum #jsonrpc #events,0,0,0,False
193,Piers Edwards@piers_e,"He's being called the new 'Eric the Eel'. #ETH making headlines at #Rio2016 in a way it might not want to stomach.Quote TweetThe Independent@Independent · Aug 10, 2016The Olympic swimmer who is – very slowly – becoming a crowd favourite in Rio http://ind.pn/2b6mqgx",0,0,0,False
194,228@CNNsWorld,#Microsoft Partners With ConsenSys To Use #Ethereum To Provide Blockchain http://hostgators.website/?p=87 #bitcoin #software #tc Christmas #webdev,0,0,0,False
195,Lohas_de@Lohas_de,"Smart Contracts cannot fix dumb people. #Ethereum #BlockchainB9lab blogB9lab delivers quality instructor-led education, training and talent in blockchain and decentralized applications.blog.b9lab.com",0,0,0,False
196,BlockChannel@BlockChannel,BCN News: themerklenews: Ethereum splitter can be a powerful tool http://themerkle.com/shapeshift-introduces-new-ethereum-splitter-tool/… #ethereum #cryptocurrency #ethereumnews $eth $etc,0,0,0,False
197,Josef Davies-Coates@jdaviescoates,Replying to @ninabreznik @knuutila and @serapathlots of #blockchain / #ethereum project trying to do similar stuff too e.g. @joincolony,1,0,0,False
199,Ameer Rosic@AmeerRosic,Could #Blockchain Technology Disruptive The Real Estate Industry? http://dld.bz/eCvcw #ethereum,1,0,0,False
201,Vincent Moncenis@vmoncenis,On Eve of Success? How Accepted Are Cryptocurrencies Today http://coint.co/3xL1 #bitcoin #ethereum,0,0,0,False
203,Etherby@TheEtherby,"Two new sources has been added to #Etherby, Markets Media and The-Blockchain. #Ethereum",0,0,0,False
204, ěŕëĺíüęŕ˙ ěţěëŕ@ereliuer_eteer,"#ethereum #daohack This page has been removed, but let's not forget these were the DAO contract terms and conditions https://tinyurl.com/dao-terms",0,0,0,False
205,Blockgeeks@Blockgks,"In the Future, Ownerless Companies Will Live on the #Blockchain http://snip.ly/vt929 #Ethereum",0,0,0,False
206,Coinstats@coinstats,"Ethereum Classic - ETC
Price: $1.73421
Change in 1h: -0.18%
Market cap: $143641295.0
Ranking: 6
#Ethereum Classic #ETC",0,0,0,False
207,ETHNews@ETHNews_,"#Ether Buyers Emerge Winners, $13.00 On The Cards? #Ethereum #ETH http://ow.ly/IccG30378rV",0,0,0,False
208,Coinstats@coinstats,"Ethereum - ETH
Price: $12.1437
Change in 1h: +0.15%
Market cap: $1006075349.0
Ranking: 2
#Ethereum #ETH",0,0,0,False
209,Ethereum Price@EthereumPrice_,"#Ethereum: Ether Price Index
1 ETH =0.020185Ƀ XBT = $12.150005 USD
Today: +0.33%⬆︎ Last 24h: -1.38%⬇︎
https://ethereum-price.com",1,0,0,False
210,Cryptopatterns@Cryptopatterns,20% short $DASH - SMALL position $.0173 range $ETH $ETC #ethereum #bitcoin #cryptocurrency,0,0,0,False
211,Sadaq Mohamed @ImSadaq,Encourage the stability of the region #peace is better for all countries #IGAD #Eth #Dji #Ken #Sud #Uga #Bur #Som #Eri #Tan ,0,0,0,False
212,King Popcorn@PYPRecords,"""But to my face they some well wishin dick ridin envy hidin snakes With they hands out for my money man how much can I take"" - @nas #ether",1,0,0,False
213,Kenny Rowe@kennyrowe,Anyone else having issues with Geth with macOS Sierra? #ethereum,1,0,0,False
215,Olivier Chapiteau@o_chapiteau,"10Aug16 17:49:58 UTC #Ether #Blockchain status - Block height @ 2,047,617 - 10,475 unconfirmed tr. - Last fork height @ 2,043,281",0,0,0,False
216,Olivier Chapiteau@o_chapiteau,10Aug16 17:49:58 UTC #Ethereum live spots - #Ether @ 12.15456$ - #EtherClassic @ 1.68384$,1,1,0,False
217,Cryptopatterns@Cryptopatterns,@EricKemedy thanks for sharing. nice call. Chased $Steem once. Lesson learned. $ETH $ETC $BTC https://twitter.com/EricKemedy/status/763429808499986432…This Tweet is unavailable.,0,0,0,False
218,Ethereum SE@StackEthereum,Difference between IPFS and Filecoin? http://ethereum.stackexchange.com/questions/7932/difference-between-ipfs-and-filecoin… #ethereum #bitcoin #storage #ipfs #decentralization,0,0,0,False
219,Rimbit @rimbit,Hi From Montreal http://rimbit.com/posts/12557 #bitcoin #ethereum,0,0,0,False
220,laserdario@cryptodario,Leaders? #ethereum is being advertised as leaderless.,0,0,0,False
221,Eduardo Pereira (Ed)@edununesp,Jump start #ethereum #smartcontracts and #dapps by today using #truffle project more @ http://truffle.readthedocs.io/en/latest,1,0,0,False
222,Ethereum SE@StackEthereum,Difference between IPFS and Filecoin? http://ethereum.stackexchange.com/questions/7932/difference-between-ipfs-and-filecoin… #ethereum #bitcoin #ipfs,0,0,0,False
224,/r/Ethereum@r_Ethereum,New users confusion of choice http://bit.ly/2aSKP8Y #Ethereum,0,0,0,False
225,/r/Ethereum@r_Ethereum,REXMLS explains the obsolete/broken nature of the current Real Estate listings structure and how a ... http://bit.ly/2aSKgfw #EthereumREXMLS explains the obsolete/broken nature of the current Real...Posted in r/ethereum by u/twigwam • 12 points and 2 commentsreddit.com,0,0,0,False
226,laserdario@cryptodario,"I wonder if the #ethereum devs are sending the white coins to @Poloniex in order to manipulate the $ETC market.
That would be like, illegal.",2,0,0,False
228,btcglad@btcgladiator,"Replying to @hernzzzzzz and @bitfinex""Processing"" for me. $BTC & $ETH. One hour in this state.",0,0,0,False
230,Cryptopatterns@Cryptopatterns,New trades setting up all the time $Steem $Dash $ETC (again) #ethereum $ETH $BTC #bitcoin #cryptocurrency,1,0,0,False
232,Blockgeeks@Blockgks,#Blockchain Powered Micropayment Browser Brave Raises $4.5m http://snip.ly/qmlif #Ethereum #bitcoin,0,0,0,False
234,Coinstats@coinstats,"Ethereum Classic - ETC
Price: $1.74788
Change in 1h: -2.5%
Market cap: $144771113.0
Ranking: 6
#Ethereum Classic #ETC",0,0,0,False
235,Coinstats@coinstats,"Ethereum - ETH
Price: $12.1399
Change in 1h: -0.39%
Market cap: $1005744436.0
Ranking: 2
#Ethereum #ETH",0,0,0,False
236,loudiego@LuisHamil2,#ethereum Help please! dabbling with solo mining.  Will $5.0 ethereum magically show up in wallet? balance 0?,0,0,0,False
237,Jack du Rose@jackdurose,"Colony's own @elena_di explains how to write a (more) robust #smartcontract in #solidity on #ethereum. #blockchainWriting robust smart contracts in SolidityBefore contract function code executes, it’s a good idea to validate who triggered it and what inputs are given.blog.colony.io",2,1,0,False
238,0xZain@RezigZine,If you have a heart problems ! please stay away from $ETC $ETH . This shits can kill you.,2,0,0,False
239,Bitcoin is King@cryptoctic,#Ethereum is currently trading at$11.5808,1,0,0,False
240,Cryptopatterns@Cryptopatterns,"Continue to watch $Dash. Signs of pullback coming, but not high prob yet. $ETH $ETC $BTC #bitcoin #ethereum #altcoin",2,0,0,False
241,Alex.eth@AlexanderFisher,Had to run this command to get Ledger Nano S working in Ubuntu 16.04 http://buff.ly/2aVAGp9 #linux #ethereum @weareledger,0,0,0,False
242,Mihai Alisie@MihaiAlisie,Meanwhile in a parallel universe #ethereumHacker has moved significant DAO funds to Poloniex. Polo...Posted in r/ethtrader by u/SmarticusRex • 30 points and 77 commentsreddit.com,2,1,1,False
243,Zoe Nolan@zoe_nolan,Registration is open for the Dublin #blockchain Hackathon (4-6th November 2016) https://blockchain-hackathon.com #ethereum #bitcoin,1,0,0,False
244,iuri matias@iurimatias,"The dao/fork drama had put a lot of #ethereum projects in stealth mode, we will see a lot of projects resurface during #devcon",10,5,0,False
247,ETHNews@ETHNews_,#Zcash's #BabyZoE Can Send Discrete Amounts of #ETH http://ow.ly/HT2R3036JV6,0,0,0,False
248,Tigray Legend@Tigray_Legend,Ethiopian issues need to be resolved by the courts upholding the constitution and legal rights of every citizen. #ETH,0,0,0,False
249,Cryptopatterns@Cryptopatterns,Out $ETC trade avg sell low 1.80's. Up from here? No clue-No edge 2 trade. -11% loss on big pos. move on w/o regrets $ETH #ethereum $BTC,2,0,0,False
250,ExploreTraveler@exploretravel1,RT @wighawag: Etherplay is coming soon. Register for beta at http://lnkplg.co/8YaaA to play #videogames on #ethereum #gamedev,1,0,0,False
251,Blockgeeks@Blockgks,The Theory of a #Blockchain Circular Economy http://snip.ly/8snff #Ethereum #bitcoin,0,0,0,False
252,Crypto Trader Pro @CryptoTraderPro,#cfd #crypto ― Crypto volatility alert in 5 min #btc #eth #ethc #nmc #ltc  via http://RobotsFX.org,0,0,0,False
253,"Trade Alerts, Trade Ideas and Crypto @AlertTrade",#cfd #crypto ― Crypto volatility alert in 5 min #btc #eth #ethc #nmc #ltc  via http://RobotsFX.org,1,0,0,False
254,Bitcoin Sportsbook @SportsbookBTC,#cfd #crypto ― Crypto volatility alert in 5 min #btc #eth #ethc #nmc #ltc  via http://RobotsFX.org,0,0,0,False
255,Coinstats@coinstats,"Ethereum Classic - ETC
Price: $1.79482
Change in 1h: +1.48%
Market cap: $148656677.0
Ranking: 6
#Ethereum Classic #ETC",0,0,0,False
256,Coinstats@coinstats,"Ethereum - ETH
Price: $12.1891
Change in 1h: +0.3%
Market cap: $1009802809.0
Ranking: 2
#Ethereum #ETH",0,0,0,False
257,STΞFAAN PONNΞT@sponnet,Some pre-meetup stress... #Ethereum #meetup http://meetup.com/API-Craftsmanship/events/233085318/…,1,0,0,False
258,/r/Ethereum@r_Ethereum,Digital gold and silver may be up for P2P lending soon http://bit.ly/2bgjAr6 #Ethereum,0,0,0,False
259,/r/Ethereum@r_Ethereum,"Bought at pre-sale. Safe to send to wallet? http://bit.ly/2aW0voU #EthereumBought at pre-sale. Safe to send to wallet?I have the json wallet file. With the whole ethereum classic debacle, I was wondering if I would face any issues if I were to attempt to send the...reddit.com",0,0,0,False
260,/r/Ethereum@r_Ethereum,Can we please stop with the ETC posts on the ETH subreddit? http://bit.ly/2aVZmhj #Ethereum,1,0,0,False
261,FunVidClick@FunVidClick,"Start #Mining #Ether Without Purchasing Any Hardware

3% Discount With Coupon Code 8rRBkl

http://dld.bz/eMnVB",0,0,0,False
262,raymeisterjr@ryoro05,Crypto game lookin healthy #lisk #btc #ethereum #wavesplatform #plutus #augur #brk #breakout #jaxx,0,0,0,False
263,SimpleFX@SimpleFXcom,"Crypto volatility alert in 5 min
#btc #eth #ethc #nmc #ltc",0,0,0,False
264,Francisco Gordillo@FGordillo,#bitcoin #blockchain California Scraps Licenses in Proposed Bitcoin Regulation Overhaul: The... http://bit.ly/2aVYhpy #ethereum #ether,1,0,0,False
266,Crypto Trader Pro @CryptoTraderPro,#cfd #crypto ― Crypto volatility alert in 15 min #bitcoin #ethereum #ethereumclassic #namecoin #litecoin  via http://RobotsFX.org,0,0,0,False
270,Bitcoin Sportsbook @SportsbookBTC,#cfd #crypto ― Crypto volatility alert in 15 min #bitcoin #ethereum #ethereumclassic #namecoin #litecoin  via http://RobotsFX.org,0,0,0,False
271,SimpleFX@SimpleFXcom,"Crypto volatility alert in 15 min
#bitcoin #ethereum #ethereumclassic #namecoin #litecoin",0,0,0,False
272,Cryptopatterns@Cryptopatterns,Manipulation level on $ETC $ETH amazes even me and I was already sure these markets are controlled by criminals. #ethereum #bitcoin $BTC,2,0,0,False
273,Non-fungible Joe (NFJ)@latone,"Tuning back into #ethereum & #thedao...I'm holding this, what can I do with it now? http://etherscan.io/token/TheDAO?a=0x784860847f74658f3CCA5c3CC237c0811Fe2a397…",0,0,0,False
274,Cryptopatterns@Cryptopatterns,"Why I scaled out - didn't dump. If mod prob move is real, I'll do fine w/50% long $ETC #ethereum $ETH $BTC #Bitcoin",0,0,0,False
275,Cloud Mining Monitor@cmmonitorcom,#Ethereum #Cloudmining': 10.08.2016 Payment received. 6 MHs - 0.04547979 ETH. From Genesis Mining.Genesis Mining (Ethereum Mining)cmmonitor.com,0,0,0,False
276,₿alls of $teel@b4LSi,I think $ETC Whales pumped $ETH and dump for more $BTC to pump $ETC,0,0,0,False
278,cryptoNaut @_hightek,"$ETH going down, could this be the $ETC bounce now?",1,1,0,False
280,Ethereum SE@StackEthereum,How to parse ABI out of contract code? http://ethereum.stackexchange.com/questions/7927/how-to-parse-abi-out-of-contract-code… #ethereum #web3js #abi,0,0,0,False
282,Beyond the void #blockchaingame@BeyondVoidGame,Replying to @gametokenstech and @RenegadeCryptoThank you for publishing our news ! :-) #steemit #crypto-news #ethereum #hardfork,1,0,0,False
283,Cryptopatterns@Cryptopatterns,"This retweet seems timely...careful out there... $ETH $ETC $BTC #Ethereum #BitcoinQuote TweetCryptopatterns@Cryptopatterns · Aug 8, 2016Keep tweeting correlations-they work till they don't. ANYTHING POSSIBLE $ making trade strategy, not me hedging bets",0,0,0,False
284,Emanuele Franzè@FranzeEmanuele,My computer is making money for me ! http://goldminer.io/?su=IgVxh2jGbkYXJbwoJubH… #ethereum #goldminer #nvidia #amd via @GoldMiner_io,1,0,0,False
286,LuckyOne U@AhnHost,http//ark.monkeyscage.org ARK #DAO #Ethereum Launching in few days!,0,0,0,False
287,Cryptopatterns@Cryptopatterns,"Scaling out of $ETC to control risk, but something's up. $ETH looks horrible. Patterns=crash coming? #ethereum $BTC",0,0,0,False
288,Rob Nelson@guruvan,"I have lists of funny tweets.
#bitcoin & #ethereum lists are far funnier lately

I need fresh coffee. The bfx status page was too much",1,0,0,False
289,ETHNews@ETHNews_,#KIBO: Decentralizing the #Lottery System #Ethereum #SmartContracts http://ow.ly/Ejhj3036JKb,1,0,0,False
290,M. Barakat@M_A_Barakat,"Replying to @M_A_Barakat and @d_seamanRemember those words:
""But a HF would give the expression that $ETH **and some of your users get burned because your code is bad""",0,0,0,False
291,Coinstats@coinstats,"Ethereum Classic - ETC
Price: $1.75356
Change in 1h: -4.97%
Market cap: $145236932.0
Ranking: 6
#Ethereum Classic #ETC",0,0,0,False
292,Coinstats@coinstats,"Ethereum - ETH
Price: $12.15
Change in 1h: -0.78%
Market cap: $1006547016.0
Ranking: 2
#Ethereum #ETH",0,0,0,False
293,Ethereum Price@EthereumPrice_,"#Ethereum: Ether Price Index
1 ETH =0.019859Ƀ XBT = $11.580880 USD
Today: -1.29%⬇︎ Last 24h: +0.87%⬆︎
https://ethereum-price.com",0,0,0,False
294,Francisco Gordillo@FGordillo,#bitcoin #blockchain Bitfinex Exchange to Resume Bitcoin Trading Today: Bitfinex has announc... http://bit.ly/2b3BEjF #ethereum #ether,0,0,0,False
295,Cryptopatterns@Cryptopatterns,My $Steem buy on crash trade (maybe) is setting up nicely. #steemit $ETC $ETH #ethereum $BTC #Bitcoin,0,0,0,False
296,ethereum.network@EthereumNetw,".@bitfinex will resume $BTC, $ETH, etc trading and withdrawals in an hour:
https://bitfinex.statuspage.io
#Ethereum #Bitcoin",1,0,0,False
297,Cryptopatterns@Cryptopatterns,Sold 10% $ETC 1.85 (-2.5% loss) BIZZARE divergences w/ $ETH and no new low on @krakenfx. Sell rest if can't hold. #cashmgmt still key,0,0,0,False
298,FailCommunity@FAILCommunity,Over 70% of the @Poloniex exchange #trade volume comes from #ETC and #Ethereum. #fintech #blockchain,1,0,0,False
299,Ethereum SE@StackEthereum,Parity node browser not supported in the ethembedded .iso? http://ethereum.stackexchange.com/questions/7923/parity-node-browser-not-supported-in-the-ethembedded-iso… #ethereum #parity,1,0,0,False
300,Ethereum SE@StackEthereum,Is there a graph of ethereum transaction fees? http://ethereum.stackexchange.com/questions/7924/is-there-a-graph-of-ethereum-transaction-fees… #ethereum #mining #blockchain #statistics,0,0,0,False
301,Rimbit @rimbit,Rimbit Stats http://rimbit.com/posts/12521 #bitcoin #ethereum,0,0,0,False
302,DonkeyPool@donkeyminers,Still one more fee #free #ethereum block left! Don't worry our fee is still super low. 0.5%!? You can't beat that! #miningpools #ethereum,0,0,0,False
303,Newb@newbiumcoin,"#Bitfinex Is Back - Trading Reopens Today 16:00:00 UTC $BTC $ETC $ETH https://coins.newbium.com/post/265-bitfinex-is-back-trading-reopens-today-16-00-00… via @newbiumcoinBitfinex Is Back - Trading Reopens Today 16:00:00 UTC • NewbiumTrading will begin at 16:00:00 UTC for all currency pairs but deposits and withdrawals for only BTC, ETC, ETH, and USD. LTC & Tether will be enabled at acoins.newbium.com",0,0,0,False
304,147 Members of Congress Abetted Insurrection@RyanJSuto,"Fun fact: @MichaelPhelps is now tied with #ETH & #CZE for all-time #Olympics gold medals, and tied with #GEO for overall all-time medals.",1,0,0,False
305,BitcoinAgile@bitcoinagile,Is #ethereum Classic Spelling Trouble for Barry Silbert? #news #channel #Bitcoin #bAgile http://bitcoinschannel.com/is-ethereum-classic-spelling-trouble-for-barry-silbert…,1,0,0,False
306,FailCommunity@FAILCommunity,#ETC downtrend continues. The price is now $1.77... #Ethereum #fintech #finance,0,0,0,False
307,⛧ God of Gaming ⛧@TheGodofGamez,"The world is a book, and those who do not travel read only a page. $ETH",0,0,0,False
308,David Liam@crazydaveorama,"#Ethereum Price Technical Analysis – Targets Achieved, Buy Dips More?Ethereum Price Analysis – Targets Achieved, Buy Dips More?Ethereum price continued to gain traction against the US Dollar, and it looks like the idea of buying dips may still work in the short term.newsbtc.com",0,0,0,False
309,Eugene Zavarzin@ADZ4BIZ,Will #Adzcoin Skyrocket Like http://bit.ly/2aKaT2r #Ethereum?,0,0,0,False
310,/r/Ethereum@r_Ethereum,"Help with http://Ethereum-Wallet.app & missing ETH after conversion during setup http://bit.ly/2aVH4wC #EthereumHelp with Ethereum-Wallet.app & missing ETH after conversion...I recently installed the Ethereum Wallet project on Mac, and as part of the set up, carried out a conversion from btc to 1eth via Shapeshift. When...reddit.com",0,0,0,False
311,/r/Ethereum@r_Ethereum,LoRa® Alliance - Global IoT Challenge (Right up Ethereum's alley) http://bit.ly/2bfZv4k #EthereumLoRa® Alliance - Global IoT Challenge (Right up Ethereum's alley)Posted in r/ethereum by u/twigwam • 10 points and 0 commentsreddit.com,0,0,0,False
312,/r/Ethereum@r_Ethereum,How Small Blocks Are Hurting My Bitcoin Business http://bit.ly/2bfZopl #EthereumHow Small Blocks Are Hurting My Bitcoin BusinessPosted in r/ethereum by u/imaginative_investor • 8 points and 1 commentreddit.com,0,0,0,False
313,/r/Ethereum@r_Ethereum,Writing (more) robust smart contracts — Colony http://bit.ly/2bg0hhP #Ethereum,0,0,0,False
314,/r/Ethereum@r_Ethereum,Announcing Etherplay: Play Skill Games On Ethereum! http://bit.ly/2aVGVJt #EthereumAnnouncing Etherplay: Play Skill Games On Ethereum!Posted in r/ethereum by u/wighawag • 44 points and 15 commentsreddit.com,0,0,0,False
315,Bitcoin Retweets@bitcoinbot121,Is #Ethereum Classic Spelling Trouble for Barry Silbert? http://ow.ly/YKhG3036EPP by @gautham_n #etc #bitcoin,1,0,0,False
317,Etherplay@etherplay,Etherplay annoucement on reddit : https://reddit.com/r/ethereum/comments/4x20yu/announcing_etherplay_play_skill_games_on_ethereum/… #ethereum #videogamesAnnouncing Etherplay: Play Skill Games On Ethereum!Posted in r/ethereum by u/wighawag • 44 points and 15 commentsreddit.com,0,0,0,False
319,Ethereum Monkey@EthMonkey,Is Ethereum Classic Spelling Trouble for Barry Silbert? - NEWSBTC #ethereum http://newsbtc.com/2016/08/10/does-ethereum-classic-spell-trouble-for-barry-silbert/…,0,0,0,False
320,Drew Hinkes@propelforward,Replying to @awrigh01 @angela_walch and @AmerBankerthis is the #Ethereum problem. How do you handle assets that =computing cycles that are traded for USD?,1,3,0,False
321,cryptinsight@cryptinsight,Site Update - Bitfinex blog #Bitfinex #ETH #ETC #BTC #USD #ビットコイン #イーサリアム #暗号通貨 #仮想通貨 http://bit.ly/2bfRYkL,0,0,0,False
322,Ethereum SE@StackEthereum,Error: Type uint256[] memory is not implicitly convertible to expected type uint256[] storage pointer http://ethereum.stackexchange.com/questions/7921/error-type-uint256-memory-is-not-implicitly-convertible-to-expected-type-uint… #ethereum,0,0,0,False
323,Jouko Salonen@JoukoSalonen,"Check your miners - it's time to count the yield. It's the #Ethereum Helsinki Meetup day! 
http://meetup.com/Helsinki-Ethereum-Meetup/events/232611277/?rv=ce2&_af=event&_af_eid=232611277&https=off… …Ethereum Helsinki meetupWed, Aug 10, 2016, 7:00 PM: Korjaamo every month the second Wednesdaymeetup.com",0,0,0,False
325,Jouko Salonen@JoukoSalonen,"Check your miners time to count the yield. It's the #Ethereum Helsinki Meetup day! 
http://meetup.com/Helsinki-Ethereum-Meetup/events/232611277/?rv=ce2&_af=event&_af_eid=232611277&https=off…",1,0,0,False
327,Makoto Inoue ( matoken.eth )@makoto_inoue,"Who's? coding #ethereum in London? Still spots left for tomorrow's codeup!Codeup #11Thu, Aug 11, 2016, 6:30 PM: This is a study group for around 10 people who teach each other about Ethereum coding related stuff over a few beers.• We have big tables and TV monitors so we can share scmeetup.com",0,0,0,False
328,Anomalous1@anomalous__0N3,@VitalikButerin is #ethereum essentially the matrix?,0,0,0,False
329,BitcoinAgile@bitcoinagile,Is #ethereum Classic Spelling Trouble for Barry Silbert? - NEWSBTC #Bitcoin #Bit http://newsbtc.com/2016/08/10/does-ethereum-classic-spell-trouble-for-barry-silbert…,1,0,0,False
330,Francis Garcia@fgarciasit,"#KEN and #Eth selection making my Letsrun bracket difficult, who even are these people in the marathon? #Olympics2016",0,0,0,False
331,Coinstats@coinstats,"Ethereum Classic - ETC
Price: $1.84893
Change in 1h: -1.18%
Market cap: $153133606.0
Ranking: 6
#Ethereum Classic #ETC",0,0,0,False
332,Coinstats@coinstats,"Ethereum - ETH
Price: $12.2657
Change in 1h: +0.94%
Market cap: $1016115710.0
Ranking: 2
#Ethereum #ETH",0,0,0,False
333,ፍሬህይወት ነጋሽ Frehiwot Negash@FrehiwotNG,How in the world the Ethiopian Swimmer qualify for the Olympics?  Daily Mail Question. Crystal clear question! #Eth @NuNuWako,1,1,2,False
334,fintechfolk@fintechfolk,Thanks  for registering for FinTechFolk - http://zpr.io/Mnfj #fintech #ethereum #bitcoin #blockchain,1,2,0,False
336,Ethereum Canada@EthereumCanada,Your #Ethereum price trends this week by @CoinTelegraphEthereum (ETH and ETC) Price Trends (Week of August 8th)The natural growth of Ethereum’s price continues. The time has come to determine the long-term direction.cointelegraph.com,1,0,0,False
337,Ethereum SE@StackEthereum,Is it possible to identify the contract type of an address dynamically? http://ethereum.stackexchange.com/questions/7918/is-it-possible-to-identify-the-contract-type-of-an-address-dynamically… #ethereum #solidity,0,0,0,False
338,Ethereum SE@StackEthereum,geth stuck in reading loop http://ethereum.stackexchange.com/questions/7920/geth-stuck-in-reading-loop… #ethereum #goethereum #mining #privateblockchain #testnets #bug,0,0,0,False
339,Josh Thomas@joshbt,I just bought #Bitcoin (and #Ether) #cryptocurrency with @Coinbase - sign up here and we'll both earn $10!  -  https://coinbase.com/join/57aaa1d8c1b21901cbabc387?src=twitter…,2,1,0,False
340,Fintech Recruiters@FintechCareers,Interview: #Ethereum Co-Founder Explains How #Ether Could Surpass Bitcoin - http://go.shr.lc/2b0ONLz via @Shareaholic,4,4,0,False
341,Jose jose@Lanenaface44,Best #bitcoin #ethereum and #x11 mining. Choose your pools and track all stats.%10 discount http://hashflarediscountcodes.com #BTC #ETH,0,0,0,False
342,EtherBlockchain.io@etherblockchain,Ethereum's 'Lightning Network' Raiden to strike IoT and micropayments http://ibt.uk/A6bnO via @IBTimesUK #ether #blockchain,0,0,0,False
343,Ansel Lindner@AnselLindner,"Replying to @AnselLindnerAlso, by this move, the #ethereum foundation is restricting liquidity in $ETH, by taking some out of circulation.",1,0,0,False
345,ፍሬህይወት ነጋሽ Frehiwot Negash@FrehiwotNG,Replying to @addisstandard@addisinsight lol. I couldn't get off his belly from my mind. The first time #Eth lost her grace in Olympic history.,1,0,0,False
346,BitcoinAgile@bitcoinagile,Gnosis Prediction Markets and State Channels -#EL - EventBrowse #ethereum #Geek http://bit.ly/2b3jazR,2,0,0,False
349,ArtByte@ArtByteMe,"Have #blockchain confusion?

1 chain, no forks, 2 yrs
Trade BTC/ABY:   
https://poloniex.com/exchange#btc_aby…
#ethereum #Bitcoin #fintech #Cryptocurrency",2,1,0,False
350,Francisco Gordillo@FGordillo,#bitcoin #blockchain 15 R3 Members Trial Distributed Ledger Tech for Trade Finance: 15 R3 me... http://bit.ly/2b3hshX #ethereum #ether,0,0,0,False
352,Cyber Phil ₿ ₿ ₿ ¯\_(ツ)_/¯ ₿ ₿ ₿@H4ck3rPh1ll,Replying to @AnondranCrypto @anondran and @Poloniexhe deserves it and he will use it to fight #Ethereum and @The_DAO_Project,0,0,0,False
354,Sophant Travel News@SophantTravel,The latest The Sophant Travel News Daily! http://paper.li/SophantTravel/1317473891?edition_id=b850b230-5efa-11e6-98ed-0cc47a0d1605… Thanks to @JohnJGentry #travel #ethereum,0,0,0,False
355,Coinstats@coinstats,"Ethereum Classic - ETC
Price: $1.87424
Change in 1h: +2.81%
Market cap: $155227586.0
Ranking: 6
#Ethereum Classic #ETC",0,0,0,False
356,Coinstats@coinstats,"Ethereum - ETH
Price: $12.1692
Change in 1h: -1.32%
Market cap: $1008104332.0
Ranking: 2
#Ethereum #ETH",0,0,0,False
357,BlockchainLUX@blockchainLUX,"Bullish #bitcoin #ethereum #gold short #fiat and #usd #euroQuote Tweetzerohedge@zerohedge · Aug 10, 2016Deutsche Bank Unexpectedly Found To Have Massive Capital Gap, Larger Than Its Entire Market Cap http://zerohedge.com/news/2016-08-10/deutsche-bank-unexpectedly-found-have-massive-capital-gap-larger-its-entire-market-c…",1,0,0,False
358,3Douglas ₿ŁĐΞ @Radioactive3D,So can I use #ETH at Arby's? http://fb.me/1ssKSgFrq,0,0,0,False
359,/r/Ethereum@r_Ethereum,Three Russian Exchanges Suspected of Defrauding User Funds http://bit.ly/2bfG23s #EthereumThree Russian Exchanges Suspected of Defrauding User FundsPosted in r/ethereum by u/curiouseugene • 5 points and 0 commentsreddit.com,1,0,0,False
360,/r/Ethereum@r_Ethereum,CoinOffering Issues 'CryptoShares' Using Ethereum: BTCManager Exclusive Interview http://bit.ly/2b33E75 #Ethereum,1,0,0,False
361,/r/Ethereum@r_Ethereum,"Ledger Blue queries http://bit.ly/2aVpYiB #EthereumLedger Blue queries1) If, for example, ledger blue goes bust, can I just put my 24 seed words into any other HD wallet and gain access again? 2) Its possible to...reddit.com",1,0,0,False
362,Official Age of Rust Game@SpacePirate_io,@brian_armstrong California is trying to pass AB 1326 to stop #Bitcoin and #ethereum in CA. Help stop it today. https://leginfo.legislature.ca.gov/faces/billTextClient.xhtml?bill_id=201520160AB1326…,0,0,0,False
363,TheKEMPGallery@thekempgallery,Prints from the Ether exhibition by JMK still available at the gallery from €90. #ether… https://instagram.com/p/BI7buHkhyoS/,1,2,0,False
365,Cryptopatterns@Cryptopatterns,Morning. $ETC near exit. Buy sigs+sell sig on $ETH need to move. Upside worth risk-4 now. 75% long  #ethereum $BTC,2,0,0,False
366,Francisco Gordillo@FGordillo,"#bitcoin #blockchain Bank of America, HSBC Unveil Blockchain Supply Chain Project: Bank of A... http://bit.ly/2aRTCYE #ethereum #ether",0,0,0,False
367,Ruben Perez  #bitcoin@digiruben,Digital currencies are getting closer to becoming mainstream https://thestreet.com/story/13666419/1/digital-currencies-are-getting-closer-to-becoming-mainstream.html… via @TheStreet #bitcoin #blockchain #ether,1,0,0,False
368,Griffin Ichiba Hotchkiss@gichiba,Seems like #ethereum is at about 1 game changing innovation a week. Open source is a #Blockchain's best friend - http://ibtimes.co.uk/ethereums-lightning-network-raiden-strike-iot-micropayments-1575258…,0,0,0,False
369, Eliza Cheng @ElizaRyenne,Let the bots mine #bitcoin #dogecoin #litecoin #ethereum #gold for you! JOINE NOW at https://eobot.com/user/393610 @eobot,0,0,0,False
371,CryptoSmoke@milo_icon,#Ethereum devs from the robin hood white hat hacker group send their coins to @Poloniex. $ETH $ETC @avsa,1,0,0,False
372,TBM NEWS@TBMGPT_News,"#Freewallet releases mobile-first #Lisk Wallet for #Android, #iOS app to follow soon - EconoTimes #ethereumFreewallet releases mobile-first Lisk Wallet for Android, iOS app to follow soon - EconoTimesExpanding its family of mobile-first cryptocurrency wallets, Freewallet has announced that Lisk Wallet has been released on Google Play and will soon be published on Apple App Store. Recently,...econotimes.com",1,1,0,False
373,indxio@indxio,#Russia Market Close || #Bitcoin: $589.94 | 530.01 EUR||  #Litecoin: 0.0032 BTC  || #Ethereum: 0.0209 BTC   || $BTC $LTC $ETH $RUB,0,0,0,False
375,Francisco Gordillo@FGordillo,"#bitcoin #blockchain Bitcoin Sales Are Currency Transactions, Russia's Tax Office Says: Russ... http://bit.ly/2b36fxZ #ethereum #ether",0,0,0,False
376,ether-camp@CampEther,Seen on #hackethercamp https://hack.ether.camp/idea/encrypted-system-for-the-operation-of-the-phone… #ethereum,1,0,0,False
377,ilbitcoin@ilBitcoin,"""Jaxx To Be First Dash Wallet for iOS"" http://bitcoinist.net/jaxx-to-be-first-dash-wallet-for-ios/… #cryptonews #ethereum #DASH",0,0,0,False
378,Blockgeeks@Blockgks,6 Reasons Why #Blockchain is Worth Getting Excited http://snip.ly/7je5i #bitcoin #Ethereum,0,0,0,False
379,฿lockchainEd@blockchain_ed,Trade high leveraged $DAO $LSK $ETH and #Bitcoin on Bitmex:  https://bitmex.com/register/pw4ld4,0,0,0,False
380,Coinstats@coinstats,"Ethereum Classic - ETC
Price: $1.83336
Change in 1h: -2.41%
Market cap: $151839381.0
Ranking: 6
#Ethereum Classic #ETC",0,0,0,False
381,WhatToMine@WhatToMine,"Better stick to 8GB #radeon #RX470 version in current #ethereum occupied mining.
http://cryptomining-blog.com/8207-mining-performance-of-msi-gaming-x-amd-radeon-rx-470-4gb/…",1,0,0,False
382,Coinstats@coinstats,"Ethereum - ETH
Price: $12.333
Change in 1h: -0.32%
Market cap: $1021657993.0
Ranking: 2
#Ethereum #ETH",0,0,0,False
383,Ethereum SE@StackEthereum,Is it possible to call the constructor function of an existing contract? http://ethereum.stackexchange.com/questions/7916/is-it-possible-to-call-the-constructor-function-of-an-existing-contract… #ethereum #solidity #security #evm,0,0,0,False
384,Ethereum Price@EthereumPrice_,"#Ethereum: Ether Price Index
1 ETH =0.020243Ƀ XBT = $11.192500 USD
Today: +0.62%⬆︎ Last 24h: +3.22%⬆︎
https://ethereum-price.com",1,0,0,False
387,Rimbit @rimbit,Edits To The Cdn For Faster Browsing http://rimbit.com/posts/12525 #bitcoin #ethereum,0,0,0,False
389,AltcoinWeekly@altcoinweekly,The latest Ethereum price is USD 12.34. For historical #Ethereum price charts - http://buff.ly/2aVcgfC,0,0,0,False
390,CoinGecko@coingecko,The latest Ethereum price is USD 12.34. For historical #Ethereum price charts - http://buff.ly/2aVcCmp,1,0,0,False
391,GX-Coin@gx_coin,#Blockchain listed on top emerging technologies of 2016 from the @wef http://ow.ly/DXD93032dbg #WEF #cryptocurrency #bitcoin #Ethereum,0,0,0,False
393,The Patriot @twittinibra,"Energy &utility regulations are NOT genuine ! We have cartels manipulating the system! Power in #Ken is 5x in #EthQuote TweetBillow Kerrow@BillowKerrow · Aug 10, 2016Banks have defied all previous attempts to regulate them; energy & other utility cos are price regulated to protect consumers. Banks too!",0,0,0,False
395,Talking shit about...@aprettysunset,Has #Ethereum moved to #ProofOfStake? I'm looking to do a little #Ether #mining if not. What other #cryptocurrency would you recommend?,0,0,0,False
396,Crypto Helvetia@CryptoHelvetia,X August's crypto divination pumps: $ETC $BRK $XRP $NXT  ~ Under observation: $ETH $XEM $XCETC57.4%BRK14.8%XRP11.1%NXT16.7%54 votes·Final results,4,4,0,False
398,0xZain@RezigZine,"can't believe how i didn't know this before #OmniDex $OMNI news :  http://bravenewcoin.com/news/asset-holders-to-earn-interest-from-fees-on-decentralized-exchange-omnidex/…
$ETC and $ETH holders should see thisAsset holders to earn interest from fees on decentralized exchange OmniDex » Brave New CoinThe Omni Layer Foundation recently released the latest version of its Decentralized Exchange, OmniDex 2.0.bravenewcoin.com",0,0,0,False
399,/r/Ethereum@r_Ethereum,Is there a safe Android wallet where I control the private keys? http://bit.ly/2beyyL7 #EthereumIs there a safe Android wallet where I control the private keys?reddit.com,0,0,0,False
400,/r/Ethereum@r_Ethereum,DevConf2 invitation letters for visa http://bit.ly/2bfmXyt #Ethereum,0,0,0,False
401,/r/Ethereum@r_Ethereum,Blogger David Seaman Calls Ethereum Classic a Scam; Questions Silbert's and CoinDesk's Roles http://bit.ly/2bfnnVI #EthereumBlogger David Seaman Calls Ethereum Classic a Scam; Questions...reddit.com,1,0,0,False
402,/r/Ethereum@r_Ethereum,Ethereum's 'Lightning Network' Raiden to strike IoT and micropayments http://bit.ly/2bfmLiM #Ethereum,0,0,0,False
403,/r/Ethereum@r_Ethereum,Possible Raiden Network Proof Of Concept By Late August Says Creator Heiko Hees http://bit.ly/2bfmnkc #EthereumPossible Raiden Network Proof Of Concept By Late August Says...Posted in r/ethereum by u/shakedog • 44 points and 2 commentsreddit.com,1,0,0,False
405,E. R. Lund@Z6ATL,"#BuenosDias, #ambient #glitchart posse
https://soundcloud.com/scarrzz/hrf
#Beats1 #FrenchTech #frenchgymnast #tur #vie #AUS #ger #ETH #DTLA #NEWSで妄想Else, if thou refuse to let my people go, behold, to morrow will I...And brought them out, and said, Sirs, what must I do to be saved? And they said, Believe on the Lord Jesus Christ, and thou shalt be saved, and thy house.soundcloud.com",0,0,0,False
406,FunVidClick@FunVidClick,"Thinking Of #Investing In #Ether? Get Started Now! 3% Discount w/ Coupon - 8rRBkl http://dld.bz/eMnVB
#Ethereum",0,0,0,False
407,Bitcoin Updater@BitcoinUpdater,Ethereum Classic Price Technical Analysis – Can ETC Make It? #ethereum http://soco.space/h_.s2Y,2,0,0,False
408,Ameer Rosic@AmeerRosic,Is #Youtube in Trouble? #Blockchain is coming! http://bit.ly/1tgKTVz #ethereum #bitcoin,1,0,0,False
409,CRYPTOCOINTALK@cryptocointalk,The $DAO Token Holders May See 7m $ETC Returned To Them https://cryptocointalk.com/topic/49122-fintechist-the-dao-token-holders-may-see-7m-etc-returned-to-them/… #altcoin #Ethereum #finance #blockchain #exchange,1,0,0,False
410,_rta@_rta_,Replying to @elonmusk and @OpenAILet us then welcome decentralisation with open arms. #ethereum,0,0,0,False
412,Beetcoin@Beetcoin,"Replying to @Beetcoin#Ethereum.index $ETCUSD + $ETHUSD - 

Back to median price.",0,0,0,False
413,Carles Dijous (AAlb)@carlesdijous,#Ethereum's 'Lightning Network' Raiden to strike #IoT and micropayments. http://bit.ly/2aYJH2V,0,0,0,False
416,BitcoinAgile@bitcoinagile,Blogger David Seaman Calls #ethereum Classic a Scam; Questions Silberts and CoinDesks Roles http://helenabitcoinmining.com/2016/08/10/blogger-david-seaman-calls-ethereum-classic-a-scam-questions-silberts-and-coindesks-roles…,0,0,0,False
417,Peter Sullivan@ceemage,"If Michael Phelps was a country all by himself, he would be 40th in the all-time medal table, tied with #CZE & #ETHFive Olympics, five acts of PhelpsHe may have won 21 Olympic golds, but there is nothing straightforward about the road to Rio glory for Michael Phelps, writes Tom Fordyce.bbc.co.uk",0,0,0,False
418,Anbesaw Ashim@anbesaw_ashim,"this is what the world talkin about us, bravo #Eth #Rio2016Tubby Ethiopian swimmer becomes world's favourite athlete of the 2016 OlympicsHe's the most unlikely Olympian in Brazil… but that's exactly why everyone loves the swimmer with the 'dad bod'mirror.co.uk",0,0,0,False
419,BitcoinAgile@bitcoinagile,Blogger David Seaman Calls #ethereum Classic a Scam; Questions Silberts and CoinDesks Roles https://cryptocoinsnews.com/blogger-david-seaman-calls-ethereum-classic-a-scam-questions-silberts-and-coindesks-roles…,2,0,0,False
420,Bitcoin Retweets@bitcoinbot121,#Ethereum Classic Price Technical Analysis – Continue Selling ETC http://ow.ly/pSzi3036a7C by @AayushJs #btc #etc,1,0,0,False
422,Coinstats@coinstats,"Ethereum Classic - ETC
Price: $1.85413
Change in 1h: -6.02%
Market cap: $153553911.0
Ranking: 6
#Ethereum Classic #ETC",0,0,0,False
423,Coinstats@coinstats,"Ethereum - ETH
Price: $12.3907
Change in 1h: +0.31%
Market cap: $1026396341.0
Ranking: 2
#Ethereum #ETH",0,0,0,False
424,Ameer Rosic@AmeerRosic,Could #Blockchain Technology Bankrupt #Spotify? http://bit.ly/1tgKTVz #ethereum #bitcoin,1,1,0,False
426,Aaron Maoate@AaronMaoate,Replying to @bittobtcso are you in favour of $ETH or $ETC?,1,0,0,False
427,kim macleod@bakerygirl9,"Start #Mining #Ether Without Purchasing Any Hardware

3% Discount With Coupon Code 8rRBkl

http://dld.bz/eMnVB",0,0,0,False
428,DMAFinTech@DMAFinTech,#Ethereum's Lightning Network #Raiden to strike #IoT and #micropayments. http://ibtimes.co.uk/ethereums-lightning-network-raiden-strike-iot-micropayments-1575258… #proofofconcept #blockchain,1,0,0,False
429,Chris Timuat@ChrisBizEnglish,Via FinTechSummary: The Three Value Propositions of #Ethereum Classic http://buff.ly/2an6KpO #FinTech #Cryptocurrency #Blockchain …,0,0,0,False
430,Crypto Trader Pro @CryptoTraderPro,"#Ethereum Price Technical Analysis – Targets Achieved, Buy Dips More? by… http://dlvr.it/M0Y5gb #Ethereum #btc",0,0,0,False
431,Bitcoin Sportsbook @SportsbookBTC,"#Ethereum Price Technical Analysis – Targets Achieved, Buy Dips More? by… http://dlvr.it/M0Y5Sq #Ethereum #btc",0,0,0,False
432,BitcoinAgile@bitcoinagile,#ethereum Classic Price Technical Analysis  Continue Selling ETC #bitcoin #crypto #BTC http://bit.ly/2bf0bWc,1,0,0,False
433,Ethereum SE@StackEthereum,what is the logic behind rewarding 5 ETH for mining a block? http://ethereum.stackexchange.com/questions/7914/what-is-the-logic-behind-rewarding-5-eth-for-mining-a-block… #ethereum #ether,0,0,0,False
434,Bitcoin Retweets@bitcoinbot121,"#Ethereum Price Technical Analysis – Targets Achieved, Buy Dips More? http://ow.ly/ZaA930367bO by @AayushJs #btc #usd",0,0,0,False
435,FinTech Summary@FinTechSummary,The Three Value Propositions of #Ethereum Classic http://buff.ly/2an6KpO #FinTech #Cryptocurrency #Blockchain,1,1,0,False
436,Alberto Jauregui | esoteRICK.eth @DisruptBanksy,http://ift.tt/2b7FJHN Ethereum Classic Price Technical Analysis – Continue Selling ETC - newsBTC #ethereum #ether,0,0,0,False
437,laserdario@cryptodario,"With #TheDao funds now secured on $ETC, #ethereum should rethink its life (even harder).",0,0,0,False
438,BlockchainLUX@blockchainLUX,"Until #bitcoin implements segwit, they cannot use lightning . Wonder how long that'll take! #ethereum surging ahead. http://ibtimes.co.uk/ethereums-lightning-network-raiden-strike-iot-micropayments-1575258…",2,1,0,False
439,Ethereum Monkey@EthMonkey,Ethereum Classic Price Technical Analysis - Continue Selling ETC - NEWSBTC #ethereum http://newsbtc.com/2016/08/10/ethereum-classic-price-technical-analysis-continue-selling-etc/…,0,0,0,False
440,Blockgeeks@Blockgks,Why Latin American economies are turning to #bitcoin http://snip.ly/mtab3 #blockchain #ethereum,0,0,0,False
441,Coinstats@coinstats,"Ethereum Classic - ETC
Price: $1.96968
Change in 1h: +0.67%
Market cap: $163120637.0
Ranking: 6
#Ethereum Classic #ETC",0,0,0,False
442,Coinstats@coinstats,"Ethereum - ETH
Price: $12.3511
Change in 1h: -0.48%
Market cap: $1023100190.0
Ranking: 2
#Ethereum #ETH",0,0,0,False
443,Ethereum Price@EthereumPrice_,"#Ethereum: Ether Price Index
1 ETH =0.020355Ƀ XBT = $11.192500 USD
Today: +1.18%⬆︎ Last 24h: +7.09%⬆︎
https://ethereum-price.com",1,0,0,False
444,BlockchainLUX@blockchainLUX,"Obvious that #ethereum will beat #bitcoin to scalabilityQuote TweetMihai Alisie@MihaiAlisie · Aug 10, 2016Exciting times! Raiden network PoC scheduled for August! 

Target 100K transactions per second #ethereum #blockchain https://twitter.com/IanAllison123/status/763285158808125440…",0,0,0,False
445,Gebeya Talent@GebeyaTalent,It was great connecting with IT practitioners from Ethiopia at The Gebeya IT Academy Consultative Forum #Eth,2,6,1,False
447,ፍሬህይወት ነጋሽ Frehiwot Negash@FrehiwotNG,It is just a shame representing our country internationally.I don't mind if we are trying new sport but z physical fittnes makes it 0. #ETH,3,1,1,False
448,Ethereum SE@StackEthereum,"Is there a way in web3 to get a transaction by address and nonce? http://ethereum.stackexchange.com/questions/7912/is-there-a-way-in-web3-to-get-a-transaction-by-address-and-nonce… #ethereum #web3jsIs there a way in web3 to get a transaction by address and nonce?I know I can get the current nonce using eth.getTransactionCount(address), but I'm looking for something like eth.getTransaction(address, nonce) (for arbitrary nonce), similarly to eth.ethereum.stackexchange.com",0,0,0,False
449,Rimbit @rimbit,Us District Judge Makes Critical Claims About Tor’s Security http://rimbit.com/posts/12469 #bitcoin #ethereum,0,0,0,False
450,Anbesaw Ashim@anbesaw_ashim,"#Robelhabte #Rio2016 #ETH Robel was lucky for bieng alive, cos he would have sink",2,0,0,False
451,BitcoinAgile@bitcoinagile,MarilynJean Interactive (MJMI.QB) Expands Into Blockbuster New Crypto-Currency #ethereum - NASDAQcom http://bit.ly/2beQ9o6,0,0,0,False
452,Bitcoin Updater@BitcoinUpdater,MarilynJean Interactive (MJMI.QB) Expands Into Blockbuster New Crypto-Currency Ethereum #ethereum http://soco.space/JbLXRW,0,0,0,False
453,BitcoinAgile@bitcoinagile,#ethereum Classic Price Technical Analysis  Continue Selling ETC #BuyingEther #ETC #ETC/BTC http://bit.ly/2bePxit,1,0,0,False
454,BitcoinAgile@bitcoinagile,#ethereum Classic Price Technical Analysis  Continue Selling ETC - Helena #bitcoin Mining http://bit.ly/2beQ2sC,1,2,0,False
455,BitcoinAgile@bitcoinagile,Ethereums Lightning Network Raiden to strike IoT and micropayments #bitcoin #Ethereum #IoT http://bit.ly/2beN5bM,4,0,0,False
457,Ric Olsen@Ric9871Ric,"Thinking Of #Investing In #Ether? Get Started Now! 3% Discount w/ Coupon - 8rRBkl http://dld.bz/eMnVB
#Ethereum",0,0,0,False
458,Coinstats@coinstats,"Ethereum Classic - ETC
Price: $1.94321
Change in 1h: -0.96%
Market cap: $160926345.0
Ranking: 6
#Ethereum Classic #ETC",0,0,0,False
459,Coinstats@coinstats,"Ethereum - ETH
Price: $12.4287
Change in 1h: +0.21%
Market cap: $1029510790.0
Ranking: 2
#Ethereum #ETH",0,0,0,False
460,Mars@Marsmensch,"RT (via cryptoSqueeze)

There can only be 1 winner. Choose your poison. $ETH $ETC

— Squeeze (@cryptoSqueeze) August 9, 2016",0,0,0,False
461,CoinGecko@coingecko,The latest Ethereum price is USD 12.33. For historical #Ethereum price charts - http://buff.ly/2aUDTFt,1,0,0,False
462,AltcoinWeekly@altcoinweekly,The latest Ethereum price is USD 12.33. For historical #Ethereum price charts - http://buff.ly/2aUDClU,2,0,0,False
463,Ξ Fly Guy Ξ (flyguy.eth)@FlyGuyInTheSky,#ethereum now with a market cap over over $1bn again. #etc $etc firmly in 6th place behind #litecoin,2,0,0,False
464,ether-camp@CampEther,Seen on #hackethercamp https://hack.ether.camp/idea/ethereum-lotto… #ethereum,2,0,0,False
465,Mohammed Siraj@kingofkings4all,What an embarrassment... #ETH #Swimming #Olympics #Rio2016 #King #TRS_Club,0,0,0,False
466,abel mekonnen@MekonnenAbel,please tune to sheger fm they are at it #ETH,1,0,0,False
467,indxio@indxio,#China Market Close || #Bitcoin: $587.22 | 527.78 EUR||  #Litecoin: 0.0032 BTC  || #Ethereum: 0.021 BTC   || $BTC $LTC $ETH $RMB,0,0,0,False
468,Ethereum SE@StackEthereum,how to unlock the ethereum contract account http://ethereum.stackexchange.com/questions/7906/how-to-unlock-the-ethereum-contract-account… #ethereum #accounts #ethereumwalletdapp,0,0,0,False
469,Gebeya Talent@GebeyaTalent,"We thank all those who attended the Gebeya IT Academy Consultative Forum @iceaddis
#Ethiopia #GebeyaTalent #ETH",5,0,0,False
470,BitcoinAgile@bitcoinagile,Investing in #ethereum: The Ultimate Guide to Learning-and Profiting from-Cryptocurrencies - http://bit.ly/2b27f58,0,0,0,False
471,unDevcon2@uDevcon2,@BeachBoyAnnon made the announcement you old coot! @EthereumProject BΞ ONΞ WITH #CORΞ. #ETC #ETH #Ethereum,1,1,0,False
472,Long Hoang@beertocode,"Survived DAO hack, survived Hard Fork, survived ETC. I'm impressed #ethereum",1,0,0,False
473,Blockgeeks@Blockgks,How Will #Blockchain Change Banking? How Won't It? http://snip.ly/a2ci1 #Ethereum #Bitcoin,0,0,0,False
474,Coinstats@coinstats,"Ethereum Classic - ETC
Price: $1.95913
Change in 1h: -2.69%
Market cap: $162242377.0
Ranking: 6
#Ethereum Classic #ETC",0,0,0,False
475,Coinstats@coinstats,"Ethereum - ETH
Price: $12.3849
Change in 1h: +1.02%
Market cap: $1025865577.0
Ranking: 2
#Ethereum #ETH",0,0,0,False
476,Ethereum SE@StackEthereum,About DApp UI Hosting http://ethereum.stackexchange.com/questions/7904/about-dapp-ui-hosting… #ethereum #dappdevelopment #dappsAbout DApp UI HostingIs a DApp also hosted like web application. As i know that smart contracts are stored in the blockchain but what happened with the UI part?ethereum.stackexchange.com,0,0,0,False
477,Ethereum SE@StackEthereum,Ethereum event log removed field http://ethereum.stackexchange.com/questions/7905/ethereum-event-log-removed-field… #ethereum #goethereum,0,0,0,False
478,Monkeyscage@monkeyscage,#Ethereum mini live BOUNTY (50ETH). Read last comment https://bitcointalk.org/index.php?topic=1579733.40… (and prepare a wallet address!),1,2,0,False
479,Rayna ¯\_(ツ)_/¯ @MaliciaRogue,re: The ETC Salvaged from attackDAOs • /r/ethereum http://bit.ly/2aKrSU4 #thedao #ethereum,0,0,0,False
480,ⒽⒶⓃⒶ | ሀና @HanaGebres,"""They call me 'non-athletic' but not 'non-swimmer', so I'll be Michael Philips f #Eth at #Tokyo2020 Olympics󾍇""
#RobelHabte #sarcasm #humor",1,0,0,False
481,ⒽⒶⓃⒶ | ሀና @HanaGebres,"""They call me 'non-athletic' but not 'non-swimmer', so I'll be Michael Philips f #Eth at #Tokyo2020 Olympics""
#RobelHabte #sarcasm #humor",0,0,0,False
482,info@MindspaceGmbH,"After #ethereum ""too big to fail"" now ""socializing losses"" - catching up with traditional financeQuote TweetCoinDesk@CoinDesk · Aug 8, 2016After the $60m Bitfinex heist, customers may come to love or hate the term ""socialized loss"" http://coindesk.com/bitcoin-bitfinex-socialized-loss-uncharted-waters/…",0,0,0,False
483,Igor Klajo@igorklajo,"Genesis Mining discount code #x11 #ethereum #btc #bitcoin #GenesisMining https://genesis-mining.com/a/19845

Use code: 05PaSf",0,0,0,False
484,BitcoinAgile@bitcoinagile,"#ethereum Price Technical Analysis  Targets Achieved, Buy Dips More? #news #channel #BTC http://bit.ly/2bex4ma",0,0,0,False
485,kim macleod@bakerygirl9,"Mine Ethereum In The Cloud, No Hardware Needed! 3% Off With Coupon Code: 8rRBkl

http://dld.bz/eMnVB
#ethereum",0,0,0,False
486,Silicon Talent@silicontalent,"#CoinOffering  becomes first company to issue shares as #ethereum tokens using #blockchain #smartcontractsCoinOffering Becomes First Company to Issue Shares in Ethereum BlockchainThe world’s first company offering shares issued as Ethereum tokens has been registered in the Marshall Islands. Unlike its predecessors, it functions both inthe-blockchain.com",2,0,0,False
487,Michael Devon@bmikedaboss,What the hell happened to staying fit for sport... #ETH #Swimming #Olympics #Rio2016 #TRS_Club,0,0,0,False
489,Mike E. Mars@MikeEMars,#ETC Salvaged from the #DAO #Hack -White Hat Jordi Baylina secures stolen #Ethereum funds http://cur.lv/117o28,2,0,0,False
490,Nikstrade@Nikstrade,"Replying to @ryuvaraj26No i m here for #ethereum & some here & there things,,",2,1,0,False
491,Bitcoin Updater@BitcoinUpdater,Ethereum: The Battle Of The Chains #ethereum http://soco.space/wJFWs.,0,0,0,False
492,Rimbit @rimbit,Username Change http://rimbit.com/posts/12509 #bitcoin #ethereum,0,0,0,False
493,⛧ God of Gaming ⛧@TheGodofGamez,What lies behind us and what lies before us are small matters compared to what lies within us. $ETH,0,0,0,False
494,Crypdex@CrypdexLLC,converted 19.17 mBTC $11.22 USD to ETH #Ethereum,0,0,0,False
495,Alberto Jauregui | esoteRICK.eth @DisruptBanksy,"http://ift.tt/2aEVv7C Ethereum Price Technical Analysis – Targets Achieved, Buy Dips More? - newsBTC #ethereum #ether",0,0,0,False
496,Alberto Jauregui | esoteRICK.eth @DisruptBanksy,http://ift.tt/2aR1IRc Ethereum (ETH and ETC) Price Trends (Week of August 8th) - CoinTelegraph #ethereum #ether,0,0,0,False
497,Sambodhi Prem@SambodhiPrem,"# Priceless:
“The Complete Story of Ethereum so far” by @WhalePanda https://medium.com/@WhalePanda/the-complete-story-of-ethereum-so-far-b85ba182bb35#.7drbiq3z7…
$ETC #ethereum",0,0,0,False
498,Marie-Claire PEROUX@MCPLLM,Comprendre les #smartcontracts http://blog.ecan.fr/les-smart-contracts-pour-non-developpeurs/… #blochain #ethereum,1,1,0,False
499,Ameer Rosic@AmeerRosic,5 Blockchain Applications That will Revolutionize The world http://bit.ly/1U4aha8 #Blockchain #Bitcoin #ethereum,0,0,0,False
500,Zecharias Zelalem@ZekuZelalem,#Ethiopia 's  #RobelHabte. 59th place at #Rio2016 . With him is the #ETH swim federation president who's HIS DAD.,10,17,1,False
501,Vella (Real account from April 2016)@cryptotrader85,"$KR now over 27,000 sats & was over 30,000 sats earlier today for a 132% rise in 1 day.  

#KR #ethereum #smartcontracts",0,0,0,False
502,Ethereum Monkey@EthMonkey,"Ethereum Price Technical Analysis - Targets Achieved, Buy Dips More? - NEWSBTC #ethereum http://newsbtc.com/2016/08/10/ethereum-price-technical-analysis-targets-achieved-buy-dips/…",1,0,0,False
503,BitcoinAgile@bitcoinagile,"#ethereum Price Technical Analysis  Targets Achieved, Buy Dips More? - NEWSBTC #ethereumusd http://bit.ly/2b1QVBu",1,3,0,False
504,Blockgeeks@Blockgks,The #Blockchain is the new Google http://snip.ly/7tjfx #Ethereum #Bitcoin #Cryptocurrency,0,0,0,False
505,आनन्द अशोक@anandakarkee,"If Michael Phelps was a country, he would be ranked
joint 39, with Ethiopia -with 21 #GOLD in #Olympics
Phelps in 5 Games #ETH 13 #Rio2016",9,0,0,False
506,Ameer Rosic@AmeerRosic,5 Blockchain Applications That Will Transform Society http://bit.ly/1U4aha8 #Blockchain #Bitcoin #ethereum,0,0,0,False
507,Mr. O@nurselam46,"https://youtu.be/OJ0bxMH7gKU 
The slowest swimmer in #Rio2016 I bet he cant run neither unlike most #ETH athletes,this dude is 2fat2 b an athlete",0,0,0,False
508,Shyam Agarwal@shyamagarwalaol,"If Michael Phelps was a country, he would be ranked joint 39, with Ethiopia - with 21 #GOLD in #Olympics
Phelps in 5 Games
#ETH 13
#Rio2016",0,0,0,False
510,⛧ God of Gaming ⛧@TheGodofGamez,Ignorant men don't know what good they hold in their hands until they've flung it away. $ETH,0,0,0,False
511,Hashpuppy@buymoko,"NOW could use frictionless peer to peer payment cryptocurrency.  Could be a good use case for #Ethereum network.Quote TweetMiguel R. Camus@miguelrcamusINQ · Aug 10, 2016NOW wants to disrupt traditional telco biz model, create a broadband sharing economy @InquirerBiz",2,0,0,False
512,𝕄𝕒𝕩 𝕊𝕜𝕪@_lordmax_,"The elephant in #Bitcoin/#ethereum: decentralized currency that nobody can control,is controlled by dozen people, w junior high level drama.",6,1,0,False
515,Ric Olsen@Ric9871Ric,"Mine Ethereum In The Cloud, No Hardware Needed! 3% Off With Coupon Code: 8rRBkl

http://dld.bz/eMnVB
#ethereum",0,0,0,False
516,tryb@trybgroup,#Bitcoin #Blockchain #Ether Rise Of The Crypto Currencies by .@sharecafetweets http://sharecafe.com.au/tc.asp?a=AV&ai=40643…,0,0,0,False
517,Bloody Hammers@BloodyHammers,Huge thanks to @Filtr for putting #Ether on their #HardAndHeavyUpdate Playlist. Listen here: https://open.spotify.com/user/filtr.ca/playlist/55xXxpJZbbr4bKX2rrwnLM… #spotifyplaylistMETAL NOW - open.spotify.com,0,0,0,False
518,Blockgeeks@Blockgks,#Airbnb just acquired a team of bitcoin and #blockchain experts http://snip.ly/66ft0 #Ethereum,2,0,0,False
519,Coinstats@coinstats,"Ethereum Classic - ETC
Price: $1.98245
Change in 1h: +0.11%
Market cap: $164165212.0
Ranking: 6
#Ethereum Classic #ETC",0,0,0,False
