,user,text,likes,retweets,replies,is_thread
0,pfire#QueenOfPopCulture  #CivilWrites@firefire100,like i can love @TeyanaTaylor and @imanshumpert any damn more  #ETHER,47,121,0,False
1,Jason Ramchandani@jas0nram,"2 #hackathon s, 2 #continents, one weekend! #TRDevelopers #blockchain #supplychain #ethereum #API Gonna be a blast!",12,11,0,False
2,Andrea Piazza@AndreaSDPiazza,#ethereum is the new #java via @coinbase @sjrosenblum #innsummit,2,1,0,False
3,Julien Béranger@julienbrg,"How to become a #blockchain 'consultant' in 90 hours: https://quora.com/What-should-I-read-or-watch-to-be-a-credible-Blockchain-Consultant-for-banks-and-high-tech-companies-if-I-have-90-hours-to-dedicate-to-it/answer/Julien-B%C3%A9ranger-2?srid=ilqx… #bitcoin #ethereum #crypto #daoWhat should I read or watch to be a credible Blockchain Consultant for banks and high-tech compan...Julien Béranger's answer: You want to : * Read and understand Satoshi’s, Ethereum and IOTA White Papers. * Make at least one transaction using Bitcoin (please). * Deploy and interact with at least...quora.com",4,0,0,False
4,Adn@AdnaneDALHi,"Starting soon my #EdX course from #ETH institut of Technology,Learn & understanding more about #smartcities projects",1,0,0,False
5,ether-camp@CampEther,Seen on #hackethercamp https://hack.ether.camp/idea/decentralized-autonomous-political-party… #ethereum,2,2,0,False
6,BIOTS@biotsCH,@mandeleil explaining the time-lock smart contract #BIOTS2016 #ETH_en #Blockchain #ethereum,6,2,0,False
7,"Brian Laung Aoaeh, CFA@brianlaungaoaeh",The bizarre fallout of Ethereum’s epic fail x @davidzmorris via @FortuneMagazine http://for.tn/2bXcNNX? | #Blockchain #Crypto #Ethereum,1,0,0,False
8,Daving@unclemusclez,"If not #smartcontracts, what about the speed of light? #hexaVC #ethereum #Bitcoin #ExternalityGiveAway",10,4,0,False
9,@JPlepel,"A decentralized Youtube, if done right...    #blockchain #eth #btc",1,0,0,False
10,Megabyte@megabyte101,The Theory of a #Blockchain Circular Economy http://snip.ly/8snff #Ethereum #bitcoin #crypto #cryptocurrency #btc,2,0,0,False
11,Jonas Haberkorn@JonasHaberkorn,"""The #Ethereum virtual machine is turing-complete, but that doesn’t mean that everything should be computed on it.""

https://medium.com/@graycoding/lessons-learned-from-making-a-chess-game-for-ethereum-6917c01178b6#.y9ci4cvu2…",2,1,0,False
12,indxio@indxio,#China Market Close || #Bitcoin: $605.5 | 540.85 EUR||  #Litecoin: 0.0033 BTC  || #Ethereum: 0.0192 BTC   || $BTC $LTC $ETH $RMB,1,1,0,False
13,Thorsten Heller@ThoHeller,"#Krypton Abandons #Ethereum for #Bitcoin Proof of Stake #Blockchain after 51% #Attack
http://buff.ly/2c8oDZf",5,3,0,False
14,Christian Blaze@christianblaze,The end of quantitative easing... https://instagram.com/p/BJ4bd_5h_C3/ #bitcoin #crypto #ethereum #money #QE #blockchain,1,1,0,False
15,Chris@ethchris,Source location highlighting in browser-#solidity / remix https://reddit.com/r/ethereum/comments/51fmdq/browsersolidity_remix_debugger_now_highlights_the/… #ethereumBrowser-Solidity / Remix Debugger now Highlights the current...Posted in r/ethereum by u/chriseth • 21 points and 1 commentreddit.com,11,29,0,False
16,Blockchain times@crypto_days,"All Eyes on Ethereum Classic As Hacked DAO Funds Is On The Move http://newsbtc.com/2016/09/06/eyes-ethereum-classic-hacked-dao-funds-move/…
#Ethereum #DAO #ETC #altcoin CryptoAll Eyes on Ethereum Classic As Hacked DAO Funds Is On The MoveDumping the funds across exchanges supporting Ethereum Classic would have been a logical decision. However, The DAO hacker never intended to do so.newsbtc.com",1,0,0,False
17,Jerome de Tychey @jdetychey,"Flight #insurance w/ #ethereum by @kpi
...
Test it!
#insurtech #blockchain
https://medium.com/@skarpischek/youll-love-to-be-late-for-devcon-two-e711bbe750c0#.gdr0t9ots…",2,0,0,False
18,Coinality@Coinality,"NEW #BLOCKCHAIN CAREER @coinbase (SF): Software Engineer - Exchange - http://grnh.se/xvmpn8
#BTC #ETH #LTC #NodeJS #Redis #GDAX",0,0,0,False
19,Randy Hilarski@RandyHilarski,Ethereum For Investors #11 - When Is A Good Time To Bu... http://slninja.com/25jv #Bitcoin #Ethereum #CryptoCurrency,9,3,0,False
20,CL Taylor@DigitWealthNews,FintekNews-Another Bitcoin TV Show http://goo.gl/aRBspK #fintech #MrRobot #startup #tech #bitcoin #ethereum #VC,4,2,0,False
21,Gnosis@gnosisPM,"Will Vitalik wear the red happy hat during Devcon 2 again?
http://bit.ly/2c5wPGw
#Ethereum #devcon2 #predictionmarket",11,5,0,False
22,Pelle Brændgaard (we are hiring)@PelleB,What any #Ethereum developer has been waiting for: Getting started with INFURA http://buff.ly/2bVhnPB @infura_io,6,3,0,False
23,CloudEXPO ®@CloudExpo,Encore Presentation of #Blockchain Keynote ▸ http://bit.ly/28NNsZ9 #BigData #IoT #ML #Ethereum #Bitcoin #DataCenter #DigitalTransformation,14,18,0,False
24,Lex@LexSokolin,"Another day another #hack. #Ethereum based smart contracts co @Krypton is switching tech to #Bitcoin after attack 

https://btcmanager.com/news/tech/51-percent-attack-hits-krypton-moves-to-pos/…",1,1,0,False
25,Timo Oinonen@oinonen_t,"Lot's of speculative value in #XMR. 27x more transactions / day for #ETH, still XMR valued at 1/10 of ETH. #monero #ethereum",1,0,0,False
26,Bandwidth Barn@BandwidthBarn,Ready to kick off the first @BlockchainAcad Ethereum Beginner Course. #Ethereum #Cryptocurrency,10,2,0,False
27,Infura@infura_io,"Write your own JavaScript #Ethereum Account Explorer using #INFURA IN 40 lines of code.A Step-by-Step Getting Started Guide for Infura's Ethereum APIInfura provides developers and enterprises with simple, reliable access to Web3 tools and infrastructure. Our Ethereum and IPFS API suite serves and supports thousands of decentralized applications...blog.infura.io",11,4,0,False
28,Foundups@Foundups,@eth_classic un #Devcon2 making big announcement on Sept 18th #Shanghai via  #ETC funding #Ethereum ClassicA message to the amazing ETC community. ETC Dev funding Secured.I am Mike Trout I the creator of the Open !nnovation Framework that was complete and shared with Mihai Alisie (http://bit.ly/SkypeLOGs). I am reaching out to...youtube.com,3,0,0,False
29,JΞFF@jeffehh,Little Joshua. Latest #ethereum coder-to-be ,84,10,7,False
30,Crypto Games@Crypto_Games,"Gambling with ethereum, read why: http://crypto-news.net/gambling-with-ether/… #ethereum",4,1,0,False
31,iuri matias@iurimatias,Transaction Relay: transaction fees of Ethereum contracts and transactions paid by any eip20 token. #ethereumiurimatias/TransactionRelayTransaction Relay enables transaction fees of Ethereum contracts and transactions to be paid by any Currency - iurimatias/TransactionRelaygithub.com,3,4,0,False
32,Gastracker@gastrackerio,#Ethereum $ETC network Report for the Week 29 Aug 2016 - 05 Sep 2016. New tx count/value/gas histogram & summary. http://report.gastracker.io/2016/weekly-20160829.html…,2,5,0,False
33,Randy Hilarski@RandyHilarski,Frm BBC Journalist: Why Bilderberg Won't Allow BREXIT http://slninja.com/q3jv #Bitcoin #Ethereum #CryptoCurrency,7,0,0,False
34,Your OG @LRNROSE,RT @redpotatoes:  RT @firefire100: like i can love @TeyanaTaylor and @imanshumpert any damn more  #ETHERThe following media includes potentially sensitive content. Change settingsView,11,19,0,False
35,MinerGate@MinerGate,"Version 6.5 of our GUI application is released! Time to mine #Monero, #Ethereum and more with us. Get it here http://goo.gl/drSqwZ",9,6,2,False
36,Sonya Kuhnel@SonyaKuhnel,Great start to the #Ethereum Beginner Course today @BandwidthBarn with @paulkhls. Excited to learn about Ethereum!,4,2,1,False
37,Randy Hilarski@RandyHilarski,"Banks Facing Uber Decimation (Thx, Bitcoin!), Former C... http://slninja.com/64jv #Bitcoin #Ethereum #CryptoCurrency",10,1,0,False
38,Taylor Plumer@taylorbplumer,Downtown Palo Alto: a place where you just won't ovearhear people talk about #bitcoin but also ether #ethereum #cryptocurrencies,2,1,0,False
39,Blockchain Academy@BlockchainAcad,Excited to be hosting our very 1st #Ethereum Beginner Course @BandwidthBarn today with @paulkhls! #blockchain,12,9,1,False
40,Brian Ahier@ahier,Review new @Crackle TV show #StartUp: Inventing a Better @Bitcoin http://nytimes.com/2016/09/06/arts/television/review-inventing-a-better-bitcoin-in-startup-new-on-crackle.html… #blockchain #ethereum,6,2,0,False
41,Hiro Shimo(志茂 博)@hiroshi_shimo,"browser-solidity debugger!!

https://m.reddit.com/r/ethereum/comments/51fmdq/browsersolidity_remix_debugger_now_highlights_the/…
#ethereum",1,0,0,False
42,Julien Maldonato@Maldoju,DApp to share the risks of delays and cancellations when flying to Shanghai for devcon2! https://medium.com/@skarpischek/youll-love-to-be-late-for-devcon-two-e711bbe750c0#.gdr0t9ots… #ethereum #insurtech,3,1,0,False
43,Charles Douthat@creiddouthat,The Stolen #DAO Funds Are On the Move http://bit.ly/2bRRouj via @CoinDesk $ETC $ETH #TheDAO #Ethereum @ethereumproject @The_DAO_Project,2,3,0,False
44,Bob Summerwill@BobSummerwill,"Browser-Solidity / Remix Debugger now Highlights the current Source Line
https://reddit.com/r/ethereum/comments/51fmdq/browsersolidity_remix_debugger_now_highlights_the/?st=isro110w&sh=5691ba9b…
Thanks, Yann!
#ethereum #solidity #remixBrowser-Solidity / Remix Debugger now Highlights the current...Posted in r/ethereum by u/chriseth • 22 points and 1 commentreddit.com",7,3,0,False
45,Ameer Rosic@AmeerRosic,Could #Blockchain Technology Bankrupt #Spotify? http://bit.ly/1tgKTVz #ethereum #bitcoin,4,3,0,False
46,jsw@jeffscottward,"#Ethereum #Blockchain #uPort
Disrupting passwords, identity, ownership and sovereignty in a single blow.Quote TweetDavid Andolfatto@dandolfa · Sep 6, 2016""Invention requires a long-term willingness to be misunderstood."" https://twitter.com/newsycombinator/status/773008516680413184…",4,1,0,False
47,REBECA AIDA@REBECAAIDA,"Retweeted MinerGate (@MinerGate):

Share your #Ethereum choice, let your voice be heard! #ETC or #ETH? Winning... http://fb.me/1mZGUJ52q",1,0,0,False
48,Vella (Real account from April 2016)@cryptotrader85,"$KR will soon change over to #Bitcoin Proof of Stake #Blockchain More updates soon.

#Krypton #ETH #ETC #smartcontracts",1,0,0,False
49,NEWSBTC@newsbtc,#Ethereum Price #Technical_Analysis – #ETH Approaching Break. http://bit.ly/2cCM3rF,3,5,0,False
50,Bitcoin Directory@dir4bc,Students at #Berlin University Build #Chess Game on #Ethereum: A group of students from the… http://dlvr.it/MC0Hj3,1,2,0,False
51,Ian Merrington@CapeInnovation,Up Skilling #fintech #ethereum with @MichaelJordaan thx @BlockchainAcad and @paulkhls @BandwidthBarn a good morning,4,0,0,False
52,The Paypers@ThePaypers,.@covertress swaps coin and abandons #Ethereum #Bitcoin http://tinyurl.com/zeqxmxr,2,0,0,False
53,Shermin Voshmgir@sherminvo,"transaction relay by @iurimatias #ethereumQuote TweetEduardo@Codiox · Sep 4, 2016Pay for #Ethereum Dapps and transactions using any EIP20 Compatible Token. @iurimatias @avsa @VitalikButerin
http://themerkle.com/introducing-transaction-relay-pay-for-ethereum-contracts-and-transactions-with-any-cryptocurrency/…",4,6,0,False
54,Ameer Rosic@AmeerRosic,Is #Youtube in Trouble? #Blockchain is coming! http://bit.ly/1tgKTVz #ethereum #bitcoin,4,1,0,False
55,TechPORTFOLIO@TechPORTFOLIO,"Theft forced #Ethereum developers to clean house, and the fix ethically split users ► http://newsr.ms/bEsBgmWGIF",1,1,0,False
56,Nathan Elliott@n82point0,Thanks @diiorioanthony for revealing the cryptocurrencies @apple approves of. #bitcoin #litecoin #ethereum #ripple #dogecoin,6,1,0,False
57,Blockchain Brokerage@TBB_one,$KR has dropped $ETH #blockchain due to severe flaws should KR consider utilizing @wavesplatform & its security fts?Yes100%No0%30 votes·Final results,7,10,0,False
58,Charlie McHenry@DonCarlitos,Students at Berlin University Build Chess Game on Ethereum https://news.bitcoin.com/berlin-students-chess-ethereum/?utm_source=twitter&utm_medium=social&utm_campaign=SocialWarfare… #blockchain #ethereum,1,0,0,False
59,Antonio Mulatu@RasAntonioM,'What unites us is greater than what divides us' Governments come & go but people live together #Love #peace #tolerance #caring&sharing #ETH,1,0,0,False
60,Ameer Rosic@AmeerRosic,"Job Opportunity: We are looking for #Blockchain Content writers (Paid) Email Ameer@blockgeeks.com #Bitcoin #EthereumQuote TweetBlockgeeks@Blockgks · Aug 18, 2016Job Opportunity: We are looking for #Blockchain Content writers (Paid) Email Ameer@blockgeeks.com #Bitcoin #Ethereum",2,1,0,False
61,Simon de la Rouviere @simondlr,Help us fund a Common Press grant on Benefactory to cover the security sessions at #devcon2. http://benefactory.cc/grants/0x39590f0b13693aeb5e16a414be8ba28b4c382cc6…. #ethereum,2,0,0,False
62,BTCMANAGER@btc_manager,"'51 Percent Attack' Hits #Krypton, Moves to PoS...
https://btcmanager.com/news/tech/51-percent-attack-hits-krypton-moves-to-pos/…
#blockchain #bitcoin #crypto #ethereum",2,1,0,False
63,Blade @BIade_,"I liked a @YouTube video from @_jayjoker http://youtu.be/mY-oG7bgQ0c?a ""High Tide"" [OCC 224] #T10 #ETH #GoE",1,1,1,False
64,Bronx Digital Online@Bronx_Digital,"Don't forget to check out @TUXExchange, a new exchange with a focus on simplicity. $BTC $LTC $DOGE $PPC $DASH $ETH",4,5,0,False
65,Christoph Hering@HeringChristoph,"+10 digital currencies, 3 sec trans, easy name-ID, 44 languages, zero costs = 1 link http://ow.ly/uwnl302FKtc - #BitShares #Bitcoin #Ethereum",1,0,0,False
66,Brian Ahier@ahier,Lessons learned from creating Chess game on #ethereum http://bit.ly/2bQK2lR by @graup #blockchain,4,3,0,False
67,Breakout Coin@BreakoutCoin,"#Krypton Drops #Ethereum #Blockchain Due To “Deadly Exploit” - http://goo.gl/alerts/6kn7w #GoogleAlerts #ETH #CryptoNewsKrypton Drops Ethereum Blockchain Due To “Deadly Exploit”The entire story about Krypton is a rather interesting one. Although the cryptocurrency survived a 51% attack, the team decided to switch the codebase for their blockchain. Instead of using the Etherethemerkle.com",1,1,0,False
68,Lefteris Karapetsas@LefterisJP,"The send(0) ""bug"" that caused the redeployment of the WHG withdrawal contract is getting fixed. #ethereumQuote TweetChris@ethchris · Sep 6, 2016Replying to @ChrJentzschabout to be fixed: https://github.com/ethereum/solidity/pull/1008…",4,1,0,False
69,Ellines.com@EllinesSocial,"Charalampos Anastasiou - One of the top particle #physicists
http://ellines.com/en/famous-greeks/30072-one-of-the-top-particle-physicists/…
#ellines #ETH #CERN #scientist",2,1,0,False
70,BitcoinAgile@bitcoinagile,SingularDTV Creating Entertainment On The #ethereum #blockchain http://bit.ly/2cyNZQN,2,1,0,False
71,Alexander Ainslie@AAinslie,.@el33th4xor #TheDAO Teacher's Funds Are On the Move http://bit.ly/2bRRouj #DAO #ETH #ETC,3,4,0,False
72,Crypto Niya@cryptoniya,Replying to @ToxicMaximalismwe are slowly starting to take over the world #cryptocurrency #btc #eth #dash #xmr,0,0,0,False
73,Crypto Niya@cryptoniya,everyone's financial future is threatened by us! We are the future! #cryptocurrency #btc #xmr #eth,0,0,0,False
74,/r/Ethereum@r_Ethereum,"BraveNewCoin launches finance data Oracles, including Ethereum, expanding the usefulness of smart c... http://bit.ly/2cbnujD #EthereumBraveNewCoin launches finance data Oracles, including Ethereum,...Posted in r/ethereum by u/Coinosphere • 37 points and 14 commentsreddit.com",1,0,0,False
75,/r/Ethereum@r_Ethereum,Set up your own Ethereum Private Network in these simple steps! http://bit.ly/2czeiDE #EthereumSet up your own Ethereum Private Network in these simple steps!Posted in r/ethereum by u/harshpokharna • 17 points and 7 commentsreddit.com,2,0,0,False
76,/r/Ethereum@r_Ethereum,Ethereum Classic in need of name change http://bit.ly/2cboqnZ #EthereumEthereum Classic in need of name changeEthereum is registered trademark of Etherum foundation so ETC will need to rebrand not to violate...reddit.com,1,0,0,False
77,/r/Ethereum@r_Ethereum,Is Rchain's (Synereo's take on casper) sharding system sound? Will Ethereum take a similar approach? http://bit.ly/2cboBQg #EthereumIs Rchain's (Synereo's take on casper) sharding system sound? Will...for reference: https://blog.synereo.com/2016/09/05/meet-rchain-the-first-scalable-blazing-fast-turing-complete-blockchain/reddit.com,1,0,0,False
78,Timo Ξberhard@ZhuBajie72,"#Octahedrons everywhere... 

#Ethereum #Bitcoin #newparadigm",1,1,0,False
79,Golden Gateway@GoldenGatewayUS,The Stolen DAO Funds Are On the Move http://officialgoldengateway.blogspot.com/2016/09/the-stolen-dao-funds-are-on-move.html… #ethereum,1,1,0,False
80,Timo Ξberhard@ZhuBajie72,Replying to @ZhuBajie72Most def #uberbull (lil hint >>> #stochRSI heavily #oversold for 126 days) and ready to #moon... #Ethereum #Ether $ETH $ETHEUR @krakenfx,0,0,0,False
81,⛧ God of Gaming ⛧@TheGodofGamez,Fear of failure is one attitude that will keep you at the same point in your life. $ETH,1,0,0,False
82,ether-camp@CampEther,Seen on #hackethercamp https://hack.ether.camp/idea/trustless-token-management-registry-and-syndication… #ethereum,1,0,0,False
83,matthew adams@matthew_adams10,Jetcoin advertisement for SKY GRANDE SINGAPORE GP https://youtu.be/q1FMYUtS4y0 via @YouTube $jtc $btc $eth $waves $lsk $start $blitz $wbbSKY GRANDE SINGAPORE GPRSVP http://www.skygrandeprix.sg/jetcoin/youtube.com,0,0,0,False
84,WLST.com@wlstcom,The Stolen DAO Funds Are On the Move - CoinDesk #DAO #TheDAO #Ethereum #EthereumClassic http://coindesk.com/dao-hacker-moving-millions-ethereum-blockchain…,0,0,0,False
85,ETHNews@ETHNews_,Decentralized Ether Mixer Smart Contract #Ether #Ethereum #smartcontracts http://ow.ly/pw6T303XyHS,1,0,0,False
87,CoinGecko@coingecko,The latest Ethereum price is USD 11.6. For historical #Ethereum price charts - http://buff.ly/2cz35pv,0,0,0,False
88,AltcoinWeekly@altcoinweekly,The latest Ethereum price is USD 11.6. For historical #Ethereum price charts - http://buff.ly/2cz3BnC,1,0,0,False
90,kim macleod@bakerygirl9,"Thinking Of #Investing In #Ether? Get Started Now! 3% Discount w/ Coupon - 8rRBkl http://dld.bz/ePx6q
#Ethereum",1,0,0,False
91,digit@_digit_,The Stolen DAO Funds Are On the Move || #Ethereum #EthereumClassic #TheDAO $ETH $ETC #Poloniex - https://crd.ht/AiSxqvt,0,0,0,False
93,Everex@everexio,"Everex has created #Cryptocash – It's a unit of existing local fiat currency, digitized on the #Ethereum blockchain.
https://medium.com/everex/everex-and-ethereum-bring-financial-inclusion-to-all-ec75904447ce#.de81l9831…",8,8,0,False
94,Blockgeeks@Blockgks,"#Blockchain is confusing, but it doesn't have to be. http://blockgeeks.com #Ethereum #bitcoin",1,0,0,False
95,Ethereum UAE@Ethereum_UAE,The DAO Hacker is Moving Millions http://ift.tt/2c5s2ou #Ethereum,1,0,0,False
96,Bobe'bot@Bobe_bot,"1 #BTC = 607.0846 #CHF
1 #ETH = 11.8238 #CHF
1 #DOGE = 0.000219191841 #CHF
sources: @cryptonatorcom @hellobity",0,0,0,False
97,Faith Emmanuel@residualbitcoin,The Stolen DAO Funds Are On the Move - CoinDesk #Ethereum #EthereumClassic #Featured http://bit.ly/2cyTDT2  #Res…,0,0,0,False
98,Timo Ξberhard@ZhuBajie72,"That #Ether #pump and 100% #retrace kinda sucked as well though... 

#Ethereum
$ETH
#WTF
...............................................???",0,0,0,False
99,BitcoinAgile@bitcoinagile,The Stolen DAO Funds Are On the Move - CoinDesk #Ethereum #EthereumClassic #Featured http://bit.ly/2cyTDT2,1,0,0,False
100,Timo Ξberhard@ZhuBajie72,"Back from da wild, #Bitcoin bears! --- #Ethereum #newparadigm",1,1,0,False
101,Francisco Gordillo@FGordillo,#bitcoin #blockchain The DAO Hacker is Moving Millions: More than $5m worth of digital curre... http://bit.ly/2c2dmYL #ethereum #ether,0,0,0,False
102,BitcoinAgile@bitcoinagile,The DAO Hacker is Moving Millions - CoinDesk #Bitcoin #Blockchain #Ethereum #TheDAO http://bit.ly/2cyRTJD,1,0,0,False
103,Ethereum SE@StackEthereum,Where in EthereumJ transaction signature is validated? http://ethereum.stackexchange.com/questions/8552/where-in-ethereumj-transaction-signature-is-validated… #ethereum #ethereumj #signature,1,0,0,False
105,/r/Ethereum@r_Ethereum,31 Projects to Demo at the International Blockchain Week http://bit.ly/2c57D2M #Ethereum,0,0,0,False
106,/r/Ethereum@r_Ethereum,World’s Largest Freight Company to Use Blockchain Tech for Asset Management http://bit.ly/2bVqqTH #EthereumWorld’s Largest Freight Company to Use Blockchain Tech for Asset...Posted in r/ethereum by u/AQuentson • 21 points and 0 commentsreddit.com,1,0,0,False
107,Francisco Gordillo@FGordillo,#bitcoin #blockchain MIT’s First Digital Currency Director is Transitioning Out: MIT Media L... http://bit.ly/2c58MXM #ethereum #ether,1,1,0,False
108,Get Free Dogecoin@GetDogecoin,"GET FREE #DOGE
Win dogecoin every 60 minutes
http://goo.gl/hE5Bk6
#doge #dogecoin
#Ethereum
#bitcoin #litecoin #PrimeDay",0,0,0,False
109,Faith Emmanuel@residualbitcoin,SingularDTV Creating Entertainment On The #ethereum #blockchain http://bit.ly/2cyNZQN  #ResidualBitcoin,0,0,0,False
111,ExploreTraveler@exploretravel1,"RT @EthereumPrice_: #Ethereum: Ether Price Index
1 ETH =0.018970Ƀ XBT = $11.664950 USD
Today: -1.46%⬇︎ Last 24h: -1.04%⬇︎
https://t.co/2G5M…",0,0,0,False
112,Ethereum SE@StackEthereum,Where in EthereumJ transaction signature is validated? http://ethereum.stackexchange.com/questions/8552/where-in-ethereumj-transaction-signature-is-validated… #ethereum #ethereumj #signature,2,0,0,False
113,Ethereum Price@EthereumPrice_,"#Ethereum: Ether Price Index
1 ETH =0.018970Ƀ XBT = $11.664950 USD
Today: -1.46%⬇︎ Last 24h: -1.04%⬇︎
https://ethereum-price.com",0,0,0,False
114,a5ym4e@a5ym4e,#Krypton abandons #ethereum for #Bitcoin proof-of-stake #blockchain after 51% attack http://bit.ly/2bZ3Y8j @CryptoCoinsNews @covertress,0,0,0,False
116,Alan Meckler@alanmeckler,http://cryptocurrencypubcon.com in NYC Oct. 8th has several special sponsorship opportunities.  #ethereum #bitcoin #blockchain,1,0,0,False
117,Red Riding Wolves™@LilRedWolves,@ethersk8er getting some air over the box  #ETHER #Ethersk8er #5thElement… https://instagram.com/p/BKB0wQVgmI6/,1,1,0,False
118,Faith Emmanuel@residualbitcoin,Another #bitcoin TV Show #ethereum #fintech #MrRobot #startup #tech #VC http://bit.ly/2cyIL7G  #ResidualBitcoin,0,0,0,False
119,BitcoinAgile@bitcoinagile,Another #bitcoin TV Show #ethereum #fintech #MrRobot #startup #tech #VC http://bit.ly/2cyIL7G,3,3,0,False
121,samim@samim,"'a 51 percent attack' - how much bad news can #Ethereum take until it collapses?Quote TweetLex@LexSokolin · Sep 6, 2016Another day another #hack. #Ethereum based smart contracts co @Krypton is switching tech to #Bitcoin after attack 

https://btcmanager.com/news/tech/51-percent-attack-hits-krypton-moves-to-pos/…",2,1,2,False
124,CHASITY@redpotatoes, RT @firefire100: like i can love @TeyanaTaylor and @imanshumpert any damn more  #ETHER,0,0,0,False
126,Faith Emmanuel@residualbitcoin,Berlin University Students Build Chess Game on #ethereum #Berlin #University #Chess http://bit.ly/2cyCTeD  #Resi…,0,0,0,False
128,BitcoinAgile@bitcoinagile,Berlin University Students Build Chess Game on #ethereum #Berlin #University #Chess http://bit.ly/2cyCTeD,1,0,0,False
129,ETHNews@ETHNews_,#Berlin #University Students Build #Chess Game on #Ethereum #smartcontracts http://ow.ly/gg8m303XgGS,2,1,0,False
130,🆄🆁🆈🅽.🅴🆃🅷 ⟠ @auryn_macmillan,Just realised how much #Ethereum swag I'm going to miss out on not going to #devcon2...GIF,3,1,0,False
131,Glenn De Backer@glenndebacker,Students at Berlin University Build #Chess Game on #Ethereum - https://news.bitcoin.com/berlin-students-chess-ethereum/… #blockchain,1,1,1,False
133,Faith Emmanuel@residualbitcoin,Week 29 Aug 2016 - 05 Sep 2016 #Ethereum $ETC http://report.gastracker.io/2016/weekly-20160829.html…  #ResidualBitcoin,0,0,0,False
134,BitcoinAgile@bitcoinagile,Week 29 Aug 2016 - 05 Sep 2016 #Ethereum $ETC http://report.gastracker.io/2016/weekly-20160829.html…,0,0,0,False
138,Ethereum SE@StackEthereum,"Methodological security review of a smart contract http://ethereum.stackexchange.com/questions/8551/methodological-security-review-of-a-smart-contract… #ethereum #solidity #contractdevelopment #securitySecurity review checklist for a smart contractIs there a tool, checklist of methodology to help reviewing smart contract security? E.g. for each of function you review Is there re-entry possibility and how it behaves on re-entry How it behav...ethereum.stackexchange.com",0,0,0,False
139,Newb@newbiumcoin,#Monero trading volume surpass $ETH & $ETC $XMR https://coins.newbium.com/post/1133-monero-7-30-day-volume-surpass-eth-etc… vMonero 7 & 30 Day Volume Surpass ETH & ETC • NewbiumXMR's 7 & 30-day trading volume has firmly surpassed both Ethereum & Ethereum Classic.  Did anyone think this was even possible only a few weeks agcoins.newbium.com,3,4,0,False
141,Garrett Koehn@KoehnGarrett,"I'm still bullish -- 
The Bizarre Fallout of #Ethereum’s Epic #Fail http://buff.ly/2c7UybU",0,0,0,False
143,Bitcoin@crypto_bitcoins,The Theory of a #Blockchain Circular Economy http://snip.ly/8snff #Ethereum #bitcoin #crypto #cryptocurrency #btc,2,0,0,False
144,Alberto Jauregui | esoteRICK.eth @DisruptBanksy,http://ift.tt/2c8qnAD All Eyes on Ethereum Classic As Hacked DAO Funds Is On The Move - newsBTC #ethereum #ether,1,0,0,False
145,Faith Emmanuel@residualbitcoin,"MSFT, GOOG & #blockchain #ethereum #fintech #trading #markets http://bit.ly/2cylPp9  #ResidualBitcoin",0,0,0,False
146,Faith Emmanuel@residualbitcoin,$5 Million Worth of #ethereum Classic Funds of DAO Hack Are Moving Again http://altcointoday.com/5-million-worth-of-ethereum-classic-funds-of-dao-hack-are-moving…  #ResidualBitcoin,0,0,0,False
147,LAPITH@bhumharit,"RT alt_bit_coins: MSFT, GOOG & #blockchain #ethereum #fintech #trading #markets http://bit.ly/2cylPp9",0,0,0,False
148,/r/Ethereum@r_Ethereum,"AT&T is Hiring a ""Senior Blockchain Developer"" (mentions Smart Contracts and Sidechains) http://bit.ly/2caKIq3 #EthereumAT&T is Hiring a ""Senior Blockchain Developer"" (mentions Smart...Posted in r/ethereum by u/btcbible • 48 points and 10 commentsreddit.com",2,3,0,False
149,/r/Ethereum@r_Ethereum,Fund the First Benefactory Proposal: Cover DevCon 2 Sessions on Ethereum Security http://bit.ly/2caK6AC #Ethereum,1,0,0,False
150,/r/Ethereum@r_Ethereum,Is it true that this $90 graphics card has 1.1GHS? Is there a catch? http://bit.ly/2caKMWA #Ethereum,0,0,0,False
151,/r/Ethereum@r_Ethereum,1 Day left in the RexMLS TokenSwap! http://bit.ly/2cyssFh #Ethereum,0,0,0,False
152,BitcoinAgile@bitcoinagile,"MSFT, GOOG & #blockchain #ethereum #fintech #trading #markets http://bit.ly/2cylPp9",1,1,0,False
153,BitcoinAgile@bitcoinagile,$5 Million Worth of #ethereum Classic Funds of DAO Hack Are Moving Again http://altcointoday.com/5-million-worth-of-ethereum-classic-funds-of-dao-hack-are-moving…,1,4,0,False
154,ETHNews@ETHNews_,Transaction Relay http://ow.ly/TxMo303X2QX #transaction #relay #ether,0,0,0,False
155,CL Taylor@DigitWealthNews,"FintekNews-MSFT, GOOG & Blockchain http://goo.gl/3NDquA #fintech #trading #blockchain #markets #ethereum",1,0,0,False
156,Julia Edling@bitcointonic,"#Ethereum (ETH or ETC) Money Trends (September 5th): After a short rally, #Ethereum’s price… http://dlvr.it/MC8fCx",0,0,0,False
157,Colin Platt@colingplatt,"Curse those kids and their attempts to innovate! #Bitcoin #ethereumQuote TweetKyle Torpey@kyletorpey · Sep 6, 2016If I had 0.05 $BTC for every time I got an email about altcoin/company X creating a faster, scalable blockchain with no proof-of-work...",0,0,0,False
158,Zr1Trader@ZR1Trader,"AT&T is Hiring a ""Senior Blockchain Developer"" (mentions Smart Contracts and Sidechains) 

$ETH
#ethereum
https://coinality.com/jobs/senior-blockchain-full-stack-developer-big-data-att-palo-alto-ca/…",1,1,0,False
159,TrustForums@TrustForums,Want latest news about #Bitcoin #Faucets?Come here and join latest faucets http://goo.gl/cbjH9h #Altocin #ethereum #blockchain #secure,0,0,0,False
160,Ethereum SE@StackEthereum,Move my dao from gatcoin to own Mist-wallet http://ethereum.stackexchange.com/questions/8549/move-my-dao-from-gatcoin-to-own-mist-wallet… #ethereum #dao,1,0,0,False
161,bitcoin new's@jagga_dakku004,Want latest news about #Bitcoin #Faucets?Come here and join latest faucets http://goo.gl/cbjH9h #Altocin #ethereum #blockchain #secure,1,0,0,False
162,Btc_social@btc_social,Want latest news about #Bitcoin #Faucets?Come here and join latest faucets http://goo.gl/cbjH9h #Altocin #ethereum #blockchain #secure,0,0,0,False
163,Blockchain Brokerage@TBB_one,"$WAVES + $KR = #security #fintech.
$KR + $ETH = https://tinyurl.com/zkf552a",2,1,0,False
164,Stephan Dörner (in English)@doener_tech,"Students at Berlin University Build Chess Game on #Ethereum
https://news.bitcoin.com/berlin-students-chess-ethereum/…",0,0,0,False
165,Rhian Lewis@rhian_is,#ethereum business use case for #cgi rendering by @golemproject at #Berlin #blockchain meetup,2,0,0,False
167,#BookOfLyrikz@LyRIKZ410,https://youtu.be/s4LNj74WWNM Lyrikz X #EtherFreestyle Make Sure Yall Tune In ! #Ether #Baltimore,0,0,0,False
169,Blockgeeks@Blockgks,"In the Future, Ownerless Companies Will Live on the #Blockchain http://snip.ly/vt929 #Ethereum",0,0,0,False
171,Ethereum Price@EthereumPrice_,"#Ethereum: Ether Price Index
1 ETH =0.019083Ƀ XBT = $11.662700 USD
Today: -0.87%⬇︎ Last 24h: -1.23%⬇︎
https://ethereum-price.com",1,2,0,False
172,Olivier Chapiteau@o_chapiteau,"06Sep16 17:51:53 UTC #Ether #Blockchain status - Block height @ 2,210,693 - 394 unconfirmed tr. - Last fork height @ 2,210,644",0,0,0,False
173,Olivier Chapiteau@o_chapiteau,06Sep16 17:51:53 UTC #Ethereum live spots - #Ether @ 11.66481$ - #EtherClassic @ 1.48560$,0,0,0,False
176,Francisco Gordillo@FGordillo,#bitcoin #blockchain South America's Biggest Stock Exchange Joins R3 Blockchain Consortium: ... http://bit.ly/2c4koKV #ethereum #ether,0,0,0,False
177,Faith Emmanuel@residualbitcoin,#ethereum (ETH and ETC) Price Trends (Week of September 5th) - Build Income™ News #price #september #trends http://bit.ly/2cy2pAW #Resid…,0,0,0,False
178,BitcoinAgile@bitcoinagile,#ethereum (ETH and ETC) Price Trends (Week of September 5th) - Build Income™ News #price #september #trends http://bit.ly/2cy2pAW,0,0,0,False
179,Richard Johnson@spungey2002,NIce investigation. #blockchain   Chess Game on #Ethereum https://news.bitcoin.com/berlin-students-chess-ethereum/?utm_source=twitter&utm_medium=social&utm_campaign=SocialWarfare…,1,0,0,False
180,druid andrew@andyypants,good ol $ETH is just lurking in the corner now. Good time to pick it up while we are not at max #mindshare,1,1,0,False
181,Coinality@Coinality,"NEW #BLOCKCHAIN CAREER @coinbase (Global): Risk Analyst - http://grnh.se/6o0mg2
#Bitcoin #Ethereum #BTC #ETH #SQL",0,0,0,False
182,BlockchainSecurities.io@Available4Sale,Crypto transaction domain names! #btc #bitcoin #litecoin #ethereum #blockchain #crypto #coins #fintech #domainnames,1,0,0,False
186,Faith Emmanuel@residualbitcoin,All Trading Pairs Now Available in Canada and the U.K. #fintech #ethereum #bitcoin http://bit.ly/2cxZc4m  #Resid…,0,0,0,False
187,Coinality@Coinality,"NEW #BLOCKCHAIN CAREER @coinbase (SF): Product Compliance Manager - http://grnh.se/whje6l
#Bitcoin #Ethereum #BTC #ETH #BSA #AML #KYC",1,0,0,False
188,Coinality@Coinality,"NEW #BLOCKCHAIN CAREER @coinbase (SF): Chief Risk Officer - http://grnh.se/sbn4ey
#Bitcoin #Ethereum #BTC #ETH #BSA #AML #KYC #GLBA",2,1,0,False
189,Johnny Woo@j0hnnyw00,"$NAV #NAVcoin is ready to go, next target 15k
$XMR $SDC $ETH $ETC $NXT",1,0,0,False
190,Coinality@Coinality,"NEW #BLOCKCHAIN CAREER @coinbase (SF): OTC Trader: http://grnh.se/do1h68
#Bitcoin #Ethereum #BTC #ETH #OTC #Forex #GDAX #Trading",1,1,0,False
191,Coinality@Coinality,"NEW #BLOCKCHAIN CAREER @coinbase (SF): Technical Sourcer - http://grnh.se/80cmqt
#Bitcoin #Ethereum #BTC #ETH #HR",0,0,0,False
192,BitcoinAgile@bitcoinagile,All Trading Pairs Now Available in Canada and the U.K. #fintech #ethereum #bitcoin http://bit.ly/2cxZc4m,1,3,0,False
193,Coinality@Coinality,"NEW #BLOCKCHAIN CAREER @coinbase (SF): Product Designer - http://ow.ly/krUp303WS6j
#Bitcoin #Ethereum #BTC #ETH #HTML #CSS #Javascript",0,0,0,False
194,Coinality@Coinality,"NEW #BLOCKCHAIN CAREER @coinbase (SF): Partner Engineer - API: http://grnh.se/6oil2p
#Bitcoin #Ethereum #BTC #ETH #SDK #Ruby #NodeJS",2,0,0,False
195,Brian Ahier@ahier,Replying to @LMDQ75It is coming!    #blockchain #ethereum,0,0,0,False
196,NiceHash@NiceHashMining,[NiceHash buyers] You can now verify #ethereum pool: https://nicehash.com/poolver.jsp?a=20&l=0… #mining #hashingpower,0,0,0,False
198,Alonzo Harris@DenzelTraining,says the blocking $eth maximalist troll himself :) https://twitter.com/lilbuterin/status/773180295830876164…This Tweet is unavailable.,0,0,0,False
199,Ethereum Monkey@EthMonkey,Tuna blockchains and Chilean Seabass #ethereumTuna blockchains and Chilean SeabassThis is a schematic from a London-based company called Provenance which is trying to “commit tuna” to the Ethereum blockchain. It comes via a report with a handy public link:ft.com,1,0,0,False
200,Blockgeeks@Blockgks,#Blockchain Powered Micropayment Browser Brave Raises $4.5m http://snip.ly/qmlif #Ethereum #bitcoin,1,0,0,False
203,Francisco Gordillo@FGordillo,#bitcoin #blockchain 6 Blockchain Startups Accept New Ernst & Young 'Challenge': Ernst & You... http://bit.ly/2bUGF3v #ethereum #ether,0,0,0,False
204,BlockchainLUX@blockchainLUX,#shemitah #jubilee in October @DollarVigilante time for #gold #bitcoin #ethereum #ether https://twitter.com/d_seaman/status/773149651197321216…This Tweet is unavailable.,0,0,0,False
205,manga@ms2manga,Free Ethereum every 5 minutes http://etherfaucet.net/?r=0xbeC8b068041EB0648511E8b91bDFD6967258022A… #ethereum qua @FreeCryptoCo,0,0,0,False
207,manga@ms2manga,Free #Ethereum every 5 minutes https://cryptosource.net/free-ethereum/?r=yWIb3NLLEg… #Ethereum qua @CryptoSourceHQ,0,0,0,False
210,Bitcoin is King@cryptoctic,#Ethereum Classic is currently trading at $1.49,1,0,0,False
211,⛧ God of Gaming ⛧@TheGodofGamez,"Difficulties are meant to rouse, not discourage. The human spirit is to grow strong by conflict. $ETH",0,0,0,False
212,EtherBlockchain.io@etherblockchain,"Looking forward to the @zcashco presentation at #devcon2! #ether #blockchain #ZcashQuote TweetElectric Coin Company @ElectricCoinCo · Sep 5, 2016Zooko will be speaking at #devcon2 on Sept 19th. Who else will be there? https://ethereumfoundation.org/devcon/?page_id=14…",1,1,0,False
213,Faith Emmanuel@residualbitcoin,#ethereum’s Hard Fork and the Dangers of Techno-Utopianism #bitcoin #blockchain #medium https://medium.com/@daniilgor/ethereums-hard-fork-and-the-dangers-of-techno-utopianism-e40f4558b1da… #ResidualBitcoinEthereum’s Hard Fork and the Dangers of Techno-UtopianismEven in its libertarian varietydaniilgor.medium.com,0,0,0,False
214,BitcoinAgile@bitcoinagile,#ethereum’s Hard Fork and the Dangers of Techno-Utopianism #bitcoin #blockchain #medium https://medium.com/@daniilgor/ethereums-hard-fork-and-the-dangers-of-techno-utopianism-e40f4558b1da…,0,0,0,False
215,Ethereum UAE@Ethereum_UAE,Ethereum (ETH and ETC) Price Trends (Week of September 5th) http://ift.tt/2bVpbAW #Ethereum,0,0,0,False
216,Blockgeeks@Blockgks,The Theory of a #Blockchain Circular Economy http://snip.ly/8snff #Ethereum #bitcoin,1,0,0,False
217,Bobe'bot@Bobe_bot,"1 #BTC = 609.0154 #CHF
1 #ETH = 11.8395 #CHF
1 #DOGE = 0.000219453993 #CHF
sources: @cryptonatorcom @hellobity",0,0,0,False
218,CoinFollower@CoinFollowerCom,Ethereum (ETH and ETC) Price Trends (Week of September 5th): #ethereum http://coinfollower.com/10265/Ethereum%20(ETH%20and%20ETC)%20Price%20Trends%20(Week%20of%20September%205th)…,1,0,0,False
219,#BookOfLyrikz@LyRIKZ410,https://youtu.be/s4LNj74WWNM Lyrikz #EtherFreestyle Im Trying Go Global Cant Stay Local Forever ! #Ether #Nas #BaltimoreArtist,1,0,0,False
220,Brian Ahier@ahier,Technical University of Berlin students create #blockchain-based chess game on #Ethereum http://bit.ly/2c82A46,5,1,0,False
221,John Lilic ₿ Ξ ∞@JohnLilic,"Coming soon where #Ethereum and the  come together to make magic happen #energy #sharingQuote TweetConsenSys@Consensys · Sep 6, 2016Help us welcome our new spoke @cotricity to twitter. Learn more at http://buff.ly/2cxRdRP #energy #sustainability #blockchain #peertopeer",8,3,0,False
222,Alberto Jauregui | esoteRICK.eth @DisruptBanksy,http://ift.tt/2cagwvd Ethereum (ETH and ETC) Price Trends (Week of September 5th) - CoinTelegraph #ethereum #ether,1,0,0,False
223,#BookOfLyrikz@LyRIKZ410,https://youtu.be/s4LNj74WWNM Lyrikz #EtherFreestyle #Ether #Nas Official Video Go Tune In !,0,0,0,False
224,Alex.eth@AlexanderFisher,Replying to @AriMNazirYou should join our Michigan #Ethereum Meetup group.  Hoping to have a meetup in Detroit soon. http://meetup.com/Michigan-Ethereum-Meetup/…,0,0,0,False
225,Metaballo@Metaballo,"@BillGates be sweating hard #Bitcoin is killing his #Ethereum dreams

No #Ecoin for us #Ecorp
#MrRobot will get youQuote TweetLarry Salibra@larrysalibra · Sep 6, 2016Learn how @Microsoft is using @BlockstackOrg at tonight’s meetup in NYC! http://meetup.com/Blockstack-NYC/events/233377415/…",0,0,0,False
226,Gitter@gitchat,"Microsoft Launches Smart Contracts Security Working Group
http://coindesk.com/microsoft-launches-smart-contracts-security-working-group/…
#smartcontract #ethereum #dao",1,0,0,False
227,ETHNews@ETHNews_,#ETH/USD Forecast – Bears In The Driver’s Seat #Ethereum #Ether http://ow.ly/WglP303WB2F,0,0,0,False
228,LAPITH@bhumharit,RT: #Ethereum (ETH and ETC) Price Trends (Week of September 5th) https://cointelegraph.com/news/ethereum-eth-and-etc-price-trends-week-of-september-5th… #eth #etc,0,0,0,False
229,Ali Güçlü@aliguclu,"CoinTelegraph : #Ethereum (ETH and ETC) Price Trends (Week of September 5th) … https://twitter.com/CoinTelegraph/status/773184404667633665…)Quote TweetCointelegraph@Cointelegraph · Sep 6, 2016#Ethereum (ETH and ETC) Price Trends (Week of September 5th) https://cointelegraph.com/news/ethereum-eth-and-etc-price-trends-week-of-september-5th… #eth #etc",0,0,0,False
230,BlackBullTradingPost ₿   @BlackBullTradn,CoinTelegraph: #Ethereum (ETH and ETC) Price Trends (Week of September 5th) https://cointelegraph.com/news/ethereum-eth-and-etc-price-trends-week-of-september-5th… #eth #etc,0,0,0,False
231,ZotSell@ZotSell,Taxing your Online #Ethereum Wallet http://buff.ly/2c3JOKV,0,0,0,False
232,iSimon@SimonEdhouse,"Will Ujo still commercialise only with #ether? Its not clear..Quote TweetTechTO Entertainment@Entertain_TO · Sep 6, 2016Ujo Music to launch blockchain-based full commercial music platform - EconoTimes http://econotimes.com/Ujo-Music-to-launch-blockchain-based-full-commercial-music-platform-273561…",1,1,0,False
233,Faith Emmanuel@residualbitcoin,MinerGate. Make your computer work for you. #Monero #Ethereum https://minergate.com/downloads/gui  #ResidualBitcoin,0,0,0,False
234,Magda Borowik@magdaborowik,dayum #ethereum,0,0,0,False
235,Ethereum SE@StackEthereum,"How to explore all transactions for a given account? http://ethereum.stackexchange.com/questions/8547/how-to-explore-all-transactions-for-a-given-account… #ethereum #goethereum #transactions #accounts #jsonrpc #queryHow to explore all transactions for a given account?After beeing able to check account balances, I am looking for a method to list all transactions for a given Ethereum account through json-rpc protocol. I haven't found any method suitable for that onethereum.stackexchange.com",0,0,0,False
236,BitcoinAgile@bitcoinagile,MinerGate. Make your computer work for you. #Monero #Ethereum https://minergate.com/downloads/gui,0,0,0,False
239,Ethereum SE@StackEthereum,A terse description of the theDAO hardfork http://ethereum.stackexchange.com/questions/8546/a-terse-description-of-the-thedao-hardfork… #ethereum #ether #thedao #hardfork #ethereumclassic #blockchainfork,1,0,0,False
243,Ethereum Price@EthereumPrice_,"#Ethereum: Ether Price Index
1 ETH =0.019019Ƀ XBT = $11.654400 USD
Today: -1.20%⬇︎ Last 24h: -1.69%⬇︎
https://ethereum-price.com",2,0,0,False
244,Tasnia Huque@tasniahuque,harsh words but well deserved? #ethereum falls outThe Bizarre Fallout of Ethereum’s Epic FailThe hack of an ambitious project has opened deep rifts in the blockchain community.fortune.com,0,0,0,False
245,Faith Emmanuel@residualbitcoin,Students at Berlin University Build Chess Game on Top of #ethereum http://germany.trendolizer.com/2016/09/students-at-berlin-university-build-chess-game-on-top-of-ethereum.html…  #ResidualBitcoin,0,0,0,False
246,/r/Ethereum@r_Ethereum,A look at the prediction market protocol augur http://bit.ly/2bVdWZi #Ethereum,0,0,0,False
247,/r/Ethereum@r_Ethereum,"Can Synereo's 'tech stack' be replicated/improved upon, on the Ethereum network? http://bit.ly/2bVeQF5 #Ethereum",0,0,0,False
248,/r/Ethereum@r_Ethereum,TransactionRelay: Enables transaction fees to be paid by any Token - Feedback welcome http://bit.ly/2cxC4jv #Ethereum,0,0,0,False
249,BitcoinAgile@bitcoinagile,Students at Berlin University Build Chess Game on Top of #ethereum http://germany.trendolizer.com/2016/09/students-at-berlin-university-build-chess-game-on-top-of-ethereum.html…,1,0,0,False
250,Ethereum SE@StackEthereum,"Synchronisation using geth; DAO fork-check, dropping is the only message recieved http://ethereum.stackexchange.com/questions/8543/synchronisation-using-geth-dao-fork-check-dropping-is-the-only-message-recieve… #ethereum #goethereum #thedao",0,0,0,False
251,Ethereum SE@StackEthereum,struct have some bugs in solidity http://ethereum.stackexchange.com/questions/8544/struct-have-some-bugs-in-solidity… #ethereum #solidity #wallets #ethereumwalletdappstruct have some bugs in soliditycontract MyContract { struct Posposal{ uint posposalId; address voteSponsorAddr; bytes1 description_; uint userId; string message; uint amount; } Posposal[] public curPospo...ethereum.stackexchange.com,0,0,0,False
253,Ethereum SE@StackEthereum,Ethereum Wallet also other currency? http://ethereum.stackexchange.com/questions/8542/ethereum-wallet-also-other-currency… #ethereum #goethereum #ether #ethereumwalletdapp,0,0,0,False
254,BitcoinAgile@bitcoinagile,"#bitcoin, #ethereum, Donald Trump, & The Hillary Clinton Dumpster Fire http://bigbrother.trendolizer.com/2016/09/bitcoin-ethereum-donald-trump-the-hillary-clinton-dumpster-fire.html…",0,0,0,False
255,enricotalin@enricotalin,Taxing your Online #Ethereum Wallet http://buff.ly/2c3Iqbr,0,0,0,False
256,Metaballo@Metaballo,"Replying to @VitalikButerinyou failed horribly by choosing @GoldmanSachs as your COO, thats what destroyed #Ethereum, you & @IOHK_Charles @WhalePanda",1,2,0,False
257,Metaballo@Metaballo,Replying to @VitalikButerinmaybe if #Ethereum was lead by me and not you it would not have forked on my mother fucking birthday. #lulz @WhalePanda,0,0,0,False
258,Bitcoin@crypto_bitcoins,#Blockchain may revolutionize insurance http://snip.ly/4ykv1 #ethereum #bitcoin,0,0,0,False
259,Cointon@CointonDotCom,#Blockchain may revolutionize insurance http://snip.ly/4ykv1 #ethereum #bitcoin,0,0,0,False
260,Crypdex@CrypdexLLC,converted 58.38 mBTC $35.56 USD to ETH #Ethereum,0,0,0,False
261,fintechfolk@fintechfolk,Thanks @dafinakajtazi for registering for FinTechFolk - http://zpr.io/Mnfj #fintech #ethereum #bitcoin #blockchain,1,0,0,False
262,Francisco Gordillo@FGordillo,#bitcoin #blockchain Microsoft Azure's CTO Wants Blockchain to Connect Every Industry: Micro... http://bit.ly/2cxmynT #ethereum #ether,0,0,0,False
263,SingularDTV@SingularDTV,We have extended the #singulardtv bug bounty program. https://forum.singulardtv.com/t/singulardtv-bug-bounty/47… #hackathon #ethereum #solidity #smartcontract,6,3,0,False
264,Funcoin (FUNC)@func_token,"Buy FUNC for #ethereum
https://bitshares.openledger.info/#/market/FUNC_
#ETH #FNC #OpenLedger #exchange #cryptocurrencies",0,0,0,False
266,Ethereum SE@StackEthereum,Why push elements into struct arrays Error http://ethereum.stackexchange.com/questions/8539/why-push-elements-into-struct-arrays-error… #ethereum #goethereum #solidity #mist #dappdevelopment,0,0,0,False
269,Suresh Naidu@supereagle1,"New TV Series About Bitcoin-Like Digital Currency Premieres Tonight
https://cointelegraph.com/news/new-tv-series-about-bitcoin-like-digital-currency-premieres-tonight… #XEGAINS #BITCOIN #ETHEREUM #fintech #startups",0,0,0,False
270,Cryptopatterns@Cryptopatterns,$MAID still edge to bulls but price needs to hold in range. $BTC #bitcoin $ETH $XMR $ETC,2,1,0,False
271,Ergo@ErgoTheDrone,"For it to truly be resilient, it needs to be distributed. #ethereum smart contracts could do it.... http://fb.me/4ZECe7erk",0,0,0,False
273,Faith Emmanuel@residualbitcoin,Synereo Discloses What Powers Its Ambitious Social Network Project #ethereum #blockchain http://bit.ly/2c0Xg1q  …,0,0,0,False
274,Grumpys view@Grumpysview,#ethereum Sleepless nights for some people. http://krypton.rocks/2016/09/05/krypton-abandons-ethereum-based-blockchain-after-51-attack/…,0,0,0,False
275,Cryptopatterns@Cryptopatterns,$DASH still bullish chart but not bullish that no one trading it last 2 weeks $BTC #bitcoin $XMR $ETH $ETC,0,0,0,False
276,iuri matias@iurimatias,"edit: Transaction relay is NOT limited to eip20 tokens, you can for example, assign x posts per day to a forum dapp user #ethereum /1",2,1,0,False
277,BitcoinAgile@bitcoinagile,Synereo Discloses What Powers Its Ambitious Social Network Project #ethereum #blockchain http://bit.ly/2c0Xg1q,2,0,0,False
278,Sebastian | HOPRnet.org@SCBuergel,"@TaylorGerring nerding out, on-stage #smartcontract development #Ethereum #biots2016",1,0,0,False
279,Yosef (Booree) Hamba Tola@HambaJht,"@AmbassadorPower Qilinxo prison burned on3/09/2016,but we didn't get any official report from z gov't about the victims #OromoProtests #ETH",1,0,0,False
280,Clouds With Carl@CloudsWithCarl,Another project abandons #Ethereum for Proof of Stake #Blockchain after 51% Attack https://cryptocoinsnews.com/krypton-ethereum-bitcoin-proof-of-stake-blockchain-after-51-attack/… #crypto,1,0,0,False
281,Kimberley@KimmieMaree1994, Another favourite I Love Lucy moment of mine. #IloveLucy #pioneerwoman #lucyricardo #eth… http://ift.tt/2cDmMhh,1,0,0,False
282,rinnova energia@rinnova_nrg,Explaining the Blockchain via a Google Docs Analogy: The more people understand the blockc... http://bit.ly/2c3dipN #startup #btc #eth,0,0,0,False
283,CoinGecko@coingecko,The latest Ethereum price is USD 11.52. For historical #Ethereum price charts - http://buff.ly/2c9Bc6m,0,0,0,False
284,AltcoinWeekly@altcoinweekly,The latest Ethereum price is USD 11.52. For historical #Ethereum price charts - http://buff.ly/2c9ChLJ,0,0,0,False
285,DEGENERATES CAPITAL INC@EarlyAdopter23,Bitcoin & Cryptocurrencies [BTC] https://youtube.com/playlist?list=PLmXtVwdZjMItch5yipYSDHlImKjIq2DrE… Watch now and subscribe! #bitcoin #blockchain #doge #dash #litecoin $BTC $LTC $ETH,0,0,0,False
286,TheArchitect@Tall_Geek,$ETH looking ripe for a long position open. #trading,0,0,0,False
287,BIOTS@biotsCH,Dr. Sebastian Buergel @validitylabs teaching his students how to build a simple dapp #ETH_en #ethereum #BIOTS2016,6,4,0,False
288,Cloud Mining Monitor@cmmonitorcom,#Ethereum #Cloudmining': 06.09.2016 Payment received. 6 MHs - 0.03637453 ETH. From Genesis Mining.Genesis Mining (Ethereum Mining)cmmonitor.com,0,0,0,False
289,Francisco Gordillo@FGordillo,#bitcoin #blockchain Florida Senator Drafting Bill That Could Recognize Bitcoin as Money: A ... http://bit.ly/2cx2lOW #ethereum #ether,0,0,0,False
290,indxio@indxio,#Russia Market Close || #Bitcoin: $608.6 | 545.18 EUR||  #Litecoin: 0.0033 BTC  || #Ethereum: 0.0189 BTC   || $BTC $LTC $ETH $RUB,1,0,0,False
291,Ameer Rosic@AmeerRosic,5 Blockchain Applications That will Revolutionize The world http://bit.ly/1U4aha8 #Blockchain #Bitcoin #ethereum,1,1,0,False
292,Faith Emmanuel@residualbitcoin,All Eyes on #ethereum Classic As Hacked DAO Funds Is On The Move #ETC #EtheruemClassic http://newsbtc.com/2016/09/06/eyes-ethereum-classic-hacked-dao-funds-move…  #R…,0,0,0,False
293,Faith Emmanuel@residualbitcoin,"51 Percent Attack Hits Krypton, Moves to PoS #ethereum #bitcoin #blockchain #Krypton https://btcmanager.com/news/tech/51-percent-attack-hits-krypton-moves-to-pos…  #Res…",0,0,0,False
294,BitcoinAgile@bitcoinagile,All Eyes on #ethereum Classic As Hacked DAO Funds Is On The Move #ETC #EtheruemClassic http://newsbtc.com/2016/09/06/eyes-ethereum-classic-hacked-dao-funds-move…,1,0,0,False
295,BitPython@bitpython,"http://tuxexchange.com is accepting deposits in all listed coins! Happy trading :)
#DASH
#doge
#litecoin
#Bitcoin
#PPC
#ethereum
#altcoin",1,0,0,False
296,Blockgeeks@Blockgks,"How a $64M hack changed the fate of #Ethereum, Bitcoin's closest competitor http://snip.ly/jx92p",0,0,0,False
297,BitcoinAgile@bitcoinagile,"51 Percent Attack Hits Krypton, Moves to PoS #ethereum #bitcoin #blockchain #Krypton https://btcmanager.com/news/tech/51-percent-attack-hits-krypton-moves-to-pos…",1,0,0,False
299,/r/Ethereum@r_Ethereum,Happy to see Pavel Kravchenko joins our Judging Panel http://bit.ly/2cwWzg4 #Ethereum,0,0,0,False
300,/r/Ethereum@r_Ethereum,"The Ethereum Foundation welcomes  as a Gold Sponsor of Devcon2, Shanghai, 19th - 21st Sept! http://bit.ly/2cwXqxj #Ethereum",0,0,0,False
301,/r/Ethereum@r_Ethereum,Why does the ethereum foundation allow classic to use it's logo and name? http://bit.ly/2c9vhy6 #Ethereum,0,0,0,False
302,ΞTHΞЯSPHΞЯΞ - ÐΞV@ethersphere,"Replying to @ethersphereThis will be a gamechanger for verified computation aka blockchain scalabillity

#swarm #mist #solidity #ethereum",3,1,1,False
303,Digital Insights@Digi_Insights,Encore Presentation of #Blockchain Keynote ▸ http://ln.is/bU6Ro #BigData #IoT #ML #Ethereum #Bitcoin... by @CloudExpo via @c0nvey,0,0,0,False
304,Faith Emmanuel@residualbitcoin,The Bizarre Fallout of #ethereum’s Epic Fail http://bit.ly/2cwiLcZ #ResidualBitcoin,0,0,0,False
305,BitcoinAgile@bitcoinagile,The Bizarre Fallout of #ethereum’s Epic Fail http://bit.ly/2cwiLcZ,0,0,0,False
306,Metaballo@Metaballo,"Replying to @WhalePandastop calling them the #ethereum community, there is not a community, it's called lemmings. #GoldmanSachs community is closer",0,0,0,False
307,Edward Hall@edwardhall_,"We are sponsoring a crypto pub quiz tonight in London. See you there? #bitcoin #ethereumQuote TweetCoinscrum@coinscrum · Sep 2, 2016Coinscrum {social} Crypto Pub Quiz - LDN 06/09 @b9lab @ProofOfWork @CryptoCompare @CampEther @Quantave #bitcoin",5,1,0,False
308,icCube@iccube,Starting soon! #eth,0,0,0,False
309,Dawit Girma@DawitGirma3,Those ppl that blame #AddisAbaba for not revolting against #ETH gov't hv solid ignorance of not knowing z dynamics of Addis.,1,0,0,False
310,Ameer Rosic@AmeerRosic,5 Blockchain Applications That Will Transform Society http://bit.ly/1U4aha8 #Blockchain #Bitcoin #ethereum,0,0,0,False
311,Faith Emmanuel@residualbitcoin,#ethereum Price Technical Analysis: Stuck Between Major Support and Barrier http://bit.ly/2c0LZOM  #ResidualBitc…,0,0,0,False
312,BitcoinAgile@bitcoinagile,#ethereum Price Technical Analysis: Stuck Between Major Support and Barrier http://bit.ly/2c0LZOM,0,0,0,False
314,Faith Emmanuel@residualbitcoin,"Is #ethereum Poised to be Next Tech Movement? #bitcoin #blockchain #medium https://medium.com/@AriMNazir/is-ethereum-poised-to-be-next-tech-movement-2cc3d65801b1… #ResidualBitcoinIs Ethereum Poised to be Next Tech Movement?My goal with this brief piece is to provide an elementary introduction to Ethereum, a platform upon which decentralized applications…medium.com",0,0,0,False
315,BitcoinAgile@bitcoinagile,"Is #ethereum Poised to be Next Tech Movement? #bitcoin #blockchain #mediumIs Ethereum Poised to be Next Tech Movement?My goal with this brief piece is to provide an elementary introduction to Ethereum, a platform upon which decentralized applications…medium.com",1,0,0,False
316,Blockgeeks@Blockgks,"#Blockchain: the answer to life, the universe and everything? http://snip.ly/3fbl1 #Bitcoin #Ethereum",0,0,0,False
317,Bronx Digital Online@Bronx_Digital,Don't forget to sign up and receive your bonus at @tuxexchange - http://tuxexchange.com $BTC $LTC $ETH $DOGE $PPC $DASH,2,2,0,False
319,ether-camp@CampEther,Seen on #hackethercamp https://hack.ether.camp/idea/a-truly-decentralized-p2p-insurance… #ethereum,1,0,0,False
320,Ethereum SE@StackEthereum,Can modifiers use events? http://ethereum.stackexchange.com/questions/8535/can-modifiers-use-events… #ethereum #solidity #contractdevelopment,0,0,0,False
321,The Social Link@Gily3d,RT CloudExpo: Encore Presentation of #Blockchain Keynote ▸ http://bit.ly/28NNsZ9 #BigData #IoT #ML #Ethereum #Bitcoin #DataCenter #Digit…,0,0,0,False
323,Survival Zone Africa@SZoneAfrica,Ask me how to make money while giving out loans using #Bitcoin and #Ethereum http://forms.aweber.com/form/94/771574194.htm…,0,0,0,False
324,⛧ God of Gaming ⛧@TheGodofGamez,Imagination is not a talent of some men but is the health of every man. $ETH,1,0,0,False
325,FailCommunity@FAILCommunity,@Poloniex You should see this: https://bitcointalk.org/index.php?topic=1609478.0… #Bitcoin #Ethereum #exchange,1,0,0,False
326,/r/Ethereum@r_Ethereum,Cautionary tales about ‘blockchain hype’ http://bit.ly/2c9dXcJ #EthereumCautionary tales about ‘blockchain hype’Posted in r/ethereum by u/sandratess • 5 points and 1 commentreddit.com,0,0,0,False
327,/r/Ethereum@r_Ethereum,Is he trying to scam me? http://bit.ly/2c9etav #Ethereum,0,0,0,False
328,4BC@aff4bc,Students at #Berlin University Build #Chess Game on #Ethereum: A group of students from the… http://dlvr.it/MC0HjH,0,0,0,False
330,Faith Emmanuel@residualbitcoin,Students at Berlin University Build Chess Game on Top of #ethereum #Berlin #Chess #PaulGrau https://news.bitcoin.com/berlin-students-chess-ethereum… …,0,0,0,False
331,Oula.la@OuLaNow,#blockchain coming fast&massive in #insurance #fintec #ethereum #BasS #sandbox #smartcontracts,4,3,0,False
332,Simon Dixon (Beware Impersonators)@SimonDixonTwitt,Replying to @OneLifeZA8 @OneCoinCrypto and @maxkeiser@DelRayMan #Ethereum is an Altcoin #Blockchain. #Bitcoin is the most secure Blockxhain in the world.,0,0,0,False
333,⛧ God of Gaming ⛧@TheGodofGamez,"Happiness does not come from having much, but from being attached to little. $ETH",0,0,0,False
334,BitcoinAgile@bitcoinagile,Students at Berlin University Build Chess Game on Top of #ethereum #Berlin #Chess #PaulGrau https://news.bitcoin.com/berlin-students-chess-ethereum…,1,0,0,False
335,Christine Sukasih@Christine_S025,Students at #Berlin University Build #Chess Game on #Ethereum: A group of students from the… http://goo.gl/fb/UYYcAO,0,0,0,False
336,Liz Hermawan@LizHermawan,Students at #Berlin University Build #Chess Game on #Ethereum: A group of students from… http://goo.gl/fb/rnVxgG #vk,0,0,0,False
337,Eyeboot@Eyeboot,"perhaps a test of of bigger transfers to come?
#bitcoin #ETH #ETC #hack #daoQuote TweetLefteris Karapetsas@LefterisJP · Sep 5, 2016Hacker seems to have donated 1k of the stolen $ETC for platform development. Address here: https://ethereumclassic.github.io/blog/2016-07-25-call-for-action/…",1,0,0,False
338,Blockgeeks@Blockgks,How Startups Are Using #Blockchain to Raise Capital http://snip.ly/u6hxk #bitcoin #ethereum,2,0,0,False
339,Bobe'bot@Bobe_bot,"1 #BTC = 607.2805 #CHF
1 #ETH = 11.8464 #CHF
1 #DOGE = 0.000219057175 #CHF
sources: @cryptonatorcom @hellobity",0,0,0,False
340,Sumit@imsumitchouhan,"Day 2 @biotsCH #ethereum studio, solidity #Iot, distributed systems 
http://blockchainsummerschool.ch/program/ #zurich @ETH_en",3,0,0,False
341,DEGENERATES CAPITAL INC@EarlyAdopter23,"https://cryptorex.com @CryptoRexMarket Safe, fast & reliable cryptocurrencies exchange! #bitcoin #fintech #blockchain #ethereum $BTC $DASH",0,0,0,False
342,Bitcoin@bitcoinpoet,"Hong Project, anyone?: Yesterday I came across this TheDAO like initiative on Medium http://hongcoi... http://bit.ly/2bTqx1X #ethereumHong Project, anyone?Yesterday I came across this TheDAO like initiative on Medium [http://hongcoin.org/](http://hongcoin.org/) [Medium...reddit.com",1,3,0,False
344,Fraser @Cryptobike,"Replying to @iconomicom and @iconominet, I just invested #BTC #lisk #ethereum and have come along for the ride. Check out http://ico.iconomi.net for yourself. +1",1,1,0,False
345,Patrizio Stavola@halovast,"imho #ERP is the most relevant #blockchain #usecase https://linkedin.com/pulse/how-supply-chain-trade-finance-becomes-most-relevant-use-tabbakh?trk=hp-feed-article-title-share… #ethereumHow ""Supply Chain & Trade Finance"" becomes the most relevant Blockchain use case.One of the first move a large firm makes in order to tackle complicated and time-consuming process of managing paper-based multi-party contracts is to invest into better ERP softwares. It might...linkedin.com",0,0,0,False
347,Stefan Klauser@StefanSchose,Full house at our #BIOTS2016 workshops about #solidity & how to code #smartcontracts for the #ethereum #blockchain.,6,4,0,False
348,Blockgeeks@Blockgks,Blockchain 101. A simple explanation http://snip.ly/ze3tz #blockchain #bitcoin #ethereum,1,1,0,False
349,Ethereum Price@EthereumPrice_,"#Ethereum: Ether Price Index
1 ETH =0.018955Ƀ XBT = $11.586450 USD
Today: -1.53%⬇︎ Last 24h: -1.92%⬇︎
https://ethereum-price.com",3,0,0,False
350,Ethereum Monkey@EthMonkey,Ethereum Classic Price Technical Analysis - ETC Remains Supported #ethereum http://newsbtc.com/2016/09/06/ethereum-classic-price-technical-analysis-etc-remains-supported/…,1,0,0,False
351,/r/Ethereum@r_Ethereum,"Hong Project, anyone? http://bit.ly/2bTqx1X #EthereumHong Project, anyone?Yesterday I came across this TheDAO like initiative on Medium [http://hongcoin.org/](http://hongcoin.org/) [Medium...reddit.com",1,0,0,False
352,Frank Jagoda@FJ_III,New week. New opportunity! #LIL #ETH #PullTheRope,2,3,0,False
353,Ethereum SE@StackEthereum,How to get ethereum public key [on hold] http://ethereum.stackexchange.com/questions/8530/how-to-get-ethereum-public-key… #ethereum #goethereum #publickey,0,0,0,False
354,Ethereum SE@StackEthereum,How to delete contract records in mist wallet http://ethereum.stackexchange.com/questions/8532/how-to-delete-contract-records-in-mist-wallet… #ethereum #goethereum #mist #wallets #dappdevelopment,0,0,0,False
357,Bitcoin Updater@BitcoinUpdater,This Is Your Company on Blockchain #ethereum http://soco.space/9Z2qc6,1,0,0,False
358,Faith Emmanuel@residualbitcoin,#ethereum Classic Price Technical Analysis  ETC Remains Supported #ETC #ETCtoBTC #price http://bit.ly/2cvGcmG  #…,0,0,0,False
359,Hossein Shafagh@hossein_shafagh,formal verification to avoid future attacks #ethereum #TheDAO #biots2016 #ethzurich,1,1,0,False
360,Brave New Coin@bravenewcoin,#Ethereum Classic Price: USD $1.45 #ETC http://ow.ly/QXxZ303j19Q,2,0,0,False
361,BitcoinAgile@bitcoinagile,#ethereum Classic Price Technical Analysis  ETC Remains Supported #ETC #ETCtoBTC #price http://bit.ly/2cvGcmG,1,0,0,False
362,Blockgeeks@Blockgks,Australia's Postal Service Tests #Blockchain Identity http://snip.ly/c4gl2 #ethereum,2,0,0,False
363,Pages from Ceefax@ceefaxx,#nowplaying #Ether - If You Really Wanna Know on http://malfunctionradio.com,0,0,0,False
364,Bekane Olana@bekansiif,"EthiopianProtests : It is Unlikely that the #US will get tough on #ETH unless the situation deteriorates.” 
  http://scl.io/Dw8KAm-L",0,0,0,False
365,Suresh Naidu@supereagle1,https://cryptocoinsnews.com/female-entrepreneur-bitcoin-bitoasis-dubai/… Bravo...Time to join me @ #www.xegains.com #BITCOIN #ETHEREUM #fintech #startups #Blockchain,0,0,0,False
366,ECS Cyber@ecs_cyber,"#Krypton Abandons #Ethereum for #Bitcoin Proof of Stake #Blockchain after 51% #Attack
http://lnk.al/2zN0
#security #blockchain #cyber",1,0,0,False
370,Fintech news@currencies111,"Krypton ditches Ethereum for bitcoin proof-of-stake blockchain
http://goo.gl/ALChyX
#Bitcoin #Ethereum #Blockchain",0,0,0,False
372,Eugene Zavarzin@ADZ4BIZ,#Ether and #ADZ are fuel to run a big machine http://bit.ly/2c2bEoH,0,0,0,False
375,Mr. Gzov@btc_dance,"$xmr vs $eth pump
https://coinigy.com/s/i/57ce6547/
#xmr #moneroPoloniex BTC/XMR Chart - Published on Coinigy.com on September 6th, 2016 at 6:42 AM.Poloniex BTC/XMR Chart - Indicators used: Volume (true, 20), MACD (12, 26, close, 9), OBV, RSI (14) - Interval: 60. Published on Coinigy.com on September 6th, 2016 at 6:42 AM.coinigy.com",1,0,0,False
376,Crypto Price Ticker@TickerCrypto,"#Ethereum #ETH Rank:2 Last:฿0.01917889(-1.003%) High:Buy Instantly! on  Low:฿0.01953570 Vol:฿5,908 Market Cap:฿1,605,241 / $971,561,809.03",0,0,0,False
378,ether-camp@CampEther,Seen on #hackethercamp https://hack.ether.camp/idea/ethereum-powered-ecopowerstation-a-community-resiliency-center… #ethereum,1,1,0,False
379,ExploreTraveler@exploretravel1,RT @r_ethereum: What does it mean for an application to be built on ethereum? http://lnkplg.co/Qq4MX #Ethereum,0,0,0,False
380,Patrizio Stavola@halovast,about shared state and #blockchain technology: “The Subtle Tyranny of Blockchain” by @justmoon https://medium.com/@justmoon/the-subtle-tyranny-of-blockchain-91d98b8a3a65#.ykgcsf71t… #bitcoin #ethereum,1,1,0,False
381,Faith Emmanuel@residualbitcoin,Krypton ditches #ethereum for #bitcoin proof-of-stake #blockchain - EconoTimes http://bit.ly/2bZZ1Mk #ResidualBitcoin,0,0,0,False
382,✭Petty Pendergrass✭@SoopaMannieB,"#ether Coulter feelings were beyond hurtQuote TweetBeer League Bender@pylon_917 · Sep 5, 2016Have no idea who this is, but these aren't just accusations, they're fact. #LoweRoast @AnnCoulter",1,0,0,False
383,Crypto_Krill@Crypto_Krill,Want to buy some $REP before launch? Head over to GateCoin: https://gatecoin.com/register?referralCode=SBTFCH… … | $ETC $ETH #ethereum $XMR $XVC $LTC $IOC $BTS #augur,0,0,0,False
384,BitcoinAgile@bitcoinagile,Krypton ditches #ethereum for #bitcoin proof-of-stake #blockchain - EconoTimes http://bit.ly/2bZZ1Mk,0,0,0,False
385,Blockgeeks@Blockgks,#Blockchain may revolutionize insurance http://snip.ly/4ykv1 #ethereum #bitcoin,1,3,0,False
386,Julia Edling@bitcointonic,"Interlocking stories of the #Bitcoin, #Ethereum, & #EthereumClassic communities. #Steemit… http://dlvr.it/MBw0HF",0,0,0,False
387,Crypto Trader Pro @CryptoTraderPro,#Ethereum Price #Technical_Analysis – #ETH Approaching… http://dlvr.it/MBvyPm #Ethereum #Technical_Analysis,0,0,0,False
388,Bitcoin Sportsbook @SportsbookBTC,#Ethereum Price #Technical_Analysis – #ETH Approaching… http://dlvr.it/MBvyGR #Ethereum #Technical_Analysis,1,0,0,False
389,#BlackLivesMatter@ItsMJ254,"I know Nas' #Ether, word for word. Even though I think Hov won that fight. That's just me though..",2,0,0,False
390,/r/Ethereum@r_Ethereum,Will Vitalik wear the red happy hat during Devcon 2 again? http://bit.ly/2c20vUM #EthereumWill Vitalik wear the red happy hat during Devcon 2 again?Posted in r/ethereum by u/koeppelmann • 23 points and 24 commentsreddit.com,1,0,0,False
394,Ethereum SE@StackEthereum,How to get ethereum public key http://ethereum.stackexchange.com/questions/8530/how-to-get-ethereum-public-key… #ethereum #goethereum #publickey,0,0,0,False
395,Bitcoin is King@cryptoctic,Ethereum is trading at $11.65 #Ether #ETH,0,0,0,False
396,⛧ God of Gaming ⛧@TheGodofGamez,I don't believe in failure. It's not failure if you enjoyed the process. $ETH,0,0,0,False
397,Faith Emmanuel@residualbitcoin,#ethereum Price Technical Analysis  ETH Approaching Break - NEWSBTC #EthereumPriceanalysis http://bit.ly/2bZSVvp …,0,0,0,False
398,Bernd Antweiler@Payanoia,New Hardware #Wallet Ledger Nano S released. Stores #bitcoin & #Ether http://0cn.de/gndq,0,0,0,False
399,BitcoinAgile@bitcoinagile,#ethereum Price Technical Analysis  ETH Approaching Break - NEWSBTC #EthereumPriceanalysis http://bit.ly/2bZSVvp,0,0,0,False
400,Aliaksei Liutsich@aliutsich,#XETH #Ethereum GUI wallet with #StealthPayments and @BitProfile support http://xeth.org,1,0,0,False
401,USA News@1USNews,"GET FREE #DOGE
Win dogecoin every 60 minutes
http://goo.gl/hE5Bk6
#doge #dogecoin
#Ethereum
#bitcoin #litecoin #gold #Amazon",0,0,0,False
403,⛧ God of Gaming ⛧@TheGodofGamez,Waste no more time arguing about what a good man should be. Be one. $ETH,0,0,0,False
404,Ethereum SE@StackEthereum,What will be the format of data to execute a function from web http://ethereum.stackexchange.com/questions/8529/what-will-be-the-format-of-data-to-execute-a-function-from-web… #ethereum #web3js #contractdeployment,1,0,0,False
405,/r/Ethereum@r_Ethereum,What does it mean for an application to be built on ethereum? http://bit.ly/2bTFNJi #EthereumWhat does it mean for an application to be built on ethereum?Does it mean that the ethereum blockchain acts as the database and potentially as the financial medium in an otherwise traditional web...reddit.com,1,0,0,False
406,VonVictor V. Rosenchild@Rosenchild,"Retweeted HubBucket, Inc. (@HubBucket):

#Krypton Abandonds #Ethereum for #Bitcoin Proof of Stake #Blockchain... http://fb.me/8bCBguhyc",0,0,0,False
408,Bobe'bot@Bobe_bot,"1 #BTC = 603.8953 #CHF
1 #ETH = 11.8989 #CHF
1 #DOGE = 0.000223973425 #CHF
sources: @cryptonatorcom @hellobity",0,0,0,False
