,user,text,likes,retweets,replies,is_thread
0,Jen Massing Harris@jenmassing,"Besides #FinancialServices #ledgers, we're going to see other public #blockchains like #Ethereum~ #VC @blockchaincapBlockchain Capital Closes $13M Second Fund; Offers $1,000 Investments In SyndicateThe firm that launched the first digital currency fund announced that an Angel List syndicate would invest alongside, giving smaller accredited investors the opportunity to participate in deals on...forbes.com",3,0,0,False
1,akinerbas@akinerbas1995,Etherieum is a premined scam and there will be no mainstream adoption. It's just a hype scam #btc #bitcoin #ltc #dogecoin #doge #eth,3,0,0,False
2,Raphael Odini@raphodn,Welcome to the future: truly decentralized platforms using the #blockchain #Ethereum Awesome article ! https://medium.com/backchannel/can-an-arcane-crypto-ledger-replace-uber-spotify-and-airbnb-f8ce3846d84a#.16a3fipua…,4,0,0,False
3,Wil@WilverGonzalezz,I guess rappers settle feuds thru social media now #hitemup #takeover #ether,4,2,0,False
4,Aaron Battle@battleayzee,#Ethereum Is just too exciting! http://bizjournals.com/newyork/news/2016/01/26/brooklyn-s-new-kid-on-the-blockchain-in-talks-with.html…,2,0,0,False
5,flash @Tyletan,"We need this sport at school #napu #chach #eth #russ #jess #sky #shane we finna play this tonight boysssQuote Tweetma ri a@mktaianao · Jan 27, 2016@mlasaisuva @tylerjaguon  https://twitter.com/theworldoffunny/status/692113039861104642…",2,0,0,False
6,CryptKeeper@CryptKeeperBTT,"The Blockchain-less Token #IOTA is Ready to Take on the World
#bitcoin #ethereum #nxterThe Blockchain-less Token IOTA is Ready to Take on the WorldIOTA, the blockchain-less microtransaction crypto-token is to go into beta version starting early February, says co-founder David Sønstebø to Cointelegraph.cointelegraph.com",2,2,0,False
7,El Pillo@asdfg_016,"Yes, #eth is nothing but whales manipulation on fake volume and fake walls just like the old #bittrex game. #altcoin #scam #fake #bitcoin",2,0,0,False
8,Brigitte Kaps@BriKaps,"#ethereum @VitalikButerin Cool you've been with us #finance20 #blockchain #bitcoin @rinoborini #fintechQuote Tweetstern@sternde · Jan 27, 2016""Digitaler Lenin"": Revolutioniert dieser junge Russe heimlich unser Finanzsystem? http://stern.de/wirtschaft/vitalik-buterin--das-blockchain-genie-6654386.html… /as",3,2,0,False
9,Ernie C.@Too_Astute,"What in the world is going on, @VeriCoin?!  This is crazy!

#Bitcoin #VeriCoin #SuperNET #DOGE $VRC $VTC $ETH $DOGE",5,4,1,False
10,Charlie Alexander@CPAlexander_EY,#EY hosting @VitalikButerin discussing #ethereum and #blockchain in #hong kong #standingroomonly,2,1,0,False
11,Menno Pietersen@btc_feed,#Ethereum going up on #Google #trends - #ETH #btc #bitcoin https://btc-feed.com/bitcoin-news/ethereum-going-up-on-google-trends/…,2,1,0,False
12,Fernando Gomezy@GomezyFernando,#ETH Whales manipulations scam coin. There will always be the next get rich premined scam #eth #aurora #paycoin #ipo #ico #bitcoin #litecoin,1,0,0,False
13,Amber Rose@DaRealAmberRose,Awww @kanyewest are u mad I'm not around to play in ur asshole anymore? #FingersInTheBootyAssBitch14K234.8K308.9K,0,0,0,False
14,Fuccouttahurr@Fuccouttahurr,@DaRealAmberRose @burrrSOLO1017 @kanyewest Lmmfao #ether nuff said @wizkhalifa,2,1,0,False
15,Jan Miranda@JanMiranda,#Ethereum's @wmougayar announces #Toronto #Business #Blockchain #Conference http://buff.ly/1lRrHcS #fintech,11,2,0,False
16,Clarion Drones@clariondrones,#ETH Software #Drone piloting software to become a standard for #drones #UAV https://clariondrones.com/eth-software-to-become-a-standard-for-drones/…,1,1,0,False
17,Solutus Mundi@SolutusMundi,"Hi mom forget #bitcoin, send #ether (#ethereum) !!!

#cryptocoins #altcoins #btc #eth #blockchain @ethereumproject",3,0,0,False
18,Triple H@Triple241096,Etherieum is a premined scam and there will be no mainstream adoption. It's just a hype scam #btc #bitcoin #ltc #dogecoin #doge #eth,3,1,0,False
19,fav@btsfav,I just won free 0.00098200 ETHER from http://smarturl.it/etherfaucet #ether #satoshi #freeether #faucet via @etherfaucet,3,3,0,False
20,Charlie Morris@chtmorris,Thanks @VitalikButerin for a brilliant Q&A. Would love to go for a beer if you're sticking around in HK #ethereum #bitcoin #blockchain,4,0,0,False
21,Patrizio Stavola@halovast,Goldman Sachs Director: #Blockchain Provides 'Single Truth' For Banks http://bit.ly/1PQLFMY #bitcoin #ethereumGoldman Sachs Director: Blockchain Provides 'Single Truth' For Banks - CoinDeskA managing director at investment bank Goldman Sachs called blockchain tech an innovation that could “drive change” in a new company podcast.coindesk.com,2,1,0,False
22,ethereum.network@EthereumNetw,http://EtherScrape.com analyzes a #SmartContract on the #Ethereum #blockchain and tries to match it to its high-level source code.,5,1,0,False
23,Erik Voorhees@ErikVoorhees,"If you're into crypto and you have an iPhone, try CoinCap's new app.  https://itunes.apple.com/us/app/coincap-real-time-cryptocurrency/id1074052280… #bitcoin #ethereum #litecoin #dogecoin #dash",7,6,3,False
24,Chris Dunn@ChrisDunnTV,Here we go... #ethereum,14,6,2,False
25,FirstToMarkets@firsttomarkets,Ethan Allen Interiors Inc.  Boost Price Target by Dougherty & Company (Ranked 94th) to Buy with 37 PT $ETH #ETH http://firsttomarkets.com/analytics/stocks/stock?sId=1568#tabs-reiterated…,1,0,0,False
26,Christopher Carruthers@TaoOfSatoshi,"The colourful @craigrant3 describes Dash's #DGBB in this fun video:
http://youtu.be/ZSJt9XtmfnQ
Well done, Craig!
#DashDC #Bitcoin #Ethereum",2,0,0,False
27,ethereum.network@EthereumNetw,"How Will #Bitcoin Technology Go Mainstream? An Analysis Of 5 Strategies. #Ethereum #blockchain
http://buff.ly/1PBPghz",2,2,0,False
28, Que Xopa amigos @ballupAIP23,#Ether come on now Kanye  https://twitter.com/kanyewest/status/692449710452379648…This Tweet is unavailable.,2,1,0,False
29,42 @42_paradox,"ETH #Ethereum is going to be big as my balls when this hits the price. Incredible news!
http://bizjournals.com/newyork/news/2016/01/26/brooklyn-s-new-kid-on-the-blockchain-in-talks-with.html…",1,0,0,False
30,tgerring.eth@TaylorGerring,"Got an #Ethereum question? Check out @TheDailyDecrypt6 Ethereal Questions Answered: Interview w/ Ethereum Dev Taylor...1) What is Ethereum's vision, and is it dependent upon other networks? 2) Why the upcoming switch from Proof-of-Work to Proof-of-Stake? 3) What is 'gas' in E...youtube.com",6,4,0,False
31,Aly@prince_aly,"Replying to @kanyewest@kanyewest. you can't be goin' on people wit misspelled words, sir. 
#Ether",3,0,0,False
32,Crypto News Day@cryptonewsday,Full multi-sig #bitcoin exchange  buy or sell for fiat  exchange #btc / #eth  http://bit.ly/1P8edB6,1,1,0,False
33,Bleutrade Cryptocurrency Exchange@bleutrade,1 ETH = 0.00650001 BTC at https://bleutrade.com/exchange/ETH/BTC… #ethereum #eth #bitcoin #btc #Bleutrade,1,0,0,False
34,Ethereum Canada@EthereumCanada,William Mougayar of #Ethereum announces Business Blockchain books and conference http://ow.ly/XALUq @wmougayar,5,1,0,False
35,Viktor Trón@zeligf,Ethereum-based credit rating and KYC platform Cetas picks up Citi innovation prize http://ibt.uk/A6SjX via @IBTimesUK #ethereumEthereum-based credit rating and KYC platform Cetas picks up Citi innovation prizeAlgorythmix has picked up first prize for the most transformative use of blockchain in Citi Mobile Challenge.ibtimes.co.uk,3,4,0,False
36,Deniz Why So Serious@cclifecctt,Etherieum is a premined scam and there will be no mainstream adoption. It's just a hype scam #btc #bitcoin #ltc #dogecoin #doge #eth,2,0,0,False
37,Zeth Couceiro@Zeth_Plexus,#Ethereum's @wmougayar Mougayar announces Business #Blockchain books and conference - #blockchain #news http://ibtimes.co.uk/ethereums-william-mougayar-announces-business-blockchain-books-conference-1540203…,2,0,0,False
38,NOCL UMS@NoclUms,#ETH Whales manipulations scam coin. There will always be the next get rich premined scam #eth #aurora #paycoin #ipo #ico #bitcoin #litecoin,1,0,0,False
39,BitcoinAgile@bitcoinagile,Standalone Bitcoin Offline Wallet Printer Demo #Ethereum http://wingztv.com/video/standalone-bitcoin-offline-wallet-printer-demo…,2,0,0,False
40,Justin Credible@J_Credible,Hahahahaha! RT @djbrandigarcia: #Either vs #Ether... #Their vs #Theyre vs #There,4,2,0,False
41,druid andrew@andyypants,my theroy on this #dogecoin pump is ppl manipulating #ether are finding it too hard to pump it bigger but shibe loved the attention :P,5,4,2,False
42,Chris Dunn@ChrisDunnTV,There's some big downside potential for #Ethereum to retest the breakout around .004,11,5,3,False
43,druid andrew@andyypants,I am kinda pissed at #crypto. I believe in #ethereum and #dogecoin so much... almost always have some... except the days they super-pump :(,1,1,0,False
44,Bleutrade Cryptocurrency Exchange@bleutrade,1 ETH = 0.00635000 BTC at https://bleutrade.com/exchange/ETH/BTC… #ethereum #eth #bitcoin #btc #Bleutrade,1,0,0,False
45,Ethereum Canada@EthereumCanada,#Ethereum real life usecase: Youtube views count based escrow @oraclizeit http://ow.ly/XAZ8y #dapp,2,0,0,False
47, Que Xopa amigos @ballupAIP23,Wouldnt matter he still have more followers than you #Ether https://twitter.com/kanyewest/status/692449710452379648…This Tweet is unavailable.,3,1,0,False
48,Elena Litani @elenalitani,"#Ether grabs investors’ attention, overcoming #Ripple as biggest cryptocurrency behind #Bitcoin: http://tinyurl.com/huczb7m",1,0,0,False
49,Brave New Coin@bravenewcoin,An hour with Vitalik Buterin – http://TheProtocol.TV #ethereum #cryptocurrency http://ow.ly/Xz93E,1,2,0,False
50,Andreas Staub@andi_staub,"Worth Reading! Bankchains Could Be A Mix of #Bitcoin & #Ethereum Technology by @jdebunt
#fintech #blockchain http://ln.is/themerkle.com/news/b/X4dvo…",3,4,0,False
51,ETH Zurich@ETH_en,One of the world’s biggest #electronics manufacturers has adopted #ETH software as standard to pilot #drones. http://bit.ly/1NzY0DC,3,6,0,False
52,฿TF%$Brrrrrr!@CryptoHustle,Nice head and shoulders reversal pattern on #ether.,2,1,0,False
53,Bitcoin@bitcoinpoet,Can I get my ethereum node to send push notifications?:  http://bit.ly/1QD7TqI #ethereumCan I get my ethereum node to send push notifications?Does Ethereum have a configuration option that is similar to Bitcoin's walletnotify configuration option that allows it to send a push...reddit.com,1,0,0,False
54,ethereum.network@EthereumNetw,"#Blockchain: the solution for #transparency in product #supplychain.
#Whitepaper of @ProvenanceHQ on #EthereumBlockchain: the solution for supply chain transparencyA white paper describing how blockchain technology can enable secure traceability of certifications and other product supply chain information.provenance.org",3,3,0,False
55,Ξ Kuba Kucharski @83TB,"Coming soon to your smartphone #ethereum #wallet #lightclientQuote TweetViktor Trón@zeligf · Jan 26, 2016yeehaa ethereum light client has arrived https://twitter.com/ethersphere/status/691880839521640448…",1,1,0,False
56,sia@siaarora123,#ETH Whales manipulations scam coin. There will always be the next get rich premined scam #eth #aurora #paycoin #ipo #ico #bitcoin #litecoin,0,0,0,False
57,avrupa avrupa@AvrupaAv23,Etherieum is a premined scam and there will be no mainstream adoption. It's just a hype scam #btc #bitcoin #ltc #dogecoin #doge #eth,2,0,0,False
58,CRYPTOCOINTALK@cryptocointalk,#Ethereum-based credit rating and #KYC platform Cetas picks up #Citi innovation prize http://ibt.uk/A6SjX via @IBTimesUK #ethereumEthereum-based credit rating and KYC platform Cetas picks up Citi innovation prizeAlgorythmix has picked up first prize for the most transformative use of blockchain in Citi Mobile Challenge.ibtimes.co.uk,2,0,0,False
59,MXJXN.eth@mxjxn,"Just you wait for distributed democratic organizations. #ethereum #dapps #smartcontracts #equity for #workersQuote TweetBernie Sanders@BernieSanders · Jan 27, 2016Despite the fact that millions of workers want to join a union, it has become harder and harder for workers to in fact create unions.",1,0,0,False
60,Gatecoin@Gatecoin,"Amazing @ethereumproject event in HK tonight with @VitalikButerin in person!
#ether #HK",1,0,0,False
61,42 @42_paradox,"People don't realize what todays news mean, well I'm long. #ethereum",1,0,0,False
62,Victoria M.@MzVMack,"Interesting  .... so yeah @twitter y'all need to hurry up and add that edit feature 
#WAVES
#Yeezy
#Ether https://twitter.com/kanyewest/status/692449710452379648…This Tweet is unavailable.",1,0,0,False
63,Alunaut   @onemanatatime,"""#altsareback.""
How I Made 60% On #Ethereum in 3 Days https://youtu.be/9ibACdhwjjg  via @ChrisDunnTV @YouTube #altcoin",3,1,1,False
64,Mr. Profit @ProfitTradeRoom,"Market AfterHours Yesterday
$FATE +19.7%
$ETH +6.8%
$HA +6.0%
$STAG +5.2%
$INO +5.0%
$ARGS -14.4%
$CIE -13.2%
$LCI -10.9%
$X -9.9%
$DYN -8.0",5,3,0,False
65,Da Capo@pjraitt,for me $ETH $BA looking for 1/3 to 1/2 retrace long at some point today $TUP $TRIP #Daytrading #iconicdaytrading.com @IconicTrading,1,0,0,False
66,Mal Ray@iMalRay,"""What's sad is I love you ‘cause you're my brother” @Nas on #ETHER … y’all caught the ether reference here?  https://twitter.com/kanyewest/status/692435254431199233…This Tweet is unavailable.",1,2,0,False
67,Romano@RNR_0,"$ETH is going to pull a 180 on you guys.
Get it dumping.
Don't say I didn't warn you guysETHXBT for KRAKEN:ETHXBT by RomanoRnrdown?tradingview.com",6,1,0,False
68,Open Outcrier@OpenOutcrier,$ETH (+7.8% pre) Ethan Allen results top expectationsEthan Allen results top expectationsEthan Allen Interiors Inc. posted stronger-than-expected results for its December quarter as sales in its retail and wholesale segments climbed. Shares of...marketwatch.com,2,1,0,False
69,Stocks to Buy@stockstobuy,"Fate Therapeutics $FATE is red hot in pre market, up 16% http://daytradingstockblog.blogspot.com/2016/01/hot-stocks-january-27-2016.html… #Stocks $CAPN $APPY $ETH $DWTI",2,1,0,False
70,Dave Mabe@davemabe,"Here's my watchlist for the day: $AAPL, $BA, $BBBY, $BIIB, $CVLT, $ETH, $HA, $SC, $TSS, $TUP, $VMW, $X powered by @TradeIdeas1 @TradeIdeas",1,1,0,False
71,Bitcoin Master@drei4u,"Tsk not good at all: Regardless of where they form, ascending triangles are bullish $ETH - more patience for shortPoloniex BTC/ETH Chart - Published on Coinigy.com on January 27th, 2016 at 10:34 PM.Poloniex BTC/ETH Chart - Indicators used: Volume (true, 20), CM_EMA TrendBars (34, true), Ichimoku (9, 26, 52, 26) - Interval: 60. Published on Coinigy.com on January 27th, 2016 at 10:34 PM.coinigy.com",1,2,2,False
72,Luis@Lus4121,Etherieum is a premined scam and there will be no mainstream adoption. It's just a hype scam #btc #bitcoin #ltc #dogecoin #doge #eth,2,0,0,False
73,AJ Styles@aj_itheking,#ETH Whales manipulations scam coin. There will always be the next get rich premined scam #eth #aurora #paycoin #ipo #ico #bitcoin #litecoin,1,0,0,False
74,asdyatsyfhu@hotmail.@asdyatsyfhuhot1,#ETH Whales manipulations scam coin. There will always be the next get rich premined scam #eth #aurora #paycoin #ipo #ico #bitcoin #litecoin,2,0,0,False
75,asndhygasfhby@hotmai@asndhygasfhbyh1,#ETH Whales manipulations scam coin. There will always be the next get rich premined scam #eth #aurora #paycoin #ipo #ico #bitcoin #litecoin,1,0,0,False
76,Buters santana@Buterssantana,#ETH Whales manipulations scam coin. There will always be the next get rich premined scam #eth #aurora #paycoin #ipo #ico #bitcoin #litecoin,1,0,0,False
77,dj bxthree@DjBxthree,#ETH Whales manipulations scam coin. There will always be the next get rich premined scam #eth #aurora #paycoin #ipo #ico #bitcoin #litecoin,1,0,0,False
78,deejay cosmyn@deejaycosmyn,#ETH Whales manipulations scam coin. There will always be the next get rich premined scam #eth #aurora #paycoin #ipo #ico #bitcoin #litecoin,0,0,0,False
90,Lucas@Luca5Vega,Etherieum is a premined scam and there will be no mainstream adoption. It's just a hype scam #btc #bitcoin #ltc #dogecoin #doge #eth,1,0,0,False
92,StocksGazette@stocksgazette,"#Apple and #DuPont Price Targets cut down, Procter & Gamble and Ethan Allen Interiors PT Lifted $AAPL $DD $PG $ETH
http://goo.gl/42DKQ0",0,0,0,False
93,Julia Edling@bitcointonic,"How To buy #Ethereum (ether) with #Bitcoin: Ether buy, price chart, and wallet @… http://dlvr.it/KL3FQp",0,0,0,False
95,Lúcia Moura@DonaMoura,I just won free 0.00032168 ETHER from  http://ethereumfaucet.org #ether #satoshi #freeether #faucet via @ethereumfaucet,0,0,0,False
97,Bitcoin Master@drei4u,"Going to sleep now. Murphy's law says by the time I wake up, $DOGE and $ETH has already crashed. Bye, short opportunity.",1,1,0,False
98,Gustavo Duran@Gustavo_Duran92,Etherieum is a premined scam and there will be no mainstream adoption. It's just a hype scam #btc #bitcoin #ltc #dogecoin #doge #eth,1,0,0,False
100,boy oh pir@PrinceDuCartel,"Yes, #eth is nothing but whales manipulation on fake volume and fake walls just like the old #bittrex game. #altcoin #scam #fake #bitcoin",0,0,0,False
101,Elizabeth Fraga@ElizabethBeth00,"Yes, #eth is nothing but whales manipulation on fake volume and fake walls just like the old #bittrex game. #altcoin #scam #fake #bitcoin",1,0,0,False
106,Briefing.com@Briefingcom,$ETH: Ethan Allen increased quarterly cash dividend 21% to $0.17/share http://bit.ly/1PFlS06,0,0,0,False
107,boy oh pir@PrinceDuCartel,Etherieum is a premined scam and there will be no mainstream adoption. It's just a hype scam #btc #bitcoin #ltc #dogecoin #doge #eth,1,0,0,False
108,Alan@Noobincrypt,"#Eth ,innovative with smart contracts... also had a massive IPO, maybe because i didn't buy any Im sour. Or maybe the price is too high...",0,0,0,False
109,Gierkiprzegladarkowe@GierkiOnline,"Yes, #eth is nothing but whales manipulation on fake volume and fake walls just like the old #bittrex game. #altcoin #scam #fake #bitcoin",1,0,0,False
110,Gierkiprzegladarkowe@GierkiOnline,Etherieum is a premined scam and there will be no mainstream adoption. It's just a hype scam #btc #bitcoin #ltc #dogecoin #doge #eth,0,0,0,False
111,Louie Smalls@UnderRatedDub,Is it #Either or #Ether @Nas ? #AskingForAFriend https://twitter.com/kanyewest/status/692449710452379648…This Tweet is unavailable.,1,0,0,False
112,Alan@Noobincrypt,"Replying to @Dashpay@Dashpay @ethereumproject nice market caps. @litecoin still 3x eth network hashrate, and 15x dash's. #dash #eth #ltc #btc.",1,0,0,False
113,Martin Köppelmann@koeppelmann,You would never build a startup around an API/service of another startup or even worse: many others. With #Ethereum you can. #trustless,6,7,0,False
114,Reporting Standard XBRL@XBRLStandard,$eth ETHAN ALLEN INTERIORS INC filed a new #XBRL report to the #SEC. http://xbrl4.org/regulators/seeReport.jsp?documentKey=http://www.sec.gov/Archives/edgar/data/896156/000143774916024187/eth-20151231.xml…,0,0,0,False
116,ǝlǝǝʇs ˙ɔ ǝlʎʞ For President 2024@kylecsteele,"15 years later, do you think @Nas still feels the same about Jay Z? Lol #Ether @DJExquizite",1,0,0,False
117,BeatBangGod@DollaVision,GIVE Me Records In 2016#DISSRECORDSOVERTWITTERBEEF #WHEREDIDHIPHOPGO #DISSRECORDS #ETHER… https://instagram.com/p/BBD1IshwTvG/,0,0,0,False
119,nobodyhere@nobodyhere23,Replying to @Vicmatic1119@BoxingVoice_Vic @kanyewest #either #ether What's the difference? @Nas,0,0,0,False
123,MRS ROUFAEIL@MRSROUFAEIL,@cthagod AM I ALONE IN THINKING THAT #ETHER REMARK WAS A SHOT AT HOV,0,0,0,False
124,Douglas Busch CMT@chartsmarter,"ChartSmarter Thursday Game Plan: http://chartsmarter.com/2016/01/27/chartsmarter-thursday-game-plan-12816/… ""retail telling a tale"" $PII $HOG $TUP $ETH $AAPL $WMT $PIR",0,0,0,False
126,Persistence Pays@Leo_Livs,Oh my. #ether https://twitter.com/tare_bear_/status/692469066032873472…This Tweet is unavailable.,1,0,0,False
128,Instrumental Data@InstrumentalD,ETHAN ALLEN INTERIORS INC $ETH 10-Q now available,0,0,0,False
129,Leone Clarke@ErleeEnt,@applemusic #APPLEMUSIC  #ETHER  @ Silicon Beach https://instagram.com/p/BBDx4G7tE4D/,1,0,0,False
130,lok319321@eakdoakjeoa3,Etherieum is a premined scam and there will be no mainstream adoption. It's just a hype scam #btc #bitcoin #ltc #dogecoin #doge #eth,1,0,0,False
131,REALz--IG:REALITY201@REALITY201,#Ether*  RT @kanyewest: Man it’s a sad a day… Wiz lost 2 million followers since I tweeted      I didn’t mean to either him like that.,0,0,0,False
132,Joshua@OGJC103,12th You wouldn’t have a child if it wasn’t for me #Ether #KanyeTweet,0,0,0,False
133,Mz Lili@Stormy_Diva,"So everybody gon act like they didn't notice that @kanyewest said he ""either""ed @WizKhalllifa??? #Ether idiotQuote TweetTheShadeRoom@TheShadeRoom · Jan 27, 2016#KanyeWest still going off lawd  #Wiz http://ift.tt/1Vsv722",1,0,0,False
134,lok319321@eakdoakjeoa3,"Yes, #eth is nothing but whales manipulation on fake volume and fake walls just like the old #bittrex game. #altcoin #scam #fake #bitcoin",1,0,0,False
135,Kevin Osterling@kevin_osterling,How will #bitcoin smartcontract capabilities come to fruition? #Rootstock ? #ethereum #crypto,1,0,0,False
136,Tommas Scottward@TommasScottward,"Yes, #eth is nothing but whales manipulation on fake volume and fake walls just like the old #bittrex game. #altcoin #scam #fake #bitcoin",1,0,0,False
138,Patrick R.@PatiROC4,"Yes, #eth is nothing but whales manipulation on fake volume and fake walls just like the old #bittrex game. #altcoin #scam #fake #bitcoin",1,0,0,False
139,alen hasanovic@hasanny6,#ETH Whales manipulations scam coin. There will always be the next get rich premined scam #eth #aurora #paycoin #ipo #ico #bitcoin #litecoin,0,0,0,False
140,Menno Pietersen@btc_feed,"Vitalik #Buterin interview on http://TheProtocol.TV - #BTC #ETH #Ethereum #Bitcoin #cryptocurrency
https://btc-feed.com/bitcoin-news/vitalik-buterin-interview-on-theprotocoltv/…",0,0,0,False
141,Menno Pietersen@MennoPP,"Vitalik #Buterin interview on http://TheProtocol.TV - #BTC #ETH #Ethereum #Bitcoin #cryptocurrency
https://btc-feed.com/bitcoin-news/vitalik-buterin-interview-on-theprotocoltv/…",1,0,0,False
143,dividend hike@dividendhike,Ethan Allen hikes dividend by 21.4% to $0.17 q. $ETH #dividend,0,0,0,False
145,PettyCLIToriian@Ferociiousiiam,Ye' spelled #ether wrong.,0,0,0,False
151,Magician Mad Mad™@JoeCannon110SBG,That shxt that makes your soul burn slow... #Ether @ East… https://instagram.com/p/BBDsRnkF6jvlYA7baaF8Ev8ge8kaEuKMu9NAzU0/…,0,0,0,False
152,iHostGeeks@iHostGeeks,"Yes, #eth is nothing but whales manipulation on fake volume and fake walls just like the old #bittrex game. #altcoin #scam #fake #bitcoin",0,0,0,False
153,Ḿ̶̡̯̟̫͍̞̌̓̍̕̚i̶͖̼͑̑̆̿̂͌̃̽͊ͅk̴̠̎͊̍̔̿͆͝y̸̓̿l@MrMikyl,"This may be the tweet version of #etherQuote TweetAmber Rose@DaRealAmberRose · Jan 27, 2016Awww @kanyewest are u mad I'm not around to play in ur asshole anymore? #FingersInTheBootyAssBitch",0,0,0,False
154,wewantequality@HiroJaReviews,[PREVIEW] Vitalik Buterin - Ethereum | http://TheProtocol.TV https://youtu.be/beuolvPd6KY via @YouTube #Ethereum[PREVIEW] Vitalik Buterin - Ethereum | TheProtocol.TVThis is a preview of a 1-hour interview with Vitalik Buterin of Ethereum. Watch the full video using bitcoin micropayment at:https://TheProtocol.TV/Vitalik I...youtube.com,0,0,0,False
155,iHostGeeks@iHostGeeks,Etherieum is a premined scam and there will be no mainstream adoption. It's just a hype scam #btc #bitcoin #ltc #dogecoin #doge #eth,2,0,0,False
157,Ricochet@RicochetOnAir,"., @RicochetOnAir: @DaRealAmberRose Claps Back #KanyexWiz #Ether? or Nah?",1,0,0,False
158,joe djamel@joedjamel0005,"Yes, #eth is nothing but whales manipulation on fake volume and fake walls just like the old #bittrex game. #altcoin #scam #fake #bitcoin",1,0,0,False
159,Remi Adetiba@remiadetiba,"Trump to Kanye: ""I AM YOUR OG!"" #ether",0,0,0,False
160,9:10@JwingzPlayr,Listen to #TheseNights #np on #SoundCloud #kanyewest #kayne #wiz #wizkhifa #beef #ether #kk #amberrose #north #tgod https://soundcloud.com/bulletgang-1/these-nights…,0,0,0,False
161,Corner Coin@Corner_Coin,The price of #Ether jumped another 25% in the last 24 hours alone http://goo.gl/q1l9uU #fintech #bitcoin,0,0,0,False
162,Don Cornelius@FratBoy_1963,Amber Rose came through and shut shit down with just 1 tweet. #Ether,1,0,0,False
164,There’s still work to do.@CRAD_1985,Either  #ether https://twitter.com/kanyewest/status/692449710452379648…This Tweet is unavailable.,1,0,0,False
165,Fuccouttahurr@Fuccouttahurr,Replying to @DaRealAmberRose@DaRealAmberRose @burrrSOLO1017 @kanyewest Lmmfao #ether nuff said @wizkhalifa,2,1,0,False
166,$eany Darko@SeanyDesignr,ETHER Kanye #ether ether* @Nas you $ee thi$ $h!t https://twitter.com/kanyewest/status/692449710452379648…This Tweet is unavailable.,0,0,0,False
170,samer slaibe@Samer_Slaibe,"Replying to @kanyewest@kanyewest yeah stay in your lane and pretend you got the balls to diss Jay Z!!! Didn't mean to ""either"" him huh  #Ether",0,0,0,False
173,Homero Simpson@egallo40831,"Dude so original he stole a @Nas reference and misspelled it
#ETHER https://twitter.com/kanyewest/status/692449710452379648…This Tweet is unavailable.",0,0,0,False
175,K.B@respectnotfear,also #ether,0,0,0,False
176,Danny R.@bo0tedguy,Probably doesn't want to spell #ether right .. Brings bad flashbacks of #jayz https://twitter.com/kanyewest/status/692449710452379648…This Tweet is unavailable.,0,0,0,False
177,Ben King@Grimeandreason,"Replying to @ThisIsNuse@ThisIsNuse awesome fun aint it? 300% ride with $eth, 400% $doge, & 9 out of my ten coins are 20-30% up, and the other is $xmr. Happy days!",1,1,0,False
178,The 5 * G@Yaw_Twum,'Either'???.. u spelling is as bad as ur logic. #Ether https://twitter.com/kanyewest/status/692449710452379648…This Tweet is unavailable.,0,0,0,False
179,Danny R.@bo0tedguy,You need to learn how to spell # #ETHER https://twitter.com/kanyewest/status/692449710452379648…This Tweet is unavailable.,0,0,0,False
181, pinky@JeunesseYvonne,lmaooo that #ETHER RT @kanyewest Man it’s a sad a day… Wiz lost 2 million followers since I tweeted I didn’t mean to either him like that.,0,0,0,False
182,Fran Boogie@FranBoogie,Replying to @Wells_P@Wells_P #EITHER a more potent form of #ETHER ...apparently ,1,0,0,False
183,Leo Deblin@WarriorKing85,"Also….

#Either is not the same as #Ether",1,0,0,False
184,1ke@1of1ke,Lmao #ETHER https://twitter.com/kanyewest/status/692449710452379648…The following media includes potentially sensitive content. Change settingsView,1,1,0,False
185,MRS ROUFAEIL@MRSROUFAEIL,IS #ETHER A DIG AT HOVRT @kanyewest: Wiz lost 2 million followers since I tweeted      I didn’t mean to either him like that.,0,0,0,False
186,Alex Lawn@BitcoinORama,"@leashless With respect to chat concerning @Blockstream & #LightningNetwork #Ethereum #DevCon what do you make of:Unmasking the Blockstream Business Plan#Background **sidechains** Sidechains are secondary two-way ""pegged"" blockchains that are interoperable with the bitcoin blockchain, which allow...reddit.com",1,0,0,False
187,BoogieBlack@Boogeyman1988,"Whoa whoa whoa....wait a minute.
Ma'am u forgot to drop the Mic
#EtherQuote TweetAmber Rose@DaRealAmberRose · Jan 27, 2016Awww @kanyewest are u mad I'm not around to play in ur asshole anymore? #FingersInTheBootyAssBitch",0,0,0,False
189,Mr. Cinco De Mayo!@By1333,"@DaRealAmberRose took a page out of #ETHER #FINGERSINTHE... LMAOQuote TweetA. Karl-Heinz@MrJayBreezy · Jan 27, 2016Replying to @DaRealAmberRose@DaRealAmberRose @kanyewestGIF",0,0,0,False
191,GREG SMITH@glsmith04,"How to shut down fifteen (or so) tweets with just one... #EtherQuote TweetAmber Rose@DaRealAmberRose · Jan 27, 2016Awww @kanyewest are u mad I'm not around to play in ur asshole anymore? #FingersInTheBootyAssBitch",0,0,0,False
192,thebookgirly@thebookgirly,Treated myself to a little #ethereum today ,1,0,0,False
194,SakiyHD@x_MikeYT,Etherieum is a premined scam and there will be no mainstream adoption. It's just a hype scam #btc #bitcoin #ltc #dogecoin #doge #eth,1,0,0,False
195,SakiyHD@x_MikeYT,"Yes, #eth is nothing but whales manipulation on fake volume and fake walls just like the old #bittrex game. #altcoin #scam #fake #bitcoin",0,0,0,False
196,Aro Nalbandyan@Bond13643626,Etherieum is a premined scam and there will be no mainstream adoption. It's just a hype scam #btc #bitcoin #ltc #dogecoin #doge #eth,1,0,0,False
197,Ethereum SE@StackEthereum,What's the difference between developer mode and testnet? http://tinyurl.com/zrbpdqt #ethereum,0,0,0,False
198,Tafadzwa@TheSuperior_,this where the #Ether starts  https://twitter.com/kanyewest/status/692421878678491137…This Tweet is unavailable.,0,0,0,False
199,Pull Ur Mask Up Shorty@myopinion1016,This is the #ether line for me https://twitter.com/kanyewest/status/692426982273998849…This Tweet is unavailable.,0,0,0,False
200,jasmine@jBSTEEL_,@TaylorGang with the #ETHER ,0,0,0,False
201,Manuel Bento Falcón@maokoto,I just won free 0.00101200 ETHER from  http://ethereumfaucet.org #ether #satoshi #freeether #faucet vía @ethereumfaucet,0,0,0,False
202,Jere Gat@HaxhereG,My favorite rap songs are burn tracks #ether #BackToBack #hitemup #BlackFriday I wonder what that says about me....,0,0,0,False
203,Day Trade Machine@DayTradeMachine,COVER $ETH Price : 26.26 (27.95)  Profit $604.65.  Taking Profits (low)  Total $4489.67 ...(P:12) 27/01/2016 14:57:12,0,0,0,False
204,ethereum.network@EthereumNetw,"How to slowly lose control: decentralizing a project with @Backfeed_cc on #Ethereum by @OuiShareFest
http://buff.ly/1SaJavz",2,0,0,False
205,lambo p @__Pandaxxx,Dogggthe #ether ain't got shit on #kanyecombo that man got Uzi Twitter finger.....got bodied by a fashion nigga.....damn Wiz,0,0,0,False
207,TalkMarkets Recap@MarketsRecap,"Morning Call For January 27, 2016 $COF $ETH $SYK $T $TSS $X $RPTP $HA $AAPL $CA $ANTM http://goo.gl/xgXnrg",1,0,0,False
208,Alexander Mathys@Food_Technology,Check out the recent #article: Why #ETH investigates the #wastage of #food. https://lnkd.in/euufP3U,1,0,0,False
209,Hanamichi Sakuragi@saku10tensai,Etherieum is a premined scam and there will be no mainstream adoption. It's just a hype scam #btc #bitcoin #ltc #dogecoin #doge #eth,1,0,0,False
210,൩ﺃ८ɧลᕦ⎝ ⵙ⎝ﺃ🜄ᕦГ@MrOliv3r,Whewwwwwwwww...  #ether https://twitter.com/kanyewest/status/692428123976110080…This Tweet is unavailable.,0,0,0,False
211,Hugh Lang@hughlang,Ethereum-based credit rating and KYC platform Cetas picks up Citi innovation prize http://ibt.uk/A6SjX via @IBTimesUK #ethereum,1,0,0,False
212,Anil Sethi@anilsethi,#ETH software for #drones http://sciencebusiness.net/news/77401/ETH-software-to-become-a-standard-for-drones#.VqkV7-c5KcI.twitter… (via @scibus) spirit of #entrepreneurship alive and well,0,0,0,False
213,Mathafack__@intyunkut1,"Yes, #eth is nothing but whales manipulation on fake volume and fake walls just like the old #bittrex game. #altcoin #scam #fake #bitcoin",1,0,0,False
214,Vincent Vega@JetV317,Replying to @wizkhalifa@wizkhalifa #Ether that boy,0,0,0,False
215,MD MAMUNREJA@mamuntoreja2311,Etherieum is a premined scam and there will be no mainstream adoption. It's just a hype scam #btc #bitcoin #ltc #dogecoin #doge #eth,1,0,0,False
216,Jose Ferreira@hart_tu_me,I just won free 0.00063125 ETHER from  http://ethereumfaucet.org #ether #satoshi #freeether #faucet via @ethereumfaucet,0,0,0,False
217,Onfollow@OnFollow_fr,Etherieum is a premined scam and there will be no mainstream adoption. It's just a hype scam #btc #bitcoin #ltc #dogecoin #doge #eth,1,0,0,False
218,Dhea Nur Ramadhani@_dheaNr,Etherieum is a premined scam and there will be no mainstream adoption. It's just a hype scam #btc #bitcoin #ltc #dogecoin #doge #eth,0,0,0,False
233,dj bxthree@DjBxthree,"Yes, #eth is nothing but whales manipulation on fake volume and fake walls just like the old #bittrex game. #altcoin #scam #fake #bitcoin",0,0,0,False
234,dj bxthree@DjBxthree,Etherieum is a premined scam and there will be no mainstream adoption. It's just a hype scam #btc #bitcoin #ltc #dogecoin #doge #eth,0,0,0,False
235,Ethereum SE@StackEthereum,How to connect mist to a testnet client? http://tinyurl.com/hdmo5em #ethereum,0,0,0,False
236,Ethereum SE@StackEthereum,Are there any barriers to implementing an ethereum node as a chrome or firefox extension? http://tinyurl.com/zlrrrm7 #ethereum,0,0,0,False
238,Gunther@GuntherBTC,Dump all your $ETH.  https://twitter.com/d_seaman/status/692414358677114881…This Tweet is unavailable.,3,1,0,False
240,ZTradeCZAR@ZtradeCZAR,on the radar: $HA $GLNG $DGAZ $UVXY $ETH $XON $CRZO $FCX $RUSL $TEX $CA $AAPL #daytrade #stocks,0,0,0,False
242,Ticker Report@TickerReport,Ethan Allen Interiors Inc. $ETH Price Target Increased to $37.00 by Analysts at Dougherty & Co http://ift.tt/1nof1vg,0,0,0,False
244,FirstToMarkets@firsttomarkets,Ethan Allen Interiors Inc.  Boost Price Target by Dougherty & Company (Ranked 94th) to Buy with 37 PT $ETH #ETH http://firsttomarkets.com/analytics/stocks/stock?sId=1568#tabs-reiterated…,0,0,0,False
245,plamen.dimitrov@DimitroPlamen,I just won free 0.00098200 ETHER from  http://etherfaucet.org #ether #satoshi #freeether #faucet via @etherfaucet,0,0,0,False
246,plamen.dimitrov@DimitroPlamen,I just won free 0.00101200 ETHER from  http://ethereumfaucet.org #ether #satoshi #freeether #faucet via @ethereumfaucet,0,0,0,False
247,MarketBeat@MarketBeatCom,Ethan Allen Interiors's PT raised by Dougherty  & Co to $37.00. buy rating. http://ift.tt/1SjDNIA $ETH #ETH,0,0,0,False
255,plamen.dimitrov@DimitroPlamen,I just won free 0.00032168 ETHER from  http://ethereumfaucet.org #ether #satoshi #freeether #faucet via @ethereumfaucet,0,0,0,False
256,Dhea Nur Ramadhani@_dheaNr,"Yes, #eth is nothing but whales manipulation on fake volume and fake walls just like the old #bittrex game. #altcoin #scam #fake #bitcoin",1,0,0,False
257,Sane Delay@paesean,#Ethereum's @wmougayar announces Business #Blockchain books and conference http://ibt.uk/A6Sfz via #vfq,1,0,0,False
259,tonnyx@tonnyx08,I just won free 0.00101200 ETHER from  http://ethereumfaucet.org #ether #satoshi #freeether #faucet via @ethereumfaucet,0,0,0,False
260,EPS Trader@epstrader,$ETH is showing its highest volume following earnings in at least two quarters.,0,0,0,False
261,michelle medeiros@puraheaven,"Yes, #eth is nothing but whales manipulation on fake volume and fake walls just like the old #bittrex game. #altcoin #scam #fake #bitcoin",1,0,0,False
262,Ludwiq van Lone@LudwiqVan,Etherieum is a premined scam and there will be no mainstream adoption. It's just a hype scam #btc #bitcoin #ltc #dogecoin #doge #eth,0,0,0,False
263,Ludwiq van Lone@LudwiqVan,"Yes, #eth is nothing but whales manipulation on fake volume and fake walls just like the old #bittrex game. #altcoin #scam #fake #bitcoin",1,0,0,False
264,$ini Bill Wok Gang @Sinixmonkey,#ETH Whales manipulations scam coin. There will always be the next get rich premined scam #eth #aurora #paycoin #ipo #ico #bitcoin #litecoin,0,0,0,False
265,seba kom@k55_seba,#ETH Whales manipulations scam coin. There will always be the next get rich premined scam #eth #aurora #paycoin #ipo #ico #bitcoin #litecoin,0,0,0,False
266,ethereum.network@EthereumNetw,"Decentralize and prosper!
with @Backfeed_cc on #Ethereum
http://buff.ly/1QCzpEC",2,0,0,False
267,himu@HimuSuvas01982,"Yes, #eth is nothing but whales manipulation on fake volume and fake walls just like the old #bittrex game. #altcoin #scam #fake #bitcoin",1,0,0,False
268,seba kom@k55_seba,Etherieum is a premined scam and there will be no mainstream adoption. It's just a hype scam #btc #bitcoin #ltc #dogecoin #doge #eth,1,0,0,False
269,seba kom@k55_seba,"Yes, #eth is nothing but whales manipulation on fake volume and fake walls just like the old #bittrex game. #altcoin #scam #fake #bitcoin",0,0,0,False
270,$ini Bill Wok Gang @Sinixmonkey,Etherieum is a premined scam and there will be no mainstream adoption. It's just a hype scam #btc #bitcoin #ltc #dogecoin #doge #eth,0,0,0,False
271,jssijisj@jssijisj,Etherieum is a premined scam and there will be no mainstream adoption. It's just a hype scam #btc #bitcoin #ltc #dogecoin #doge #eth,3,0,0,False
272,$ini Bill Wok Gang @Sinixmonkey,"Yes, #eth is nothing but whales manipulation on fake volume and fake walls just like the old #bittrex game. #altcoin #scam #fake #bitcoin",1,0,0,False
274,Janet R. Cooley@reepho1989,Etherieum is a premined scam and there will be no mainstream adoption. It's just a hype scam #btc #bitcoin #ltc #dogecoin #doge #eth,1,0,0,False
275,WLST.com@wlstcom,Ethereum-based credit rating and KYC platform Cetas picks up Citi innovation prize $ETH http://ibtimes.co.uk/ethereum-based-credit-rating-kyc-platform-cetas-picks-citi-innovation-prize-1540423…,0,0,0,False
284,Global BD Trading@GlobalBDTrading,Some stocks We are trading today: $ETH $MTSI $TEX $TUP,0,0,0,False
285,Ethereum SE@StackEthereum,How can I verify a cryptographic signature that was produced by an Ethereum address key pair http://tinyurl.com/h4ahmuh #ethereum,0,0,0,False
286,♡@SushiMagcon,Etherieum is a premined scam and there will be no mainstream adoption. It's just a hype scam #btc #bitcoin #ltc #dogecoin #doge #eth,1,0,0,False
287,♡@SushiMagcon,"Yes, #eth is nothing but whales manipulation on fake volume and fake walls just like the old #bittrex game. #altcoin #scam #fake #bitcoin",0,0,0,False
288,Ethereum SE@StackEthereum,How do stop a running geth node? http://bit.ly/1lSviHE #ethereum,0,0,0,False
289,Ethereum SE@StackEthereum,'symbol lookup error: /usr/lib/libdevcrypto.so' when running eth or mix? http://bit.ly/1lSvfMf #ethereum,0,0,0,False
290,ethereum.network@EthereumNetw,"Can #Ethereum replace @Uber, @Spotify and @Airbnb?
Yes, with decentralized autonomous organizations #DAO
http://buff.ly/23sYs26 @scottros",9,8,0,False
291,ivan@IvanVenge23,I just won free 0.00059125 ETHER from  http://etherfaucet.org #ether #satoshi #freeether #faucet via @etherfaucet,0,0,0,False
292,Инга@darkqueen_95,"Yes, #eth is nothing but whales manipulation on fake volume and fake walls just like the old #bittrex game. #altcoin #scam #fake #bitcoin",1,0,0,False
293,Utkarsh Verma@mtaram,#Ethereum based credit rating and KYC platform Cetas picks up Citi innovation prize http://ibt.uk/A6SjX via @IBTimesUK @KumarLuv,1,0,0,False
294,Crypto Ace@CryptoAce,Time to catch some flaming candles. $ETH #ethereum,0,0,0,False
297,Sữa Ong Chúa@asdf199x,Etherieum is a premined scam and there will be no mainstream adoption. It's just a hype scam #btc #bitcoin #ltc #dogecoin #doge #eth,1,0,0,False
298,tonnyx@tonnyx08,I just won free 0.00098200 ETHER from  http://etherfaucet.org #ether #satoshi #freeether #faucet via @etherfaucet,0,0,0,False
299,diaby boy@Diabysety8Boy,Etherieum is a premined scam and there will be no mainstream adoption. It's just a hype scam #btc #bitcoin #ltc #dogecoin #doge #eth,1,0,0,False
301,ivan@IvanVenge23,I just won free 0.00098200 ETHER from  http://etherfaucet.org #ether #satoshi #freeether #faucet via @etherfaucet,0,0,0,False
311,Maisha Mridha II@IiMaisha,"Yes, #eth is nothing but whales manipulation on fake volume and fake walls just like the old",0,0,0,False
312,diana petrova@DianaZivkova,I just won free 0.00059125 ETHER from  http://etherfaucet.org #ether #satoshi #freeether #faucet via @etherfaucet,0,0,0,False
314,Alexander Morris@tymorapro,"$ETH: Waterfall-:2 [+2%,.5%offLo], News[Earn][Upgrd], 7:2Accel-, tf:1110000; TrdVol:10x:11x; TLM:2.0; ILM:1.5, phGap[+8.0%,ret:7.5%],",0,0,0,False
315,Bitcoin@bitcoinpoet,Looking for someone with tech skills to build dapps:  http://bit.ly/1lShuwS #ethereum,0,0,0,False
317,Corner Coin@Corner_Coin,#Ethereum Now Second Biggest #Cryptocurrency as Market Cap Reaches $200m http://goo.gl/q1l9uU via @financemagnates #fintech #bitcoin,1,0,0,False
318,ethereum.network@EthereumNetw,"Follow Smoked Haddock from fisherman to dinner plate on the #Ethereum @ProvenanceHQ
http://buff.ly/1KFiTgN",1,0,0,False
320,killi123456@killi1111,#ETH Whales manipulations scam coin. There will always be the next get rich premined scam #eth #aurora #paycoin #ipo #ico #bitcoin #litecoin,0,0,0,False
321,killi123456@killi1111,Etherieum is a premined scam and there will be no mainstream adoption. It's just a hype scam #btc #bitcoin #ltc #dogecoin #doge #eth,0,0,0,False
322,Patrizio Stavola@halovast,"Brooklyn’s new kid on the blockchain in talks with 25 investment banks, ‘Big Four’ accounting firms http://bizjournals.com/newyork/news/2016/01/26/brooklyn-s-new-kid-on-the-blockchain-in-talks-with.html?ana=twt… #ethereumBrooklyn’s new kid on the blockchain in talks with banks, accountantsBrooklyn-based blockchain company, Consensys, says it has spoken to 25 investment banks and all of the ""Big Four"" accounting firms about building blockchain-based products.bizjournals.com",0,0,0,False
323,1 min Stock Insights@1MinuteStock,Do you know that #Book Value for $ETH is $13.35ETH — Ethan Allen Interiors Inc - comprehensive stock analysis.Ethan Allen Interiors Inc - ETH comprehensive stock analysis. Make proper investment decisions with analytics from Unicorn Bay.unicornbay.com,0,0,0,False
325,Ethereum SE@StackEthereum,How to integrate Ethererum support into CoinSpace? http://tinyurl.com/jdjkw4a #ethereum,0,0,0,False
326,Ben King@Grimeandreason,"So, out of $ETH and $DOGE, now waiting for whichever of $NXT, $XMR, $BLK, $DGB, $SYS and $MAID want to pop next. Almost at 0.5 btc again..",1,0,0,False
327,Corner Coin@Corner_Coin,"Bankchains Could Be A Mix of #Bitcoin And #Ethereum Technology http://goo.gl/AQ6smI via @jdebunt #fintechBankchains Could Be A Mix of Bitcoin And Ethereum TechnologyWith so many established financial players focusing on Bitcoin technology these days, a lot of people are wondering how they are planning to use the blockchain exactly. There is no doubt this powerfulthemerkle.com",0,0,0,False
328,Abdallah Mohamed Abd@am100abdallah,"Yes, #eth is nothing but whales manipulation on fake volume and fake walls just like the old #bittrex game. #altcoin #scam #fake #bitcoin",0,0,0,False
329,Abdallah Mohamed Abd@am100abdallah,Etherieum is a premined scam and there will be no mainstream adoption. It's just a hype scam #btc #bitcoin #ltc #dogecoin #doge #eth,1,0,0,False
330,Victoria Adams@ToriinDC,#Ethereum's William Mougayar announces Business #Blockchain books and conference - http://goo.gl/alerts/vEqOk #GoogleAlerts,0,0,0,False
332,"Trade Alerts, Trade Ideas and Crypto @AlertTrade",Price Action Alert $ETH - ETHAN ALLEN INTERIORS #stocks #intraday ― via #AlertTrade,0,0,0,False
333,ethereum.network@EthereumNetw,".@GoldmanSachs Director: #Blockchain (aka #Ethereum ;) provides 'Single Truth' for banks
http://buff.ly/1lRIwEM",1,0,0,False
334,Briefing.com@Briefingcom,"Ethan Allen (ETH) trades sharply higher on DecQ earnings; nice margin          
expansion http://bit.ly/1KaEliT $ETH",0,0,0,False
335,Day Trade Machine@DayTradeMachine,"CLOSING GAP SHORT 358 $ETH Price : 27.95  (P:2,C:-3%,G:10%) 27/01/2016 09:44:49",0,0,0,False
337,RATAN00903@ratan00903,"Yes, #eth is nothing but whales manipulation on fake volume and fake walls just like the old #bittrex game. #altcoin #scam #fake #bitcoin",1,0,0,False
338,Analyst Ratings@ARatings,Ethan Allen Got Some Good News $ETH http://analystratings.com/2016/01/27/ethan-allen-got-some-good-news/429165/…,0,0,0,False
339,Ticker Report@TickerReport,Ethan Allen Interiors Inc. $ETH Upgraded at Gabelli http://ift.tt/1Pjmvut,0,0,0,False
341,Mr Connected@SellSideSource,"$ETH upgraded today by Gabelli Analyst Justin Bergner said Ethan Allen reported a ""blowout quarter""",0,0,0,False
342,FirstToMarkets@firsttomarkets,Ethan Allen Interiors Inc.  Upgrade by Gabelli & Co (Ranked 61st) to Buy with 34 PT $ETH #ETH http://firsttomarkets.com/analytics/stocks/stock?sId=1568#tabs-upgrade…,0,0,0,False
344,killi123456@killi1111,"Yes, #eth is nothing but whales manipulation on fake volume and fake walls just like the old #bittrex game. #altcoin #scam #fake #bitcoin",1,0,0,False
345,Chuck's Conscious Stream@chuckwilliams37,"Ok, ok, I'll shut up about  #bitcoin if you'll buy some #ether!",0,0,0,False
346,Deniz Why So Serious@cclifecctt,#ETH Whales manipulations scam coin. There will always be the next get rich premined scam #eth #aurora #paycoin #ipo #ico #bitcoin #litecoin,0,0,0,False
352,Deniz Why So Serious@cclifecctt,"Yes, #eth is nothing but whales manipulation on fake volume and fake walls just like the old #bittrex game. #altcoin #scam #fake #bitcoin",0,0,0,False
353,Eka Nurochman@LawlietEn,"Now u can cloud #mining #ethercoin #ethereum. Get 2.5% #discount by input this code ""OfSCaG"". Register now! Here => http://buff.ly/1SaAK7i",0,0,0,False
354,didas@didas2210,I just won free 0.00059125 ETHER from  http://etherfaucet.org #ether #satoshi #freeether #faucet via @etherfaucet,0,0,0,False
355,MarketBeat@MarketBeatCom,Ethan Allen Interiors upgraded by Gabelli to buy. $34.00 PT. http://ift.tt/1TnDKMK $ETH #ETH,0,0,0,False
356,US Stock Ratings@usratings,"Gabelli & Co upgrades $ETH from Hold to Buy, target price to $34.0 http://99wallstreet.com/ratings/stock/ETH/…",0,0,0,False
357,Drekzak@Drekzak123lol,Etherieum is a premined scam and there will be no mainstream adoption. It's just a hype scam #btc #bitcoin #ltc #dogecoin #doge #eth,1,0,0,False
358,Drekzak@Drekzak123lol,"Yes, #eth is nothing but whales manipulation on fake volume and fake walls just like the old #bittrex game. #altcoin #scam #fake #bitcoin",1,0,0,False
359,Briefing.com@Briefingcom,$ETH: Gabelli & Co ups to Buy,0,0,0,False
362,dymovoy@12dymovoy12,I just won free 0.00059125 ETHER from  http://etherfaucet.org #ether #satoshi #freeether #faucet via @etherfaucet,0,0,0,False
363,Media Sentiment®@mediasentiment,"$ETH received a new alert. Find out why at http://mediasentiment.com #stocks #daytrading #trading #mkt #NYSE #NASDAQ #markets 364Media Sentiment, Inc.Strictly speaking, we created the media sentiment field in 2001 and registered the media sentiment trademark in 2006. In 2013, we are shaping a new field for social media sentiment so news and...mediasentiment.com",0,0,0,False
364,SIAnalystWire@AnalystWire,Gabelli Upgrades Ethan Allen Interiors $ETH to Buy http://streetinsider.com/r/11251248,0,0,0,False
369,Hernz@hernzzzzzz,I still have 5 $ETH cuz I heard it's the future.,0,0,0,False
371,dymovoy@12dymovoy12,I just won free 0.00098200 ETHER from  http://etherfaucet.org #ether #satoshi #freeether #faucet via @etherfaucet,0,0,0,False
372,dymovoy@12dymovoy12,I just won free 0.00063125 ETHER from  http://ethereumfaucet.org #ether #satoshi #freeether #faucet via @ethereumfaucet,0,0,0,False
374,Hiiiiiii@AdelaHorkov,"Yes, #eth is nothing but whales manipulation on fake volume and fake walls just like the old #bittrex game. #altcoin #scam #fake #bitcoin",1,0,0,False
376,Frisb@pterion2910,FYI $eth so far looks like a shakeout. Uptrend should resume shortly. Shorters beware.,0,0,0,False
377,indxio@indxio,#Russia Market Close || #Bitcoin: $393.81 | 367.43 EUR||  #Litecoin: 0.0082 BTC  || #Ethereum: 0.0061 BTC   || $BTC $LTC $ETH $RUB,1,0,0,False
378,TalkMarkets@TalkMarkets,"Morning Call For January 27, 2016 $COF $ETH $SYK $T $TSS $X $RPTP $HA $AAPL $CA $ANTM http://goo.gl/xgXnrg",1,0,0,False
381,angel gabriel@AngelLc120,"Yes, #eth is nothing but whales manipulation on fake volume and fake walls just like the old #bittrex game. #altcoin #scam #fake #bitcoin",1,0,0,False
382,angel gabriel@AngelLc120,Etherieum is a premined scam and there will be no mainstream adoption. It's just a hype scam #btc #bitcoin #ltc #dogecoin #doge #eth,0,0,0,False
383,ethereum.network@EthereumNetw,"#Blockchain: a new revolution in the digital economy #peerproduction
@yaoeo from @Backfeed_cc on #Ethereum
http://buff.ly/1Sj2NQd",4,3,0,False
384,Ben Silverberg@silverjet2,$ETH jumped ~5.0% in AH tradings on posting Q2 adj EPS 0.55 vs est 0.44; watch $LZB $PIR $RH,0,0,0,False
385,David Egea Gomez@wtfmaniaco,#ETH Whales manipulations scam coin. There will always be the next get rich premined scam #eth #aurora #paycoin #ipo #ico #bitcoin #litecoin,0,0,0,False
386,ethereum.network@EthereumNetw,"Article in German on how to setup an #Ethereum wallet and to receive ether.Quote Tweetcryptinsight@cryptinsight · Jan 27, 2016Ethereum-Wallet einrichten und Ether Coins empfangen #fintech #bitcoin #Ether #ethereum #Wallet http://btc-echo.de/ethereum-ether-wallet-einrichten-2015081402…",0,0,0,False
387,David Egea Gomez@wtfmaniaco,"Yes, #eth is nothing but whales manipulation on fake volume and fake walls just like the old #bittrex game. #altcoin #scam #fake #bitcoin",1,0,0,False
388,asdfasdfasdf@adsfasdfasdfa16,#ETH Whales manipulations scam coin. There will always be the next get rich premined scam #eth #aurora #paycoin #ipo #ico #bitcoin #litecoin,0,0,0,False
389,ethereum.network@EthereumNetw,"Know something about #Ethereum? Help us write the Homestead documentation for the next step.homestead documentation initiativeAs the ethereum ecosystem and community are growing at an incredible pace and the tech is progressing, existing documentation is becoming ever...reddit.com",1,1,0,False
390,Marco Zanferrari@marcozanferrari,"#ETH researchers have developed a new #water #filtration system superior to existing systems in many respects
https://ethz.ch/en/news-and-events/eth-news/news/2016/01/highly-efficient-heavy-metal-ions-filter.html…",0,0,0,False
391,mert@MertTrpara2016,Etherieum is a premined scam and there will be no mainstream adoption. It's just a hype scam #btc #bitcoin #ltc #dogecoin #doge #eth,1,0,0,False
392,Bitcoin Master@drei4u,LOL $ETH https://twitter.com/theuncoder/status/692299267998928896…This Tweet is unavailable.,0,0,0,False
399,asdfasdfasdf@adsfasdfasdfa16,"Yes, #eth is nothing but whales manipulation on fake volume and fake walls just like the old #bittrex game. #altcoin #scam #fake #bitcoin",0,0,0,False
400,asdfasdfasdf@adsfasdfasdfa16,Etherieum is a premined scam and there will be no mainstream adoption. It's just a hype scam #btc #bitcoin #ltc #dogecoin #doge #eth,1,0,0,False
401,Anabela Isailovic@AnabelaIsailovi,"Yes, #eth is nothing but whales manipulation on fake volume and fake walls just like the old #bittrex game. #altcoin #scam #fake #bitcoin",1,0,0,False
403,Reyansh Sharma@reyansh6sharma1,#ETH Whales manipulations scam coin. There will always be the next get rich premined scam #eth #aurora #paycoin #ipo #ico #bitcoin #litecoin,0,0,0,False
404,Anabela Isailovic@AnabelaIsailovi,Etherieum is a premined scam and there will be no mainstream adoption. It's just a hype scam #btc #bitcoin #ltc #dogecoin #doge #eth,1,0,0,False
406,My Lord Jahrein@jahobaba,Etherieum is a premined scam and there will be no mainstream adoption. It's just a hype scam #btc #bitcoin #ltc #dogecoin #doge #eth,0,0,0,False
407,My Lord Jahrein@jahobaba,"Yes, #eth is nothing but whales manipulation on fake volume and fake walls just like the old #bittrex game. #altcoin #scam #fake #bitcoin",1,0,0,False
408,Charlie Alexander@CPAlexander_EY,#EY supporting the #blockchain community with @VitalikButerin and #finnovasia #fintech #ethereum,1,0,0,False
410,Hartmut von Elm@vonElmSulzbach,I just won free 0.00059125 ETHER from  http://etherfaucet.org #ether #satoshi #freeether #faucet via @etherfaucet,1,0,0,False
413,Menno Pietersen@btc_feed,Brooklyn’s new kid on the blockchain in talks with 25 investment banks #blockchain #ethereum https://btc-feed.com/bitcoin-news/brooklyns-new-kid-on-the-blockchain-in-talks-with-25-investment-banks-big-four-accounting-firms/…,0,0,0,False
414,Inativo@lineparla,Etherieum is a premined scam and there will be no mainstream adoption. It's just a hype scam #btc #bitcoin #ltc #dogecoin #doge #eth,1,0,0,False
415,Inativo@lineparla,"Yes, #eth is nothing but whales manipulation on fake volume and fake walls just like the old #bittrex game. #altcoin #scam #fake #bitcoin",1,0,0,False
421,VBA@laptrinhvbaexc1,"Yes, #eth is nothing but whales manipulation on fake volume and fake walls just like the old #bittrex game. #altcoin #scam #fake #bitcoin",2,0,0,False
422,sdfiho powe@sdfiho,Etherieum is a premined scam and there will be no mainstream adoption. It's just a hype scam #btc #bitcoin #ltc #dogecoin #doge #eth,2,0,0,False
423,maffin@maffinx,"Yes, #eth is nothing but whales manipulation on fake volume and fake walls just like the old #bittrex game. #altcoin #scam #fake #bitcoin",2,0,0,False
424,Menno Pietersen@btc_feed,Some friendly advice from a veteran trader - #ethereum #bitcoin #trading #eth #btc - https://btc-feed.com/bitcoin-news/some-friendly-advice-from-a-veteran-trader/…,2,0,0,False
425,Martin Fuchs@Onlineobserver,If you are interested in getting #ETH check our this free #ETHFaucet http://etherfaucet.org/?r=2761 #ethereum,0,0,0,False
427,Quốc Anh@anh292k,#ETH Whales manipulations scam coin. There will always be the next get rich premined scam #eth #aurora #paycoin #ipo #ico #bitcoin #litecoin,0,0,0,False
428,Quốc Anh@anh292k,"Yes, #eth is nothing but whales manipulation on fake volume and fake walls just like the old #bittrex game. #altcoin #scam #fake #bitcoin",0,0,0,False
429,Quốc Anh@anh292k,Etherieum is a premined scam and there will be no mainstream adoption. It's just a hype scam #btc #bitcoin #ltc #dogecoin #doge #eth,1,0,0,False
430,Julia Edling@bitcointonic,#MAGIC #Bitcoin #Ethereum #Blockchain Ether: Enjoy the Pot Of Gold @… http://dlvr.it/KKlV2K,0,0,0,False
431,limoncraft15@limoncraft15,"Yes, #eth is nothing but whales manipulation on fake volume and fake walls just like the old #bittrex game. #altcoin #scam #fake #bitcoin",1,0,0,False
432,limoncraft15@limoncraft15,Etherieum is a premined scam and there will be no mainstream adoption. It's just a hype scam #btc #bitcoin #ltc #dogecoin #doge #eth,0,0,0,False
434,How its Made@howitsmade2424,"Yes, #eth is nothing but whales manipulation on fake volume and fake walls just like the old #bittrex game. #altcoin #scam #fake #bitcoin",0,0,0,False
435,Patrizio Stavola@halovast,"from 1 of the answers: ""#Ethereum lets developers build applications without having to build their own #blockchain.""Quote TweetEthereum SE@StackEthereum · Jan 26, 2016What are the differences between Bitcoin blockchain and Ethereum blockchain? http://bit.ly/1lQsOcT #ethereum",2,0,0,False
436,avrupa avrupa@AvrupaAv23,"Yes, #eth is nothing but whales manipulation on fake volume and fake walls just like the old #bittrex game. #altcoin #scam #fake #bitcoin",0,0,0,False
438,Fund LNP/BP₿@StartUpsPal,"CoinCap.io's new iOS app, it's awesome!  http://appstore.com coincap #ethereum #bitcoin http://appstore.com/coincap",3,0,0,False
439,How its Made@howitsmade2424,Etherieum is a premined scam and there will be no mainstream adoption. It's just a hype scam #btc #bitcoin #ltc #dogecoin #doge #eth,1,0,0,False
440,Patrizio Stavola@halovast,"""Microsoft Bets That #bitcoin -style #Blockchain Will Be Big Business"" and wants a piece of the action. #ethereum http://technologyreview.com/news/545806/microsoft-bets-that-bitcoin-style-blockchains-will-be-big-business/…",1,1,0,False
441,fav@btsfav,#Ethereum for Starters How-To ─ http://favd.xyz/1QBGJQT  @Ether_Press @ethereumproject @EthereumLabs,1,0,0,False
442,How its Made@howitsmade2424,#ETH Whales manipulations scam coin. There will always be the next get rich premined scam #eth #aurora #paycoin #ipo #ico #bitcoin #litecoin,0,0,0,False
446,Ifald@uWebMaster,I just won free 0.00059125 ETHER from  http://goo.gl/x543UY #ether #satoshi #freeether #faucet via @etherfaucet,3,0,0,False
448,Brian Beamish@CRInvestor,"@alex_sterk whomever it was who commented on $ETH tonight, indeed, nice observation. Altcoin daytraders take note https://coinigy.com/s/i/56a87e6d/",1,1,0,False
449,Be Watson@toosweet2b,#Digix launches digital gold asset platform on #Ethereum - http://ibtimes.co.uk/digix-launches-digital-gold-asset-platform-ethereum-1538103…,0,0,0,False
450,indxio@indxio,#China Market Close || #Bitcoin: $395.27 | 371.09 EUR||  #Litecoin: 0.0082 BTC  || #Ethereum: 0.0059 BTC   || $BTC $LTC $ETH $RMB,0,0,0,False
451,Widget 4 Bitcoin@widget4bc,Daily Altcoin Price Analysis: Nothing Can Stop #ETH and #Dogecoin: Dispersal of the ETH… http://short.4bc.co/QtP,0,0,0,False
452,4BC@aff4bc,Daily Altcoin Price Analysis: Nothing Can Stop #ETH and #Dogecoin: Dispersal of the ETH… http://short.4bc.co/QtP,0,0,0,False
453,Bitcoin Directory@dir4bc,Daily Altcoin Price Analysis: Nothing Can Stop #ETH and #Dogecoin: Dispersal of the ETH… http://short.4bc.co/QtP,0,0,0,False
454,pablo rotem@fun4u2com,"Yes, #eth is nothing but whales manipulation on fake volume and fake walls just like the old #bittrex game. #altcoin #scam #fake #bitcoin",1,0,0,False
455,asdytafsgfh@hotmail.@asdytafsgfhhot1,#ETH Whales manipulations scam coin. There will always be the next get rich premined scam #eth #aurora #paycoin #ipo #ico #bitcoin #litecoin,0,0,0,False
457,AltcoinLive bot@AltcoinLiveBot,updated $ETH sellwall 19.6btc @ 0.00750000 http://altcoinlive.com/bittrex-eth-btc #altcoinlive (change 0.00025),0,0,0,False
458,AltcoinLive bot@AltcoinLiveBot,updated $ETH sellwall 19.7btc @ 0.00725000 http://altcoinlive.com/bittrex-eth-btc #altcoinlive (change -0.00025),0,0,0,False
459,Philsabang Bull Bull Bull@Philsabang,It's anti-moon now for the next few days before we go to real moon. #eth,1,0,0,False
460,Jazzy Look@JazzyLook1,"Yes, #eth is nothing but whales manipulation on fake volume and fake walls just like the old #bittrex game. #altcoin #scam #fake #bitcoin",0,0,0,False
461,sergio taminato@sertami14,I just won free 0.00101200 ETHER from  http://ethereumfaucet.org #ether #satoshi #freeether #faucet vía @ethereumfaucet,0,0,0,False
463,deejay cosmyn@deejaycosmyn,"Yes, #eth is nothing but whales manipulation on fake volume and fake walls just like the old #bittrex game. #altcoin #scam #fake #bitcoin",1,0,0,False
464,deejay cosmyn@deejaycosmyn,Etherieum is a premined scam and there will be no mainstream adoption. It's just a hype scam #btc #bitcoin #ltc #dogecoin #doge #eth,0,0,0,False
465,ethereum.network@EthereumNetw,"Bankchain could be a mix of #Bitcoin and #Ethereum, article in French
http://buff.ly/20rRRCI",1,0,0,False
466,asdhygasfhby@hotmail@asdhygasfhbyho1,#ETH Whales manipulations scam coin. There will always be the next get rich premined scam #eth #aurora #paycoin #ipo #ico #bitcoin #litecoin,0,0,0,False
476,BitcoinAgile@bitcoinagile,"Ethereum is alive! Bitcoin 2.0. If you haven't yet, you must check it out. #Ethereum #Future http://bitcoinagile.com/54295E/ethereum-is-alive-bitcoin-20-if-you-havent-yet-you-must-check-it-out_stream…",1,0,0,False
477,WingzTV@realnewsvideos,#Ethereum's #Future: Programmable blockchains context http://wingztv.com/video/ethereum-is-alive-bitcoin-20-if-you-havent-yet-you-must-check-it-out…,0,0,0,False
478,Janet Gage@janet_gage,"Yes, #eth is nothing but whales manipulation on fake volume and fake walls just like the old #bittrex game. #altcoin #scam #fake #bitcoin",0,0,0,False
480,Janet Gage@janet_gage,Etherieum is a premined scam and there will be no mainstream adoption. It's just a hype scam #btc #bitcoin #ltc #dogecoin #doge #eth,1,0,0,False
482,gerryaik@gerryaik,#ETH Whales manipulations scam coin. There will always be the next get rich premined scam #eth #aurora #paycoin #ipo #ico #bitcoin #litecoin,0,0,0,False
483,NOCL UMS@NoclUms,Etherieum is a premined scam and there will be no mainstream adoption. It's just a hype scam #btc #bitcoin #ltc #dogecoin #doge #eth,0,0,0,False
484,NOCL UMS@NoclUms,"Yes, #eth is nothing but whales manipulation on fake volume and fake walls just like the old #bittrex game. #altcoin #scam #fake #bitcoin",0,0,0,False
485,gerryaik@gerryaik,"Yes, #eth is nothing but whales manipulation on fake volume and fake walls just like the old #bittrex game. #altcoin #scam #fake #bitcoin",0,0,0,False
486,Maybe Smaby - Camille@cbsmaby,@JoseMolinaTV @AgentCarterTV the #zeromatter is like the #ether is #thordarkworld !! Eeek!! So excited to see where this leads!!,1,0,0,False
487,gerryaik@gerryaik,Etherieum is a premined scam and there will be no mainstream adoption. It's just a hype scam #btc #bitcoin #ltc #dogecoin #doge #eth,1,0,0,False
490,WingzTV@realnewsvideos,Offline Hardware Wallet #Ethereum — Troth http://wingztv.com/video/standalone-bitcoin-offline-wallet-printer-demo…,0,0,0,False
491,ethereum.network@EthereumNetw,"#Microsoft is the new #Apple, former setting trends with #Ethereum on @Azure, later blocking all innovation
http://technologyreview.com/news/545806/microsoft-bets-that-bitcoin-style-blockchains-will-be-big-business/…",2,0,0,False
492,Buters santana@Buterssantana,Etherieum is a premined scam and there will be no mainstream adoption. It's just a hype scam #btc #bitcoin #ltc #dogecoin #doge #eth,0,0,0,False
493,ethereum.network@EthereumNetw,"What are the differences between #Bitcoin #blockchain and #ethereum  blockchain?
Answers via @StackEthereum at https://ethereum.stackexchange.com/users/login?ssrc=beta&returnurl=%2fquestions%2f700%2fwhat-are-the-differences-between-bitcoin-blockchain-and-ethereum-blockchain…",1,1,0,False
494,ethereum.network@EthereumNetw,"And #Ethereum is back as second biggest #cryptocurrency on http://coinmarketcap.com after a little healthy pause.

http://financemagnates.com/cryptocurrency/trading/ethereum-now-second-biggest-cryptocurrency-as-market-cap-reaches-200m/…Cryptocurrency Prices, Charts And Market Capitalizations | CoinMarketCapTop cryptocurrency prices and charts, listed by market capitalization. Free access to current and historic data for Bitcoin and thousands of altcoins.coinmarketcap.com",1,1,0,False
495,》》》》》♕@InsomnioNights,Etherieum is a premined scam and there will be no mainstream adoption. It's just a hype scam #btc #bitcoin #ltc #dogecoin #doge #eth,1,0,0,False
501,Thomas Chatman@makeden63,"Yes, #eth is nothing but whales manipulation on fake volume and fake walls just like the old #bittrex game. #altcoin #scam #fake #bitcoin",0,0,0,False
502,Thomas Chatman@makeden63,Etherieum is a premined scam and there will be no mainstream adoption. It's just a hype scam #btc #bitcoin #ltc #dogecoin #doge #eth,1,0,0,False
503,Cathy J. Hardaway@bithanted54,"Yes, #eth is nothing but whales manipulation on fake volume and fake walls just like the old #bittrex game. #altcoin #scam #fake #bitcoin",0,0,0,False
504,Cathy J. Hardaway@bithanted54,Etherieum is a premined scam and there will be no mainstream adoption. It's just a hype scam #btc #bitcoin #ltc #dogecoin #doge #eth,1,0,0,False
507,#FarmilesApp@RwAccommodation,TweetRwanda: RT CyizanyeAllen: #Rwanda celebrating new pilots thanks to strategic partnership btn #Rwanda and #Eth… http://ift.tt/1Osa7GH,0,0,0,False
508,RwWire@RwWire,TweetRwanda: RT CyizanyeAllen: #Rwanda celebrating new pilots thanks to strategic partnership btn #Rwanda and #Eth…,0,0,0,False
