,user,text,likes,retweets,replies,is_thread
0,Sokhna ♘@SokhnaVor,"I feel like #Blockchain technology is the #Internet, #BitCoins is #HadoopMapReduce & #ethereum is #spark - Innovative Technology & #BigData",1,1,0,False
1,Joseph DuFort @JoeDufort,"Is Ethereum, a new virtual currency, the new Bitcoin 2.0? - http://klou.tt/10ycfo6vopavm #Coffee #Ethereum #GoodMorning",2,0,0,False
2,Craig Milroy@CraigMilroy,#Ethereum: Towards A New #BitSociety via @forbes http://buff.ly/1V2RdeL #blockchain #fintech @ethereumlabs,6,3,1,False
3,Prep. More@prepmoar,Open Source Giant #RedHat launches #blockchain Initiative - #Linux #OpenShift $BTC $XVC $ETH https://openshift.com/dedicated/blockchain.html…,3,1,0,False
4,Rodrigo Paulo Gomes []@bgcoin,"IBM Watson's Working to Bring AI to the Blockchain
http://coinde.sk/1SNDfdx
#blockchain #AI #IoT #ethereum #bitcoin #roboadvisers >@IBMWatson",1,1,0,False
5,CryptoTradeADay@CryptoTradeADay,Microsoft Continues to Embrace Ethereum & Bitcoin https://news.bitcoin.com/microsoft-embrace-digital-currency/?utm_source=twitter&utm_medium=social&utm_campaign=SocialWarfare… #Bitcoin #Ethereum #Blockchain #TechnologyMicrosoft Continues to Embrace Ethereum & Bitcoin – Bitcoin NewsMicrosoft is continuing to support cryptocurrency and blockchain technology within its infrastructure. Just recently ConsenSys and Microsoft have collaboratnews.bitcoin.com,1,0,0,False
6,rssbtc.com@rssbtc,"Ethereum's Solidity Now Available in Microsoft Visual Studio - http://bit.ly/1UGkz2B
#fintech #studio #ethereum",2,3,0,False
7,PROFΞTH@liminalvillage,Microsoft including #ethereum in Visual Studio http://coindesk.com/microsoft-ethereum-3-million-developers/… putting disruptive power to the hands of many more developersMicrosoft Adds Ethereum to Windows Platform For Over 3 Million Developers - CoinDeskMillions of Microsoft developers can now build decentralized applications using the Ethereum blockchain thanks to a collaboration with Consensys.coindesk.com,1,1,0,False
9,Phillip Ressler@macresslertech,"RT @hdiedrich: Here is a short primer on #ethereum, vetted by core devs: http://shrd.by/zXjY3C",1,0,0,False
10,fintechfolk@fintechfolk,Thanks @mobileroberto for registering for FinTechFolk - http://zpr.io/Mnfj #fintech #ethereum #bitcoin #blockchain,2,0,0,False
11,How To Get Bitcoins  #KBF@htgbitcoins,#Ethereum Mist Wallet 0.6.1 (Beta 12) with all of the 0.6.0 release + eth 1.2.3 and a small windows fix https://github.com/ethereum/mist/releases… #blockchain,1,0,0,False
12,Bitcoin PR Buzz@BitcoinPRBuzz,#Ethereum Cloud Mining with NO maintenance fees -> http://bitcoinprbuzz.com/ethereum-cloud-mining-and-bitcoin-cloud-mining-with-lifetime-contracts-and-proof-of-mining-offered-by-hashflare/… … #ETH #Bitcoin #BTC #fintech #blockchain #Mining,1,1,0,False
13,Mr. Love-Lover: Queen's Choice@Niccotinho101,"@CoinPaymentsNET: Innovate Finance Global Summit 2016, London April 11th #fintech2016 #ifgs2016 #Bitcoin #ethereum",1,0,0,False
14,#SmartEthereum@SmartEthereum,Contact @ethereumSS for help with your #security needs http://ethereumsecurityservices.com/contact/ http://fb.me/11QwczVlZ #Fintech #ethereum #blockchain,1,0,0,False
15,Ethereum UAE@Ethereum_UAE,Saving the World Through Crypto: The Humanitarian Blockchain http://ift.tt/1qo1BSb #Ethereum,1,0,0,False
16,Marco ฿TC@Marco_BTC,"Shorting $ETH from 0.0271, nice profit tonight!
Under 0.025 soon...!

#Ethereum #Bitcoin",6,1,1,False
17,Coinality@Coinality,"NEW #BITCOIN CAREER @SolidXPartners (NYC): #Javascript / #Python Developer - http://ow.ly/10keRz
#Blockchain #Ethereum #Golang #NodeJS",2,2,0,False
18,Ethercloudinfo@Ethercloud_info,Get 20% extra hashrate on any order during the next 24h at #ethercloud Beta #Ethereum #cloudmining #eth $eth,2,1,0,False
19,Zeth Couceiro@Zeth_Plexus,#Ethereum: Towards A New BitSociety via @forbes http://forbes.com/sites/francescoppola/2016/04/03/ethereum-towards-a-new-bitsociety/#1bef6d9b10a1… - #bitcoin #blockchain #SmartContracts #fintech #regtech,2,1,0,False
20,CryptKeeper@CryptKeeperBTT,"BE AWARE: Scam ""Copy Cat"" Sites https://shar.es/1YMkbX via @sharethis
#nxter #NXT $NXT #bitcoin #litecoin #ethereum",1,1,0,False
21,@fyrstikken@fyrstikken,"Do you want to talk some #Shitcoins? - join StakePool Teamspeak, http://connect.stakepool.com #Bitcoin #ethereum #lisk..",4,1,1,False
22,Ludvig Öberg@ludvigoeberg,Why Smart Contracts Need Shrewder People http://buff.ly/23a8uUX #smartcontracts #ethereum #blockchain #fintech #legaltech,2,1,0,False
23,Ming Chan@mingchan88,"#Ethereum #Devcon2 dates and venue announced today: September 19-24 in Shanghai https://blog.ethereum.org/2016/04/05/devcon2-and-blockchain-summit-shanghai-september2016/… #Blockchainsummit #DevCon16Ethereum Foundation and Wanxiang Blockchain Labs announce a blockbuster event combining Devcon2 and...[Last update: July 5, 2016] The Ethereum Foundation and Wanxiang Blockchain Labs are excited to jointly announce the International Blockchain Week in Shanghai, which will take place at Hyatt on the...blog.ethereum.org",26,21,0,False
24,Jason Potts NFT maximalist@profjasonpotts,"Of all the ways you're going to spend 25 mins this year, this will be in the top 10
#Ethereum by @ConsenSysLLCProgrammable Blockchains in Context: Ethereum’s FutureUnderstand blockchains well enough to decide what they mean to your lifemedia.consensys.net",1,0,0,False
25,Actual Advice Bitcoin@ActualAdviceBTC,bought #ETH at 0.0239 for dead cat potential,6,1,0,False
26,Alfia Bridgeman@DataLightning,@Deloitte report: #Blockchain tech could re-shape businesses. Greater efficiency of transactions #BaaS #DLT http://techcitynews.com/2016/03/31/deloitte-report-blockchain-tech-could-re-shape-businesses/…,1,1,1,False
27,Nick Ayton@NickAyton,Blockchain might #ethereum will @DataLightning @SpirosMargaris @Deloitte @Stevewal63 @cloudnthings @EthereumNetNews @ethereumproject,5,2,0,False
28,Steven Nerayoff@stevennerayoff,Gold Backed Digix Raises Millions in Hours on Ethereum Blockchain Crowdsale https://cryptocoinsnews.com/digix-millions-ethereum-blockchain-crowdsale/… #bitcoin #Ethereum #blockchain,2,4,0,False
29,BlockTribune@BlockTribune,"Northern Trust is looking for a Senior Java developer with knowledge about #Ethereum and #Bitcoin http://bit.ly/1q2LfNQ #fintechNorthern Trust Wants A Bitcoin And Ethereum Blockchain DeveloperAs the blockchain ecosystem keeps evolving, it only seems natural more and more companies will look for expert developers to bridge the gap between digital currency and the financial world. One of thethemerkle.com",1,0,0,False
30,Lisk@LiskHQ,"Lisk community member fixcrypt explains: 

""Why Everybody Should Have a Look into Lisk""

http://bit.ly/1W9yJsy
#lisk #ethereum #dapps",24,30,0,False
31,Anil Sethi@anilsethi,"Creating a #startup means you live your vision, not someone else's #entrepreneur #eth #StartupIndia",2,2,1,False
32,Chris Dunn@ChrisDunnTV,It's beginning... #ethereum,23,8,3,False
33,FRANK G@Frank3DC,"Listen to For U Ft. Daniel $eth x Slater (Prod. Lilvoe On The Beat) by skxnyvilenbreaksrules #np on #SoundCloud
https://soundcloud.com/skxnyvilenbreaksrules/for-u-ft-daniel-eth-x-slater…",3,2,0,False
34,Bitcoin@bitcoinpoet,Why Ethereum should be interesting to developers: the next evolution of Open Source:   submitted by ... http://bit.ly/23e5DdC #ethereumWhy Ethereum should be interesting to developers: the next...Posted in r/ethereum by u/carver • 34 points and 10 commentsreddit.com,3,3,0,False
35,Dmitriy Zhidkikh@yahotev,#ethereum New! #FollowMe EthereuM Faucet'S RotatoR #retweet https://surfast.ru/URL/EtherRotator… #vk 50% ReferS AFF. Program!!!The following media includes potentially sensitive content. Change settingsView,3,92,0,False
36,Chris Dunn@ChrisDunnTV,It's starting to look really ugly for longs! #ethereum $ETH,17,8,3,False
37,WhaleClub@btcWhaleclub,"Protip to $ETH holders #ethereum #""butbutitsgreattech""",9,3,1,False
38,Darefest@darefestival,Calling all #blockchain heroes - submit your session today http://darefest.be/stage/blockchain… Aug 24-26 Antwerp #ethereum,3,1,0,False
39,Downloadable Wealth@DownloadWealth,A Simple Guide to Understanding #Ethereum & Buying #Ether,1,0,0,False
40,"Kindeya G.hiwot, Prof@ProfKindeya",Institute of advance research is being launched; Amb Seyum Mesfin delivers interesting speech! good platform #ETH,6,0,0,False
41,JC@Cryptoelite,Finally people are realising that #eth is not finite like #bitcoin http://bitscan.com/articles/the-hidden-uncertainty-of-ethereum-as-a-currency…,1,1,0,False
42,smiling@fear@matttrichards,Must watch material on #ethereum and #bitcoin from @leashless https://vimeo.com/161183966,2,1,0,False
43,ethereum.network@EthereumNetw,"#Ethereum @StackEthereum on fire, 1000+ development questions in 75 days
http://ethereum.stackexchange.com/questions/",4,1,0,False
44,Chris Dunn@ChrisDunnTV,"I like #ethereum long-term, but right now it's due for a BIG pullback.",19,5,0,False
45,CosmicTriggerThePlay@2CosmicTrigger3,Still yearn for deeper fnordtastic #blockchain history? Here's a @leashless #bitcoin #ethereum talk 4 Fools like us: https://vimeo.com/161183966,3,0,0,False
46,I'm Adam;@adamfintech,"#Ethereum, a #Virtual Currency, #Enables #Transactions That Rival #Bitcoin’s http://j.mp/25rCA8i",1,0,0,False
47,Maker@MakerDAO,Looking to create a multisig wallet for Ethereum? Here's a great overview. https://github.com/PeterChauYEG/ethereum-guides/blob/master/create-ethereum-multisignature-wallet.md… #ethereum #blockchain,5,5,1,False
48,Stylight Tech@StylightTech,Want to learn more about #blockchain / #ethereum? @gavofyork from @ethcoreproject will be at http://daho.am,3,1,0,False
49,SatoshiPoint@SatoshiPoint,"#coffeeandacookie with some #bitcoin on the side please sir
@bricklanecoffee @jonestowncoffee #start_coin & #ethereum out soon #bitcoinATM",2,3,0,False
50,JΞFF@jeffehh,You look down today #ether. Here's a picture of my dog to cheer you up!,10,1,2,False
51,ETHNews@ETHNews_,New #Ledger #Bitcoin Hardware Can Run PGP and #Ethereum Wallet #ETH http://ow.ly/10jBau via @themerklenews,0,0,0,False
52,John Lilic ₿ Ξ ∞@JohnLilic,Open Source Giant @RedHatNews Launches First Blockchain Initiative http://coinde.sk/1PRwDWE #ConsenSys #BlockApps #Ethereum,4,6,0,False
53,TBM NEWS@TBMGPT_News,Gold Backed @Digix Raises Millions in Hours on #Ethereum #Blockchain Crowdsale https://cryptocoinsnews.com/digix-millions-ethereum-blockchain-crowdsale/… via @CryptoCoinsNews,1,0,0,False
54,tgerring.eth@TaylorGerring,"#Ethereum #DEVCON happening in Shanghai this September!Quote TweetEthereum@ethereum · Apr 5, 2016Ethereum and Wanxiang Blockchain Labs announce International Blockchain Week in Shanghai, Sept 19–24, 2016  https://blog.ethereum.org/2016/04/05/ethereum-foundation-and-wanxiang-blockchain-labs-announce-a-blockbuster-event-combining-devcon2-and-the-2nd-global-blockchain-summit-in-shanghai-september-19-24-2016/… #DEVCON",5,3,0,False
55,Cloud Mining Monitor@cmmonitorcom,#Ethereum #Cloudmining': 05.04.2016 Payment received. 6 MHs - 0.09890100 ETH. From Genesis Mining.Genesis Mining (Ethereum Mining)cmmonitor.com,1,0,0,False
56,Bitcoin@bitcoinpoet,The Ethereum Foundation and Wanxiang Blockchain Labs announce a blockbuster event combining Devcon2 ... http://bit.ly/238HFUu #ethereumThe Ethereum Foundation and Wanxiang Blockchain Labs announce a...Posted in r/ethereum by u/thehighfiveghost • 178 points and 31 commentsreddit.com,2,0,0,False
57,CosmicTriggerThePlay@2CosmicTrigger3,"With all this #PanamaPapers naughtiness unfurling across the planet like a dirty fern, I thought it would a fine time to talk #blockchain.",1,0,0,False
58,CosmicTriggerThePlay@2CosmicTrigger3,"For cosmically inclined Fools, there's a #blockchain primer on Facebook: https://facebook.com/cosmictriggerplay/posts/1061723193870189… - later we'll get into #bitcoin & #ethereum",1,0,0,False
59,Patrizio Stavola@halovast,#Ethereum Foundation & Wanxiang Blockchain Labs announce #Devcon2 and the 2nd Global #Blockchain Summit in Shanghai https://blog.ethereum.org/2016/04/05/ethereum-foundation-and-wanxiang-blockchain-labs-announce-a-blockbuster-event-combining-devcon2-and-the-2nd-global-blockchain-summit-in-shanghai-september-19-24-2016/…,0,0,0,False
60,IamSatoshi@Iam_Satoshi,'ALA the code pays for its own execution it'll keep running in the network' @Falkvinge https://youtube.com/watch?v=yQGQXy0RIIo&feature=youtu.be&t=4m42s… #Daemon #ethereum #darkmarketUlterior States [IamSatoshi Documentary]Ulterior StatesA Film By Tomer Kantor - An IamSatoshi ProductionTip bitcoin: 1NkMgKPdwP63q5LFQW84dczJthFWYLwkoWhttp://www.iamsatoshi.com/ulterior-states-docu...youtube.com,1,0,0,False
61,Kraken Exchange@krakenfx,Buy #ether in 4 easy steps! See http://howtobuyether.org or https://youtu.be/2sY_DNCQKfw for community-created how-to's :),13,12,1,False
62,Kari DePhillips@KarileeD,.@zharvz & @joshmh are teaching me abt #Ethereum. I'm teaching them how to check that I covered the tracks from my hair extensions. #besties,2,0,0,False
63,Cathie Wood@CathieDWood,"Is $MSFT helping to power ether? ""@ARKwebx0 #bitcoin #ethereum at #CoalaNYU: ether's rise http://arkinv.st/1RMc803 """,2,2,0,False
64,Ξ Fly Guy Ξ (flyguy.eth)@FlyGuyInTheSky,"Replying to @freakingcat@freakingcat I'd hardly call #ethereum going to 0.025500 a ""crash"" It worked itself into a triangle. Could move up or down rapidly.",1,1,0,False
65,Ξ Fly Guy Ξ (flyguy.eth)@FlyGuyInTheSky,@freakingcat I can see #ethereum going to 0.028500 if it moves up... And 0.024700... Down... Possibly lower. New news is needed to meet high,1,2,0,False
66,BARFSTEW - THE DEBRIS OF EARTH'S STEW@Barfstew,http://ethereumprice.blogspot.com Daily Information For Ethereum Trading - #politicalcow @PurePoS @CryptoInside @CryptoIndexes #loveeth,1,0,0,False
67,Robert Pfeffer@CoachPfeff,.@Barfstew @CryptoInside @CryptoIndexes Arbitrage for #ETH is here: http://freestaking.com/eth/ Trade #Ethereum wisely  ;),1,1,0,False
68,Tone Vays (#EndLockdowns)@ToneVays,"""We want all liquidity in one place on an uncorruptible platform so we are building on #Ethereum""-@GroupGnosis (prdctn mrkt) at #COALANYC",2,1,0,False
69,Anil Sethi@anilsethi,"'If you're going through hell, keep going', said Churchill. Good to remember as a #startup http://goo.gl/910P4w #tech #education #eth",1,1,0,False
70,David Mole@_HouseofDavid,"Absolutely loving @mogwaiband new album ""ATOMIC,"" Opening track #Ether #Scotland #Promethius https://youtu.be/2FlHCmEwRkw via @YouTube",1,1,0,False
71,Provable@provablethings,"Join us for a good chat this evening, we'll be attending the London Coinscrum {social} meetup! #ethereum #oraclizeCoinscrum {social} : Members Club w/Aeron Buchanan Head of R&D at EthcoreTue, Apr 5, 2016, 6:30 PM: Blockchain is a super top topic right now, which is something we can be very happy about. This makes it a good time to look at how we got here and remind ourselves what themeetup.com",2,1,0,False
72,CRYPTOCOINTALK@cryptocointalk,Northern Trust Wants A Bitcoin And Ethereum Blockchain Developer https://cryptocointalk.com/topic/46000-themerkle-northern-trust-wants-a-bitcoin-and-ethereum-blockchain-developer/… #BTC $XBT $ETH #job #fintech #finance,3,0,0,False
73,Alex.eth@AlexanderFisher,What is Eris? 2016 Edition http://buff.ly/1W96pXn #blockchain #ethereum #bitcoin,2,1,0,False
74,BitcoinAgile@bitcoinagile,Articles - The hidden uncertainty of #ethereum as a currency #bitcoin http://bit.ly/25JEmSy,1,0,0,False
75,ETH Zurich@ETH_en,Former US President Bill Clinton inspires #ETH students at Clinton Global Initiative #CGIU http://bit.ly/1qsU585,5,6,0,False
76,Verox@Verox_AICrypto,@altcoinsking hope no one bought $ETH right into the resistance,2,2,1,False
77,CosmicTriggerThePlay@2CosmicTrigger3,"Replying to @2CosmicTrigger3For those of you with more time, there's an excellent in depth introduction with pictures! and videos! DRINK COFFEE. https://xabierbarandiaran.wordpress.com/2016/01/03/everything-you-need-to-know-about-bitcoin-blockchain-and-ethereum-in-less-than-90-minutes-of-short-videos/…",1,0,0,False
78,CosmicTriggerThePlay@2CosmicTrigger3,This is an exciting time. We might even tempt @leashless to chime in with an far flung future #ethereum interview if he'll come out to play.,1,1,1,False
79,Nancy Byron@rappublicist,"""#ETHER REVOLT PREMIER! NOLAY SPILLS ""GOTTA LOVE IT"" OFF OF #GRIMEGUTSANDGLORY #UK"" by @rappublicist on @LinkedIn https://linkedin.com/pulse/ether-revolt-premier-nolay-spills-gotta-love-off-uk-nancy-byron…",1,0,0,False
80,Vlad Cealicu (zerocool.eth)@vcealicu,"Amazing wallet. It's our (@CryptoCompare ) pleasure to provide the current and historical pricing information. #ethQuote TweetGeorge@_Georgeth_ · Apr 5, 2016New Ethereum Mist wallet release (0.6.1) with additional language support and Windows bug fix available https://github.com/ethereum/mist/releases/tag/0.6.1… #blockchain",1,0,0,False
81,Dominik Schiener   @DomSchiener,"Just got accepted to #enbdgroupinnovates FinTech Challenge. Going to present IoT, Blockchain and how it improves intl. trade #iota #ethereum",7,3,0,False
82,Bob Summerwill@BobSummerwill,"Who is coming to Shanghai, then?  :-)
#ethereum #devcon1Quote TweetEthereum@ethereum · Apr 5, 2016Ethereum and Wanxiang Blockchain Labs announce International Blockchain Week in Shanghai, Sept 19–24, 2016  https://blog.ethereum.org/2016/04/05/ethereum-foundation-and-wanxiang-blockchain-labs-announce-a-blockbuster-event-combining-devcon2-and-the-2nd-global-blockchain-summit-in-shanghai-september-19-24-2016/… #DEVCON",8,1,1,False
83,CRYPTOCOINTALK@cryptocointalk,George bought $ETH at .032,6,1,1,False
84,BTCMANAGER@btc_manager,ETH-USD Down Almost 6% as Bears Look to Target $8 Handle https://btcmanager.com/news/eth-usd-down-almost-6-as-bears-look-to-target-8-handle/… #ethereum #Trading,1,2,0,False
85,ETHNews@ETHNews_,"#DejaVu #DAO Smart Contracts Audit Results #SmartContracts #Ethereum #Blockchain http://ow.ly/10jBIZ via @slockitprojectDeja Vu DAO Smart Contracts Audit ResultsWe’re pleased to announce that one of the world’s leading security audit companies, Deja Vu Security, has performed a security review of…blog.stephantual.com",1,1,0,False
86,WhaleClub@btcWhaleclub,/r/ethtrader advise to baghold $ETH #Etherum,1,0,0,False
87,BitcoinAgile@bitcoinagile,Primavera de Filippi - #blockchain Technology and the Future of Work #ethereum #FIBER #iot https://vimeo.com/161586738,1,1,0,False
88,JESSE ℂOUℂℍ@jessecouch,Replying to @needacoin@needacoin It's still a PoW coin. Freshly mined coins dumped every day. I hope it drops down a lot in price so I can buy more. $ETH=amazing,2,0,0,False
89,OpenLedger@OpenLedgerDC,#Gold Backed #Digix Raises Millions in Hours on #Ethereum #Blockchain #Crowdsale https://reddit.com/r/ethereum/comments/4dj866/gold_backed_digix_raises_millions_in_hours_on… #DigixDao #OpenLedger #token #DGDGold Backed Digix Raises Millions in Hours on Ethereum Blockchain...Exclusively available upon date of release April 28th on the OpenLedger financial trading platform and its thousands of markets. The only...reddit.com,1,0,0,False
90,AltcoinLive bot@AltcoinLiveBot,updated $ETH buywall 14.5btc @ 0.02421841 http://altcoinlive.com/bittrex-eth-btc #altcoinlive (change 0.00008081),0,0,0,False
91,AltcoinLive bot@AltcoinLiveBot,updated $ETH buywall 14.5btc @ 0.02413760 http://altcoinlive.com/bittrex-eth-btc #altcoinlive (change -0.00013251),0,0,0,False
92,ETH Zurich@ETH_en,".@Mixingbowlhub #ETH is looking forward Tackling Food System Challenges w/ IT Innovation http://eth2cal.orgQuote TweetThe Mixing Bowl@Mixingbowlhub · Apr 5, 2016Excited for @ETH_en #ETH2CAL #CAfoodstudy next week w food/ag students from CA & Europe!",0,0,0,False
93,Ether Pricing@EtherPricing,Ethereum Foundation and Wanxiang Blockchain Labs combines Devcon2 and Global Blockchain Summit in Shanghai https://blog.ethereum.org/2016/04/05/devcon2-and-blockchain-summit-shanghai-september2016/… #ethereum,0,0,0,False
94,PHILOSORAPTOR@oPHILOSORAPTORo,Can #Ethereum Restore Online #Freedom & Transform the #Internet? #Blockchain #Bitcoin https://youtu.be/H6bGuKN3m6E,0,0,0,False
96,ronfriedmann@ronfriedmann,"Microsoft partners w @R3CEV to Bring #Blockchain to Financial Markets. @BitcoinMagazine http://j.mp/1XfIfc3
1st #Ethereum, now #CordaMicrosoft Inks Partnership With R3 Consortium to Bring Blockchain Tech to Financial MarketsMicrosoft yesterday announced a strategic partnership with R3, a distributed ledger consortium of 40-plus global banks to push the development of blockchainbitcoinmagazine.com",1,0,0,False
97,Joseph Viscomi ∞@jjviscomi,@ShapeShift_io I think your new #website is broken ... Hope you get everything fixed! #Bitcoin & #ethereum  all day!,1,1,1,False
98,Chokri AlGhanmi@GhanmiChokri,"New mining panel and reinvesting feature is available now!
 #Ethereum mining will be added in few days!
2700$... http://fb.me/72B4glYSY",0,0,0,False
99,AltcoinLive bot@AltcoinLiveBot,updated $ETH buywall 14.5btc @ 0.02414428 http://altcoinlive.com/bittrex-eth-btc #altcoinlive (change -0.00012583),0,0,0,False
103,AltcoinLive bot@AltcoinLiveBot,updated $ETH buywall 14.6btc @ 0.02427011 http://altcoinlive.com/bittrex-eth-btc #altcoinlive (change 0.00012585),0,0,0,False
104,#SmartEthereum@SmartEthereum,Contact @ethereumSS for help with #Fintech #ethereum #blockchain http://ethereumsecurityservices.com/2016/04/using-,1,0,0,False
105,Chris Burniske@cburniske,"#SmartContract = #DApp that moves digital assets 
(like #bitcoin and #ether) - #coalaNYU",0,0,0,False
106,AltcoinLive bot@AltcoinLiveBot,updated $ETH buywall 14.5btc @ 0.02414426 http://altcoinlive.com/bittrex-eth-btc #altcoinlive (change 0.00008736),0,0,0,False
107,AltcoinLive bot@AltcoinLiveBot,updated $ETH buywall 14.4btc @ 0.02405690 http://altcoinlive.com/bittrex-eth-btc #altcoinlive (change 0.00018649),0,0,0,False
108,AltcoinLive bot@AltcoinLiveBot,updated $ETH buywall 14.3btc @ 0.02387041 http://altcoinlive.com/bittrex-eth-btc #altcoinlive (change 0.00117041),0,0,0,False
109,AltcoinLive bot@AltcoinLiveBot,updated $ETH buywall 11.4btc @ 0.02270000 http://altcoinlive.com/bittrex-eth-btc #altcoinlive (change -0.00185289),0,0,0,False
110,AltcoinLive bot@AltcoinLiveBot,updated $ETH buywall 14.7btc @ 0.02455289 http://altcoinlive.com/bittrex-eth-btc #altcoinlive (change 0.00000026),0,0,0,False
111,AltcoinLive bot@AltcoinLiveBot,updated $ETH buywall 14.7btc @ 0.02455263 http://altcoinlive.com/bittrex-eth-btc #altcoinlive (change 0.00000028),0,0,0,False
113,AltcoinLive bot@AltcoinLiveBot,updated $ETH buywall 14.7btc @ 0.02455235 http://altcoinlive.com/bittrex-eth-btc #altcoinlive (change 0.00000020),0,0,0,False
114,EthereumNZ@EthereumNZ,"Why a #German Power Company is Using #Ethereum? 
Hence. http://goo.gl/6Y5qTx""",1,0,0,False
115,AltcoinWeekly@altcoinweekly,The latest Ethereum price is USD 10.16. For historical #Ethereum price charts - http://buff.ly/1Y3h6Jz,0,0,0,False
116,CoinGecko@coingecko,The latest Ethereum price is USD 10.16. For historical #Ethereum price charts - http://buff.ly/1Y3h6Jz,0,0,0,False
117,Primavera De Filippi@yaoeo,"#Ethereum as #Skynet? Apps run forever and cannot be taken down, there are dangers to that—@hdiedrich #COALANYU",3,4,0,False
118,Ξ Fly Guy Ξ (flyguy.eth)@FlyGuyInTheSky,"#ethereum well I tend to disagree... It's only going down because #bitcoin is ticking up. I'll call a bottom.Quote TweetBTCMANAGER@btc_manager · Apr 5, 2016ETH-USD Down Almost 6% as Bears Look to Target $8 Handle https://btcmanager.com/news/eth-usd-down-almost-6-as-bears-look-to-target-8-handle/… #ethereum #Trading",1,0,0,False
119,Jouko Salonen@JoukoSalonen,Replying to @JoukoSalonen@yaoeo @hdiedrich @ppohja2 #no_vendor_lock_in with public #Ethereum #blockchain,1,0,0,False
121,Chris Burniske@cburniske,Tokens on top of major #blockchains are taking over a market once dominated by #Altcoins - the #NetworkEffect of #bitcoin and #ethereum,2,0,0,False
122,Robert Lee@vetchefone,Free Ethereum every 5 minutes http://buff.ly/205uoqp #ethereum via @FreeCryptoCo http://fb.me/7Ga7CrvHT,1,0,0,False
131,Robert Lee@vetchefone,Free Ethereum every 5 minutes http://buff.ly/205uoqp #ethereum via @FreeCryptoCo,0,0,0,False
132,BitcoinAgile@bitcoinagile,ETH-USD Down Almost 6% as Bears Look to Target $8 Handle #ethereum #Trading https://btcmanager.com/news/eth-usd-down-almost-6-as-bears-look-to-target-8-handle…,2,1,0,False
134,po𝚜𝚙i@pospigos,"Possibly the most #exciting article ever appearing anywhere #ethereum #decentralization #p2p #governance #contractsDeja Vu DAO Smart Contracts Audit ResultsWe’re pleased to announce that one of the world’s leading security audit companies, Deja Vu Security, has performed a security review of…blog.stephantual.com",0,0,0,False
136,AltcoinLive bot@AltcoinLiveBot,updated $ETH buywall 14.3btc @ 0.02383298 http://altcoinlive.com/bittrex-eth-btc #altcoinlive (change -0.00009067),0,0,0,False
137,ETHNews@ETHNews_,#Ethereum Foundation and #Wanxiang #Blockchain Labs combining events #Devcon2 and the 2nd Global Blockchain Summit http://ow.ly/10jCoF,0,0,0,False
138,#SmartEthereum@SmartEthereum,"New #Ethereum Mist wallet release (0.6.1) with additional language support and #Windows bug fix  #blockchainQuote TweetEthereum@ethereum · Apr 5, 2016New Ethereum Mist wallet release (0.6.1) with additional language support and Windows bug fix available https://github.com/ethereum/mist/releases/tag/0.6.1… #blockchain",0,0,0,False
139,AltcoinLive bot@AltcoinLiveBot,updated $ETH buywall 14.4btc @ 0.02392365 http://altcoinlive.com/bittrex-eth-btc #altcoinlive (change -0.00007886),0,0,0,False
140,CyberDexter@thecyberdexter,#Ethereum: Towards A New BitSociety via @forbes http://forbes.com/sites/francescoppola/2016/04/03/ethereum-towards-a-new-bitsociety/#f83892610a13… #bitcoin #blockchain #governance,1,0,0,False
141,AltcoinLive bot@AltcoinLiveBot,updated $ETH buywall 14.4btc @ 0.02400251 http://altcoinlive.com/bittrex-eth-btc #altcoinlive (change -0.00013962),0,0,0,False
144,AltcoinLive bot@AltcoinLiveBot,updated $ETH buywall 14.5btc @ 0.02414213 http://altcoinlive.com/bittrex-eth-btc #altcoinlive (change 0.00004212),0,0,0,False
145,AltcoinLive bot@AltcoinLiveBot,updated $ETH buywall 14.5btc @ 0.02410001 http://altcoinlive.com/bittrex-eth-btc #altcoinlive (change 0.00010001),0,0,0,False
146,#SmartEthereum@SmartEthereum,"Question Was: Will @ethereumproject get a call from SEC. Catch the video for the answer on #ethereum pre-mine saleQuote TweetTone Vays (#EndLockdowns)@ToneVays · Apr 5, 2016Question Was: Will @ethereumproject get a call from SEC. Catch the video for the answer on #ethereum pre-mine sale https://twitter.com/BitcoinBlake/status/717431374429495296…",0,0,0,False
147,AltcoinLive bot@AltcoinLiveBot,updated $ETH buywall 13.3btc @ 0.02400000 http://altcoinlive.com/bittrex-eth-btc #altcoinlive (change -0.00016006),0,0,0,False
149,#SmartEthereum@SmartEthereum,"Open Source Giant @RedHatNews Launches First Blockchain Initiative  #ConsenSys #BlockApps #EthereumQuote TweetJohn Lilic ₿ Ξ ∞@JohnLilic · Apr 5, 2016Open Source Giant @RedHatNews Launches First Blockchain Initiative http://coinde.sk/1PRwDWE #ConsenSys #BlockApps #Ethereum",0,0,0,False
150,AltcoinLive bot@AltcoinLiveBot,updated $ETH buywall 14.5btc @ 0.02416006 http://altcoinlive.com/bittrex-eth-btc #altcoinlive (change 0.00000399),0,0,0,False
152,AltcoinLive bot@AltcoinLiveBot,updated $ETH buywall 14.5btc @ 0.02415607 http://altcoinlive.com/bittrex-eth-btc #altcoinlive (change 0.00015607),0,0,0,False
153,AltcoinLive bot@AltcoinLiveBot,updated $ETH buywall 13.3btc @ 0.02400000 http://altcoinlive.com/bittrex-eth-btc #altcoinlive (change -0.000154),0,0,0,False
154,AltcoinLive bot@AltcoinLiveBot,updated $ETH buywall 14.5btc @ 0.02415400 http://altcoinlive.com/bittrex-eth-btc #altcoinlive (change 0.00000032),0,0,0,False
155,AltcoinLive bot@AltcoinLiveBot,updated $ETH buywall 14.5btc @ 0.02415368 http://altcoinlive.com/bittrex-eth-btc #altcoinlive (change 0.00000183),0,0,0,False
156,AltcoinLive bot@AltcoinLiveBot,updated $ETH buywall 14.5btc @ 0.02415185 http://altcoinlive.com/bittrex-eth-btc #altcoinlive (change 0.00000366),0,0,0,False
157,AltcoinLive bot@AltcoinLiveBot,updated $ETH buywall 15.1btc @ 0.02414819 http://altcoinlive.com/bittrex-eth-btc #altcoinlive (change 0.00014819),0,0,0,False
158,AltcoinLive bot@AltcoinLiveBot,updated $ETH buywall 13.3btc @ 0.02400000 http://altcoinlive.com/bittrex-eth-btc #altcoinlive (change -0.0001443),0,0,0,False
159,AltcoinLive bot@AltcoinLiveBot,updated $ETH buywall 14.6btc @ 0.02414430 http://altcoinlive.com/bittrex-eth-btc #altcoinlive (change 0.00012346),0,0,0,False
160,Sector Zero One@SectorZeroOne,Free Ethereum every 5 minutes http://etherfaucet.net/?r=0xD91e186b5ab437E26d4114Cc970B1a91bABB3544… #ethereum via @FreeCryptoCo,0,0,0,False
161,Ethereum SE@StackEthereum,What are the preferred protocols to integrate external data sources & sinks with a BC network? http://ethereum.stackexchange.com/questions/2683/what-are-the-preferred-protocols-to-integrate-external-data-sources-sinks-with… #ethereum,0,0,0,False
163,AltcoinLive bot@AltcoinLiveBot,updated $ETH buywall 14.4btc @ 0.02402084 http://altcoinlive.com/bittrex-eth-btc #altcoinlive (change 0.00006107),0,0,0,False
165,AltcoinLive bot@AltcoinLiveBot,updated $ETH buywall 14.4btc @ 0.02395977 http://altcoinlive.com/bittrex-eth-btc #altcoinlive (change -0.00009232),0,0,0,False
166,AltcoinLive bot@AltcoinLiveBot,updated $ETH buywall 14.4btc @ 0.02405209 http://altcoinlive.com/bittrex-eth-btc #altcoinlive (change -0.00009425),0,0,0,False
167,AltcoinLive bot@AltcoinLiveBot,updated $ETH buywall 14.5btc @ 0.02414634 http://altcoinlive.com/bittrex-eth-btc #altcoinlive (change 0.00006041),0,0,0,False
174,Ethereum SE@StackEthereum,How to unlock accounts programmatically after the node has started? http://ethereum.stackexchange.com/questions/2678/how-to-unlock-accounts-programmatically-after-the-node-has-started… #ethereum #goethereum #accounts #security,0,0,0,False
175,Ethereum SE@StackEthereum,How do you delete/remove/hide contracts from Ethereum Wallet (aka mist)? http://ethereum.stackexchange.com/questions/2682/how-do-you-delete-remove-hide-contracts-from-ethereum-wallet-aka-mist… #ethereum #mist #wallets,0,0,0,False
177,OpenLedger@OpenLedgerDC,@Moneyandtech #Gold Backed #Digix Raises Millions in Hours on #Ethereum #Blockchain Crowdsale https://cryptocoinsnews.com/digix-millions-ethereum-blockchain-crowdsale… Soon on #OpenLedger,0,0,0,False
178,OpenLedger@OpenLedgerDC,@Forbes #Gold Backed #Digix Raises Millions in Hours on #Ethereum #Blockchain Crowdsale https://cryptocoinsnews.com/digix-millions-ethereum-blockchain-crowdsale… Coming soon on #OpenLedger,0,0,0,False
179,OpenLedger@OpenLedgerDC,@ForbesEurope #Gold Backed #Digix Raises Millions in Hours on #Ethereum #Blockchain Crowdsale https://cryptocoinsnews.com/digix-millions-ethereum-blockchain-crowdsale… soon on #OpenLedger,0,0,0,False
180,OpenLedger@OpenLedgerDC,@coindesk #Gold Backed #Digix Raises Millions in Hours on #Ethereum #Blockchain Crowdsale https://cryptocoinsnews.com/digix-millions-ethereum-blockchain-crowdsale… Coming soon on #OpenLedger,0,0,0,False
181,OpenLedger@OpenLedgerDC,@AitkenRL #Gold Backed #Digix Raises Millions in Hours on #Ethereum #Blockchain Crowdsale https://cryptocoinsnews.com/digix-millions-ethereum-blockchain-crowdsale… Coming soon on #OpenLedger,0,0,0,False
182,OpenLedger@OpenLedgerDC,#Gold Backed #Digix Raises Millions in Hours on #Ethereum #Blockchain Crowdsale https://cryptocoinsnews.com/digix-millions-ethereum-blockchain-crowdsale… Coming soon on #OpenLedger #DGD #BTC,1,0,0,False
183,Julia Edling@bitcointonic,"April 5, 2016: #Ethereum Price Trends: How long will the downward trend continue? The fortification at the level of… http://dlvr.it/KzTSWp",0,0,0,False
184,AltcoinLive bot@AltcoinLiveBot,updated $ETH buywall 14.5btc @ 0.02408593 http://altcoinlive.com/bittrex-eth-btc #altcoinlive (change -0.00006209),0,0,0,False
185,Corner Coin@Corner_Coin,Will #Ethereum price lose its momentum in April? http://bit.ly/1MPGXE7 #fintech #bitcoin,0,0,0,False
186,Ethereum Price@EthereumPrice_,"#Ethereum: Ether Price Index
1 ETH =0.024672Ƀ XBT = $10.455000 USD
Today: -6.74%⬇︎ Last 24h: -7.48%⬇︎
https://ethereum-price.com",0,0,0,False
187,AltcoinLive bot@AltcoinLiveBot,updated $ETH buywall 14.5btc @ 0.02414802 http://altcoinlive.com/bittrex-eth-btc #altcoinlive (change -0.00018848),0,0,0,False
188,AltcoinLive bot@AltcoinLiveBot,updated $ETH buywall 14.6btc @ 0.02433650 http://altcoinlive.com/bittrex-eth-btc #altcoinlive (change -0.00014456),0,0,0,False
189,OpenLedger@OpenLedgerDC,Gold Backed #Digix Raises Millions in Hours on #Ethereum #Blockchain Crowdsale https://cryptocoinsnews.com/digix-millions-ethereum-blockchain-crowdsale… Coming soon on #OpenLedger #DGD #BTC,1,0,0,False
190,AltcoinLive bot@AltcoinLiveBot,updated $ETH buywall 14.7btc @ 0.02448106 http://altcoinlive.com/bittrex-eth-btc #altcoinlive (change 0.00006297),0,0,0,False
191,AltcoinLive bot@AltcoinLiveBot,updated $ETH buywall 14.7btc @ 0.02441809 http://altcoinlive.com/bittrex-eth-btc #altcoinlive (change 0.00006114),0,0,0,False
192,AltcoinLive bot@AltcoinLiveBot,updated $ETH buywall 14.6btc @ 0.02435695 http://altcoinlive.com/bittrex-eth-btc #altcoinlive (change 0.00006109),0,0,0,False
193,AltcoinLive bot@AltcoinLiveBot,updated $ETH buywall 14.6btc @ 0.02429586 http://altcoinlive.com/bittrex-eth-btc #altcoinlive (change 0.00006163),0,0,0,False
194,alldissolve@alldissolve,"Replying to @alldissolve@av12379 in reality I think he realized that $eth has lots of supply, no solid use cases yet and is in a hugely inflated speculative bubble.",1,0,0,False
195,IIIΞ FUGARU@Newyorkez,"Replying to @Melt_Dem@Melt_Dem @coincenter Bitcoin is the Jeb Bush of digital currencies: ""low energy"" and stuck in establishment, LOL. #ethereum",0,0,0,False
206,AltcoinLive bot@AltcoinLiveBot,updated $ETH buywall 14.5btc @ 0.02423423 http://altcoinlive.com/bittrex-eth-btc #altcoinlive (change -0.00006068),0,0,0,False
207,AltcoinLive bot@AltcoinLiveBot,updated $ETH buywall 14.6btc @ 0.02429491 http://altcoinlive.com/bittrex-eth-btc #altcoinlive (change -0.00008880),0,0,0,False
208,AltcoinLive bot@AltcoinLiveBot,updated $ETH buywall 14.6btc @ 0.02438371 http://altcoinlive.com/bittrex-eth-btc #altcoinlive (change -0.00006984),0,0,0,False
209,AltcoinLive bot@AltcoinLiveBot,updated $ETH buywall 14.7btc @ 0.02445355 http://altcoinlive.com/bittrex-eth-btc #altcoinlive (change -0.00018646),0,0,0,False
210,AltcoinLive bot@AltcoinLiveBot,updated $ETH buywall 14.8btc @ 0.02464001 http://altcoinlive.com/bittrex-eth-btc #altcoinlive (change 0.00019040),0,0,0,False
212,BitcoiNapoleon@hodler_btc,"Blockchain introduction video from BNP Paribas:
http://dam.bnpparibas.com/vcm2/php/playe…
#blockchain #r3 #banking #ethereum",0,0,0,False
214,EthereumNZ@EthereumNZ,Vitalik Buterin on the #Ethereum #Blockchain.Vitalik Buterin Ethereum Blockchainyoutube.com,4,1,0,False
216,AltcoinLive bot@AltcoinLiveBot,updated $ETH buywall 14.7btc @ 0.02444961 http://altcoinlive.com/bittrex-eth-btc #altcoinlive (change -0.00000812),0,0,0,False
217,Mr. Love-Lover: Queen's Choice@Niccotinho101,"Replying to @CoinPaymentsNET@CoinPaymentsNET: Innovate Finance Global Summit 2016, London April 11th #fintech2016 #ifgs2016 #Bitcoin #ethereum",1,0,0,False
219,AltcoinLive bot@AltcoinLiveBot,updated $ETH buywall 14.7btc @ 0.02445773 http://altcoinlive.com/bittrex-eth-btc #altcoinlive (change 0.00000471),0,0,0,False
221,AltcoinLive bot@AltcoinLiveBot,updated $ETH buywall 14.7btc @ 0.02445302 http://altcoinlive.com/bittrex-eth-btc #altcoinlive (change 0.00006118),0,0,0,False
222,TBM NEWS@TBMGPT_News,#Ethereum’s Solidity Now Available in @Microsoft Visual Studio https://cryptocoinsnews.com/ethereums-solidity-now-available-in-microsoft-visual-studio/… via @CryptoCoinsNews @MSFTnews,1,0,0,False
223,AltcoinLive bot@AltcoinLiveBot,updated $ETH buywall 14.6btc @ 0.02439184 http://altcoinlive.com/bittrex-eth-btc #altcoinlive (change 0.00006149),0,0,0,False
224,Ethereum SE@StackEthereum,The third party api failure problem http://ethereum.stackexchange.com/questions/2680/the-third-party-api-failure-problem… #ethereum #transactions #jsonrpc #bitcoin,0,0,0,False
226,AltcoinLive bot@AltcoinLiveBot,updated $ETH buywall 14.6btc @ 0.02433035 http://altcoinlive.com/bittrex-eth-btc #altcoinlive (change -0.00016041),0,0,0,False
227,AltcoinLive bot@AltcoinLiveBot,updated $ETH buywall 14.7btc @ 0.02449076 http://altcoinlive.com/bittrex-eth-btc #altcoinlive (change 0.00013044),0,0,0,False
228,AltcoinLive bot@AltcoinLiveBot,updated $ETH buywall 14.6btc @ 0.02436032 http://altcoinlive.com/bittrex-eth-btc #altcoinlive (change 0.00006545),0,0,0,False
229,AltcoinLive bot@AltcoinLiveBot,updated $ETH buywall 14.6btc @ 0.02429487 http://altcoinlive.com/bittrex-eth-btc #altcoinlive (change -0.00020098),0,0,0,False
230,AltcoinLive bot@AltcoinLiveBot,updated $ETH buywall 14.7btc @ 0.02449585 http://altcoinlive.com/bittrex-eth-btc #altcoinlive (change 0.00012647),0,0,0,False
231,AltcoinLive bot@AltcoinLiveBot,updated $ETH buywall 14.6btc @ 0.02436938 http://altcoinlive.com/bittrex-eth-btc #altcoinlive (change -0.00006502),0,0,0,False
232,Chris Burniske@cburniske,Will #Ethereum get a call from regulators at some point for its crowdsale? #COALANYUYes20%No80%5 votes·Final results,1,0,0,False
233,AltcoinLive bot@AltcoinLiveBot,updated $ETH buywall 14.7btc @ 0.02443440 http://altcoinlive.com/bittrex-eth-btc #altcoinlive (change 0.0000611),0,0,0,False
234,AltcoinLive bot@AltcoinLiveBot,updated $ETH buywall 14.6btc @ 0.02437330 http://altcoinlive.com/bittrex-eth-btc #altcoinlive (change -0.00006638),0,0,0,False
235,Ethereum SE@StackEthereum,Unlock accounts and exit http://ethereum.stackexchange.com/questions/2678/unlock-accounts-and-exit… #ethereum #goethereum,0,0,0,False
236,AltcoinLive bot@AltcoinLiveBot,updated $ETH buywall 14.7btc @ 0.02443968 http://altcoinlive.com/bittrex-eth-btc #altcoinlive (change 0.00006231),0,0,0,False
237,AltcoinLive bot@AltcoinLiveBot,updated $ETH buywall 14.6btc @ 0.02437737 http://altcoinlive.com/bittrex-eth-btc #altcoinlive (change -0.00010305),0,0,0,False
239,AltcoinLive bot@AltcoinLiveBot,updated $ETH buywall 14.7btc @ 0.02448042 http://altcoinlive.com/bittrex-eth-btc #altcoinlive (change -0.00006360),0,0,0,False
241,AltcoinLive bot@AltcoinLiveBot,updated $ETH buywall 14.7btc @ 0.02454402 http://altcoinlive.com/bittrex-eth-btc #altcoinlive (change 0.00006142),0,0,0,False
243,AltcoinLive bot@AltcoinLiveBot,updated $ETH buywall 14.7btc @ 0.02448260 http://altcoinlive.com/bittrex-eth-btc #altcoinlive (change 0.00006131),0,0,0,False
244,Bitcoin Is The KING @EthereumPredict,Time to buy back or buy some more ! :) #ethereum #ether #btc,1,0,0,False
245,Ztir@El_ZTIR,$eth going back to .01,1,1,0,False
246,DuNN0 @_DuNN0_,set $ETH buy @ 0.018,0,0,0,False
261,AltcoinLive bot@AltcoinLiveBot,updated $ETH buywall 14.7btc @ 0.02442129 http://altcoinlive.com/bittrex-eth-btc #altcoinlive (change 0.00006124),0,0,0,False
262,𝙨𝙝𝙞𝙩𝙘𝙤𝙞𝙣𝙚𝙧@shitcoiner,Is this the end of #ETH new normal stage?,0,0,0,False
265,#SmartEthereum@SmartEthereum,"Proof of Individuality, the New-Age #Security on #Blockchain #ethereumQuote TweetJohan Nygren@resilience_me · Apr 5, 2016Proof of Individuality, the New-Age Security on Blockchain http://newsbtc.com/2016/04/05/proof-of-individuality-blockchain-security/… @brynosaurus @leashless @tonilanec @akipman #ethereum",2,0,0,False
266,#SmartEthereum@SmartEthereum,"Saving the World Through Crypto: The Humanitarian #Blockchain http://ift.tt/1qo1BSb #EthereumQuote TweetEthereum UAE@Ethereum_UAE · Apr 5, 2016Saving the World Through Crypto: The Humanitarian Blockchain http://ift.tt/1qo1BSb #Ethereum",0,0,0,False
267,#SmartEthereum@SmartEthereum,"Why #Ethereum should be interesting to developers: the next evolution of Open Source:   submittedQuote TweetBitcoin@bitcoinpoet · Apr 5, 2016Why Ethereum should be interesting to developers: the next evolution of Open Source:   submitted by ... http://bit.ly/23e5DdC #ethereum",0,0,0,False
268,AltcoinLive bot@AltcoinLiveBot,updated $ETH buywall 14.6btc @ 0.02436005 http://altcoinlive.com/bittrex-eth-btc #altcoinlive (change 0.00006122),0,0,0,False
269,#SmartEthereum@SmartEthereum,"""#Bitcoin ATMs open source code can be modified to support #Ethereum & interact with #smartcontracts on the networkQuote TweetEthereumNZ@EthereumNZ · Apr 5, 2016""#Bitcoin ATMs open source code can be modified to support #Ethereum & interact with #smartcontracts on the network.http://goo.gl/tctYDx""",2,1,0,False
271,#SmartEthereum@SmartEthereum,Another reason for public #blockchains like #Bitcoin & #Ethereum: @realDonaldTrump to confiscate US/MX remittances: https://twitter.com/donaldmcintyre_/status/717415784633380864…This Tweet is unavailable.,0,0,0,False
272,AltcoinLive bot@AltcoinLiveBot,updated $ETH buywall 14.6btc @ 0.02429883 http://altcoinlive.com/bittrex-eth-btc #altcoinlive (change 0.00006107),0,0,0,False
273,BitcoinAgile@bitcoinagile,Memo explains how Donald Trump plans to pay for border wall #blockchains #Bitcoin #Ethereum https://washingtonpost.com/apps/g/page/politics/memo-explains-how-donald-trump-plans-to-pay-for-border-wall/2007/?tid=a_inl…,1,0,0,False
274,AltcoinLive bot@AltcoinLiveBot,updated $ETH buywall 14.5btc @ 0.02423776 http://altcoinlive.com/bittrex-eth-btc #altcoinlive (change 0.00006102),0,0,0,False
275,Dmitriy Zhidkikh@yahotev,#ethereum New! #FollowMe EthereuM Faucet'S RotatoR #retweet https://surfast.ru/URL/EtherRotator… 50% ReferS AFF. Program!!!The following media includes potentially sensitive content. Change settingsView,0,0,0,False
283,Altcoinix[KLKS]@Yavuzcetinkaya3,Gold Backed Digix Raises Millions in Hours on Ethereum Blockchain Crowdsale http://altcoinix.com/2016/04/05/gold-backed-digix-raises-millions-in-hours-on-ethereum-blockchain-crowdsale/… #ethereum #eth #bitcoin,0,0,0,False
284,AltcoinLive bot@AltcoinLiveBot,updated $ETH buywall 14.5btc @ 0.02417674 http://altcoinlive.com/bittrex-eth-btc #altcoinlive (change -0.00017726),0,0,0,False
285,AltcoinLive bot@AltcoinLiveBot,updated $ETH buywall 14.6btc @ 0.02435400 http://altcoinlive.com/bittrex-eth-btc #altcoinlive (change -0.00007905),0,0,0,False
287,AltcoinLive bot@AltcoinLiveBot,updated $ETH buywall 14.7btc @ 0.02443305 http://altcoinlive.com/bittrex-eth-btc #altcoinlive (change 0.00006138),0,0,0,False
288,paulsdaniels@shkiperrr55,Free Ethereum every 5 minutes http://etherfaucet.net/?r=0xa872126143fC134f7d3915cF1628554584eb7A9D… #ethereum via @FreeCryptoCo,0,0,0,False
291,EthereumNZ@EthereumNZ,"""#Bitcoin ATMs open source code can be modified to support #Ethereum & interact with #smartcontracts on the network.http://goo.gl/tctYDx""",1,1,1,False
292,Sam Korus@skorusARK,"As we discuss #bitcoin & #ethereum at #CoalaNYU, this graphic clearly reveals ether's rise http://arkinv.st/1SyoPLD",0,0,0,False
293,Ethereum Price@EthereumPrice_,"#Ethereum: Ether Price Index
1 ETH =0.024746Ƀ XBT = $10.435000 USD
Today: -6.46%⬇︎ Last 24h: -6.74%⬇︎
https://ethereum-price.com",0,0,0,False
294,Cloud Mining Monitor@cmmonitorcom,#Ethereum #Cloudmining': 05.04.2016 Payment received. 5 MHs - 0.06863636 ETH. From MyCoinCloud.MyCoinCloud (Ethereum Mining)cmmonitor.com,0,0,0,False
296,Bitcoin PR Buzz@BitcoinPRBuzz,#Lisk Raises Over 5.7 Million USD 2nd Most Successful Crypto-Currency Crowd-Fund to Date http://bitcoinprbuzz.com/lisk-raises-over-5-7-million-usd-in-2nd-most-successful-crypto-currency-crowd-fund-to-date… #ETH #Bitcoin #blockchain,0,0,0,False
297,"Bitcoin BTC Alt Crypto Wise, Gold Silver sarcastic@CRYPT0N1TE","Last words concerning $ETH before voice actor of Admiral Akbar died today at age 93, ""It's a trap!""",0,0,0,False
298,Robert Pfeffer@CoachPfeff,Replying to @Barfstew.@Barfstew @CryptoInside @CryptoIndexes Arbitrage for #ETH is here: http://freestaking.com/eth/ Trade #Ethereum wisely  ;),1,1,0,False
299,Satoshis_Dragon  @Satoshis_Dragon,@KrakenTrader So many unknowns in $eth. Not touching it until it finds bottom. In 2014 price was 2000eth/1btc now 42/1. $btc goin higher 1st,0,0,0,False
300,Bean@BTCBean,Perhaps an epic $eth dump will bring the broken bagholders to $btc for some new action.,0,0,0,False
305,Marco ฿TC@Marco_BTC,"Replying to @Marco_BTC@marcoporretto Hope you didn't long $ETH, already under 0,025!",2,1,0,False
308,AltcoinLive bot@AltcoinLiveBot,updated $ETH buywall 14.7btc @ 0.02456997 http://altcoinlive.com/bittrex-eth-btc #altcoinlive (change 0.00006981),0,0,0,False
309,AltcoinLive bot@AltcoinLiveBot,updated $ETH buywall 14.7btc @ 0.02450016 http://altcoinlive.com/bittrex-eth-btc #altcoinlive (change 0.00050016),0,0,0,False
310,BitcoinAgile@bitcoinagile,#ethereum Foundation and Wanxiang #blockchain Labs announce a blockbuster event combining Devcon2 and the 2nd Global https://blog.ethereum.org/2016/04/05/devcon2-and-blockchain-summit-shanghai-september2016…,2,0,0,False
311,AltcoinLive bot@AltcoinLiveBot,updated $ETH buywall 13.3btc @ 0.02400000 http://altcoinlive.com/bittrex-eth-btc #altcoinlive (change -0.00030301),0,0,0,False
312,AltcoinLive bot@AltcoinLiveBot,updated $ETH buywall 14.6btc @ 0.02430301 http://altcoinlive.com/bittrex-eth-btc #altcoinlive (change -0.00000172),0,0,0,False
314,AltcoinLive bot@AltcoinLiveBot,updated $ETH buywall 14.6btc @ 0.02430473 http://altcoinlive.com/bittrex-eth-btc #altcoinlive (change -0.00013799),0,0,0,False
315,AlertCo.in@AlertCoin,"@meplushumanity

#Bittrex: $ETH / BTC

Alert price: <= 0.0250
Current price: 0.025

http://AlertCo.in",0,0,0,False
316,AltcoinLive bot@AltcoinLiveBot,updated $ETH buywall 14.7btc @ 0.02444272 http://altcoinlive.com/bittrex-eth-btc #altcoinlive (change -0.00013797),0,0,0,False
317,AltcoinLive bot@AltcoinLiveBot,updated $ETH buywall 14.7btc @ 0.02458069 http://altcoinlive.com/bittrex-eth-btc #altcoinlive (change 0.00010824),0,0,0,False
318,AltcoinLive bot@AltcoinLiveBot,updated $ETH buywall 14.7btc @ 0.02447245 http://altcoinlive.com/bittrex-eth-btc #altcoinlive (change 0.00047245),0,0,0,False
319,AltcoinLive bot@AltcoinLiveBot,updated $ETH buywall 13.3btc @ 0.02400000 http://altcoinlive.com/bittrex-eth-btc #altcoinlive (change -0.00078767),0,0,0,False
320,WhaleClub@btcWhaleclub,$ETH New low!,0,0,0,False
321,AltcoinLive bot@AltcoinLiveBot,updated $ETH buywall 14.9btc @ 0.02478767 http://altcoinlive.com/bittrex-eth-btc #altcoinlive (change -0.00016726),0,0,0,False
322,AltcoinLive bot@AltcoinLiveBot,updated $ETH buywall 15.0btc @ 0.02495493 http://altcoinlive.com/bittrex-eth-btc #altcoinlive (change -0.00008012),0,0,0,False
323,AltcoinLive bot@AltcoinLiveBot,updated $ETH buywall 15.0btc @ 0.02503505 http://altcoinlive.com/bittrex-eth-btc #altcoinlive (change -0.00013203),0,0,0,False
324,Ethereum UAE@Ethereum_UAE,The Vanbex Report: Bitcoin’s Battlefronts http://ift.tt/1RWtAB6 #Ethereum,0,0,0,False
326,rssbtc.com@rssbtc,"Gold Backed Digix Raises Millions in Hours on Ethereum Blockchain Crowdsale - http://bit.ly/1UGnpoo
#fintech #gold #blockchain #ethereum",1,1,0,False
335,Johan Nygren@resilience_me,"Proof of Individuality, the New-Age Security on Blockchain http://newsbtc.com/2016/04/05/proof-of-individuality-blockchain-security/… @brynosaurus @leashless @tonilanec @akipman #ethereumProof of Individuality, the New-Age Security on BlockchainProof of Individuality protocol is designed to prevent Sybil attacks on peer-to-peer network based computer reputation systems. Read more...newsbtc.com",3,2,0,False
336,ViÐal Chriqui@vidal007,"The new #LedgerBlue hardware from @LedgerHQ can handle #bitcoin #ethereum #PGP & #fido
http://themerkle.com/new-ledger-bitcoin-hardware-can-run-pgp-and-ethereum-wallet/… via @themerklenews",1,0,0,False
338,The Financial Revolutionist@Fin_Revolution,#Ethereum is all the rage. See The Financial Revolutionist. @Microsoft https://cards.twitter.com/cards/18ce548jczu/1m9tt…,0,0,0,False
339,CosmicTriggerThePlay@2CosmicTrigger3,Replying to @2CosmicTrigger3This is an exciting time. We might even tempt @leashless to chime in with an far flung future #ethereum interview if he'll come out to play.,1,1,1,False
340,CosmicTriggerThePlay@2CosmicTrigger3,"Replying to @2CosmicTrigger3For cosmically inclined Fools, there's a #blockchain primer on Facebook: https://facebook.com/cosmictriggerplay/posts/1061723193870189… - later we'll get into #bitcoin & #ethereum",1,0,0,False
341,Anders Quitzau@Anders_Quitzau,Design and create your own molecules - perspectives are gigantic!  Break through from #IBMResearch and #ETH http://ow.ly/10ithc,0,0,0,False
342,Раб Божий@Diener_Gottes,"#Ethereum’s Solidity Now Available in #Microsoft Visual Studio: Recently, #Consensys pushed… http://goo.gl/fb/BC1LI1",0,0,0,False
343,AltcoinLive bot@AltcoinLiveBot,updated $ETH buywall 15.1btc @ 0.02516708 http://altcoinlive.com/bittrex-eth-btc #altcoinlive (change -0.00006616),0,0,0,False
344,AltcoinLive bot@AltcoinLiveBot,updated $ETH buywall 15.1btc @ 0.02523324 http://altcoinlive.com/bittrex-eth-btc #altcoinlive (change -0.00002374),0,0,0,False
345,Paul Worrall@interition,#MeteorJS upgrade while integrating #Ethereum web3.js. hmm. A #startup on the #bleedingedge  is a fight with switchblades.,0,0,0,False
346,AltcoinLive bot@AltcoinLiveBot,updated $ETH buywall 15.2btc @ 0.02525698 http://altcoinlive.com/bittrex-eth-btc #altcoinlive (change 0.00006325),0,0,0,False
347,YOᗪI ᕼEᖇᗰᗩᗯᗩᑎ@YodiHermawan,"#Ethereum’s Solidity Now Available in #Microsoft Visual Studio: Recently, #Consensys… http://goo.gl/fb/UA9lYW #vk",0,0,0,False
348,Conrad Johnson@ConradJohnson,"Looks like I'll be in China (again) this September.   Better delete that President Xi tweet.  #ethereumQuote TweetEthereum@ethereum · Apr 5, 2016Ethereum and Wanxiang Blockchain Labs announce International Blockchain Week in Shanghai, Sept 19–24, 2016  https://blog.ethereum.org/2016/04/05/ethereum-foundation-and-wanxiang-blockchain-labs-announce-a-blockbuster-event-combining-devcon2-and-the-2nd-global-blockchain-summit-in-shanghai-september-19-24-2016/… #DEVCON",1,0,0,False
349,Rafael J. Muñoz M.@RafaDiseno,Free Ethereum every 5 minutes arpovecha http://etherfaucet.net/?r=0x63c2c0bd12889fb0610e90e2d2b2a01285320778… #ethereum #free,0,0,0,False
350,BitcoinAgile@bitcoinagile,#ethereum and #bitcoin - fintechblue #dapps http://fintechblue.com/2016/04/ethereum-and-bitcoin…,1,0,0,False
355,Noelle@NoelleInMadrid,"Just published: ""Ethereum and Bitcoin"" http://fintechblue.com/2016/04/ethereum-and-bitcoin/… #ethereum #bitcoin",0,0,0,False
357,AltcoinLive bot@AltcoinLiveBot,updated $ETH buywall 15.8btc @ 0.02552385 http://altcoinlive.com/bittrex-eth-btc #altcoinlive (change 0.00082385),0,0,0,False
358,AltcoinLive bot@AltcoinLiveBot,updated $ETH buywall 12.4btc @ 0.02470000 http://altcoinlive.com/bittrex-eth-btc #altcoinlive (change -0.00053416),0,0,0,False
359,Ethereum UAE@Ethereum_UAE,Microsoft Inks Partnership With R3 Consortium to Bring Blockchain Tech to Financial Markets http://ift.tt/1oyEFO6 #Ethereum,0,0,0,False
360,AltcoinLive bot@AltcoinLiveBot,updated $ETH buywall 15.1btc @ 0.02523416 http://altcoinlive.com/bittrex-eth-btc #altcoinlive (change -0.00006585),0,0,0,False
361,AltcoinLive bot@AltcoinLiveBot,updated $ETH buywall 15.2btc @ 0.02530001 http://altcoinlive.com/bittrex-eth-btc #altcoinlive (change -0.00015058),0,0,0,False
362,AltcoinLive bot@AltcoinLiveBot,updated $ETH buywall 15.3btc @ 0.02545059 http://altcoinlive.com/bittrex-eth-btc #altcoinlive (change 0.00009561),0,0,0,False
363,AltcoinLive bot@AltcoinLiveBot,updated $ETH buywall 15.2btc @ 0.02535498 http://altcoinlive.com/bittrex-eth-btc #altcoinlive (change -0.00016392),0,0,0,False
364,AltcoinLive bot@AltcoinLiveBot,updated $ETH buywall 15.3btc @ 0.02551890 http://altcoinlive.com/bittrex-eth-btc #altcoinlive (change 0.00000155),0,0,0,False
365,Corner Coin@Corner_Coin,#Ethereum Price Vs #Bitcoin Price: ETH/XBT Bearish? http://bit.ly/1MPGXE7 via @FXNWorld #fintech,0,0,0,False
366,Ethereum SE@StackEthereum,sendTransaction from iPhone app http://ethereum.stackexchange.com/questions/2669/sendtransaction-from-iphone-app… #ethereum #transactions #web3js #blockchain #dapps #dappdevelopment,0,0,0,False
367,AltcoinLive bot@AltcoinLiveBot,updated $ETH buywall 15.3btc @ 0.02551735 http://altcoinlive.com/bittrex-eth-btc #altcoinlive (change 0.00000018),0,0,0,False
368,AltcoinLive bot@AltcoinLiveBot,updated $ETH buywall 15.8btc @ 0.02551717 http://altcoinlive.com/bittrex-eth-btc #altcoinlive (change 0.00081717),0,0,0,False
370,AltcoinLive bot@AltcoinLiveBot,updated $ETH buywall 12.4btc @ 0.02470000 http://altcoinlive.com/bittrex-eth-btc #altcoinlive (change -0.00081675),0,0,0,False
371,AltcoinLive bot@AltcoinLiveBot,updated $ETH buywall 15.3btc @ 0.02551675 http://altcoinlive.com/bittrex-eth-btc #altcoinlive (change 0.00000022),0,0,0,False
372,TBM NEWS@TBMGPT_News,New Ledger #Bitcoin Hardware Can Run #PGP and #Ethereum Wallet – The Merkle http://themerkle.com/new-ledger-bitcoin-hardware-can-run-pgp-and-ethereum-wallet/…,0,0,0,False
373,AltcoinLive bot@AltcoinLiveBot,updated $ETH buywall 15.3btc @ 0.02551653 http://altcoinlive.com/bittrex-eth-btc #altcoinlive (change 0.00024152),0,0,0,False
374,AltcoinLive bot@AltcoinLiveBot,updated $ETH buywall 15.2btc @ 0.02527501 http://altcoinlive.com/bittrex-eth-btc #altcoinlive (change -0.00024126),0,0,0,False
375,AltcoinLive bot@AltcoinLiveBot,updated $ETH buywall 15.3btc @ 0.02551627 http://altcoinlive.com/bittrex-eth-btc #altcoinlive (change 0.00000158),0,0,0,False
376,AltcoinLive bot@AltcoinLiveBot,updated $ETH buywall 15.4btc @ 0.02551469 http://altcoinlive.com/bittrex-eth-btc #altcoinlive (change 0.00000034),0,0,0,False
377,AltcoinLive bot@AltcoinLiveBot,updated $ETH buywall 15.3btc @ 0.02551435 http://altcoinlive.com/bittrex-eth-btc #altcoinlive (change 0.00081435),0,0,0,False
378,AltcoinLive bot@AltcoinLiveBot,updated $ETH buywall 12.4btc @ 0.02470000 http://altcoinlive.com/bittrex-eth-btc #altcoinlive (change -0.00057501),0,0,0,False
392,David Liam@crazydaveorama,#Ethereum (ETH) Price Trends: 4/05/2016 http://cointelegraph.com/news/ethereum-eth-price-trends-5042016…,0,0,0,False
393,AltcoinLive bot@AltcoinLiveBot,updated $ETH buywall 15.2btc @ 0.02527501 http://altcoinlive.com/bittrex-eth-btc #altcoinlive (change -0.00012444),0,0,0,False
394,BitcoinAgile@bitcoinagile,Gold Backed Digix Raises Millions in Hours on #ethereum #blockchain Crowdsale - Legit Work http://legitworkathomejob.com/gold-backed-digix-raises-millions-in-hours-on-ethereum-blockchain-crowdsale…,1,1,0,False
395,AltcoinLive bot@AltcoinLiveBot,updated $ETH buywall 15.2btc @ 0.02539945 http://altcoinlive.com/bittrex-eth-btc #altcoinlive (change 0.00009944),0,0,0,False
396,AltcoinLive bot@AltcoinLiveBot,updated $ETH buywall 15.2btc @ 0.02530001 http://altcoinlive.com/bittrex-eth-btc #altcoinlive (change 0.00008669),0,0,0,False
398,Ethan Wilding@ethanwilding,DevCon2! Sept 19th to 24th https://blog.ethereum.org/2016/04/05/ethereum-foundation-and-wanxiang-blockchain-labs-announce-a-blockbuster-event-combining-devcon2-and-the-2nd-global-blockchain-summit-in-shanghai-september-19-24-2016/… #ethereum,0,0,0,False
399,fintechfolk@fintechfolk,Thanks antoniohstarr for registering for FinTechFolk - http://zpr.io/Mnfj #fintech #ethereum #bitcoin #blockchain,1,0,0,False
402,Hodl Shilla@Hodl_Shilla,Time to crank this up.     #Bitcoin #ethereum #crypto,1,0,0,False
403,Eric Romano@djericromano,@Seth_027 Hi $eth Thanks for following!. Nice to meet u. Check my Facebook : https://facebook.com/DjEricRomanoOfficialPage…,0,0,0,False
406,BNK Invest@bnkinvest,"Ex-Dividend Reminder: Ethan Allen Interiors, General Mills and Universal $ETH $GIS $UVV #dividends http://bit.ly/23dDbbG",1,0,0,False
407,AltcoinLive bot@AltcoinLiveBot,updated $ETH buywall 15.1btc @ 0.02521332 http://altcoinlive.com/bittrex-eth-btc #altcoinlive (change 0.00006349),0,0,0,False
408,YOᗪI ᕼEᖇᗰᗩᗯᗩᑎ@YodiHermawan,#Ethereum (#ETH) #Price Trends: 4/05/2016: <![CDATA[ Ethereum's price has undergone a… http://goo.gl/fb/GgYCfI #vk,0,0,0,False
409,AltcoinLive bot@AltcoinLiveBot,updated $ETH buywall 15.1btc @ 0.02514983 http://altcoinlive.com/bittrex-eth-btc #altcoinlive (change -0.00009909),0,0,0,False
410,AltcoinLive bot@AltcoinLiveBot,updated $ETH buywall 15.1btc @ 0.02524892 http://altcoinlive.com/bittrex-eth-btc #altcoinlive (change 0.00006340),0,0,0,False
411,Ether@etherfaucet,Enter for a Chance to Win 1 #Ether #Ethereum - https://wn.nr/A37Rfd,0,0,0,False
412,AltcoinLive bot@AltcoinLiveBot,updated $ETH buywall 15.1btc @ 0.02518552 http://altcoinlive.com/bittrex-eth-btc #altcoinlive (change 0.00006328),0,0,0,False
413,Patrizio Stavola@halovast,“Deja Vu #DAO Smart Contracts Audit Results” by @stephantual https://blog.slock.it/deja-vu-dao-smart-contracts-audit-results-d26bc088e32e#.9w0dbmyoy… #ethereum #slockit #blockchain,1,0,0,False
414,PS_PC-Parts@PS_PC_Parts,RiteAV - Cat6 Network Ethernet Cable - B http://amzn.to/1Ri87UX #RiteAV #- #Cat6 #Network #Eth,0,0,0,False
416,Ethereum Price@EthereumPrice_,"#Ethereum: Ether Price Index
1 ETH =0.025409Ƀ XBT = $10.786000 USD
Today: -3.96%⬇︎ Last 24h: -4.48%⬇︎
https://ethereum-price.com",0,0,0,False
419,BlockTribune@BlockTribune,"Northern Trust Wants A #Bitcoin And #Ethereum #Blockchain Developer http://bit.ly/1q2LfNQ via @jdebunt #fintechNorthern Trust Wants A Bitcoin And Ethereum Blockchain DeveloperAs the blockchain ecosystem keeps evolving, it only seems natural more and more companies will look for expert developers to bridge the gap between digital currency and the financial world. One of thethemerkle.com",0,0,0,False
420,Ethereum SE@StackEthereum,Delete Struct Entry by Index in Solidity http://ethereum.stackexchange.com/questions/2668/delete-struct-entry-by-index-in-solidity… #ethereum #solidity #contractdevelopment #struct,0,0,0,False
424,Uphold@UpholdInc,You asked & we heard you. #Uphold is on track to launch #litecoin and #ethereum in Q2!,2,2,0,False
427,Раб Божий@Diener_Gottes,#Ethereum (#ETH) #Price Trends: 4/05/2016: <![CDATA[ Ethereum's price has undergone a… http://goo.gl/fb/d0mWWv,0,0,0,False
430,Ethercloudinfo@Ethercloud_info,Official account of http://ethercloud.info - World's first #Ethereum cloudmining service,0,0,0,False
431,cash Card CRYPTO ⟠@CashCardCrypto,"Replying to @BITech@SAI, while you're at it, buy #bitcoin and #ethereum",0,0,0,False
432,AltcoinLive bot@AltcoinLiveBot,updated $ETH buywall 15.1btc @ 0.02512224 http://altcoinlive.com/bittrex-eth-btc #altcoinlive (change -0.00006659),0,0,0,False
435,Andrew Quentson@Aquentson,Mysterious Report Estimates #IoE Market at $23.97 Trillion by 2020 #bitcoin #blockchain #ethereumReport Estimates IoE Market at $23.97 Trillion by 2020A report by Infoholic Research LLP estimates the global Internet of Everything (IoE) market at almost $24 trillion within the next four years.newsbtc.com,0,0,0,False
436,Bitcoin Directory@dir4bc,##ETHereum (ETH) #Price #Trends: 4/05/2016: Ethereum's price has undergone a natural fall.… http://short.4bc.co/aOE,0,0,0,False
437,4BC@aff4bc,##ETHereum (ETH) #Price #Trends: 4/05/2016: Ethereum's price has undergone a natural fall.… http://short.4bc.co/aOE,0,0,0,False
438,Widget 4 Bitcoin@widget4bc,##ETHereum (ETH) #Price #Trends: 4/05/2016: Ethereum's price has undergone a natural fall.… http://short.4bc.co/aOE,0,0,0,False
439,Ethereum UAE@Ethereum_UAE,Oliver Wyman Principal: Blockchain Exhibiting ‘Kardashian Effect’ http://ift.tt/1oyfxqL #Ethereum,0,0,0,False
440,Patrizio Stavola@halovast,"""What is Eris? 2016 Edition"" nice sum up of what @eris_ltd team is up to #Blockchain #Ethereum #OpenBazaar https://blog.erisindustries.com/business/2016/04/03/wtf-is-eris/…",1,0,0,False
441,Ali Güçlü@aliguclu,"CoinTelegraph : Ethereum (ETH) Price Trends: 4/05/2016 http://cointelegraph.com/news/ethereum-eth-price-trends-5042016… #ethereum … https://twitter.com/CoinTelegraph/status/717347742792728576…)Quote TweetCointelegraph@Cointelegraph · Apr 5, 2016Ethereum (ETH) Price Trends: 4/05/2016 http://cointelegraph.com/news/ethereum-eth-price-trends-5042016… #ethereum #eth",0,0,0,False
442,BitcoinAgile@bitcoinagile,Mysterious Report Estimates IoE Market at $23.97 Trillion by 2020 - NEWSBTC #ethereum #IoE http://newsbtc.com/2016/04/05/mysterious-report-estimates-ioe-market-23-97-trillion-2020…,1,5,0,False
444,CryptKeeper@CryptKeeperBTT,"@ShapeShift_io BE AWARE: Scam ""Copy Cat"" Sites http://shar.es/1YMkbX via @sharethis
#nxter #NXT $NXT #bitcoin #litecoin #ethereum",0,0,0,False
445,FRANK G@Frank3DC,"Listen to How It Goes Ft. Daniel $eth (Prod. Genshin) by skxnyvilenbreaksrules #np on #SoundCloud
https://soundcloud.com/skxnyvilenbreaksrules/how-it-goes-ft-daniel-eth…",4,3,0,False
448,Kan Janyza@KanJanyza,"ok i'm going where my mouth is
short $ETH",0,0,0,False
449,dewa@dewa90381852,Free Ethereum every 5 minutes http://eth-faucet.com/?r=0xD25cf689DC3E50037871758c7114155E53Ff9742… #ethereum lewat @FreeCryptoCo,0,0,0,False
450,BitcoinAgile@bitcoinagile,Gold Backed Digix Raises Millions in Hours on #ethereum #blockchain Crowdsale - myBTCcoin http://mybtccoin.com/gold-backed-digix-raises-millions-in-hours-on-ethereum-blockchain-crowdsale…,1,2,0,False
451,BitcoinAgile@bitcoinagile,#ethereum Foundation and Wanxiang #blockchain Labs announce a blockbuster event combining Devcon2 and the 2nd Global https://blog.ethereum.org/2016/04/05/ethereum-foundation-and-wanxiang-blockchain-labs-announce-a-blockbuster-event-combining-devcon2-and-the-2nd-global-blockchain-summit-in-shanghai-september-19-24-2016…,1,0,0,False
452,ant@ThisIsNuse,"Replying to @CryptoHustle@CryptoHustle if we can't sort it out 100%, rip the noobs. Dangerous time for the $ETH crowd",1,0,0,False
453,Ethereum Dude@EthereumDude,"Wall Street looks into #blockchain to track trades on $2 trillion ""repo"" market 

http://buff.ly/1W6Sr8t #cryptocurrency #bitcoin #ethereumWall Street Considers Blockchain For Tracking Trades On $2 Trillion “Repo” MarketThe short-term lending market could be the first major market to see transactions recorded by the ledger made famous by bitcoin.fastcompany.com",0,0,0,False
454,rinnova energia@rinnova_nrg,Ethereum Foundation and Wanxiang Blockchain Labs announce a blockbuster event combining Devcon2 and ... http://bit.ly/1S7sIGL #ethereum,0,0,0,False
455,David@ProPatria64,Free Ethereum every 5 minutes http://etherfaucet.net/?r=0x5bd4e3c587f2b84157818397bb19ac8dc3265ff2… #ethereum via @FreeCryptoCo,1,0,0,False
456,#SmartEthereum@SmartEthereum,"Calling all #blockchain heroes - submit your session today http://darefest.be/stage/blockcha… Aug 24-26 Antwerp #ethereumQuote TweetMaarten Volders@MaartenVolders · Apr 5, 2016Calling all #blockchain heroes - submit your session today http://darefest.be/stage/blockchain… Aug 24-26 Antwerp #ethereum",0,0,0,False
457,Andrew Quentson@Aquentson,Gold Backed #Digix Raises Millions in Hours on #Ethereum #Blockchain Crowdsale https://cryptocoinsnews.com/digix-millions-ethereum-blockchain-crowdsale/… via @CryptoCoinsNews,0,0,0,False
458,YOᗪI ᕼEᖇᗰᗩᗯᗩᑎ@YodiHermawan,Gold Backed #Digix Raises Millions in Hours on #Ethereum Blockchain #Crowdsale: Digix… http://goo.gl/fb/5Nj2E0 #vk,0,0,0,False
459,Chikitin305@Chikitin305,"Ether takes a tumble with the price down 6% to 0.0256 BTC per Ether with volumes up at 27,000 BTC for the day. #ethereum #centralethereum",0,0,0,False
461,AltcoinWeekly@altcoinweekly,The latest Ethereum price is USD 10.8. For historical #Ethereum price charts - http://buff.ly/1Y3h6Jz,0,0,0,False
462,CoinGecko@coingecko,The latest Ethereum price is USD 10.8. For historical #Ethereum price charts - http://buff.ly/1Y3h6Jz,1,0,0,False
464,DigitalTechObserver@digitaltecheye,The Building Blocks of Ethereum. How #Ethereum compares with #Bitcoin. http://goo.gl/bBYVNm,0,0,0,False
465,indxio@indxio,#Russia Market Close || #Bitcoin: $420.96 | 372.35 EUR||  #Litecoin: 0.0077 BTC  || #Ethereum: 0.0254 BTC   || $BTC $LTC $ETH $RUB,0,0,0,False
466,Раб Божий@Diener_Gottes,Gold Backed #Digix Raises Millions in Hours on #Ethereum Blockchain #Crowdsale: Digix crowd… http://goo.gl/fb/VzWaZE,0,0,0,False
467,Crypto Crooks@cryptocrooks,"So far #ether has fallen 10% since our buy, but #dash has held steady! Hmmm",3,2,1,False
468,BitcoinAgile@bitcoinagile,Gold Backed Digix Raises Millions in Hours on #ethereum #blockchain Crowdsale - CCN: #DGD http://bit.ly/1oy4X38,1,1,0,False
469,Julia Vaingurt@julia_vaingurt,"*Sell $BTC Buy $CAB!
New #Blockchain based #IPO
http://cur.lv/x4qf8
#Bitcoin #Cryptocurrency #Fintech #CAB $ETH http://cur.lv/x4qff",0,0,0,False
471,Ethereum Price@EthereumPrice_,"#Ethereum: Ether Price Index
1 ETH =0.025744Ƀ XBT = $10.833000 USD
Today: -2.69%⬇︎ Last 24h: -3.88%⬇︎
https://ethereum-price.com",0,0,0,False
472,AltcoinLive bot@AltcoinLiveBot,updated $ETH buywall 15.2btc @ 0.02535827 http://altcoinlive.com/bittrex-eth-btc #altcoinlive (change 0.00000045),0,0,0,False
473,AltcoinLive bot@AltcoinLiveBot,updated $ETH buywall 15.2btc @ 0.02535782 http://altcoinlive.com/bittrex-eth-btc #altcoinlive (change 0.00000066),0,0,0,False
474,AltcoinLive bot@AltcoinLiveBot,updated $ETH buywall 15.2btc @ 0.02535716 http://altcoinlive.com/bittrex-eth-btc #altcoinlive (change 0.00000044),0,0,0,False
475,AltcoinLive bot@AltcoinLiveBot,updated $ETH buywall 15.7btc @ 0.02535672 http://altcoinlive.com/bittrex-eth-btc #altcoinlive (change 0.00000540),0,0,0,False
476,AltcoinLive bot@AltcoinLiveBot,updated $ETH buywall 15.2btc @ 0.02535132 http://altcoinlive.com/bittrex-eth-btc #altcoinlive (change 0.00008064),0,0,0,False
477,AltcoinLive bot@AltcoinLiveBot,updated $ETH buywall 15.2btc @ 0.02527068 http://altcoinlive.com/bittrex-eth-btc #altcoinlive (change 0.00000022),0,0,0,False
478,AltcoinLive bot@AltcoinLiveBot,updated $ETH buywall 15.2btc @ 0.02527046 http://altcoinlive.com/bittrex-eth-btc #altcoinlive (change 0.00000023),0,0,0,False
479,Daniel Müller   @kartentaucher,"I really like the idea. Induction EV charging + billing via blockchain #ethereum #Bitcoin Infrastructure startup mmhQuote TweetKeith Johnston@keith__johnston · Apr 4, 2016Blockchain charging is coming. http://youtube.com/watch?v=it2X_j-DPmA&sns=tw… via @youtube",2,0,0,False
480,AltcoinLive bot@AltcoinLiveBot,updated $ETH buywall 15.2btc @ 0.02527023 http://altcoinlive.com/bittrex-eth-btc #altcoinlive (change 0.00001840),0,0,0,False
481,AltcoinLive bot@AltcoinLiveBot,updated $ETH buywall 15.2btc @ 0.02525183 http://altcoinlive.com/bittrex-eth-btc #altcoinlive (change 0.00004815),0,0,0,False
482,J.Dewey_contractCode@contractCoding,#blockchain #ethereum #bitcoin How could blockchain technology help address this externality? @pmarca https://twitter.com/pmarca/status/717249538600251393…This Tweet is unavailable.,0,0,0,False
483,Blockchain Works@BlockchainWorks,"Join us on #slack and talk about everything #blockchain #bitcoin and #ethereum
http://buff.ly/1ZYZT5y",1,0,0,False
484,AltcoinLive bot@AltcoinLiveBot,updated $ETH buywall 15.1btc @ 0.02520368 http://altcoinlive.com/bittrex-eth-btc #altcoinlive (change 0.00006343),0,0,0,False
485,CloudPay@Nadia_Griffiths,Mexican #Cryptocurrency Exchange Bitso Adds #Ethereum MarketMexican Cryptocurrency Exchange Bitso Adds Ethereum MarketMexican Bitcoin exchange Bitso adds an Ethereum/peso trading marketcointelegraph.com,1,0,0,False
486,Nick Ayton@NickAyton,Replying to @DataLightningBlockchain might #ethereum will @DataLightning @SpirosMargaris @Deloitte @Stevewal63 @cloudnthings @EthereumNetNews @ethereumproject,5,2,0,False
493,AltcoinLive bot@AltcoinLiveBot,updated $ETH buywall 15.1btc @ 0.02514025 http://altcoinlive.com/bittrex-eth-btc #altcoinlive (change 0.00000023),0,0,0,False
494,AltcoinLive bot@AltcoinLiveBot,updated $ETH buywall 15.1btc @ 0.02514002 http://altcoinlive.com/bittrex-eth-btc #altcoinlive (change -0.00009260),0,0,0,False
495,Ethereum SE@StackEthereum,Is it possible to get the transaction hash from within a Solidity function call? http://ethereum.stackexchange.com/questions/2664/is-it-possible-to-get-the-transaction-hash-from-within-a-solidity-function-call… #ethereum #solidity,0,0,0,False
497,Ethereum UAE@Ethereum_UAE,Money 20/20: Industry Leaders Weigh in on Blockchain Regulation http://ift.tt/1N6doZN #Ethereum,0,0,0,False
498,BitcoinAgile@bitcoinagile,Northern Trust Wants A #bitcoin And #ethereum #blockchain Developer http://1bitcoindaily.com/blog/northern-trust-wants-a-bitcoin-and-ethereum-blockchain-developer…,2,0,0,False
500,Currency Converter App@fastconverter,Ethereum Makes the Headlines http://currencyconverter.co.uk/articles/ethereum-makes-the-headlines160405113100… #ethereum,3,0,0,False
502,Blockchain Conference@Blockchain_Conf,"Buzz around #Ethereum: Bitcoin 2.0 or a bubble? http://bitcoinconf.eu/en/news/strasti-vokrug-ethereum-bitcoin-2-0-ili-pustishka-43087…
#Bitcoin #Blockchain #биткоин #блокчеин",1,0,0,False
503,CosmicTriggerThePlay@2CosmicTrigger3,"Replying to @2CosmicTrigger3But as synchronicity would have it, I wanted to talk about #blockchains, #bitcoin and #ethereum so it's an apt climate. I'll post more anon.",1,3,0,False
504,Ethereum SE@StackEthereum,Nethereum and UWP on .Net c# http://ethereum.stackexchange.com/questions/2663/nethereum-and-uwp-on-net-c… #ethereum #dapps,0,0,0,False
505,AltcoinLive bot@AltcoinLiveBot,updated $ETH buywall 15.1btc @ 0.02523262 http://altcoinlive.com/bittrex-eth-btc #altcoinlive (change -0.00006703),0,0,0,False
506,AltcoinLive bot@AltcoinLiveBot,updated $ETH buywall 15.2btc @ 0.02529965 http://altcoinlive.com/bittrex-eth-btc #altcoinlive (change -0.00006552),0,0,0,False
507,Zero Cost Marketing@ZeroCostProfit,Cloudmining at Genesismining - One of my favorite cloudmining services - read more here : http://ow.ly/ZMfZD #eth #cloudmining #ether,0,0,0,False
508,fintechfolk@fintechfolk,Thanks @jamespiggot_fs for registering for FinTechFolk - http://zpr.io/Mnfj #fintech #ethereum #bitcoin #blockchain,1,0,0,False
509,Crypto ― logen@cryptologen,"Mexican #Cryptocurrency #Exchange Bitso Adds #Ethereum Market http://cointelegraph.com/news/mexican-cryptocurrency-exchange-bitso-adds-ethereum-market?ref=5281…
#altcoinsMexican Cryptocurrency Exchange Bitso Adds Ethereum MarketMexican Bitcoin exchange Bitso adds an Ethereum/peso trading marketcointelegraph.com",1,1,0,False
510,Marc@marccwr,"@Microsoft, major banks strike #blockchain deal http://cnb.cx/1W5J4FS #Ethereum @Ripple",0,0,0,False
511,José C. de Souza@souza0957,Free Ethereum every 5 minutes http://etherfaucet.net/?r=0xe7469aa8590cfdef6a03b1f7cfc4be170ee4d9f6… #ethereum via @FreeCryptoCo,0,0,0,False
512,฿€₳₹₫ @BeardDroid,"$IOC is looking good right now, will take a small profit and re enter $FCT & $SC ... aaand maybe some $ETH :-P",1,0,0,False
513,Jean-Pierre Buntinx@jdebunt,"Northern Trust Wants A Bitcoin And Ethereum Blockchain Developer – The Merkle http://themerkle.com/northern-trust-wants-a-bitcoin-and-ethereum-blockchain-developer/… #bitcoin #ethereum #blockchain #cryptoNorthern Trust Wants A Bitcoin And Ethereum Blockchain DeveloperAs the blockchain ecosystem keeps evolving, it only seems natural more and more companies will look for expert developers to bridge the gap between digital currency and the financial world. One of thethemerkle.com",1,1,0,False
514,Patrizio Stavola@halovast,"#PNB #Paribas sent this out to all of its executives as well as its subsidiary banks as well.
https://dam.bnpparibas.com/vcm2/php/playerExterne.php?file=vcm_1459423912670_4544635984621331132.mp4&nr=workspace://SpacesStore/2a9eddbf-0436-4b1e-94a9-1fc45d107dac&pas=true… #ethereum #blockchain",0,0,0,False
515,AltcoinLive bot@AltcoinLiveBot,updated $ETH buywall 15.2btc @ 0.02536517 http://altcoinlive.com/bittrex-eth-btc #altcoinlive (change -0.00007316),0,0,0,False
516,Patrizio Stavola@halovast,Reminder: Be Aware of The Yellow Canary at the Bottom of This Page https://ethereum.org #ethereum,0,0,0,False
517,AltcoinLive bot@AltcoinLiveBot,updated $ETH buywall 15.3btc @ 0.02543833 http://altcoinlive.com/bittrex-eth-btc #altcoinlive (change -0.00006453),0,0,0,False
518,AltcoinLive bot@AltcoinLiveBot,updated $ETH buywall 15.3btc @ 0.02550286 http://altcoinlive.com/bittrex-eth-btc #altcoinlive (change 0.00006453),0,0,0,False
520,Maarten Volders@MaartenVolders,Calling all #blockchain heroes - submit your session today http://darefest.be/stage/blockchain… Aug 24-26 Antwerp #ethereum,3,5,0,False
521,Ethereum Price@EthereumPrice_,"#Ethereum: Ether Price Index
1 ETH =0.025801Ƀ XBT = $10.874000 USD
Today: -2.48%⬇︎ Last 24h: -5.81%⬇︎
https://ethereum-price.com",0,0,0,False
522,Ethereum SE@StackEthereum,"Where to put message (=data, payload) in geth transaction http://ethereum.stackexchange.com/questions/2661/where-to-put-message-data-payload-in-geth-transaction… #ethereum #goethereum #transactions #data",0,0,0,False
523,AltcoinLive bot@AltcoinLiveBot,updated $ETH buywall 15.3btc @ 0.02543833 http://altcoinlive.com/bittrex-eth-btc #altcoinlive (change 0.00007316),0,0,0,False
524,AdzCoin Newsstories@GetFreeAdz,Will Adzcoin Skyrocket Like #Ethereum? http://ow.ly/105XaO … Its on the best way! #altcoin #adzcoin,2,1,0,False
525,AltcoinLive bot@AltcoinLiveBot,updated $ETH buywall 15.2btc @ 0.02536517 http://altcoinlive.com/bittrex-eth-btc #altcoinlive (change 0.00006506),0,0,0,False
526,po𝚜𝚙i@pospigos,"wordy yet brilliantly done #infographic on specific #blockchain systems in place today http://whoishostingthis.com/blog/2015/10/26/blockchain/… #ethereum #bitcoinThe Most Exciting Thing About Bitcoin Isn't Bitcoin at WhoIsHostingThis.comBeyond currency, the blockchain can power transportation, contracts, and even governments. Learn how the blockchain protocol used by Bitcoin might change the world as we know it.whoishostingthis.com",1,2,0,False
527,BitcoinAgile@bitcoinagile,#ethereum Price Vs #bitcoin Price: ETH/XBT Bearish? #BitcoinPrice #BitcoinPriceanalysis http://fxnewscall.com/ethereum-price-vs-bitcoin-price/1937350…,2,0,0,False
529,Oz Forex Daily@ibtforexdaily,#Ethereum Price Vs #Bitcoin Price: ETH/XBT Bearish?... http://fb.me/71NEazHYq,0,0,0,False
530,miz@MmililiM,"*gun shots* fuck Jay-Z
""the ether the shit that makes ur soul burn slow""
#Nas #Ether 
this is the gr8tst diss track in hiphop history",0,0,0,False
531,Drake moves Fan@Steak_Shirt,Get discount of 3 % on all Hashpower packages with this code : r8UBTu at http://ift.tt/1mrbQQH #bitcoin #ethereum #blockchain #crypto #m…,1,0,0,False
532,Patrizio Stavola@halovast,New Ledger #Bitcoin Hardware Can Run #PGP and #Ethereum #Wallet http://themerkle.com/new-ledger-bitcoin-hardware-can-run-pgp-and-ethereum-wallet/…,2,0,0,False
533,AltcoinLive bot@AltcoinLiveBot,updated $ETH buywall 15.1btc @ 0.02520037 http://altcoinlive.com/bittrex-eth-btc #altcoinlive (change -0.00004964),0,0,0,False
534,AltcoinWeekly@altcoinweekly,The latest Ethereum price is USD 10.77. For historical #Ethereum price charts - http://buff.ly/1Y3h6Jz,0,0,0,False
535,CoinGecko@coingecko,The latest Ethereum price is USD 10.77. For historical #Ethereum price charts - http://buff.ly/1Y3h6Jz,0,0,0,False
536,Ethereum SE@StackEthereum,How can I verify a signature with the web3 javascript API? http://ethereum.stackexchange.com/questions/2660/how-can-i-verify-a-signature-with-the-web3-javascript-api… #ethereum #web3js #signature,1,0,0,False
537,AltcoinLive bot@AltcoinLiveBot,updated $ETH buywall 15.1btc @ 0.02514002 http://altcoinlive.com/bittrex-eth-btc #altcoinlive (change -0.00019264),0,0,0,False
538,AltcoinLive bot@AltcoinLiveBot,updated $ETH buywall 15.2btc @ 0.02533266 http://altcoinlive.com/bittrex-eth-btc #altcoinlive (change 0.00000006),0,0,0,False
539,AltcoinLive bot@AltcoinLiveBot,updated $ETH buywall 15.2btc @ 0.02533260 http://altcoinlive.com/bittrex-eth-btc #altcoinlive (change 0.00000003),0,0,0,False
540,AltcoinLive bot@AltcoinLiveBot,updated $ETH buywall 15.2btc @ 0.02533257 http://altcoinlive.com/bittrex-eth-btc #altcoinlive (change 0.00000006),0,0,0,False
541,AltcoinLive bot@AltcoinLiveBot,updated $ETH buywall 16.0btc @ 0.02533251 http://altcoinlive.com/bittrex-eth-btc #altcoinlive (change 0.00133251),0,0,0,False
542,AltcoinLive bot@AltcoinLiveBot,updated $ETH buywall 13.2btc @ 0.02400000 http://altcoinlive.com/bittrex-eth-btc #altcoinlive (change -0.0013271),0,0,0,False
543,AltcoinLive bot@AltcoinLiveBot,updated $ETH buywall 15.9btc @ 0.02532710 http://altcoinlive.com/bittrex-eth-btc #altcoinlive (change 0.00000269),0,0,0,False
544,AltcoinLive bot@AltcoinLiveBot,updated $ETH buywall 15.2btc @ 0.02532441 http://altcoinlive.com/bittrex-eth-btc #altcoinlive (change 0.00000271),0,0,0,False
545,AltcoinLive bot@AltcoinLiveBot,updated $ETH buywall 15.2btc @ 0.02532170 http://altcoinlive.com/bittrex-eth-btc #altcoinlive (change 0.0013217),0,0,0,False
546,AltcoinLive bot@AltcoinLiveBot,updated $ETH buywall 13.2btc @ 0.02400000 http://altcoinlive.com/bittrex-eth-btc #altcoinlive (change -0.00131402),0,0,0,False
547,AltcoinLive bot@AltcoinLiveBot,updated $ETH buywall 15.2btc @ 0.02531402 http://altcoinlive.com/bittrex-eth-btc #altcoinlive (change 0.00000517),1,0,0,False
548,AltcoinLive bot@AltcoinLiveBot,updated $ETH buywall 15.2btc @ 0.02530885 http://altcoinlive.com/bittrex-eth-btc #altcoinlive (change 0.00130885),0,0,0,False
549,AltcoinLive bot@AltcoinLiveBot,updated $ETH buywall 13.2btc @ 0.02400000 http://altcoinlive.com/bittrex-eth-btc #altcoinlive (change -0.00125001),0,0,0,False
550,AltcoinLive bot@AltcoinLiveBot,updated $ETH buywall 15.2btc @ 0.02525001 http://altcoinlive.com/bittrex-eth-btc #altcoinlive (change 0.00001528),0,0,0,False
551,AltcoinLive bot@AltcoinLiveBot,updated $ETH buywall 15.1btc @ 0.02523473 http://altcoinlive.com/bittrex-eth-btc #altcoinlive (change 0.00008206),0,0,0,False
552,AltcoinLive bot@AltcoinLiveBot,updated $ETH buywall 15.1btc @ 0.02515267 http://altcoinlive.com/bittrex-eth-btc #altcoinlive (change -0.00008206),0,0,0,False
553,AltcoinLive bot@AltcoinLiveBot,updated $ETH buywall 15.1btc @ 0.02523473 http://altcoinlive.com/bittrex-eth-btc #altcoinlive (change 0.00006990),0,0,0,False
554,AltcoinLive bot@AltcoinLiveBot,updated $ETH buywall 15.1btc @ 0.02516483 http://altcoinlive.com/bittrex-eth-btc #altcoinlive (change -0.00013534),0,0,0,False
555,AltcoinLive bot@AltcoinLiveBot,updated $ETH buywall 15.2btc @ 0.02530017 http://altcoinlive.com/bittrex-eth-btc #altcoinlive (change 0.00005016),0,0,0,False
569,AltcoinLive bot@AltcoinLiveBot,updated $ETH buywall 15.2btc @ 0.02525001 http://altcoinlive.com/bittrex-eth-btc #altcoinlive (change 0.00008518),0,0,0,False
570,Cyber Phil ₿ ₿ ₿ ¯\_(ツ)_/¯ ₿ ₿ ₿@H4ck3rPh1ll,$ETH rising again - correction over? Where will it go? Past 28?,0,0,0,False
571,AltcoinLive bot@AltcoinLiveBot,updated $ETH buywall 15.1btc @ 0.02516483 http://altcoinlive.com/bittrex-eth-btc #altcoinlive (change 0.00006472),0,0,0,False
572,ekdromoi@ekdromoi,"cheap $eth guys, everybody get on b4 moonGIF",3,0,0,False
573,AltcoinLive bot@AltcoinLiveBot,updated $ETH buywall 15.1btc @ 0.02510011 http://altcoinlive.com/bittrex-eth-btc #altcoinlive (change 0.00009010),0,0,0,False
574,DigitalTechObserver@digitaltecheye,#Blockchain and more #Ethereum and #Bitcoin compared http://goo.gl/bBYVNm,0,0,0,False
575,AltcoinLive bot@AltcoinLiveBot,updated $ETH buywall 15.0btc @ 0.02501001 http://altcoinlive.com/bittrex-eth-btc #altcoinlive (change 0.00006451),0,0,0,False
577,indxio@indxio,#China Market Close || #Bitcoin: $421.26 | 371.71 EUR||  #Litecoin: 0.0077 BTC  || #Ethereum: 0.0254 BTC   || $BTC $LTC $ETH $RMB,0,0,0,False
579, dnalevity.com @DNALevity,"Cars for rent in the streets, Airbnbs fully automated, and private work spaces on demand @Slockit #ethereum #DAO http://daniellevy.humandalas.com/cars-will-be-available-for-rent-in-the-streets-of-every-city-airbnbs-will-be-fully-automated-and-small-business-owners-will-prefer-to-rent-private-work-spaces-on-demand-slockit/…",0,0,0,False
580,AltcoinLive bot@AltcoinLiveBot,updated $ETH buywall 15.0btc @ 0.02494550 http://altcoinlive.com/bittrex-eth-btc #altcoinlive (change 0.00006291),0,0,0,False
581,AltcoinLive bot@AltcoinLiveBot,updated $ETH buywall 14.9btc @ 0.02488259 http://altcoinlive.com/bittrex-eth-btc #altcoinlive (change -0.00006405),0,0,0,False
582,BlackHole@DaksKaDuHaaa,"So, Lighting Network might go live this summer... #BTC up, #ETH down",0,0,0,False
587,AltcoinLive bot@AltcoinLiveBot,updated $ETH buywall 15.0btc @ 0.02494664 http://altcoinlive.com/bittrex-eth-btc #altcoinlive (change -0.00008509),0,0,0,False
589,AltcoinLive bot@AltcoinLiveBot,updated $ETH buywall 15.0btc @ 0.02503173 http://altcoinlive.com/bittrex-eth-btc #altcoinlive (change 0.00007361),0,0,0,False
590,AltcoinLive bot@AltcoinLiveBot,updated $ETH buywall 15.0btc @ 0.02495812 http://altcoinlive.com/bittrex-eth-btc #altcoinlive (change 0.00007232),0,0,0,False
591,AltcoinLive bot@AltcoinLiveBot,updated $ETH buywall 14.9btc @ 0.02488580 http://altcoinlive.com/bittrex-eth-btc #altcoinlive (change -0.00002483),0,0,0,False
592,AltcoinLive bot@AltcoinLiveBot,updated $ETH buywall 14.9btc @ 0.02491063 http://altcoinlive.com/bittrex-eth-btc #altcoinlive (change 0.00006336),0,0,0,False
593,AltcoinLive bot@AltcoinLiveBot,updated $ETH buywall 14.9btc @ 0.02484727 http://altcoinlive.com/bittrex-eth-btc #altcoinlive (change -0.00006332),0,0,0,False
594,BitcoinAgile@bitcoinagile,"#ethereum Price Technical Analysis 04/05/2016  Target Achieved, Sell More? #Bitcoin #BTC http://bit.ly/1RVtk5s",1,4,0,False
595,AltcoinLive bot@AltcoinLiveBot,updated $ETH buywall 14.9btc @ 0.02491059 http://altcoinlive.com/bittrex-eth-btc #altcoinlive (change 0.00006310),0,0,0,False
596,ethereum.network@EthereumNetw,Pros/Cons of #Ethereum creator @VitalikButerin being known?Pros/Cons of Ethereum creator Vitalik Buterin being known?As I'm sure many of you know the creator of Bitcoin Satoshi Nakamoto is anonymous. However Vitalik Buterin is well known to be the creator of...reddit.com,1,0,0,False
597,AltcoinLive bot@AltcoinLiveBot,updated $ETH buywall 14.9btc @ 0.02484749 http://altcoinlive.com/bittrex-eth-btc #altcoinlive (change -0.00008751),0,0,0,False
598,AltcoinLive bot@AltcoinLiveBot,updated $ETH buywall 15.0btc @ 0.02493500 http://altcoinlive.com/bittrex-eth-btc #altcoinlive (change -0.00006267),0,0,0,False
599,AltcoinLive bot@AltcoinLiveBot,updated $ETH buywall 15.0btc @ 0.02499767 http://altcoinlive.com/bittrex-eth-btc #altcoinlive (change 0.00006266),0,0,0,False
600,AltcoinLive bot@AltcoinLiveBot,updated $ETH buywall 15.0btc @ 0.02493501 http://altcoinlive.com/bittrex-eth-btc #altcoinlive (change -0.00006704),0,0,0,False
601,AltcoinLive bot@AltcoinLiveBot,updated $ETH buywall 15.0btc @ 0.02500205 http://altcoinlive.com/bittrex-eth-btc #altcoinlive (change -0.00007602),1,0,0,False
602,AltcoinLive bot@AltcoinLiveBot,updated $ETH buywall 15.0btc @ 0.02507807 http://altcoinlive.com/bittrex-eth-btc #altcoinlive (change 0.00006335),0,0,0,False
603,AltcoinLive bot@AltcoinLiveBot,updated $ETH buywall 15.0btc @ 0.02501472 http://altcoinlive.com/bittrex-eth-btc #altcoinlive (change 0.00006299),0,0,0,False
604,฿€₳₹₫ @BeardDroid,Everyones shorting $ETH but I can't see it going down much further if at all. Please explain?,0,0,0,False
605,Ethereum Price@EthereumPrice_,"#Ethereum: Ether Price Index
1 ETH =0.025394Ƀ XBT = $10.829935 USD
Today: -4.01%⬇︎ Last 24h: -7.22%⬇︎
https://ethereum-price.com",0,0,0,False
606,AltcoinLive bot@AltcoinLiveBot,updated $ETH buywall 15.0btc @ 0.02495173 http://altcoinlive.com/bittrex-eth-btc #altcoinlive (change -0.00009354),1,1,0,False
607,AltcoinLive bot@AltcoinLiveBot,updated $ETH buywall 15.3btc @ 0.02504527 http://altcoinlive.com/bittrex-eth-btc #altcoinlive (change -0.00005580),0,0,0,False
608,AltcoinLive bot@AltcoinLiveBot,updated $ETH buywall 15.1btc @ 0.02510107 http://altcoinlive.com/bittrex-eth-btc #altcoinlive (change 0.00006340),0,0,0,False
609,AltcoinLive bot@AltcoinLiveBot,updated $ETH buywall 15.0btc @ 0.02503767 http://altcoinlive.com/bittrex-eth-btc #altcoinlive (change 0.00006305),0,0,0,False
618,AltcoinLive bot@AltcoinLiveBot,updated $ETH buywall 15.0btc @ 0.02497462 http://altcoinlive.com/bittrex-eth-btc #altcoinlive (change 0.00006308),0,0,0,False
620,AltcoinLive bot@AltcoinLiveBot,updated $ETH buywall 14.9btc @ 0.02491154 http://altcoinlive.com/bittrex-eth-btc #altcoinlive (change 0.00006280),0,0,0,False
621,AltcoinLive bot@AltcoinLiveBot,updated $ETH buywall 14.9btc @ 0.02484874 http://altcoinlive.com/bittrex-eth-btc #altcoinlive (change -0.00006555),0,0,0,False
622,AltcoinLive bot@AltcoinLiveBot,updated $ETH buywall 14.9btc @ 0.02491429 http://altcoinlive.com/bittrex-eth-btc #altcoinlive (change -0.00006595),0,0,0,False
623,AltcoinLive bot@AltcoinLiveBot,updated $ETH buywall 15.0btc @ 0.02498024 http://altcoinlive.com/bittrex-eth-btc #altcoinlive (change -0.00006427),0,0,0,False
624,AltcoinLive bot@AltcoinLiveBot,updated $ETH buywall 15.0btc @ 0.02504451 http://altcoinlive.com/bittrex-eth-btc #altcoinlive (change -0.00007083),0,0,0,False
625,AltcoinLive bot@AltcoinLiveBot,updated $ETH buywall 15.1btc @ 0.02511534 http://altcoinlive.com/bittrex-eth-btc #altcoinlive (change -0.00007598),0,0,0,False
627,AltcoinLive bot@AltcoinLiveBot,updated $ETH buywall 15.1btc @ 0.02519132 http://altcoinlive.com/bittrex-eth-btc #altcoinlive (change -0.00010931),0,0,0,False
631,Ξ Fly Guy Ξ (flyguy.eth)@FlyGuyInTheSky,Replying to @cryptocointalk@cryptocointalk lol....But George will need a new face in the near future. This is just the beginning of #ethereum.,1,0,0,False
632,AltcoinLive bot@AltcoinLiveBot,updated $ETH buywall 15.2btc @ 0.02530063 http://altcoinlive.com/bittrex-eth-btc #altcoinlive (change -0.00007242),0,0,0,False
634,Bitcoin@bitcoinpoet,"Ether mining problem, please help!: My mining on my cmd is at a steady rate. It does about 18000000 ... http://bit.ly/23747NG #ethereum",0,0,0,False
635,Bitcoin@bitcoinpoet,Reminder: Be Aware of The Yellow Canary at the Bottom of This Page:       submitted by    /u/Souptac... http://bit.ly/23747xo #ethereumReminder: Be Aware of The Yellow Canary at the Bottom of This PagePosted in r/ethereum by u/Souptacular • 102 points and 46 commentsreddit.com,1,0,0,False
636,AltcoinLive bot@AltcoinLiveBot,updated $ETH buywall 15.2btc @ 0.02537305 http://altcoinlive.com/bittrex-eth-btc #altcoinlive (change 0.00006370),1,0,0,False
637,Ethereum SE@StackEthereum,Modeling real world contract with Ethereum with use of Ether transaction http://ethereum.stackexchange.com/questions/2657/modeling-real-world-contract-with-ethereum-with-use-of-ether-transaction… #ethereum #smartcontracts #ipfs,1,0,0,False
638,crypt0biwan@crypt0biwan,Opened $ETH short at 0.0257,0,0,0,False
640,AltcoinLive bot@AltcoinLiveBot,updated $ETH buywall 15.2btc @ 0.02530935 http://altcoinlive.com/bittrex-eth-btc #altcoinlive (change 0.00006983),0,0,0,False
641,Ξ Fly Guy Ξ (flyguy.eth)@FlyGuyInTheSky,Replying to @FlyGuyInTheSky@freakingcat I can see #ethereum going to 0.028500 if it moves up... And 0.024700... Down... Possibly lower. New news is needed to meet high,1,2,0,False
642,AltcoinLive bot@AltcoinLiveBot,updated $ETH buywall 15.1btc @ 0.02523952 http://altcoinlive.com/bittrex-eth-btc #altcoinlive (change 0.00006316),0,0,0,False
644,cryptinsight@cryptinsight,Join Our Free Affiliate Program #bitcoin #ethereum #onlinejobsJoin Our Free Affiliate ProgramYou Simply Share The Special Link We Provide And We Will Do All The Work From There. You Can Even Track Your Earnings In Real Time Through Your Own Admin Portal.... Watch Your Money Grow 24/7 Even...linkplugapp.com,1,0,0,False
645,AltcoinLive bot@AltcoinLiveBot,updated $ETH buywall 15.1btc @ 0.02517636 http://altcoinlive.com/bittrex-eth-btc #altcoinlive (change -0.00008354),0,0,0,False
647,AltcoinLive bot@AltcoinLiveBot,updated $ETH buywall 15.2btc @ 0.02525990 http://altcoinlive.com/bittrex-eth-btc #altcoinlive (change 0.00006595),0,0,0,False
648,AltcoinLive bot@AltcoinLiveBot,updated $ETH buywall 15.1btc @ 0.02519395 http://altcoinlive.com/bittrex-eth-btc #altcoinlive (change -0.00006627),0,0,0,False
649,AltcoinLive bot@AltcoinLiveBot,updated $ETH buywall 15.2btc @ 0.02526022 http://altcoinlive.com/bittrex-eth-btc #altcoinlive (change -0.00006470),0,0,0,False
650,AltcoinLive bot@AltcoinLiveBot,updated $ETH buywall 15.2btc @ 0.02532492 http://altcoinlive.com/bittrex-eth-btc #altcoinlive (change -0.00007509),0,0,0,False
651,AltcoinLive bot@AltcoinLiveBot,updated $ETH buywall 15.2btc @ 0.02540001 http://altcoinlive.com/bittrex-eth-btc #altcoinlive (change 0.00017447),0,0,0,False
652,Verox@Verox_AICrypto,Replying to @Verox_AICrypto@altcoinsking hope no one bought $ETH right into the resistance,2,2,1,False
653,AltcoinLive bot@AltcoinLiveBot,updated $ETH buywall 15.1btc @ 0.02522554 http://altcoinlive.com/bittrex-eth-btc #altcoinlive (change 0.00006376),0,0,0,False
654,AltcoinLive bot@AltcoinLiveBot,updated $ETH buywall 15.1btc @ 0.02516178 http://altcoinlive.com/bittrex-eth-btc #altcoinlive (change -0.00009352),0,0,0,False
661,Omhantu@omhantu,Free Ethereum every 5 minutes http://etherfaucet.net/?r=0x1734062dd82af6941e354f394fd9b1ab0a0389ef… #ethereum via @FreeCryptoCo,0,0,0,False
662,AltcoinLive bot@AltcoinLiveBot,updated $ETH buywall 15.2btc @ 0.02525530 http://altcoinlive.com/bittrex-eth-btc #altcoinlive (change -0.0001075),0,0,0,False
664,AltcoinLive bot@AltcoinLiveBot,updated $ETH buywall 15.2btc @ 0.02536280 http://altcoinlive.com/bittrex-eth-btc #altcoinlive (change 0.00003788),0,0,0,False
665,AltcoinLive bot@AltcoinLiveBot,updated $ETH buywall 15.2btc @ 0.02532492 http://altcoinlive.com/bittrex-eth-btc #altcoinlive (change 0.00024211),0,0,0,False
