,user,text,likes,retweets,replies,is_thread
0,Drake moves Fan@Steak_Shirt,Interested in mining cryptocurrency? Use promo-code: r8UBTu for 3% discount at http://ift.tt/1mvVNC1 #ethereum #bitcoin #invest #eth #btc,0,0,0,False
1,torrentDAO @torrentDAO,"We have a big announcement planned for Monday! Stay tuned! #Ethereum #TheRudimental #equitycrowdfundingNew Rules Give Startups Access to Main Street InvestorsA new law, which goes into effect Monday, will allow small businesses and startups to sell shares to Main Street investors on crowdfunding portals.wsj.com",5,2,0,False
2,Victoria Hanchar@HancharGonchar,"TONIGHT! #HyperledgerSF meetup @usfca, open 5:30 PM. Explore #blockchain #hyperledger #ethereum with @renatco",1,0,0,False
3,Patrizio Stavola@halovast,"""The #Blockchain is the new #Google"" by @wmougayar http://techcrunch.com/2016/05/11/the-blockchain-is-the-new-google/… #ethereum #bitcoin",9,8,0,False
4,Steve Somers@steve_somers,#Japan Officially Recognizes #Bitcoin & Digital Currencies as #Money http://coint.co/33bf #Ethereum #BTC #ETH #cryptocurrency,1,0,0,False
5,Rodrigo Paulo Gomes []@bgcoin,"4 blockchain companies that could change everything from accounting to money transfers
http://on.mktw.net/1OiFXcd
#ethereum #bitcoin #startupOpinion: 4 blockchain companies that could change everything from accounting to money transfersBlockchain companies Consensys, Chain, Abra and Bitfury could help reshape the world of business, say authors Don Tapscott and Alex Tapscott.marketwatch.com",2,1,0,False
6,Glyn MacLean 麦格荣@glynmaclean,Inside the secret meeting where #WallStreet tested digital cash #bitcoin #ethereum #blockchain #financialservices https://lnkd.in/bU--UVn,2,0,0,False
7,Steve Somers@steve_somers,"Arcade City: Decentralized, Blockchain-Based Answer to #Uber http://cointelegraph.com/news/arcade-city-decentralized-blockchain-based-answer-to-uber?ref=7702… #Ethereum #BitcoinArcade City: Decentralized, Blockchain-Based Answer to UberChristopher David of Arcade City unveils a new decentralized, driver-controlled ride-sharing service.cointelegraph.com",4,1,0,False
8,Rodrigo Paulo Gomes []@bgcoin,"Facebook, Uber, Airbnb, eBay: How Blockchain Can Break Data Monopolists
http://cointelegraph.com/ref1218/news/facebook-uber-airbnb-ebay-how-blockchain-can-break-data-monopolists…
#blockchain #ethereum #bitcoin #dataforgoodFacebook, Uber, Airbnb, eBay: How Blockchain Can Break Data MonopolistsCan Blockchain break Facebook, Uber, Airbnb, eBay and the like? The answer we want to give for the currently discussed Blockchain interpretation is ‘so far, no’ – contrary to common opinion.cointelegraph.com",2,0,0,False
9,Brad@dark_5ID3,How to teach ethereum http://ethereum.stackexchange.com/questions/3854/how-to-teach-ethereum… #ethereum #blockchain #Bitcoin @manuremy,1,1,0,False
10,@goodc0re@bitcoinhackers.org@goodc0re,.@slockitproject doing #theDAO AMA on #reddit now: https://reddit.com/r/slockit/comments/4j0yvw/were_the_slockit_team_creators_of_the_dao/… #ethereum #ETH #bitcoin #BTC #DAO,2,2,0,False
11,Amy@AmyTuffin,#Blockchain disrupts transactional accounting @Euromoney http://bit.ly/27g8qpB #ethereum #smartcontracts,1,3,0,False
12,BlockchainLUX@blockchainLUX,"So basically #ethereum > #bitcoin in nodes, development speed, community unity and engagement. Price not far behind? Build it they will come",1,1,0,False
13,John Gerryts@phonikg,Market cap if every #ethereum based token was included:The REAL CoinMarketCap Top 10Posted in r/ethtrader by u/Tardigrade1 • 40 points and 22 commentsreddit.com,1,0,0,False
14,_@NickPateman,Winklevii endorsing #Ethereum on their crypto ex https://inverse.com/article/15355-winklevoss-gemini-bitcoin-exchange-begins-trading-cryptocurrency-ether-today… that + the DAO may explain the rally http://ethereumprice.orgWinklevoss' Gemini Bitcoin Exchange Begins Trading Cryptocurrency Ether TodayValue of World Computer is expected to rise.inverse.com,3,0,0,False
15,Chief Trader@CryptoChief1111,#THEDAO has raised over $50 million!!!! #Ethereum #cryptocurrency #altcoin #DAO,0,0,0,False
16,Mero@barirayban,"Replying to @CryptOrcayou know what's funny ? When this ICO ends, the crash of #Ethereum will be absolutly phenomenal.",3,1,0,False
17,Nick Barba@n1ckbarba,CO•AKT now on the State of the Dapps board! http://dapps.ethercasts.com @coaktco @KevinAKriss @MichaelSchein1 @Nik_Parks #blockchain #ethereum,4,2,0,False
18,Ethereum@ethereum,"Swarm Orange Paper Series: [1] Swap, Swear and Swindle - Incentive System for Swarm http://swarm-gateways.net/bzz:/swarm/ethersphere/orange-papers/1/sw%5E3.pdf… #blockchain #Ethereum #bzz",16,23,0,False
19,DMAFinTech@DMAFinTech,#Ethereum based #censorship - immune #socialmedia network #Akasha presented. https://cryptocoinsnews.com/ethereum-based-censorship-immune-social-media-network-akasha-unveiled/…,1,1,0,False
20,Eduardo@Codiox,"Do you want to keep up with the news of the #Blockchain industry?http://TheMerkle.com has all the info you need.
#Bitcoin #Ethereum #News",2,1,0,False
21,CryptoCompare@CryptoCompare,"CFTC head says US behind on #blockchain
SilverBank #bitcoin friendly
The DAO at $47.5m @slockitproject .It #ethereumDaily market update: 17 June 2019 | CryptoCompare.comWe bring you all the data in the world of crypto currencies and Bitcoin in an easily digestible value added format and we give you the tools you need to make that decision. Join the discussion on our...cryptocompare.com",5,3,0,False
22,jennifer@JenniferBitcoin,last call for 1 $eth = $DAO 100 tokens todayGIF,5,5,0,False
23,Ethereum Price@EthereumPrice_,"#Ethereum: Ether Price Index
1 ETH =0.023059Ƀ XBT = $10.460000 USD
Today: +4.67%⬆︎ Last 24h: +8.03%⬆︎
https://ethereum-price.com",1,2,0,False
24,David Dias@daviddias,Really excited for nunofmn talk on his work with #ethereum and #bitcoin for his MSc. Also it is… https://instagram.com/p/BFUdc61I0pD/,2,1,0,False
25,George@_Georgeth_,"Awesome! #ethereum #blockchain #DAOQuote TweetLedger@Ledger · May 12, 2016Ledger announces its first project proposal to be commissioned by the DAO: an Ethereum hardware wallet https://reddit.com/r/TheDao/comments/4izyo8/ledger_proposal_for_the_dao_1_ethereum_hardware/…",3,2,1,False
26,Cointelegraph@Cointelegraph,#Ethereum (#ETH) Price Trends: 5/12/2016 http://cointelegraph.com/news/ethereum-eth-price-trends-5122016…,2,3,0,False
27,HZV@asso_hzv,#ndh2k16 #speaker : @lefterisjp : #talk (en) : An In-Depth Dive into the #ethereum Protocol.,5,4,0,False
28,CryptoCryptics@CryptoCryptics,"Big $ETH dump incoming or bullshit?

https://twitter.com/daikoku_crypto/status/730757616893317120… #EthereumThis Tweet is unavailable.",1,5,0,False
29,Elena Litani @elenalitani,Canadian entrepreneurs are on a leading edge of #blockchain innovation: http://theglobeandmail.com/report-on-business/rob-commentary/blockchain-is-a-disruption-we-simply-have-to-embrace/article29936789/… #ethereum @weareledger @Blockstream,1,0,0,False
30,MellowMoney@MellowMoneyTeam,"We added some fresh #Ethereum faucets to our Faucets List! https://mellowmoney.wordpress.com/ethereum-faucets/…
#freeethereum #ETH #cryptocurrencyEthereum Faucets ListHere we have a list of the most trusted and best paying Ethereum faucet sites! For your best experience, we only provide faucets with easy captchas and no faucets with annoying Anti-Bot-Clicking! C…mellowmoney.wordpress.com",1,0,0,False
31,Bity@bity,"a good introduction (in french) to DAOLINK http://blogchaincafe.com/le-dao-link
#ethereum #DAO #Bity #Slockit",5,1,0,False
32,Cashila@cashilacom,"We are introducing @ICONOMINET, the user-friendly way to buy and store #ether! Go check it out! https://iconomi.net.
#ethereum #etherICONOMIICONOMI is platform made for people. Buy and sell leading cryptocurrencies like bitcoin, ether, and ripple directly with euro. Copy your favorite Crypto Strategy, our Experts will take care of the...iconomi.com",4,0,0,False
33,ΞTHΞЯΞUM ÐΞV NΞWS ⟠@Eth_Dev_News,move from jaxx to mist #ethereum wallet (for dao) https://danielmcclure.com/blog/moving-ethereum-jaxx-to-mist/… #ether #eth $eth #blockchain #gamedev #IoT,10,13,0,False
34,tgerring.eth@TaylorGerring,#Ethereum over 1.5 million blocks now!,26,12,2,False
35,CoinGecko@coingecko,The latest Ethereum price is USD 10.14. For historical #Ethereum price charts - http://buff.ly/1Y3h6Jz,1,0,0,False
36,OpenLedger@OpenLedgerDC,"[ANN] The #DAO available for pre-launch trading on #OpenLedger — #Steemit https://steemit.com/openledger/@ash/ann-the-dao-available-for-pre-launch-trading-on-openledger… #ETH #ethereum #BTC #BTS #OBITS #fintech#SteemitCommunities without borders. A social network owned and operated by its users, powered by Steem.steemit.com",1,1,0,False
37,Sicarious@Sicarious_,"$LISK, $DAO, and #Decorum all launch this month. Yes, I bought them all.  #bitcoin #ethereumGIF",11,8,1,False
38,Decentral@DECENTRALca,"Thank you for coming to our meetup! Good to see so many #bitcoin, #blockchain & #ethereum enthusiasts in one room.",6,6,0,False
39,Nasreen Quibria@nquibria,Interesting switch in strategy» This Early Ripple Supporter is Using #Ethereum to Rethink Banking http://ow.ly/D40710036hD #blockchain,1,0,0,False
40,Sillytuna (hiring devs) @sillytuna,Blockchain or the Chaingang - new report (music industry and the blockchain) https://zenodo.org/record/51326/files/CREATe-Working-Paper-2016-05.pdf… #bitcoin #ethereum,1,1,0,False
41,Newb@newbiumcoin,#Newbium market data visualization & social trading platform launching soon; #ethereum,1,1,0,False
42,fav@btsfav,Enter for a Chance to win 1 Ether ► http://favd.xyz/24NsiOL #Ethereum #Raffle,2,0,0,False
43,fav@btsfav,"How-To Buy and Sell ""The DAO"" ► http://favd.xyz/1Xmov8X #Ethereum #DAOHub",3,0,0,False
44,EmojiMan@ItsEmojiMan,This Early Ripple Supporter is Using #Ethereum to Rethink Banking via @pete_rizzo_ @CoinDesk http://bit.ly/1T7Urho #blockchain,2,1,1,False
45,Angelo Milan@angelomilan,"That's EXACTLY what #ETH holders were waiting for! #ethereumQuote TweetLedger@Ledger · May 12, 2016Ledger announces its first project proposal to be commissioned by the DAO: an Ethereum hardware wallet https://reddit.com/r/TheDao/comments/4izyo8/ledger_proposal_for_the_dao_1_ethereum_hardware/…",2,0,0,False
46,@goodc0re@bitcoinhackers.org@goodc0re,#Ethereum Hardware Wallet with a projected 25% ROI for the #DAO https://reddit.com/r/TheDao/comments/4izyo8/ledger_proposal_for_the_dao_1_ethereum_hardware/… #theDAO #ETH,1,1,0,False
47,Stéphane Bortzmeyer@bortzmeyer,"While I slept, #Ethereum passed the 1.5M blocks :-) #blockchain",3,2,0,False
48,TheUltraAliens@TheUltraAliens,"""..are forced to use available data rather than data which, if it did exist, has a stronger relationship to the subject of study"" #BTC #ETH",1,0,0,False
49,ΞTHΞЯΞUM ÐΞV NΞWS ⟠@Eth_Dev_News,#ETH now a Collateral #crypto-Currency @krakenfx #fintech http://blog.kraken.com/post/144164249192/kraken-introduces-ether-dark-pool-and-major…  #mining #gamedev $Eth #ether #IoTGIF,3,2,0,False
50,Sicarious@Sicarious_,"I bought my DAO on https://bittrex.com/balance/dao #ethereum #slockit #bitcoinQuote TweetAlunaut   @onemanatatime · May 12, 2016Be careful out there; secure ur funds before it's too late

Buying DAO using Mist has hacked https://forum.daohub.org/t/urgent-buying-dao-using-mist-has-hacked/1742…",4,1,0,False
51,John Lilic ₿ Ξ ∞@JohnLilic,"We came to punish the glutton with a substance that can't be contained #Wutang predicting #Ethereum in 1996Wu-Tang Clan - Bells Of WarAlbum: Wu-Tang ForeverYear: 1997Track: 19Track Produced By: RZASamples: ""Sneakin' In The Back"" by Tom Scott and The L.A. ExpressLyrics:[Verse One: U-God] Yea...youtube.com",5,2,0,False
52,#blocktalk@block_talk,"Questions after watching #blocktalk with @slockitproject's @thegrifft? Head over to the AMA on Reddit now!
#ethereum
https://reddit.com/r/slockit/comments/4j0yvw/were_the_slockit_team_creators_of_the_dao/?sort=new…",1,1,0,False
53,Igor Lilic ∞@ililic,"Currently reading ""Behind the Cloud"" by @Benioff - the vision of the Internet as a platform is exactly what we believe #ethereum can become",7,1,0,False
54,Liz Claman@LizClaman,Gearing up for big show from #Vegas @salt2016 conference w/ @tylerwinklevoss @winklevoss bros on their #Bitcoin exchange bet Gemini #ether,7,7,1,False
55,ETH Zurich@ETH_en,He develops walking #robots that move like living creatures: #ETH Prof Marco Hutter http://ow.ly/Go2B3007Vqz,13,6,2,False
56,Theo Goodman@theog__,"Connect your trade bot to telegram messenger https://youtu.be/8___IU3Np6Y #bitcoin #eth #ltcConnect Haasonline Trade Server to Telegramhttp://haasonline.com Discont code ""moon"" 40% offhttps://forum.haasonline.com/viewtopic.php?f=66&t=1162&p=4175#p4175youtube.com",1,1,0,False
57,Ouishare Fest 2021@OuiShareFest,"We really recommend this interview. Can #Bitcoin help tackle poverty? #BlockchainRevolution #ethereum w/ @HumBlockQuote Tweet@WorkHubs@WorkHubs · May 11, 2016@julioalexo on Humanitarian #Blockchain with @philip_dodson and @BernieJMitchell http://ow.ly/SSRP3002Ipr #Bitcoin #OSFest16 #Ouisharefest",2,1,0,False
58,Nick Barba@n1ckbarba,"Another one for the list :) @coaktco @KevinAKriss #blockchain #ethereumQuote TweetJoseph Lubin@ethereumJoseph · May 12, 2016Don & Alex's book, Blockchain Revolution, is a great & must read if you want insight into how society is evolving.  http://on.mktw.net/1OiFXcd",3,0,0,False
59,ymtk@i_am_ymtk,Ay check me out!!! I just #Ether 'd this cat @TheRealSymba I'm talkin body'd tho!!! #dissesondeck  https://soundcloud.com/therealsymba/panda-remix…,1,1,0,False
60,BitcoinAgile@bitcoinagile,The DAO: Or How A Leaderless #ethereum-Based Organization Raised $50 Million Even Though No http://bitcoinagile.com/6A0F81/the-dao-or-how-a-leaderless-ethereum-based-organization-raised-50-million-even-though-no-one-quite-knows-what-it-is-coindesk_stream…,1,0,0,False
61,Mihai Alisie@MihaiAlisie,"History in the making #ethereum #socialmedia #FreedomOfSpeechQuote TweetAKASHA@AKASHAworld · May 12, 2016Great day with @gavofyork & @iDebris5 from @ethcoreproject in our hacklab - working together on #epic things #parity",6,1,0,False
62,OpenLedger@openledger,"Trade pair ETH/OBITS here https://bitshares.openledger.info/#/market/OPEN.ETH_OBITS… #ethereum #obits #openledger @ethereumproject @CCEDK_Quote TweetCoinGecko@coingecko · May 12, 2016The latest Ethereum price is USD 10.21. For historical #Ethereum price charts - http://buff.ly/1Y3h6Jz",2,1,0,False
63,Lefteris Karapetsas@LefterisJP,"The slock.it team will be doing a reddit AMA starting 2 hous from now. Stay tuned for the Link. #TheDAO #ethereumQuote Tweetslock.it@slockitproject · May 11, 2016AMA! The team will be answering your questions live on Reddit tomorrow 12 May at LA 08:00 / NYC 11:00 / London: 16:00 / HK: 23:00 - Link TBA",2,1,0,False
64,Secrets@SecretsOfCrypto,"It's the last day to buy $DAO for the cheapest prices, of course $ETH is expensive today",5,7,2,False
65,The DAO@The_DAO_Project,6.3% of total $ETH supply in #TheDAO @DAOhubORG @myetherwallet @slockitproject,3,1,0,False
66,CryptoCryptics@CryptoCryptics,"Replying to @CryptoCrypticsWhy I shared that. @Daikoku_crypto claimed to dump #Ethereum in 1h.

At least I have the patience to wait that long to see if it's a bluff.",1,0,0,False
67,CryptoCryptics@CryptoCryptics,"If nothing at all - as mostly expected - happens with the $ETH price. Fine. 

One more scammer quickly sorted out in that case.",1,1,1,False
68,Jebus@jebus911,"$Eth so strong, did Seaman sell or something?",4,1,0,False
69,Funtrader@Noobgettinrich,"Replying to @goosenoble @jackfru1t and @CryptoCrypticshe will say told u so once a dump happens, then he'll try to convince some noobs to pay for info",2,1,0,False
70,Jack@jackfru1t,lol yes. $ETH will dump again sometime these next couple weeks and he'll take credit.,2,0,0,False
71,JZ@PDXTechnologies,"With a minor #ethereum patch, #RESTful #blockchain smart contract, #java and remote smart contract, by design. check http://goo.gl/qbmTsc",0,0,0,False
72,JZ@PDXTechnologies,"With PDX DaaP, RESTful no-restrict smart contract (d-app) becomes a reality. #tendermint, #ethereum, #blockchain, #hyperledger",0,0,0,False
73,JZ@PDXTechnologies,"Announcing PDX DaaP, atop #ethereum, #tendermint, #hyperledger (soon).  Whitepaper at http://goo.gl/qbmTsc .",0,0,0,False
75,YOᗪI ᕼEᖇᗰᗩᗯᗩᑎ@YodiHermawan,Genesis Mining Drastically Lowers #Ether Contract Prices: Popular cloud mining provider… http://goo.gl/fb/dp7VDS #vk,0,0,0,False
76,Ansel Lindner@AnselLindner,"#litecoin is waiting for $eth to fall, before it moves up.",3,1,0,False
77,Fintech@fintechnewz,"#Ethereum: the World Computer
#blockchaintechnology #fintech
http://ow.ly/1x7V3009oi7",1,0,0,False
78,Ethereum SE@StackEthereum,Call an arbitrary JSON-RPC method with web3 http://ethereum.stackexchange.com/questions/3885/call-an-arbitrary-json-rpc-method-with-web3… #ethereum #web3js #testrpc,0,0,0,False
79,Ethereum SE@StackEthereum,How does The DAO reimburse errornous transactions to the sender? http://ethereum.stackexchange.com/questions/3883/how-does-the-dao-reimburse-errornous-transactions-to-the-sender… #ethereum #exceptions #thedao,0,0,0,False
80,BitcoinAgile@bitcoinagile,#ethereum in the News http://bitcoinagile.com/6A1063/ethereum-in-the-news_stream…,1,0,0,False
81,Раб Божий@Diener_Gottes,Genesis Mining Drastically Lowers #Ether Contract Prices: Popular cloud mining provider… http://goo.gl/fb/TbeCzV,0,0,0,False
82,BitcoinAgile@bitcoinagile,The Winklevoss Twins Add Ether to #bitcoin Exchange #Ether http://bitcoinagile.com/6A0FCB/the-winklevoss-twins-add-ether-to-bitcoin-exchange_stream…,1,0,0,False
83,TheArchitect@Tall_Geek,The $DAO token is going to be epically huge. $50 Million in $ETH already.ScreenshotCaptured with Lightshotprnt.sc,1,0,0,False
86,Ethereum UAE@Ethereum_UAE,Genesis Mining Drastically Lowers Ether Contract Prices http://ift.tt/222be5K #Ethereum,1,0,0,False
88,Ethereum SE@StackEthereum,Retrieving contracts from contract address http://ethereum.stackexchange.com/questions/3882/retrieving-contracts-from-contract-address… #ethereum #web3js,0,0,0,False
89,BitcoinAgile@bitcoinagile,The DAO: Or How A Leaderless #ethereum-Based Organization Raised $50 Million Even Though No http://bitcoinagile.com/6A0E85/the-dao-or-how-a-leaderless-ethereum-based-organization-raised-50-million-even-though-no-one-quite-knows-what-it-is-coindesk_stream…,0,0,0,False
90,ETHNews@ETHNews_,The #DAO: Or How A Leaderless #Ethereum-Based Organization Raised $50 Million #ETH http://ow.ly/BIIX3009ibZ via @coindesk,0,0,0,False
91,John Slazas@JSservices,#trading #ethereum ETH - AGGRESSIVE BUYING ON HOLD BELOW 10.30. Underlying BID remains firm above 9.25 as it is base for positive sentiment,1,0,0,False
92,BitcoinAgile@bitcoinagile,Genesis launches worlds largest ether mining farm Enigma #GenesisMining #ether http://coinfox.info/news/company/5477-genesis-mining-zapuskaet-enigma-samoe-krupnoe-predpriyatie-po-dobyche-ether-v-mire-2…,0,0,0,False
93,CoinFox@coin_fox,"#GenesisMining launches Enigma, the biggest #ether cloud mining farm in the world.
http://goo.gl/uQqauN",1,0,0,False
94,Blockcoin Pty Ltd@BlockcoinAU,Price of #ethereum is having a hard time breaking away from 0.022BTC but keeps trying. Some say it’s due to demand in DAO?,0,0,0,False
95,Sillytuna (hiring devs) @sillytuna,"Great report on tonights music and blockchain event #bitcoin #ethereumQuote TweetTechREDEF@TechREDEF · May 12, 2016Blockchain: Music Without the Middlemen? (@stuartdredge - @MusicAlly) http://redef.it/aWLw",0,0,0,False
96,Cloud Mining Monitor@cmmonitorcom,#Ethereum #Cloudmining': 12.05.2016 Payment received. 6 MHs - 0.07061012 ETH. From Genesis Mining.Genesis Mining (Ethereum Mining)cmmonitor.com,0,0,0,False
97,Heel_@Cutrolosophy,"#Top5 Most ""Dangerous"" rappers to #Beef with: 1. #Nas .. #Ether ..do I really have to go further with that..",0,0,0,False
98,BitcoinAgile@bitcoinagile,The DAO: Or How A Leaderless #ethereum-Based Organization Raised $50 Million Even Though No http://snip.ly/r1n3x,1,0,0,False
99,Alexander Ainslie@AAinslie,"The #DAO: Or How A #Leaderless #Ethereum-Based Org Raised $50 Million (Even Though No One Quite Knows What It Is)The DAO: Or How A Leaderless Ethereum Project Raised $50 Million - CoinDeskA leaderless, distributed organization has raised $50m worth of ether to invest in sharing economy projects, but how it came to be is largely a mystery.coindesk.com",1,0,0,False
100,AltcoinWeekly@altcoinweekly,The latest Ethereum price is USD 10.14. For historical #Ethereum price charts - http://buff.ly/1Y3h6Jz,0,0,0,False
101,Jebus@jebus911,Wouldn't $ETH trading be more fun at coinedup speed?,0,0,0,False
103,BitcoinAgile@bitcoinagile,The DAO: Or How A Leaderless #ethereum-Based Organization Raised $50 Million Even Though No http://bitcoinagile.com/6A0B66/the-dao-or-how-a-leaderless-ethereum-based-organization-raised-50-million-even-though-no-one-quite-knows-what-it-is-valubit_stream…,0,0,0,False
104,SomaBotanics@SomaBotanics,One way in which increased #vata (#air #ether) can be #calmed is to #lay down in the #grass… https://instagram.com/p/BFUjp1Nt8KL/,0,0,0,False
105,litecoin cfd@litecoincfd,"Connect your trade bot to telegram messenger https://youtu.be/8___IU3Np6Y #bitcoin #eth #ltcConnect Haasonline Trade Server to Telegramhttp://haasonline.com Discont code ""moon"" 40% offhttps://forum.haasonline.com/viewtopic.php?f=66&t=1162&p=4175#p4175youtube.com",0,0,0,False
106,Degen Signals@degenyolo,"Connect your trade bot to telegram messenger https://youtu.be/8___IU3Np6Y #bitcoin #eth #ltcConnect Haasonline Trade Server to Telegramhttp://haasonline.com Discont code ""moon"" 40% offhttps://forum.haasonline.com/viewtopic.php?f=66&t=1162&p=4175#p4175youtube.com",0,0,0,False
107,degenbet@DegenBet1,"Connect your trade bot to telegram messenger https://youtu.be/8___IU3Np6Y #bitcoin #eth #ltcConnect Haasonline Trade Server to Telegramhttp://haasonline.com Discont code ""moon"" 40% offhttps://forum.haasonline.com/viewtopic.php?f=66&t=1162&p=4175#p4175youtube.com",0,0,0,False
108,Pleb Bets@SportsBetPlebs,"Connect your trade bot to telegram messenger https://youtu.be/8___IU3Np6Y #bitcoin #eth #ltcConnect Haasonline Trade Server to Telegramhttp://haasonline.com Discont code ""moon"" 40% offhttps://forum.haasonline.com/viewtopic.php?f=66&t=1162&p=4175#p4175youtube.com",0,0,0,False
109,HaasOnline@haasonline,"Connect your trade bot to telegram messenger https://youtu.be/8___IU3Np6Y #bitcoin #eth #ltcConnect Haasonline Trade Server to Telegramhttp://haasonline.com Discont code ""moon"" 40% offhttps://forum.haasonline.com/viewtopic.php?f=66&t=1162&p=4175#p4175youtube.com",0,0,0,False
111,Nick Barba@n1ckbarba,"Humbled as well and looking forward to it! #NetDE #blockchain #ethereum @GovernorMarkell @DelawareGlobal @coaktcoQuote TweetKAK@KevinAKriss · May 12, 2016Humbled by the opportunity to speak with @DelawareGlobal about @GovernorMarkell ""Delaware Blockchain Initiative""#blockchain #ethereum",4,2,0,False
112,Koinster@koinster,You heard it here first and I’m coining (ha!) the term: DAO Dump.  Coming soon to an exchange near you.  #DAOdump #Ethereum,0,0,0,False
113,YOᗪI ᕼEᖇᗰᗩᗯᗩᑎ@YodiHermawan,The DAO: Or How A Leaderless #Ethereum-Based Organization Raised $50 Million (Even… http://goo.gl/fb/Nq6037 #vk,0,0,0,False
114,BitcoinPari@Bitcoinpari_,"bet on  #Eurovision with #bitcoin #ethereum, #dogecoin, #litecoin. fun and money #bookmaker https://goo.gl/P57oRW",0,0,0,False
116,Раб Божий@Diener_Gottes,The DAO: Or How A Leaderless #Ethereum-Based Organization Raised $50 Million (Even Though No… http://goo.gl/fb/sQJiZO,0,0,0,False
117,Ethereum Price@EthereumPrice_,"#Ethereum: Ether Price Index
1 ETH =0.022538Ƀ XBT = $10.265000 USD
Today: +2.30%⬆︎ Last 24h: +2.52%⬆︎
https://ethereum-price.com",0,0,0,False
118,litecoin cfd@litecoincfd,"CEX IO Reduces Trade Fees #BTC #ETHCEX.IO Reduces Fees - BTC Trade Bot - ETH Trade Bothttp://haasonline.com Discount code """"moon"" 25% offyoutube.com",0,0,0,False
119,Degen Signals@degenyolo,"CEX IO Reduces Trade Fees #BTC #ETHCEX.IO Reduces Fees - BTC Trade Bot - ETH Trade Bothttp://haasonline.com Discount code """"moon"" 25% offyoutube.com",0,0,0,False
120,degenbet@DegenBet1,"CEX IO Reduces Trade Fees #BTC #ETHCEX.IO Reduces Fees - BTC Trade Bot - ETH Trade Bothttp://haasonline.com Discount code """"moon"" 25% offyoutube.com",0,0,0,False
121,Pleb Bets@SportsBetPlebs,"CEX IO Reduces Trade Fees #BTC #ETHCEX.IO Reduces Fees - BTC Trade Bot - ETH Trade Bothttp://haasonline.com Discount code """"moon"" 25% offyoutube.com",0,0,0,False
122,Theo Goodman@theog__,"CEX IO Reduces Trade Fees #BTC #ETHCEX.IO Reduces Fees - BTC Trade Bot - ETH Trade Bothttp://haasonline.com Discount code """"moon"" 25% offyoutube.com",1,0,0,False
123,Bitcoin News@scryptsy,#Scryptsy.com #BTC The DAO: Or How A Leaderless #Ethereum-Based Organization Raised $50… http://goo.gl/fb/dD29Jp,0,0,0,False
124,brenda v@bvbrendav,"""[...] real questionable bars on there, like that 'Swaghili' line? Come on man. Even Fabolous wouldnt say sum shit like that""  -drake #ether",0,0,0,False
125,BitcoinAgile@bitcoinagile,The DAO: Or How A Leaderless #ethereum-Based Organization Raised $50 Million Even Though No http://bitcoinagile.com/6A09DC/the-dao-or-how-a-leaderless-ethereum-based-organization-raised-50-million-even-though-no-one-quite-knows-what-it-is-blockalerts_stream…,0,0,0,False
126,KAK@KevinAKriss,"Humbled by the opportunity to speak with @DelawareGlobal about @GovernorMarkell ""Delaware Blockchain Initiative""#blockchain #ethereum",6,3,0,False
127,BitcoinPari@Bitcoinpari_,"bet on  #Eurovision with #bitcoin #ethereum, #dogecoin, #litecoin. Make money it's fun!
https://goo.gl/P57oRW",0,0,0,False
128,OpenLedger@OpenLedgerDC,The #DAO: Or How A Leaderless Ethereum-Based Organization Raised $50 Million http://bit.ly/1Ta87sa  Pre-launch trading on #OpenLedger #ETH,1,1,0,False
129,Liz Hermawan@LizHermawan,The DAO: Or How A Leaderless #Ethereum-Based Organization Raised $50 Million (Even… http://goo.gl/fb/WBqKXQ #vk,1,0,0,False
130,Widget 4 Bitcoin@widget4bc,The DAO: Or How A Leaderless #Ethereum-Based Organization Raised $50 Million (Even Though… http://ci.4bc.co,0,0,0,False
131,Bitcoin Directory@dir4bc,The DAO: Or How A Leaderless #Ethereum-Based Organization Raised $50 Million (Even Though… http://ci.4bc.co,0,0,0,False
132,4BC@aff4bc,The DAO: Or How A Leaderless #Ethereum-Based Organization Raised $50 Million (Even Though… http://ci.4bc.co,0,0,0,False
135,BitcoinAgile@bitcoinagile,The DAO: Or How A Leaderless #ethereum-Based Organization Raised $50M Even Though No One http://coindesk.com/the-dao-just-raised-50-million-but-what-is-it…,2,0,0,False
136,NZMusic4U@NZMusic4U,Now is a good time to talk about #Ethereum. #altcoin,0,0,0,False
138,Elephant@7elephant_en,On May 16 #7Elephant with the founder of #Ethereum @VitalikButerin will participate in in the Russian conference «Ethereum Russia 2016».,1,0,0,False
139,Patriot In New York@nybiltong,use calories to buy food #coindup #openledger #bitcoin #ethereum #altcoins,0,0,0,False
140,ETHNews@ETHNews_,"#Genesis #Mining launches #Enigma, the world's largest #ether #cloud mining farm #Ethereum http://ow.ly/t4mp3008LGS via @IBTimesUK",0,0,0,False
143,Digiconomist@DigiEconomist,Replying to @DigiEconomistFun fact: #TheDAO now already holds 6% of all #ETH in existence (worth 50 mio USD currently) https://daohub.org,0,0,0,False
144,Digiconomist@DigiEconomist,#Ethereum up again on heavy interest for #TheDAO. The latter might become the #1 most successful crowdsale of all time at this rate.,1,1,0,False
145,BitcoinAgile@bitcoinagile,ethOS - Linux #ethereum Mining Platform - Page 3 #btc #newsethOS - Linux Ethereum Mining Platform - Page 3@dolleminer here is a farm on ethOS: http://fc4983.ethosdistro.com/ ethOS is running the most optimized ethminer available.forum.ethereum.org,1,1,0,False
146,fintechfolk@fintechfolk,Thanks stephmacc for registering for FinTechFolk - http://zpr.io/Mnfj #fintech #ethereum #bitcoin #blockchain,0,0,0,False
147,ETHNews@ETHNews_,#Infinit is A GUI To Interact With #Ethereum #DAOs http://ow.ly/Uogq3008LtN via @themerklenews,2,0,0,False
148,TOJA@sundaysdinner,Web Developer Android gesucht. #crypto #ether #blockchain,0,0,0,False
149,฿TF%$Brrrrrr!@CryptoHustle,"Replying to @onemanatatimeNo doubt that $ETH is a trendsetter. I'm just looking at investment fundamentals based on price, supply, volume and inflation",1,1,0,False
151,Ethereum Dude@EthereumDude,"Winklevoss #Bitcoin Exchange Gemini to Launch #Ether Trading 

http://bit.ly/1q2a7oC #ethereum #cryptocurrencyWinklevoss Bitcoin Exchange Gemini to Launch Ether Trading - CoinDeskNew York bitcoin exchange Gemini has officially added its second digital currency, ether, the token that powers the Ethereum network.coindesk.com",0,0,0,False
152,Ethereum SE@StackEthereum,Mining Viability [on hold] http://ethereum.stackexchange.com/questions/3879/mining-viability… #ethereum #mining #solomining,0,0,0,False
153,andrea.eth@andreafspeziale,Neverend http://swarm-gateways.net #ethereum #projects #decentralization #hosting #blockchain,0,0,0,False
155,Bear@bearBTC,Goblins are coming. #Eth #ether #ethereum #GoblinTown,1,0,0,False
156,ETHNews@ETHNews_,#Kraken Launches #ETH Dark Pool Trading #Ethereum http://ow.ly/KVnS3008Lgk via @bitcoinist,0,0,0,False
158,Alunaut   @onemanatatime,"Replying to @CryptoHustlewhat if $ETH is 21,000% ""better"" than $XCP and we're at equilibrium?",1,2,0,False
160,Ethereum Price@EthereumPrice_,"#Ethereum: Ether Price Index
1 ETH =0.022493Ƀ XBT = $10.150000 USD
Today: +2.10%⬆︎ Last 24h: +3.49%⬆︎
https://ethereum-price.com",0,0,0,False
161,Crypto Price Ticker@TickerCrypto,"Ethereum(#ETH) #2 Price:$9.90(4.69 %) Vol:$791,620,678.23 Cap:$14,400,800.0000 Supply:79,938,833 ETH http://dlvr.it/LHvkVV",0,0,0,False
162,Cloud Mining Monitor@cmmonitorcom,#Ethereum #Cloudmining': 12.05.2016 Payment received. 5 MHs - 0.05681577 ETH. From MyCoinCloud.MyCoinCloud (Ethereum Mining)cmmonitor.com,1,0,0,False
163,Ethereum SE@StackEthereum,Ethereum wallet doesn't sync v. 0.7.3 satuck or too slow using Os x 10.9.5 http://ethereum.stackexchange.com/questions/3877/ethereum-wallet-doesnt-sync-v-0-7-3-satuck-or-too-slow-using-os-x-10-9-5… #ethereum #wallets #synchronization,1,0,0,False
165,Clovis@clofamile,Free Ethereum every 5 minutes http://etherfaucet.net/?r=0x9dc618ad33d270ed68050186f5c08d7bf0b41c70… #ethereum via @FreeCryptoCo,1,0,0,False
167,Thessy Mehrain@ThessyMehrain,#DAO (Decentralized Autonomous Organization) future's decentrled governance?  https://medium.com/@BlockByBlock/the-decentralized-autonomous-organization-dao-5e80cfe8c993#.ob0gk9hcg… #blockchain #ethereum @P2P_Foundation,1,0,0,False
168,BitScan@bitscanner,One of Ripple's Early Supporters is Now Using #Ethereum to Rethink Banking http://ow.ly/405p5008sUS #futureofmoney,0,0,0,False
172,Shingai Thornton@shingaithornton,"“The Foundations are Being Laid for Cryptocurrency (and Blockchains) to Go Mainstream” https://blog.coinfund.io/the-foundations-are-being-laid-for-cryptocurrency-and-blockchains-to-go-mainstream-b720ced7d7fc#.ea5edy4gc… #Bitcoin #EthereumThe Foundations are Being Laid for Cryptocurrency (and Blockchains) to Go MainstreamThese stories, all from the past few weeks(except #13), illustrate how.blog.coinfund.io",1,0,0,False
173,Bitcoin@bitcoinpoet,"ELI5: Importing Private Key to Mist Wallet: In trying to transfer all of the Mist Wallet, Ethereum ... http://bit.ly/2217v8B #ethereum",0,0,0,False
174,Bitcoin@bitcoinpoet,"Ethereum Wallet Security: I'm a network security guy, by trade and hobby. I'm curious as to whether... http://bit.ly/1OlsgJz #ethereumEthereum Wallet Securityreddit.com",1,0,0,False
175,OpenLedger@OpenLedgerDC,[ANN] The #DAO available for pre-launch trading on #OpenLedger https://bitcointalk.org/index.php?topic=1470496.msg14829799#msg14829799… #daohub #ethereum @EtherPress @ethereumproject #OBITS,0,0,0,False
176,ETHNews@ETHNews_,#Ethereum Price Technical Analysis – Risk of Bounce Grows #ETH #ether http://ow.ly/vifA3008KPS via @newsbtcEthereum Price Technical Analysis – Risk of Bounce GrowsEthereum price surged higher and broke a major resistance area. Buying dips in the short term may be considered eyeing a test of $10.40.newsbtc.com,0,0,0,False
177,geyse@fdgdgfdgfdre,"10BIT BIZ - Analyze investment #Bitcoin #Blockchain #eth #btc #altcoin #Dogecoin #LitecoinQuote TweetBitcoin Brasil@BitcoinBr10 · May 7, 201610BIT BIZ - Analyze investment #Bitcoin #Blockchain #ethereum #money #eth #btc #altcoin #Dogecoin #satoshi #Litecoin",0,0,0,False
178,geyse@fdgdgfdgfdre,"http://litecoinbb.esy.es/ltc/ 
ROTATOR LITECOIN - #Bitcoin #Litecoin #Litecoin #Dogecoin #blockchain #btc #ltc #ethereumQuote TweetBitcoin Brasil@BitcoinBr10 · May 12, 2016ROTATOR LITECOIN - #Bitcoin #Litecoin #Litecoin #Dogecoin #blockchain #btc #ltc #ethereum http://litecoinbb.esy.es/ltc/",0,0,0,False
180,geyse@fdgdgfdgfdre,"ROTATOR LITECOIN - #Bitcoin #Litecoin #Litecoin #Dogecoin #blockchain #btc #ltc #ethereum http://litecoinbb.esy.es/ltc/Quote TweetBitcoin Brasil@BitcoinBr10 · May 12, 2016ROTATOR LITECOIN - #Bitcoin #Litecoin #Litecoin #Dogecoin #blockchain #btc #ltc #ethereum http://litecoinbb.esy.es/ltc/",1,0,0,False
181,geyse@fdgdgfdgfdre,"ROTATOR BITCOIN - #Bitcoin #Litecoin #Litecoin #Dogecoin #blockchain #btc #ltc #ethereum http://bitcoinbrasil10.esy.es/btc/Quote TweetBitcoin Brasil@BitcoinBr10 · May 12, 2016ROTATOR BITCOIN - #Bitcoin #Litecoin #Litecoin #Dogecoin #blockchain #btc #ltc #ethereum http://bitcoinbrasil10.esy.es/btc/",0,0,0,False
182,"Stephan@UNISOT.id, stephan@moneybutton.com, @1029@BitCoinDevotee","RT RT RT RT @DECENTRALca: Thank you for coming to our meetup! Good to see so many #bitcoin, #blockchain &amp;amp;amp; #ethereum enthusiasts",0,0,0,False
183,"Stephan@UNISOT.id, stephan@moneybutton.com, @1029@BitCoinDevotee","RT RT RT @DECENTRALca: Thank you for coming to our meetup! Good to see so many #bitcoin, #blockchain &amp;amp; #ethereum enthusiasts in one",0,0,0,False
184,"Stephan@UNISOT.id, stephan@moneybutton.com, @1029@BitCoinDevotee","RT RT @DECENTRALca: Thank you for coming to our meetup! Good to see so many #bitcoin, #blockchain &amp; #ethereum enthusiasts in one room.",0,0,0,False
185,Bitcoin Brasil@BitcoinBr10,ROTATOR LITECOIN - #Bitcoin #Litecoin #Litecoin #Dogecoin #blockchain #btc #ltc #ethereum http://litecoinbb.esy.es/ltc/,10,1,0,False
186,Bitcoin Brasil@BitcoinBr10,ROTATOR BITCOIN - #Bitcoin #Litecoin #Litecoin #Dogecoin #blockchain #btc #ltc #ethereum http://bitcoinbrasil10.esy.es/btc/,10,0,0,False
187,Nick Addison@naddison,"TheDAO has raised over 5m Ether which is around 52m USD. Now only 40 hours until rate change
#DAO #Ethereum",0,0,0,False
188,David Liam@crazydaveorama,#Ethereum (ETH) Price Trends: 5/12/2016 http://cointelegraph.com/news/ethereum-eth-price-trends-5122016…,0,0,0,False
189,Julia Edling@bitcointonic,A #Bitcoin and #Ethereum thought experiment (Version 2): I recorded a video about Bitcoin and #Ethereum and I… http://dlvr.it/LHtRVm,0,0,0,False
190,radsectors@radsectors,"What do you call a grommet hole without a grommet? Is it just a hole? For cables? 
#grommethole #dropceiling #ether…",0,0,0,False
191,rssbtc.com@rssbtc,"Kraken Introduces the Very First Ether Dark Pool - http://bit.ly/1TB9f2k
#tech #digital #ethereumKraken Introduces the Very First Ether Dark PoolKraken has announced the introduction of Ether Dark Pool on its platform, thereby becoming the first platform to have introduced such a trading feature.newsbtc.com",1,0,0,False
193,woolsim@woolsim,"$xcp assets will be able to utilize #ethereum #smartcontracts soon. There is little $xcp left under 500k for a #smartinvestor.
$btc $eth",1,0,0,False
194,Julia Vaingurt@julia_vaingurt,"Thank you for coming to our meetup! Good to see so many #bitcoin, #blockchain & #ethereum enthusiasts in one room. http://cur.lv/yh8dj",2,0,0,False
197,Ethereum UAE@Ethereum_UAE,Swiss City to Pilot Bitcoin Payments for Public Services http://ift.tt/1UVWT9T #Ethereum,1,0,0,False
199,CRYPTOCOINTALK@cryptocointalk,#Infinit is A #GUI To Interact With #Ethereum #DAOs https://cryptocointalk.com/topic/46950-themerkle-infinit-is-a-gui-to-interact-with-ethereum-daos/… $ETH #fintech #finance #technology #business,1,1,0,False
200,Jack@jackfru1t,Replying to @Noobgettinrich @goosenoble and @CryptoCrypticslol yes. $ETH will dump again sometime these next couple weeks and he'll take credit.,2,0,0,False
201,CryptoPot@CryptoPotGame,"@CryptoTraders Who will the PRIZEPOT at http://cryptopot.com ? 

#Bitcoin #ethereum #blockchain #cryptocurrency",1,0,0,False
202,฿TF%$Brrrrrr!@CryptoHustle,$ETH has 3000% more supply and is priced 700% higher than $XCP. Looking forward to smart contract integration on #Counterparty.,13,4,1,False
203,Adam Meister@TechBalt,I am staying at the @theDlasvegas because it accepts #Bitcoin https://youtube.com/watch?v=mu81GGcq-VE… @derekjstevens #TheD #Halvinghype #fintech #ethereumI am staying at the D in Las Vegas because it accepts BitcoinI think it was in 2014 that I read about the D hotel in Las Vegas accepting Bitcoin. When looking to book a room in Vegas for this September I stumbled upon ...youtube.com,6,4,0,False
204,GT Auto@GtAvto,Free Ethereum every 5 minutes http://eth-faucet.com/?r=0xe094be0826beed0bd3f51b210744d64008d63a68… #ethereum,0,0,0,False
205,Виктор Макаров@tiger1301,Free Ethereum every 5 minutes http://eth-faucet.com/?r=0xe094be0826beed0bd3f51b210744d64008d63a68… #ethereum,0,0,0,False
206,Anil Lakhanpal@AnilLakhanpal,Permission based and permission less #blockchain discussion is questioning the trust that is inherent in blockchain. #ethereum.,0,0,0,False
207,Bear@bearBTC,Now is the time to start panicking if you went long. #ethereum,1,0,0,False
208,Alex Dany@sellpocom,Free Ethereum every 5 minutes http://eth-faucet.com/?r=0xe094be0826beed0bd3f51b210744d64008d63a68… #ethereum,0,0,0,False
209,Раб Божий@Diener_Gottes,#Ethereum (#ETH) Price Trends: 5/12/2016: <![CDATA[ Ethereum continues going along its… http://goo.gl/fb/MLCIyf,0,0,0,False
211,Ethereum SE@StackEthereum,Import private key into ethereum wallet http://ethereum.stackexchange.com/questions/3873/import-private-key-into-ethereum-wallet… #ethereum #goethereum #import,0,0,0,False
212,KAK@KevinAKriss,"One step closer! #blockchain #ethereumQuote TweetNick Barba@n1ckbarba · May 12, 2016CO•AKT now on the State of the Dapps board! http://dapps.ethercasts.com @coaktco @KevinAKriss @MichaelSchein1 @Nik_Parks #blockchain #ethereum",1,0,0,False
214,CryptoTradeADay@CryptoTradeADay,Kraken Introduces the Very First Ether Dark Pool http://newsbtc.com/2016/05/12/kraken-introduces-the-very-first-ether-dark-pool/… #Ethereum,0,0,0,False
215,BitcoinAgile@bitcoinagile,"Say hello to my little friend ""Ether Whale"" $DAO ETH address holds now 5M $ETH, we hope reserve stays in ETH #daohub",3,0,0,False
218,YOᗪI ᕼEᖇᗰᗩᗯᗩᑎ@YodiHermawan,#Ethereum (#ETH) Price Trends: 5/12/2016: <![CDATA[ Ethereum continues going along its… http://goo.gl/fb/Nd1A5K #vk,0,0,0,False
220,Luis Angel Aguilar@aguilarworks,"@ADZ4BIZ thanks for the connect, go #ethereum #Bitcoin!",0,0,0,False
221,Wayne Hennessy-Barrett@Chieftain915,"#4GCapital super excited to be co-hosting our second Nairobi Ethereum Meetup with #Moringaschool  & #Ethereum
http://meetup.com/Nairobi-Ethereum-Meetup/events/226533413/…",4,2,0,False
222,CryptoCryptics@CryptoCryptics,"Replying to @CryptoCrypticsIf nothing at all - as mostly expected - happens with the $ETH price. Fine. 

One more scammer quickly sorted out in that case.",1,1,1,False
223,NancyB@Ball5610B,Free Ethereum every 5 minutes http://etherfaucet.net/?r=0xb04374f46cffa0616024a451f3318cab0bb3bbf7… #ethereum via @FreeCryptoCo,0,0,0,False
224,Leaking Alpha@BCD_Guru,Complexity of a transaction finality explained #casper #ethereum http://buff.ly/1qcGrFm,0,0,0,False
227,Crypto Price Ticker@TickerCrypto,"#Ethereum #ETH Rank:2 Last:฿0.02306396(7.722%) High:฿0.02321112 Low:฿0.02141072 Vol:฿45,981 Market Cap:฿1,844,023 / $832,458,673.60",0,0,0,False
228,InfoCoin@infocoinpress,"#news Which ones are the risks of  investing in #Ether? http://ift.tt/24NG3gr 
-- #ethereum",0,0,0,False
230,Ethereum SE@StackEthereum,permission modifiers issue http://ethereum.stackexchange.com/questions/3871/permission-modifiers-issue… #ethereum #contractdevelopment #smartcontracts #contractdebugging,0,0,0,False
231,𝕸𝖊𝖗𝖑𝖎𝖓𝖘 𝕸𝖆𝖙𝖗𝖎𝖝@Merlinsmatrix,#Ethereum (ETH) Price Trends: 5/12/2016 http://cointelegraph.com/news/ethereum-eth-price-trends-5122016?ref=5991…,0,0,0,False
232,ARTISTIC DEMOCRACY@mardikian,#Kraken Launches Ether Dark Pool Trading https://cryptocoinsnews.com/kraken-launches-ether-dark-pool-trading/… #ethtrader #ether #bitfinex #darkpool #darkorder #BTC #fiat #eth,0,0,0,False
233,Juan Blanco@juanfranblanco,"State of Blockchain Q1 2016 by @coindesk #bitcoin #blockchain #ethereumState of Blockchain Q1 2016CoinDesk’s Q1 2016 State of Blockchain report summarizes key trends, data and events from the first quarter of 2016. You'll be able to read analysis of the key…slideshare.net",2,3,0,False
234,Jack@jackfru1t,Replying to @CryptoCrypticshe's been market selling $ETH since 0.015... one day he'll get it right  ,1,1,0,False
236,Young Yang@FreeNuts,"Here is the reason for why I sold $ETH for $BTS:Poloniex BTC/BTS Chart - Published on Coinigy.com on May 12th, 2016 at 2:10 PM.Poloniex BTC/BTS Chart - Indicators used: BB (12, 2), Volume (true, 20), MACD (12, 26, close, 9), RSI (7) - Interval: 360. Published on Coinigy.com on May 12th, 2016 at 2:10 PM.coinigy.com",1,1,0,False
237,Widget 4 Bitcoin@widget4bc,##ETHereum (ETH) Price Trends: 5/12/2016: Ethereum continues going along its upward trend.… http://ci.4bc.co,0,0,0,False
238,Ryan@Ry_eli5,The pendulum swing is hitting peak #blockchain. Won't be long before it starts swinging back towards tokens like #bitcoin & #ethereum,0,0,0,False
239,Ali Güçlü@aliguclu,"CoinTelegraph : #Ethereum (#ETH) Price Trends: 5/12/2016 http://cointelegraph.com/news/ethereum-eth-price-trends-5122016… … https://twitter.com/CoinTelegraph/status/730760360978989056…)Quote TweetCointelegraph@Cointelegraph · May 12, 2016#Ethereum (#ETH) Price Trends: 5/12/2016 http://cointelegraph.com/news/ethereum-eth-price-trends-5122016…",0,0,0,False
240,John Slazas@JSservices,#trading #ethereum ETH aggress bid above 10.20 w 10.90 immediate target 12.60 obj if structure holds @ConsenSysLLC,0,0,0,False
241,UAU fund@UAUfund,#Digixdao accumulation phase #ethereum #DGD,0,0,0,False
243,Freakingcat - Milk Tea Alliance @freakingcat,Ether up to 0.023 BTC #Ethereum,0,0,0,False
246,฿€₳₹₫ @BeardDroid,I'll just wait until the last minute and sell $ETH to break even back to $BTC and buy $DAO with the leftover $ETHGIF,1,0,0,False
247,kingscrown@kingscrownBTC,"#ethereum trading @ http://BlTMEX.com 

dont be a fool - get some free money #bitcoin $BTCETH #forex #trading",0,0,0,False
248,Tobias Pfab@tobiaspfab,No real news from the leading economists at #DST16 - a chance for #blockchain and #ether as THE new  system!,0,0,0,False
250,Ethereum SE@StackEthereum,"Sent ETH from MyEtherWallet to my Mist Wallet, but did not show up http://ethereum.stackexchange.com/questions/3869/sent-eth-from-myetherwallet-to-my-mist-wallet-but-did-not-show-up… #ethereum #ether",0,0,0,False
251,SFTW Investor App@SFTW_Investor,"SFTW Investor top undervalued stock list: $ETH Ethan Allen Interiors Inc. (SS: 77)SFTW Investor | Stocks for the WeekStocks for the Week Investor is the stock recommendation app that delivers fresh, simple stock advice daily. We scan the market and crunch the numbers to help you make smarter decisions about where...stocksfortheweek.com",0,0,0,False
252,robika@robyka171,Free Ethereum every 5 minutes http://etherfaucet.net/?r=0x6975d90a35ef0b218654a2aebe4b81eb3f4512f5… #ethereum via @FreeCryptoCo,0,0,0,False
253,TBM NEWS@TBMGPT_News,"Genesis Mining launches Enigma, the world's largest #ethereum cloud mining farm http://ibt.uk/A6Xjg via @IBTimesUKGenesis Mining launches Enigma, the world's largest ether cloud mining farmEther (ETH) is the native token of the Ethereum, used to power applications on the Ethereum blockchain.ibtimes.co.uk",1,0,0,False
254,Josh Metnick @JoshMetnick,Takeaway from @coindesk http://coindesk.com/state-of-blockchain-q1-2016/… #bitcoin #ethereum @lisperati @NTmoney @TallyCapital @petertoddbtc,0,0,0,False
255,Alt-Options LLC@AltOptionsLLC,#ETH breaks resistance of 10.40. RSI 80. MACD #Bullish @newsbtc #Ethereum http://ow.ly/QHUh3008pLU,0,0,0,False
256,dinbits@2dinbits,"Why Gemini's Ether Trade is Actually Earth Shattering 
http://ln.is/news.dinbits.com/201/HlDtZ…
#news #bitcoin #blockchain #ethereum #financedinbits: Why Gemini's Ether Trade is Actually Monumentally Earth Shatteringnews.dinbits.com",0,0,0,False
257,Wheel of Doge@WheelofDoge,"Buying and selling dark #ether on #kraken is now a thing. #deth? #altcoin #bitcoin #yobit #monetaKraken joins YoBit in Dark Ether Coin? #DETHDark Ether, or (DETH) that has been trading on Yobit for months, is possibly the same stuff being offered on Kraken? If so, then Dark Ether could possibly see some gains, especially if the currenci…coincurrencynews.com",1,0,0,False
258,Young Yang@FreeNuts,"But there are already so many green candles on the 1 min chart, I dare not enter $ETH at this moment any more.

https://coinigy.com/s/i/573483fe/",0,0,0,False
259,Young Yang@FreeNuts,"According to Fib Retracement, the next target of $ETH will be 0.02356142, if it reaches without dump, then 0.02616555 will be next.",2,0,0,False
260,#blocktalk@block_talk,Great rant on #Blocktalk by @thegrifft on the Universal Sharing Network that @slockitproject is building! $DAO $ETH#Blocktalk - Rockin' it with Slock.ItFollow Us on twitter @block_talk****Support the show and the space****1BBbZ6KBEnj6i1beASHm8r4Stpd5V81Mbj0xf361dd41a66e62b52c36f847bede1cb11afa36­ad****Our Sp...youtube.com,9,9,0,False
261,NancyB@Ball5610B,Free Ethereum every 5 min http://eth-faucet.com/?r=0xb04374f46cffa0616024a451f3318cab0bb3bbf7… #ethereum via @FreeCryptoCo,0,0,0,False
262,Ethereum SE@StackEthereum,Contract with two owners http://ethereum.stackexchange.com/questions/3867/contract-with-two-owners… #ethereum #contractdesign #contractdevelopment #smartcontracts,0,0,0,False
263,Young Yang@FreeNuts,"The $ETH market is 100% a bull, although there's a possibility to dump any time, you're against TA & out too early. 
https://coinigy.com/s/i/57347f98/",0,0,0,False
265,fav@btsfav,Are you a Trader? Trade ETH/BTC with 5x leverage and grab a bonus http://favd.xyz/1rZ4edo #Ethereum,3,0,0,False
267,Young Yang@FreeNuts,"@FreeNuts You sold $ETH at 0.022 for $BTS at 0.00000795, which was a mistake so far, since now ETH was 0.02291004 and BTS was 0.00000791.",1,0,0,False
268,Ethereum SE@StackEthereum,"ETH deposit to mist wallet, but balance not showing http://ethereum.stackexchange.com/questions/3866/eth-deposit-to-mist-wallet-but-balance-not-showing… #ethereum #ether",0,0,0,False
270,☽ɾ ​​​​​​​​​​​​​​​​​​​​​​​​​​​​​​@Dr_Rekter,$RISE #ICO Just because @richiela is helping with it... enough for me. https://rise.vision/ico?aff=573443e05eb7970c004c0dde… #ALTCOINS $LISK $ETH,1,0,0,False
275,Coinan the Bitbarian@CryptoBarbarian,"Replying to @cryptostardust and @pterion2910the gamble is whether $ETH will dump before ICO ends - lots of ifs, buts and maybes",0,0,0,False
276,ZedsterX@ZedsterX,Once again fuck the asshole(s) that hacked/stole my measly 100+ Ether. #ethereum Are you proud? Where can I #HireAHacker,0,0,0,False
278,Coinan the Bitbarian@CryptoBarbarian,Replying to @pterion2910thought this would happen but got greedy and didn't buy $ETH back under 0.02 when had the chance,1,0,0,False
280,Attacking Team@IbKonteh,#Stillmatic is one of my fav albums of all time! @Nas hail the King! #Ether #GotYourselfAGun #OneMic,1,0,0,False
282,David Rindfleisch@DavidRindfleis1,"http://4bc.co/?ref=BoqyGiYVBcF6…
My favorite place to submit all my referral Links. #Bitcoin #Ethereum #Pay2Surf #4BCNetwork",0,0,0,False
283,indxio@indxio,#Russia Market Close || #Bitcoin: $450.36 | 394.09 EUR||  #Litecoin: 0.0085 BTC  || #Ethereum: 0.0228 BTC   || $BTC $LTC $ETH $RUB,1,0,0,False
285,Ethereum Price@EthereumPrice_,"#Ethereum: Ether Price Index
1 ETH =0.022795Ƀ XBT = $10.251500 USD
Today: +3.47%⬆︎ Last 24h: +6.67%⬆︎
https://ethereum-price.com",1,1,0,False
286,Ethereum SE@StackEthereum,Is block's timestamp current block's or previous block's timestamp? http://ethereum.stackexchange.com/questions/3863/is-blocks-timestamp-current-blocks-or-previous-blocks-timestamp… #ethereum #solidity #blocks #blocktime,1,1,0,False
287,Ethereum SE@StackEthereum,Truffle Dapp Deployed Contract Access http://ethereum.stackexchange.com/questions/3865/truffle-dapp-deployed-contract-access… #ethereum #dappdevelopment #smartcontracts #truffle,1,0,0,False
289,Alunaut   @onemanatatime,How much of your $ETH did you put / are you putting in $DAO? http://daohub.org25% or less35.2%About 50%13%About 75%4.6%All in like a man47.2%108 votes·Final results,1,0,0,False
290,NEWSBTC@newsbtc,Kraken Introduces the Very First Ether Dark Pool http://ow.ly/owZo3008fjG by @gautham_n #ethereum #bitcoin,4,5,0,False
291,Bitcoin Retweets@bitcoinbot121,Kraken Introduces the Very First Ether Dark Pool http://ow.ly/owZo3008fjG by @gautham_n #ethereum #bitcoin,0,0,0,False
293,Lars Honeytoast@LarsHoneytoast6,Free Ethereum every 5 minutes http://etherfaucet.net/?r=0x8120081498d78cf7681314b76c2922e9b8c12e3c… #ethereum via @FreeCryptoCo,0,0,0,False
294,BitcoinAgile@bitcoinagile,Kraken Introduces the Very First Ether Dark Pool #ethereum #bitcoin #Ether #etherdarkpool http://bitcoinagile.com/69EB7D/kraken-introduces-the-very-first-ether-dark-pool_stream…,1,0,0,False
295,AltcoinWeekly@altcoinweekly,The latest Ethereum price is USD 10.21. For historical #Ethereum price charts - http://buff.ly/1Y3h6Jz,0,0,0,False
296,CoinGecko@coingecko,The latest Ethereum price is USD 10.21. For historical #Ethereum price charts - http://buff.ly/1Y3h6Jz,1,1,0,False
297,XBTmoney@xbtmoney,Top-20 most successful #ICO : http://bit.ly/1TcuDNS #Altcoin #Cryptocurrency #BTC #Bitcoin #Ethereum #Augur #Lisk,2,0,0,False
298,BitcoinAgile@bitcoinagile,#ethereum Price Technical Analysis: Surge Accomplished http://bitcoinagile.com/69EA63/ethereum-price-technical-analysis-surge-accomplished_stream…,0,0,0,False
299,Raúl Yépez @ryepez3,Enigma / The world’s largest #Ethereum Mine @ethereumproject @ethereumreport,0,0,0,False
304,Frisb@pterion2910,"Replying to @pterion2910Here $ETH pumped like mad. Got reputation.Now in the place of PANDA,we have DAO.Pattern repeats.(Trying to add my share of FUD)",1,0,0,False
305,Frisb@pterion2910,"DAO=Dump artists' Organisation.I dont think it is a coincidence that DAO lauched exactly when $ETH did a 61fib.Such deadcat,much bounce.",0,0,0,False
306,Patrizio Stavola@halovast,#Swarm decentralizes #storage and #bandwidth through #Ethereum.Could also be used as a content distribution service http://bitcoinist.net/swarm-decentralizes-storage-and-bandwidth-through-ethereum/…,0,0,0,False
307,Ian Allison@IanAllison123,"Genesis Mining launches Enigma, the world's largest ether cloud mining farm #ethereum #bitcoinGenesis Mining launches Enigma, the world's largest ether cloud mining farmEther (ETH) is the native token of the Ethereum, used to power applications on the Ethereum blockchain.ibtimes.co.uk",4,6,0,False
309,Ethereum SE@StackEthereum,Is block's timestamp current block's or previous block's timestamp? http://ethereum.stackexchange.com/questions/3863/is-blocks-timestamp-current-blocks-or-previous-blocks-timestamp… #ethereum #blocktime,0,0,0,False
310,BitcoinAgile@bitcoinagile,"Genesis Mining launches Enigma, the worlds largest ether cloud mining farm #ethereum http://bitcoinagile.com/69E750/genesis-mining-launches-enigma-the-worlds-largest-ether-cloud-mining-farm_stream…",4,0,0,False
311,BitcoinAgile@bitcoinagile,"Genesis Mining launches Enigma, the worlds largest ether cloud mining farm #ethereum http://bitcoinagile.com/69E750/genesis-mining-launches-enigma-the-worlds-largest-ether-cloud-mining-farm_stream…",1,0,0,False
314,❝ Llewyn Scott ❞@Isildur1990,German online bank Fidor to use #ethereum ripple protocol. This could be big. #bitcoin #cryptocurrency #blockchain #WeofTheChain #btc #money,0,0,0,False
316,AtomSea Ⓥ@TheAtomSea,"My home is heated with the heartbeats of cryptocoin blockchains.
Mining #ethereum #datacoin #bitcoin #litecoin #curecoin 
Feel the love <3",1,0,0,False
317,Ackermann Yuriy @herrjemand,Wohoho!!! I guess it time to do some contracts... #ethereum @EthereumNZ,0,0,0,False
318,Bean@BTCBean,"When you get an erection in the wrong place at the wrong time. 

$eth erection about to get trapped in the doorsGIF",1,0,0,False
319,Ethereum Price@EthereumPrice_,"#Ethereum: Ether Price Index
1 ETH =0.022375Ƀ XBT = $10.089000 USD
Today: +1.56%⬆︎ Last 24h: +6.51%⬆︎
https://ethereum-price.com",0,0,0,False
320,Ethereum SE@StackEthereum,"How to know, inside the contract function, the amount of gas that will be refunded in the end http://ethereum.stackexchange.com/questions/3860/how-to-know-inside-the-contract-function-the-amount-of-gas-that-will-be-refund… #ethereum #solidity",0,0,0,False
322,Victoria Hanchar@HancharGonchar,"Don't miss #hyperledgerSF May 12 meetup! Learn abt #hyperledger #ethereum SOON @usfcaDive into HyperLedger. HyperLedger and EthereumThu, May 12, 2016, 5:30 PM: Agenda:5:30 - Doors open. Networking.6:15 - Welcome. Members to vote on the topics of interests for the future meetings.6:30 - 7:30 Technical Introduction to HyperLedger7:3meetup.com",1,0,0,False
323,BitcoinsNews@BitcoinsNWS,#bitcoinsinvestors #bitcoins #ether maybe interresting to try but be careful always https://ethtrade.org/@006969,0,0,0,False
325,Baysiacoin ベイジアコイン@BaysiaCoin,"The #Ethereum conference, is taking place on May 17 in Auckland and continuing on May 19 in Wellington, New Zealand. http://bravenewcoin.com/news/ethereum-new-zealand-conference-to-expand-blockchain-understanding-in-the-business-world/…",1,1,0,False
326,BitcoinAgile@bitcoinagile,#ethereum Based Censorship-Immune Social Media Network “Akasha” Unveiled - TekyBoy's Chronicles #tekypromo #TP http://bitcoinagile.com/69E2F2/ethereum-based-censorship-immune-social-media-network-akasha-unveiled-tekyboys-chronicles_stream…,1,0,0,False
328,CRYPTOCOINS@Crypt0CoinWorld,#bleutrade 1 ETH / btc  price 0.0223  #ethereum #bitcoin #btc #trade #Exchange #cryptocurrency   trade Etherum  >>https://goo.gl/DxQ82L <<,1,0,0,False
329,CoinminerOne@CoinminerOne,Trade 25x leveraged #ETHEREUM and 100x leveraged #Bitcoin on Bitmex: https://bitmex.com/register/pw4ld4,0,0,0,False
330,Ξ Fly Guy Ξ (flyguy.eth)@FlyGuyInTheSky,#TheDAO has now 6% of all #ether in circulation. Pretty impressive. Now $47.5M committed.,0,0,0,False
331,Micha Roon@drgorb,"#smart-contract #ethereum great readQuote TweetDavid Roon@bmalaus · May 11, 2016Blockchain paparazzi - my analysis of a betting smart contract is out!
http://blog.ether.camp/post/144196716498/the-blockchain-paparazzi-esport-betting…",0,0,0,False
332,managination@managination_it,"#smart-contract #ethereum great readQuote TweetDavid Roon@bmalaus · May 11, 2016Blockchain paparazzi - my analysis of a betting smart contract is out!
http://blog.ether.camp/post/144196716498/the-blockchain-paparazzi-esport-betting…",0,0,0,False
333,build the audience@buildaudiences,Inside the secret meeting where #WallStreet tested digital cash #bitcoin #ethereum #blockchain #financialservices https://linkedin.com/pulse/inside-secret-meeting-where-wall-street-tested-digital-glyn-maclean…,0,0,0,False
336,BitWaRRior@bitwarriorX,"Now that #BTC is going down, will we see #ETH back to 0.03 BTC range soon? #altcoins will go up as well.",1,1,0,False
338,ΞTHΞЯΞUM ÐΞV NΞWS ⟠@Eth_Dev_News,"Augur partnered w/Microsoft Azure, #Ethereum-based #blockchain service in Beta http://cointelegraph.com/news/decentralized-ethereum-based-prediction-platform-augur-enters-beta-testing-partners-with-azure?ref=7821… #gamedev #IoT",1,0,0,False
340,Crypto Price Ticker@TickerCrypto,"#Ethereum #ETH Rank:2 Last:฿0.02222475(5.922%) High:฿0.02224644 Low:฿0.02098216 Vol:฿33,006 Market Cap:฿1,776,707 / $797,711,364.93",0,0,0,False
341,Anondran@AnondranCrypto,$ETH breached 0.0225 BTC,0,0,0,False
342,Cyber Phil ₿ ₿ ₿ ¯\_(ツ)_/¯ ₿ ₿ ₿@H4ck3rPh1ll,Does the $ETH rise mean the worse is over and #altcoins will recover and rise to pre-crash levels? #Bitcoin #BTCYes42.9%No57.1%7 votes·Final results,0,0,0,False
343,Ludvig Öberg@ludvigoeberg,This Early #Ripple Supporter is Using #ethereum to Rethink Banking http://buff.ly/24MHdMw @ficoba #blockchain,0,0,0,False
344,indxio@indxio,#China Market Close || #Bitcoin: $448.94 | 393.44 EUR||  #Litecoin: 0.0085 BTC  || #Ethereum: 0.0224 BTC   || $BTC $LTC $ETH $RMB,0,0,0,False
345,BZ (ex. ChangeBot)@bitzlato,Good result! #Ethereum,1,1,0,False
347,fav@btsfav,You can now own your own #BitGold Service! Buy @DigixDAO and earn rewards on Gold Transactions http://goo.gl/GNZw7Z #Blockchain #Ethereum,2,3,0,False
348,AltcoinWeekly@altcoinweekly,The latest Ethereum price is USD 9.96. For historical #Ethereum price charts - http://buff.ly/1Y3h6Jz,0,0,0,False
349,CoinGecko@coingecko,The latest Ethereum price is USD 9.96. For historical #Ethereum price charts - http://buff.ly/1Y3h6Jz,0,0,0,False
350,ΞTHΞЯΞUM ÐΞV NΞWS ⟠@Eth_Dev_News,Replying to @krakenfxRELEASE THE KRAKEN!New! #Ether Dark Pool Trading@krakenfx #fintech http://blog.kraken.com/post/144164249192/kraken-introduces-ether-dark-pool-and-major… #IoT #gamedev #ethereum,2,4,0,False
352,Ethereum SE@StackEthereum,How to teach ethereum [duplicate] http://ethereum.stackexchange.com/questions/3854/how-to-teach-ethereum… #ethereum #contractdevelopment,0,0,0,False
353,ΞTHΞЯΞUM ÐΞV NΞWS ⟠@Eth_Dev_News,power monitor @NicolasFierro_ @ConsenSysLLC solar power #RaspberryPi run full #ethereum geth node. #IoT #gamedev #go,3,2,0,False
354,Vella (Real account from April 2016)@cryptotrader85,"I'll be using this weeks faucet earnings to purchase more $BIOS and $KR
$BIOS $KR $ETH $BTC $LTC $DOGE #cryptocurrency",0,0,0,False
355,Vella (Real account from April 2016)@cryptotrader85,"I've been buying as much $BIOS as I can as I'm expecting big things with this crypto coin in the next couple of weeks.

$BIOS $BTC $ETH",0,0,0,False
357,Rodrigo Paulo Gomes []@bgcoin,"Bart Chilton: Bitcoin is a huge opportunity. Obama needs to make a move now
http://cnb.cx/24LEIqm
#bitcoin #blockchain #ethereum >@POTUS",0,0,0,False
358,ΞTHΞЯΞUM ÐΞV NΞWS ⟠@Eth_Dev_News,#ethereum SWARM decentralized storage/bandwidth http://swarm-gateways.net/bzz:/swarm/ http://bitcoinist.net/swarm-decentralizes-storage-and-bandwidth-through-ethereum/… #blockchain #gamedev,1,2,0,False
359,Ethereum Price@EthereumPrice_,"#Ethereum: Ether Price Index
1 ETH =0.021982Ƀ XBT = $9.899595 USD
Today: -0.22%⬇︎ Last 24h: +5.68%⬆︎
https://ethereum-price.com",1,0,0,False
361,Ethereum SE@StackEthereum,How to teach ethereum http://ethereum.stackexchange.com/questions/3854/how-to-teach-ethereum… #ethereum #contractdevelopment,8,7,0,False
362,Eduardo@Codiox,"@BobSummerwill @zeligf @themerklenews 
The Swarm project reached a new milestone!
http://themerkle.com/swarm-announces-the-releases-of-the-orange-paper-series/…
#Ethereum #BlockchainSwarm Announces The Releases of The Orange Paper SeriesThe Swarm team announced the release of a new project that aims to create a platform for the sharing, publishing and distribution of cutting-edge research papers about various aspects of Ethereum'sthemerkle.com",1,0,0,False
363,BitcoinAgile@bitcoinagile,#ethereum Price Technical Analysis  Risk of Bounce Grows - NEWSBTC #EthereumPriceanalysis http://bitcoinagile.com/69DD68/ethereum-price-technical-analysis-risk-of-bounce-grows-newsbtc_stream…,1,1,0,False
364,Bitcoin@bitcoinpoet,Got a wild idea that you'll never have time to build?: Help get /r/thedao kick-started. If everyone... http://bit.ly/24QktLD #ethereumGot a wild idea that you'll never have time to build?reddit.com,1,0,0,False
365,Bitcoin@bitcoinpoet,Sending ether on behalf of other users: I am trying to find documentation for creating an app that ... http://bit.ly/24QktLC #ethereum,1,0,0,False
366,Crypto Price Ticker@TickerCrypto,"Ethereum(#ETH) #2 Price:$9.97(5.13 %) Vol:$796,672,392.92 Cap:$14,308,400.0000 Supply:79,937,159 ETH http://dlvr.it/LHcr4f",0,0,0,False
367,Michael@1MichaelWheeler,"The Blockchain is the new Google - #blockchain #Bitcoin #ethereum #XpcThe Blockchain is the new GoogleThe following is an excerpt from The Business Blockchain: Promise, Practice, and Application of the Next Internet Technology by William Mougayar. In it, Mougayar waxes ecstatic about the future of...apple.news",1,0,0,False
368,Omar Bouguerra@0marB9,What Makes The #DAO Concept So Appealing? – The Merkle http://buff.ly/1T7XHt9 #Ethereum,0,0,0,False
369,Dennahz@Dennahz,"Replying to @SecretsOfCrypto.@SecretsOfCrypto I think $ETH is pretty expensive atm. But you're right. The key is to buy cheap, believe and hodl.",1,0,0,False
