,user,text,likes,retweets,replies,is_thread
0,Jerome de Tychey @jdetychey,"Reading a review of Golwin's Necromancers...
I guess I would believe any provably honest @oraclizeit on #ethereum",1,0,0,False
1,cryptinsight@cryptinsight,A Victorious Rebellion? Microsoft Investigates #ethereum Classic's Potential - Crypto Revelation #BitcoinNews #News http://cryptorevelation.com/a-victorious-rebellion-microsoft-investigates-ethereum-classics-potential…,1,0,0,False
2,Faith Emmanuel@residualbitcoin,“Uber for Fund Management” #ethereum-based ICONOMI Raises $5.8m in Crowdsale - #bitcoin Wiki http://bitcoinagile.com/86BCEF/uber-for-fund-management-ethereum-based-iconomi-raises-58m-in-crowdsale-bitcoin-wiki_stream… #ResidualBitcoin,0,0,0,False
3,BitcoinAgile@bitcoinagile,“Uber for Fund Management” #ethereum-based ICONOMI Raises $5.8m in Crowdsale - #bitcoin Wiki http://bitcoinagile.com/86BCEF/uber-for-fund-management-ethereum-based-iconomi-raises-58m-in-crowdsale-bitcoin-wiki_stream…,1,0,0,False
4,Ameer Rosic@AmeerRosic,Could #Blockchain Technology Bankrupt #Spotify? http://bit.ly/1tgKTVz #ethereum #bitcoin,1,0,0,False
5,Rob Nelson@guruvan,"#ethereum ICO devs to be first passengersQuote TweetDiogenes@WallStCynic · Sep 27, 2016May I point out that we have NO extradition treaty with Mars for securities fraud and fraudulent conveyance. $TSLA $SCTY",2,0,0,False
6,⛧ God of Gaming ⛧@TheGodofGamez,The foolish man seeks happiness in the distance; the wise grows it under his feet. $ETH,2,0,0,False
7,Blockchain Australia@BlockchainAUS,Gavin Andresen: #Ethereum Will Outgrow #Bitcoin http://ow.ly/62yJ304CIK8,0,0,0,False
8,Marco Krohn@mkrohn5,"Time for #bitcoin #ethereum
https://tcw.com/Insights/Economics/09-19-16_Trading_Secrets.aspx…",1,0,0,False
9,/r/Ethereum@r_Ethereum,Best Ethereum Wallet Online Guide http://bit.ly/2dxLFr0 #EthereumBest Ethereum Wallet Online GuidePosted in r/ethereum by u/DogeBets • 16 points and 4 commentsreddit.com,0,0,0,False
10,/r/Ethereum@r_Ethereum,Microsoft and Bank of America Merrill Lynch collaborate to transform trade finance transacting with... http://bit.ly/2dxMAHN #EthereumMicrosoft and Bank of America Merrill Lynch collaborate to...Posted in r/ethereum by u/heliumcraft • 12 points and 0 commentsreddit.com,0,0,0,False
11,/r/Ethereum@r_Ethereum,The Borders of Civilization ~ Homeward Bound http://bit.ly/2dxKcB5 #Ethereum,0,0,0,False
12,BitcoinAgile@bitcoinagile,Safe Medical Records #ethereum #hackethercamp https://hack.ether.camp/idea/safe-medical-records…,0,0,0,False
13,ether-camp@CampEther,Seen on #hackethercamp https://hack.ether.camp/idea/safe-medical-records… #ethereum,1,0,0,False
14,Blockgeeks@Blockgks,What are the best #blockchain books to read? http://dld.bz/eWaV7 #bitcoin #ethereum #startup,1,0,0,False
15,Topcrypostats@topcrypostats,"Ethereum Classic - ETC
Price: $1.1934
Change in 1h: +-0.24%
Market cap: $100660167.0
Ranking: 6
#Ethereum Classic #ETC",0,0,0,False
16,Topcrypostats@topcrypostats,"Ethereum - ETH
Price: $13.0993
Change in 1h: +-0.1%
Market cap: $1105630380.0
Ranking: 2
#Ethereum #ETH",0,0,0,False
17,Tedy MD@bitcoinjapanese,The Ether Review #1: Joseph Lubin http://vid.staged.com/Uoit #btcjapan #btcchina #ethereum.co.id,1,0,0,False
18,Jamestown@Jamestown502,Replying to @karenhunter and @MattieChipguest: @theKimJackson. The Project @SingularDTV #ethereum,4,1,0,False
19,XTexplorer@XTexplorer,"#Ethereum Based US Gaming Company Raises $6 Mln in Crowdsale
https://cointelegraph.com/news/ethereum-based-us-gaming-company-raises-6-mln-in-crowdsale…",0,0,0,False
20,Alberto Jauregui | esoteRICK.eth @DisruptBanksy,http://ift.tt/2czQNJb Ethereum Based US Gaming Company Raises $6 Mln in Crowdsale - CoinTelegraph #ethereum #ether,0,0,0,False
21,Crypto Price Ticker@TickerCrypto,"#Ethereum #ETH Rank:2 Last:฿0.02172040(2.241%) High:Buy Instantly! on  Low:฿0.02177689 Vol:฿9,192 Market Cap:฿1,833,253 / $1,106,024,235.10",0,0,0,False
22,CoinGecko@coingecko,The latest Ethereum price is USD 13.1. For historical #Ethereum price charts - http://buff.ly/2cJiQJy,0,0,0,False
23,AltcoinWeekly@altcoinweekly,The latest Ethereum price is USD 13.1. For historical #Ethereum price charts - http://buff.ly/2cJl0bK,2,1,3,False
24,Timo Ξberhard@ZhuBajie72,I can only urge EVERYONE to stay faaaaaaar away from #Bitcoin and all the negative energy...(!!!) - #Ethereum #newparadigm #NOW.,0,0,0,False
25,Crypto_Krill@Crypto_Krill,Can this 22-year-old coder out-Bitcoin Bitcoin?  http://for.tn/2cFpZdF?xid=for_tw_sh… $eth $etc #ethereumGIF,0,0,0,False
26,⛧ God of Gaming ⛧@TheGodofGamez,Just as much as we see in others we have in ourselves. $ETH,2,0,0,False
27,Faith Emmanuel@residualbitcoin,#ethereum vs Ethereum: Which Is the Ship of Theseus? - #bitcoin Wiki http://bitcoinwiki.co/ethereum-vs-ethereum-which-is-the-ship-of-theseus… #ResidualBitcoin,1,0,0,False
28,BitcoinAgile@bitcoinagile,#ethereum vs Ethereum: Which Is the Ship of Theseus? - #bitcoin Wiki http://bitcoinwiki.co/ethereum-vs-ethereum-which-is-the-ship-of-theseus…,1,4,0,False
29,Jan K@vanjan,@jetbrains are you planning to provide an #ethereum ide?,0,0,0,False
30,EvilDave@EvilDave_NXT,"Nice work, guys.
#nxter rules !
#nxt #ardor #blockchain #cryptocurrency #bitcoin #ethereum (snigger)Quote TweetArdor Platform@ArdorPlatform · Sep 27, 2016Congratulations to the team at @Nxter_org for being featured on @TechBullion! http://techbullion.com/10-blockchain-technology-magazines/…",8,6,0,False
31,Bob Summerwill@BobSummerwill,"I just got back from China after #ethereum #devcon2.  What a week!
It was great to meet some many people IRL for the first time.",18,2,1,False
32,SiriusXM Urban View@SXMUrbanView,#ethereum @theKimJackson @SingularDTV on the @karenhunter show #cryptocurrency #Bitcoin #weOWNtech #techtuesday @SXMUrbanView ch. 126,12,7,0,False
33,Topcrypostats@topcrypostats,"Ethereum Classic - ETC
Price: $1.19665
Change in 1h: +0.78%
Market cap: $100932605.0
Ranking: 6
#Ethereum Classic #ETC",0,0,0,False
34,Bobe'bot@Bobe_bot,"1 #BTC = 602.937 #CHF
1 #ETH = 13.4731 #CHF
1 #DOGE = 0.00022382336 #CHF
sources: @cryptonatorcom @hellobity",0,0,0,False
35,Topcrypostats@topcrypostats,"Ethereum - ETH
Price: $13.1215
Change in 1h: +-0.24%
Market cap: $1107485743.0
Ranking: 2
#Ethereum #ETH",0,0,0,False
36,Velocity@velocitymarkets,Velocity lets users enter into a collar option using a smart contract on the #ethereum #blockchain. Here's a demo: https://demo.velocity.technology,12,7,0,False
37,nooz81.eth @nooz81_eth,Can Ethereum-creator Vitalik Buterin Out-Bitcoin Bitcoin? - http://fortune.com/ethereum-blockchain-vitalik-buterin/… #ethereum $ETH,1,1,0,False
38,Blockgeeks@Blockgks,What is the difference between #Bitcoin and #Ethereum? http://buff.ly/2dhIMwE,0,0,0,False
39,AHK@Alex_Hff_K,"""How does the blockchain work? Explained for non-techies"" https://linkedin.com/pulse/how-does-blockchain-work-explained-non-techies-hemdorff-koch… on @LinkedIn
#Blockchain #Bitcoin #Ethereum #BlocknetHow does the blockchain work? Explained for non-techiesBy Alexander Hemdorff Koch, Blockchain enthusiast. This is the second article in a three piece series.linkedin.com",2,0,0,False
40,SiriusXM Urban View@SXMUrbanView,Peer to Peer w/ #ethereum @SingularDTV SINGULAR: A 1 hour adventure drama https://singulardtv.com/the-series @karenhunter #KarenRebels #cryptocurrency,9,4,0,False
41,Faith Emmanuel@residualbitcoin,#ethereum Price Technical Analysis – ETH Traders Await Break - #bitcoin Wiki http://bitcoinagile.com/86B759/ethereum-price-technical-analysis-eth-traders-await-break-bitcoin-wiki_stream… #ResidualBitcoin,1,0,0,False
42,SiriusXM Urban View@SXMUrbanView,Follow: @theKimJackson @SingularDTV Visit: https://singulardtv.com/the-series @karenhunter Show #TechTuesday #weOWNtech #ethereum #cryptocurrency,7,4,0,False
43,BitcoinAgile@bitcoinagile,#ethereum Price Technical Analysis – ETH Traders Await Break - #bitcoin Wiki http://bitcoinagile.com/86B759/ethereum-price-technical-analysis-eth-traders-await-break-bitcoin-wiki_stream…,0,0,0,False
44,SiriusXM Urban View@SXMUrbanView,#TechTuesday @karenhunter Show welcomes @theKimJackson CEO of @SingularDTV https://singulardtv.com #weOWNtech #ethereum #cryptocurrency,9,6,2,False
47,Bitcoin Updater@BitcoinUpdater,Ethereum Classic Price Technical Analysis – Sell Rallies In ETC #ethereum http://soco.space/TSkN7f,1,0,0,False
48,IoT 101@IoT101,Blockchain as a Service | @CloudExpo #Blockchain #IoT #Bitcoin #Ethereum http://bit.ly/2d1IlFo #IoT,2,0,0,False
49,AltcoinLive bot@AltcoinLiveBot,updated $ETH buywall 14.9btc @ 0.02105000 http://altcoinlive.com/bittrex-eth-btc #altcoinlive (change -0.00040958),0,0,0,False
50,AltcoinLive bot@AltcoinLiveBot,updated $ETH buywall 15.7btc @ 0.02145958 http://altcoinlive.com/bittrex-eth-btc #altcoinlive (change 0.00040958),0,0,0,False
51,Emerging Behavior@emerge_behavior,Has Ethereum's Hard Fork Created a New Kind of Double Spend? http://bit.ly/2bNjft6 #blockchain #ethereum #bitcoin,0,0,0,False
52,AltcoinLive bot@AltcoinLiveBot,updated $ETH sellwall 11.0btc @ 0.02205274 http://altcoinlive.com/bittrex-eth-btc #altcoinlive (change 0.00008865),0,0,0,False
53,Gflaterr on Parler & Gab @gflaterr,"Santander Confirms Fiat-backed Token Project on #Ethereum Blockchain
https://cointelegraph.com/news/santander-confirms-fiat-backed-token-project-on-ethereum-blockchain…
#ethereum",0,0,0,False
54,AltcoinLive bot@AltcoinLiveBot,updated $ETH sellwall 11.0btc @ 0.02196409 http://altcoinlive.com/bittrex-eth-btc #altcoinlive (change -0.00011217),0,0,0,False
55,Faith Emmanuel@residualbitcoin,Can #ethereum-creator Vitalik Buterin Out-#bitcoin Bitcoin? | No. Betteridge’s Law http://betteridgeslaw.com/2016/09/can-ethereum-creator-vitalik-buterin-out-bitcoin-bitcoin… #ResidualBitcoin,0,0,0,False
56,BitcoinAgile@bitcoinagile,Can #ethereum-creator Vitalik Buterin Out-#bitcoin Bitcoin? | No. Betteridge’s Law http://betteridgeslaw.com/2016/09/can-ethereum-creator-vitalik-buterin-out-bitcoin-bitcoin…,1,0,0,False
57,Augur@AugurProject,Updated information on second REP distribution trial: http://blog.augur.net/2016/09/16/test-how-to-access-your-rep/… #REP #Augur #ethereum,12,12,0,False
58,Jaco₿ ₿oersma@JacobBoers,"Thoughts on the #Ethereum hard fork, by @Deloitte https://siliconrepublic.com/enterprise/ethereum-hard-fork-deloitte-grid-blockchain-lab…",1,1,0,False
59,Blockgeeks@Blockgks,Could #Blockchain Technology Bankrupt Spotify? A Music Revolution http://buff.ly/2cWIfNM #ethereum #bitcoin,0,0,0,False
60,Topcrypostats@topcrypostats,"Ethereum Classic - ETC
Price: $1.18689
Change in 1h: +-0.6%
Market cap: $100107698.0
Ranking: 6
#Ethereum Classic #ETC",0,0,0,False
61,/r/Ethereum@r_Ethereum,"Importing Ethereum Wallet 0.8.2 keystore files into 0.8.3, can't see the wallets. http://bit.ly/2d7tNFj #EthereumImporting Ethereum Wallet 0.8.2 keystore files into 0.8.3, can't...Someone has the same problem and maybe the solution, I copied files generated by 0.8.2 into keystore directory of 0.8.3 and Ethereum Wallet just...reddit.com",0,0,0,False
62,/r/Ethereum@r_Ethereum,"I wrote a passphrase generator based on that XKCD comic, you may find it useful for helping you cho... http://bit.ly/2d7uaQ1 #EthereumI wrote a passphrase generator based on that XKCD comic, you may...Posted in r/ethereum by u/liberated_u • 8 points and 3 commentsreddit.com",0,0,0,False
63,Topcrypostats@topcrypostats,"Ethereum - ETH
Price: $13.1609
Change in 1h: +0.37%
Market cap: $1110794073.0
Ranking: 2
#Ethereum #ETH",0,0,0,False
64,Ethereum Price@EthereumPrice_,"#Ethereum: Ether Price Index
1 ETH =0.021666Ƀ XBT = $13.183285 USD
Today: +2.70%⬆︎ Last 24h: +2.06%⬆︎
https://ethereum-price.com",0,0,0,False
67,AltcoinLive bot@AltcoinLiveBot,updated $ETH sellwall 11.0btc @ 0.02207626 http://altcoinlive.com/bittrex-eth-btc #altcoinlive (change 0.00006389),0,0,0,False
68,AltcoinLive bot@AltcoinLiveBot,updated $ETH sellwall 11.0btc @ 0.02201237 http://altcoinlive.com/bittrex-eth-btc #altcoinlive (change 0.00005525),0,0,0,False
69,AltcoinLive bot@AltcoinLiveBot,updated $ETH sellwall 11.0btc @ 0.02195712 http://altcoinlive.com/bittrex-eth-btc #altcoinlive (change 0.00005718),0,0,0,False
70,amnion@nidenikolev,"Worthwhile op-ed, on the (likely) coordinated attacks on #ethereum network: http://ow.ly/z3jK304Ac18 ""won't kill ETH, more like a warning""Glad to see my intuition being right (on Ethereum)Soon after Ethereum was announced, on January 24, 2014 [I've made a...reddit.com",0,0,0,False
71,AltcoinLive bot@AltcoinLiveBot,updated $ETH sellwall 10.9btc @ 0.02189994 http://altcoinlive.com/bittrex-eth-btc #altcoinlive (change 0.00005821),0,0,0,False
72,Altcoinix[KLKS]@Yavuzcetinkaya3,#lbry coin starting to the moon #altcoinnews #Bitcoin #ethereum buy lbry now,0,0,0,False
73,Kristo Käärmann@kaarmann,"Most romantic moments of the engineering trade are in a coffee shop patching runaway servers. #ethereumEthereum Security Alert Issued, Ethereum Foundation Responds with “From Shanghai, With Love”On September 18th, hours before the Ethereum Foundation devcon 2 conference was about to start, a DOS security alert was posted on the Ethereum blog. The alert was related to a vulnerability discov...infoq.com",3,1,0,False
74,Crypto_Salfa@salfa_rubini,“Uber for Fund Management” #Ethereum-based #ICONOMI Raises $5.8m in #Crowdsale http://ln.is/YkA7q vi... by @Polycrypto via @c0nvey,0,0,0,False
75,Chuck Nute@RouletteRun,Replying to @DanDarkPillProblem with private blockchains is they'll be just like #ETH and only as immutable as the devs say it is. What's the point?,1,0,0,False
76,⛧ God of Gaming ⛧@TheGodofGamez,You have to do your own growing no matter how tall your grandfather was. $ETH,1,0,0,False
77,Tacita French@freeplayfrenchi,"Has anyone played this ?? Is it any good ? :D

#ether #ps4 #ps4games #games #gaming #gamer… https://instagram.com/p/BK33p5xhqi7/",2,0,0,False
78,Alex.eth@AlexanderFisher,"""Ethereum Devcon2 and beyond..."" http://buff.ly/2dneGVX on @LinkedIn #EthereumEthereum Devcon2 and beyond...I started my trip to Devcon2 being on the fence with respect to Ethereum as a production ready platform. The initial plan was to build our solution on top of Ethereum but the hard fork had us on the...linkedin.com",1,2,0,False
79,Timo Ξberhard@ZhuBajie72,"Let´s do it, fellas................ 
#Ethereum #NewParadigmGIF",1,1,0,False
80,Crypto Niya@cryptoniya,It seems like #WellsFargo and #DeutscheBank are competing to be the #LehmanBrothers of the next crisis. Try #crypto: #BTC or #ETH. #BeSafer,6,4,0,False
81,Nick Myers ∞@kor3shan,"I just signed up to @ethstatus - an #ethereum #dapps browser for mobileStatus - Private, Secure CommunicationStatus brings the power of Ethereum into your pocket by combining a messenger, crypto-wallet, and Web3 browser.status.im",0,0,0,False
82,Ethereum Monkey@EthMonkey,Ethereum Based US Gaming Company Raises $6 Mln in Crowdsale #ethereum https://cointelegraph.com/news/ethereum-based-us-gaming-company-raises-6-mln-in-crowdsale…,0,0,0,False
83,BitPython@bitpython,"Join us at http://TuxExchange.com  chat box and recieve some ETH to check it out !
#Ethereum
@EthereumNews
#cryptocurrency
#altcoin",0,0,0,False
84,Topcrypostats@topcrypostats,"Ethereum Classic - ETC
Price: $1.19429
Change in 1h: +0.53%
Market cap: $100729828.0
Ranking: 6
#Ethereum Classic #ETC",0,0,0,False
85,Topcrypostats@topcrypostats,"Ethereum - ETH
Price: $13.1218
Change in 1h: +0.17%
Market cap: $1107474247.0
Ranking: 2
#Ethereum #ETH",0,0,0,False
86,"Patrick Schmid, PhD @PatrickG_Schmid","#ICONOMI raises $5.8 million in crowd-sale #blockchain #ethereumBlockchain-powered ICONOMI raises $5.8m in crowdsaleEthereum-based Fund management platform ICONOMI has raised approximately $5.8m in equity and operational capital through an Initial Coin Offering (ICO). Developed by the team at Cashila, ICONOMI is...uk.finance.yahoo.com",0,0,0,False
87,Faith Emmanuel@residualbitcoin,#ethereum vs Ethereum: Which Is the Ship of Theseus? - Ruben Alexander - Liberty.me http://bitcoinagile.com/86AFB6/ethereum-vs-ethereum-which-is-the-ship-of-theseus-ruben-alexander-libertyme_stream…  #Resi…,0,0,0,False
88,Faith Emmanuel@residualbitcoin,[#787|+149|20] 9/27 Fortune Article: Can This 22-Year-Old Coder Out-#bitcoin The Bitcoin? [/r/#ethereum] • https://reddit.com/r/Nudelete/comments/54s6dv/78714920_927_fortune_article_can_this_22yearold/?ref=search_posts… #Residu…[#787|+149|20] 9/27 Fortune Article: Can This 22-Year-Old Coder...Posted in r/Nudelete by u/nudelete • 1 point and 0 commentsreddit.com,0,0,0,False
89,/r/Ethereum@r_Ethereum,FORBES: ICONOMI 'Uberizing' Blockchain Platform Eclipses $6m In Fintech Crowdsale http://bit.ly/2dpW37Q #EthereumFORBES: ICONOMI 'Uberizing' Blockchain Platform Eclipses $6m In...Posted in r/ethereum by u/weirdgod • 20 points and 4 commentsreddit.com,0,0,0,False
90,Peter Murphy@PRMurphy888,"The Rise of digital currency #money #bitcoin #ether #digital
http://prmurphy.com.au/2016/09/end-money-know-rise-digital-currency/…",0,0,0,False
91,AltcoinLive bot@AltcoinLiveBot,updated $ETH sellwall 10.9btc @ 0.02184173 http://altcoinlive.com/bittrex-eth-btc #altcoinlive (change 0.00000075),0,0,0,False
92,BitcoinAgile@bitcoinagile,#ethereum vs Ethereum: Which Is the Ship of Theseus? - Ruben Alexander - Liberty.me http://bitcoinagile.com/86AFB6/ethereum-vs-ethereum-which-is-the-ship-of-theseus-ruben-alexander-libertyme_stream…,1,0,0,False
93,BitcoinAgile@bitcoinagile,[#787|+149|20] 9/27 Fortune Article: Can This 22-Year-Old Coder Out-#bitcoin The Bitcoin? [/r/#ethereum] • https://reddit.com/r/Nudelete/comments/54s6dv/78714920_927_fortune_article_can_this_22yearold/?ref=search_posts…,0,0,0,False
94,Rhian Lewis@rhian_is,This #ethereum explainer by Fortune is more readable than the facile headline might suggest http://fortune.com/ethereum-blockchain-vitalik-buterin/…,3,3,0,False
95,"Patrick Schmid, PhD @PatrickG_Schmid","Can this 22-year old programmer out #bitcoin, bitcoin? #ethereum #blockchain http://fortune.com/ethereum-blockchain-vitalik-buterin/…",2,0,0,False
96,Faith Emmanuel@residualbitcoin,#ethereum vs Ethereum: Which Is the Ship of Theseus? - Coinmonitor http://bitcoinagile.com/86AF68/ethereum-vs-ethereum-which-is-the-ship-of-theseus-coinmonitor_stream…  #ResidualBitcoin,1,0,0,False
97,BitcoinAgile@bitcoinagile,#ethereum vs Ethereum: Which Is the Ship of Theseus? - Coinmonitor http://bitcoinagile.com/86AF68/ethereum-vs-ethereum-which-is-the-ship-of-theseus-coinmonitor_stream…,0,0,0,False
98,Shannon Steele@digifinancegirl,"#Microsoft supports #Ethereum Classic, hosts Meetup with Charles Hoskinson | http://buff.ly/2dgD2j8 via @CoinTelegraph | #blockchain",0,0,0,False
99,Name cannot be blank@robertandrewsm,"Yes, #Ethereum can do it. http://tinyurl.com/zz44vck",1,1,0,False
100,ExploreTraveler@exploretravel1,RT @bitcoinagile: #ethereum vs Ethereum: Which Is the Ship of Theseus? - by24seven #Resi http://lnkplg.co/ranWV,1,0,0,False
101,Faith Emmanuel@residualbitcoin,TaskForce: a distributed task manager #ethereum #hackethercamp https://hack.ether.camp/idea/taskforce-a-distributed-task-manager…  #ResidualBitcoin,0,0,0,False
102,BitcoinAgile@bitcoinagile,TaskForce: a distributed task manager #ethereum #hackethercamp https://hack.ether.camp/idea/taskforce-a-distributed-task-manager…,0,0,0,False
103,ether-camp@CampEther,Seen on #hackethercamp https://hack.ether.camp/idea/taskforce-a-distributed-task-manager… #ethereum,1,0,0,False
104,Topcrypostats@topcrypostats,"Ethereum Classic - ETC
Price: $1.18701
Change in 1h: +0.09%
Market cap: $100114390.0
Ranking: 6
#Ethereum Classic #ETC",0,0,0,False
105,Topcrypostats@topcrypostats,"Ethereum - ETH
Price: $13.0907
Change in 1h: +-0.33%
Market cap: $1104830490.0
Ranking: 2
#Ethereum #ETH",0,0,0,False
106,Ameer Rosic@AmeerRosic,5 Blockchain Applications That will Revolutionize The world http://bit.ly/1U4aha8 #Blockchain #Bitcoin #ethereum,1,0,0,False
107,BlockCypher@BlockCypher,"Haven't seen our new developer portal yet? Tons of resources to learn about #blockchains, #bitcoin and #ethereum: https://blockcypher.com/dev/",7,4,0,False
108,Branch 22 Capital@Branch22Capital,"At #Ethereum Mega-Event, the 'Church of Vitalik' Sobers Up #FinTechAt Ethereum Mega-Event, the 'Church of Vitalik' Sobers Up - CoinDeskAt Devcon2, the Ethereum community's strengths and limitations were on display.coindesk.com",0,0,0,False
109,AltcoinLive bot@AltcoinLiveBot,updated $ETH sellwall 10.9btc @ 0.02184098 http://altcoinlive.com/bittrex-eth-btc #altcoinlive (change 0.00005503),0,0,0,False
110,/r/Ethereum@r_Ethereum,Bitcoin Maximalist Network is at it again... http://bit.ly/2dhLmiz #EthereumBitcoin Maximalist Network is at it again...Posted in r/ethereum by u/QuantomBit • 2 points and 9 commentsreddit.com,0,0,0,False
111,/r/Ethereum@r_Ethereum,Join us at http://TuxExchange.com chat box and recieve some ETH to check it out ! http://bit.ly/2dhKXwD #Ethereum,0,0,0,False
112,/r/Ethereum@r_Ethereum,X-Post from /r/ethtrader Unicorn with Donuts. Looking for some ideas on helping a small school get ... http://bit.ly/2d4fyDl #Ethereum,0,0,0,False
113,/r/Ethereum@r_Ethereum,• r/technology immediately downvotes all Ether related articles i post :( http://bit.ly/2dhKXNn #Ethereum• r/technology immediately downvotes all Ether related articles i...reddit.com,0,0,0,False
114,/r/Ethereum@r_Ethereum,When is the 0.8.4 coming? My wallet doesn't sync!!! http://bit.ly/2dhLKxJ #Ethereum,0,0,0,False
115,Tom Pain | tompain.eth @TheTomPain,"""Can this 22-year-old coder out-Bitcoin #Bitcoin?""  Great write-up on Vitalik and #Ethereum http://for.tn/2cFpZdF?xid=for_tw_sh… via @FortuneMagazine",1,1,0,False
116,AltcoinLive bot@AltcoinLiveBot,updated $ETH sellwall 10.9btc @ 0.02178595 http://altcoinlive.com/bittrex-eth-btc #altcoinlive (change -0.00005503),0,0,0,False
117,Sillytuna @sillytuna,"This is required reading for anyone working on crypto wallets or consumer facing apps #ethereum #bitcoinQuote TweetTim Pastoor (timp@x0f.org)@timpastoor · Sep 27, 2016Someone attempted a social engineering attack on @coinbase. Here are the details they're sharing (which is cool):

https://medium.com/@SecPhilip/on-phone-numbers-and-identity-423db8577e58#.wy50kpgdc…",8,4,0,False
118,DuNN0 @_DuNN0_,Easy Money! Keep your internet Browser Open and win $BURST http://burstcoin.biz/surfbar?ref=2070… #zcash $ETH $BTC $NXT $XMR $ETC $LSK $FCT $LTC $XRP $SC,2,0,0,False
119,Bisgit@bisgit_iov,#Banks face growing #blockchain challenge - law experts https://goo.gl/oFaA7Q #Johannesburg #fin24 #Bitcoin #ethereum #ripple #fintech,0,0,0,False
120,Faith Emmanuel@residualbitcoin,9/27 Fortune Article: Can This 22-Year-Old Coder Out-#bitcoin The Bitcoin? • /r/#ethereum https://reddit.com/r/ethereum/comments/54q7dk/927_fortune_article_can_this_22yearold_coder/?st=ITLT2WSP&sh=35daa507… #ResidualBitcoin9/27 Fortune Article: Can This 22-Year-Old Coder Out-Bitcoin The...Posted in r/ethereum by u/shakedog • 265 points and 63 commentsreddit.com,0,0,0,False
121,rssbtc.com@rssbtc,"Ethereum Based US Gaming Company Raises $6 Mln in Crowdsale - http://bit.ly/2d7p9Wh
#fintech #digital #ethereum #funding",1,0,0,False
122,BitcoinAgile@bitcoinagile,9/27 Fortune Article: Can This 22-Year-Old Coder Out-#bitcoin The Bitcoin? • /r/#ethereum9/27 Fortune Article: Can This 22-Year-Old Coder Out-Bitcoin The...Posted in r/ethereum by u/shakedog • 265 points and 63 commentsreddit.com,1,0,0,False
123,rssbtc.com@rssbtc,"Microsoft Supports Ethereum Classic, Hosts Meetup with Charles Hoskinson - http://bit.ly/2d7oMei
#fintech #ethereum #digital",1,1,0,False
124,Faith Emmanuel@residualbitcoin,#ethereum vs Ethereum: Which Is the Ship of Theseus? - by24seven #Resi http://linkplugapp.com/Dp2Jn  #ResidualBitcoin,0,0,0,False
125,Faith Emmanuel@residualbitcoin,Week 19 Sep 2016 - 26 Sep 2016 #Ethereum $ETC http://report.gastracker.io/2016/weekly-20160919.html…  #ResidualBitcoin,0,0,0,False
126,Tedy MD@bitcoinjapanese,150 – Devcon 2 And The State Of Ethereum http://vid.staged.com/rkit #btcjapan #btcchina #ethereum.co.id,0,0,0,False
127,BitcoinAgile@bitcoinagile,#ethereum vs Ethereum: Which Is the Ship of Theseus? - by24seven #Resi http://linkplugapp.com/Dp2Jn,1,0,0,False
128,BitcoinAgile@bitcoinagile,Week 19 Sep 2016 - 26 Sep 2016 #Ethereum $ETC http://report.gastracker.io/2016/weekly-20160919.html…,1,0,0,False
129,Cryptobuzz@Cryptobuzzed,Incredible piece on #Ethereum and founder Vitalik Buterin: http://fortune.com/ethereum-blockchain-vitalik-buterin/…,0,0,0,False
130,BitcoinAgile@bitcoinagile,Iconomi: A New Innovative Way To Purchase #ethereum - CryptoCoinHome http://cryptocoinhome.com/iconomi-a-new-innovative-way-to-purchase-ethereum…,1,0,0,False
131,Alberto Jauregui | esoteRICK.eth @DisruptBanksy,http://ift.tt/2dhA3uw Ethereum (ETH and ETC) Price Trends (Week of September 26th) - CoinTelegraph #ethereum #ether,0,0,0,False
132,Blockgeeks@Blockgks,Great people deserve a great audience. http://blockgeeks.com #Blockchain #Ethereum #Bitcoin,0,0,0,False
133,Topcrypostats@topcrypostats,"Ethereum Classic - ETC
Price: $1.18663
Change in 1h: +-0.02%
Market cap: $100080893.0
Ranking: 6
#Ethereum Classic #ETC",0,0,0,False
134,Topcrypostats@topcrypostats,"Ethereum - ETH
Price: $13.1329
Change in 1h: +-0.14%
Market cap: $1108365444.0
Ranking: 2
#Ethereum #ETH",0,0,0,False
135,Ethereum Price@EthereumPrice_,"#Ethereum: Ether Price Index
1 ETH =0.021539Ƀ XBT = $13.125550 USD
Today: +2.10%⬆︎ Last 24h: +1.89%⬆︎
https://ethereum-price.com",1,0,0,False
136,Olivier Chapiteau@o_chapiteau,"27Sep2016 18:00 UTC #Ether #Blockchain status - Block height @ 2,337,494 - 9,864 unconfirmed tr. - Last fork height @ 2,337,469",1,0,0,False
137,Olivier Chapiteau@o_chapiteau,27Sep2016 18:00 UTC #Ethereum live spots - #Ether @ 13.13753 $ - #EtherClassic @ 1.18670 $,0,0,0,False
138,BitcoinBuzz vega9@BitcoinBuzzV9,http://bitcoinbuzz.vega9.com - Hot topics: #bitcoin #ethereum #blockchain #fintech #btc #crypto,0,0,0,False
139,BitcoinAgile@bitcoinagile,#ethereum vs Ethereum: Which Is the Ship of Theseus? - by24seven http://by24seven.com/ethereum-vs-ethereum-which-is-the-ship-of-theseus…,0,0,0,False
140,Btc_social@btc_social,Want latest news about #Bitcoin #Faucets?Come here and join latest faucets https://goo.gl/8T7iLO #Altocin #ethereum #blockchain #secure.,0,0,0,False
141,Btc_social@btc_social,Want latest news about #Bitcoin #Faucets?Come here and join latest faucets https://goo.gl/8T7iLO #Altocin #ethereum #blockchain #secure,0,0,0,False
142,AltcoinLive bot@AltcoinLiveBot,updated $ETH sellwall 10.9btc @ 0.02184098 http://altcoinlive.com/bittrex-eth-btc #altcoinlive (change -0.00005901),0,0,0,False
143,Internet of Things@TheIoT,Blockchain as a Service | @CloudExpo #Blockchain #IoT #Bitcoin #Ethereum https://alltheinternetofthings.com/entries/78164 #IoT,14,17,0,False
144,aBitcoinGirl*Truth-Seeker@aBitcoinGirl,"Right now...a Gold. oz = 2.191 #bitcoins / $1327.10
1 #Bitcoin + $605.58
1 #ETH = 0.0215 #bitcoin / $13.14",0,0,0,False
145,Sony Joseph@sjoseph,Takeaways from ethereum devcon2 - https://linkedin.com/pulse/ethereum-devcon2-beyond-sony-joseph… #devcon2 #ethereumEthereum Devcon2 and beyond...I started my trip to Devcon2 being on the fence with respect to Ethereum as a production ready platform. The initial plan was to build our solution on top of Ethereum but the hard fork had us on the...linkedin.com,1,1,0,False
146,Faith Emmanuel@residualbitcoin,Scam Alert: Phishing Emails from Fake #ethereum.org and MyEtherWallet Accounts #Scam http://ethnews.com/scam-alert-phishing-emails-from-fake-ethereumorg-and-myetherwallet-accounts…  #Res…,0,0,0,False
147,Ethereum SE@StackEthereum,Can I use Ethereum's Whisper protocol to transfer files? http://ethereum.stackexchange.com/questions/8874/can-i-use-ethereums-whisper-protocol-to-transfer-files… #ethereum #goethereum #web3js #whisper,0,0,0,False
148,BitcoinAgile@bitcoinagile,Scam Alert: Phishing Emails from Fake #ethereum.org and MyEtherWallet Accounts #Scam http://ethnews.com/scam-alert-phishing-emails-from-fake-ethereumorg-and-myetherwallet-accounts…,2,0,0,False
151,ETHNews@ETHNews_,#Scam Alert: #Phishing Emails from Fake http://Ethereum.org and MyEtherWallet Accounts #Ethereum #security http://ow.ly/1u14304Ck7E,1,1,0,False
152,Filip De Sutter@filip_desutter,Profound attention of the attendees during the #QueasoSystems GetTogether on #blockchain & #ethereum.,0,0,0,False
153,Dias Sébastien@lafourmirouge06,Can #Ethereum creator Vitalik Buterin Out-Bitcoin #Bitcoin? - http://fortune.com/ethereum-blockchain-vitalik-buterin/…,1,0,0,False
154,ZotSell@ZotSell,uml+acceleo to generate #ethereum solidity smart contracts http://buff.ly/2d9jqQ3,0,0,0,False
155,Faith Emmanuel@residualbitcoin,#ethereum vs Ethereum: Which Is the Ship of... - Mike Edward Moras (e-sushi) http://bitcoinagile.com/86A517/ethereum-vs-ethereum-which-is-the-ship-of-mike-edward-moras-e-sushi_stream… #ResidualBitcoin,0,0,0,False
156,bitcoin new's@jagga_dakku004,Want latest news about #Bitcoin #Faucets?Come here and join latest faucets https://goo.gl/8T7iLO #Altocin #ethereum #blockchain #secure.,0,0,0,False
157,bitcoin new's@jagga_dakku004,Want latest news about #Bitcoin #Faucets?Come here and join latest faucets https://goo.gl/8T7iLO #Altocin #ethereum #blockchain #secure,0,0,0,False
158,AltcoinLive bot@AltcoinLiveBot,updated $ETH sellwall 10.9btc @ 0.02189999 http://altcoinlive.com/bittrex-eth-btc #altcoinlive (change 0.00008400),0,0,0,False
159,Defi.Central@DefiCentral,"Counterparty Update 27/09/16 #ethereum VIRTUAL MACHINE and many more
https://goo.gl/dQ4A39
@CounterpartyXCP #altcoin #Bitcoin #crypto",0,0,0,False
160,Pravin Bhudiya@pravin_bhudiya,"Counterparty Update 27/09/16 #ethereum VIRTUAL MACHINE and many more
https://goo.gl/dQ4A39
@CounterpartyXCP #altcoin #Bitcoin #crypto",1,0,0,False
161,BitcoinAgile@bitcoinagile,#ethereum vs Ethereum: Which Is the Ship of... - Mike Edward Moras (e-sushi) http://bitcoinagile.com/86A517/ethereum-vs-ethereum-which-is-the-ship-of-mike-edward-moras-e-sushi_stream…,0,0,0,False
162,AltcoinLive bot@AltcoinLiveBot,updated $ETH sellwall 10.9btc @ 0.02181599 http://altcoinlive.com/bittrex-eth-btc #altcoinlive (change -0.00006406),0,0,0,False
163,Timo Ξberhard@ZhuBajie72,Weekly $ETHEUR #FTW...(!) #Ethereum #Ether $ETH @krakenfx >>> https://tradingview.com/chart/ETHEUR/foVh93BP-Weekly-ETHEUR-FTW/…,1,1,0,False
164,Malik@CryptoGoogle,"thats good for #etc. #btc #ethQuote TweetMorgen Peck@morgenpeck · Sep 27, 2016Wondering who's mining Ethereum Classic? Here are two miners I met in Shanghai, standing in front of their 33 GH facility.",0,0,0,False
165,Faith Emmanuel@residualbitcoin,"Im Giving a Talk on the #blockchain, #bitcoin, #ethereum and Steemit at the Famous Pubcon http://bitcoinagile.com/86A3FF/im-giving-a-talk-on-the-blockchain-bitcoin-ethereum-and-steemit-at-the-famous-pubcon-conference-in-las-vegas-nevada-usa_stream… …",0,0,0,False
166,ExploreTraveler@exploretravel1,RT @bitcoinagile: Microsoft Shows Interest and Support for #ethereum Classic - www.altcointodaycom #Bitcoin http://lnkplg.co/jqkz7 https:/…,1,0,0,False
167,Zesty Tech News@zesty_tech,"Microsoft Supports #Ethereum Classic, Hosts Meetup with Charles Hoskinson https://cointelegraph.com/news/microsoft-supports-ethereum-classic-hosts-meetup-with-charles-hoskinson…",3,2,0,False
168,CoinFollower@CoinFollowerCom,Ethereum Based US Gaming Company Raises $6 Mln in Crowdsale: #ethereum http://coinfollower.com/12689/Ethereum%20Based%20US%20Gaming%20Company%20Raises%20$6%20Mln%20in%20Crowdsale…,0,0,0,False
169,Ethereum UAE@Ethereum_UAE,Ethereum Based US Gaming Company Raises $6 Mln in Crowdsale http://ift.tt/2d3SPay #Ethereum,1,0,0,False
170,Marcellus King@korrupted,#WhenIWakeUpICrave #bitcoin because it's my birthday and I just got my passport in the mail. #worldwidecurrency #blockchain #ethereum,1,0,0,False
171,ETHNews@ETHNews_,#Microsoft and #BankofAmerica #MerrillLynch Collaborate to Work with #Azure #Ethereum http://ow.ly/yg1A304CjY7 #pressrelease,6,0,0,False
172,Topcrypostats@topcrypostats,"Ethereum Classic - ETC
Price: $1.18513
Change in 1h: +-0.32%
Market cap: $99952738.0
Ranking: 6
#Ethereum Classic #ETC",0,0,0,False
173,Topcrypostats@topcrypostats,"Ethereum - ETH
Price: $13.1629
Change in 1h: +-0.11%
Market cap: $1110877276.0
Ranking: 2
#Ethereum #ETH",0,0,0,False
174,BitcoinBuzz vega9@BitcoinBuzzV9,http://bitcoinbuzz.vega9.com - Hot topics: #ethereum #bitcoin #blockchain #manila #btc #fintech,0,0,0,False
175,Раб Божий@Diener_Gottes,#Ethereum Based US #Gaming Company Raises $6 Mln in #Crowdsale: <![CDATA[ Ethereum based US… http://goo.gl/fb/kUybQh,0,0,0,False
176,Bitcoin Directory@dir4bc,#Ethereum Based US #Gaming Company Raises $6 Mln in #Crowdsale: Ethereum based US gaming… http://dlvr.it/MLd7rC,0,0,0,False
177,Widget 4 Bitcoin@widget4bc,#Ethereum Based US #Gaming Company Raises $6 Mln in #Crowdsale: Ethereum based US gaming… http://dlvr.it/MLd7rt,0,0,0,False
178,4BC@aff4bc,#Ethereum Based US #Gaming Company Raises $6 Mln in #Crowdsale: Ethereum based US gaming… http://dlvr.it/MLd7qT,0,0,0,False
179,AltcoinLive bot@AltcoinLiveBot,updated $ETH sellwall 10.9btc @ 0.02188005 http://altcoinlive.com/bittrex-eth-btc #altcoinlive (change -0.00005723),0,0,0,False
180,LAPITH@bhumharit,RT: #Ethereum Based US Gaming Company Raises $6 Mln in Crowdsale https://cointelegraph.com/news/ethereum-based-us-gaming-company-raises-6-mln-in-crowdsale…,0,0,0,False
181,LAPITH@bhumharit,#Ethereum Based US Gaming Company Raises $6 Mln in Crowdsale https://cointelegraph.com/news/ethereum-based-us-gaming-company-raises-6-mln-in-crowdsale…,0,0,0,False
182,BTCMANAGER@btc_manager,"Read our Weekly Report on #cryptocurrency Every Week!
https://btcmanager.com/price-pages/weekly-report/weekly-cryptocurrency-market-outlook-sep-27/…
#bitcoin #ethereum #litecoin #monero #XRP #XMR #BTC #ETH",2,3,0,False
183,BlackBullTradingPost ₿   @BlackBullTradn,CoinTelegraph: #Ethereum Based US Gaming Company Raises $6 Mln in Crowdsale https://cointelegraph.com/news/ethereum-based-us-gaming-company-raises-6-mln-in-crowdsale…,0,0,0,False
184,Cointelegraph@Cointelegraph,"#Ethereum Based US Gaming Company Raises $6 Mln in CrowdsaleEthereum Based US Gaming Company Raises $6 Mln in CrowdsaleEthereum based US gaming company claims to have raised over $6Mln in Ether (465,312.999 ETH) few minutes after it launched its crowdsale on 26 Sept 2016.cointelegraph.com",36,35,1,False
185,/r/Ethereum@r_Ethereum,Deploying a private Ethereum blockchain to Microsoft Azure Cloud http://bit.ly/2dzZ0Su #EthereumDeploying a private Ethereum blockchain to Microsoft Azure CloudPosted in r/ethereum by u/Bidofthis • 11 points and 1 commentreddit.com,2,0,0,False
186,Blockchain times@crypto_days,"Op-Ed: Ethereum vs Ethereum: Which Is the Ship of Theseus?https://bitcoinmagazine.com/articles/ethereum-vs-ethereum-which-is-the-ship-of-theseus-1474991313…
#Ethereum #Altcoin #Cryptocurrencies",1,0,0,False
187,Decentral@DECENTRALca,"#Ethereum-based @firstbloodio raised $5 mil in mere minutes! http://ow.ly/pGes304Adzr #blockchain #esport #disruptive #technewsEthereum-based eSports Platform FirstBlood Raises US$5.5m in Mere MinutesCrowdfunding campaigns in the cryptocurrency world are nothing new under the sun. Despite best efforts by developers and marketers to create promising products, not every round of funding is a big sucthemerkle.com",4,1,0,False
188,Ethereum Canada@EthereumCanada,"#Ethereum-based @firstbloodio raised $5 mil in mere minutes! http://ow.ly/pGes304Adzr #blockchain #esport #disruptive #technewsEthereum-based eSports Platform FirstBlood Raises US$5.5m in Mere MinutesCrowdfunding campaigns in the cryptocurrency world are nothing new under the sun. Despite best efforts by developers and marketers to create promising products, not every round of funding is a big sucthemerkle.com",3,2,0,False
189,Nimiq Rocks @NimCrypto,Can this 22-year-old coder out-Bitcoin Bitcoin? via @FortuneMagazine http://for.tn/2cFpZdF?xid=for_tw_sh… $ETH $BTC,0,0,0,False
190,David Liam@crazydaveorama,#Ethereum #ETH and #ETC) Price Trends (Week of September 26th) https://cointelegraph.com/news/ethereum-eth-and-etc-price-trends-week-of-september-26th…,1,0,0,False
191,Bo@bobear013,"Nice article #Nxt #bitcoin #ethereumQuote TweetNxt@NxtCommunity · Sep 27, 2016#Nxt in Citizen #blockchain article.
http://assetservicingtimes.com/specialistfeatures/specialistfeature.php?specialist_id=162#.V-qVYUF1HqB…
@ASTimes_ #governance #Ardor #Nxtfoundation",1,0,0,False
192,#bitcoinlightning | taproot @bgcoin,"Can this 22-year-old coder out-Bitcoin Bitcoin? http://for.tn/2cFpZdF?xid=for_tw_sh…
#bitcoin #blockchain #ethereum",0,0,0,False
193,Faith Emmanuel@residualbitcoin,Why We Need #blockchain Gambling is About Privacy and Security #ethereum #gambling http://bitcoinagile.com/869FAF/why-we-need-blockchain-gambling-is-about-privacy-and-security_stream…  #Resid…,0,0,0,False
194,Faith Emmanuel@residualbitcoin,#ethereum vs Ethereum: Which Is the Ship of Theseus? http://bitcoincoco.blogspot.com/2016/09/ethereum-vs-ethereum-which-is-ship-of.html…  #ResidualBitcoin,0,0,0,False
195,BitcoinAgile@bitcoinagile,Why We Need #blockchain Gambling is About Privacy and Security #ethereum #gambling http://bitcoinagile.com/869FAF/why-we-need-blockchain-gambling-is-about-privacy-and-security_stream…,3,0,0,False
196,Finance Magnates@financemagnates,"This “Uber for fund management”, #Ethereum based firm raised $5.8m in #Crowdsale http://buff.ly/2cIrMi2",1,0,0,False
197,SCREED EMPEROR@EtherPit,Corner Store Shananigans #GuinessStout #Nyc #EtherPit #Ether #OockWuddup #RareSquats https://instagram.com/p/BK3aYqKDYT0/,0,0,0,False
198,AltcoinLive bot@AltcoinLiveBot,updated $ETH sellwall 11.0btc @ 0.02193728 http://altcoinlive.com/bittrex-eth-btc #altcoinlive (change -0.00005489),0,0,0,False
199,BitcoinAgile@bitcoinagile,#ethereum vs Ethereum: Which Is the Ship of Theseus? http://bitcoincoco.blogspot.com/2016/09/ethereum-vs-ethereum-which-is-ship-of.html…,0,0,0,False
200,ETHNews@ETHNews_,#Ether Price Trading & Technical Outlook Turns Positive #Ethereum #ETH http://ow.ly/YAZJ304Cc9M,1,2,0,False
201,Ben Buehler@thebenbuehler,#modchem Unit3 addition. Find variables that influence how a match can change the temp of a liquid.  Ss look at mass and fluid type #Eth,2,0,0,False
202,BitcoinAgile@bitcoinagile,Microsoft Shows Interest and Support for #ethereum Classic - www.altcointodaycom #Bitcoin http://linkplugapp.com/X667r,0,0,0,False
203,ExploreTraveler@exploretravel1,RT @bitcoinagile: Microsoft Shows Interest and Support for #ethereum Classic http://lnkplg.co/X667r,1,1,0,False
204,Alberto Jauregui | esoteRICK.eth @DisruptBanksy,http://ift.tt/2dzUYK0 Ethereum vs Ethereum: Which Is the Ship of Theseus? - Bitcoin Magazine #ethereum #ether,0,0,0,False
205,AltcoinLive bot@AltcoinLiveBot,updated $ETH sellwall 11.0btc @ 0.02199217 http://altcoinlive.com/bittrex-eth-btc #altcoinlive (change 0.00005746),0,0,0,False
206,Brave New Coin@bravenewcoin,#Ethereum Classic Price: USD $1.19 #ETC http://ow.ly/QXxZ303j19Q,0,0,0,False
207,novanputra@novanputra333,“Uber for Fund Management” #Ethereum-based #ICONOMI Raises $5.8m in... http://ln.is/qWfAP by @LionTellSecrets via @c0nvey,0,0,0,False
208,Blockgeeks@Blockgks,"Who is working on a blockchain powered sustainable energy solutions?
http://dld.bz/eVxaY #ethereum #blockchain",5,0,0,False
209,Topcrypostats@topcrypostats,"Ethereum Classic - ETC
Price: $1.18873
Change in 1h: +-0.12%
Market cap: $100254822.0
Ranking: 6
#Ethereum Classic #ETC",0,0,0,False
210,Topcrypostats@topcrypostats,"Ethereum - ETH
Price: $13.169
Change in 1h: +0.14%
Market cap: $1111371973.0
Ranking: 2
#Ethereum #ETH",0,0,0,False
211,Bobe'bot@Bobe_bot,"1 #BTC = 603.8451 #CHF
1 #ETH = 13.4603 #CHF
1 #DOGE = 0.00022425856 #CHF
sources: @cryptonatorcom @hellobity",0,0,0,False
212,Ethereum UAE@Ethereum_UAE,Ethereum vs Ethereum: Which Is the Ship of Theseus? http://ift.tt/2cAqkzR #Ethereum,0,0,0,False
213,Ethereum UAE@Ethereum_UAE,"Understanding Soft Forks: A Core Developer’s View on Network Monopoly http://ift.tt/2d6AKGC #EthereumUnderstanding Soft Forks: A Core Developer’s View on Network MonopolySince the beginning of the development of Segregated Witness, an increasing number of alternative Bitcoin hard fork supporters have criticized thebitcoinmagazine.com",2,0,0,False
214,Nick Migwi@nc254,#Gopro tried to #Takeover  but just got #Ether'd by #DJIMavicPro https://google.co.uk/amp/www.forbes.com/sites/ianmorris/2016/09/27/dji-mavic-pro-drone-leaked-totally-spoils-gopros-month/amp/?client=safari…,0,0,0,False
215,/r/Augur@AugurFeed,#reddit Just changed my address... http://bit.ly/2dpifiz #ethereum #augurJust changed my address...Hi everyone! There was some confusion as to which account had my actual balance and I just realised it was the wrong one. I couldn't find the key...reddit.com,0,0,0,False
216,Faith Emmanuel@residualbitcoin,Op-Ed: #ethereum vs Ethereum: Which Is the Ship of Theseus? https://bitcoinmagazine.com/articles/ethereum-vs-ethereum-which-is-the-ship-of-theseus-1474991313…  #ResidualBitcoin,0,0,0,False
217,Jing is hiring for Optimism @jinglanW,"SUCH A GOOD HIRE. #Bitcoin & #Ethereum startups especially would be remiss to miss this mister. This kid gets shit done.Quote TweetDan Elitzer @delitzer · Sep 27, 2016Need dev w js/java/golang & ETH smart contract exp? @MITBitcoinClub prez @firescar96 is graduating in June. Hit him up.",8,3,0,False
218,Alberto Jauregui | esoteRICK.eth @DisruptBanksy,http://ift.tt/2dwIpMB Can Ethereum-creator Vitalik Buterin Out-Bitcoin the Bitcoin? - Fortune - Fortune #ethereum #ether,1,0,0,False
219,BitcoinAgile@bitcoinagile,Op-Ed: #ethereum vs Ethereum: Which Is the Ship of Theseus? https://bitcoinmagazine.com/articles/ethereum-vs-ethereum-which-is-the-ship-of-theseus-1474991313…,1,0,0,False
220,Stock Rover@stockrover,Need fresh investing ideas? Check out these 6 stocks for your watchlist #smallcap #midcap #largecap $ETH $TTC $DAL http://ow.ly/lXX8304BZ4l,0,0,0,False
221,Crypto Price Ticker@TickerCrypto,"#Ethereum #ETH Rank:2 Last:฿0.02175077(2.359%) High:Buy Instantly! on  Low:฿0.02176468 Vol:฿8,065 Market Cap:฿1,835,589 / $1,107,710,577.26",0,0,0,False
222,Faith Emmanuel@residualbitcoin,150  Devcon 2 And The State Of #ethereum - #bitcoin Newsline #fintech #blockchain #finance http://bitcoinagile.com/869C40/150-devcon-2-and-the-state-of-ethereum-bitcoin-newsline_stream… …,0,0,0,False
223,Faith Emmanuel@residualbitcoin,Weekly Cryptocurrency Market Outlook Sep. 27 #ethereum #bitcoin #cryptocurrency #litecoin https://btcmanager.com/price-pages/weekly-report/weekly-cryptocurrency-market-outlook-sep-27… …,0,0,0,False
224,#bitcoinlightning | taproot @bgcoin,"Microsoft and BAML team up on blockchain-based trade finance project http://reut.rs/2d31quq
#bitcoin #blockchain #trade #finance #ethereumMicrosoft and BAML team up on blockchain-based trade finance projectMicrosoft and Bank of America Merrill Lynch have joined forces on a project to use blockchain technology to make trade finance transactions faster, cheaper, safer and more transparent, the companies...reuters.com",0,0,0,False
225,BitcoinAgile@bitcoinagile,150  Devcon 2 And The State Of #ethereum - #bitcoin Newsline #fintech #blockchain #finance http://bitcoinagile.com/869C40/150-devcon-2-and-the-state-of-ethereum-bitcoin-newsline_stream…,1,0,0,False
226,GX-Coin@gx_coin,"#Blockchain is making inroads in #shipping http://ow.ly/Nu6u304A6UJ #bitcoin #ethereum #cryptocurrencyBlockchain Makes Inroads in ShippingMarine Transport International Ltd., a U.K.-based freight fowarder, says the technology behind bitcoin is a “natural fit” for shippers by creating a real-time digital ledger of data for use by...wsj.com",0,0,0,False
227,Netcube93@Netcube93,#FCT #FACTOM – READY TO JUMP? https://coincurrencynews.com/2016/09/26/fct-factom-ready-to-jump/… #bitcoin #blockchain #ethereum,0,0,0,False
228,BitcoinAgile@bitcoinagile,Weekly Cryptocurrency Market Outlook Sep. 27 #ethereum #bitcoin #cryptocurrency #litecoin https://btcmanager.com/price-pages/weekly-report/weekly-cryptocurrency-market-outlook-sep-27…,2,0,0,False
229,BTCMANAGER@btc_manager,"Read our Weekly Report on #cryptocurrency Every Week!
https://btcmanager.com/price-pages/weekly-report/weekly-cryptocurrency-market-outlook-sep-27/…
#bitcoin #ethereum #litecoin #monero #altcoins #XMR #BTC #ETH",4,5,0,False
230,Faith Emmanuel@residualbitcoin,Gavin Andresen: #ethereum Will Outgrow #bitcoin http://justlinkit.io/articles/2054750/Gavin+Andresen%3A+Ethereum+Will+Outgrow+Bitcoin.html…  #ResidualBitcoin,0,0,0,False
231,Faith Emmanuel@residualbitcoin,Microsoft Shows Interest and Support for #ethereum Classic http://bitcoinagile.com/869976/microsoft-shows-interest-and-support-for-ethereum-classic_stream…  #ResidualBitcoin,0,0,0,False
232,Ram@hiddentao,Intelligently scan for and download #ethereum client binaries when needed. Would love to add Parity! @ethcoreproject http://j.mp/2d0XpSR,2,2,0,False
233,/r/Ethereum@r_Ethereum,Colony is hiring: Front End Developer http://bit.ly/2d6yLCd #EthereumColony is hiring: Front End DeveloperPosted in r/ethereum by u/AttaAtta • 20 points and 27 commentsreddit.com,0,0,0,False
234,/r/Ethereum@r_Ethereum,Parity node on a Synology NAS box - advice? http://bit.ly/2dwBOSc #Ethereum,0,0,0,False
235,竜茶色@ryuchairo,Tapping into the #ether while i tickle the keys on my laptop... ♫ http://spoti.fi/1m5bReM,0,0,0,False
236,BitcoinAgile@bitcoinagile,Gavin Andresen Causes A Stir With Controversial #ethereum Nodes Comments #bitcoin http://justlinkit.io/articles/2054751/Gavin+Andresen+Causes+A+Stir+With+Controversial+Ethereum+Nodes+Comments.html…,0,0,0,False
237,BitcoinAgile@bitcoinagile,Microsoft Shows Interest and Support for #ethereum Classic http://bitcoinagile.com/869976/microsoft-shows-interest-and-support-for-ethereum-classic_stream…,0,0,0,False
238,ExploreTraveler@exploretravel1,RT @ArcadeCityHall: First rideshare request on IPFS: http://lnkplg.co/qaamX ~ Follow ACv2.0 #ethereum prototype progress on GitHub: https:…,0,0,0,False
239,Topcrypostats@topcrypostats,"Ethereum Classic - ETC
Price: $1.19078
Change in 1h: +0.44%
Market cap: $100426100.0
Ranking: 6
#Ethereum Classic #ETC",0,0,0,False
240,Topcrypostats@topcrypostats,"Ethereum - ETH
Price: $13.1472
Change in 1h: +0.21%
Market cap: $1109511060.0
Ranking: 2
#Ethereum #ETH",0,0,0,False
241,Ethereum Price@EthereumPrice_,"#Ethereum: Ether Price Index
1 ETH =0.021692Ƀ XBT = $13.114835 USD
Today: +2.82%⬆︎ Last 24h: +18.77%⬆︎
https://ethereum-price.com",1,0,0,False
242,Silicon Republic@siliconrepublic,"Deloitte's #blockchain experts examine the #Ethereum hard fork https://siliconrepublic.com/enterprise/ethereum-hard-fork-deloitte-grid-blockchain-lab…
@DeloitteUK @DeloitteIrelandBlockchain experts get to the point of the Ethereum hard forkDeloitte’s Grid Blockchain Lab shares opinions on Ethereum hard fork – the most significant event in cryptoeconomics since bitcoin.siliconrepublic.com",3,4,0,False
243,Steve Tunstall@TunstallAsc,Delaware appoints #blockchain ombudsman to lead #distributed #ledger initiative http://pepperlaw.com/publications/blockchain-and-public-securities-shedding-light-on-going-dark-2016-09-27/… #vc #ethereum #risk #insurtech,6,5,0,False
244,Seeking Alpha@SeekingAlpha,"6 Quality Stocks To Keep An Eye On http://seekingalpha.com/article/4008680-6-quality-stocks-keep-eye?source=feed_f… $CTAS $DAL $ETH $EXLS $GNTX $TTC6 Quality Stocks To Keep An Eye OnWe do a first round of research on 6 promising investment candidates, focusing on quantitative factors, but with some qualitative information taken into account as well.seekingalpha.com",0,0,0,False
245,⛧ God of Gaming ⛧@TheGodofGamez,"Hope arouses, as nothing else can arouse, a passion for the possible. $ETH",1,0,0,False
246,O.@oshizz215,Replying to @itsYONASnothing will compare to Nas/Jay-Z beef. They had the respect for each other to keep it a lyrical and not physical battle. #ether,1,0,0,False
247,vDice@vDice_io,"#Blockchain gets a push in Shanghai: ‘A shared version of the truth’ http://on.wsj.com/2cEbBm1 via @chinarealtime
#ethereumBlockchain Gets a Push in Shanghai: ‘A Shared Version of the Truth’Huddle several hundred bankers, regulators and geeks into a hotel and you’ll hear how the technology that underpins the internet currency bitcoin is on the brink of changing how the world tracks...wsj.com",0,0,0,False
248,RONNIEROCKET.COM@ronnierocket,This is HUGE: http://newsroom.bankofamerica.com/press-releases/corporate-and-investment-banking-sales-and-trading-treasury-services/microsoft-and-ba… #BaaS #blockchain #azure #ethereum #microsoft #bankofamerica #bitcoin,1,0,0,False
249,Inspheer S.r.l.@inspheer,Proud to be sponsor of @ethereumita  meetup! #ethereum #blockchain #smartcontract @LeonPedretti @giuliogn @jacoped @ethereumproject,2,2,0,False
250,AltcoinLive bot@AltcoinLiveBot,updated $ETH sellwall 11.0btc @ 0.02193471 http://altcoinlive.com/bittrex-eth-btc #altcoinlive (change 0.00005512),0,0,0,False
251,Steven Nerayoff@stevennerayoff,Fortune: Can This 22-year-old Coder Out-Bitcoin the Bitcoin? http://fortune.com/ethereum-blockchain-vitalik-buterin/… #bitcoin #ethereum #blockchain,1,1,0,False
252,enricotalin@enricotalin,uml+acceleo to generate #ethereum solidity smart contracts http://buff.ly/2d9jYVT,0,0,0,False
253,Bitcoin Brasil@BitcoinBr10,The latest Bitcoin Price Index is $603.12 USD http://bitcoinbrasil10.blogspot.com.br #Bitcoin #blockchain #bitcoinprice #ethereum #altcoin #btc #crypto,1,0,0,False
254,йеремиас@neptox,"#Bitcoin is one #blockchain app. Not more, not less. Don't underestimate the reach of modern #peer-to-peer. It's gonna be huge! #Ethereum",1,0,0,False
255,John Galt@_J0hnGalt_,"While you think, time remains less.http://ico.iconomi.net @iconominet
#ICONOMI #ICO #blockchain #cryptocurrency #ethereum",1,1,0,False
256,CryptoCompare@CryptoCompare,"Choosing a good graphic card to mine #Ethereum with can be a real headache! #CryptocurrencyHow to choose a GPU to mine Ether with?Mining Ethereum can be done in a variety of ways - you can buy a cloud contract and get someone else to do all the hard work for you, or you can do it yourself and get your GPU, or Graphics Card, up...cryptocompare.com",2,1,0,False
257,Karlsson@Karlsson_Roof,“Uber for Fund Management” #Ethereum-based #ICONOMI Raises $5.8m in #Crowdsale http://ln.is/18on1 vi... by @iconominet via @c0nvey,1,2,1,False
258,Topcrypostats@topcrypostats,"Ethereum Classic - ETC
Price: $1.18557
Change in 1h: +-0.28%
Market cap: $99985162.0
Ranking: 6
#Ethereum Classic #ETC",0,0,0,False
259,Topcrypostats@topcrypostats,"Ethereum - ETH
Price: $13.1257
Change in 1h: +0.18%
Market cap: $1107675762.0
Ranking: 2
#Ethereum #ETH",0,0,0,False
260,BitPython@bitpython,"Join us at http://TuxExchange.com chat box and recieve some ETH to check it out !
#Ethereum
@NewsEthereum
@ethereum_mag
@ethereumproject",2,2,0,False
261,NiceHash@NiceHashMining,"#Ethereum is skyrocketing, we're currently paying 16% more. It is crazy! #mining #eth #etc #bitcoin #daggerhashimoto",2,1,0,False
262,Joni Collinge@dotjson,Syncing the #ethereum blockchain... gives me time to catch up on #ignite2016,0,0,0,False
263,Pravin Bhudiya@pravin_bhudiya,Guide-Use MyEtherWallet to participate in FirstBlood Crowdsale Critical Update https://goo.gl/aAC2ev @firstbloodio #ethereum #altcoin,3,2,0,False
264,TrustForums@TrustForums,Want latest news about #Bitcoin #Faucets?Come here and join latest faucets https://goo.gl/8T7iLO #Altocin #ethereum #blockchain #secure.,0,0,0,False
265,CloudPay@Nadia_Griffiths,Gavin Andresen: #Ethereum Will Outgrow #Bitcoin http://ln.is/www.newsbtc.com/2016/4SPFP…,1,1,0,False
266,TrustForums@TrustForums,Want latest news about #Bitcoin #Faucets?Come here and join latest faucets https://goo.gl/8T7iLO #Altocin #ethereum #blockchain #secure,0,0,0,False
267,RANT KING COLE 天@bladegodsyg,"My shirt came! #ETHER, http://flic.kr/p/MAFkPd",1,0,0,False
268,Binary Lawyer@BinaryLawyer,#Blockchain Stakeholders Forge Governance Strategy #ethereumBlockchain Stakeholders Forge Governance StrategyAn array of figures in the digital-currency space—led by a prominent Canadian technologist—recently met to talk governance for the blockchain.associationsnow.com,0,0,0,False
269,creme.ai@creme_ai,Best #Ethereum headline ever. Even without mentioning it. http://fortune.com/ethereum-blockchain-vitalik-buterin/…,1,0,0,False
270,CoinFollower@CoinFollowerCom,Investment Bank Praises Bitcoin Core Scaling Roadmap in Price Report: #ethereum http://coinfollower.com/12669/Investment%20Bank%20Praises%20Bitcoin%20Core%20Scaling%20Roadmap%20in%20Price%20Report…,1,0,0,False
271,Datarella@Datarella,Santander to become first bank to issue cash on #Ethereum #blockchain http://coindesk.com/santander-vies-become-first-bank-issue-digital-cash-blockchain/…,1,3,0,False
272,Kalel Kristoff Ripdos @KalelRipdos,I just made a right choice to join this platform. Its really worth it.  #ethtrade #ethereum #bitcoin #investment #makemoneyonline,4,2,0,False
273,Blockgeeks@Blockgks,Would you like early access to BlockGeeks #Blockchain Community? Sign up here http://blockgeeks.com #ethereum,0,0,0,False
274,Topcrypostats@topcrypostats,"Ethereum Classic - ETC
Price: $1.18862
Change in 1h: +-0.07%
Market cap: $100241015.0
Ranking: 6
#Ethereum Classic #ETC",0,0,0,False
275,ExploreTraveler@exploretravel1,RT @bitcoinagile: Uber for Fund Management #ethereum-based ICONOMI Raises $5.8m in Crowdsale  Finance Magnates http://lnkplg.co/6mmln http…,1,1,0,False
276,Topcrypostats@topcrypostats,"Ethereum - ETH
Price: $13.1014
Change in 1h: +0.08%
Market cap: $1105606293.0
Ranking: 2
#Ethereum #ETH",0,0,0,False
277,Ethereum UAE@Ethereum_UAE,Bitcoin Takes on Eastern Europe as Blockchain & Bitcoin Conference Lands in Kiev http://ift.tt/2doJwS3 #Ethereum,1,0,0,False
278,Patrizio Stavola@halovast,#Ethereum’s power lies in ability to automate complex relationships encoded in so-called #smartcontracts http://for.tn/2cFpZdF #bitcoin,1,0,0,False
279,creme.ai@creme_ai,RBS tests #Ethereum blockchain for domestic payments system https://ethereumheadlines.com/2016/09/27/rbs-tests-ethereum-blockchain-for-domestic-payments-system/…,1,0,0,False
280,Alberto Jauregui | esoteRICK.eth @DisruptBanksy,http://ift.tt/2cSlzxW “Uber for Fund Management” Ethereum-based ICONOMI Raises $5.8m in Crowdsale - Finance Magnates #ethereum #ether,0,0,0,False
281,UAU fund@UAUfund,"We will see firstblood on @BitMEXdotcom ?
#ethereum",0,0,0,False
282,Bijon Mehta@bijonmehta,“Uber for Fund Management” Ethereum-based ICONOMI Raises $5.8m in Crowdsale #fintech #fundmanagement #ethereum http://financemagnates.com/cryptocurrency/trading/uber-for-fund-management-ethereum-based-iconomi-raises-5-8m-in-crowdsale/…,2,0,0,False
283,AltcoinWeekly@altcoinweekly,The latest Ethereum price is USD 13.04. For historical #Ethereum price charts - http://buff.ly/2dcPSkt,0,0,0,False
284,CoinGecko@coingecko,The latest Ethereum price is USD 13.04. For historical #Ethereum price charts - http://buff.ly/2dcPRNr,0,0,0,False
285,Ethereum SE@StackEthereum,How to get string from hex on Smart Contracts results [duplicate] http://ethereum.stackexchange.com/questions/8870/how-to-get-string-from-hex-on-smart-contracts-results… #ethereum #contractdevelopment #web3js #string,0,0,0,False
286,George@_Georgeth_,Awesome article on @VitalikButerin and @ethereumproject from @FortuneMagazine http://fortune.com/ethereum-blockchain-vitalik-buterin/… #blockchain #ethereum #story,9,5,0,False
287,Faith Emmanuel@residualbitcoin,9/27 Fortune Article: Can This 22-Year-Old Coder Out-#bitcoin The Bitcoin? • /r/#ethereum https://reddit.com/r/ethereum/comments/54q7dk/927_fortune_article_can_this_22yearold_coder… #ResidualBitcoin9/27 Fortune Article: Can This 22-Year-Old Coder Out-Bitcoin The...Posted in r/ethereum by u/shakedog • 262 points and 63 commentsreddit.com,0,0,0,False
288,Ethereum Monkey@EthMonkey,"""Uber for Fund Management"" Ethereum-based ICONOMI Raises $5.8m in Crowdsale #ethereum http://financemagnates.com/cryptocurrency/trading/uber-for-fund-management-ethereum-based-iconomi-raises-5-8m-in-crowdsale/…",0,0,0,False
289,BitcoinAgile@bitcoinagile,9/27 Fortune Article: Can This 22-Year-Old Coder Out-#bitcoin The Bitcoin? • /r/#ethereum9/27 Fortune Article: Can This 22-Year-Old Coder Out-Bitcoin The...Posted in r/ethereum by u/shakedog • 262 points and 63 commentsreddit.com,0,0,0,False
290,John C. Maxwell III@maxjcm,#Ethereum wants to use the technology to disrupt out-#Bitcoin the Bitcoin with $160m war chest http://fortune.com/ethereum-blockchain-vitalik-buterin/…,1,1,0,False
291,Monterey Mule@themontereymule,"Ethereum is a great concept. I love the integration of technology as well as a practical decentralized currency tied to it.
#ethereum",1,0,0,False
292,indxio@indxio,#Russia Market Close || #Bitcoin: $605 | 538.35 EUR||  #Litecoin: 0.0032 BTC  || #Ethereum: 0.0216 BTC   || $BTC $LTC $ETH $RUB,0,0,0,False
293,AltcoinLive bot@AltcoinLiveBot,updated $ETH sellwall 10.9btc @ 0.02187959 http://altcoinlive.com/bittrex-eth-btc #altcoinlive (change 0.00006517),0,0,0,False
294,Timo Ξberhard@ZhuBajie72,Replying to @ZhuBajie72Very bullish new 4h... #Ethereum #Ether $ETH $ETHXBT @krakenfx,0,0,0,False
295,AltcoinLive bot@AltcoinLiveBot,updated $ETH sellwall 10.9btc @ 0.02181442 http://altcoinlive.com/bittrex-eth-btc #altcoinlive (change -0.00005867),0,0,0,False
296,Brave New Coin@bravenewcoin,#Ethereum Classic Price: USD $1.19 #ETC http://ow.ly/QXxZ303j19Q,1,0,0,False
297,Blockgeeks@Blockgks,"Join today! Blockgeeks is a #Blockchain innovation hub 
& marketplace http://blockgeeks.com #Bitcoin #Ethereum",0,0,0,False
298,Faith Emmanuel@residualbitcoin,Uber for Fund Management #ethereum-based ICONOMI Raises $5.8m in Crowdsale  Finance Magnates http://linkplugapp.com/vaaAj …“Uber for Fund Management” Ethereum-based ICONOMI Raises $5.8m in Crowdsale | Finance MagnatesThe platform will provide infrastructure and guidelines for funds with varying levels of expected yield and risk profiles.linkplugapp.com,0,0,0,False
299,Faith Emmanuel@residualbitcoin,Uber for Fund Management #ethereum-based ICONOMI Raises $5.8m in Crowdsale  Finance Magnates http://financemagnates.com/cryptocurrency/trading/uber-for-fund-management-ethereum-based-iconomi-raises-5-8m-in-crowdsale… …,1,0,0,False
300,MeeseeksBTC@Meeseeks100BTC,"RT Start mining $ETH or $BTC together with people from all over the world.

https://goo.gl/tYClLG",0,0,0,False
301,Topcrypostats@topcrypostats,"Ethereum Classic - ETC
Price: $1.19045
Change in 1h: +-0.41%
Market cap: $100393714.0
Ranking: 6
#Ethereum Classic #ETC",0,0,0,False
302,BitcoinAgile@bitcoinagile,Uber for Fund Management #ethereum-based ICONOMI Raises $5.8m in Crowdsale  Finance Magnates http://linkplugapp.com/vaaAj,1,0,0,False
303,ExploreTraveler@exploretravel1,RT @bitcoinagile: Uber for Fund Management #ethereum-based ICONOMI Raises $5.8m in Crowdsale  Finance Magnates http://lnkplg.co/vaaAj http…,0,0,0,False
304,Topcrypostats@topcrypostats,"Ethereum - ETH
Price: $13.0843
Change in 1h: +-0.39%
Market cap: $1104142674.0
Ranking: 2
#Ethereum #ETH",0,0,0,False
305,Раб Божий@Diener_Gottes,#Ethereum (ETH and ETC) Price Trends (Week of September 26th): <![CDATA[ A small rise in… http://goo.gl/fb/uBWoMd,0,0,0,False
306,AltcoinLive bot@AltcoinLiveBot,updated $ETH sellwall 10.9btc @ 0.02181526 http://altcoinlive.com/bittrex-eth-btc #altcoinlive (change -0.00005982),0,0,0,False
307,Faith Emmanuel@residualbitcoin,#6: Investing In #ethereum: The Complete Guide To Smart Investing  Learn How To Easily http://bitcoinagile.com/868890/6-investing-in-ethereum-the-complete-guide-to-smart-investing-learn-how-to-easily-profit-from-cryptocurrencies-pick-your-book_stream…  #R…,0,0,0,False
308,Ethereum SE@StackEthereum,How to get string from hex on Smart Contracts results http://ethereum.stackexchange.com/questions/8870/how-to-get-string-from-hex-on-smart-contracts-results… #ethereum #contractdevelopment #web3js #string #console,0,0,0,False
309,Dr BitcoiN { #BTC }  BlockchaiN RevolutioN@Crypto_Odyssey,"#Blockchain powered #fintech ICONOMI raises $5.8m in crowdsale - https://uk.finance.yahoo.com/news/blockchain-powered-iconomi-raises-5-165708027.html… #EthereumBlockchain-powered ICONOMI raises $5.8m in crowdsaleEthereum-based Fund management platform ICONOMI has raised approximately $5.8m in equity and operational capital through an Initial Coin Offering (ICO). Developed by the team at Cashila, ICONOMI is...uk.finance.yahoo.com",0,0,0,False
310,BitcoinAgile@bitcoinagile,#6: Investing In #ethereum: The Complete Guide To Smart Investing  Learn How To Easily http://bitcoinagile.com/868890/6-investing-in-ethereum-the-complete-guide-to-smart-investing-learn-how-to-easily-profit-from-cryptocurrencies-pick-your-book_stream…,1,0,0,False
311,CoinFollower@CoinFollowerCom,Ethereum (ETH and ETC) Price Trends (Week of September 26th): #ethereum http://coinfollower.com/12660/Ethereum%20(ETH%20and%20ETC)%20Price%20Trends%20(Week%20of%20September%2026th)…,0,0,0,False
312,Crypto Trader Pro @CryptoTraderPro,#Ethereum Classic Price Technical Analysis – Selling #ETC Worked.… http://dlvr.it/MLXPcn #Ethereum #ETC,0,0,0,False
313,NEWSBTC@newsbtc,#Ethereum Classic Price Technical Analysis – Selling #ETC Worked. http://bit.ly/2d05Iz9,2,2,0,False
314,Stéphane Bortzmeyer@bortzmeyer,"#geth high-traffic issue https://framapic.org/SZDLGH3ws1RY/fUUPTpfNRi4z?t… apparently solved by the last patch https://twitter.com/ethereumproject/status/780347612184600576… #Ethereum #myLife #sysAdminQuote TweetEthereum@ethereum · Sep 26, 2016New Geth release (Into the Woods - v1.4.13) addresses the current DoS attack and improves on last week's issues. https://github.com/ethereum/go-ethereum/releases/tag/v1.4.13…",1,0,0,False
315,Millwright@sasquatch3001,Replying to @Technom4ge$ETH (DAPPS) & $XMR (anon trxs) are  greater risk to Bitcoin than govt.  http://coinmarketcap.com shows mkt share loss.,1,0,0,False
316,Bitcoin Directory@dir4bc,#Ethereum (ETH and ETC) Price Trends (Week of September 26th): A small rise in Ethereum's… http://dlvr.it/MLXDGC,0,0,0,False
317,4BC@aff4bc,#Ethereum (ETH and ETC) Price Trends (Week of September 26th): A small rise in Ethereum's… http://dlvr.it/MLXDHB,0,0,0,False
318,Widget 4 Bitcoin@widget4bc,#Ethereum (ETH and ETC) Price Trends (Week of September 26th): A small rise in Ethereum's… http://dlvr.it/MLXDGD,0,0,0,False
319,Cointelegraph@Cointelegraph,#Ethereum (ETH and ETC) Price Trends (Week of September 26th) https://cointelegraph.com/news/ethereum-eth-and-etc-price-trends-week-of-september-26th…,14,15,2,False
320,Ethereum UAE@Ethereum_UAE,Ethereum (ETH and ETC) Price Trends (Week of September 26th) http://ift.tt/2dgkqjp #Ethereum,0,0,0,False
321,Augur@AugurProject,2nd Chance to Test How To Access Your REP (w/Screenshots). Deadline: Oct 3!: http://blog.augur.net/2016/09/16/test-how-to-access-your-rep/… via @AugurProject #augur #REP #ethereum,7,6,1,False
322,Blockgeeks@Blockgks,What is #Blockchain Technology? Guide For Beginners http://dld.bz/eW5DU #ethereum,0,0,0,False
323,Ali Güçlü@aliguclu,CoinTelegraph : #Ethereum (ETH and ETC) Price Trends (Week of September 26th) … https://twitter.com/CoinTelegraph/status/780724055427121152…)This Tweet is unavailable.,1,0,0,False
324,John Lilic ₿ Ξ ∞@JohnLilic,When #ConsenSys life is all about #Ethereum love. Big thank you to the team at the retreat who made this beautiful flower arrangement,17,4,0,False
325,Ticker Report@TickerReport,"Tara I. Stacom Buys 3,000 Shares of Ethan Allen Interiors Inc. $ETH Stock http://ift.tt/2cynoie",0,0,0,False
326,US Banking News@AmericanBanking,"Tara I. Stacom Buys 3,000 Shares of Ethan Allen Interiors Inc. $ETH Stock http://ift.tt/2cynoie",0,0,0,False
327,Alberto Jauregui | esoteRICK.eth @DisruptBanksy,"http://ift.tt/2d2Wa9W Microsoft Supports Ethereum Classic, Hosts Meetup with Charles Hoskinson - CoinTelegraph #ethereum #ether",0,0,0,False
328,Alberto Jauregui | esoteRICK.eth @DisruptBanksy,http://ift.tt/2dooiQk Ethereum Price Technical Analysis – ETH Traders Await Break ... - newsBTC #ethereum #ether,1,0,0,False
329,Ethereum UAE@Ethereum_UAE,"Microsoft Supports Ethereum Classic, Hosts Meetup with Charles Hoskinson http://ift.tt/2domoyQ #Ethereum",1,1,0,False
330,Ethereum Monkey@EthMonkey,"Microsoft Supports Ethereum Classic, Hosts Meetup with Charles Hoskinson #ethereum https://cointelegraph.com/news/microsoft-supports-ethereum-classic-hosts-meetup-with-charles-hoskinson…",0,0,0,False
331,4BC@aff4bc,"#Microsoft Supports #Ethereum Classic, Hosts Meetup with #CharlesHoskinson: Microsoft… http://dlvr.it/MLWBWn",0,0,0,False
332,Widget 4 Bitcoin@widget4bc,"#Microsoft Supports #Ethereum Classic, Hosts Meetup with #CharlesHoskinson: Microsoft… http://dlvr.it/MLWBTh",0,0,0,False
333,Bitcoin Directory@dir4bc,"#Microsoft Supports #Ethereum Classic, Hosts Meetup with #CharlesHoskinson: Microsoft… http://dlvr.it/MLWBTc",0,0,0,False
334,Crypto Price Ticker@TickerCrypto,"#Ethereum #ETH Rank:2 Last:฿0.02176468(2.428%) High:Buy Instantly! on  Low:฿0.02176468 Vol:฿8,276 Market Cap:฿1,836,557 / $1,110,745,222.58",0,0,0,False
335,CoinFollower@CoinFollowerCom,"Microsoft Supports Ethereum Classic, Hosts Meetup with Charles Hoskinson: #ethereum http://coinfollower.com/12656/Microsoft%20Supports%20Ethereum%20Classic,%20Hosts%20Meetup%20with%20Charles%20Hoskinson…",0,0,0,False
336,Karlsson@Karlsson_Roof,live /w Rob Wilson http://ln.is/4k0qN with @IncentLoyalty @bitscanner #ethereum #bitcoin... by @romanekras321 via @c0nvey,2,1,0,False
337,Topcrypostats@topcrypostats,"Ethereum Classic - ETC
Price: $1.17033
Change in 1h: +-0.39%
Market cap: $98693909.0
Ranking: 6
#Ethereum Classic #ETC",0,0,0,False
338,trimplement Team@trimplement,Ethereum Responds to Recent DDoS Attack - CCN Cryptocurrency News http://buff.ly/2dlJMxd #ethereum #ddos #blockchain,0,0,0,False
339,Topcrypostats@topcrypostats,"Ethereum - ETH
Price: $13.1625
Change in 1h: +-0.2%
Market cap: $1110702237.0
Ranking: 2
#Ethereum #ETH",0,0,0,False
340,Bobe'bot@Bobe_bot,"1 #BTC = 605.1527 #CHF
1 #ETH = 13.3739 #CHF
1 #DOGE = 0.000224043225 #CHF
sources: @cryptonatorcom @hellobity",0,0,0,False
341,Ethereum SE@StackEthereum,How does the network decide where data is stored and contracts executed? http://ethereum.stackexchange.com/questions/8869/how-does-the-network-decide-where-data-is-stored-and-contracts-executed… #ethereum #nodes #storage,0,0,0,False
342,/r/Ethereum@r_Ethereum,Wallet update 0.8.3 issue http://bit.ly/2dolQ0e #Ethereum,1,0,0,False
343,AltcoinLive bot@AltcoinLiveBot,updated $ETH sellwall 10.9btc @ 0.02189418 http://altcoinlive.com/bittrex-eth-btc #altcoinlive (change 0.00006171),0,0,0,False
344,testovich@KovshBeats,"27.09.2016 #ICONOMI
6,105,111.85$ invested now
of them:
74,408.33USD
1,261,153.18 EUR
4,050.3664 #BTC
120,672.2567 #ETH
2,373,254.7075 #LSK",0,0,0,False
347,AltcoinLive bot@AltcoinLiveBot,updated $ETH sellwall 10.9btc @ 0.02183247 http://altcoinlive.com/bittrex-eth-btc #altcoinlive (change -0.00006206),0,0,0,False
348,CoinFlux@CoinFlux,"You can now verify your corporate account directly on our website.  https://early.coinflux.com/signup
#bitcoin #ether #etherclassic #litecoin",0,0,0,False
349,Finance Magnates@financemagnates,#Ethereum eSports rewards platform FirstBlood raises $6m in #crowdsale http://buff.ly/2cHq7th #cryptocurrency #gaming,2,3,0,False
350,/r/Augur@AugurFeed,#reddit Is Augur going to miss the presidential elections? http://bit.ly/2dvOqsO #ethereum #augurIs Augur going to miss the presidential elections?It would be pretty sad if it did...reddit.com,2,1,0,False
351,Crypto Hassan@Cryptos_Hassan,Guy's! I want you to know ICN (ICONOMI) Will launch! check it now @ https://ico.iconomi.net Buy now and dont be late #ICN @iconominet #ether,0,0,0,False
352,ALΞCO@a_l_e_c_o,BlockPay catches them all #Bitcoin #Ethereum #DAO #Digix #Dash #Dogecoin #Steem #Smartcoins style! @BlockPay_ch https://pic.twitter.com/IGLdhbuJ72 https://twitter.com/BlockPay_ch/status/780648623436550145…This Tweet is unavailable.,1,0,0,False
353,anuel Polo@mrmx,"I told you, ledgers are boring.. https://youtu.be/Hwhigpr4720 vía #InterChainZ #interledger #blockchain #bitcoin #ethereumInterChainZ: Sharing Ledgers for Sharing EconomiesMutual Distributed Ledgers (MDLs), also known as BlockChain Technology, have the potential to transform the way people and organisations handle identity, tra...youtube.com",3,0,0,False
354,AltcoinLive bot@AltcoinLiveBot,updated $ETH sellwall 11.0btc @ 0.02193268 http://altcoinlive.com/bittrex-eth-btc #altcoinlive (change 0.00005959),0,0,0,False
355,Epicenter Podcast –  Flying High  Diving Deep@epicenterbtc,NEW! State of #Ethereum @MeherRoy is back from DevCon and brought back his impressions from the conference http://youtu.be/fZEgDubXtpU,11,7,1,False
356,Andy O'Donoghue@ADODonoghue,Seems #Microsoft are boosting their #blockchain efforts with #Ethereum based Project Bletchley - http://buff.ly/2cxDj5D #Cryptocurrency,2,0,0,False
357,Faith Emmanuel@residualbitcoin,150 - Devcon 2 And The State Of #ethereum https://letstalkbitcoin.com/blog/post/150-devcon-2-and-the-state-of-ethereum…  #ResidualBitcoin,0,0,0,False
358,AltcoinLive bot@AltcoinLiveBot,updated $ETH sellwall 10.9btc @ 0.02187309 http://altcoinlive.com/bittrex-eth-btc #altcoinlive (change -0.00007031),0,0,0,False
359,Marie-Claire PEROUX@MCPLLM,#Blockchain experts get to the point of the #Ethereum hard fork https://siliconrepublic.com/enterprise/ethereum-hard-fork-deloitte-grid-blockchain-lab… via @siliconrepublic,0,0,0,False
360,Norbert Rovira@norbertUT,RBS tests Ethereum blockchain for domestic payments system - EconoTimes http://econotimes.com/RBS-tests-Ethereum-blockchain-for-domestic-payments-system-316899… #ethereum,1,0,0,False
361,Ethereum Monkey@EthMonkey,Ethereum Classic Price Technical Analysis - Selling ETC Worked - NEWSBTC #ethereum http://newsbtc.com/2016/09/27/ethereum-classic-price-technical-analysis-selling-etc-worked/…,0,0,0,False
362,Elon Muscadet@ElonMuscadet,@999BTC $ETH breaking up ? or local top ? strange...,2,0,0,False
363,AltcoinLive bot@AltcoinLiveBot,updated $ETH sellwall 11.0btc @ 0.02194340 http://altcoinlive.com/bittrex-eth-btc #altcoinlive (change 0.00006057),0,0,0,False
364,Makoto Inoue ( matoken.eth )@makoto_inoue,Smart contract security hackathon during #ethereum #devcon2  Day 1 was at Starbucks and Day 2 was on grand piano!,21,7,1,False
365,BitcoinAgile@bitcoinagile,150 - Devcon 2 And The State Of #ethereum https://letstalkbitcoin.com/blog/post/150-devcon-2-and-the-state-of-ethereum…,1,0,0,False
366,Randy Hilarski@RandyHilarski,EXCLUSIVE: New footage of Imperial Cops Murdering a Ve... http://slninja.com/p6kv #Bitcoin #Ethereum #CryptoCurrency,5,0,0,False
367,AltcoinLive bot@AltcoinLiveBot,updated $ETH sellwall 10.9btc @ 0.02188283 http://altcoinlive.com/bittrex-eth-btc #altcoinlive (change 0.00006277),0,0,0,False
368,Ethereum Italia@ethereumita,"Next Italian Ethereum Meetup #ethereum #blockchain #smartcontractDevcon2 - quali novità ?gio 29 set 2016, 19:00: Come qualcuno di voi saprà, Ethereum Italia è andata in missione a Shangahi per partecipare al congresso annuale di Ethereum. Porteremo le novità più importanti. Se volete essemeetup.com",5,6,0,False
369,CryptKeeper@CryptKeeperBTT,Gavin: #Ethereum Will Outgrow #Bitcoin at This Pace http://newsbtc.com/2016/09/26/gavin-ethereum-will-outgrow-bitcoin-at-this-pace/…,0,0,0,False
370,CryptKeeper@CryptKeeperBTT,ECB: We cannot Consider using #Blockchain in Market Infrastructure #ethereumECB: We cannot Consider using Blockchain in Market InfrastructureThe ECB is not in a hurry to incorporate blockchain technology into its trading systems anytime soon as it needs to be evaluated first.newsbtc.com,1,1,0,False
371,Alberto Jauregui | esoteRICK.eth @DisruptBanksy,http://ift.tt/2dobhpI Ethereum Classic Price Technical Analysis – Selling ETC Worked - newsBTC #ethereum #ether,1,0,0,False
372,AltcoinLive bot@AltcoinLiveBot,updated $ETH sellwall 10.9btc @ 0.02175272 http://altcoinlive.com/bittrex-eth-btc #altcoinlive (change 0.00007600),0,0,0,False
373,Timo Ξberhard@ZhuBajie72,Looks like the 4h just broke up... #Ethereum #Ether $ETH $ETHXBT @krakenfx >>> https://tradingview.com/chart/ETHXBT/IaZdYruR-Ether-Updated/…,1,0,0,False
374,Brave New Coin@bravenewcoin,#Ethereum Classic Price: USD $1.17 #ETC http://ow.ly/QXxZ303j19Q,0,0,0,False
375,Blockgeeks@Blockgks,Can someone explain to me what is Ethereum in laymen's term? http://dld.bz/eWbfN #ethereum #blockchain,4,0,0,False
376,Faith Emmanuel@residualbitcoin,#ethereum Classic Price Technical Analysis  Selling ETC Worked - NEWSBTC #ETC #ETCtoBTC http://bitcoinagile.com/867B42/ethereum-classic-price-technical-analysis-selling-etc-worked-newsbtc_stream…  #…,1,0,0,False
377,AltcoinLive bot@AltcoinLiveBot,updated $ETH sellwall 10.8btc @ 0.02167672 http://altcoinlive.com/bittrex-eth-btc #altcoinlive (change 0.00030672),0,0,0,False
378,Topcrypostats@topcrypostats,"Ethereum Classic - ETC
Price: $1.17563
Change in 1h: +-0.16%
Market cap: $99138280.0
Ranking: 6
#Ethereum Classic #ETC",0,0,0,False
379,BitcoinAgile@bitcoinagile,#ethereum Classic Price Technical Analysis  Selling ETC Worked - NEWSBTC #ETC #ETCtoBTC http://bitcoinagile.com/867B42/ethereum-classic-price-technical-analysis-selling-etc-worked-newsbtc_stream…,2,0,0,False
380,Topcrypostats@topcrypostats,"Ethereum - ETH
Price: $13.0114
Change in 1h: +0.22%
Market cap: $1097921366.0
Ranking: 2
#Ethereum #ETH",0,0,0,False
381,Bitcoin NewsBoard@bitcoinewsboard,Gold Backed #Digix Raises Millions in Hours on #Ethereum Blockchain #Crowdsa http://bitcoinnewsboards.com/?p=31649 #altcoinnews #bitcoin #dgd #dgx #news,0,0,0,False
382,Cryptinc@Cryptinc,Gavin Andresen: #Ethereum Will Outgrow #Bitcoin - https://goo.gl/LKXmtA,1,0,0,False
383,Blockchain Storm@BlockchainStorm,"Post HF TIL: $20M worth of $ETH hasn't been withdrawn from TheDAO, $4.4M still being held by the trustee.  http://ow.ly/AC1C304Avwy",0,0,0,False
384,Inspheer S.r.l.@inspheer,"Do you want to transfer money safely, quickly and practically for free? Follow us #ethereum #blockchain #moneytransfer",2,0,0,False
385,ECS Cyber@ecs_cyber,"#Gavin #Andresen: #Ethereum Will #Outgrow #Bitcoin
http://lnk.al/2O3i
#security #cybersecurity #cryptocurrency #blockchain #cybersec",1,1,0,False
386,Crypto₿om₿@cryptobomb,#Blockchain experts get to the point of the #Ethereum hard fork $ETH | Silicon Republic |Blockchain experts get to the point of the Ethereum hard forkDeloitte’s Grid Blockchain Lab shares opinions on Ethereum hard fork – the most significant event in cryptoeconomics since bitcoin.siliconrepublic.com,1,2,0,False
387,AltcoinWeekly@altcoinweekly,The latest Ethereum price is USD 12.94. For historical #Ethereum price charts - http://buff.ly/2cZrF1z,0,0,0,False
388,/r/Ethereum@r_Ethereum,Why does my Ethereum-Wallet and Mist show a discrepancy in the ether balance? (94% synced running geth) http://bit.ly/2dyzFsh #EthereumWhy does my Ethereum-Wallet and Mist show a discrepancy in the...Posted in r/ethereum by u/AllThingsWiseWndrful • 0 points and 10 commentsreddit.com,0,0,0,False
389,/r/Ethereum@r_Ethereum,error saying dao dropped http://bit.ly/2dyAbGL #Ethereumerror saying dao droppedCant acces my wallet with this on geth pls helpreddit.com,0,0,0,False
390,/r/Ethereum@r_Ethereum,Ethereum Transaction Spam/Hash-Rate Attack http://bit.ly/2dyBCEV #EthereumEthereum Transaction Spam/Hash-Rate AttackPosted in r/ethereum by u/PACMEDIA • 3 points and 1 commentreddit.com,0,0,0,False
391,indxio@indxio,#China Market Close || #Bitcoin: $606.95 | 545 EUR||  #Litecoin: 0.0032 BTC  || #Ethereum: 0.0213 BTC   || $BTC $LTC $ETH $RMB,1,0,0,False
392,Faith Emmanuel@residualbitcoin,Exchange Rate Service #ethereum #hackethercamp https://hack.ether.camp/idea/exchange-rate-service…  #ResidualBitcoin,0,0,0,False
393,BitcoinAgile@bitcoinagile,Exchange Rate Service #ethereum #hackethercamp https://hack.ether.camp/idea/exchange-rate-service…,1,0,0,False
394,ether-camp@CampEther,Seen on #hackethercamp https://hack.ether.camp/idea/exchange-rate-service… #ethereum,1,0,0,False
395,Topcrypostats@topcrypostats,"Ethereum Classic - ETC
Price: $1.17913
Change in 1h: +-0.36%
Market cap: $99432057.0
Ranking: 6
#Ethereum Classic #ETC",0,0,0,False
396,Topcrypostats@topcrypostats,"Ethereum - ETH
Price: $12.9922
Change in 1h: +-0.21%
Market cap: $1096282039.0
Ranking: 2
#Ethereum #ETH",0,0,0,False
397,Ethereum SE@StackEthereum,Deploying Smart Contract into Ethereum testnet http://ethereum.stackexchange.com/questions/8851/deploying-smart-contract-into-ethereum-testnet… #ethereum #goethereum #contractdevelopment #mining #testnets,0,0,0,False
398,Ethereum SE@StackEthereum,Instantiate a deployed Smart Contract http://ethereum.stackexchange.com/questions/8856/instantiate-a-deployed-smart-contract… #ethereum #blockchain #contractinvocation #abi #greeter #callcode,0,0,0,False
399,Ethereum SE@StackEthereum,BlockApps and Bloc Server: How to query contract (array or mapping)? http://ethereum.stackexchange.com/questions/8860/blockapps-and-bloc-server-how-to-query-contract-array-or-mapping… #ethereum #blockapps,1,0,0,False
400,Ethereum SE@StackEthereum,Confirmed transaction in Mist wallet multisig but it never goes away http://ethereum.stackexchange.com/questions/8861/confirmed-transaction-in-mist-wallet-multisig-but-it-never-goes-away… #ethereum #mist #wallets,1,0,0,False
401,Ethereum SE@StackEthereum,Join mining pool with Geth http://ethereum.stackexchange.com/questions/8863/join-mining-pool-with-geth… #ethereum #goethereum #miningpools,1,0,0,False
402, Eliza Cheng @ElizaRyenne,Mine for #bitcoin #litecoin #dogecoin #ethereum #gold here in @eobot JOIN NOW at https://eobot.com/user/393610,0,0,0,False
403,Crypto Trader Pro @CryptoTraderPro,#Ethereum Price Technical Analysis – #ETH Traders Await Break.… http://dlvr.it/MLSdRx #Ethereum #ETH,0,0,0,False
404,AltcoinLive bot@AltcoinLiveBot,updated $ETH sellwall 21.3btc @ 0.02137000 http://altcoinlive.com/bittrex-eth-btc #altcoinlive (change -0.00024341),0,0,0,False
405,NEWSBTC@newsbtc,#Ethereum Price Technical Analysis – #ETH Traders Await Break. http://bit.ly/2d5MEPc,1,3,0,False
406,Crypto Trader Pro @CryptoTraderPro,#Gavin_Andresen: #Ethereum Will Outgrow #Bitcoin.… http://dlvr.it/MLSWWj #Gavin_Andresen #Ethereum,0,0,0,False
407,NEWSBTC@newsbtc,#Gavin_Andresen: #Ethereum Will Outgrow #Bitcoin. http://bit.ly/2dyv4q2,0,0,0,False
408,Faith Emmanuel@residualbitcoin,Here's what it's like to do a live #ethereum Transaction #Transaction http://wingztv.com/video/heres-what-its-like-to-do-a-live-ethereum-transaction… #ResidualBitcoin,1,0,0,False
409,Albin Cauderlier @AlbinCAUDERLIER,"""Since bugs are consensus, fixes are forks"" #ETH #blockchain",2,1,0,False
410,BitcoinAgile@bitcoinagile,Here's what it's like to do a live #ethereum Transaction #Transaction http://wingztv.com/video/heres-what-its-like-to-do-a-live-ethereum-transaction…,0,0,0,False
411,WingzTV@realnewsvideos,#Ethereum #Transaction Spam/Hash-Rate Attack http://wingztv.com/video/heres-what-its-like-to-do-a-live-ethereum-transaction…,0,0,0,False
412,Weird Viral Videos@wvv9871,"Blockchain-powered ICONOMI raises $5.8m in crowdsale: By Ian Allison | September 26, 2016 Sou.. #ethereum #ether http://dld.bz/eWEm7",0,0,0,False
413,Bitcoin@crypto_bitcoins,Electrum-2.6.5 Released with Better Hardware wallets support https://goo.gl/5E4UDa #crypto #ethereum #eth,1,1,0,False
414,Cointon@CointonDotCom,Electrum-2.6.5 Released with Better Hardware wallets support https://goo.gl/5E4UDa #crypto #ethereum #eth,2,1,0,False
415,AltcoinLive bot@AltcoinLiveBot,updated $ETH sellwall 21.4btc @ 0.02139000 http://altcoinlive.com/bittrex-eth-btc #altcoinlive (change -0.00028183),0,0,0,False
416,Jaime Mc @jmak316,"Nas-Ether 
One of the best diss tracks of all time. #ether #nas #nowlistening @Nas https://youtube.com/watch?v=0ePQKD9iBfU&feature=share…",0,0,0,False
417,Ameer Rosic@AmeerRosic,#Cryptocurrency: A New Economy For The Future http://dld.bz/eEbgr #bitcoin #blockchain #ethereum,1,0,0,False
418,/r/Ethereum@r_Ethereum,Proof of Burn http://bit.ly/2dvsfTr #EthereumProof of BurnI inadvertently burned a significant amount of ETH by sending it to an address with 1 character miskeyed. Really stupid mistake. Statistically...reddit.com,0,0,0,False
419,/r/Ethereum@r_Ethereum,"How Can I Get The Blockchain to Sync? http://bit.ly/2dvtvq1 #EthereumHow Can I Get The Blockchain to Sync?I've seriously been trying non-stop for the last week to fix my Mist sync issue, and have seemingly tried every possible troubleshooting option....reddit.com",0,0,0,False
420,/r/Ethereum@r_Ethereum,Pre-fork ETH http://bit.ly/2dvsu16 #Ethereum,1,0,0,False
421,AltcoinLive bot@AltcoinLiveBot,updated $ETH sellwall 10.8btc @ 0.02167183 http://altcoinlive.com/bittrex-eth-btc #altcoinlive (change 0.00005842),0,0,0,False
422,Topcrypostats@topcrypostats,"Ethereum Classic - ETC
Price: $1.18372
Change in 1h: +0.35%
Market cap: $99817629.0
Ranking: 6
#Ethereum Classic #ETC",0,0,0,False
423,Weird Viral Videos@wvv9871,"RBS tests Ethereum blockchain for domestic payments system: Monday, September 26, 2016 Source.. #ethereum #ether http://dld.bz/eWDWK",1,0,0,False
424,Topcrypostats@topcrypostats,"Ethereum - ETH
Price: $13.0044
Change in 1h: +-0.05%
Market cap: $1097291638.0
Ranking: 2
#Ethereum #ETH",0,0,0,False
425,Olivier Chapiteau@o_chapiteau,"27Sep2016 06:00 UTC #Ether #Blockchain status - Block height @ 2,334,482 - 15,725 unconfirmed tr. - Last fork height @ 2,334,473",1,0,0,False
428,Olivier Chapiteau@o_chapiteau,27Sep2016 06:00 UTC #Ethereum live spots - #Ether @ 13.02947 $ - #EtherClassic @ 1.19425 $,1,0,0,False
429,Ethereum Price@EthereumPrice_,"#Ethereum: Ether Price Index
1 ETH =0.021405Ƀ XBT = $13.056510 USD
Today: +1.46%⬆︎ Last 24h: -0.19%⬇︎
https://ethereum-price.com",1,0,0,False
430,AltcoinLive bot@AltcoinLiveBot,updated $ETH sellwall 10.8btc @ 0.02161341 http://altcoinlive.com/bittrex-eth-btc #altcoinlive (change -0.00005760),0,0,0,False
431,Weird Viral Videos@wvv9871,Ethereum eSports Rewards Platform FirstBlood Raises $6m in Crowdsale: By Avi Mizrahi | Tradin.. #ethereum #ether http://dld.bz/eWDWM,1,0,0,False
432,The DAO@The_DAO_Project,"In depth review on the decision to take the #HardFork way
#ethereum #blockchain #fintechBlockchain experts get to the point of the Ethereum hard forkDeloitte’s Grid Blockchain Lab shares opinions on Ethereum hard fork – the most significant event in cryptoeconomics since bitcoin.siliconrepublic.com",4,1,0,False
433,Weird Viral Videos@wvv9871,"Ethereum DDoS Attack Abuses Internal Attributes: By Larry Loeb | September 26, 2016 Source: S.. #ethereum #ether http://dld.bz/eWDWN",1,0,0,False
434,Weird Viral Videos@wvv9871,Blockchain experts get to the point of the Ethereum hard fork: Source: SiliconRepublic  The E.. #ethereum #ether http://dld.bz/eWDWP,0,0,0,False
435,Citadel Advantage NEWS DIGEST@StanleyEpstein,RBS tests demonstrate ability of #Ethereum to support a national domestic #payments system http://dld.bz/eWCXq #blockchain #UK #banking,1,0,0,False
436,AltcoinLive bot@AltcoinLiveBot,updated $ETH sellwall 10.8btc @ 0.02167101 http://altcoinlive.com/bittrex-eth-btc #altcoinlive (change -0.00005422),0,0,0,False
437,Faith Emmanuel@residualbitcoin,RBS tests #ethereum #blockchain for domestic payments system https://ethereumheadlines.com/2016/09/27/rbs-tests-ethereum-blockchain-for-domestic-payments-system…  #ResidualBitcoin,0,0,0,False
438,Weird Viral Videos@wvv9871,"Gavin Andresen: Ethereum Will Outgrow Bitcoin:  By Author Gautham | September 26, 2016 Source.. #ethereum #ether http://dld.bz/eWDWQ",1,0,0,False
439,Ethereum Monkey@EthMonkey,Ethereum Price Technical Analysis - ETH Traders Await Break - NEWSBTC #ethereum http://newsbtc.com/2016/09/27/ethereum-price-technical-analysis-eth-traders-await-break/…,0,0,0,False
440,Timo Ξberhard@ZhuBajie72,WOOP WOOP... >>> #Decentralized eSports Platform #FirstBlood [built on #Ethereum] Raises $5.5M in Minutes https://news.bitcoin.com/esports-firstblood-raises-5-5m/?utm_source=twitter&utm_medium=social&utm_campaign=SocialWarfare…,0,0,0,False
441,Weird Viral Videos@wvv9871,Ethereum Classic Price Technical Analysis – ETC Lacking Momentum: By Author Aayush Jindal | S.. #ethereum #ether http://dld.bz/eWDWR,0,0,0,False
442,BitcoinAgile@bitcoinagile,RBS tests #ethereum #blockchain for domestic payments system https://ethereumheadlines.com/2016/09/27/rbs-tests-ethereum-blockchain-for-domestic-payments-system…,4,0,0,False
443,James Frank@bitcoinref,First 100 tickets for #Consensus2017 are deeply discounted for our loyal supporte ... #money #ethereum #crypto,2,1,0,False
444,ilbitcoin@ilBitcoin,"""Decentralized eSports Platform FirstBlood Raises $5.5M in Minutes"" https://news.bitcoin.com/esports-firstblood-raises-5-5m/… #cryptonews #ethereumDecentralized eSports Platform FirstBlood Raises $5.5M in MinutesThe upcoming decentralized eSports application FirstBlood.io has experienced a record crowdsale day raising $5.5 million USD in Ether. The sale ended with 4news.bitcoin.com",1,0,0,False
445,TheFilterLive@TheFILTERLive,"Join us live from Bali tonight for THE FILTER #93 ""Decentralize Everything"" https://youtube.com/watch?v=xZvNpE86Zu4… #bitcoinsinbali #ethereum #UJO #uportTHE FILTER #93 “Dentralize Everything“So many things happening in the world of crypto-everything these days. It’s fun. It’s exciting. It’s provocative. It’s dangerous. Each week we get together t...youtube.com",1,1,0,False
446,BitcoinAgile@bitcoinagile,#ethereum eSports Rewards Platform FirstBlood Raises $6m in Crowdsale http://bitcoinagile.com/8674A0/ethereum-esports-rewards-platform-firstblood-raises-6m-in-crowdsale_stream…,1,0,0,False
447,GSWFelipe@GSWPhil,Replying to @realDonaldTrumpDid you not watch a recording of it? #ETHER,0,0,0,False
448,Jake Tarnow@jaketarnow,When you realize that there are only 53 in the world on the #testnet and you just fully built a smart contract #yourwelcome #ethereum,1,0,0,False
449,JackVerr@jackverr54,[video] #Blockchain Keynote at @CloudExpo | #IoT #M2M #Bitcoin #Ethereum | @CloudExpo http://cloudcomputing.sys-con.com/node/3850806#.V-oBKN5dy2k.twitter…,1,1,0,False
450,DonCorleone@BTCOIN_SCARFACE,"Buy #ICONOMI now . 2 days to go !! 
https://ico.iconomi.net
 6,058,927.28 USD invested by now !! 
#ICN #BITCOIN #ethereum #crypto",0,0,0,False
451,Faith Emmanuel@residualbitcoin,#ethereum Transaction Spam/Hash-Rate Attack #bitcoin #blockchain #medium https://medium.com/@PACMEDIA/ethereum-transaction-spam-hash-rate-attack-666b0b87c62a…  #ResidualBitcoin,0,0,0,False
452,Faith Emmanuel@residualbitcoin,#ethereum Price Technical Analysis  ETH Traders Await Break - NEWSBTC #bitcoin #btc #price http://bitcoinagile.com/8673E6/ethereum-price-technical-analysis-eth-traders-await-break-newsbtc_stream… …,0,0,0,False
453,Faith Emmanuel@residualbitcoin,#blockchain experts get to the point of the #ethereum hard fork http://bitcoinagile.com/8673D2/blockchain-experts-get-to-the-point-of-the-ethereum-hard-fork_stream…  #ResidualBitcoin,0,0,0,False
454,BitcoinAgile@bitcoinagile,#ethereum Transaction Spam/Hash-Rate Attack #bitcoin #blockchain #medium https://medium.com/@PACMEDIA/ethereum-transaction-spam-hash-rate-attack-666b0b87c62a…,1,0,0,False
455,Fintech news@currencies111,"Gavin Andresen: Ethereum Will Outgrow Bitcoin
https://goo.gl/R1N77K
#Ethereum #Crypto",1,2,0,False
456,AltcoinLive bot@AltcoinLiveBot,updated $ETH sellwall 10.9btc @ 0.02172523 http://altcoinlive.com/bittrex-eth-btc #altcoinlive (change 0.00008158),0,0,0,False
457,BitcoinAgile@bitcoinagile,#ethereum Price Technical Analysis  ETH Traders Await Break - NEWSBTC #bitcoin #btc #price http://bitcoinagile.com/8673E6/ethereum-price-technical-analysis-eth-traders-await-break-newsbtc_stream…,2,0,0,False
458,BitcoinAgile@bitcoinagile,#blockchain experts get to the point of the #ethereum hard fork http://bitcoinagile.com/8673D2/blockchain-experts-get-to-the-point-of-the-ethereum-hard-fork_stream…,4,0,0,False
459,Topcrypostats@topcrypostats,"Ethereum Classic - ETC
Price: $1.17927
Change in 1h: +-2.25%
Market cap: $99440838.0
Ranking: 6
#Ethereum Classic #ETC",0,0,0,False
460,Topcrypostats@topcrypostats,"Ethereum - ETH
Price: $13.0066
Change in 1h: +0.67%
Market cap: $1097458417.0
Ranking: 2
#Ethereum #ETH",0,0,0,False
461,Crypto Barrell@CryptoBarrell,#Ethereum Transaction Spam/Hash-Rate Attack — Steemit#Ethereum Transaction Spam/Hash-Rate Attack — SteemitGeth is the Ethereum client with a command line interface that enables one to run a full ethereum node implemented in… by pacmediasteemit.com,1,1,0,False
462,BitcoinAgile@bitcoinagile,Gavin Andresen: #ethereum Will Outgrow #bitcoin http://bitcoinagile.com/86734B/gavin-andresen-ethereum-will-outgrow-bitcoin_stream…,1,3,0,False
463,AltcoinLive bot@AltcoinLiveBot,updated $ETH sellwall 10.8btc @ 0.02164365 http://altcoinlive.com/bittrex-eth-btc #altcoinlive (change 0.00006451),0,0,0,False
464,Faith Emmanuel@residualbitcoin,#ethereum Classic Price Technical Analysis  ETC Lacking Momentum https://ethereumheadlines.com/2016/09/27/ethereum-classic-price-technical-analysis-etc-lacking-momentum…  #ResidualBitcoin,0,0,0,False
465,Ameer Rosic@AmeerRosic,What is Ethereum? Step-by-Step #Ethereum Infographic http://bit.ly/22M90bd #Blockchain #Bitcoin,0,0,0,False
466,BitcoinAgile@bitcoinagile,#ethereum Classic Price Technical Analysis  ETC Lacking Momentum https://ethereumheadlines.com/2016/09/27/ethereum-classic-price-technical-analysis-etc-lacking-momentum…,0,0,0,False
467,AltcoinLive bot@AltcoinLiveBot,updated $ETH sellwall 10.8btc @ 0.02157914 http://altcoinlive.com/bittrex-eth-btc #altcoinlive (change 0.00007923),0,0,0,False
468,Timo Ξberhard@ZhuBajie72,Possible #breakup attempt incoming... #Ethereum #Ether $ETH $ETHXBT @krakenfx >>> https://tradingview.com/chart/ETHXBT/IaZdYruR-Ether-Updated/…,1,1,0,False
469,Spiros Margaris@SpirosMargaris,"Opinion

@gavinandresen : #Ethereum Will Outgrow #Bitcoin
http://bit.ly/2cH4aud @gautham_n #fintech @newsbtc",4,2,0,False
470,⛧ God of Gaming ⛧@TheGodofGamez,You have to believe in yourself. $ETH,1,0,0,False
471,Brave New Coin@bravenewcoin,#Ethereum Classic Price: USD $1.21 #ETC http://ow.ly/QXxZ303j19Q,1,2,0,False
472,Blockgeeks@Blockgks,Welcome to Fortune's 2016 40 Under 40 http://dld.bz/eWbaX #ethereum #blockchain #business,1,2,1,False
473,Topcrypostats@topcrypostats,"Ethereum Classic - ETC
Price: $1.20649
Change in 1h: +0.35%
Market cap: $101734623.0
Ranking: 6
#Ethereum Classic #ETC",0,0,0,False
474,Bobe'bot@Bobe_bot,"1 #BTC = 604.4015 #CHF
1 #ETH = 13.1754 #CHF
1 #DOGE = 0.00022409775 #CHF
sources: @cryptonatorcom @hellobity",0,0,0,False
