,user,text,likes,retweets,replies,is_thread
0,Sravani @ IOT.Review@sravani2015,"""Smart contracts are neither smart nor contracts , by a dump of code."" #ethereum #IoTSec16 #blockchain",3,1,0,False
1,3WC Ltd@3wcLtd,#Blockchain-based Internet of Things project does drone deliveries using #EthereumBlockchain-based IoT project does drone deliveries using EthereumSan Francisco-based Chronicled used Ethereum to authenticate drone package delivery system.ibtimes.co.uk,4,2,0,False
2,gie hauwaert@giehau,[video] #Blockchain Keynote at @CloudExpo | #IoT #M2M #Bitcoin #Ethereum http://ow.ly/3VTM505t7yM,15,23,0,False
3,Eugene Zavarzin@ADZ4BIZ,Will #Adzcoin Skyrocket Like http://bit.ly/2duB8P7 #Ethereum?,1,0,0,False
4,Grégoire Horel@GregHHH,"Blockchain, a contract with a brain via @businessinsider http://uk.businessinsider.stfi.re/what-is-blockchain-2016-10?r=US&IR=T&sf=bewopbd#aa… #smartcontract #blockchain #DAO #ethereum #sharingeconomy",1,0,0,False
5,KIBO@KiboPlatform,"DDoS attack on Ethereum network hampers Kibo ICO https://medium.com/@kiboproject/ddos-attack-on-ethereum-network-hampers-kibo-ico-77f1218db068#.xq1dx7ip2…
#KIBO #ETHEREUM #DDOS #BLOCKCHAINDDoS attack on Ethereum network hampers Kibo ICOKibo ICO started on October 1st and unfortunately hit the peak of DDoS attack activity on Ethereum network. During 2 weeks of sales, we…medium.com",16,7,0,False
6,Paul Le Gal-Huaumé@paullgh,If anybody want to know the time remaining until the hardfork : https://fork.codetract.io #ethereum #ETH,0,0,0,False
7,Albert Franquesa@albertfranquesa,#Ethereum @VitalikButerin  Interesting series of episodes from @TechCrunch https://techcrunch.com/video/trust-disrupted/…,1,0,0,False
8,Alejandro Sewrjugin@alesew23,#DarkMatter launches #blockchain advisory services in #UAE - EconoTimes http://econotimes.com/darkmatter-launches-blockchain-advisory-services-in-uae-350407#… #Bitcoin #Digital #FinTech #Tech #EthereumDarkMatter launches blockchain advisory services in UAE - EconoTimesUAE-based international cyber security company DarkMatter has announced the launch of its blockchain solutions for governments and enterprises in the UAE and the forthcoming blockchain Software...econotimes.com,2,0,0,False
10,Dr. Felix Hovsepian@BlueManifold,10 Types of Digital Currencies & how they work http://techbullion.com/10-types-digital-currencies-work/… #fintech #banking #tech #innovation #Bitcoin #ethereum,1,0,0,False
11,Ethereum@ethereum,"Mist/Ethereum Wallet update (Beta 0.8.6 + Geth 1.4.18 ""Note 7"") https://github.com/ethereum/mist/releases/tag/v0.8.6… #ethereumRelease Ethereum Wallet and Mist Beta 0.8.6 · ethereum/mistThis Wallet/Mist version contains the Geth 1.4.18 ""Note 7"", which includes the EIP150 1b/1c Hardfork. Read this post by @holiman for more info about the hard-fork: https://blog.ethereum.o...github.com",40,40,0,False
12,iuri matias@iurimatias,Soon.... #ethereum,22,5,1,False
13,Alberto Jauregui | esoteRICK.eth @DisruptBanksy,http://ift.tt/2el3XL4 Ethereum Price Technical Analysis – ETH Relatively Muted - newsBTC #ethereum #ether,1,0,0,False
14,Stardust@stardustcoin,"How #fintech Is dragging banks to #blockchain and #AI https://cryptocoinsnews.com/fintech-dragging-banks-blockchain-ai/…
#ethereum #bitcoin #ether #cryptocurrency #asteria #stardust",11,1,0,False
15,EtherBlockchain.io@etherblockchain,"#Blockchain could soon power stock markets, music sales, and even prevent child labor http://read.bi/2drwXmV via @themoneygame #ethereum",3,1,0,False
16,Kevin Cullen@JakeCul,#IoTSec16 @ethereumproject presentation: #ethereum ad #IoT opportunity. #fintech #blockchain,5,0,0,False
17,Bitcoin Brasil@BitcoinBr10,"Fintech Revolution: Popularity of Digital Payments is Rocketing, Says Visa http://bitcoinbrasil10.blogspot.com.br/2016/10/fintech-revolucao-popularidade-de.html… #Bitcoin #Blockchain #ethereum #visa #btc",5,0,0,False
18,Sebastian Leightley@Cognificial,"ICYMI: #DistHealth, 1st #blockchain #healthcare conference hosted by #BTCMedia. @gemhq #ethereum #hyperledger http://bit.ly/2ckPJNQ",4,0,0,False
19,Jean Lebrun@004nino,BLOCKCHAIN  18)  #Blockchain @blockchain - #based #IoT #project does  #drone #deliveries #using #Ethereum http://ibt.uk/A6eft?utm_source=social&utm_medium=twitter&utm_campaign=/blockchain-based-iot-project-does-drone-deliveries-using-ethereum-1586325…,1,0,0,False
20,John C. Maxwell III@maxjcm,"#blockchain more strategic to $MSFT
#Azure with #ConsenSys to offer #Ethereum Blockchain as a Service (EBaaS)Microsoft Has Significant Plans for Blockchain as a Service -- Redmondmag.comBlockchain is emerging as a primary contender to create a global trusted self-sovereign, user-managed identity framework, and Microsoft has gone all-in with its Azure Blockchain as a Service (BaaS).redmondmag.com",3,1,0,False
21,Ethereum@ethereum,"New Blog Post! ""FAQ: Upcoming Ethereum Hard Fork"" #HardFork #EthereumFAQ: Upcoming Ethereum Hard ForkThe Ethereum network will be undergoing a hard fork at block number 2463000, which will likely occur between 12:00 and 13:00 UTC on Tuesday, October 18, 2016. A countdown timer can be seen at...blog.ethereum.org",43,48,1,False
22,Dan@dandeac,Fastest capital raise? #Esports #startup @firstbloodio crowdsells $5.5M of #cryptocurrency in minutes: http://smithandcrown.com/first-blood-crowdsale-ended-minutes/… #Ethereum #VC,2,0,0,False
23,Sinz @Sinzfeldt,When @barrysilbert starts posting pump tweets you know it's time to go sell and short. Traders getting ETC'd again. $ETC #ethereum,3,0,0,False
24,CL Taylor@DigitWealthNews,FintekNews-Battle of the Blockchains http://goo.gl/hxG6AO #fintech #blockchain #Bitcoin #ethereum #cryptocurrency #technews #VC #PE #tech,2,0,0,False
25,Lawnmower@LawnmowerIO,"Last Week in #Bitcoin & #Blockchain:
6 @TechCrunch eps, Mastering #Ethereum, #ETH #HardFork, @golemproject crowdsaleLast Week in Bitcoin & Blockchain(October 10, 2016 — October 16, 2016)blog.lawnmower.io",10,5,0,False
26,Bitcoin Maniac@Maniac_Bitcoin,"Have you already take part to the famous vDice crowdsale?
http://crowdsale.vdice.io
#vDice #crowdsale #ico #ethereum #bitcoin",2,0,0,False
27,CoinspaceIO@CoinspaceIO,Tonight @karl_dot_tech of ConsenSys talks about his economic model for #ethereum development. #blockchain workshop https://meetup.com/Coinspace-HQ/events/234257987/…,1,0,0,False
28,Alberto Jauregui | esoteRICK.eth @DisruptBanksy,http://ift.tt/2exRlWf cryptocurrency exchanges poloniex coinbase notify users on ethereum hardfork - EconoTimes #ethereum #ether,1,0,0,False
29,M A T T H U N T Ξ R@matthunter,New technology may soon resurrect the sharing economy in a very radical form https://theguardian.com/technology/2016/oct/17/sharing-economy-capitalism-uber-airbnb-ownership… #ethereum #blockchain,2,0,0,False
30,Concours INPA@inpa_concours,@IBTimesUK > #Blockchain-based #IoT project does #drone deliveries using #Ethereum http://ibt.uk/A6eft?utm_source=social&utm_medium=twitter&utm_campaign=/blockchain-based-iot-project-does-drone-deliveries-using-ethereum-1586325…,1,0,0,False
31,ConsenSys@Consensys,At the #IoTSec16 @TaylorGerring on how #ethereum for #IoT creates m2m economies #machine2machine @ethereumproject @IoTSecurity,14,3,0,False
32,Alistair Milne@alistairmilne,"Vitalik admits ""this hard fork won't fix everything""
https://reddit.com/r/btc/comments/57q27b/why_does_samson_mow_claim_that_its_well_known_in/d8v7v9b… #ethereumWhy does Samson Mow claim that ""It's well known in China that...That one failed to fix a bug, it didn't introduce new ones. This HF also will not fix everything; we are particularly still working on...reddit.com",3,3,2,False
33,Christian Seberino@c_seberino,Thanks for the memory: How cheap RAM changes computing http://buff.ly/2dmzqeY #etc #eth #ethereumclassic #ethereum,1,0,0,False
34,MedosAdvert@medosadvert,You can earn upto $65K daily & join with me on  http://medosadvert.com/go/coinomia/ to get the benefits! Start earning Now! #Mining #BitCoin #Ethereum,2,2,0,False
35,Maak Los@lawsism,Coinbase on upcoming #Ether #hardfork. Raises nb questions abt institutionalization/intermediarization of cryptocurrencies. #ethereum ,3,0,0,False
36,Bitsler@BitSler,"Let's hit the 2,000,000,000th bet on Bitsler and win upto 1 bitcoin ! http://goo.gl/Af5TaI #bitcoin #ethereum #dice #gambling #btctalk",2,1,0,False
37,Forty Winters@fortywinters,"Please, join us in darkness... downtown hahah. #Ether @fero_lux",4,1,0,False
38,iuri matias@iurimatias,"I'll be worried when/if #ethereum stops having HFs, because if that happens it means no more updates, no more innovation, just stagnation.",33,15,1,False
39,IoT World Series@IoTWorldSeries,.@TaylorGerring is about to explain the #IoT opportunities posed by #Ethereum #IoTSec16,5,2,0,False
40,Inside Crypto@Inside_Crypto,"Finally $XDN FOMO

$ETC $ETH $XMR $SDC",8,3,1,False
41,JΞFF@jeffehh,#ethereum testnet OK. Geth and Parity are in consensus http://morden.io unfortunately EthereumJ is screwing us with old blocks ;-),14,6,1,False
42,ULTRLOA crypto@UltrloaCrypto,"Crowdfunding that never been missed by all of us, stake now and smile later :) #vDice #crowdsale #ico #ethereum #ether #BitcoinUnlimited",1,0,0,False
43,Andrew Quentson@Aquentson,"#Ethereum Based #Blockchain Comes to High Fashion

https://cryptocoinsnews.com/blockchain-comes-high-fashion/…",2,0,0,False
44,Bekane Olana@bekansiif,"Donors should not be blinded by the hocus-pocus of #ETH dictators,disguise the genocide. #EU, #USAID is buying gun machine,NOT stopping AIDS",2,1,0,False
45,ShapeShift @ShapeShift_io,LATEST: What you need to know about the #Ethereum fork and ShapeShift: http://ow.ly/a83o305gYc4,4,2,0,False
46,HitBTC@hitbtc,"October 18th, 13:30 - 15:30 UTC #ETH deposits and withdrawals will be unavailable due to the #Ethereum hardfork.Ethereum Hardfork on October, 18th / HitBTC Official BlogRead the latest news and detailed articles about Ethereum Hardfork on October, 18th on the official HitBTC blogblog.hitbtc.com",3,0,0,False
47,Jaxx Liberty@jaxx_io,"Jaxx allows you to hold your #BTC, #ETH, #ETC, #LTC, #DSH & #REP in 1 wallet across various platforms. Download now http://jaxx.io",7,7,1,False
48,NEWSBTC@newsbtc,#Ethereum Price Technical Analysis – #ETH Relatively #Muted. http://bit.ly/2eloBuG,2,0,0,False
49,Jerome de Tychey @jdetychey,Such postcard came in the mail today from @joshuad31 much appreciated #ethereum community very #dogecoin friendly #DevCon2,6,2,0,False
50,BitcoinAgile@bitcoinagile,A Smart City Built on #ethereum? International #blockchain Week Explores Viability and More  https://medium.com/consensys-media/a-smart-city-built-on-ethereum-international-blockchain-week-explores-viability-and-more-a9aea91bd801…,2,3,0,False
51,BTC Sessions @BTCsessions,"Hey @exodus_io! I just did a walkthrough of your program with @ShapeShift_io! #bitcoin #dash #ethereumExodus - A Bitcoin and Crypto Desktop WalletToday I take a look at Exodus - A desktop asset manager that allows you to store and convert multiple cryptocurrencies, as well as get an overview of your cr...youtube.com",3,2,1,False
52,Julian Zawistowski @julianzawist,"I am thrilled to see this discussion, thank you #ethereum community! For sure this is food for thoughts while working on final whitepaper.Quote TweetGOLEM NETWORK (not doing airdrops - stay safe)@golemproject · Oct 17, 2016Reddit user uapan has kindly offered some criticism of our crowdsale whitepaper. Expect us to address these concerns https://reddit.com/r/ethereum/comments/57x1oh/the_crowdsale_analyst_golem_preliminary_thoughts/…",2,0,0,False
53,Jouko Salonen@JoukoSalonen,just a hunch from the third sentence - #Nordledger may have some #Ethereum news coming out soonWHAT WE DO - NordledgerWe design tokenized games instead of organizations and processes.nordledger.com,2,1,0,False
54,Dmitry ButΞrin@BlockGeekDima,Great Answers! Can someone please explain the concept of Smart contract in simple words? http://buff.ly/2dpg6Bc #blockchain #ethereum,2,0,0,False
55,JΞFF@jeffehh,"Unfortunately there's a regression in the latest #ethereum geth. Nothing too serious, just slow processing of the attack blocks. Update soon",9,5,2,False
56,CRYPTOCOINTALK@cryptocointalk,"Night of the Living $DAO: Token sale breathes life into #Ethereum Classic http://ibt.uk/A6eoL?utm_source=social&utm_medium=twitter&utm_campaign=/night-living-dao-token-sale-breathes-life-into-ethereum-classic-1586849… via @IBTimesUK #finance #fintech #altcoinNight of the Living DAO: Token sale breathes life into Ethereum ClassicThe appetite for token sales certainly isn't waning, but not everyone is enthusiastic.ibtimes.co.uk",1,1,0,False
57,Skills Matter@skillsmatter,Join @makoto_inoue at #chainconf on 5-6 Dec & learn about #BlockParty's meetup mngnt #Dapp on #Ethereum #Blockchain http://buff.ly/2de7PwL,2,2,0,False
58,Dmitry ButΞrin@BlockGeekDima,The #blockchain Technology That Will Replace Lawyers http://buff.ly/2euFQ1w #ethereum #bitcoin #business,0,0,0,False
59,Aradhna Sethi@AradhnaSethi,Feeling spookily out of the #world with this #Meteorit #eth #wow,1,0,0,False
60,Fred E @Fredilly,"Ethereum $ETC will be sticking around after all. The testnet $ETH, not so sure.Quote TweetEthereum Classic@eth_classic · Oct 16, 2016$ETC #Geth 3.0.0 also includes code for Freeze of Difficulty Bomb Hard Fork at block 3,000,000 sometime in Jan 2017. No PoS planned ATM. https://twitter.com/ansellindner/status/787725555302928384…",27,11,1,False
61,Gatecoin@Gatecoin,All upcoming token listings on Gatecoin will be postponed until after the next #Ethereum hard fork.,3,1,0,False
62,Hamlesh@hamlesh,I really wish everyone would stop whining about the #ethereum fork. The fork is a good thing. Ask and I'll explain.,2,0,0,False
63,Ameer Rosic@AmeerRosic,#Cryptocurrency: A New Economy For The Future http://dld.bz/eEbgr #bitcoin #blockchain #ethereum,1,1,0,False
64,BTCMANAGER@btc_manager,"@btc_manager's Week in Review Oct 17: Increasing Scrutiny of #DarkWeb #bitcoin Flows...
https://btcmanager.com/news/increasing-scrutiny-of-dark-web-bitcoin-flows-btcmanagers-week-in-review-oct-17/…
#news #blockchain #BTC #ETH",5,6,0,False
65,Nick@Nick_Hodl_NL,"Factom seems on a good level aswell again start collecting that aswell! Port; Maid, Fct and btc and some small amount of bad alts ;)Quote Tweetdruid andrew@andyypants · Oct 17, 2016Buying $BTM... Like of all these PnD coins on #poloniex this one has a real use case albiet not outside the exchange itself lol",2,0,0,False
66,druid andrew@andyypants,$MAID is having fun waves again finally. like there is so much room to just fluff it up like $FCT or $ETH.,1,1,0,False
70,BitcoinAgile@bitcoinagile,FAQ: Upcoming #ethereum Hard Fork - Ethereum Blog #HardFork https://blog.ethereum.org/2016/10/18/faq-upcoming-ethereum-hard-fork…,1,1,0,False
71,NEWSBTC@newsbtc,"Under Sustained Attack, #Ethereum to Introduce Hard #Forks. http://bit.ly/2dIghFn",1,0,0,False
72,Hernz@hernzzzzzz,"GDAX  posted this at 5:27p PST on Friday. Incase you missed it.  $ETH $ETCQuote TweetCoinbase Pro@CoinbasePro · Oct 14, 2016Update for customers with Ethereum stored on GDAX https://blog.gdax.com/update-for-customers-with-ethereum-stored-on-gdax-5abbbcc59899#.cg14lwdg5… #ethereum",1,0,0,False
73,Digiconomist@DigiEconomist,"It's official, #ETC - the"" truly immutable"" version of #Ethereum - has decided it will be, uhm, mutating..Quote TweetEthereum Classic@eth_classic · Oct 16, 2016Update for $ETC #Geth 3.0.0 just released. Includes code for Hard Fork at block 2,500,000 to change gas prices. https://github.com/ethereumproject/go-ethereum/releases…",0,0,0,False
74,Faith Emmanuel@residualbitcoin,Night of the Living DAO: Token sale breathes life into #ethereum Classic #DAO #Blockchain http://bitcoinagile.com/8C42AC/night-of-the-living-dao-token-sale-breathes-life-into-ethereum-classic_stream… …,1,0,0,False
76,BitcoinAgile@bitcoinagile,Night of the Living DAO: Token sale breathes life into #ethereum Classic #DAO #Blockchain http://bitcoinagile.com/8C42AC/night-of-the-living-dao-token-sale-breathes-life-into-ethereum-classic_stream…,0,0,0,False
77,Ethereum SE@StackEthereum,Multiple arguments and return params http://ethereum.stackexchange.com/questions/9361/multiple-arguments-and-return-params… #ethereum #goethereum #solidity #cppethereum #ethereumwalletdapp,0,0,0,False
78,CryptoRTs +  = @CryptoRTs,"RT Fredilly: Ethereum $ETC will be sticking around after all. The testnet $ETH, not so sure.Quote TweetEthereum Classic@eth_classic · Oct 16, 2016$ETC #Geth 3.0.0 also includes code for Freeze of Difficulty Bomb Hard Fork at block 3,000,000 sometime in Jan 2017. No PoS planned ATM. https://twitter.com/ansellindner/status/787725555302928384…",1,0,0,False
79,ETHNews@ETHNews_,"Have any questions about the upcoming #HardFork? The #Ethereum Foundation is here to answer any of your questions.Quote TweetEthereum@ethereum · Oct 17, 2016New Blog Post! ""FAQ: Upcoming Ethereum Hard Fork"" #HardFork #Ethereum https://blog.ethereum.org/2016/10/18/faq-upcoming-ethereum-hard-fork/…",0,0,0,False
80,Brodie_Michael@Brodie_MT,"If you're thinking about buying #bitcoin get $10 extra (for both of us) by using this link:

http://coinbase.com/join/Brodie?sr…

#btc #eth $usd",2,0,0,False
81,CoinGecko@coingecko,The latest Ethereum price is USD 11.94. For historical #Ethereum price charts - http://buff.ly/1Y3h6Jz,0,0,0,False
83,Alberto Jauregui | esoteRICK.eth @DisruptBanksy,http://ift.tt/2e0yhy1 FAQ: Upcoming Ethereum Hard Fork #ethereum #ether,0,0,0,False
84,Chris Williams is typing...@Scampiuk,FAQ: Upcoming Ethereum Hard Fork http://ift.tt/2e0yhy1 #ethereum,1,0,0,False
86,TalkMarkets Recap@MarketsRecap,"BioDiesel Firm, Renewable Energy Group, Leads Our Upgrades For The Week $ETH $JPM $FIBK $REGI $PB https://goo.gl/l0XFd2",0,0,0,False
87,ExploreTraveler@exploretravel1,RT @BitcoinBrasil10: Bitcoin Scaling Solution SegWit Gets Possible Release Date http://lnkplg.co/vaXrr #Bitcoin #blockchain #ethereum…,0,0,0,False
88,CryptoRTs +  = @CryptoRTs,"New Blog Post! ""FAQ: Upcoming Ethereum Hard Fork"" #HardFork #Ethereum https://blog.ethereum.org/2016/10/18/faq-upcoming-ethereum-hard-fork/…",0,0,0,False
89,Faith Emmanuel@residualbitcoin,FAQ: Upcoming #ethereum Hard Fork - Ethereum Blog #HardFork https://blog.ethereum.org/2016/10/18/faq-upcoming-ethereum-hard-fork… #ResidualBitcoin,0,0,0,False
92,Bitcoin Brasil@BitcoinBr10,Bitcoin Scaling Solution SegWit Gets Possible Release Date http://bitcoinbrasil10.blogspot.com.br/2016/10/bitcoin-dimensionamento-segwit-solucao.html… #Bitcoin #blockchain #ethereum #monero #ardr #altcoin,3,3,0,False
93,Coinstats@coinstats,"Ethereum Classic - ETC
Price: $1.07937
Change in 1h: +0.55%
Market cap: $91724754.0
Ranking: 5
#Ethereum Classic #ETC",0,0,0,False
94,Coinstats@coinstats,"Ethereum - ETH
Price: $11.9731
Change in 1h: +-0.29%
Market cap: $1018568750.0
Ranking: 2
#Ethereum #ETH",0,0,0,False
95,Faith Emmanuel@residualbitcoin,A Smart City Built on #ethereum? International #blockchain Week Explores Viability and More  https://medium.com/consensys-media/a-smart-city-built-on-ethereum-international-blockchain-week-explores-viability-and-more-a9aea91bd801… …,0,0,0,False
96,JuanGalt.com@JuanSGalt,"Get ready for the #Ethereum Fork, make sure you are running the right wallet if you are on #ETC!Quote TweetAvtar Singh Sehra@avtarsehra · Oct 17, 2016@Ethereum HF @ block 2,463,000 even with --oppose-dao-fork flag.To continue using immutable ETC upgrade to ETC Geth: http://bit.ly/2e0eTBe",2,0,0,False
99,Netcube93@Netcube93,Live in about 19 hours & 20 minutes: Coin Interview with Sergey Ivliev COO of #Lykke https://youtube.com/watch?v=T_vj1jjH-m0… #bitcoin #blockchain #ethereum,1,0,0,False
101,BitcoinAgile@bitcoinagile,#ethereum Hard Forks Without A Peep #hardfork http://ethnews.com/ethereum-hard-forks-without-a-peep…,0,0,0,False
102,ETHNews@ETHNews_,#Ethereum Hard Forks Without A Peep #hardfork http://ow.ly/iUNW305h0c0,0,0,0,False
103,Faith Emmanuel@residualbitcoin,#ethereum Is About To Hard Fork Again  #bitcoin Chaser #Fintech http://linkplugapp.com/jqKj7  #ResidualBitcoin,1,0,0,False
104,AltCryptoFollow@AltCryptoFollow,"$ZEC $BTC $ETH #Zcash Hashpower doubled on https://genesis-mining.com
It's time to buy a mining contract! Use this code for 3% discount: Ps9V4K",0,0,0,False
105,BitcoinAgile@bitcoinagile,#ethereum Is About To Hard Fork Again  #bitcoin Chaser #Fintech http://linkplugapp.com/jqKj7,1,1,0,False
106,ExploreTraveler@exploretravel1,RT @TzviShishler: #Ethereum Is About To Fork Again! #Fintech #Bitcoin http://lnkplg.co/jqKj7,0,0,0,False
107,druid andrew@andyypants,Replying to @Nick_Hodl_NL$MAID is having fun waves again finally. like there is so much room to just fluff it up like $FCT or $ETH.,1,1,0,False
108,Coinstats@coinstats,"Ethereum Classic - ETC
Price: $1.07562
Change in 1h: +-2.1%
Market cap: $91404779.0
Ranking: 5
#Ethereum Classic #ETC",0,0,0,False
109,Bobe'bot@Bobe_bot,"1 #BTC = 647.7064 #CHF
1 #ETH = 12.4759 #CHF
1 #DOGE = 0.000221266944 #CHF
sources: @cryptonatorcom @hellobity",0,0,0,False
110,Coinstats@coinstats,"Ethereum - ETH
Price: $12.0075
Change in 1h: +-0.08%
Market cap: $1021478750.0
Ranking: 2
#Ethereum #ETH",0,0,0,False
111,Ethereum SE@StackEthereum,All-or-Nothing Transaction Support http://ethereum.stackexchange.com/questions/9357/all-or-nothing-transaction-support… #ethereum #solidity #web3js,0,0,0,False
112,Faith Emmanuel@residualbitcoin,"Imminent #ethereum #blockchain hard fork announcement - Bitfinex blog http://blog.bitfinex.com/announcements/imminent-ethereum-blockchain-hard-fork-announcement… #ResidualBitcoinImminent Ethereum blockchain hard fork announcement - Bitfinex blogTo mitigate the ongoing denial of service attacks on the Ethereum blockchain, the Ethereum Foundation has announced a hard fork. The hard fork will be put into effect after block 2463000 is mined,...blog.bitfinex.com",0,0,0,False
113,BitcoinAgile@bitcoinagile,"Imminent #ethereum #blockchain hard fork announcement - Bitfinex blogImminent Ethereum blockchain hard fork announcement - Bitfinex blogTo mitigate the ongoing denial of service attacks on the Ethereum blockchain, the Ethereum Foundation has announced a hard fork. The hard fork will be put into effect after block 2463000 is mined,...blog.bitfinex.com",1,0,0,False
114,Chevdor@chevdor,Dapp dev should check if their #Ethereum contacts or UI contain gas value information.  Those contracts may stop working properly after HF.,0,0,0,False
115,Ameer Rosic@AmeerRosic,What are most obvious opportunities for using #Ethereum #blockchain right now? http://buff.ly/2dfUYyM #business #investing #fintech,0,0,0,False
118,CPHS Volleyball@cp_volleyball,This is where we are today...everything resets at sectional time. Train like BEAST. #ETH,10,5,0,False
119,Numerati. Twetch#: @1033@MirakhorHassan,Interesting business model. The company tells you to get your money out quick. #ethereum https://twitter.com/IamNomad/status/788103708160778240…This Tweet is unavailable.,2,1,0,False
120,BitcoinAgile@bitcoinagile,#ethereum Is About To Hard Fork Again  #bitcoin Chaser #Fintech http://bitcoinagile.com/8C3A70/ethereum-is-about-to-hard-fork-again-bitcoin-chaser_stream…,3,0,0,False
121,Tzvi Shishler@TzviShishler,#Ethereum Is About To Fork Again! #Fintech #BitcoinEthereum Is About To Hard Fork Again | Bitcoin ChaserNot a lot of people have been talking about the most recent Ethereum hard fork but it could have an impact on the price of Ether.bitcoinchaser.com,0,0,0,False
122,ExploreTraveler@exploretravel1,RT @BitNewsClick: #News: 1 day to make eth great again!: #ethereum #ether http://lnkplg.co/R6veX,0,0,0,False
123,Ethereum SE@StackEthereum,Is possible to transfer data between nodes using cpp-ethereum's whisper protocol? http://ethereum.stackexchange.com/questions/9356/is-possible-to-transfer-data-between-nodes-using-cpp-ethereums-whisper-protocol… #ethereum #cppethereum #whisper,0,0,0,False
124,Ameer Rosic@AmeerRosic,What is Ethereum? Step-by-Step #Ethereum Infographic http://bit.ly/22M90bd #Blockchain #Bitcoin,1,0,0,False
126,xeniar@xeniar,"Night of the Living DAO: Token sale breathes life into #Ethereum Classic http://ibt.uk/A6eoL?utm_source=social&utm_medium=twitter&utm_campaign=/night-living-dao-token-sale-breathes-life-into-ethereum-classic-1586849… via @IBTimesUK @borgdaoNight of the Living DAO: Token sale breathes life into Ethereum ClassicThe appetite for token sales certainly isn't waning, but not everyone is enthusiastic.ibtimes.co.uk",0,0,0,False
129,Coinstats@coinstats,"Ethereum Classic - ETC
Price: $1.09941
Change in 1h: +1.85%
Market cap: $93425535.0
Ranking: 5
#Ethereum Classic #ETC",0,0,0,False
130,Coinstats@coinstats,"Ethereum - ETH
Price: $12.0173
Change in 1h: +0.01%
Market cap: $1022302175.0
Ranking: 2
#Ethereum #ETH",0,0,0,False
131,Ethereum Price@EthereumPrice_,"#Ethereum: Ether Price Index
1 ETH =0.018759Ƀ XBT = $12.014500 USD
Today: +0.86%⬆︎ Last 24h: +0.79%⬆︎
https://ethereum-price.com",1,0,0,False
132,Bekane Olana@bekansiif,"#ETH State media says 1,000 arrested in Sabata,small town in outskirts of Addis Ababa.Imagine how many arrested in Oromia. @USEmbassyAddis",1,0,0,False
133,Crypto Price Ticker@TickerCrypto,"#Ethereum #ETH Rank:2 Last:฿0.01883519(1.025%) High:Buy Instantly! on  Low:฿0.01883519 Vol:฿6,769 Market Cap:฿1,602,288 / $1,019,733,553.21",0,0,0,False
134,Crypto Promotion@AllcoinGive,Free #Ethereum every 5 minutes https://cryptosource.net/free-ethereum/?r=shIX0FLd22… #Ethereum via @CryptoSourceHQ,1,0,0,False
135,Altcoinix[KLKS]@Yavuzcetinkaya3,Big Pump Coming for Folding Coin #FLDC #poloniex #bitcoin #ethereum,1,0,0,False
136,MIR A Petit Pélican@JoniFlingo,Fork is everywhere #ethereum,0,0,0,False
137,/r/Ethereum@r_Ethereum,How would a for-profit organization work on a fully decentralized internet? http://bit.ly/2e0hz1C #EthereumHow would a for-profit organization work on a fully decentralized...reddit.com,0,0,0,False
139,Faith Emmanuel@residualbitcoin,Battle of the Blockchains #ethereum #blockchain #fintech #Bitcoin http://bitcoinagile.com/8C373E/battle-of-the-blockchains_stream…  #ResidualBitcoin,1,1,0,False
140,BitcoinAgile@bitcoinagile,Battle of the Blockchains #ethereum #blockchain #fintech #Bitcoin http://bitcoinagile.com/8C373E/battle-of-the-blockchains_stream…,2,2,0,False
142,Christof Claessens@xstof,"TechCrunch Premieres Bitcoin and Blockchain Video Series #bitcoin #ethereumTrust Disrupted: TechCrunch Premieres Bitcoin and Blockchain Video...On October 10, TechCrunch a leading technology site that profiles startups as well as hot internet trends and tech news, premiered its first ever seriesbitcoinmagazine.com",0,0,0,False
145,Brave New Coin@bravenewcoin,#Ethereum Price: USD $12.07 #ETH http://ow.ly/6UKf3048WBe,0,0,0,False
146,Blockgeeks@Blockgks,Can This 22-year-old Coder Out-Bitcoin #Bitcoin? http://dld.bz/eWMa7 #ethereum,1,0,0,False
147,Barrio@BarrioFinito," you cant do that with #btc ....try #eth Quote Tweetalp@alpacasw · Oct 17, 2016Replying to @JZAK07 and @ExcellionArtificial limits are bad, we need to scale Bitcoin by making more coins.",0,0,0,False
148,Coinstats@coinstats,"Ethereum Classic - ETC
Price: $1.0757
Change in 1h: +0.29%
Market cap: $91409308.0
Ranking: 5
#Ethereum Classic #ETC",0,0,0,False
149,Coinstats@coinstats,"Ethereum - ETH
Price: $12.0246
Change in 1h: +0.26%
Market cap: $1022907009.0
Ranking: 2
#Ethereum #ETH",0,0,0,False
150,⛧ God of Gaming ⛧@TheGodofGamez,Myths which are believed in tend to become true. $ETH,0,0,0,False
151,Jouko Salonen@JoukoSalonen,#RegTech Endgames https://nordledger.com/2016/10/09/regtech-endgames/… #Ethereum #blockchain #blackocean strategy,1,0,0,False
152,DeFi Lover.@ToxicMaximalism,"Checkout the best #Ethereum DAPP project #ICO http://crowdsale.vdice.io
#vDice #crowdsale #ether #bitcoin",0,0,0,False
153,Blockgeeks@Blockgks,Join the chat! Alternative forms of Proof of Work: more productive & useful mining? http://buff.ly/2ey3eeM #bitcoin #blockchain #ethereum,0,0,0,False
155,Ethereum SE@StackEthereum,How do I fix this Geth installation problem? http://ethereum.stackexchange.com/questions/9354/how-do-i-fix-this-geth-installation-problem… #ethereum #goethereum #blockchain,0,0,0,False
156,Faith Emmanuel@residualbitcoin,#ethereum Exchanges Prepare For the Hard Fork #Exchanges #HardFork http://ethnews.com/ethereum-exchanges-prepare-for-the-hard-fork…  #ResidualBitcoin,0,0,0,False
158,humla@awereweaceh,Free #Ethereum every 5 minutes https://cryptosource.net/free-ethereum/?r=shIX0FLd22… #Ethereum via @CryptoSourceHQ,1,0,0,False
159,Bekane Olana@bekansiif,"People in #ETH cannot open #BBC @AJENews @GermanRadio or any outside websites except the regime State run TV propoganda. @AmbassadorPowerQuote TweetBBC News Africa@BBCAfrica · Oct 17, 2016Banned in Ethiopia
Facebook posts on the protests
Watching dissident TV channels
And 5 other things you can't do
http://bbc.in/2dZncx8",0,0,0,False
160,BitcoinAgile@bitcoinagile,#ethereum Exchanges Prepare For the Hard Fork #Exchanges #HardFork http://ethnews.com/ethereum-exchanges-prepare-for-the-hard-fork…,0,0,0,False
161,ETHNews@ETHNews_,#Ethereum #Exchanges Prepare For the #HardFork http://ow.ly/Epdf305gDu7,0,0,0,False
162,Cris Carrascosa @CarrascosaCris_,"#hardfork coming #ethereumQuote TweetEthereum@ethereum · Oct 17, 2016Hard fork in 18 hours. Please update your Ethereum clients. Download links here: https://reddit.com/r/ethereum/comments/57z3zi/hard_fork_in_less_than_24_hours_upgrade_your/…",0,0,0,False
163,Jonathan Kortleven@J_Kortleven,"Update ALL the clients! #Ethereum #Hardfork 18 hours and counting!
https://reddit.com/r/ethereum/comments/57z3zi/hard_fork_in_less_than_24_hours_upgrade_your/…",1,1,0,False
165,Massimo Chiriatti@massimochi,"HARD FORK IN LESS THAN 24 HOURS. UPGRADE YOUR CLIENT [OFFICIAL #ETHEREUM UPDATE LINKS]
https://reddit.com/r/ethereum/comments/57z3zi/hard_fork_in_less_than_24_hours_upgrade_your/…",1,0,0,False
166,Faith Emmanuel@residualbitcoin,An introduction to #ethereum and Solidity with Dave Hoover https://media.consensys.net/2016/06/14/1641  #ResidualBitcoin,0,0,0,False
167,Cees Grootes@Analyticus,"If I only had 5 minutes to explain blockchain
http://cio.com/article/3112773/it-industry/if-i-only-had-5-minutes-to-explain-blockchain.html… #blockchain #bitcoin #ethereum",6,3,0,False
168,/r/Ethereum@r_Ethereum,HARD FORK IN LESS THAN 24 HOURS. UPGRADE YOUR CLIENT [OFFICIAL ETHEREUM UPDATE LINKS] http://bit.ly/2edKON5 #Ethereum,0,0,0,False
169,/r/Ethereum@r_Ethereum,Conspiracy Theory: Ethereum attacker is Microsoft? http://bit.ly/2edILZi #EthereumConspiracy Theory: Ethereum attacker is Microsoft?reddit.com,0,0,0,False
170,/r/Ethereum@r_Ethereum,Ethereum Hard Fork - http://QuadrigaCX.com http://bit.ly/2eKgL27 #Ethereum,0,0,0,False
171,BitcoinAgile@bitcoinagile,An introduction to #ethereum and Solidity with Dave Hoover https://media.consensys.net/2016/06/14/1641,1,1,0,False
172,Blockgeeks@Blockgks,Check it out! Beginners guide to #Blockchain http://buff.ly/2dvhaDX #bitcoin #ethereum #startup,0,0,0,False
173,Coinstats@coinstats,"Ethereum Classic - ETC
Price: $1.07252
Change in 1h: +-0.14%
Market cap: $91137645.0
Ranking: 5
#Ethereum Classic #ETC",0,0,0,False
174,Coinstats@coinstats,"Ethereum - ETH
Price: $12.0009
Change in 1h: +0.12%
Market cap: $1020876177.0
Ranking: 2
#Ethereum #ETH",0,0,0,False
175,Gerald de Jong@fluxe,"Replying to @el33th4xorimmutability must be earned over time. the #ethereum group knows, anticipates forks not #forklore. it's antifragile. @nntaleb",1,0,0,False
176,Ameer Rosic@AmeerRosic,"Join today! Blockgeeks is a #Blockchain innovation hub 
& marketplace http://blockgeeks.com #Bitcoin #Ethereum",4,6,0,False
178,Gerald de Jong@fluxe,"ETC young adults are allowed to leave to see what the ETH world is like when they come of age. Most return. #forklore #ethereumQuote TweetEmin Gün Sirer@el33th4xor · Oct 17, 2016ETC are the Amish of Ethereum. Amusing to watch them lift a bumper from a Lambo to attach to their buggy.",1,0,0,False
179,Fintech news@currencies111,"Invest in #vDice crowdsale now for cheaper price, decentralized dice game
http://crowdsale.vdice.io
#crowdsale #ico #ethereum #ether #bitcoin",0,0,0,False
180,QueenTatiana@queentatiana,The Tatiana Show - Rik Willard Of Agentic Group & Arthur Falls of The Ether Review #Ethereum http://slninja.com/xziv,0,0,0,False
181,Nick Ayton@NickAyton,Replying to @ashotchiflikNo contest they serve different purposes @ashotchiflik @edgylabsdotcom #blockchain #ethereum #bitcoin,4,3,1,False
183,kim macleod@bakerygirl9,"Thinking Of #Investing In #Ether? Get Started Now! 3% Discount w/ Coupon - 8rRBkl http://dld.bz/ePx6q
#Ethereum",0,0,0,False
184,John Gerryts@phonikg,I just signed up to @ethstatus - an #ethereum #dapps browser for mobile: https://status.im/invite/1219-8a4bf7bd…,1,0,0,False
185,TechPORTFOLIO@TechPORTFOLIO,"Theft caused #Ethereum #developers to clean house, and the fix ethically split users ► http://newsr.ms/pJjQSZ0",1,0,0,False
186,Cryptociraptor@cryptociraptor,@codetractio Ethereum Hardfork Countdown (18hours left)#ethereum https://fork.codetract.io,1,0,0,False
187,Ameer Rosic@AmeerRosic,"#Blockchain can be confusing, but it doesn't have to be.  http://blockgeeks.com #bitcoin #Ethereum",2,0,0,False
188,ExploreTraveler@exploretravel1,RT @ethoverflow: How to send custom tokens without ether? http://lnkplg.co/NjQ1b #ethereum #stackexchange,0,0,0,False
189,Blockchain News@blockchainers,From the Archives at #Blockchain News: #John Hancock’s #Lab of F http://bit.ly/2diKdvT @blockchainers #AceMoghimi #Blockapps #Ethereum,2,0,0,False
190,Faith Emmanuel@residualbitcoin,"The Ether Review #21 — Roman Mandeleil, #ethereum Full Transparency – The Ether Review #bitcoin #blockchain #medium …",0,0,0,False
192,BitcoinAgile@bitcoinagile,"The Ether Review #21 — Roman Mandeleil, #ethereum Full Transparency – The Ether Review #bitcoin #blockchain #mediumThe Ether Review #21 — Roman Mandeleil, Ethereum Full TransparencyEthereum Full Transparency is a feature that has recently been added to the live.ether.camp blockchain explorer. It now allows the user to…etherreview.info",0,0,0,False
193,Coinstats@coinstats,"Ethereum Classic - ETC
Price: $1.07308
Change in 1h: +-1.4%
Market cap: $91183501.0
Ranking: 5
#Ethereum Classic #ETC",0,0,0,False
194,Coinstats@coinstats,"Ethereum - ETH
Price: $11.9883
Change in 1h: +-0.12%
Market cap: $1019787458.0
Ranking: 2
#Ethereum #ETH",0,0,0,False
195,Ethereum SE@StackEthereum,How to send custom tokens without ether? http://ethereum.stackexchange.com/questions/9351/how-to-send-custom-tokens-without-ether… #ethereum #solidity #tokens #outofgas #refundCan contracts pay the gas instead of the message sender?Is it possible for a contract to pay the gas costs (or part of it) that result from the contract being called? Or does the sender of a message always pay the resulting gas costs no matter what?ethereum.stackexchange.com,0,0,0,False
196,Olivier Chapiteau@o_chapiteau,"17Oct2016 18:00 UTC #Ether #Blockchain status - Block height @ 2,458,184 - 31,692 unconfirmed tr. - Last fork height @ 2,458,178",0,0,0,False
197,Olivier Chapiteau@o_chapiteau,17Oct2016 18:00 UTC #Ethereum live spots - #Ether @ 11.96908 $ - #EtherClassic @ 1.08066 $,0,0,0,False
198,Ethereum Price@EthereumPrice_,"#Ethereum: Ether Price Index
1 ETH =0.018725Ƀ XBT = $11.955000 USD
Today: +0.67%⬆︎ Last 24h: +1.00%⬆︎
https://ethereum-price.com",0,0,0,False
199,Faith Emmanuel@residualbitcoin,Night of the Living DAO: Token sale breathes life into #ethereum Classic #DAO #Blockchain http://bitcoinagile.com/8C2BB7/night-of-the-living-dao-token-sale-breathes-life-into-ethereum-classic_stream… …,0,0,0,False
200,DecentralizedCapital@Decen_Capital,New technology may soon resurrect the sharing economy in a very radical form: http://bit.ly/2dvxmEQ via @guardian. #ethereum #blockchain,0,0,0,False
201,BitcoinAgile@bitcoinagile,Night of the Living DAO: Token sale breathes life into #ethereum Classic #DAO #Blockchain http://bitcoinagile.com/8C2BB7/night-of-the-living-dao-token-sale-breathes-life-into-ethereum-classic_stream…,0,0,0,False
202,Ktma@kt2am1990,"#ethereum when will #raiden be ready for use on main chain
https://reddit.com/r/ethereum/comments/57uwhj/when_will_raiden_be_ready_for_use_on_main_chain/…",0,0,0,False
203,/r/Augur@AugurFeed,"#reddit Using Augur - Reporting from a contract http://bit.ly/2eamw7q #ethereum #augurUsing Augur - Reporting from a contractIs there a list of functions to call somewhere for reporting, and how they get called? The API is surprisingly unhelpful.reddit.com",1,0,0,False
204,Cryptociraptor@cryptociraptor,New technology may soon resurrect the sharing economy in a very radical form https://theguardian.com/technology/2016/oct/17/sharing-economy-capitalism-uber-airbnb-ownership?CMP=share_btn_tw… #ethereum,1,0,0,False
205,Get Free Dogecoin@GetDogecoin,"GET FREE #DOGE
Win dogecoin every 60 minutes
http://goo.gl/hE5Bk6
#doge #dogecoin
#Ethereum
#bitcoin #litecoin #PrimeDay",0,0,0,False
206,Faith Emmanuel@residualbitcoin,"How can I open a Crypto-Currency based account, such as #bitcoin and #ethereum? #Hercules http://hercules.finance/faq/how-can-i-open-a-crypto-currency-based-account-such-as-bitcoin-and-ethereum… …",0,0,0,False
207,BitcoinAgile@bitcoinagile,"How can I open a Crypto-Currency based account, such as #bitcoin and #ethereum? #Hercules http://hercules.finance/faq/how-can-i-open-a-crypto-currency-based-account-such-as-bitcoin-and-ethereum…",1,0,0,False
208,Faith Emmanuel@residualbitcoin,"#blockchain, IoT, Drones & #ethereum, All in One http://finteknews.com/index.php?option=com_k2&view=item&id=709:blockchain-iot-drones-ethereum-all-in-one&Itemid=374&-daily-newsletter…  #ResidualBitcoin",0,0,0,False
209,Faith Emmanuel@residualbitcoin,#ethereum Classic Divided Over the Proposed Hardfork http://blog.swiscoin.com/ethereum-classic-hardfork…  #ResidualBitcoin,0,0,0,False
210,BitcoinAgile@bitcoinagile,"#blockchain, IoT, Drones & #ethereum, All in One http://finteknews.com/index.php?option=com_k2&view=item&id=709:blockchain-iot-drones-ethereum-all-in-one&Itemid=374&-daily-newsletter…",2,0,0,False
211,BitcoinAgile@bitcoinagile,#ethereum Classic Divided Over the Proposed Hardfork http://blog.swiscoin.com/ethereum-classic-hardfork…,1,2,0,False
213,Coinstats@coinstats,"Ethereum Classic - ETC
Price: $1.086
Change in 1h: +1.51%
Market cap: $92280059.0
Ranking: 5
#Ethereum Classic #ETC",0,0,0,False
214,Coinstats@coinstats,"Ethereum - ETH
Price: $12.0082
Change in 1h: +0.91%
Market cap: $1021457294.0
Ranking: 2
#Ethereum #ETH",0,0,0,False
215,Tedy MD@bitcoinjapanese,Team Lightskinned http://vid.staged.com/IKnt #btcjapan #btcchina #ethereum.co.id,0,0,0,False
217,⛧ God of Gaming ⛧@TheGodofGamez,All seasons are beautiful for the person who carries happiness within. $ETH,0,0,0,False
218,BitcoinAgile@bitcoinagile,Night of Living DAO: Token sale breathes life into #ethereum Classic #DAO #Blockchain http://ibtimes.co.uk/night-living-dao-token-sale-breathes-life-into-ethereum-classic-1586849…,2,1,1,False
220,TalkMarkets@TalkMarkets,"BioDiesel Firm, Renewable Energy Group, Leads Our Upgrades For The Week $ETH $JPM $FIBK $REGI $PB https://goo.gl/l0XFd2",0,0,0,False
221,FailCommunity@FAILCommunity,#Ethereum hard fork in ~20hrs https://fork.codetract.io #ether #eth,1,0,0,False
222,BenderDrummer@BenderDrummer,#Ethereum logo in the wild?,0,0,0,False
223,Martin Storm Larsen@MrStormLars,"New technology may soon resurrect the sharing economy in a very radical form https://theguardian.com/technology/2016/oct/17/sharing-economy-capitalism-uber-airbnb-ownership?CMP=share_btn_tw… #ethereumThe future: where borrowing is the norm and ownership is luxuryTurn any idle asset into a productive piece of capital. All you have to do is set a price, and the robots will take care of the rest. What could possibly go wrong?theguardian.com",1,2,0,False
224,GX-Coin@gx_coin,$1.3 million #bitcoin theft being investigated http://ow.ly/pw393052IjH #cryptocurrency #blockchain #ethereum,0,0,0,False
226,Ameer Rosic@AmeerRosic,Join our chat! Who exactly sets up (or codes) the Smart contracts into the #blockchain system?  http://buff.ly/2dksvmL #ethereum #bitcoin,2,3,0,False
227,Faith Emmanuel@residualbitcoin,[2016-10-17] #ethereum's Hard Fork Drags Classic Along with it #bitcoin http://bitcoinagile.com/8C21D2/2016-10-17-ethereums-hard-fork-drags-classic-along-with-it_stream… #ResidualBitcoin,0,0,0,False
228,ETHNews@ETHNews_,"#Ether Price Correcting Higher, But Still Ranging #Ethereum #ETH http://ow.ly/6YnR305g8jz",0,0,0,False
229,Brave New Coin@bravenewcoin,#Ethereum Price: USD $11.95 #ETH http://ow.ly/6UKf3048WBe,0,0,0,False
230,indirasiri@indirasiri,"#beautifulsky , #ether #sirilakshmi #winterworkshop2016 , #codydock 23 October , 10am , places… https://instagram.com/p/BLq4f2ahKdC/",0,0,0,False
231,Blockgeeks@Blockgks,How does #blockchain work? The ultimate guide  http://buff.ly/2dvhaDX #bitcoin #ethereum #startup,0,0,0,False
232,Coinstats@coinstats,"Ethereum Classic - ETC
Price: $1.06919
Change in 1h: +-0.16%
Market cap: $90850290.0
Ranking: 5
#Ethereum Classic #ETC",0,0,0,False
233,Bobe'bot@Bobe_bot,"1 #BTC = 650.0113 #CHF
1 #ETH = 12.3597 #CHF
1 #DOGE = 0.000222049728 #CHF
sources: @cryptonatorcom @hellobity",0,0,0,False
234,Coinstats@coinstats,"Ethereum - ETH
Price: $11.8992
Change in 1h: +-0.14%
Market cap: $1012168998.0
Ranking: 2
#Ethereum #ETH",0,0,0,False
235,Sravani @ IOT.Review@sravani2015,"Blockchain in an M2M world .... not ready quite, architecture got to scale up. #ethereum # IoT",1,0,0,False
236,BitcoinAgile@bitcoinagile,[2016-10-17] #ethereum's Hard Fork Drags Classic Along with it #bitcoin http://bitcoinagile.com/8C21D2/2016-10-17-ethereums-hard-fork-drags-classic-along-with-it_stream…,1,0,0,False
237,Faith Emmanuel@residualbitcoin,Ethereums Hard Fork Drags Classic Along with it #Ethereum #ETH #ETC #news #crypto http://bitcoinagile.com/8C20E7/ethereums-hard-fork-drags-classic-along-with-it_stream…  #Residu…,0,0,0,False
240,ola.a@cryptoInnovator,Useful #token #coins #ICO #terminology #ETH #ETC: http://coindesk.com/appcoin-law-part-1-icos-the-right-way/…,0,0,0,False
241,Netcube93@Netcube93,#Blockchain-based exchange #Lykke raises $1M at ICO https://news.hodlhodl.com/news/blockchain-based-exchange-lykke-raises-1m-at-ico-545… #lykkewallet #lykkeico #bitcoin #ethereum,1,0,0,False
243,/r/Ethereum@r_Ethereum,Will I have to do anything to my Ledger ETH balance after the upcoming fork to keep them safe. http://bit.ly/2enSU53 #EthereumWill I have to do anything to my Ledger ETH balance after the...So we had the last fork and I'm sure I'm not the only one who ubruptly had alot of anxiety from the talk of splitting and replay attacks and such...reddit.com,0,0,0,False
246,Blockgeeks@Blockgks,"Join our chat! If you had to invest $1mln for 5 years, would you invest into #Ethereum or #Bitcoin? http://buff.ly/2e9BMkV",1,1,0,False
248,José Carlos Baquero @jbaquerot,"Why J.P. Morgan Chase Is Building a #Blockchain on #EthereumWhy J.P. Morgan Chase Is Building a Blockchain on EthereumIt's called ""Quorum."" J.P. Morgan Chase is developing a blockchain, commonly referred to as a public ledger, atop a crypto-network called Ethereum. The system, dubbed “Quorum,” is designed to toe...bcvcsc.tumblr.com",0,0,0,False
249,⛧ God of Gaming ⛧@TheGodofGamez,He who fears being conquered is sure of defeat. $ETH,0,0,0,False
250,XD@MichalBrazewicz,"#golem #ethereum #blockchain #CloudComputing great story of the amazing teamQuote TweetGOLEM NETWORK (not doing airdrops - stay safe)@golemproject · Oct 17, 2016So Who The Heck Are We, Anyway? The (short) story of how @imapp_pl was born and eventually formed the @golemproject https://blog.golemproject.net/so-who-the-heck-are-we-anyway-27fc212c600e…",1,0,0,False
251,Giovanni@digital_hustla,"Check out Status a new mobile #ethereum client! https://status.im/?mwr=1219-7a57a74e&mws=twitter… @ethstatusStatus - Private, Secure CommunicationStatus brings the power of Ethereum into your pocket by combining a messenger, crypto-wallet, and Web3 browser.status.im",0,0,0,False
252,Bob Evans@Bob_Evans_MA,The Operating Room that changed history https://statnews.com/2016/04/11/ether-dome-video/… @MassGeneralNews #ether #anesthesia #boston #surgery,0,0,0,False
254,Bitcoin Brasil@BitcoinBr10,Aplicativo Easy Bitcoin Faucet http://bitcoinbrasil10.blogspot.com.br/2016/10/easy-bitcoin-faucet-bitcoinbrasil.html… #Bitcoin #blockchain #ethereum #faucet #btc #altcoin #android #cryptocurrency #monero,1,0,0,False
256,Spartak Tomanov@bulgar1an,#ETC is back in top 5 digital currencies. #Ethereum,1,0,0,False
258,Blockgeeks@Blockgks,Great people deserve a great audience. http://blockgeeks.com #Blockchain #Ethereum #Bitcoin,1,0,0,False
259,Coinstats@coinstats,"Ethereum Classic - ETC
Price: $1.07108
Change in 1h: +-0.43%
Market cap: $91009875.0
Ranking: 5
#Ethereum Classic #ETC",0,0,0,False
260,Coinstats@coinstats,"Ethereum - ETH
Price: $11.9179
Change in 1h: +0.19%
Market cap: $1013747196.0
Ranking: 2
#Ethereum #ETH",0,0,0,False
261,Ethereum SE@StackEthereum,What is the difference between testRPC and geth? http://ethereum.stackexchange.com/questions/9347/what-is-the-difference-between-testrpc-and-geth… #ethereum #goethereum #testrpc,0,0,0,False
262,Ethereum Price@EthereumPrice_,"#Ethereum: Ether Price Index
1 ETH =0.018540Ƀ XBT = $11.890000 USD
Today: -0.32%⬇︎ Last 24h: -0.91%⬇︎
https://ethereum-price.com",0,0,0,False
263,Ameer Rosic@AmeerRosic,The #blockchain Technology That Will Replace Lawyers http://buff.ly/2euI3ub #ethereum #bitcoin #business,1,0,0,False
264,a5ym4e@a5ym4e,"Trust Disrupted: Bitcoin and the Blockchain ep1-7 http://bit.ly/2eJsDRY @TechCrunch @nathanielpopper #blockchain #bitcoin #ethereumTrust Disrupted: Bitcoin and the Blockchain trailerTrust Disrupted: Bitcoin and the Blockchain traces the rise of Bitcoin and the technology that made it happen: the open, distributed ledger known as the bloc...youtube.com",0,0,0,False
265,fintechfolk@fintechfolk,Thanks @jasoneng_ for registering for FinTechFolk - http://zpr.io/Mnfj #fintech #ethereum #bitcoin #blockchain,1,2,0,False
266,GroundZero@groundzero2k,Free #Ethereum every 5 minutes https://cryptosource.net/free-ethereum/?r=VhO2aKZExJ… #Ethereum via @CryptoSourceHQ,1,0,0,False
267,Christof Gellan@ChristofGellan,"Meet @Inchain_dot_io a decentralised #insurance platform built on #Ethereum
#insurtech #fintech #blockchain
https://cryptocompare.com/coins/guides/what-is-inchain?utm_content=buffer211c2&utm_medium=social&utm_source=twitter.com&utm_campaign=buffer… RT@sbme…",0,0,0,False
269,Ameer Rosic@AmeerRosic,How #Blockchain Helps Brooklyn Dwellers Use Neighbors' Solar Energy http://snip.ly/f3wcc #Ethereum,1,0,0,False
270,Saj le Great @sajlegreat,"Replying to @hernzzzzzz @MrHodl and 3 othershe is a stupid ass, blocked me as well he couldnt stand #ethereum failure",1,1,0,False
271,Crypto Price Ticker@TickerCrypto,"#Ethereum #ETH Rank:2 Last:฿0.01854243(-0.471%) High:Buy Instantly! on  Low:฿0.01868682 Vol:฿4,065 Market Cap:฿1,577,201 / $1,006,796,883.88",0,0,0,False
272,Bitcoin Brasil@BitcoinBr10,Abu Dhabi Stock Exchange Launches Blockchain Voting Service http://bitcoinbrasil10.blogspot.com.br/2016/10/bolsa-de-abu-dhabi-lanca-blockchain.html… #Bitcoin #blockchain #ethereum #monero #japan #trading,3,0,0,False
273,/r/Ethereum@r_Ethereum,ELI5: Where will miners go after Ethereum switches to PoS? http://bit.ly/2e9Ed6Z #EthereumELI5: Where will miners go after Ethereum switches to PoS?And what does this mean for the Ethereum network?reddit.com,0,0,0,False
274,/r/Ethereum@r_Ethereum,Mined to a contract without checking withdraw function. Am I fucked? http://bit.ly/2e9EG9m #EthereumMined to a contract without checking withdraw function. Am I fucked?reddit.com,0,0,0,False
275,Bigterminal@BigAlerts,Ethan Allen Interiors hits a 1 quarter low http://tinyurl.com/jp7sbmd $ETH #EthanAllenInteriors,0,0,0,False
277,Gflaterr on Parler & Gab @gflaterr,"New technology may soon resurrect the sharing economy in a very radical form
https://theguardian.com/technology/2016/oct/17/sharing-economy-capitalism-uber-airbnb-ownership… #ethereum
@buddendorf @lagendijk16",1,0,0,False
279,Ameer Rosic@AmeerRosic,Why Latin American economies are turning to #bitcoin http://snip.ly/mtab3 #blockchain #ethereum,1,1,0,False
280,Blockchain Phil@blockchain_phil,"@interfluidity New technology may soon resurrect the sharing economy in a very radical form http://flip.it/5ZuYLQ
#ethereumThe future: where borrowing is the norm and ownership is luxuryTurn any idle asset into a productive piece of capital. All you have to do is set a price, and the robots will take care of the rest. What could possibly go wrong?Imagine life without ownership. You...flip.it",1,1,0,False
281,CoinGecko@coingecko,The latest Ethereum price is USD 11.82. For historical #Ethereum price charts - http://buff.ly/2e9yle7,1,0,0,False
282,john tasker@dogstartaylor,"The battle between @EthereumClassic  & @ethereumproject @ethcoreproject @eth_classic BEGINS $ETC verses $ETHQuote TweetEthereum Classic@eth_classic · Oct 16, 2016$ETH will do one of two planned hard forks on 10/18/16. $ETC will follow with hard fork on 10/25/16. $ETC is not planning to fork twice.",0,0,0,False
283, Eliza Cheng @ElizaRyenne,Mine for #bitcoin #litecoin #dogecoin #ethereum #gold here in @eobot JOIN NOW at https://eobot.com/user/393610,0,0,0,False
284,require('brain.js');@jhscheufen,"$ETC performing same upgrades / hard forks as $ETH, minus the DAO bailout ... show of community strength?Quote TweetEthereum Classic@eth_classic · Oct 16, 2016Update for $ETC #Geth 3.0.0 just released. Includes code for Hard Fork at block 2,500,000 to change gas prices. https://github.com/ethereumproject/go-ethereum/releases…",1,0,0,False
286,Blockgeeks@Blockgks,"Check it out! Full Q &A with Richard Olsen, CEO at #lykke http://buff.ly/2cQ2dIQ #blockchain #ethereum",0,0,0,False
287,Coinstats@coinstats,"Ethereum Classic - ETC
Price: $1.08364
Change in 1h: +-0.99%
Market cap: $92073590.0
Ranking: 5
#Ethereum Classic #ETC",0,0,0,False
288,Antonio Selas@AntonioSelas,"Under Sustained Attack, #Ethereum to Introduce #HardForks
#HardForkUnder Sustained Attack, Ethereum to Introduce Hard ForksUnder sustained attack, Ethereum has announced two hard forks to rectify the issue. Read more...newsbtc.com",2,2,0,False
290,Internet of Turds@IoTurds,Because the #Ethereum implementation of #blockchain has proven itself to be so #secure! Lets offload it to #IoT because like they'd notice! https://twitter.com/KeithRoan/status/786835370713513985…This Tweet is unavailable.,1,0,0,False
291,BitcoinAgile@bitcoinagile,"Cryptocurrency exchanges Poloniex, Coinbase notify users on #ethereum hardfork - EconoTimes http://bitcoinagile.com/8C1054/cryptocurrency-exchanges-poloniex-coinbase-notify-users-on-ethereum-hardfork-econotimes_stream…",1,0,0,False
293,modenapsu@modenapsu,Coinbase adds ether functionality - Ver 2.5.1 - @coinbase #coinbase #ether #bitcoin #crypto #cryptocurrency #futurecostmoney @dustinshowe,0,0,0,False
296,/r/Ethereum@r_Ethereum,1 day to make eth great again! http://bit.ly/2eJ07zS #Ethereum,1,0,0,False
297,/r/Ethereum@r_Ethereum,Ethereum(J) - is ready for gas upgrade fork http://bit.ly/2ecplUG #Ethereum,1,0,0,False
298,indxio@indxio,#Russia Market Close || #Bitcoin: $635.41 | 582.36 EUR||  #Litecoin: 0.003 BTC  || #Ethereum: 0.0185 BTC   || $BTC $LTC $ETH $RUB,0,0,0,False
299,Ameer Rosic@AmeerRosic,How Will #Blockchain Change Banking? How Won't It? http://snip.ly/a2ci1 #Ethereum #Bitcoin,0,0,0,False
300,Digital Insights@Digi_Insights,[video] #Blockchain Keynote at @CloudExpo | #IoT #M2M #Bitcoin #Ethereum http://ln.is/zm1Ct by #CloudExpo via @c0nvey,2,0,0,False
301,Brave New Coin@bravenewcoin,#Ethereum Price: USD $11.93 #ETH http://ow.ly/6UKf3048WBe,0,0,0,False
302,Blockgeeks@Blockgks,"Who is working on a blockchain powered sustainable energy solutions?
http://dld.bz/eVxaY #ethereum #blockchain",0,0,0,False
303,CryptoCompare@CryptoCompare,Make sure all your #Ethereum transactions are properly fueled. #cryptocurrency http://ow.ly/ORp3304Yfpn,0,0,0,False
304,Cloud Mining Monitor@cmmonitorcom,#Ethereum #Cloudmining': 17.10.2016 Payment received. 5 MHs - 0.14560000 ETH. From MyCoinCloud.MyCoinCloud (Ethereum Mining)cmmonitor.com,0,0,0,False
305,Coinstats@coinstats,"Ethereum Classic - ETC
Price: $1.09114
Change in 1h: +1.12%
Market cap: $92709306.0
Ranking: 5
#Ethereum Classic #ETC",0,0,0,False
306,Ethereum Price@EthereumPrice_,"#Ethereum: Ether Price Index
1 ETH =0.018482Ƀ XBT = $11.895575 USD
Today: -0.63%⬇︎ Last 24h: -0.98%⬇︎
https://ethereum-price.com",1,0,0,False
307,ExploreTraveler@exploretravel1,"RT @foxesden34: Ethereum Echo.. .. ..! 
http://lnkplg.co/8AvLG Thanks to #ethereum @simonjulian @JFeinblatt @ne0ph #ethereum #blockchain",1,0,0,False
309,Crypto Trader Pro @CryptoTraderPro,#Ethereum Classic Price #Technical Analysis – #ETC Bulls Are Back.  http://dlvr.it/MT3HYF,1,0,0,False
310,NEWSBTC@newsbtc,#Ethereum Classic Price #Technical Analysis – #ETC Bulls Are Back. http://bit.ly/2dmdTDk,1,0,0,False
312,Crypto Trader Pro @CryptoTraderPro,"Under Sustained Attack, #Ethereum to Introduce Hard #Forks.  http://dlvr.it/MT346r",1,0,0,False
314,Ameer Rosic@AmeerRosic,25 GENIUSES WHO ARE CREATING THE FUTURE OF BUSINESS http://snip.ly/avrq9 #Blockchain #Ethereum,0,0,0,False
316,Johnny Woo@j0hnnyw00,"$STEEM is about to explode
$XMR $ETH $ETC $ARDR $XRP $REP $POT $NLG $WAVES",0,0,0,False
318,Blockgeeks@Blockgks,Step-by-Step Guide: What the heck is a Smart Contract? #blockchain #bitcoin #ethereum http://dld.bz/eYNat,1,1,0,False
319,Coinstats@coinstats,"Ethereum Classic - ETC
Price: $1.07846
Change in 1h: +-3.43%
Market cap: $91630594.0
Ranking: 5
#Ethereum Classic #ETC",0,0,0,False
320,Coinstats@coinstats,"Ethereum - ETH
Price: $11.9129
Change in 1h: +0.08%
Market cap: $1013252116.0
Ranking: 2
#Ethereum #ETH",0,0,0,False
321,cryptinsight@cryptinsight,Hard Fork de #ethereum #altcoins http://blockchainhispano.com/2016/10/17/hard-fork-de-ethereum…,0,0,0,False
322,Bitcoin Brasil@BitcoinBr10,Ethereum Classic Price Technical Analysis – ETC Bulls Are Back http://bitcoinbrasil10.blogspot.com.br/2016/10/ethereum-classico-preco-analise-tecnica.html… #bitcoin #blockchain #ethereum #altcoin #trading #btc,2,0,0,False
323,Ethereum SE@StackEthereum,"Trying to get DAO tokens back to ETH, nothing works http://ethereum.stackexchange.com/questions/9343/trying-to-get-dao-tokens-back-to-eth-nothing-works… #ethereum #thedao",1,0,0,False
324,Francesco Villa@cekospiu,Donate to our project! Add funds and receive $$$ in exchange from profits lifetime! @gagpubblicita #ethereum #miner https://indiegogo.com/projects/build-ethereum-mining-farm/x/14702367#/…,0,0,0,False
325,Bitcoin Brasil@BitcoinBr10,Ethereum Price Technical Analysis – ETH Relatively Muted http://bitcoinbrasil10.blogspot.com.br/2016/10/ethereum-preco-analise-tecnica-eth.html… #Bitcoin #blockchain #ethereum #monero #trading #btc #news,1,1,0,False
326,Framepool@Framepool,170 years ago William T. G. Morton first publicly demonstrated the use of inhaled #Ether as a #SurgicalAnesthetic. #Surgery #Anesthesia,1,1,0,False
327,/r/Ethereum@r_Ethereum,"Ethereum lightwallet bug: Event with string argument cause ""BigNumber() not a base 16 number"" http://bit.ly/2exuWrT #EthereumEthereum lightwallet bug: Event with string argument cause...When we try to use a smart contract we receive the following message. Event with string argument cause ""BigNumber() not a base 16 number"" Can...reddit.com",0,0,0,False
328,/r/Ethereum@r_Ethereum,Solar Power and Ethereum Mining http://bit.ly/2exwLVE #EthereumSolar Power and Ethereum Miningreddit.com,1,0,0,False
329,/r/Ethereum@r_Ethereum,Cost of recent attacs? Any figures about that? http://bit.ly/2e912YB #Ethereum,1,0,0,False
330,/r/Ethereum@r_Ethereum,I'm confused! Do I want EtherWallet or Mist or both? http://bit.ly/2e8ZFJd #EthereumI'm confused! Do I want EtherWallet or Mist or both?I'm interested in getting started with Ethereum. I've looked at the main page and clicked the download button. In the repository I see EtherWallet...reddit.com,2,0,0,False
331,/r/Ethereum@r_Ethereum,"Best iOS Ether wallet? http://bit.ly/2exxs1h #EthereumBest iOS Ether wallet?As the title says, what do you think is the best Ether wallet for iOS? I am using Jaxx at the moment, but really dont like the design or security...reddit.com",1,0,0,False
332,Ethereum SE@StackEthereum,What happens if you transfer real tokens to a test account? http://ethereum.stackexchange.com/questions/9342/what-happens-if-you-transfer-real-tokens-to-a-test-account… #ethereum #testnets,0,0,0,False
333,Bitcoin Brasil@BitcoinBr10,Bitcoin Price Technical Analysis for 10/17/2016 – Breakout Brewing? http://bitcoinbrasil10.blogspot.com.br/2016/10/bitcoin-preco-analises-tecnicas-para.html… #Bitcoin #blockchain #ethereum #monero #trading,1,0,0,False
334,One Bitcoin touch@OneBitTouch,"#Ethereum's Leading Blockchain Gambling Game.
LIVE and Processing Bets at this Very Moment.
http://crowdsale.vdice.io
#vDice #crowdsale #ico",0,0,0,False
335,Digiconomist@DigiEconomist,"This user sums up #Ethereum Classic (after deciding to fork); ""unclear principles"" - ""non-transparent and arbitrary""Statement On The Hardfork To Address Spam AttacksI think the most general issue here is that it's unclear how ""our principles"" are decided. There are numerous participants in this community and...reddit.com",0,0,0,False
336,Bitcoin Brasil@BitcoinBr10,The latest Bitcoin Price Index is $638.49 USD http://bitcoinbrasil10.blogspot.com.br #Bitcoin #blockchain #bitcoinprice #ethereum #altcoin #btc #crypto,0,0,0,False
337,Coinstats@coinstats,"Ethereum - ETH
Price: $11.9058
Change in 1h: +-0.17%
Market cap: $1012632738.0
Ranking: 2
#Ethereum #ETH",0,0,0,False
338,BitcoinEZ@BitcoinEZ,Bitcoin EZ News is out! http://bitcoinez.com Stories via @ethereumproject #ethereumBitcoin Cryptocurrency Review - BitcoinEZbitcoinez.com,0,0,0,False
340,Evan Howard@evanphoward,"Forking sweet #punny #ethereumQuote TweetEthereum Classic@eth_classic · Oct 16, 2016$ETC #Geth 3.0.0 also includes code for Freeze of Difficulty Bomb Hard Fork at block 3,000,000 sometime in Jan 2017. No PoS planned ATM. https://twitter.com/ansellindner/status/787725555302928384…",1,1,0,False
341,JΞFF@jeffehh,#ethereum testnet will fork in a few hours. Please update you clients if you haven't done so.,17,16,0,False
342,𝔞𝔩𝔦𝔵 𝔰𝔭𝔲𝔯𝔩𝔬𝔠𝔨@alixspurlock,Is #Teslas #ether the same thing as what our scientists call #darkmatter? They seem very similar. #physics #question #askascientist,0,0,0,False
343,CoinGecko@coingecko,The latest Ethereum price is USD 11.88. For historical #Ethereum price charts - http://buff.ly/2efTXrY,0,0,0,False
345,CEX.IO@cex_io,Why choose BTC and ETH margin trading on CEX.IO? https://cex.io/margin-trading #trading #btc #eth #bitcoin,2,0,0,False
346,Barrio@BarrioFinito,"Replying to @jeffehh$eth with market cap $1,014,739,257  getting hard forked,DDos, wallet still aint what it should be...nothing too serious? you sure?",1,0,0,False
347,Ethereum SE@StackEthereum,returning bulk data http://ethereum.stackexchange.com/questions/9341/returning-bulk-data… #ethereum #solidity,0,0,0,False
349,Ana@neptox,"How about #ethereum post-classic (EPC)?  Or ""second ethereum xtra"" (SEX)?",0,0,0,False
350,Blockgeeks@Blockgks,Smart Contracts: The #Blockchain Technology That Will Replace Lawyers http://dld.bz/eYNat #ethereum,3,5,0,False
352,Coinstats@coinstats,"Ethereum Classic - ETC
Price: $1.12399
Change in 1h: +-0.46%
Market cap: $95496124.0
Ranking: 5
#Ethereum Classic #ETC",0,0,0,False
353,Coinstats@coinstats,"Ethereum - ETH
Price: $11.9261
Change in 1h: +0.05%
Market cap: $1014342448.0
Ranking: 2
#Ethereum #ETH",0,0,0,False
354,Ethereum Price@EthereumPrice_,"#Ethereum: Ether Price Index
1 ETH =0.018512Ƀ XBT = $11.937055 USD
Today: -0.47%⬇︎ Last 24h: -0.91%⬇︎
https://ethereum-price.com",0,0,0,False
355,Faith Emmanuel@residualbitcoin,#ethereum Price Technical Analysis  ETH Relatively Muted - NEWSBTC #EthereumPriceanalysis http://linkplugapp.com/R6v7B …,0,0,0,False
359,BitcoinAgile@bitcoinagile,#ethereum Price Technical Analysis  ETH Relatively Muted - NEWSBTC #EthereumPriceanalysis http://linkplugapp.com/R6v7B,1,2,0,False
360,ExploreTraveler@exploretravel1,RT @CryptoJauregui: http://lnkplg.co/R6v7B Ethereum Price Technical Analysis – ETH Relatively Muted - newsBTC #ethereum #ether,1,0,0,False
361,space.drow@cyphernormie,$ARDR to oppose $ETH through perfect timing http://coincidental.eu/2016/10/17/perfect-timing-for-ardor-trading-on-poloniex/… #ARDOR #NXT,4,5,0,False
363,k r y tlo@LleytaCrypto,"Major alts like #eth and #xmr are definitely, in-part, being supressed by this #btc rally",0,0,0,False
364,CryptoNewswire @CryptoNewswire,"Ethereum Classic Price Technical Analysis ETC Bulls Are Back - http://newsbtc.com/2016/10/17/ethereum-classic-price-technical-analysis-etc-bulls-back/… $ETC $BTC $ETH #investing #crypto #blockchainEthereum Classic Price Technical Analysis – ETC Bulls Are BackEthereum classic price gained traction versus the Bitcoin, and posted a bullish break to put the ETC buyers back in action.newsbtc.com",1,0,0,False
365,prashantbhoj@prashantbhoj97,"Join the crowdsale period from 12 nov to 12 oct.
http://crowdsale.vdice.io
#vDice #crowdsale #ico #ethereum",0,0,0,False
366,Ethereum Monkey@EthMonkey,Ethereum Classic Price Technical Analysis - ETC Bulls Are Back - NEWSBTC #ethereum http://newsbtc.com/2016/10/17/ethereum-classic-price-technical-analysis-etc-bulls-back/…,0,0,0,False
367,commons.ie@commons_dot_ie,"#Ethereum is still under attackSo, It Looks Like Ethereum is Going to Have to Fork Again... - CoinDeskEthereum is planning for another hard fork to foil an ongoing series of attacks on the network.coindesk.com",0,0,0,False
368,Faith Emmanuel@residualbitcoin,#ethereum Classic Price Technical Analysis  ETC Bulls Are Back - NEWSBTC #bitcoin #ETC http://newsbtc.com/2016/10/17/ethereum-classic-price-technical-analysis-etc-bulls-back…  #R…,0,0,0,False
369,Brave New Coin@bravenewcoin,#Ethereum Price: USD $11.97 #ETH http://ow.ly/6UKf3048WBe,1,0,0,False
370,Bitcoin Updater@BitcoinUpdater,Ethereum Is Under Attack #ethereum http://soco.space/vFg.aL,1,0,0,False
371,BitcoinAgile@bitcoinagile,#ethereum Classic Price Technical Analysis  ETC Bulls Are Back - NEWSBTC #bitcoin #ETC http://newsbtc.com/2016/10/17/ethereum-classic-price-technical-analysis-etc-bulls-back…,2,0,0,False
372,Coinstats@coinstats,"Ethereum Classic - ETC
Price: $1.12204
Change in 1h: +1.09%
Market cap: $95328874.0
Ranking: 5
#Ethereum Classic #ETC",0,0,0,False
373,BitcoinAgile@bitcoinagile,Chronicled Showcases Prototype Drone Identity and Access Control System Using #ethereum http://blockchaindailynews.com/Chronicled-Showcases-Prototype-Drone-Identity-and-Access-Control-System-Using-Ethereum-Blockchain-for-Decentralized_a24620.html…,0,0,0,False
375,indxio@indxio,#China Market Close || #Bitcoin: $635.29 | 582.23 EUR||  #Litecoin: 0.003 BTC  || #Ethereum: 0.0186 BTC   || $BTC $LTC $ETH $RMB,0,0,0,False
376,Coinstats@coinstats,"Ethereum - ETH
Price: $11.9095
Change in 1h: +0.26%
Market cap: $1012904691.0
Ranking: 2
#Ethereum #ETH",0,0,0,False
378,Faith Emmanuel@residualbitcoin,Coinbase updates #ethereum (ETH) network http://linkplugapp.com/JB7Zp #ResidualBitcoinCoinbase updates Ethereum (ETH) networkSan Francisco based Bitcoin Exchange and provider Coinbase has made an update regarding the current status of the Ethereum (ETH) network and the upcoming ETH hard fork. In order to protect against denlinkplugapp.com,0,0,0,False
379,BitcoinAgile@bitcoinagile,Coinbase updates #ethereum (ETH) networkCoinbase updates Ethereum (ETH) networkSan Francisco based Bitcoin Exchange and provider Coinbase has made an update regarding the current status of the Ethereum (ETH) network and the upcoming ETH hard fork. In order to protect against denlinkplugapp.com,3,0,0,False
380,Blockchain Academy@BlockchainAcad,"Interested in #smartcontacts,#blockchain & what this tech can be used for? 
http://bit.ly/2dgHga0.Enrol #Ethereum Beginner Course 28 Oct #JHB",3,2,0,False
381,ExploreTraveler@exploretravel1,RT @CryptoJauregui: http://lnkplg.co/JB7Zp Coinbase updates Ethereum (ETH) network - LeapRate #ethereum #ether,1,0,0,False
382,Alberto Jauregui | esoteRICK.eth @DisruptBanksy,http://ift.tt/2e01onh Coinbase updates Ethereum (ETH) network - LeapRate #ethereum #ether,1,0,0,False
383,Ethereum Monkey@EthMonkey,Coinbase updates Ethereum #ethereum https://leaprate.com/2016/10/coinbase-updates-ethereum-eth-network/…,0,0,0,False
385,digit@_digit_,#Cryptocurrency exchange #Poloniex is still #Insecure? || #security #review #altcoin #bitcoin #ethereum #ICO #hacked https://crd.ht/7a8L7b7,1,1,0,False
387,Blockgeeks@Blockgks,Would you like early access to BlockGeeks #Blockchain Community? Sign up here http://blockgeeks.com #ethereum,1,0,0,False
388,Coinstats@coinstats,"Ethereum Classic - ETC
Price: $1.10945
Change in 1h: +1.08%
Market cap: $94256714.0
Ranking: 5
#Ethereum Classic #ETC",0,0,0,False
389,Coinstats@coinstats,"Ethereum - ETH
Price: $11.8735
Change in 1h: +-0.1%
Market cap: $1009827320.0
Ranking: 2
#Ethereum #ETH",0,0,0,False
390,Ethereum Price@EthereumPrice_,"#Ethereum: Ether Price Index
1 ETH =0.018500Ƀ XBT = $11.873745 USD
Today: -0.53%⬇︎ Last 24h: -1.05%⬇︎
https://ethereum-price.com",0,0,0,False
391,Olivier Chapiteau@o_chapiteau,"17Oct2016 06:00 UTC #Ether #Blockchain status - Block height @ 2,455,147 - 24,726 unconfirmed tr. - Last fork height @ 2,455,143",0,0,0,False
392,Olivier Chapiteau@o_chapiteau,17Oct2016 06:00 UTC #Ethereum live spots - #Ether @ 11.89540 $ - #EtherClassic @ 1.11717 $,1,0,0,False
393,Pelle Brændgaard (we are hiring)@PelleB,Replying to @changeson and @Datavetarentrue but both #Bitcoin and #ethereum are considerably more complex than TCP/IP. HFs are risky but expected.,1,0,0,False
394,ExploreTraveler@exploretravel1,RT @ShoutMeTech: How To Convert #Bitcoin Into #Ethereum (or any other #Cryptocurrency) http://lnkplg.co/Q6RW8,1,0,0,False
402,ShoutMeTech@ShoutMeTech,How To Convert #Bitcoin Into #Ethereum (or any other #Cryptocurrency) http://fb.me/8mGeQvdbE,1,0,0,False
403,AltcoinLive bot@AltcoinLiveBot,removed $ETH sellwall 11.1btc @ 0.01850000 http://altcoinlive.com/bittrex-eth-btc #altcoinlive,0,0,0,False
404,AltcoinLive bot@AltcoinLiveBot,new $ETH sellwall 11.1btc @ 0.01850000 http://altcoinlive.com/bittrex-eth-btc #altcoinlive,0,0,0,False
405,CryptoNewswire @CryptoNewswire,Ethereum Price Technical Analysis ETH Relatively Muted - http://newsbtc.com/2016/10/17/ethereum-price-technical-analysis-eth-relatively-muted/… $ETH #markets #bitcoin #fintech,0,0,0,False
407,Ethereum Monkey@EthMonkey,Ethereum Price Technical Analysis - ETH Relatively Muted - NEWSBTC #ethereum http://newsbtc.com/2016/10/17/ethereum-price-technical-analysis-eth-relatively-muted/…,0,0,0,False
408,Faith Emmanuel@residualbitcoin,#ethereum Price Technical Analysis  ETH Relatively Muted - NEWSBTC #bitcoin #ethereumtrade http://newsbtc.com/2016/10/17/ethereum-price-technical-analysis-eth-relatively-muted… …,0,0,0,False
409,CryptoRTs +  = @CryptoRTs,"Mist/Ethereum Wallet update (Beta 0.8.6 + Geth 1.4.18 ""Note 7"") https://github.com/ethereum/mist/releases/tag/v0.8.6… #ethereum",0,0,0,False
411,vDice@vDice_io,@ccm_jp Cryptocurrency Magazine wrote an article about the Japanese release of our whitepaper! http://ow.ly/hwi4305eK3E #ethereum #ICO,1,9,0,False
412,Blockgeeks@Blockgks,"Join today! Blockgeeks is a #Blockchain innovation hub 
& marketplace http://blockgeeks.com #Bitcoin #Ethereum",0,0,0,False
413,BitcoinAgile@bitcoinagile,#ethereum Price Technical Analysis  ETH Relatively Muted - NEWSBTC #bitcoin #ethereumtrade http://newsbtc.com/2016/10/17/ethereum-price-technical-analysis-eth-relatively-muted…,1,0,0,False
414,Coinstats@coinstats,"Ethereum Classic - ETC
Price: $1.09574
Change in 1h: +1.05%
Market cap: $93090545.0
Ranking: 5
#Ethereum Classic #ETC",0,0,0,False
415,Coinstats@coinstats,"Ethereum - ETH
Price: $11.8824
Change in 1h: +-0.28%
Market cap: $1010568609.0
Ranking: 2
#Ethereum #ETH",0,0,0,False
416,Ethereum SE@StackEthereum,Transaction not going through in Mist 0.8.6 http://ethereum.stackexchange.com/questions/9339/transaction-not-going-through-in-mist-0-8-6… #ethereum #mistTransaction not going through in Mist 0.8.6I have update Mist-wallet to latest 0.8.6 version and I was trying to execute a contract on my Test-network before working on Public net with this version. When I execute contract with fee suggeste...ethereum.stackexchange.com,1,0,0,False
417,Faith Emmanuel@residualbitcoin,DDoS attack on #ethereum network hampers Kibo ICO #bitcoin #blockchain #medium https://medium.com/@kiboproject/ddos-attack-on-ethereum-network-hampers-kibo-ico-77f1218db068…  #ResidualB…,0,0,0,False
418,BitcoinAgile@bitcoinagile,DDoS attack on #ethereum network hampers Kibo ICO #bitcoin #blockchain #medium https://medium.com/@kiboproject/ddos-attack-on-ethereum-network-hampers-kibo-ico-77f1218db068…,1,0,0,False
420,/r/Ethereum@r_Ethereum,"I need a little gas to move transaction, help? I repay you in ~hour. http://bit.ly/2ekwh0n #EthereumI need a little gas to move transaction, help? I repay you in ~hour.reddit.com",0,0,0,False
421,Brave New Coin@bravenewcoin,#Ethereum Price: USD $11.96 #ETH http://ow.ly/6UKf3048WBe,2,0,0,False
422,Ameer Rosic@AmeerRosic,Great Answers! Can someone please explain the concept of Smart contract in simple words? http://buff.ly/2dpcfUP #blockchain #ethereum,2,0,0,False
423,Blockgeeks@Blockgks,What is #Blockchain Technology? Guide For Beginners http://dld.bz/eW5DU #ethereum,2,5,0,False
424,Coinstats@coinstats,"Ethereum Classic - ETC
Price: $1.08624
Change in 1h: +-1.96%
Market cap: $92282262.0
Ranking: 5
#Ethereum Classic #ETC",0,0,0,False
425,Bobe'bot@Bobe_bot,"1 #BTC = 648.5954 #CHF
1 #ETH = 12.3683 #CHF
1 #DOGE = 0.000215983315 #CHF
sources: @cryptonatorcom @hellobity",0,0,0,False
426,Coinstats@coinstats,"Ethereum - ETH
Price: $11.9212
Change in 1h: +0.1%
Market cap: $1013853021.0
Ranking: 2
#Ethereum #ETH",0,0,0,False
