,user,text,likes,retweets,replies,is_thread
0,Gillian McMahon@GMcM_,Workshop on #Ethereum development at the Dublin #Blockchain hackathon #ChainHack,1,2,2,False
1,Productive Edge@ProductiveEdge,"In Absence Of Competition, #Ethereum Is Still On The Roll http://ow.ly/gapH5065kWs",1,1,0,False
2,Datarella@Datarella,Public blockchain investments heat up: $5 million in 5 minutes #gambling #ethereum http://venturebeat.com/2016/09/27/blockchain-fundings-heat-up-5-million-in-5-minutes/…,1,1,0,False
3,cointrader@cointrader7,"@ArkEcosystem is awesome, the future is NOW! #bitcoin #lisk #altcoin #eth #etc",0,0,0,False
4,Bitcoin Traders@b1tcoin_traders,Ethereum 12 bugs and 3 forks timeline a bubble marker? $eth #Ethereum http://cointimes.tech/2016/11/ethereumbubblecrash/…,28,40,3,False
5,Tim Bird@timbirdlaw,Microsoft Doubles Down on #Ethereum With New #Blockchain Product http://ln.is/www.coindesk.com/wIH49… via @CoinDesk,3,3,0,False
6,j coupe@j___coupe,season was cut short but it I am glad I had the opportunity to play with some of my best friends/teammates ever. Proud to be a wolf. #ETH,21,4,0,False
7,Mik Michael Krist@mik_krist,#happylife #happy weekend! #countdown #community #ethereum #bitcoin #blockchain #anmelden hss.traffic@gmail.com,2,0,0,False
8,Ruslan@RuslanZuk,"""If Kickstarter, Augur & IBM Watson had a baby it would be called WINGS DAO"" #ethereum #btc wings.ai",1,1,2,False
9,PolyCrypto@Polycrypto,"Hearing a lot about ARK, better have your body ready! #eth #lisk #bitcoin #altcoin #etc #arkio $ARK https://wn.nr/N9EDRM",2,2,0,False
10,ShanysCryptos.com @ShahnawazGilani,"Like brand new crypto currency investment, i would love to help you!

#Bitcoin #Onecoin #Ethereum #Trumpcoin
http://vc.digicoinpro.com/sgilani",1,2,2,False
11,Christian Seberino@c_seberino,Hard Fork for ETH in 2 weeks announced. WILL include Replay Protection  http://buff.ly/2fHNF3G #etc #eth #ethereumclassic #ethereum,3,6,0,False
12,Doug@docbtc,Great RSK presentation. When one can run #eth contracts on the #bitcoin blockchain why would they ever run it on the forkchain #laBITconf,1,1,0,False
13,Joe Smith@JoeSmith5555555,Which one is the better investment? #Ethereum #EthereumClassic #Bitcoin #AltcoinETH51.7%ETC34.5%Neither13.8%29 votes·Final results,1,1,1,False
14,Angel Drake@Angel_Investor9,"selling $eth and shorting $eth

buying $btc and margin long $btc
#bitcoin #ethereum",4,2,0,False
15,Chrono.tech@ChronotechNews,#RT Join Chronobank on Slack! https://chronobank.herokuapp.com #chronobank #bitcoin #blockchain #Ethereum #wavesplatform,32,25,1,False
16,JC@JustinClarrk,Us against the #ETH,14,10,0,False
17,0xZain@RezigZine,#districts Pre announce on https://bitcointalk.org/index.php?topic=1670989.msg16778223#msg16778223… $BTC $ZEC $ETC $ETH $Dash $XMR,1,0,0,False
18,Me Lon@yemelon18,vDice: Ethereum-based Gambling Dapp http://coremedia.info/index.php/blockchain-news/item/343-vdice-ethereum-based-gambling-dapp… … #News #Blockchain #Technology #Ethereum #Dapp @vDice_io @ethereumproject,2,0,0,False
19,kunfud@kunfud,#Microsoft Doubles Down on #Ethereum With #New #Blockchain #Product | @scoopit http://sco.lt/7Nzt6P,0,0,0,False
20,Vindyne8@Vindyne8,#RT Join Chronobank on Slack! http://chronobank.herokuapp.com #chronobank #bitcoin #blockchain #Ethereum #wavesplatform,18,16,0,False
21,Philippe Fraysse@treeschannels,#Ethereum Consortium #Blockchain Network by @microsoft http://bit.ly/2e5h0oD,2,0,0,False
22,ConsenSys@Consensys,"#EtherReview-  Martin Lundfall, Rage Against the Machine with @arthurfalls #EthereumVirtualMachine #EthereumThe Ether Review #41 — Martin Lundfall, Rage Against the MachineWhat is the Ethereum Virtual Machine, what design trends and decisions influence its operation and what does that mean for Ethereum the platform? Today we dive deep. There is a debate around whether…media.consensys.net",5,4,0,False
23,Ethereum Price@EthereumPrice_,"#Ethereum: Ether Price Index
1 ETH =0.015724Ƀ XBT = $11.173945 USD
Today: -0.49%⬇︎ Last 24h: -0.37%⬇︎
https://ethereum-price.com",1,1,0,False
24,Nick Ayton@NickAyton,Microsofts big push continues #ethereum #blockchain http://ln.is/lnkd.in/fBBEB,4,6,0,False
25,Dr Cryptos@DrCryptos,"@ArkEcosystem is awesome, the future is NOW! #bitcoin #lisk #altcoin #eth #etc",1,0,0,False
26,Veki@Veki551155,First #ethereum Developers Certified on the #blockchain Says B9lab - Investors Buz #b9lab http://bit.ly/2fbQ03E,2,3,0,False
27,Bitcoin@crypto_bitcoins,Microsoft Rolls Out Its Cloud-Based #Ethereum Consortium https://news.bitcoin.com/microsoft-cloud-ethereum-consortium… #eth #crypto #fintech #bitcoin,1,1,0,False
28,Bill Sullivan@WFSULLIVAN3,RBS builds #Ethereum-based distributed clearing house http://bit.ly/2fr2Dc0 RT@cgledhill #FinTech #Blockchain,4,4,0,False
29,Veki@Veki551155,Stock Market Collapsing? / RBS Proceeds with #ethereum / Zhong #blockchain Tech / JM Bullion …,1,1,0,False
30,Blockgeeks@Blockgks,"Check it out! Full Q &A with Richard Olsen, CEO at #lykke http://buff.ly/2cQ2dIQ #blockchain #ethereum",2,1,0,False
31,Christian Seberino@c_seberino,zk-SNARKS on Ethereum's Roadmap http://buff.ly/2fHKiK5 #etc #eth #ethereumclassic #ethereum,1,1,0,False
32,Ξntropy @EntropyBoat,"We’re live on the Secure Scuttlebutt crypto chain based p2p network, invite code here: http://project-entropy.com/pages/community #DAO #Ethereum #Scuttlebutt",6,6,0,False
33,Roman Yaremi@YaremiRoman,"Hearing a lot about ARK, better have your body ready! #eth #lisk #bitcoin #altcoin #etc #arkio $ARK https://wn.nr/4b2Vbg",1,0,0,False
34,Magda Borowik@magdaborowik,#Ether based @isa card http://ethnews.com/uquid-releases-ethereum-visa-debit-card… #crypto,2,1,0,False
35,M!keyB™@iam_MikeyB,"ATTACK of the CLONES 
"" Full project on #Soundcloud ""

#IAM #HipHop #BoomBap #HTown #ATX #Ether… https://instagram.com/p/BMcDoamDZbp/",1,1,0,False
36,PolyCrypto@Polycrypto,Major Chinese #EXCHANGE BTCC Selects #ethereum Classic Over $ETH $etc https://cointelegraph.com/news/major-chinese-exchange-btcc-selects-ethereum-classic-over-eth… @YourBTCC @Cointelegraph,6,3,0,False
37,Sergei Sevriugin@ColnagoRider,#ethereum #blockchain #instech #smartcontracts #freeofcharge for 2 #referrals for #gadget… https://instagram.com/p/BManlVrg3bk/,1,1,0,False
38,BitcMarckos@klarki1,"Hearing a lot about ARK, better have your body ready! #eth #lisk #bitcoin #altcoin #etc #arkio $ARK https://wn.nr/GSZDYn",1,0,0,False
39,Colombina@Colombina_2,"New #investment #vDice more info: http://crowdsale.vdice.io
#Crowdsale #ICO @vDice_io
#crypto #cryptocurrency #Ethereum #Bitcoin #BTC $BTC",1,0,0,False
40,Cees Grootes@Analyticus,"Amazon-Owned Twitch Re-adds Bitcoin Payments Using Coinbase https://cointelegraph.com/news/amazon-owned-twitch-re-adds-bitcoin-payments-using-coinbase… via @Cointelegraph #blockchain #bitcoin #ethereumAmazon-Owned Twitch Re-adds Bitcoin Payments Using CoinbaseTwitch has began to offer Bitcoin as a payment option again using the Coinbase payment processing gateway since August 21, 2016.cointelegraph.com",1,0,0,False
41,Tommy@chasyrceo,hmm if only the winner of the @GTEC  blockchain innovation award was having a token sale....OH WAIT! THEY ARE! @ArcadeCityHall #ETHEREUM,20,21,1,False
42,CryptoWorld@CryptoWor1d,New review: #get-ether #Ethereum Check what user think about the faucet.. http://cryptoworld.io/review/get-ether…,1,2,2,False
43,Cointon@CointonDotCom,Microsoft Rolls Out Its Cloud-Based #Ethereum Consortium https://news.bitcoin.com/microsoft-cloud-ethereum-consortium… #eth #crypto #fintech #bitcoin,1,1,0,False
44,Ben Dickson@bendee983,"#bitcoin #ethereum #Zcash 
Choose oneBitcoin40%Ethereum26.7%ZCash33.3%15 votes·Final results",3,1,2,False
45,Zeth Couceiro@Zeth_Plexus,#Blockchain: #RBS builds #Ethereum-based distributed clearing house - #fintech #innovation @rickcrook #news http://ibtimes.co.uk/rbs-builds-ethereum-based-distributed-clearing-house-1589897…,7,2,0,False
46,Bitcoin Updater@BitcoinUpdater,Provenance on the blockchain: Update from Devcon2 #ethereum http://soco.space/WpVx7B,2,3,0,False
47,Alistair Milne@alistairmilne,Miners continue to abandon Ethereum as better GPU optimised mining software becomes available for Zcash $ETH $ZEC,12,6,1,False
48,Omar Bham (Crypt0)@crypt0snews,"Stock Market Collapsing? / RBS Proceeds with Ethereum / Zhong Blockchain... https://youtu.be/qwbL8S0C64Q #stocks #investing #btc #gold #ethereumEp. #159- Stock Market Collapsing? / RBS Proceeds with Eth / Zhong... 𝙏𝙝𝙖𝙣𝙠 𝙔𝙤𝙪 𝙁𝙤𝙧 𝙒𝙖𝙩𝙘𝙝𝙞𝙣𝙜!  Remember to subscribe and hit the bell """" icon, so you don't miss your daily cryptocurrency news!-~-~~-~~~...youtube.com",2,1,0,False
49,Gaetano Manfredi@gamanfredi,"Mining CryptoCurrencies easily,quickly https://minergate.com/a/08e542bbb864efae96c5f8a5… and with no hassle you don't need to be an expert #bitcoin #ethereum",1,1,0,False
50,jennifer@JenniferBitcoin,short $eth long $btc,4,1,0,False
51,Vortex@theonevortex,"""Scamonomics"" - The economics behind #zcash and #ethereum. $ZEC $ETH",3,1,0,False
52,Crypto Billion@BillionCryptos,"Hearing a lot about ARK, better have your body ready! #eth #lisk #bitcoin #altcoin #etc #arkio $ARK https://wn.nr/UkRZrZ",2,0,0,False
53,Belay Manaye@Belay_Ma,#SemayawiParty member Merkebu Haile detained in A.A. He is held at woreda 9 of Arada police. #Eth,1,4,0,False
54,Antonio Selas@AntonioSelas,"#Blockchain: @RBS builds #Ethereum-based distributed clearing house for internacional #payments
#fintech http://ibtimes.co.uk/rbs-builds-ethereum-based-distributed-clearing-house-1589897…",1,0,0,False
55,Pravin Bhudiya@pravin_bhudiya,"SingularDTV - The Age of Tokenized Ecosystems
https://goo.gl/nyF1oB
@SingularDTV #ethereum #singulardtv #cryptocurrency #blockchain",1,2,0,False
56,Barkow Consulting@BarkowConsult,"AWESOME

@AllenOveryDE adds @slockitproject to its #Blockchain event, 30 Nov, Frankfurt
http://allenovery-event.de/17-0-Anmeldung.html?e=209…
#FinTech #Bitcoin #Ethereum",5,2,0,False
57,ARK.io@ArkEcosystem,"#Blockchains evolve. Congrats @VitalikButerin from @ArkEcosystem
#ethereum #ARK #Lisk #BitcoinQuote TweetLAPITH@bhumharit · Nov 5, 2016RT moyzdni: Change Agents 2016: Vitalik Buterin, Ethereum http://canadianbusiness.com/innovation/change-agent/vitalik-buterin-ethereum/… #fintech #blockchain #ethereum #DLT",11,15,0,False
58,Michael Parsons@BitcoinByte,"Crypto 2.0 musings - Digital Business Models:
https://linkedin.com/pulse/crypto-20-musings-digital-business-models-alex-batlin…
#Blockchain @AlexBatlin #bitcoin #EtherCrypto 2.0 Musings - Decentralised Business ModelsIn my opinion, blockchain is not just a technology revolution, it is in some ways even more importantly, a business model revolution. I often get asked - when will we finally see these promised new...linkedin.com",3,2,0,False
59,BitcoinAgile@bitcoinagile,First #ethereum Developers Certified on the #blockchain Says B9lab - Investors Buz #b9lab http://bit.ly/2fbQ03E,3,2,0,False
60,ARK.io@ArkEcosystem,"#ARK sharing pools

https://blog.ark.io/dpos-and-ark-voting-explained-68596a171ca1#.srom9zgin…
$ARK #blockchain $BTC $ETH $LSK #Lisk #ICO #investorsDPoS and ARK Voting ExplainedARK is built to utilize a consensus mechanism known as Delegated Proof of Stake (DPoS). While DPoS has been around for quite some time, it has not received the same level of exposure as Proof of Work...ark.io",11,10,0,False
61,Marc Kenigsberg @marckenigsberg,"#ethereum answer to uber. After a lot of talk the time is now. Check out the white paper here. Is critical mass possible though?Quote TweetPeter Ratnikov@PeterRatnikov · Nov 4, 2016Opportunity! “Introducing the #ArcadeCity Whitepaper, Token Sale, and $100K Hackathon” by Arcade City Hall https://blog.arcade.city/introducing-the-arcade-city-whitepaper-token-sale-and-100k-hackathon-344b51769b85#.qc0sfkeaz…",1,2,2,False
62,Brave New Coin@bravenewcoin,#Ethereum Price: USD $11.01 #ETH http://ow.ly/6UKf3048WBe,2,0,0,False
63,Josh Metnick @JoshMetnick,"Strong move @YourBTCC!, https://cointelegraph.com/news/major-chinese-exchange-btcc-selects-ethereum-classic-over-eth… ""the company announced its support for Ethereum Classic over ETH"" #ethereum @paulvigna #BTC",1,1,0,False
64,BitcoinAgile@bitcoinagile,What is #ethereum? A Step-by-Step Beginners Guide [Ultimate Guide] #blockchain http://linkplugapp.com/PDnMO,1,3,0,False
65,Jean-Pierre Buntinx@jdebunt,"#Ethereum fork, #Zcahs Fork...and some people wonder why people look down on altcoins? Get your shit together and stop ripping people off.",1,6,0,False
66,Artur Filatov@gansik88,"Hearing a lot about ARK, better have your body ready! #eth #lisk #bitcoin #altcoin #etc #arkio $ARK https://wn.nr/BNEYYn",1,0,0,False
67,MobileAuthTech@mobileauthtech,"What is #Ethereum? A Step-by-Step Beginners Guide #blockchain
http://j.mp/2f8SAKv",2,2,0,False
68,Timo Ξberhard@ZhuBajie72,"All the #Shills trying to talk down #Ethereum and the great work in process, should be ashamed of themselves. #Crypto doesn´t need you...(!)",1,1,0,False
69,Alexander R.@captain33ft,"$eth going down //short $eth
$btc going up //long $btc",4,0,0,False
70,ARK.io@ArkEcosystem,"#ARK - a platform for #cryptocurrency #consumer #services
http://smithandcrown.com/event/ark-ico-platform-cryptocurrency-consumer-services/…
$ARK #blockchain $BTC $ETH $LSK #Lisk #ICO #investors",7,10,0,False
71,Anondran@AnondranCrypto,"$ETC about to hit 1/10th the price of $ETH......
Hoping it to be a critical trendline",6,2,2,False
72,ExploreTraveler@exploretravel1,RT @48Growth: What is #Ethereum? Everything you need to know  http://lnkplg.co/V65WW #blockchain,2,2,0,False
73,technoking loomdart@loomdart,straight up had a dream $ETH hit 0.024,2,1,1,False
82,Crypto Lady@Lady_of_Crypto,"Hearing a lot about ARK, better have your body ready! #eth #lisk #bitcoin #altcoin #etc #arkio $ARK https://wn.nr/h8gfZd",2,0,0,False
83,Crypto Currency@CryptoProfixxx,"Hearing a lot about ARK, better have your body ready! #eth #lisk #bitcoin #altcoin #etc #arkio $ARK https://wn.nr/X2s59n",1,0,0,False
93,Alejandro Sewrjugin@alesew23,Pioneers Approach to #Bitcoin's Evolution #laBITconf #laBitconf2016 #Blockchain #Digital #cryptocurrency #Ethereum,3,2,0,False
94,Cloud Mining Monitor@cmmonitorcom,#Ethereum #Cloudmining': 05.11.2016 Payment received. 6 MHs - 0.08272113 ETH. From Genesis Mining.Genesis Mining (Ethereum Mining)cmmonitor.com,1,2,0,False
96,FunVidClick@FunVidClick,"Start #Mining #Ether Without Purchasing Any Hardware

3% Discount With Coupon Code 8rRBkl

http://dld.bz/ePx6q",0,0,0,False
97,Xiao Icha@XiaoIcha,"@ArkEcosystem is awesome, the future is NOW! #bitcoin #lisk #altcoin #eth #etc https://wn.nr/p8Bzkz",1,0,0,False
98,Xiao Icha@XiaoIcha,"Hearing a lot about ARK, better have your body ready! #eth #lisk #bitcoin #altcoin #etc #arkio $ARK https://wn.nr/p8Bzkz",0,0,0,False
100,Jo Flaig-Gallichan@jojosweetcheeks,#Eth #Sam great pic! #indian great end to firework night! #fun… https://instagram.com/p/BMckfECh_9wYC1eBhKsWTh5e_aVwLreCfIPYXU0/…,0,0,0,False
102,Coinstats@coinstats,"Ethereum Classic - ETC
Price: $1.0459
Change in 1h: +-0.97%
Market cap: $89507123.0
Ranking: 5
#Ethereum Classic #ETC",0,0,0,False
104,Coinstats@coinstats,"Ethereum - ETH
Price: $11.2116
Change in 1h: +1.83%
Market cap: $960554754.0
Ranking: 2
#Ethereum #ETH",0,0,0,False
106,Кристина Тамбовцева@Tambovceva2016_,"@ArkEcosystem is awesome, the future is NOW! #bitcoin #lisk #altcoin #eth #etc https://wn.nr/FwcdqD",1,0,0,False
109,Coinstats@coinstats,"Ethereum Classic - ETC
Price: $1.052
Change in 1h: +1.32%
Market cap: $90027652.0
Ranking: 5
#Ethereum Classic #ETC",0,0,0,False
110,Bobe'bot@Bobe_bot,"1 #BTC = 695.3725 #CHF
1 #ETH = 11.2178 #CHF
1 #DOGE = 0.000217171518 #CHF
sources: @cryptonatorcom @hellobity",0,0,0,False
111,Coinstats@coinstats,"Ethereum - ETH
Price: $11.0033
Change in 1h: +-0.34%
Market cap: $942691873.0
Ranking: 2
#Ethereum #ETH",0,0,0,False
112,Ethereum SE@StackEthereum,How to access contract data without getter functions via web3 http://ethereum.stackexchange.com/questions/9846/how-to-access-contract-data-without-getter-functions-via-web3… #ethereum #solidity #web3js,1,0,0,False
113,Ameer Rosic@AmeerRosic,Is #Youtube in Trouble? #Blockchain is coming! http://bit.ly/1tgKTVz #ethereum #bitcoin,2,1,0,False
114,No coNnecT@_No_CoNnecT_,"Hearing a lot about ARK, better have your body ready! #eth #lisk #bitcoin #altcoin #etc #arkio $ARK https://wn.nr/xRUfdF",1,0,0,False
116,Yulius Maradjani@YMaradjani,#RT Join Chronobank on Slack! http://ln.is/Bk3VC #chronobank #bitcoin #blockchain #Ethereum... by #Vindyne8 via @c0nvey,0,0,0,False
117,enigmanisimus@ciopalina,"Hearing a lot about ARK, better have your body ready! #eth #lisk #bitcoin #altcoin #etc #arkio $ARK https://wn.nr/p8B7Ss",0,0,0,False
120,Sven Korschinowski@KorschinowskiSv,@RBS builds #ethereum based distributed clearing house http://ibtimes.co.uk/rbs-builds-ethereum-based-distributed-clearing-house-1589897?utm_content=buffer15fa3&utm_medium=social&utm_source=twitter.com&utm_campaign=buffer…,0,0,0,False
121,alex costa@bocs12345,"@ArkEcosystem is awesome, the future is NOW! #bitcoin #lisk #altcoin #eth #etc https://wn.nr/KRrT8U",1,1,0,False
122,alex costa@bocs12345,"Hearing a lot about ARK, better have your body ready! #eth #lisk #bitcoin #altcoin #etc #arkio $ARK https://wn.nr/KRrT8U",0,0,0,False
123,Kolar Kolarov@karnalovo,"Hearing a lot about ARK, better have your body ready! #eth #lisk #bitcoin #altcoin #etc #arkio $ARK https://wn.nr/rqGqH6",0,0,0,False
124,Bitcoin Updater@BitcoinUpdater,Cryptocurrency hacks: The Biggest Heists In Blockchain History #ethereum http://soco.space/YGEC0r,2,0,0,False
126,Ameer Rosic@AmeerRosic,Could #Blockchain Technology Bankrupt #Spotify? http://bit.ly/1tgKTVz #ethereum #bitcoin,1,2,0,False
127,⛧ God of Gaming ⛧@TheGodofGamez,"Trust only movement. Life happens at the level of events, not of words. Trust movement. $ETH",0,0,0,False
129,Blockgeeks@Blockgks,"Who is working on a blockchain powered sustainable energy solutions?
http://dld.bz/eVxaY #ethereum #blockchain",1,0,0,False
130,Coinstats@coinstats,"Ethereum Classic - ETC
Price: $1.03757
Change in 1h: +0.37%
Market cap: $88791279.0
Ranking: 5
#Ethereum Classic #ETC",0,0,0,False
131,Coinstats@coinstats,"Ethereum - ETH
Price: $11.0827
Change in 1h: +0.43%
Market cap: $949479497.0
Ranking: 2
#Ethereum #ETH",0,0,0,False
132,Ethereum Price@EthereumPrice_,"#Ethereum: Ether Price Index
1 ETH =0.015731Ƀ XBT = $11.112000 USD
Today: -0.45%⬇︎ Last 24h: -0.28%⬇︎
https://ethereum-price.com",1,0,0,False
133,Mr. Gzov@btc_dance,"Comparing green $eth & $lsk
https://coinigy.com/s/i/581e3d82/
#pump #liskPoloniex BTC/LSK Chart - Published on Coinigy.com on November 5th, 2016 at 8:13 PM.Poloniex BTC/LSK Chart - Indicators used: Volume (true, 20) - Interval: D. Published on Coinigy.com on November 5th, 2016 at 8:13 PM.coinigy.com",3,3,0,False
134,⛧ God of Gaming ⛧@TheGodofGamez,Be a good listener. Your ears will never get you in trouble. $ETH,0,0,0,False
135,Nigman@nema72,"Hearing a lot about ARK, better have your body ready! #eth #lisk #bitcoin #altcoin #etc #arkio $ARK https://wn.nr/N9bWQV",0,0,0,False
136,Ameer Rosic@AmeerRosic,What is #Ethereum? Everything you need to know  http://dld.bz/fcBTc #blockchain,1,1,0,False
137,nurul  m qurana@NQurana,"@ArkEcosystem is awesome, the future is NOW! #bitcoin #lisk #altcoin #eth #etc https://wn.nr/vj3AQh",1,0,0,False
138,Kristina Petrovskaya@Krista_VPX,"Hearing a lot about ARK, better have your body ready! #eth #lisk #bitcoin #altcoin #etc #arkio $ARK https://wn.nr/7xZ9dE",0,0,0,False
139,nurul  m qurana@NQurana,"Hearing a lot about ARK, better have your body ready! #eth #lisk #bitcoin #altcoin #etc #arkio $ARK https://wn.nr/vj3AQh",0,0,0,False
140,Damir@Dam2174,"@ArkEcosystem is awesome, the future is NOW! #bitcoin #lisk #altcoin #eth #etc https://wn.nr/FwCxp7",1,0,0,False
141,Damir@Dam2174,"Hearing a lot about ARK, better have your body ready! #eth #lisk #bitcoin #altcoin #etc #arkio $ARK https://wn.nr/FwCxp7",0,0,0,False
142,⛧ God of Gaming ⛧@TheGodofGamez,The price of greatness is responsibility. $ETH,0,0,0,False
144,Ethereum SE@StackEthereum,recursive call ends with `VM Exception: invalid opcode` http://ethereum.stackexchange.com/questions/9843/recursive-call-ends-with-vm-exception-invalid-opcode… #ethereum #evm #exceptions #opcode,1,0,0,False
145,AC3  #KTSE@AC3Savage,I never lost anything I wanted back -subtweet #ether,0,0,0,False
147,Blockgeeks@Blockgks,Step-by-Step Guide: What the heck is a Smart Contract? #blockchain #bitcoin #ethereum http://dld.bz/eYNat,2,0,0,False
148,Coinstats@coinstats,"Ethereum Classic - ETC
Price: $1.03438
Change in 1h: +-0.63%
Market cap: $88516889.0
Ranking: 5
#Ethereum Classic #ETC",0,0,0,False
149,Coinstats@coinstats,"Ethereum - ETH
Price: $10.9968
Change in 1h: +-0.59%
Market cap: $942106968.0
Ranking: 2
#Ethereum #ETH",0,0,0,False
150,Ethereum SE@StackEthereum,Ethereum Smart Contract Tutorial http://ethereum.stackexchange.com/questions/9841/ethereum-smart-contract-tutorial… #ethereum #contractdesign,2,0,0,False
151,Ethereum SE@StackEthereum,What exactly gets stored when referencing external contracts? http://ethereum.stackexchange.com/questions/9842/what-exactly-gets-stored-when-referencing-external-contracts… #ethereum #solidity #contractdevelopment #storage,1,0,0,False
154,Ameer Rosic@AmeerRosic,What is #Ethereum? A Step-by-Step Beginners Guide  http://dld.bz/fcBTc #blockchain,5,4,0,False
155,LAPITH@bhumharit,"RT moyzdni: Change Agents 2016: Vitalik Buterin, Ethereum http://canadianbusiness.com/innovation/change-agent/vitalik-buterin-ethereum/… #fintech #blockchain #ethereum #DLTMeet the wunderkind developing the blockchain future of businessVitalik Butherin and Ethereum are looking to disrupt the traditional corporate organization—and everything elsecanadianbusiness.com",1,2,0,False
156,Dr. Md Nazmul Hasan@healthnadvices,"Hearing a lot about ARK, better have your body ready! #eth #lisk #bitcoin #altcoin #etc #arkio $ARK https://wn.nr/3b56C2",0,0,0,False
157,Roberto Rosales@bufandier,Donate to our project! Add funds and receive $$$ in exchange from profits lifetime! @gagpubblicita #ethereum #miner https://indiegogo.com/projects/build-ethereum-mining-farm/x/14702367#/…,0,0,0,False
158,Tedy MD@bitcoinjapanese,Klarna CEO: Electronic Payment Simplification | Mad M... http://vid.staged.com/wYst #btcjapan #btcchina #ethereum.co.id,1,2,0,False
159,Cliff K Jordan@CKJordan15,"Earn up to $65,610 daily! join & get the benefits http://coinomia.com/prelaunch/biggest-binary-MLM-prelaunch.html?id=vivante… #coinomia #ethereum #cryptoguide #Bitcoins",0,0,0,False
160,Coinstats@coinstats,"Ethereum - ETH
Price: $11.0734
Change in 1h: +0.21%
Market cap: $948653946.0
Ranking: 2
#Ethereum #ETH",0,0,0,False
161,Ethereum SE@StackEthereum,Sending post request to shapeshift http://ethereum.stackexchange.com/questions/9840/sending-post-request-to-shapeshift… #ethereum #contractdevelopment #shapeshift,1,0,0,False
162,Veki@Veki551155,What is #ethereum? A Step-by-Step Beginners Guide [Ultimate Guide] #blockchain http://linkplugapp.com/PDnMO,0,0,0,False
163,Faith Emmanuel@residualbitcoin,What is #ethereum? A Step-by-Step Beginners Guide [Ultimate Guide] #blockchain http://linkplugapp.com/PDnMO  #ResidualB…,0,0,0,False
165,ExploreTraveler@exploretravel1,RT @ChiefApricot: What is #Ethereum? A Step-by-Step Beginners Guide [Ultimate Guide] http://lnkplg.co/PDnMO #blockchain,0,0,0,False
167,Sean Goodwin@DealAppSEO,Come learn about #Ethereum & #BlockChain at this #OC Meetup. Check it out and RSVP! http://meetu.ps/32c2Hg,1,0,0,False
168,ARK.io@ArkEcosystem,"#DPoS and #ARK voting explained

https://blog.ark.io/dpos-and-ark-voting-explained-68596a171ca1#.v1wgq7jv7…
$ARK #blockchain #Bitcoin $BTC $ETH $LSK #Lisk #cryptocurrency #ICO #investorsDPoS and ARK Voting ExplainedARK is built to utilize a consensus mechanism known as Delegated Proof of Stake (DPoS). While DPoS has been around for quite some time, it has not received the same level of exposure as Proof of Work...ark.io",8,15,0,False
169,TopShot DE@cryptosnerd,"Hearing a lot about ARK, better have your body ready! #eth #lisk #bitcoin #altcoin #etc #arkio $ARK https://wn.nr/N9ESPN",0,0,0,False
170,5thAngel@LionTellSecrets,Someone slowly buying #ICN on Kraken https://etherscan.io/token/ICONOMI?a=0x57945f3123fa83bac7a8733a057912acd566dac4… 250k already.. #ICONOMI got 30k myself  #BTC #altcoin #bitcoins #eth #ethereum,3,1,3,False
171,joko yakan@joko_yakan,"Hearing a lot about ARK, better have your body ready! #eth #lisk #bitcoin #altcoin #etc #arkio $ARK https://wn.nr/g8Gmfq",0,0,0,False
173,Bitonator ∀@TimoBitonator,"@ArkEcosystem is awesome, the future is NOW! #bitcoin #lisk #altcoin #eth #etc https://wn.nr/xRSUg9",1,0,0,False
175,Bitonator ∀@TimoBitonator,"Hearing a lot about ARK, better have your body ready! #eth #lisk #bitcoin #altcoin #etc #arkio $ARK https://wn.nr/xRSUg9",0,0,0,False
177,Blockgeeks@Blockgks,Smart Contracts: The #Blockchain Technology That Will Replace Lawyers http://dld.bz/eYNat #ethereum,3,0,0,False
180,Coinstats@coinstats,"Ethereum Classic - ETC
Price: $1.01417
Change in 1h: +-0.25%
Market cap: $86784448.0
Ranking: 5
#Ethereum Classic #ETC",0,0,0,False
181,Coinstats@coinstats,"Ethereum - ETH
Price: $11.0585
Change in 1h: +-0.1%
Market cap: $947362279.0
Ranking: 2
#Ethereum #ETH",0,0,0,False
183,Olivier Chapiteau@o_chapiteau,"05Nov2016 18:00 UTC #Ether #Blockchain status - Block height @ 2,572,037 - 50,506 unconfirmed tr. - Last fork height @ 2,572,014",1,1,0,False
184,Olivier Chapiteau@o_chapiteau,05Nov2016 18:00 UTC #Ethereum live spots - #Ether @ 11.12880 $ - #EtherClassic @ 1.01740 $,0,0,0,False
185,Tess (Theresa)Finlay@FinlayTheresa,"Best cryptocurrency gambling sites ? ?
#bitcointalk #bitcoins #ethereum #Crypto #btc @BitcoinWrld @BCNBillionaire @Bitcoin @BitcoinAndBets",1,1,0,False
186,Dmitry ButΞrin@BlockGeekDima,What is #Ethereum? A Step-by-Step Beginners Guide [Ultimate Guide] http://buff.ly/2fbwSCQ #blockchain,1,0,0,False
187,gunawan bustiono@bustiono,"Hearing a lot about ARK, better have your body ready! #eth #lisk #bitcoin #altcoin #etc #arkio $ARK https://wn.nr/Eks2YG",0,0,0,False
188,Afolabi Owagbenga@jacaf01jacaf,"@ArkEcosystem is awesome, the future is NOW! #bitcoin #lisk #altcoin #eth #etc https://wn.nr/N9E6Tb",1,0,0,False
189,Afolabi Owagbenga@jacaf01jacaf,"Hearing a lot about ARK, better have your body ready! #eth #lisk #bitcoin #altcoin #etc #arkio $ARK https://wn.nr/N9E6Tb",0,0,0,False
190,BitcMarckos@klarki1,The #Ethereum-based #blockchain casino @vDice_io starts its first Initial Coin Offering on 15 November.vDice uses Ethereum contracts to share profits between stakeholdersThe digital casino’s Inicial Coin Offering begins on 15 of November.coinfox.info,0,0,0,False
191,Brave New Coin@bravenewcoin,Find #ETC #MAID #XMR #OMNI #FCT #XCP #AMP #BTC #ETH. Price feeds & charts .@BNC_markets,0,0,0,False
192,KovshBeats@KovshBeats,"Hearing a lot about ARK, better have your body ready! #eth #lisk #bitcoin #altcoin #etc #arkio $ARK https://wn.nr/QgDVWM",0,0,0,False
193,joni coyaiba@jonicoya,"Hearing a lot about ARK, better have your body ready! #eth #lisk #bitcoin #altcoin #etc #arkio $ARK https://wn.nr/9MmPHn",0,0,0,False
194,MeeseeksBTC@Meeseeks100BTC,"RT Start mining $ETH or $BTC together with people from all over the world.

https://goo.gl/tYClLG",0,0,0,False
195,Coinstats@coinstats,"Ethereum Classic - ETC
Price: $1.01797
Change in 1h: +-2.07%
Market cap: $87108406.0
Ranking: 5
#Ethereum Classic #ETC",0,0,0,False
196,Coinstats@coinstats,"Ethereum - ETH
Price: $11.0632
Change in 1h: +0.03%
Market cap: $947747305.0
Ranking: 2
#Ethereum #ETH",0,0,0,False
197,19 Tuğrul 1747@60alptug53,"@ArkEcosystem is awesome, the future is NOW! #bitcoin #lisk #altcoin #eth #etc https://wn.nr/2nmQyV",1,0,0,False
198,19 Tuğrul 1747@60alptug53,"Hearing a lot about ARK, better have your body ready! #eth #lisk #bitcoin #altcoin #etc #arkio $ARK https://wn.nr/2nmQyV",0,0,0,False
201,Faith Emmanuel@residualbitcoin,First #ethereum Developers Certified on the #blockchain Says B9lab - Investors Buz #b9lab http://bit.ly/2fbQ03E …,0,0,0,False
204,Yura Voitenko@forksearsher,"Hearing a lot about ARK, better have your body ready! #eth #lisk #bitcoin #altcoin #etc #arkio $ARK https://wn.nr/MYB3rA",0,0,0,False
205,Agung@agung2244,"Hearing a lot about ARK, better have your body ready! #eth #lisk #bitcoin #altcoin #etc #arkio $ARK http://ln.is/gleam.io/W3AB7/bZefV…",0,0,0,False
206,Cloud Mining Monitor@cmmonitorcom,#Ether #Ethereum #Cloudmining': 05.11.2016 Payment received. 6 MHs - 0.24757122 ETH. From HashFlareHashFlare (Ethereum Mining)cmmonitor.com,1,1,0,False
207,Lutsk@lutssk,"@ArkEcosystem is awesome, the future is NOW! #bitcoin #lisk #altcoin #eth #etc https://wn.nr/AjZW6E",1,0,0,False
208,Lutsk@lutssk,"Hearing a lot about ARK, better have your body ready! #eth #lisk #bitcoin #altcoin #etc #arkio $ARK https://wn.nr/AjZW6E",0,0,0,False
209,Cryptoy@cryptoycom,"Hearing a lot about ARK, better have your body ready! #eth #lisk #bitcoin #altcoin #etc #arkio $ARK https://wn.nr/Y75zhP",0,0,0,False
210,Aris@Aris7892,"Hearing a lot about ARK, better have your body ready! #eth #lisk #bitcoin #altcoin #etc #arkio $ARK https://wn.nr/ZPK6sN",0,0,0,False
211,Julia Edling@bitcointonic,Why I’m Short #Ethereum and Long #Bitcoin (The Cryptoverse #117): On today’s episode of The Cryptoverse:… http://dlvr.it/Mbm3bf,1,0,0,False
212,Faith Emmanuel@residualbitcoin,Stock Market Collapsing? / RBS Proceeds with #ethereum / Zhong #blockchain Tech / JM Bullion http://news.bitvoxy.com/2016/11/stock-market-collapsing-rbs-proceeds-ethereum-zhong-blockchain-tech-jm-bullion-gold… …,1,0,0,False
215,BitcoinAgile@bitcoinagile,Stock Market Collapsing? / RBS Proceeds with #ethereum / Zhong #blockchain Tech / JM Bullion http://news.bitvoxy.com/2016/11/stock-market-collapsing-rbs-proceeds-ethereum-zhong-blockchain-tech-jm-bullion-gold…,2,0,0,False
216,William El Kaim@welkaim,"BlockCharge - EV Charging via the #Ethereum #BlockChain (HQ), a plug and an app. https://lnkd.in/ehyPYhq",1,1,0,False
218,CryptoRTs +  = @CryptoRTs,RT Joshua_Muller: Why #ETC will succeed & take over #ETH: http://cryptohustle.com/ethereum-classic-fundamentals… #EthereumClassic pwns #Ethereum,1,0,0,False
221,Aayush Jindal@AayushJs,"#Ethereum, #Ether - $ETH Price Testing Traders Patience
 http://ethnews.com/analysis/11-05-2016-ether-price-testing-traders-patience…",2,0,0,False
222,saurario@saurario,"Hearing a lot about ARK, better have your body ready! #eth #lisk #bitcoin #altcoin #etc #arkio $ARK https://wn.nr/mWDvXy",0,0,0,False
223,Brave New Coin@bravenewcoin,#Ethereum Price: USD $11.04 #ETH http://ow.ly/6UKf3048WBe,1,0,0,False
224,Dart Bitcoin@strana_posylok,"Hearing a lot about ARK, better have your body ready! #eth #lisk #bitcoin #altcoin #etc #arkio $ARK https://wn.nr/CUH8Vc",0,0,0,False
225,charlesperri@rhomabiskuit,"Hearing a lot about ARK, better have your body ready! #eth #lisk #bitcoin #altcoin #etc #arkio $ARK https://wn.nr/h8g5vU",0,0,0,False
226,nasi goceng@nasigocengud,"Hearing a lot about ARK, better have your body ready! #eth #lisk #bitcoin #altcoin #etc #arkio $ARK https://wn.nr/TkVS89",0,0,0,False
228,Karlsson@Karlsson_Roof,"Hearing a lot about ARK, better have your body ready! #eth #lisk #bitcoin... http://ln.is/v1FTO by #ll_lucky_ll via @c0nvey",0,0,0,False
229,_Lucky_@ll_lucky_ll,"Hearing a lot about ARK, better have your body ready! #eth #lisk #bitcoin #altcoin #etc #arkio $ARK https://wn.nr/rqgckS",0,0,0,False
230,Coinstats@coinstats,"Ethereum Classic - ETC
Price: $1.04176
Change in 1h: +1.28%
Market cap: $89143087.0
Ranking: 5
#Ethereum Classic #ETC",0,0,0,False
231,Bobe'bot@Bobe_bot,"1 #BTC = 692.3977 #CHF
1 #ETH = 11.2443 #CHF
1 #DOGE = 0.000216309598 #CHF
sources: @cryptonatorcom @hellobity",0,0,0,False
232,Coinstats@coinstats,"Ethereum - ETH
Price: $11.0591
Change in 1h: +0.07%
Market cap: $947387053.0
Ranking: 2
#Ethereum #ETH",0,0,0,False
233,vasya.vasyn@vasys174,"Hearing a lot about ARK, better have your body ready! #eth #lisk #bitcoin #altcoin #etc #arkio $ARK https://wn.nr/h8gT8r",0,0,0,False
234,vtclark@valanning,KEY PAPER #law http://helda.helsinki.fi/bitstream/handle/10138/165933/Koulu_2016_Blockchains_and_ODR.pdf?sequence=1… #ODR #blockchaintech #cryptocurrency #smartcontracts #techevolution #OPENSKY #litigation #ETHEREUM,2,1,0,False
235,Ameer Rosic@AmeerRosic,What is #Ethereum? A Step-by-Step Beginners Guide [Ultimate Guide] http://buff.ly/2fbAt3P #blockchain,1,0,0,False
236,Piotr Murjas@PiotrMurjas,Bitcoin's Price Flirts With $750 as Zcash Fervor Fades #bitcoin #Zcash #ethereum #investing http://bit.ly/2fmKgnX,1,1,0,False
238,Arjan@Krachtforum,"Hearing a lot about ARK, better have your body ready! #eth #lisk #bitcoin #altcoin #etc #arkio $ARK https://wn.nr/DmGA7q",0,0,0,False
240,Rita Interway@interkent011,"@ArkEcosystem is awesome, the future is NOW! #bitcoin #lisk #altcoin #eth #etc https://wn.nr/nZ8Aqs",0,0,0,False
242,Blockgeeks@Blockgks,What is #Ethereum? A Step-by-Step Beginners Guide [Ultimate Guide] http://buff.ly/2fbCtsP #blockchain,1,0,0,False
243,GRAND EX@grand_ex,"@ArkEcosystem is awesome, the future is NOW! #bitcoin #lisk #altcoin #eth #etc https://wn.nr/ZPKJfR",1,0,0,False
248,GRAND EX@grand_ex,"Hearing a lot about ARK, better have your body ready! #eth #lisk #bitcoin #altcoin #etc #arkio $ARK https://wn.nr/ZPKJfR",0,0,0,False
249,RatesBTC@RatesBTC,http://ratesbtc.com/ETH/USD 1 ETH = 11.122 USD #ethereum #eth @ethereumproject,0,0,0,False
250,wanda@wandahamz,"Hearing a lot about ARK, better have your body ready! #eth #lisk #bitcoin #altcoin #etc #arkio $ARK https://wn.nr/g8VzY3",0,0,0,False
251,iExec@iEx_ec,"Replying to @LionelFray and @blogbitcoinfrThx Lionel! How about these : https://medium.com/@gilles.fedak #iExec #dcc #hpc #SC16 #blockchain #p2p #bitcoin #ethereumGilles Fedak – MediumRead writing from Gilles Fedak on Medium. Every day, Gilles Fedak and thousands of other voices read, write, and share important stories on Medium.medium.com",1,1,0,False
252,Ameer Rosic@AmeerRosic,5 Blockchain Applications That will Revolutionize The world http://bit.ly/1U4aha8 #Blockchain #Bitcoin #ethereum,2,5,0,False
253,mero@meromohamed8511,"@ArkEcosystem is awesome, the future is NOW! #bitcoin #lisk #altcoin #eth #etc https://wn.nr/AjNn4z",1,0,0,False
254,Blockgeeks@Blockgks,Would you like early access to BlockGeeks #Blockchain Community? Sign up here http://blockgeeks.com #ethereum,0,0,0,False
255,mero@meromohamed8511,"Hearing a lot about ARK, better have your body ready! #eth #lisk #bitcoin #altcoin #etc #arkio $ARK https://wn.nr/AjNn4z",0,0,0,False
256,Coinstats@coinstats,"Ethereum Classic - ETC
Price: $1.02694
Change in 1h: +-1.12%
Market cap: $87873455.0
Ranking: 5
#Ethereum Classic #ETC",0,0,0,False
257,Coinstats@coinstats,"Ethereum - ETH
Price: $11.0541
Change in 1h: +0.64%
Market cap: $946943903.0
Ranking: 2
#Ethereum #ETH",0,0,0,False
258,Ethereum SE@StackEthereum,Need help to run a function on contract but get Big Number error http://ethereum.stackexchange.com/questions/9835/need-help-to-run-a-function-on-contract-but-get-big-number-error… #ethereum #goethereum #blockchain #cppethereum,1,0,0,False
259,Ethereum Price@EthereumPrice_,"#Ethereum: Ether Price Index
1 ETH =0.015726Ƀ XBT = $11.174650 USD
Today: -0.48%⬇︎ Last 24h: +0.80%⬆︎
https://ethereum-price.com",1,0,0,False
260,Ethereum SE@StackEthereum,"multi-sig transactions, not on contract-level http://ethereum.stackexchange.com/questions/9836/multi-sig-transactions-not-on-contract-level… #ethereum #signature #multisignature",1,1,0,False
261,BitcoinBuzz vega9@BitcoinBuzzV9,http://bitcoinbuzz.vega9.com - Hot topics: #bitcoin #blockchain #dao #crypto #btc #ethereum,1,1,0,False
263,Kondiomir@acimirov,"Hearing a lot about ARK, better have your body ready! #eth #lisk #bitcoin #altcoin #etc #arkio $ARK https://wn.nr/P3p9Ty",0,0,0,False
266,Adrian@AdrianLISK,"@ArkEcosystem ARK-TEC is starting in 2 days, the future is NOW! #bitcoin #lisk #altcoin #eth #etc https://wn.nr/Y7k8Q4",1,0,0,False
267,Adrian@AdrianLISK,"Hearing a lot about ARK, better have your body ready! #eth #lisk #bitcoin #altcoin #etc #arkio $ARK https://wn.nr/Y7k8Q4",0,0,0,False
268,ion cristian@ioncristian15,"Hearing a lot about ARK, better have your body ready! #eth #lisk #bitcoin #altcoin #etc #arkio $ARK https://wn.nr/p8Jn8B",0,0,0,False
269,Freddy U@spacetravel2020,"Hearing a lot about ARK, better have your body ready! #eth #lisk #bitcoin #altcoin #etc #arkio $ARK https://wn.nr/mWCEN4",0,0,0,False
271,kampret kabur@kampretkabur,"Hearing a lot about ARK, better have your body ready! #eth #lisk #bitcoin #altcoin #etc #arkio $ARK https://wn.nr/jmGZjd",0,0,0,False
272,Alan Draguilow@adraguilow,#Microsoft Doubles Down on #Ethereum With New #Blockchain Product http://klou.tt/1re1udxx14qkl via @CoinDesk,1,0,0,False
273,Ameer Rosic@AmeerRosic,5 Blockchain Applications That Will Transform Society http://bit.ly/1U4aha8 #Blockchain #Bitcoin #ethereum,1,2,0,False
274,realitybay@realitybitcoin,"Hearing a lot about ARK, better have your body ready! #eth #lisk #bitcoin #altcoin #etc #arkio $ARK https://wn.nr/z2hcTB",0,0,0,False
275,Veki@Veki551155,What is #ethereum  How Does Ethereum Work  How To Mine Ethereum #EthereumDefinition http://bit.ly/2f4jfru,1,0,0,False
276,Faith Emmanuel@residualbitcoin,What is #ethereum  How Does Ethereum Work  How To Mine Ethereum #EthereumDefinition http://bit.ly/2f4jfru  #Resi…,1,0,0,False
277,BitcoinAgile@bitcoinagile,What is #ethereum  How Does Ethereum Work  How To Mine Ethereum #EthereumDefinition http://bit.ly/2f4jfru,2,0,0,False
278,Geka@Texasec,"Hearing a lot about ARK, better have your body ready! #eth #lisk #bitcoin #altcoin #etc #arkio $ARK https://wn.nr/QgSn7s",0,0,0,False
280,rini@rinaajah20,"Hearing a lot about ARK, better have your body ready! #eth #lisk #bitcoin #altcoin #etc #arkio $ARK https://wn.nr/xRUkFU",0,0,0,False
281,Mass One@massoner,FUCK JAY-Z #ether #fuckjayyz #youtradedyoursoul https://youtu.be/boLn4l30su8 via @YouTube,0,0,0,False
282,Colombina@Colombina_2,"Hearing a lot about ARK, better have your body ready! #eth #lisk #bitcoin #altcoin #etc #arkio $ARK https://wn.nr/7xZTTb",0,0,0,False
283,Blockgeeks@Blockgks,"Join today! Blockgeeks is a #Blockchain innovation hub 
& marketplace http://blockgeeks.com #Bitcoin #Ethereum",1,0,0,False
284,Coinstats@coinstats,"Ethereum Classic - ETC
Price: $1.04087
Change in 1h: +4.13%
Market cap: $89063955.0
Ranking: 5
#Ethereum Classic #ETC",0,0,0,False
285,Coinstats@coinstats,"Ethereum - ETH
Price: $10.9689
Change in 1h: +-0.23%
Market cap: $939630333.0
Ranking: 2
#Ethereum #ETH",0,0,0,False
286,BitcoinBuzz vega9@BitcoinBuzzV9,http://bitcoinbuzz.vega9.com - Hot topics: #bitcoin #blockchain #dao #crypto #ethereum #cryptocurrency,1,0,0,False
287,Кастенич Давид@DavidKa3002,"@ArkEcosystem is awesome, the future is NOW! #bitcoin #lisk #altcoin #eth #etc https://wn.nr/TkVpGn",1,0,0,False
288,Кастенич Давид@DavidKa3002,"Hearing a lot about ARK, better have your body ready! #eth #lisk #bitcoin #altcoin #etc #arkio $ARK https://wn.nr/TkVpGn",0,0,0,False
291,Ξ Fly Guy Ξ (flyguy.eth)@FlyGuyInTheSky,"Replying to @iurimatias@halovast @YouTube I think they need to HardFork like #ethereum obviously the ""attack area"" is too big blah blah ...",0,0,0,False
292,Veki@Veki551155,Smart Love <3 #ethereum Marriage on SecureScuttlebutt #hackethercamp https://hack.ether.camp/idea/smart-love-3-ethereum-marriage-on-securescuttlebutt…,1,0,0,False
293,CRΞATIVΞLIFΞ₿@CREATIVE818,"Hearing a lot about ARK, better have your body ready! #eth #lisk #bitcoin #altcoin #etc #arkio $ARK https://wn.nr/kWkzDX",0,0,0,False
294,Ξ Fly Guy Ξ (flyguy.eth)@FlyGuyInTheSky,"@BitcoinWrld so anti #ethereum I took it with a pinch of salt..if something is perceived a ""threat"" at some stage something will attack it.",0,0,0,False
296,PeanHoY@peanhot,"@ArkEcosystem is awesome, the future is NOW! #bitcoin #lisk #altcoin #eth #etc https://wn.nr/Y753fV",1,0,0,False
297,c0mrade4chan@crypto_maniacs,"@ArkEcosystem is awesome,1 the future is NOW! #bitcoin #lisk #altcoin #eth #etc https://wn.nr/BNTAkF",1,0,0,False
298,PeanHoY@peanhot,"Hearing a lot about ARK, better have your body ready! #eth #lisk #bitcoin #altcoin #etc #arkio $ARK https://wn.nr/Y753fV",1,1,0,False
299,c0mrade4chan@crypto_maniacs,"@ArkEcosystem is awesome, the futureа is NOW! #bitcoin #lisk #altcoin #eth #etc https://wn.nr/BNTAkF",1,0,0,False
300,Faith Emmanuel@residualbitcoin,Smart Love <3 #ethereum Marriage on SecureScuttlebutt #hackethercamp https://hack.ether.camp/idea/smart-love-3-ethereum-marriage-on-securescuttlebutt…  #ResidualBitcoin,0,0,0,False
301,jack komber@jack_komber,"Hearing a lot about ARK, better have your body ready! #eth #lisk #bitcoin #altcoin #etc #arkio $ARK https://wn.nr/Ek6hNE",0,0,0,False
302,BitcoinAgile@bitcoinagile,Smart Love <3 #ethereum Marriage on SecureScuttlebutt #hackethercamp https://hack.ether.camp/idea/smart-love-3-ethereum-marriage-on-securescuttlebutt…,1,0,0,False
303,c0mrade4chan@crypto_maniacs,"@ArkEcosystem is awesome, the future is NOW! #bitcoin #lisk #altcoin #eth #etc https://wn.nr/BNTAkF",1,0,0,False
304,c0mrade4chan@crypto_maniacs,"Hearing a lot about ARK, better have your body ready! #eth #lisk #bitcoin #altcoin #etc #arkio $ARK https://wn.nr/BNTAkF",0,0,0,False
307,Matija Remec@mzSlovenija,"Hearing a lot about ARK, better have your body ready! #eth #lisk #bitcoin #altcoin #etc #arkio $ARK https://wn.nr/VcKYM5",0,0,0,False
308,Игорь Тельман@telmanig1,"Hearing a lot about ARK, better have your body ready! #eth #lisk #bitcoin #altcoin #etc #arkio $ARK https://wn.nr/DmwcnU",0,0,0,False
311,Blockgeeks@Blockgks,What is #Blockchain Technology? Guide For Beginners http://dld.bz/eW5DU #ethereum,2,0,0,False
312,Coinstats@coinstats,"Ethereum Classic - ETC
Price: $0.98447
Change in 1h: +1.1%
Market cap: $84236382.0
Ranking: 5
#Ethereum Classic #ETC",0,0,0,False
313,Coinstats@coinstats,"Ethereum - ETH
Price: $10.9738
Change in 1h: +-0.11%
Market cap: $940036564.0
Ranking: 2
#Ethereum #ETH",0,0,0,False
314,BitcoinBuzz vega9@BitcoinBuzzV9,http://bitcoinbuzz.vega9.com - Hot topics: #bitcoin #blockchain #crypto #cryptocurrency #btc #ethereum,1,0,0,False
315,John Galt@_J0hnGalt_,"Hearing a lot about ARK, better have your body ready! #eth #lisk #bitcoin #altcoin #etc #arkio $ARK https://wn.nr/h8g5Mb",1,1,0,False
316,Skeletor@skeletor_btc,$ETH 12 bugs and 3 forks timeline a bubble marker? http://cointimes.tech/2016/11/ethereumbubblecrash/…,0,0,0,False
317,newico@hanter_wings,"Hearing a lot about ARK, better have your body ready! #eth #lisk #bitcoin #altcoin #etc #arkio $ARK https://wn.nr/KRGFcJ",0,0,0,False
318,Crypdex@CrypdexLLC,converted 11.90 mBTC $8.35 USD to ETC #Ethereum,1,0,0,False
320,Meow meow trader@TraderMeow,"Hearing a lot about ARK, better have your body ready! #eth #lisk #bitcoin #altcoin #etc #arkio $ARK https://wn.nr/Uk5pNJ",0,0,0,False
321,Anish Mohammed@anishmohammed,"Looking for a Bitcoin Alternative? Here are 6 Coins to Consider < good to see #ethereum and #ripple on the listWhat are Altcoins? (Best Bitcoin Alternatives) - Top Cryptocurrencies 2021Bitcoin alternatives are known as altcoins, or alts for short. Here are my top 5 picks for the best cryptocurrencies for 2021.99bitcoins.com",1,1,0,False
322,Ларион Клименко@larikklimenko,"Hearing a lot about ARK, better have your body ready! #eth #lisk #bitcoin #altcoin #etc #arkio $ARK https://wn.nr/3bkgqZ",0,0,0,False
324,Ξ Fly Guy Ξ (flyguy.eth)@FlyGuyInTheSky,Interesting but at $530 I still won't be buying $zec #Zcash - does this mean if #ethereum integrated  Zcash type privacy $eth goes to >$500? https://twitter.com/altcoin_news/status/793366394146394112…This Tweet is unavailable.,1,1,1,False
325,Faith Emmanuel@residualbitcoin,#ethereum 12 bugs and 3 forks timeline a bubble marker? $eth http://cointimes.tech/2016/11/ethereumbubblecrash…  #ResidualBitcoin,0,0,0,False
326,Veki@Veki551155,#ethereum 12 bugs and 3 forks timeline a bubble marker? $eth http://cointimes.tech/2016/11/ethereumbubblecrash…,0,0,0,False
327,john gerald@johngeraldas,"Hearing a lot about ARK, better have your body ready! #eth #lisk #bitcoin #altcoin #etc #arkio $ARK https://wn.nr/xRUW69",0,0,0,False
328,Aga Kharta Dinata@aga_dinata,DECENT #Crowdsale Nears The Finishing Line - http://ln.is/DPHyd #ico #blockchain #cryptocurrency #eth... by #rifurri via @c0nvey,0,0,0,False
329,BitcoinAgile@bitcoinagile,#ethereum 12 bugs and 3 forks timeline a bubble marker? $eth http://cointimes.tech/2016/11/ethereumbubblecrash…,1,1,0,False
331,Timo Ξberhard@ZhuBajie72,"Don´t hate #Ethereum for #Bitcoin´s failure. It was your own ""community"" gone fullblown #Kamikaze mode. So please! Stop crying already or...",1,0,0,False
332,indxio@indxio,#Russia Market Close || #Bitcoin: $705.01 | 639.69 EUR||  #Litecoin: 0.0028 BTC  || #Ethereum: 0.0157 BTC   || $BTC $LTC $ETH $RUB,1,0,0,False
334,CST - PoS Coin Staking@ProgrediMan,"Hearing a lot about ARK, better have your body ready! #eth #lisk #bitcoin #altcoin #etc #arkio $ARK https://wn.nr/fjC7gP",0,0,0,False
335,Hayalperest@sezyumx,"@ArkEcosystem is awesome, the future is NOW! #bitcoin #lisk #altcoin #eth #etc https://wn.nr/LKps4n",1,0,0,False
336,Hayalperest@sezyumx,"Hearing a lot about ARK, better have your body ready! #eth #lisk #bitcoin #altcoin #etc #arkio $ARK https://wn.nr/LKps4n",0,0,0,False
337,Brave New Coin@bravenewcoin,#Ethereum Price: USD $11.0 #ETH http://ow.ly/6UKf3048WBe,1,0,0,False
338,Karlsson@Karlsson_Roof,"Hearing a lot about ARK, better have your body ready! #eth #lisk #bitcoin... http://ln.is/eXgrW by #PapillonV5 via @c0nvey",0,0,0,False
339,PapillonV@PapillonV5,"Hearing a lot about ARK, better have your body ready! #eth #lisk #bitcoin #altcoin #etc #arkio $ARK https://wn.nr/65ChLZ",0,0,0,False
340,Coinstats@coinstats,"Ethereum Classic - ETC
Price: $0.973928
Change in 1h: +0.0%
Market cap: $83333038.0
Ranking: 5
#Ethereum Classic #ETC",0,0,0,False
341,Coinstats@coinstats,"Ethereum - ETH
Price: $10.9643
Change in 1h: +0.39%
Market cap: $939204906.0
Ranking: 2
#Ethereum #ETH",0,0,0,False
342,Ethereum Price@EthereumPrice_,"#Ethereum: Ether Price Index
1 ETH =0.015606Ƀ XBT = $11.058780 USD
Today: -1.24%⬇︎ Last 24h: +0.23%⬆︎
https://ethereum-price.com",1,0,0,False
343,Olivier Chapiteau@o_chapiteau,"05Nov2016 12:00 UTC #Ether #Blockchain status - Block height @ 2,570,583 - 50,157 unconfirmed tr. - Last fork height @ 2,570,559",1,0,0,False
344,Olivier Chapiteau@o_chapiteau,05Nov2016 12:00 UTC #Ethereum live spots - #Ether @ 11.05756 $ - #EtherClassic @ 0.98035 $,0,0,0,False
345,Eugene Zavarzin@ADZ4BIZ,Will #Adzcoin Skyrocket http://bit.ly/2fNR9ln Like #Ethereum?,0,0,0,False
346,Виталик Калашников@dred116,"Hearing a lot about ARK, better have your body ready! #eth #lisk #bitcoin #altcoin #etc #arkio $ARK https://wn.nr/7xnytS",0,0,0,False
347,Ethereum SE@StackEthereum,Use modifier function to create heirachy of smart contracts http://ethereum.stackexchange.com/questions/9834/use-modifier-function-to-create-heirachy-of-smart-contracts… #ethereum #goethereum #solidity #web3js #nodejs,1,3,0,False
356,Timo Ξberhard@ZhuBajie72,"Trying to stop the ongoing paradigm shift in #CryptoWorld is pointless. You´ll #FAIL miserably & embarrass yourself.

#Ethereum #NewParadigm",1,1,0,False
358,George Ivanov@jimiendany,"@ArkEcosystem is awesome, the future is NOW! #bitcoin #lisk #altcoin #eth #etc https://wn.nr/RpShLD",1,0,0,False
359,nxtZen@NTeR006,"@ArkEcosystem is awesome, the future is NOW! #bitcoin #lisk #altcoin #eth #etc",1,0,0,False
360,George Ivanov@jimiendany,"Hearing a lot about ARK, better have your body ready! #eth #lisk #bitcoin #altcoin #etc #arkio $ARK https://wn.nr/RpShLD",0,0,0,False
361,nxtZen@NTeR006,"Hearing a lot about ARK, better have your body ready! #eth #lisk #bitcoin #altcoin #etc #arkio $ARK https://wn.nr/p8GQYs",0,0,0,False
362,Dr Cryptos@DrCryptos,"Hearing a lot about ARK, better have your body ready! #eth #lisk #bitcoin #altcoin #etc #arkio $ARK https://wn.nr/3bQcsU",0,0,0,False
363,Veki@Veki551155,China #bitcoin Restriction / #ethereum Fork in Two Weeks / Brexit Slowdown = Market Gains - …,1,0,0,False
364,Ethereum SE@StackEthereum,Is it possible to decrease RAM usage of go-ethereum(geth)? http://ethereum.stackexchange.com/questions/9833/is-it-possible-to-decrease-ram-usage-of-go-ethereumgeth… #ethereum #goethereum #memory,1,1,0,False
366,Faith Emmanuel@residualbitcoin,China #bitcoin Restriction / #ethereum Fork in Two Weeks / Brexit Slowdown = Market Gains - http://bit.ly/2f43oJz …,1,1,0,False
367,BitcoinAgile@bitcoinagile,China #bitcoin Restriction / #ethereum Fork in Two Weeks / Brexit Slowdown = Market Gains - http://bit.ly/2f43oJz,2,2,0,False
368,CryptoMan@cryptonatorr,"Hearing a lot about ARK, better have your body ready! #eth #lisk #bitcoin #altcoin #etc #arkio $ARK https://wn.nr/9MVPQg",0,0,0,False
369,Yu@Yu_Daserod,"Hearing a lot about ARK, better have your body ready! #eth #lisk #bitcoin #altcoin #etc #arkio $ARK https://wn.nr/tyJUrD",0,0,0,False
378,cointrader@cointrader7,"Hearing a lot about ARK, better have your body ready! #eth #lisk #bitcoin #altcoin #etc #arkio $ARK https://wn.nr/P3rkzB",0,0,0,False
379,Sofia@sofia_ellen18,"Hearing a lot about ARK, better have your body ready! #eth #lisk #bitcoin #altcoin #etc #arkio $ARK https://wn.nr/h8ptzd",0,0,0,False
380,Tara Maria@tm_3076,"Hearing a lot about ARK, better have your body ready! #eth #lisk #bitcoin #altcoin #etc #arkio $ARK https://wn.nr/KRd5WT",0,0,0,False
381,Coinstats@coinstats,"Ethereum Classic - ETC
Price: $0.974009
Change in 1h: +0.21%
Market cap: $83339067.0
Ranking: 5
#Ethereum Classic #ETC",0,0,0,False
382,Coinstats@coinstats,"Ethereum - ETH
Price: $10.9296
Change in 1h: +-0.68%
Market cap: $936223597.0
Ranking: 2
#Ethereum #ETH",0,0,0,False
383,Garfield Capital@GarfieldCap,"Hearing a lot about ARK, better have your body ready! #eth #lisk #bitcoin #altcoin #etc #arkio $ARK https://wn.nr/bYwG3d",0,0,0,False
384,bawga [LSK]@baw9a,"Hearing a lot about ARK, better have your body ready! #eth #lisk #bitcoin #altcoin #etc #arkio $ARK https://wn.nr/WSYvF8",0,0,0,False
385,Dima Zverev@Dima_zverev85,"Hearing a lot about ARK, better have your body ready! #eth #lisk #bitcoin #altcoin #etc #arkio $ARK https://wn.nr/EkEFhE",0,0,0,False
386,Andres@kissedbyfortune,"Hearing a lot about ARK, better have your body ready! #eth #lisk #bitcoin #altcoin #etc #arkio $ARK https://wn.nr/wyz7dp",0,0,0,False
387,Timo Ξberhard@ZhuBajie72,Check out #Devcon2 to see how #Crypto is done right in a #healthy & #cooperative community environment... #Ethereum! https://youtube.com/channel/UCNOfzGXD_C9YMYmnefmPH0g/videos…,1,0,0,False
389,Avarice@5_Avarice,"Hearing a lot about ARK, better have your body ready! #eth #lisk #bitcoin #altcoin #etc #arkio $ARK http://ln.is/gleam.io/W3AB7/RsAcZ…",0,0,0,False
390,Gaetano Manfredi@gamanfredi,Mining BITCOIN / ZCASH and ALTcoins https://eobot.com/new.aspx?referid=473487… #btcc #bitcoin #ethereum #Litecoin #CloudMining #zcash,1,1,0,False
391,Crypto World@CryptoWorld92,"Hearing a lot about ARK, better have your body ready! #eth #lisk #bitcoin #altcoin #etc #arkio $ARK https://wn.nr/wyMFqF",0,0,0,False
392,Дмитрий Марков@D_Markovv,"Hearing a lot about ARK, better have your body ready! #eth #lisk #bitcoin #altcoin #etc #arkio $ARK https://wn.nr/UkPqwx",0,0,0,False
393,Karlsson@Karlsson_Roof,"Hearing a lot about ARK, better have your body ready! #eth #lisk #bitcoin #altcoin #etc #arkio $ARK https://wn.nr/2nGpxM",0,0,0,False
396,Olesya@N_Pashunina,"Hearing a lot about ARK, better have your body ready! #eth #lisk #bitcoin #altcoin #etc #arkio $ARK https://wn.nr/BNqL4p",0,0,0,False
401,Dejan Lesičar@dejanlesi,"Hearing a lot about ARK, better have your body ready! #eth #lisk #bitcoin #altcoin #etc #arkio $ARK https://wn.nr/X2pgvG",0,0,0,False
402,s0nix@s0nix0,Crypto 2016 @ArkEcosystem - Get your Bonus! #bitcoin #lisk #altcoin #eth #etc https://wn.nr/GSDXpY,1,0,0,False
403,s0nix@s0nix0,"Hearing a lot about ARK, better have your body ready! #eth #lisk #bitcoin #altcoin #etc #arkio $ARK https://wn.nr/GSDXpY",0,0,0,False
404,Veki@Veki551155,What is #ethereum? A Step-by-Step Beginners Guide [Ultimate Guide] #blockchain http://linkplugapp.com/V65WW,1,0,0,False
405,Inessa Mariyushkina@Mariyushkina_I,"Hearing a lot about ARK, better have your body ready! #eth #lisk #bitcoin #altcoin #etc #arkio $ARK https://wn.nr/9MTjTM",0,0,0,False
406,Faith Emmanuel@residualbitcoin,What is #ethereum? A Step-by-Step Beginners Guide [Ultimate Guide] #blockchain http://linkplugapp.com/V65WW  #ResidualB…,1,0,0,False
407,BitcoinAgile@bitcoinagile,What is #ethereum? A Step-by-Step Beginners Guide [Ultimate Guide] #blockchain http://linkplugapp.com/V65WW,2,3,0,False
409,Trial@Trial1551,"Hearing a lot about ARK, better have your body ready! #eth #lisk #bitcoin #altcoin #etc #arkio $ARK https://wn.nr/bYNXGg",0,0,0,False
410,Andy Lowley@LowleyAndy,"Hearing a lot about ARK, better have your body ready! #eth #lisk #bitcoin #altcoin #etc #arkio $ARK https://wn.nr/MYxzK7",0,0,0,False
411,Altman@altmantrader,"Hearing a lot about ARK, better have your body ready! #eth #lisk #bitcoin #altcoin #etc #arkio $ARK https://wn.nr/7xQHwY",0,0,0,False
412,Mansu Musa de Rothschild@Bitcoin_Playboy,"Hearing a lot about ARK, better have your body ready! #eth #lisk #bitcoin #altcoin #etc #arkio $ARK https://wn.nr/N9ESb5",0,0,0,False
415,Stan@Stan_Tkachenko,"Hearing a lot about ARK, better have your body ready! #eth #lisk #bitcoin #altcoin #etc #arkio $ARK https://wn.nr/X2pE9v",0,0,0,False
416,Blockgeeks@Blockgks,Can someone explain to me what is Ethereum in laymen's term? http://dld.bz/eWbfN #ethereum #blockchain,0,0,0,False
420,L3gionario@L3gionario1,"follow!! https://wn.nr/9Mzhsn @ArkEcosystem is awesome, the future is NOW! #bitcoin #lisk #altcoin #eth #etc",1,0,0,False
421,Coinstats@coinstats,"Ethereum Classic - ETC
Price: $0.975741
Change in 1h: +-0.03%
Market cap: $83485351.0
Ranking: 5
#Ethereum Classic #ETC",0,0,0,False
422,Bobe'bot@Bobe_bot,"1 #BTC = 696.754 #CHF
1 #ETH = 11.1852 #CHF
1 #DOGE = 0.000210987242 #CHF
sources: @cryptonatorcom @hellobity",0,0,0,False
423,Coinstats@coinstats,"Ethereum - ETH
Price: $10.9695
Change in 1h: +-0.37%
Market cap: $939626532.0
Ranking: 2
#Ethereum #ETH",0,0,0,False
424,L3gionario@L3gionario1,"Hearing a lot about ARK, better have your body ready! #eth #lisk #bitcoin #altcoin #etc #arkio $ARK https://wn.nr/9Mzhsn",0,0,0,False
425,weezenhofnar@weezenhofnar,"Hearing a lot about ARK, better have your body ready! #eth #lisk #bitcoin #altcoin #etc #arkio $ARK https://wn.nr/QgDY7z",0,0,0,False
426,Edward Willand@BRDEDDY,"@ArkEcosystem is awesome, the future is NOW! #bitcoin #lisk #altcoin #eth #etc https://wn.nr/vj33zb",1,0,0,False
427,Edward Willand@BRDEDDY,"Hearing a lot about ARK, better have your body ready! #eth #lisk #bitcoin #altcoin #etc #arkio $ARK https://wn.nr/vj33zb",0,0,0,False
428,bitcoin@bitcoin_,"@ArkEcosystem is awesome, the future is NOW! #bitcoin #lisk #altcoin #eth #etc https://wn.nr/Ek6D9B",1,0,0,False
429,bitcoin@bitcoin_,"Hearing a lot about ARK, better have your body ready! #eth #lisk #bitcoin #altcoin #etc #arkio $ARK https://wn.nr/Ek6D9B",0,0,0,False
431,BulletProof@BulletP27013337,"Hearing a lot about ARK, better have your body ready! #eth #lisk #bitcoin #altcoin #etc #arkio $ARK https://wn.nr/LKpC9n",0,0,0,False
432,Bitmarck@MARch1ll,"Hearing a lot about ARK, better have your body ready! #eth #lisk #bitcoin #altcoin #etc #arkio $ARK https://wn.nr/fjGCDg",0,0,0,False
433,⛧ God of Gaming ⛧@TheGodofGamez,Gratitude is the fairest blossom which springs from the soul. $ETH,1,0,0,False
440,IeSua@ie_sua,"Hearing a lot about ARK, better have your body ready! #eth #lisk #bitcoin #altcoin #etc #arkio $ARK https://wn.nr/KRPAcv",0,0,0,False
441,ExploreTraveler@exploretravel1,RT @SamR1: #Ethereum Energy Startup Awarded #Blockchain Patent http://lnkplg.co/zenXl via @CoinDesk,1,0,0,False
442,Marry Bitcoin@MarryByte,"Hearing a lot about ARK, better have your body ready! #eth #lisk #bitcoin #altcoin #etc #arkio $ARK https://wn.nr/jmqCr6",0,0,0,False
443,Andrew@AndrewDuakyn,"Hearing a lot about ARK, better have your body ready! #eth #lisk #bitcoin #altcoin #etc #arkio $ARK https://wn.nr/yfxcHD",0,0,0,False
445,Aleksandr Neverov@_darkdog,"Hearing a lot about ARK, better have your body ready! #eth #lisk #bitcoin #altcoin #etc #arkio $ARK https://wn.nr/h8SwWk",0,0,0,False
446,Block303@block_303,"Hearing a lot about ARK, better have your body ready! #eth #lisk #bitcoin #altcoin #etc #arkio $ARK https://wn.nr/g8VmFj",0,0,0,False
447,Кирилл@KyrReall,"Hearing a lot about ARK, better have your body ready! #eth #lisk #bitcoin #altcoin #etc #arkio $ARK https://wn.nr/QgS5NZ",0,0,0,False
448,Bitcoin Warrior@betget1,"Hearing a lot about ARK, better have your body ready! #eth #lisk #bitcoin #altcoin #etc #arkio $ARK https://wn.nr/CUYGJV",0,0,0,False
449,ONL@onlonlonl,ZCash Mining – Nicehash nheqminer v. 0.3a – update &… http://dlvr.it/Mbff23 #Mining #ZCash #cpu #ethermine #flypool #ethereum #miningrig,1,2,0,False
451,Blockgeeks@Blockgks,What is #Ethereum? Everything you need to know  http://dld.bz/fcBTc #blockchain,3,1,0,False
452,Coinstats@coinstats,"Ethereum Classic - ETC
Price: $0.977158
Change in 1h: +0.05%
Market cap: $83605159.0
Ranking: 5
#Ethereum Classic #ETC",0,0,0,False
453,Coinstats@coinstats,"Ethereum - ETH
Price: $11.0247
Change in 1h: +0.58%
Market cap: $944334660.0
Ranking: 2
#Ethereum #ETH",0,0,0,False
454,Ethereum Price@EthereumPrice_,"#Ethereum: Ether Price Index
1 ETH =0.015568Ƀ XBT = $11.070485 USD
Today: -1.48%⬇︎ Last 24h: -0.59%⬇︎
https://ethereum-price.com",1,0,0,False
455,BitcoinBuzz vega9@BitcoinBuzzV9,http://bitcoinbuzz.vega9.com - Hot topics: #bitcoin #blockchain #cryptocurrency #crypto #btc #eth,0,0,0,False
456,Ильдар Абдалов@ildarclickprime,"Hearing a lot about ARK, better have your body ready! #eth #lisk #bitcoin #altcoin #etc #arkio $ARK https://wn.nr/4b2ccH",0,0,0,False
457,5thAngel@LionTellSecrets,"@ArkEcosystem is awesome, the future is NOW! #bitcoin #lisk #altcoin #eth #etc https://wn.nr/wyjEZ7",1,0,0,False
458,Papajager0@Papajager0,"Hearing a lot about ARK, better have your body ready! #eth #lisk #bitcoin #altcoin #etc #arkio $ARK https://wn.nr/4b2nxg",0,0,0,False
459,coinfreak@puikonen,"@ArkEcosystem is awesome, the future is NOW! #bitcoin #lisk #altcoin #eth #etc https://wn.nr/2n688X",0,0,0,False
465,coinfreak@puikonen,"Hearing a lot about ARK, better have your body ready! #eth #lisk #bitcoin #altcoin #etc #arkio $ARK https://wn.nr/2n688X",0,0,0,False
466,m0rte@m0rte17,"@ArkEcosystem is awesome, the future is NOW! #bitcoin #lisk #altcoin #eth #etc https://wn.nr/UkRwyx",0,0,0,False
467,m0rte@m0rte17,"Hearing a lot about ARK, better have your body ready! #eth #lisk #bitcoin #altcoin #etc #arkio $ARK https://wn.nr/UkRwyx",0,0,0,False
468,Антон Орлов@aqrisaqris,"Hearing a lot about ARK, better have your body ready! #eth #lisk #bitcoin #altcoin #etc #arkio $ARK https://wn.nr/CUYkWd",0,0,0,False
469,asdfasdf@asdfasd17958279,"Hearing a lot about ARK, better have your body ready! #eth #lisk #bitcoin #altcoin #etc #arkio $ARK https://wn.nr/GS4Sk6",0,0,0,False
470,Johnny Mnemonic@J0hnnyMnemonic,"Hearing a lot about ARK, better have your body ready! #eth #lisk #bitcoin #altcoin #etc #arkio $ARK https://wn.nr/xRUYL9",0,0,0,False
471,Moonny Dog@moonny_dog,"Hearing a lot about ARK, better have your body ready! #eth #lisk #bitcoin #altcoin #etc #arkio $ARK https://wn.nr/GSDt5U",0,0,0,False
472,sande🅡@sandbtc,http://SEC.gov | SEC and Fintech https://sec.gov/spotlight/fintech… #SEC #Bitcoin #Blockchain #Ethereum,2,1,0,False
474,Edwin Vliet@SolarBTC,shorting $eth #ethereum,1,3,1,False
477,Brave New Coin@bravenewcoin,API’s to Power your #DigitalAsset Apps #bitcoin #ethereum #blockchain http://ow.ly/3yoP305Q1oR,1,0,0,False
479,Сергей@NESSION2,"Hearing a lot about ARK, better have your body ready! #eth #lisk #bitcoin #altcoin #etc #arkio $ARK https://wn.nr/kWkzhY",0,0,0,False
480,BitcoinMan@eugeneym,"Hearing a lot about ARK, better have your body ready! #eth #lisk #bitcoin #altcoin #etc #arkio $ARK https://wn.nr/rqgJFF",0,0,0,False
481,Oleg Fomin@oleg_invest1,"Hearing a lot about ARK, better have your body ready! #eth #lisk #bitcoin #altcoin #etc #arkio $ARK https://wn.nr/wyjk5G",0,0,0,False
483,Brave New Coin@bravenewcoin,#Ethereum Price: USD $10.96 #ETH http://ow.ly/6UKf3048WBe,2,0,0,False
484,Blockgeeks@Blockgks,What is #Ethereum? A Step-by-Step Beginners Guide  http://dld.bz/fcBTc #blockchain,2,0,0,False
485,Coinstats@coinstats,"Ethereum Classic - ETC
Price: $0.975602
Change in 1h: +0.05%
Market cap: $83470997.0
Ranking: 5
#Ethereum Classic #ETC",0,0,0,False
486,Coinstats@coinstats,"Ethereum - ETH
Price: $10.9484
Change in 1h: +-0.21%
Market cap: $937789630.0
Ranking: 2
#Ethereum #ETH",0,0,0,False
487,BitcoinBuzz vega9@BitcoinBuzzV9,http://bitcoinbuzz.vega9.com - Hot topics: #bitcoin #blockchain #cryptocurrency #btc #crypto #eth,0,0,0,False
493,Bitcoin_fun@btc_kazakhstan,"@ArkEcosystem is awesome, the future is NOW! #bitcoin #lisk #altcoin #eth #etc https://wn.nr/KRPTGv",0,0,0,False
494,Bitcoin_fun@btc_kazakhstan,"@ArkEcosystem is awesome, the future is NOW! #bitcoin #lisk #altcoin #eth #etc https://gleam.io/W3AB7-qPFTb6",0,0,0,False
495,Music of the Gods@Music_OfTheGods,"Now playing on Music of the Gods (.com)  :  Kliment - "" Ether Aesthetics""

http://musicofthegods.com
#Kliment #Ether AestheticsMusicofthegods.commusicofthegods.com",0,0,0,False
496,Bitcoin_fun@btc_kazakhstan,"Hearing a lot about ARK, better have your body ready! #eth #lisk #bitcoin #altcoin #etc #arkio $ARK https://wn.nr/KRPTGv",1,0,0,False
497,Nira_Crypto@Nira_crypto,"Hearing a lot about ARK, better have your body ready! #eth #lisk #bitcoin #altcoin #etc #arkio $ARK https://wn.nr/jmhG5w",0,0,0,False
498,iolardemartini.eth@iolardemartini,"@ArkEcosystem is awesome, the future is NOW! #bitcoin #lisk #altcoin #eth #etc https://wn.nr/P3rTs8",0,0,0,False
499,iolardemartini.eth@iolardemartini,"Hearing a lot about ARK, better have your body ready! #eth #lisk #bitcoin #altcoin #etc #arkio $ARK https://wn.nr/P3rTs8",0,0,0,False
500,sokololia@sokololia,"Hearing a lot about ARK, better have your body ready! #eth #lisk #bitcoin #altcoin #etc #arkio $ARK https://wn.nr/9MmdSj",0,0,0,False
501,ToRiKaN@ToRiKaN,"Hearing a lot about ARK, better have your body ready! #eth #lisk #bitcoin #altcoin #etc #arkio $ARK https://wn.nr/GSCgHb",0,0,0,False
502,WowWowCoin@myluckbitcoin,"Hearing a lot about ARK, better have your body ready! #eth #lisk #bitcoin #altcoin #etc #arkio $ARK https://wn.nr/bYNLFY",0,0,0,False
503,Galix@galixxx,"Hearing a lot about ARK, better have your body ready! #eth #lisk #bitcoin #altcoin #etc #arkio $ARK https://wn.nr/vjRAAG",0,0,0,False
504,raydrol@raydrol,"@ArkEcosystem is awesome, the future is NOW! #bitcoin #lisk #altcoin #eth #etc https://wn.nr/kWSCwc.",0,0,0,False
505,raydrol@raydrol,"Hearing a lot about ARK, better have your body ready! #eth #lisk #bitcoin #altcoin #etc #arkio $ARK https://wn.nr/kWSCwc",0,0,0,False
506,Sam@SamR1,#Ethereum Energy Startup Awarded #Blockchain Patent http://bit.ly/2exj9Fr via @CoinDesk,0,0,0,False
507,Dragonly@jamalaezaz,"@ArkEcosystem is awesome, the future is NOW! #bitcoin #lisk #altcoin #eth #etc",0,0,0,False
508,len@xtreme_prot,"Hearing a lot about ARK, better have your body ready! #eth #lisk #bitcoin #altcoin #etc #arkio $ARK https://wn.nr/Y75BmF",0,0,0,False
509,Crypto_Krill@Crypto_Krill,"Bet with $btc on the USA election. Trump currently x 3 if he wins! #trump #Hillary #bitcoin $etc $eth $xmr
https://bitbet.us/bet/1330/new-trump-wins-/…GIF",0,0,0,False
510,Dragonly@jamalaezaz,"Hearing a lot about ARK, better have your body ready! #eth #lisk #bitcoin #altcoin #etc #arkio $ARK https://wn.nr/TkSTNc",0,0,0,False
511,Hop Hey@udvoim,"The #Ethereum-based #blockchain casino @vDice_io starts its first Initial Coin Offering on 15 November.
https://goo.gl/JTuRIR",1,0,0,False
523,Cryptociraptor@cryptociraptor,“How to Raise Money on a Blockchain with a Token” by @FEhrsam https://blog.gdax.com/how-to-raise-money-on-a-blockchain-with-a-token-510562c9cdfa#.p67olp898… #ethereum,1,0,0,False
525,indxio@indxio,#China Market Close || #Bitcoin: $703.95 | 634.55 EUR||  #Litecoin: 0.0028 BTC  || #Ethereum: 0.0156 BTC   || $BTC $LTC $ETH $RMB,1,1,0,False
527,jojomglobal@jojomglobal,"Hearing a lot about ARK, better have your body ready! #eth #lisk #bitcoin #altcoin #etc #arkio $ARK https://wn.nr/rqgszx",0,0,0,False
528,Anzor Zaurbekov@Anzorro_95,"Hearing a lot about ARK, better have your body ready! #eth #lisk #bitcoin #altcoin #etc #arkio $ARK https://wn.nr/TkVHWg",0,0,0,False
529,rick_raider's@rifurri,"@ArkEcosystem is awesome, the future is NOW! #bitcoin #lisk #altcoin #eth #etc https://wn.nr/4b9B9m",1,0,0,False
530,rick_raider's@rifurri,"Hearing a lot about ARK, better have your body ready! #eth #lisk #bitcoin #altcoin #etc #arkio $ARK http://ln.is/gleam.io/W3AB7/qK40s…",0,0,0,False
532,5thAngel@LionTellSecrets,"Hearing a lot about ARK, better have your body ready! #eth #lisk #bitcoin #altcoin #etc #arkio $ARK https://wn.nr/wyjEZ7",1,0,0,False
533,Coinstats@coinstats,"Ethereum Classic - ETC
Price: $0.975179
Change in 1h: +0.46%
Market cap: $83433524.0
Ranking: 5
#Ethereum Classic #ETC",0,0,0,False
534,Coinstats@coinstats,"Ethereum - ETH
Price: $10.9986
Change in 1h: +0.06%
Market cap: $942073805.0
Ranking: 2
#Ethereum #ETH",0,0,0,False
535,raydrol@raydrol,"@ArkEcosystem is awesome, the future is NOW! #bitcoin #lisk #altcoin #eth #etc https://wn.nr/kWSCwc",1,0,0,False
536,Brave New Coin@bravenewcoin,Digital Currency Tickers offering a globally indexed price in USD for the top 100+ major assets like BTC & #ETH. http://ow.ly/Jvxa305Q4CI,1,1,0,False
537,Daffa@Daffa_XZC,"Hearing a lot about ARK, better have your body ready! #eth #lisk #bitcoin #altcoin #etc #arkio $ARK https://wn.nr/4b9nyf",0,0,0,False
546,ImRobot@th3nolo,"@ArkEcosystem is awesome, the future is NOW! #bitcoin #lisk #altcoin #eth #etc https://wn.nr/RpE2n5",1,0,0,False
547,ImRobot@th3nolo,"Hearing a lot about ARK, better have your body ready! #eth #lisk #bitcoin #altcoin #etc #arkio $ARK https://wn.nr/RpE2n5",0,0,0,False
550,Avarice@5_Avarice,"@ArkEcosystem is awesome, the future is NOW! #bitcoin #lisk #altcoin #eth #etc https://wn.nr/WSKAy4",1,0,0,False
551,Coinstats@coinstats,"Ethereum Classic - ETC
Price: $0.969385
Change in 1h: +-0.29%
Market cap: $82936366.0
Ranking: 5
#Ethereum Classic #ETC",0,0,0,False
552,Coinstats@coinstats,"Ethereum - ETH
Price: $11.0011
Change in 1h: +0.26%
Market cap: $942273370.0
Ranking: 2
#Ethereum #ETH",0,0,0,False
553,Ethereum Price@EthereumPrice_,"#Ethereum: Ether Price Index
1 ETH =0.015703Ƀ XBT = $11.041280 USD
Today: -0.62%⬇︎ Last 24h: +0.74%⬆︎
https://ethereum-price.com",1,0,0,False
554,Olivier Chapiteau@o_chapiteau,"05Nov2016 06:00 UTC #Ether #Blockchain status - Block height @ 2,569,051 - 49,877 unconfirmed tr. - Last fork height @ 2,569,049",1,0,0,False
555,Olivier Chapiteau@o_chapiteau,05Nov2016 06:00 UTC #Ethereum live spots - #Ether @ 11.04989 $ - #EtherClassic @ 0.97765 $,0,0,0,False
557,BitCat@BitCatNews,"The World’s Blockchain Fleet is now on the Scuttlebutt Cryptochain #Ethereum #DAO #EntropyFleetQuote TweetΞntropy @EntropyBoat · Nov 5, 2016We’re live on the Secure Scuttlebutt crypto chain based p2p network, invite code here: http://project-entropy.com/pages/community #DAO #Ethereum #Scuttlebutt",0,0,0,False
558,Bitcoin Updater@BitcoinUpdater,Digital Catapult Tests Blockchain ‘Smart Contract’ #ethereum http://soco.space/UoFbpe,2,5,0,False
559,⛧ God of Gaming ⛧@TheGodofGamez,Act as if what you do makes a difference. It does. $ETH,1,1,0,False
561,Obinna J Anagwu@ObiAnagwu,"Just got my 1st #bitcoins on #Coinbase! Buy $100, Get $10 https://coinbase.com/join/vivante #coinarmy #coin #crypto #ethereum",0,0,0,False
562,Jameka@JA_Hazel,@Nas #Ether will never get old!,0,0,0,False
563,Faith Emmanuel@residualbitcoin,#ethereum Second Hard Fork Announced At Block 2642462 #EthereumFoundation #EthereumHardFork http://bit.ly/2faBadp …,1,0,0,False
564,Crypdex@CrypdexLLC,converted 13.05 mBTC $9.16 USD to ETH #Ethereum,2,0,0,False
565,Veki@Veki551155,#ethereum Second Hard Fork Announced At Block 2642462 #EthereumFoundation #EthereumHardFork …,0,0,0,False
566,BitcoinAgile@bitcoinagile,#ethereum Second Hard Fork Announced At Block 2642462 #EthereumFoundation #EthereumHardFork http://bit.ly/2faBadp,1,0,0,False
567,Faith Emmanuel@residualbitcoin,#ethereum Classic Price Technical Analysis – ETC Attempting Recovery - #bitcoin Wiki http://bit.ly/2faEw0b #ResidualBitcoin,0,0,0,False
568,Ξ Fly Guy Ξ (flyguy.eth)@FlyGuyInTheSky,hmmm $83m market cap for #ETC and $940 for $ETH #ETH his decision makes perfect sense... NOT.,0,0,0,False
570,Veki@Veki551155,#ethereum Classic Price Technical Analysis – ETC Attempting Recovery - #bitcoin Wiki http://bit.ly/2faEw0b,0,0,0,False
571,BitcoinAgile@bitcoinagile,#ethereum Classic Price Technical Analysis – ETC Attempting Recovery - #bitcoin Wiki http://bit.ly/2faEw0b,1,5,0,False
572,Coinstats@coinstats,"Ethereum Classic - ETC
Price: $0.971873
Change in 1h: +0.34%
Market cap: $83147407.0
Ranking: 5
#Ethereum Classic #ETC",0,0,0,False
573,Coinstats@coinstats,"Ethereum - ETH
Price: $10.9969
Change in 1h: +0.09%
Market cap: $941898981.0
Ranking: 2
#Ethereum #ETH",0,0,0,False
575,Ethereum SE@StackEthereum,How does spam prevention work in light clients? http://ethereum.stackexchange.com/questions/9831/how-does-spam-prevention-work-in-light-clients… #ethereum #lightclients,3,0,0,False
576,TAINA@TainaMarket,"GET FREE #DOGE
Win dogecoin every 60 minutes
http://goo.gl/hE5Bk6
#doge #dogecoin
#Ethereum
#bitcoin #litecoin #gold #Amazon",1,0,0,False
577,USBitcoinServicesCom@USBitcoinServcs,"@ArkEcosystem is awesome, the future is NOW! #bitcoin #lisk #altcoin #eth #etc https://wn.nr/DmEyS5",1,0,0,False
578,Desperate Crypto Housetraders@LiIwhale,"Hearing a lot about ARK, better have your body ready! #eth #lisk #bitcoin #altcoin #etc #arkio $ARK https://wn.nr/rqgS2M",0,0,0,False
579,Crypdex@CrypdexLLC,converted 60.67 mBTC $42.55 USD to ETH #Ethereum,1,0,0,False
580,Brave New Coin@bravenewcoin,#Ethereum Price: USD $10.98 #ETH http://ow.ly/6UKf3048WBe,2,0,0,False
581,Blockgeeks@Blockgks,Welcome to Fortune's 2016 40 Under 40 http://dld.bz/eWbaX #ethereum #blockchain #business,1,1,0,False
582,Coinstats@coinstats,"Ethereum Classic - ETC
Price: $0.968722
Change in 1h: +0.06%
Market cap: $82876443.0
Ranking: 5
#Ethereum Classic #ETC",0,0,0,False
