,user,text,likes,retweets,replies,is_thread
0,Wes Johnson@WesdaRuler,Straight #ether.  Lord forgive us...#my_athens #trap #maschine #korg #nativeinstruments #ableton https://instagram.com/p/BATAHyzElfi/,5,0,0,False
1,Ethereum Canada@EthereumCanada,Shanghai #hackathon starts today! #Ethereum experts to provide tech support @CampEther http://ow.ly/WOts9,3,2,0,False
2,Digiconomist@DigiEconomist,Replying to @DigiEconomist@RedditBTC Counterparty already recreated the smart contracts on #Bitcoin. Businesses don't seem to care and focus on #Ethereum instead.,0,0,0,False
3,Digiconomist@DigiEconomist,"Replying to @RedditBTC@RedditBTC Smart contracts are awesome, but sadly #Bitcoin's #blockchain is way too slow. #Ethereum has been optimized for it.",1,0,0,False
4,Stephan Tual@stephantual,"V. useful for devs - a) get a pi b) install snappy c) 1-click #Ethereum install. Focus on your dapp, not compilers.Quote Tweetslock.it@slockitproject · Jan 8, 2016Why we are building the Ethereum Framework for Ubuntu Core - by @LefterisJP https://blog.slock.it/why-we-are-building-the-ethereum-framework-for-ubuntu-core-41b53ba685da#.z7uq3dom7…",6,6,0,False
5,Not Being Governed@ArtofNBG,"DEVgrants Receives $100K For Ethereum Developers

Back in April of 2015, a new program was added to the #Ethereum … https://news.bitcoin.com/devgrants-receives-100k-for-ethereum-developers/…",1,0,0,False
6,Bitcoin Association@bitcoinassoc,"DEVgrants Receives $100K For Ethereum Developers

Back in April of 2015, a new program was added to the #Ethereum... http://fb.me/2J7LhwsAj",0,0,0,False
7,Lefteris Karapetsas | Hiring for @rotkiapp@LefterisJP,"At @slockitproject we are building an #ethereum framework for @ubuntu core.Why we are building the Ethereum Framework for Ubuntu CoreThanks to a very generous grant by the Ethereum Foundation, our team has started work on building an Ethereum Framework for Ubuntu Core.blog.slock.it",3,0,0,False
8,notsofast@notsofast,"@CodyNemeth if you don't have expensive electricity, it might be worth it. 280x is great for mining $ETH, a good bet for big future growth.",1,0,0,False
9,Christine Sukasih@Christine_S025,"#DEVgrants Receives $100K For #Ethereum Developers: Back in April of 2015, a new program was… http://goo.gl/fb/ouzzqV",0,0,0,False
10,ConsenSys@Consensys,#Nasdaq features @Azure Blockchain as a Service with @blockapps http://buff.ly/1OEHDLh #blockchain #ethereum #BaaSMicrosoft's Azure Blockchain As a Service Program Gains Momentumnasdaq.com,6,4,0,False
11,Vindyne8@Vindyne8,Major #SpreadCoin announcement released: http://bit.ly/1OSybWD $SPR $BTC $DASH $BTS $FCT $DOGE $ETH $XMR #RT,15,15,0,False
12,boxxa@boxxa,Where is the $ETH smart contract for the pool when El Chapo breaks out again?,0,0,0,False
13,zoogio@izoogio,#Daylyt Speaks On ... - #Ether #KingOfTheDot #PatStay #SeriusJones   Watch Video: https://wp.me/p60eNF-mqb,0,0,0,False
14,fav@btsfav,"“Providing successful builds of #Ethereum Clients for multiple, Linux based such as the Raspberry Pi.” - http://ln.is/ethembedded.com/lrp1Q…",1,0,0,False
15,Ethereum Canada@EthereumCanada,Microsoft and @ConsenSysLLC partnered to offer Ethereum #Blockchain as a Service. But why #Ethereum? http://ow.ly/WNCB0 #Azure #baas,2,0,0,False
16,F.U.C MEDIA@fucmedia,#Daylyt Speaks On Race In ... - http://fucmedia.com/daylyt-speaks-on-race-in-battle-rap-battlerapnews-battlerapinterviews-battlerap/… (#Ether #KingOfTheDot #PatStay #SeriusJones #UTK),0,0,0,False
17,Rich Williams@RichWilliams069,RT @GlobalArenaGAHC: #Ethereum Will Arrive (and 15 Other #Blockchain Predictions for 2016) http://ow.ly/WMwFw $GAHC #Investing,0,0,0,False
18,GlobalArenaHolding@GlobalArenaGAHC,#Ethereum Will Arrive (and 15 Other #Blockchain Predictions for 2016) http://ow.ly/WMwFw $GAHC #Investing,0,0,0,False
19,Bleutrade Cryptocurrency Exchange@bleutrade,1 ETH = 0.00229907 BTC at https://bleutrade.com/exchange/ETH/BTC… #ethereum #eth #bitcoin #btc #Bleutrade,1,0,0,False
20,Travis J Thayer@travisjthayer,Ethereum Foundation Internal Update #ethereum #blockchain https://blog.ethereum.org/2016/01/07/2394/…,1,0,0,False
21,KLmoney@KLmoney8,Brilliant http://ethernodes.org shows go-ethereum client (geth) dominates (84%) #Ethereum network globally. http://ethernodes.org/network/1/,2,0,0,False
22,David Liam@crazydaveorama,#Ethereum Price Technical Analysis for 08/01/2016 - Watch out for this Pullback! - NEWSBTC http://newsbtc.com/2016/01/08/ethereum-price-technical-analysis-for-08012016-watch-out-for-this-pullback/…,0,0,0,False
23,Bitcoin@bitcoinpoet,"Cant Find The /Keystore Subdirectory: Hi everyone. So in the effort of good sense and because I don'... http://bit.ly/1VQ0h49 #ethereumCant Find The /Keystore SubdirectoryHi everyone. So in the effort of good sense and because I don't want to assume anything, where is the hell is this mythical ""keystore""...reddit.com",1,0,0,False
24,Bitcoin@bitcoinpoet,Etherscan block explorer for testnet -> helping to monitor what the test deployments of your contrac... http://bit.ly/1Zf7dgM #ethereum,0,0,0,False
25,Victoria Adams@ToriinDC,#Blockchain Qu-Will contract “suicide” (as in #Ethereum) be sufficient to end outdated contracts?,1,0,0,False
26,fav@btsfav,How to Setup and Topup a #BitShares #Ethereum #NXT Debit Card in less than 10 Minutes ► http://favd.xyz/1Z9Hv83 ,0,0,0,False
27,Cargo@CryptoCargo,#NASDAQ discussing #Microsoft azure #blockchain platform based on #ethereum ooohhh.. Goosebumps...Microsoft's Azure Blockchain As a Service Program Gains Momentumnasdaq.com,4,3,0,False
29,RedDazzling@RedDazzling,VertiGo: The Wall-Racing Robot (Full Video) http://vertigoproject.ch https://youtube.com/watch?v=KRYT2kYbgo4… #ETH #DisneyResearch,0,0,0,False
30,Brave New Coin@bravenewcoin,"#Ethereum has been consolidating for some time around the $1 mark, & there continues to be hype around the project. http://ow.ly/WN8jP",1,2,0,False
31,Đaniel McClure@danielmcclure,"#Ethereum Foundation Internal Update - Ethereum BlogEthereum Foundation Internal UpdateNow that Ethereum has launched and is rapidly nearing its Homestead phase, over the last few months we at the Ethereum Foundation have finally had the chance to have some breathing room and plan our...blog.ethereum.org",0,0,0,False
32,Ethereum Canada@EthereumCanada,"Can law firms utilize #Ethereum and smart contracts? Yes, in more than just one way. Read it on #Reddit:In what ways could Law Firms utilise Ethereum and smart contracts?Posted in r/ethereum by u/rockerjjt • 13 points and 4 commentsreddit.com",0,0,0,False
33,Edmund Edgar@edmundedgar,"Bitcoin devs having trouble synchronizing an incrementing number. http://lists.linuxfoundation.org/pipermail/bitcoin-dev/2016-January/012197.html… Call @VitalikButerin, this is a job for #ethereum",8,8,1,False
34,Anil Sethi@anilsethi,How 3D print technology is improving #touchscreens http://wef.ch/1TJ8sxY via @wef #entrepreneurship #eth #visionary,0,0,0,False
35,Wouter Tebbens @wtebbens@social.coop@wtebbens,"“Can an Arcane Crypto Ledger Replace Uber, Spotify and AirBnB?” — @scottros https://medium.com/backchannel/can-an-arcane-crypto-ledger-replace-uber-spotify-and-airbnb-f8ce3846d84a#---0-61.z4p1acerv… #ethereum #DAO",1,0,0,False
36,Bart Dupon@bdu,2016 the year of #Ethereum? I think so! https://youtu.be/j23HnORQXvs via @ethereumproject,0,0,0,False
37,Roman B@romanix,#Ethereum Releases according to slide 75 in http://simonjanin.ch/downloads/Ethereum_for_Investors-Opportunities_and_Risks.pdf…,0,0,0,False
38,CryptoIndexes@CryptoIndexes,"High volume worst performers over the last 3 hours Dogecoin (-3.23%), Ether (0.7%), GlobalCurrencyReserve (0.73%) $DOGE $ETH $GCR",0,0,0,False
39,Hand Eddison@Hand_Ed,I just won free 0.00131200 ETHER from  http://etherfaucet.org #ether #satoshi #freeether #faucet via @etherfaucet,0,0,0,False
40,Bleutrade Cryptocurrency Exchange@bleutrade,1 ETH = 0.00190106 BTC at https://bleutrade.com/exchange/ETH/BTC… #ethereum #eth #bitcoin #btc #Bleutrade,2,0,0,False
41,BitMate@BitMate,#Ethereum Foundation Internal Update - Ethereum Blog https://blog.ethereum.org/2016/01/07/2394,0,0,0,False
42,CryptoIndexes@CryptoIndexes,"High volume best performers over the last 3 hours ClubCoin (3.51%), Startcoin (3.22%), Ether (1.71%) $CLUB $START $ETH",1,0,0,False
43,All4btc@all4btc,15 #Blockchain Predictions For 2016; Including The Arrival Of #Ethereum - CoinDesk http://buff.ly/1VMMgnQ,1,0,0,False
