,user,text,likes,retweets,replies,is_thread
0,Vik Navarincev@br0nevik,#emercoin #dash and #Ethereum clearly show how desperately crypto public starved for pump-and-dumps,1,0,0,False
1,Menno Pietersen@MennoPP,#Ethereum price going up #ETH #cryptocurrency #Crypto @krakenfx #BTC #Bitcoin https://btc-feed.com/bitcoin-news/ethereum-price-going-up/…,1,0,0,False
2,Altcoinspekulant@Altcoinspekulan,#Ethereum beats #Litecoin in Marketcap. Congrats what a move!!! #Altcoin #Cryptocurreny #Bitcoin #Vitalik,1,2,1,False
3,FailCommunity@FAILCommunity,"In our humble opinion, sell #Ethereum and place your buy #orders @ ~430- 450k #satoshi. #ETH #fintech",3,0,0,False
4,BlockchainLUX@blockchainLUX,#ether #ethereum up 35% in last 10 days!,0,0,0,False
5,Conrad Johnson@ConradJohnson,"In honor of today's market gains, wearing this shirt...to the library.  #ethereum",4,0,0,False
6,Provable@provablethings,Our #Ethereum Solidity API contracts are now both source-code verified on @etherchain_org !  https://etherchain.org/account/0x1d11e5eae3112dbd44f99266872ff1d07c77dce8#code…Account 0xf5ca7be6e969c5f29b7563348fa79e67a0baa9c2 - etherchain.org - 2021etherchain.org makes the Ethereum block chain accessible to non-technical end usersetherchain.org,9,8,0,False
7,Fabian Vogelsteller@feindura,#Ethereum just crossed #litecoin!,15,15,0,False
9,₿itcoin News Switzerland@bitcoinschweiz,"Can Cryptocurrency Really Help Unbanked Populations?
http://dcebrief.com/can-cryptocurrency-really-help-unbanked-populations/… #bitcoin #litecoin #ethereum #fintech #cryptocurrencies",7,3,1,False
10,Corvinux@Corvinux,"Why we need governments, i think we don't. We just need respect for golden rule. #FutureIsNow #blockchain #ethereum",1,1,0,False
11,multisigna@multisigna,#ETH is rising! Trade your #btc for #ethereum at http://multisigna.com anonymously & securely!,0,0,0,False
12,Crypto Inferno@CryptoInferno_,When will Augur's REP tokens go live for trading? https://augur.zendesk.com/hc/en-us/articles/205129442-When-will-Augur-s-REP-tokens-go-live-for-trading-What-about-exchanges-already-trading-them-like-Gatecoin-… #ethereum #Augur #bitcoin #startup #fintech #trading,3,0,0,False
13,Crypto Price Ticker@TickerCrypto,"Crypto-currency winners http://worldcoinindex.com/trending
$BTA $NRS $NOBL $ETH $HZ  (via #WorldCoinI…",1,1,0,False
14,BitcoiNapoleon@hodler_btc,#ethereum more 2 usd at once !,1,0,0,False
15,Ethereum UAE@Ethereum_UAE,Ethereum’s Market Cap Takes The Number Three Spot http://ift.tt/1S1CHD6 #Ethereum,0,0,0,False
16,FailCommunity@FAILCommunity,"There you go... https://twitter.com/FAILCommunity/status/689821104798445569… #Ethereum #ETH #fintechQuote TweetFailCommunity@FAILCommunity · Jan 20, 2016Bold prediction: #Ethereum @ $2 by the end of the week! https://twitter.com/FAILCommunity/status/688015912973242368… #ETH #cryptocurrency",7,0,0,False
17,j_nathan@YoakumJonathan,"Ethereum passes Litecoin market cap today.
Can't imagine jump when IOS/Android wallets surface.

#ethereum #bitcoin #KeiserReport",1,0,0,False
18,Erik Voorhees@ErikVoorhees,Ethereum has surpassed Litecoin in market cap. Up 20% today on heavy volume. http://CoinCap.io,40,33,4,False
19,multisigna@multisigna,@ErikVoorhees you can buy #eth with #bitcoins at http://multisigna.com anonymously!,1,0,0,False
20,Menno Pietersen@btc_feed,#Ethereum price going up #ETH #cryptocurrency #Crypto @krakenfx #BTC #Bitcoin https://btc-feed.com/bitcoin-news/ethereum-price-going-up/…,0,0,0,False
21,DMAFinTech@DMAFinTech,#Ethereum and R3 CEV  using a distributed ledger to 11 banks. http://ibtimes.co.uk/r3-connects-11-banks-distributed-ledger-using-ethereum-microsoft-azure-1539044… #blockchain #WellsFargo,2,0,0,False
22,Simon Boonen@SBoonen,#Ethereum market cap almost taking over #Litecoin after massive spike in past 24 hours http://coinmarketcap.com/currencies/views/all/…,0,0,0,False
23,Luke.hodl@Coinosphere,Anthony Di Iorio starts new role as Chief Digital Officer of the #TSX @diiorioanthony #bitcoin #blockchain #ethereum http://bravenewcoin.com/news/anthony-di-iorio-starts-new-role-as-chief-digital-officer-of-the-toronto-stock-exchange/…,5,2,1,False
24,Kimi Sian-Yu Chen@drawpie,"Finished my first crowd funding based on #Ethereum .
#blockchain is on the way !!!",3,1,0,False
25,Philsabang Bull Bull Bull@Philsabang,Polo ETH volume closing 11.000 BTC. Heating up more and starting become serious business. #eth,0,0,0,False
26,KLmoney@KLmoney8,#Ethereum’s ether (ETH) overtakes Litecoin in marketcap. Now gunning for Ripple and No. 2 spot.,0,0,0,False
27,Johan Nygren@resilience_me,Taxemes — voluntary wealth redistribution through natural selection https://medium.com/@resilience_me/taxemes-voluntary-wealth-redistribution-through-natural-selection-d1f586987c71#.tztfypmnm… #ethereum,0,0,0,False
28,Bitcoin@bitcoinpoet,Ethereum being traded on Chinese Exchanges yet?:  http://bit.ly/1WD1cFx #ethereum,1,1,0,False
29,Kimi Sian-Yu Chen@drawpie,"My first smart contract mined with my Ethereum private chain , haha 
#Ethereum #blockchain",3,2,1,False
30,Nate Geier @nategeier,Ether takes over Litecoin's #3 position in market cap http://coinmarketcap.com #Ethereum,1,2,0,False
31,Philsabang Bull Bull Bull@Philsabang,"Well the 400k level took a while to crack, but it happend. Also Litecoin is behind us now. Ripple next. #eth",1,0,0,False
32,Daniel@danieldk1,"@simondlr and #Ethereum mmmQuote TweetComputerphile@computer_phile · Jan 23, 2016I'm not sure about it because of sheer size of block chain (Sean) but @tomscott may feel differently  https://twitter.com/jcunniet/status/689121387567558656…",1,1,0,False
33,rufus666@fumanchu6666,wow dat $ETH pump,2,0,0,False
34,Cargo@CryptoCargo,Interested in how #ethereum 's #augurproject is progressing? You should be...This thread should keep you up to date.Beta Timelines / Estimates and Issues Remainingreddit.com,6,1,1,False
35,Sinz @Sinzfeldt,What a day for trading #Ethereum! Congrats to anyone else who managed to ride the trend,0,0,0,False
36,Beetcoin@Beetcoin,#ethereum is now the #2 crypto (2.0) and surpass an old first generation clone #litecoin.,2,2,0,False
37,Johan Nygren@resilience_me,"Added another FAQ question for the POI project, http://proofofindividuality.tk #ethereum",0,0,0,False
38,Chris Dunn@ChrisDunnTV,And boom goes the dynamite!! #ethereum,19,5,2,False
39,Chris Ellis@MrChrisEllis,"Still getting #Ethereum related spam on reddit, this could backfire quite badly.",6,5,0,False
40,Not Being Governed@ArtofNBG,"Ethereum’s Market Cap Takes The Number Three Spot

The turing complete token #Ethereum has been making strides tow… http://bitcoinist.net/ethereums-market-cap-takes-the-number-three-spot/…",1,0,0,False
41,Bleutrade Cryptocurrency Exchange@bleutrade,1 ETH = 0.00490010 BTC at https://bleutrade.com/exchange/ETH/BTC… #ethereum #eth #bitcoin #btc #Bleutrade,1,0,0,False
42,CryptoCompare@CryptoCompare,#ETH up by 30% in the last 24 hours on more than 14.000 #BTC volume! #Ethereum on fire or just a massive pump?,1,0,0,False
43,tgerring.eth@TaylorGerring,"PoW vs PoS is like Monopoly vs Settlers of Catan

#Bitcoin #Ethereum",8,2,0,False
44,CryptoCompare@CryptoCompare,#Ethereum second to #BTC in terms of mkt cap. https://cryptocompare.com/coins/#/btc. #DASH third in terms of volume.,1,0,0,False
45,Cargo@CryptoCargo,Looks like #ethereum 's market cap just took over #litecoin ... In terms of efficacy.. This should have happened a while ago :),3,1,0,False
46,Kenny Rowe@kennyrowe,What is Vunk? Why is it important? Great podcast by @ArthurFalls https://soundcloud.com/arthurfalls/the-ether-review-11-free-my… #Ethereum #freemyvunk #gamingThe Ether Review #11 - Free My Vunk!Free My Vunk is a movement to port game items and assets into the blockchain. The goal is to give control of these hard won in game rewards entirely to the players themselves. On the surface this seemsoundcloud.com,1,0,0,False
47,Sinz @Sinzfeldt,"Nice knowing ya #Litecoin, the #Ethereum train steams ahead!

http://coinmarketcap.com",0,0,0,False
48,Brave New Coin@bravenewcoin,#Ethereum Co-founder and CEO of Decentral; Anthony Di Iorio starts new role as CDO of the Toronto Stock #Exchange.Anthony Di Iorio starts new role as Chief Digital Officer of the Toronto Stock Exchange » Brave New...Ethereum co-founder Anthony Di Iorio brings visibility to bitcoin and the blockchain within Canadian finance markets as he starts his new position on the Toronto Stock Exchange as Chief Digital...bravenewcoin.com,2,1,0,False
49,Brave New Coin@bravenewcoin,#Ethereum ETH price now is USD $2.00 up 61.49% over 7 days http://ow.ly/XrxMo,3,6,0,False
50,Crypto Ace@CryptoAce,Sold my $ETH at about 100% profit. Probably going to go higher but I'm happy.,2,0,0,False
51,CRYPTOCOINTALK@cryptocointalk,#Ethereum’s Market Cap Takes The Number Three Spot http://bitcoinist.net/ethereums-market-cap-takes-the-number-three-spot/… #ETH #finance #blockchain,1,1,1,False
52,Brian Beamish@CRInvestor,"$ETH/BTC I luv the smell of Altcoin profits in the morning....like victory!!! https://coinigy.com/s/i/56a333d4/ via http://therationalinvestor.coBittrex ETH/BTC Chart - Published on Coinigy.com on January 23rd, 2016 at 8:03 AM.Bittrex ETH/BTC Chart - Indicators used: - Interval: D. Published on Coinigy.com on January 23rd, 2016 at 8:03 AM.coinigy.com",2,4,0,False
53,EM Jay@cocoQTe,RT @_SeanBoogie: #ether still https://twitter.com/liberienne/status/690989156017836034…This Tweet is unavailable.,1,0,0,False
54,Bitcoin@bitcoinpoet,Is a cold-locked minting/staking feature planned into the future development of Ethereum?:  http://bit.ly/1PoLVZr #ethereumIs a cold-locked minting/staking feature planned into the future...[See here](https://wiki.peercointalk.org/index.php?title=Sigmike_cold_storage_minting_proposal) for an explanation on how it works.reddit.com,1,1,0,False
55,Раб Божий@Diener_Gottes,#Ethereum’s Market Cap Takes The Number Three Spot: The turing complete token Ethereum has… http://goo.gl/fb/2C0e3H,0,0,0,False
56,Conrad Johnson@ConradJohnson,"Anthony Di Iorio starts new role as Chief Digital Officer of the Toronto Stock Exchange #ethereum
http://bravenewcoin.com/news/anthony-di-iorio-starts-new-role-as-chief-digital-officer-of-the-toronto-stock-exchange/…
@diiorioanthony",1,0,0,False
57,proussakis@proussakis,#Ethereum ETH price now is USD $2.00 up 61.49% over 7 days http://ow.ly/XrxR2,1,0,0,False
58,Bleutrade Cryptocurrency Exchange@bleutrade,1 ETH = 0.00435000 BTC at https://bleutrade.com/exchange/ETH/BTC… #ethereum #eth #bitcoin #btc #Bleutrade,1,0,0,False
59,John Cardiff Gerhardt@47Cardiff,"@BobSummerwill
Thank you. This helped me learn a lot about #Ethereum. This likely the most mainstream potential w/o trade necessities...",1,0,0,False
60,WARP@warpcoin,You'd be smart to take $ETH profits into $WARP :),1,0,0,False
61,⛧ God of Gaming ⛧@TheGodofGamez,#GAMECREDITS LIVE TICKER 1 $GMC = 0.00001864 $BTC = 0.01 $USD #gamedev #indiedev #gamer $ltc $eth $doge #12881,1,1,0,False
62,฿TF%$Brrrrrr!@CryptoHustle,"Another trading recap during the first #ethereum pump 08/14/15:Quote Tweet฿TF%$Brrrrrr!@CryptoHustle · Aug 14, 2015Looks like a potential head and shoulders pattern on $ETH",0,0,0,False
63,BitcoinAgile@bitcoinagile,"Volume Shifts, Gainers and Slackers, #Bitcoin #Ether http://bitcoinagile.com/53A584/volume-shifts-gainers-and-slackers-bitcoin-ether_stream…",0,0,0,False
64,Chris Ellis@MrChrisEllis,Replying to @kennyrowe@kennyrowe tricky balance between Public Relations and need for scheduled native advertising and speculators needing price action.,1,0,0,False
65,Kenny Rowe@kennyrowe,@MrChrisEllis agreed. In my personal opinion the Ether price is the least interesting thing about #Ethereum. Useful apps far more imporant,1,2,0,False
66,Frisb@pterion2910,#etherum $eth pump song ;) https://m.youtube.com/watch?v=DUyLI02DqLA…,1,0,0,False
67,฿TF%$Brrrrrr!@CryptoHustle,"Trading Recap for #ethereum 12/11/15:Quote Tweet฿TF%$Brrrrrr!@CryptoHustle · Dec 11, 2015$ETH had a 20% trading volume increase, if it stays above 0.0019 BTC then we may get another breakout.",3,1,0,False
68,Alunaut   @onemanatatime,"While everybody is busy looking at $ETH and $DASH, panic buy $XMR! @Poloniex",8,1,1,False
69,Funtrader@Noobgettinrich,"Sold my $ETH at 0.00489. Bought it at 0.00189.

Will buy again lower.",2,0,0,False
70,tradeX@cryptradexpert,"I said to my new girlfriend a couple of months ago, you see this coin? ($eth @ 0.56$) it's going to 3-4$.. still hodling",1,0,0,False
71,tradeX@cryptradexpert,@cryptradexpert 2$ $eth oh ya baby,1,1,0,False
72,crypt0biwan@crypt0biwan,Sold most of my $ETH to buy $XMR let's go :),1,1,0,False
73,Adam@CryptoDealer,"$ETH has broken 500k sats, next leg is on",1,0,0,False
74,druid andrew@andyypants,#ether is just like grind your teeth do I sell now? I can't get back in... but what if it crashes... DAMNIT. rather have nice churn :P,1,0,0,False
75,Ben King@Grimeandreason,"@andyypants I've sold my $eth down to lowest grade (percentage of portfolio wise) tier. Gotta have a decent retrace after this, no?",1,1,0,False
76,YOᗪI ᕼEᖇᗰᗩᗯᗩᑎ@YodiHermawan,#Ethereum’s Market Cap Takes The Number Three Spot: The turing complete token Ethereum… http://goo.gl/fb/qFztVW #vk,0,0,0,False
77,Ethereum Canada@EthereumCanada,"[WATCH] Panel: Banking with Smart Contracts #DEVCON1 #EthereumDEVCON1: Panel: Banking with Smart ContractsDEVCON1 2:15pm Day 5Lee Braine (Barclays), Ian Cusden (UBS), Rex Maudsley (Societe Generale), Andrew Keys and James Slazas (ConsenSys) discuss banking with S...youtube.com",0,0,0,False
78,crypt0biwan@crypt0biwan,$ETH looking strong.. If it passes 0.005 it could get crazy imo,1,0,0,False
79,Adam@CryptoDealer,Played that $eth dump well managed to sell at 500 before it dropped,1,0,0,False
80,TenaciousC@T3naciousC,"$ETH Sell 0.00491230... that was close, almost perfect at top! re-bought a part already, waiting on dip for more... Love $ETH moneymaker",2,0,0,False
81,Bitcoin Master@drei4u,$ETH gone parabolic and touching resistance printed last of August 2015. Likely you will short it ( ͡° ͜ʖ ͡°),2,1,0,False
97,AltcoinLive bot@AltcoinLiveBot,new $ETH buywall 10.2btc @ 0.00430760 http://altcoinlive.com/bittrex-eth-btc #altcoinlive,0,0,0,False
103,AltcoinLive bot@AltcoinLiveBot,removed $ETH buywall 11.6btc @ 0.00495941 http://altcoinlive.com/bittrex-eth-btc #altcoinlive,0,0,0,False
105,druid andrew@andyypants,#bitcrystals profits rival #ether but the limit to how much you can make is like 10 dollars a day lol,0,0,0,False
108,BitcoiNapoleon@hodler_btc,"#ETHEREUM compare with #LITECOIN in the end of 2013, history repeat ?",0,0,0,False
109,Cryptospark@Cryptosparks,#Ethereum ETH price now is USD $2.00 up 61.49% over 7 days http://ow.ly/XrxR0,0,0,0,False
115,Ben King@Grimeandreason,"Replying to @andyypants@andyypants I've sold my $eth down to lowest grade (percentage of portfolio wise) tier. Gotta have a decent retrace after this, no?",1,1,0,False
117, dnalevity.com @DNALevity,Ethereum: the World Computer #ethereum #bitcoin http://daniellevy.humandalas.com/ethereum-the-world-computer-ethereum-bitcoin/…,0,0,0,False
118, dnalevity.com @DNALevity,What is Ethereum? via @BBC #bitcoin #ethereum http://daniellevy.humandalas.com/what-is-ethereum-via-bbc-bitcoin-ethereum/…,1,0,0,False
119,druid andrew@andyypants,making some nice profits off #maidsafecoin and #bitcrystals. I am not jealous of you #ether holders. ok maybe a little. like 15% or so lol,0,0,0,False
120,Frisb@pterion2910,Replying to @pterion2910@pterion2910 $eth #etherum  fast approaching to knock down ripple $xrp,1,0,0,False
122,cryptoball@cryptoball,do you really think #ETH worths $2?,0,0,0,False
124,tradeX@cryptradexpert,Replying to @cryptradexpert@cryptradexpert 2$ $eth oh ya baby,1,1,0,False
126,฿TF%$Brrrrrr!@CryptoHustle,Waiting for #ethereum to go parabolic so I can short on the reversal.,2,1,0,False
127,Crypto Price Ticker@TickerCrypto,"mikispag

#Bittrex: $ETH / BTC

Alert price: >= 0.005
Current price: 0.00501254

http://AlertCo.in via #Aler…",0,0,0,False
132,AlertCo.in@AlertCoin,"@mikispag
#Bittrex: $ETH / BTC

Alert price: >= 0.005
Current price: 0.00501254

http://AlertCo.in",0,0,0,False
134,Percival L. Paulo@Valpaulo49r,I just won free 0.00061125 ETHER from  http://etherfaucet.org #ether #satoshi #freeether #faucet via @etherfaucet,0,0,0,False
135,emonitor@eMonitorCH,#ethereum passes #litecoin and grabs the podium in #cryptocurrency marketcap,0,0,0,False
138,CyberPrestige@Cyber_Prestige,R3 CEV the #blockchain infrastructure project backed by 42 well-known banks announced its use of #Ethereum and #Microsoft Azure.,0,0,0,False
139,Bitcoin NewsBoard@bitcoinewsboard,Ethereum’s Market Cap Takes The Number Three Spot http://bitcoin.newsprinciples.com/?p=30175 #altcoins #bitcoin #breakingnews #ethereum #r3,0,0,0,False
141,WangXiang@WangXiang,#Ethereum 's market cap takes the number three spot http://bit.ly/1PLl5VK,1,0,0,False
147,Kenny Rowe@kennyrowe,Replying to @MrChrisEllis@MrChrisEllis agreed. In my personal opinion the Ether price is the least interesting thing about #Ethereum. Useful apps far more imporant,1,2,0,False
151,casual classics@vintagefashionz,#iocoin under valued and the next big thing in #crypto since #ethereum ! You heard it here first! #poloniex I/OCoin,0,0,0,False
153,⛧ God of Gaming ⛧@TheGodofGamez,#GAMECREDITS LIVE TICKER 1 $GMC = 0.00001864 $BTC = 0.01 $USD #gamedev #indiedev #gamer $ltc $eth $doge #8572,1,1,0,False
154,⛧ God of Gaming ⛧@TheGodofGamez,#GAMECREDITS LIVE TICKER 1 $GMC = 0.00001864 $BTC = 0.01 $USD #gamedev #indiedev #gamer $ltc $eth $doge #11531,1,0,0,False
155,⛧ God of Gaming ⛧@TheGodofGamez,#GameCredits Live Available Supply *undefined $GMC* #gamedev #gamers $btc $ltc $doge $eth $xrp $gmc #60325,2,0,0,False
156,⛧ God of Gaming ⛧@TheGodofGamez,#GAMECREDITS LIVE TICKER 1 $GMC = 0.00001864 $BTC = 0.01 $USD #gamedev #indiedev #gamer $ltc $eth $doge #80718,1,0,0,False
157,Crypto Price Ticker@TickerCrypto,"Crypto-currency winners http://worldcoinindex.com/trending
$NRS $HZ $ARCH $ETH $MAX  (via #WorldCoinI…",0,0,0,False
158,⛧ God of Gaming ⛧@TheGodofGamez,#GameCredits Live Available Supply *undefined $GMC* #gamedev #gamers $btc $ltc $doge $eth $xrp $gmc #1004,1,0,0,False
159,WorldCoinIndex@WorldCoinIndex,"Crypto-currency winners http://worldcoinindex.com/trending
$NRS $HZ $ARCH $ETH $MAX",0,0,0,False
160,⛧ God of Gaming ⛧@TheGodofGamez,#GameCredits Live Available Supply *undefined $GMC* #gamedev #gamers $btc $ltc $doge $eth $xrp $gmc #13554,1,0,0,False
161,Ben King@Grimeandreason,"Do I buy back into $ETH....? Sold half what I had left at 490k. Wait and see, I think. Might just long-term hold remainder.",0,0,0,False
164,⛧ God of Gaming ⛧@TheGodofGamez,#GAMECREDITS LIVE TICKER 1 $GMC = 0.00001866 $BTC = 0.01 $USD #gamedev #indiedev #gamer $ltc $eth $doge #52025,1,0,0,False
166,⛧ God of Gaming ⛧@TheGodofGamez,#GameCredits Live Available Supply *undefined $GMC* #gamedev #gamers $btc $ltc $doge $eth $xrp $gmc #25303,1,0,0,False
167,⛧ God of Gaming ⛧@TheGodofGamez,#GAMECREDITS LIVE TICKER 1 $GMC = 0.00001866 $BTC = 0.01 $USD #gamedev #indiedev #gamer $ltc $eth $doge #79960,1,0,0,False
168,⛧ God of Gaming ⛧@TheGodofGamez,#GAMECREDITS LIVE TICKER 1 $GMC = 0.00001868 $BTC = 0.01 $USD #gamedev #indiedev #gamer $ltc $eth $doge #46324,1,1,0,False
169,⛧ God of Gaming ⛧@TheGodofGamez,#GameCredits Live Available Supply *undefined $GMC* #gamedev #gamers $btc $ltc $doge $eth $xrp $gmc #7318,1,0,0,False
170,⛧ God of Gaming ⛧@TheGodofGamez,#GAMECREDITS LIVE TICKER 1 $GMC = 0.00001872 $BTC = 0.01 $USD #gamedev #indiedev #gamer $ltc $eth $doge #51068,3,1,0,False
171,⛧ God of Gaming ⛧@TheGodofGamez,#GameCredits Live Available Supply *undefined $GMC* #gamedev #gamers $btc $ltc $doge $eth $xrp $gmc #22041,1,0,0,False
172,⛧ God of Gaming ⛧@TheGodofGamez,#GAMECREDITS LIVE TICKER 1 $GMC = 0.00001882 $BTC = 0.01 $USD #gamedev #indiedev #gamer $ltc $eth $doge #25485,0,0,0,False
173,⛧ God of Gaming ⛧@TheGodofGamez,#GameCredits Live Available Supply *undefined $GMC* #gamedev #gamers $btc $ltc $doge $eth $xrp $gmc #87895,1,0,0,False
175,⛧ God of Gaming ⛧@TheGodofGamez,#GAMECREDITS LIVE TICKER 1 $GMC = 0.00001884 $BTC = 0.01 $USD #gamedev #indiedev #gamer $ltc $eth $doge #88942,0,0,0,False
179,⛧ God of Gaming ⛧@TheGodofGamez,#GAMECREDITS LIVE TICKER 1 $GMC = 0.00001884 $BTC = 0.01 $USD #gamedev #indiedev #gamer $ltc $eth $doge #61965,0,0,0,False
180,⛧ God of Gaming ⛧@TheGodofGamez,#GameCredits Live Available Supply *undefined $GMC* #gamedev #gamers $btc $ltc $doge $eth $xrp $gmc #76459,1,1,0,False
181,multisigna@multisigna,Replying to @ErikVoorhees@ErikVoorhees you can buy #eth with #bitcoins at http://multisigna.com anonymously!,1,0,0,False
182,⛧ God of Gaming ⛧@TheGodofGamez,#GAMECREDITS LIVE TICKER 1 $GMC = 0.00001884 $BTC = 0.01 $USD #gamedev #indiedev #gamer $ltc $eth $doge #79307,0,0,0,False
183,⛧ God of Gaming ⛧@TheGodofGamez,#GameCredits Live Available Supply *undefined $GMC* #gamedev #gamers $btc $ltc $doge $eth $xrp $gmc #35705,0,0,0,False
184,⛧ God of Gaming ⛧@TheGodofGamez,#GAMECREDITS LIVE TICKER 1 $GMC = 0.00001884 $BTC = 0.01 $USD #gamedev #indiedev #gamer $ltc $eth $doge #76472,0,0,0,False
185,⛧ God of Gaming ⛧@TheGodofGamez,#GAMECREDITS LIVE TICKER 1 $GMC = 0.00001884 $BTC = 0.01 $USD #gamedev #indiedev #gamer $ltc $eth $doge #39045,0,0,0,False
186,⛧ God of Gaming ⛧@TheGodofGamez,#GameCredits Live Available Supply *undefined $GMC* #gamedev #gamers $btc $ltc $doge $eth $xrp $gmc #85403,0,0,0,False
188,⛧ God of Gaming ⛧@TheGodofGamez,#GAMECREDITS LIVE TICKER 1 $GMC = 0.00001884 $BTC = 0.01 $USD #gamedev #indiedev #gamer $ltc $eth $doge #43789,1,0,0,False
189,⛧ God of Gaming ⛧@TheGodofGamez,#GAMECREDITS LIVE TICKER 1 $GMC = 0.00001886 $BTC = 0.01 $USD #gamedev #indiedev #gamer $ltc $eth $doge #18905,0,0,0,False
190,⛧ God of Gaming ⛧@TheGodofGamez,#GameCredits Live Available Supply *undefined $GMC* #gamedev #gamers $btc $ltc $doge $eth $xrp $gmc #93296,0,0,0,False
191,Adam@CryptoDealer,if $ETH breaks that 490-500 range it could get very interesting,1,0,0,False
192,⛧ God of Gaming ⛧@TheGodofGamez,#GAMECREDITS LIVE TICKER 1 $GMC = 0.00001885 $BTC = 0.01 $USD #gamedev #indiedev #gamer $ltc $eth $doge #42697,0,0,0,False
193,Ben King@Grimeandreason,Been waiting for $XMR buy too long with $ETH profits. Looks like it wants to break out so did that rare thing and market bought. Off you go.,0,0,0,False
194,⛧ God of Gaming ⛧@TheGodofGamez,#GameCredits Live Available Supply *undefined $GMC* #gamedev #gamers $btc $ltc $doge $eth $xrp $gmc #66428,2,1,0,False
195,Ben King@Grimeandreason,"It's fun shaving off profits after free-rolling, aint it? $ETH",0,0,0,False
197,⛧ God of Gaming ⛧@TheGodofGamez,#GAMECREDITS LIVE TICKER 1 $GMC = 0.00001889 $BTC = 0.01 $USD #gamedev #indiedev #gamer $ltc $eth $doge #98429,0,0,0,False
198,⛧ God of Gaming ⛧@TheGodofGamez,#GAMECREDITS LIVE TICKER 1 $GMC = 0.00001891 $BTC = 0.01 $USD #gamedev #indiedev #gamer $ltc $eth $doge #95020,1,0,0,False
199,⛧ God of Gaming ⛧@TheGodofGamez,#GameCredits Live Available Supply *undefined $GMC* #gamedev #gamers $btc $ltc $doge $eth $xrp $gmc #41017,1,0,0,False
200,⛧ God of Gaming ⛧@TheGodofGamez,#GAMECREDITS LIVE TICKER 1 $GMC = 0.00001897 $BTC = 0.01 $USD #gamedev #indiedev #gamer $ltc $eth $doge #6011,1,2,0,False
201,⛧ God of Gaming ⛧@TheGodofGamez,#GameCredits Live Available Supply *undefined $GMC* #gamedev #gamers $btc $ltc $doge $eth $xrp $gmc #73377,1,0,0,False
202,⛧ God of Gaming ⛧@TheGodofGamez,#GAMECREDITS LIVE TICKER 1 $GMC = 0.00001897 $BTC = 0.01 $USD #gamedev #indiedev #gamer $ltc $eth $doge #18288,1,0,0,False
205,CryptoCryptics@CryptoCryptics,Replying to @CryptoCrypticsBasically my chart showed me that #Ethereum was for the fist time ever rising in terms of an actual uptrend starting back then.,0,0,0,False
206,CryptoCryptics@CryptoCryptics,"Replying to @CryptoCrypticsPart of my own excitement about #Ethereum was what I could calculate on January 17, when the price was much lower:

https://tradingview.com/x/kWBzA3bR/",1,0,0,False
207,⛧ God of Gaming ⛧@TheGodofGamez,#GAMECREDITS LIVE TICKER 1 $GMC = 0.00001899 $BTC = 0.01 $USD #gamedev #indiedev #gamer $ltc $eth $doge #69880,0,0,0,False
208,⛧ God of Gaming ⛧@TheGodofGamez,#GameCredits Live Available Supply *undefined $GMC* #gamedev #gamers $btc $ltc $doge $eth $xrp $gmc #59770,0,0,0,False
209,CryptoCryptics@CryptoCryptics,"Replying to @CryptoCryptics#Ethereum has actually done what I thought on January 17 so far:Quote TweetCryptoCryptics@CryptoCryptics · Jan 16, 2016The $Gold price is currently in phase 1-2 and #Ethereum is already in phase 1-3 (unless there is some special FUD):

http://chatwithtraders.com/wp-content/uploads/2015/07/alphatrends-understanding-market-structure.png…",2,0,0,False
210,tonnyx@tonnyx08,I just won free 0.00061125 ETHER from  http://etherfaucet.org #ether #satoshi #freeether #faucet via @etherfaucet,0,0,0,False
211,Michelle Subida@iamprettyalexia,I just won free 0.00061125 ETHER from  http://etherfaucet.org #ether #satoshi #freeether #faucet via @etherfaucet,3,0,0,False
212,⛧ God of Gaming ⛧@TheGodofGamez,#GAMECREDITS LIVE TICKER 1 $GMC = 0.00001899 $BTC = 0.01 $USD #gamedev #indiedev #gamer $ltc $eth $doge #84182,2,0,0,False
213,⛧ God of Gaming ⛧@TheGodofGamez,#GameCredits Live Available Supply *undefined $GMC* #gamedev #gamers $btc $ltc $doge $eth $xrp $gmc #78058,0,0,0,False
214,⛧ God of Gaming ⛧@TheGodofGamez,#GAMECREDITS LIVE TICKER 1 $GMC = 0.00001893 $BTC = 0.01 $USD #gamedev #indiedev #gamer $ltc $eth $doge #15089,1,0,0,False
215,⛧ God of Gaming ⛧@TheGodofGamez,#GameCredits Live Available Supply *undefined $GMC* #gamedev #gamers $btc $ltc $doge $eth $xrp $gmc #25058,0,0,0,False
216,⛧ God of Gaming ⛧@TheGodofGamez,#GAMECREDITS LIVE TICKER 1 $GMC = 0.00001899 $BTC = 0.01 $USD #gamedev #indiedev #gamer $ltc $eth $doge #19386,0,0,0,False
218,⛧ God of Gaming ⛧@TheGodofGamez,#GameCredits Live Available Supply *undefined $GMC* #gamedev #gamers $btc $ltc $doge $eth $xrp $gmc #25421,1,0,0,False
219,Simon Boonen@SBoonen,#Ethereum surpassed @litecoin in market cap!,0,0,0,False
220,⛧ God of Gaming ⛧@TheGodofGamez,#GAMECREDITS LIVE TICKER 1 $GMC = 0.00001886 $BTC = 0.01 $USD #gamedev #indiedev #gamer $ltc $eth $doge #50031,0,0,0,False
222,⛧ God of Gaming ⛧@TheGodofGamez,#GAMECREDITS LIVE TICKER 1 $GMC = 0.00001870 $BTC = 0.01 $USD #gamedev #indiedev #gamer $ltc $eth $doge #78367,1,0,0,False
223,⛧ God of Gaming ⛧@TheGodofGamez,#GameCredits Live Available Supply *undefined $GMC* #gamedev #gamers $btc $ltc $doge $eth $xrp $gmc #27775,0,0,0,False
225,Barbatos@Barbatos__,Okay I'm out of $ETH at 0.0047 BTC... I believe that we're near the top of this bull trend,1,0,0,False
227,⛧ God of Gaming ⛧@TheGodofGamez,#GAMECREDITS LIVE TICKER 1 $GMC = 0.00001870 $BTC = 0.01 $USD #gamedev #indiedev #gamer $ltc $eth $doge #77942,1,1,0,False
228,⛧ God of Gaming ⛧@TheGodofGamez,#GameCredits Live Available Supply *undefined $GMC* #gamedev #gamers $btc $ltc $doge $eth $xrp $gmc #59029,0,0,0,False
230,⛧ God of Gaming ⛧@TheGodofGamez,#GAMECREDITS LIVE TICKER 1 $GMC = 0.00001854 $BTC = 0.01 $USD #gamedev #indiedev #gamer $ltc $eth $doge #88603,1,0,0,False
231,Adam@CryptoDealer,currently my biggest alt holdings are $VNL $CREDIT and $ETH with eth being the only one to really begin a move yet,1,1,0,False
232,⛧ God of Gaming ⛧@TheGodofGamez,#GAMECREDITS LIVE TICKER 1 $GMC = 0.00001856 $BTC = 0.01 $USD #gamedev #indiedev #gamer $ltc $eth $doge #36343,0,0,0,False
233,⛧ God of Gaming ⛧@TheGodofGamez,#GameCredits Live Available Supply *undefined $GMC* #gamedev #gamers $btc $ltc $doge $eth $xrp $gmc #41345,2,1,0,False
234,Fabian Vogelsteller@feindura,#Ethereum just crossed #litecoin!,16,15,0,False
235,Lore06@ErolErolyigit,$eth: sold everything i had. Hoping to buy lower.,0,0,0,False
236,⛧ God of Gaming ⛧@TheGodofGamez,#GAMECREDITS LIVE TICKER 1 $GMC = 0.00001857 $BTC = 0.01 $USD #gamedev #indiedev #gamer $ltc $eth $doge #63757,0,0,0,False
239,⛧ God of Gaming ⛧@TheGodofGamez,#GameCredits Live Available Supply *undefined $GMC* #gamedev #gamers $btc $ltc $doge $eth $xrp $gmc #71073,0,0,0,False
241,⛧ God of Gaming ⛧@TheGodofGamez,#GAMECREDITS LIVE TICKER 1 $GMC = 0.00001858 $BTC = 0.01 $USD #gamedev #indiedev #gamer $ltc $eth $doge #87580,0,0,0,False
242,⛧ God of Gaming ⛧@TheGodofGamez,#GameCredits Live Available Supply *undefined $GMC* #gamedev #gamers $btc $ltc $doge $eth $xrp $gmc #25139,0,0,0,False
243,⛧ God of Gaming ⛧@TheGodofGamez,#GAMECREDITS LIVE TICKER 1 $GMC = 0.00001837 $BTC = 0.01 $USD #gamedev #indiedev #gamer $ltc $eth $doge #76057,0,0,0,False
244,Altcoinspekulant@Altcoinspekulan,"#Altcoinindex @coinoindex: First time since months more then 600 Points. Mainly thanks to #Ethereum #Nem and #DashQuote Tweetcoino index@CoinoIndex · Jan 23, 2016Date: 23.01.2016 03:53 Index: 603.67",0,0,0,False
245,⛧ God of Gaming ⛧@TheGodofGamez,#GameCredits Live Available Supply *undefined $GMC* #gamedev #gamers $btc $ltc $doge $eth $xrp $gmc #94105,0,0,0,False
246,⛧ God of Gaming ⛧@TheGodofGamez,#GAMECREDITS LIVE TICKER 1 $GMC = 0.00001837 $BTC = 0.01 $USD #gamedev #indiedev #gamer $ltc $eth $doge #61523,0,0,0,False
247,Susan Monedero@SusanMonedero1,I just won free 0.00030168 ETHER from  http://etherfaucet.org #ether #satoshi #freeether #faucet via @etherfaucet,0,0,0,False
248,⛧ God of Gaming ⛧@TheGodofGamez,#GAMECREDITS LIVE TICKER 1 $GMC = 0.00001837 $BTC = 0.01 $USD #gamedev #indiedev #gamer $ltc $eth $doge #8204,0,0,0,False
249,⛧ God of Gaming ⛧@TheGodofGamez,#GameCredits Live Available Supply *undefined $GMC* #gamedev #gamers $btc $ltc $doge $eth $xrp $gmc #2868,0,0,0,False
250,⛧ God of Gaming ⛧@TheGodofGamez,#GAMECREDITS LIVE TICKER 1 $GMC = 0.00001837 $BTC = 0.01 $USD #gamedev #indiedev #gamer $ltc $eth $doge #99768,0,0,0,False
251,Crypto Price Ticker@TickerCrypto,"Crypto-currency winners http://worldcoinindex.com/trending
$NRS $FAIR $SC $ETH $MAX  (via #WorldCoinI…",0,0,0,False
252,WorldCoinIndex@WorldCoinIndex,"Crypto-currency winners http://worldcoinindex.com/trending
$NRS $FAIR $SC $ETH $MAX",0,0,0,False
253,⛧ God of Gaming ⛧@TheGodofGamez,#GameCredits Live Available Supply *undefined $GMC* #gamedev #gamers $btc $ltc $doge $eth $xrp $gmc #74487,1,1,0,False
254,⛧ God of Gaming ⛧@TheGodofGamez,#GameCredits Live Available Supply *undefined $GMC* #gamedev #gamers $btc $ltc $doge $eth $xrp $gmc #85159,0,0,0,False
255,⛧ God of Gaming ⛧@TheGodofGamez,#GAMECREDITS LIVE TICKER 1 $GMC = 0.00001833 $BTC = 0.01 $USD #gamedev #indiedev #gamer $ltc $eth $doge #49869,1,0,0,False
256,⛧ God of Gaming ⛧@TheGodofGamez,#GAMECREDITS LIVE TICKER 1 $GMC = 0.00001833 $BTC = 0.01 $USD #gamedev #indiedev #gamer $ltc $eth $doge #8737,2,0,0,False
257,⛧ God of Gaming ⛧@TheGodofGamez,#GameCredits Live Available Supply *undefined $GMC* #gamedev #gamers $btc $ltc $doge $eth $xrp $gmc #55818,0,0,0,False
258,Adam@CryptoDealer,"$ETH has begun to break out, will be exciting to see where it goes now",0,0,0,False
259,⛧ God of Gaming ⛧@TheGodofGamez,#GAMECREDITS LIVE TICKER 1 $GMC = 0.00001830 $BTC = 0.01 $USD #gamedev #indiedev #gamer $ltc $eth $doge #57443,1,0,0,False
260,⛧ God of Gaming ⛧@TheGodofGamez,#GameCredits Live Available Supply *undefined $GMC* #gamedev #gamers $btc $ltc $doge $eth $xrp $gmc #2505,0,0,0,False
261,⛧ God of Gaming ⛧@TheGodofGamez,#GAMECREDITS LIVE TICKER 1 $GMC = 0.00001830 $BTC = 0.01 $USD #gamedev #indiedev #gamer $ltc $eth $doge #45166,1,1,0,False
262,⛧ God of Gaming ⛧@TheGodofGamez,#GAMECREDITS LIVE TICKER 1 $GMC = 0.00001830 $BTC = 0.01 $USD #gamedev #indiedev #gamer $ltc $eth $doge #37992,1,0,0,False
263,⛧ God of Gaming ⛧@TheGodofGamez,#GAMECREDITS LIVE TICKER 1 $GMC = 0.00001830 $BTC = 0.01 $USD #gamedev #indiedev #gamer $ltc $eth $doge #47394,0,0,0,False
265,⛧ God of Gaming ⛧@TheGodofGamez,#GAMECREDITS LIVE TICKER 1 $GMC = 0.00001836 $BTC = 0.01 $USD #gamedev #indiedev #gamer $ltc $eth $doge #71128,0,0,0,False
266,Crypto Price Ticker@TickerCrypto,Jahaly #Ethercoin ETC ranked 22 http://marketcapcoin.com 1st #Bitcoin 2nd #Ripple 3rd #Marinecoin Crypto Currency R…,0,0,0,False
267,⛧ God of Gaming ⛧@TheGodofGamez,#GAMECREDITS LIVE TICKER 1 $GMC = 0.00001837 $BTC = 0.01 $USD #gamedev #indiedev #gamer $ltc $eth $doge #82955,0,0,0,False
268,casual classics@vintagefashionz,I/O Coin Digital Currency about to unleash #decentralized #payment system for #crypto via usernames! #oneofakind #blockchain #ethereum #pos,0,0,0,False
269,⛧ God of Gaming ⛧@TheGodofGamez,#GAMECREDITS LIVE TICKER 1 $GMC = 0.00001837 $BTC = 0.01 $USD #gamedev #indiedev #gamer $ltc $eth $doge #97679,1,0,0,False
270,⛧ God of Gaming ⛧@TheGodofGamez,#GAMECREDITS LIVE TICKER 1 $GMC = 0.00001837 $BTC = 0.01 $USD #gamedev #indiedev #gamer $ltc $eth $doge #11818,0,0,0,False
271,⛧ God of Gaming ⛧@TheGodofGamez,#GAMECREDITS LIVE TICKER 1 $GMC = 0.00001837 $BTC = 0.01 $USD #gamedev #indiedev #gamer $ltc $eth $doge #13977,2,1,0,False
272,Pâq(y) Bickindou@PaqBickindou,R3 connects 11 banks to distributed ledger using #Ethereum and Microsoft Azure http://ibt.uk/A6SNI #R3CEV #in #BlockchainR3 connects 11 banks to distributed ledger using Ethereum and Microsoft AzureR3 announced first distributed ledger experiment using Ethereum and Microsoft Azure\'s Blockchain as a service.ibtimes.co.uk,0,0,0,False
274,⛧ God of Gaming ⛧@TheGodofGamez,#GAMECREDITS LIVE TICKER 1 $GMC = 0.00001837 $BTC = 0.01 $USD #gamedev #indiedev #gamer $ltc $eth $doge #45026,0,0,0,False
275,⛧ God of Gaming ⛧@TheGodofGamez,#GAMECREDITS LIVE TICKER 1 $GMC = 0.00001838 $BTC = 0.01 $USD #gamedev #indiedev #gamer $ltc $eth $doge #5627,2,0,0,False
276,Ben King@Grimeandreason,"Drowsily stirred, sold half my $eth at 100% profit through squinting, blurred vision, and now free-rolling. *yawn*. Back to sleep.... zzz",0,0,0,False
277,FailCommunity@FAILCommunity,Looks like #Ethereum will soon worth at least $2. #ETH #cryptocurrency #fintech,0,0,0,False
278,⛧ God of Gaming ⛧@TheGodofGamez,#GAMECREDITS LIVE TICKER 1 $GMC = 0.00001818 $BTC = 0.01 $USD #gamedev #indiedev #gamer $ltc $eth $doge #36496,1,0,0,False
279,⛧ God of Gaming ⛧@TheGodofGamez,#GAMECREDITS LIVE TICKER 1 $GMC = 0.00001818 $BTC = 0.01 $USD #gamedev #indiedev #gamer $ltc $eth $doge #27275,1,0,0,False
280,⛧ God of Gaming ⛧@TheGodofGamez,#GAMECREDITS LIVE TICKER 1 $GMC = 0.00001821 $BTC = 0.01 $USD #gamedev #indiedev #gamer $ltc $eth $doge #30954,1,1,0,False
281,⛧ God of Gaming ⛧@TheGodofGamez,#GAMECREDITS LIVE TICKER 1 $GMC = 0.00001825 $BTC = 0.01 $USD #gamedev #indiedev #gamer $ltc $eth $doge #11416,1,1,0,False
282,⛧ God of Gaming ⛧@TheGodofGamez,#GAMECREDITS LIVE TICKER 1 $GMC = 0.00001841 $BTC = 0.01 $USD #gamedev #indiedev #gamer $ltc $eth $doge #33086,0,0,0,False
284,⛧ God of Gaming ⛧@TheGodofGamez,#GAMECREDITS LIVE TICKER 1 $GMC = 0.00001842 $BTC = 0.01 $USD #gamedev #indiedev #gamer $ltc $eth $doge #43561,1,0,0,False
285,⛧ God of Gaming ⛧@TheGodofGamez,#GAMECREDITS LIVE TICKER 1 $GMC = 0.00001842 $BTC = 0.01 $USD #gamedev #indiedev #gamer $ltc $eth $doge #81193,0,0,0,False
286,⛧ God of Gaming ⛧@TheGodofGamez,#GAMECREDITS LIVE TICKER 1 $GMC = 0.00001846 $BTC = 0.01 $USD #gamedev #indiedev #gamer $ltc $eth $doge #45994,0,0,0,False
289,⛧ God of Gaming ⛧@TheGodofGamez,#GAMECREDITS LIVE TICKER 1 $GMC = 0.00001846 $BTC = 0.01 $USD #gamedev #indiedev #gamer $ltc $eth $doge #16620,0,0,0,False
290,⛧ God of Gaming ⛧@TheGodofGamez,#GAMECREDITS LIVE TICKER 1 $GMC = 0.00001846 $BTC = 0.01 $USD #gamedev #indiedev #gamer $ltc $eth $doge #84660,0,0,0,False
291,ULTRLOA crypto@UltrloaCrypto,I just won free 0.00034168 ETHER from  http://etherfaucet.org #ether #satoshi #freeether #faucet via @etherfaucet,0,0,0,False
292,AltcoinLive bot@AltcoinLiveBot,new $ETH sellwall 15.7btc @ 0.00700000 http://altcoinlive.com/bittrex-eth-btc #altcoinlive,0,0,0,False
293,⛧ God of Gaming ⛧@TheGodofGamez,#GAMECREDITS LIVE TICKER 1 $GMC = 0.00001846 $BTC = 0.01 $USD #gamedev #indiedev #gamer $ltc $eth $doge #47388,0,0,0,False
294,⛧ God of Gaming ⛧@TheGodofGamez,#GAMECREDITS LIVE TICKER 1 $GMC = 0.00001851 $BTC = 0.01 $USD #gamedev #indiedev #gamer $ltc $eth $doge #46715,0,0,0,False
295,⛧ God of Gaming ⛧@TheGodofGamez,#GAMECREDITS LIVE TICKER 1 $GMC = 0.00001859 $BTC = 0.01 $USD #gamedev #indiedev #gamer $ltc $eth $doge #70520,0,0,0,False
296,⛧ God of Gaming ⛧@TheGodofGamez,#GAMECREDITS LIVE TICKER 1 $GMC = 0.00001865 $BTC = 0.01 $USD #gamedev #indiedev #gamer $ltc $eth $doge #13682,0,0,0,False
297,⛧ God of Gaming ⛧@TheGodofGamez,#GAMECREDITS LIVE TICKER 1 $GMC = 0.00001867 $BTC = 0.01 $USD #gamedev #indiedev #gamer $ltc $eth $doge #59478,2,1,0,False
298,Ariel E. Agustin@arielagustin521,I just won free 0.00105200 ETHER from  http://etherfaucet.org #ether #satoshi #freeether #faucet via etherfaucet,0,0,0,False
299,⛧ God of Gaming ⛧@TheGodofGamez,#GAMECREDITS LIVE TICKER 1 $GMC = 0.00001845 $BTC = 0.01 $USD #gamedev #indiedev #gamer $ltc $eth $doge #43389,2,1,0,False
300,Fanfan de Lioncourt@Fanfan_Tweet,#BTC vol be like crazy. #ETH vol be OK (check out fiat parity),0,0,0,False
301,⛧ God of Gaming ⛧@TheGodofGamez,#GAMECREDITS LIVE TICKER 1 $GMC = 0.00001844 $BTC = 0.01 $USD #gamedev #indiedev #gamer $ltc $eth $doge #39448,0,0,0,False
302,⛧ God of Gaming ⛧@TheGodofGamez,#GAMECREDITS LIVE TICKER 1 $GMC = 0.00001844 $BTC = 0.01 $USD #gamedev #indiedev #gamer $ltc $eth $doge #58936,0,0,0,False
303,NFTINVESTA@invest4al,"$ETH is mooning, obviously",1,1,0,False
