,user,text,likes,retweets,replies,is_thread
0,Рома Булатов@romashka7439,ETHTRADE - CRYPTO 2.0 INVESTING http://ethtrade.org #ethereum #eth #ethtrade #bitcoin #crypto2.0 #investment,4,0,0,False
1,Igor Bondarenko@Chigarelli,free #ethereum http://goo.gl/9u8WIqGIF,1,0,0,False
2,ben en keyendrci@CryptoTradeInfo,We know that #investment causes #growth But it is also true that Growth causes Investment #Bitcoin #Ethereum #Lisk #Maidsafe #Cryptocurrency,3,0,0,False
3,Bitcoin Is The KING @EthereumPredict,Buying back #ethereum now for being sure to not miss the next incoming rallye :) #ether,2,0,0,False
4,Matthew Sloly@MatthewSloly,#Ethereum: Rise of the World Computer | http://svds.com/ethereum-the-rise-of-the-world-computer/#.VtwDLTq3jBt.twitter… #blockchain #bitcoin,5,3,0,False
5,Hiro Shimo(志茂 博)@hiroshi_shimo,"Ring Signature!!
 https://github.com/ethereum/pyethereum/blob/serenity/ethereum/ringsig.se.py…
#ethereum",2,1,0,False
6,CryptoCryptics@CryptoCryptics,"""I just mortgaged my house to buy #Ethereum""

$ETH $ETHUSD $ETHBTC https://bitcointalk.org/index.php?topic=1388566.msg14107726#msg14107726…",4,3,2,False
7,HYPER Crypto@HyperCrypto,See ALL $HYPER game servers on the blog: http://hypercrypto.com/blog/2016/03/06/all-hyper-games-servers/… #bitcoin #gaming #BTC #ETH #crypto #fintech #blockchain #CSGO #gamers,4,0,0,False
8,Gusaru@_gusaru_,#Rootstock – Smart Contracts on the #Bitcoin #Blockchain http://blog.cryptoiq.ca/?p=320 #ethereum #startup,2,1,0,False
10,HYPER Crypto@HyperCrypto,Quick overview of what $HYPER is with new blog post: http://hypercrypto.com/blog/2016/03/06/quick-overview-of-hyper-for-anyone-who-is-new-and-wants-to-learn-more/… #esports #bitcoin #gaming #btc #eth #blockchain Please RT!,3,0,0,False
11,Alexander Metz@smidge,"Banks, VCs and Tech Companies were blindly investing in #Bitcoin, while they have been actually looking for #Ethereum. #blockchain #fintech",4,3,0,False
12,Sillytuna (hiring devs) @sillytuna,High level summary on reddit of some #ethereum risksLogic please - Anyone who feels ETHs marketcap should be less than...Posted in r/ethtrader by u/nbr1bonehead • 38 points and 52 commentsreddit.com,2,0,0,False
13,BitcoiNapoleon@hodler_btc,#ethereum big dump,1,0,0,False
14,ACCI@nxttyacci,"#NxttyACCI altcoin market last 24 hours, #Ethereum down #Bitshares #Factom & #NEM reaching new highs.",1,0,0,False
15,Gusaru@_gusaru_,#R3 completes trial of five cloud-based emerging #blockchain technologies with 40 bank consortium members http://r3cev.com/press/2016/3/3/r3-completes-trial-of-five-cloud-based-emerging-blockchain-technologies-with-40-bank-consortium-members… #ethereum,3,0,0,False
16,Костя Лобановскиё@kesya1972,ETHTRADE - CRYPTO 2.0 INVESTING http://ethtrade.org #ethereum #eth #ethtrade #bitcoin #crypto2.0 #investment,4,0,0,False
17,Zeth Couceiro@Zeth_Plexus,"#VC Greed Will Destroy #Bitcoin From Within - NEWSBTC #blockchain #ethereum #azure #startupsVC Greed Will Destroy Bitcoin From WithinCertain individuals in the VC landscape are even looking to detach Bitcoin from the blockchain, as they are only interested in the technology.newsbtc.com",2,0,0,False
18,Vindyne8@Vindyne8,One click file verification for the #Radium #SmartChain released! $RADS http://bit.ly/1Sq0E6j #btc #eth #RT,15,15,0,False
19,CryptoCryptics@CryptoCryptics,#Ethereum market depth and orderbook for Poloniex exchange $ETHBTC https://dc-charts.com/depth_eth.php?ex=16&cu=0&tz=5&ar=1…,2,0,0,False
20,Aman Merchant@AmanMerchant,Top #blockchain and #fintech movers and shakers to watch in 2016 - #ethereum #IoT #gaming http://ibtimes.co.uk/top-blockchain-fintech-movers-shakers-watch-2016-1533840…,2,4,0,False
21,Zeth Couceiro@Zeth_Plexus,#Ethereum Knocks on #WallStreet Doors and Gets in Too! - NEWSBTC #bitcoin #blockchain #newsEthereum Knocks on Wall Street Doors and Gets in Too!Ethereum is bringing the blockchain technology to the doors of Wall Street and rest of the banking and financial industry . Read more...newsbtc.com,2,1,0,False
22,Netcube93@Netcube93,"theReasonForFctRise? #Ethereum founder Vitalik Buterin’s fund Fenbushi was an early investor in #Factom.“
http://financemagnates.com/cryptocurrency/interview/factom-ceo-blockchain-based-transparent-mortgages-can-restore-trust-in-markets/… #btc #ethFactom CEO: Blockchain-based Transparent Mortgages Can Restore Trust in Markets | Finance Magnates""Once we have better collateral like titles secured by blockchain and better contracts that can self-execute - we can build vastly more efficient lending systems.""financemagnates.com",5,2,0,False
23,ant@ThisIsNuse,Replying to @VaticanBank@VaticanBank Never heard of it.,1,1,1,False
24,Vatican Bank@VaticanBank,".@ThisIsNuse it's not that old, looks like #Beta [ http://bata.io/about ] have the same principle as #Ethereum, What you think?",1,1,2,False
25,Matt Slater@MattSlater,Wow somebody hooked up a drone to an #Ethereum smart contract - https://youtube.com/watch?v=V_3rcP2Duv0…,35,22,1,False
26,Cloud Mining Monitor@cmmonitorcom,#Ethereum #Cloudmining': 06.03.2016 Payment received. 5 MHs - 0.11911043 ETH. From MyCoinCloud.MyCoinCloud (Ethereum Mining)cmmonitor.com,0,0,0,False
27,JΞFF@jeffehh,#ethereum miners: you should really do something about the current situation. DwarfPool as too much power.,16,18,7,False
28,FailCommunity@FAILCommunity,"99k #BTC trade volume on @Poloniex. Is it happening? https://twitter.com/FAILCommunity/status/706147047393632258… #Ethereum #Bitcoin #fintechQuote TweetFailCommunity@FAILCommunity · Mar 5, 2016More than 83,000 #BTC volume on @Poloniex!!! 5k BTC traded in under 30 mins! Will we see 100k? :) #fintech",1,0,0,False
29,Bitcoin Garden (Not Giving Away ETH)@BitcoinGarden,Ethereum Co-Founder Vitalik Buterin On Public and Private Blockchains: http://bitcoingarden.tk/forum/index.php?topic=4580.msg108073#msg108073… tnx @CryptoCoinsNews | #Ethereum #News,6,9,0,False
30,Lisk@LiskHQ,"The Lisk Week in Retrospect #5

http://us12.campaign-archive2.com/?u=201693389b5cea4883858163e&id=4fb4974197&e=13d5c1a25f…
#bitcoin #blockchain #cryptocurrency #lisk #dapps #ethereum",13,10,0,False
31,Michael Wuehler@wuehler,"#Ethereum node in 2 minutes on Amazon AWS. Launch ami-77759917 
It has geth installed ready for Homestead",1,0,0,False
32,Florian Bergmann@flobby,wondering how many people really understand the power of smart contracts before it affects them... #ethereum is a good approach,2,0,0,False
33,CRYPTOCOINTALK@cryptocointalk,#Jaxx Announces New Security Features For #Ethereum and #Bitcoin Wallet - https://cryptocointalk.com/topic/45296-jaxx-announces-new-security-features-for-ethereum-and-bitcoin-wallet/… #ETH #BTC,3,3,1,False
34,Rodney MacInnes@AML_Ninja,"#Ethereum is pulling in new interest by giving people relatable uses for #blockchain tech. And, it's only beginning!Ethereum Knocks on Wall Street Doors and Gets in Too!Ethereum is bringing the blockchain technology to the doors of Wall Street and rest of the banking and financial industry . Read more...newsbtc.com",2,0,0,False
35,BACKFEED@Backfeed_cc,"#Ethereum for Dummies - Dr. Gavin Wood
@gavofyork
https://youtu.be/U_LK0t_qaPo
#Blockchain #decentralization",5,3,0,False
36,Bob Summerwill@BobSummerwill,"Since you wrote this just TWO days ago:

#Ethereum nodes 5187  <--- LOOK!
#Bitcoin nodes 6956

Bonkers growth! https://twitter.com/donaldmcintyre_/status/705479479393591296…This Tweet is unavailable.",14,16,2,False
37,Bitcoin Sportsbettin@BTCsportsbettor,"Will #bitcoin be the biggest crypto currency in Feb 2017, bet here: https://betmoose.com/bet/will-btc-be-the-biggest-crypto-currency-in-feb-2017-1770?ref=sirlanka… #ethereum #ether",0,0,0,False
38,Philip Dartnell@PhilipDartnell,"#ethereum is astounding, but gosh there's a need for explanatory material. The technobabble level is off the charts! https://blog.ethereum.org/2016/03/05/serenity-poc2/…",1,1,0,False
39,fav@btsfav,Earn #Bitcoin or #Ethereum for doing simple tasks!   http://favd.xyz/1S2ScK5  :),1,2,0,False
40,Proof of Work@proofofwork,An interview we shot with @VitalikButerin while at Devcon1 https://youtube.com/watch?v=F2eJZzZW2bg… #Ethereum #Bitcoin #London[DEVCON1] Interview With Vitalik Buterin[DEVCON1] Interview With Vitalik Buterinhttp://www.coinscrum.com/devcon1-inte...https://twitter.com/coinscrumRecorded by Proof of Work Media London 2015The i...youtube.com,4,11,0,False
41,Ethan Buchman@buchmanster,"""there is nothing more hopeless and depraved than a man in the depths of an ether binge"" - Hunter S., more relevant than ever ! #ethereum",9,4,1,False
42,Magnr@magnr,#Bitcoin and #Ethereum are currently showing a strong negative beta correlation. Traders are seeing opportunity.,10,14,1,False
43,Vindyne8@Vindyne8,#creditbit symbol changed to $CRBIT https://github.com/creditbit/creditbit… @BittrexExchange @Poloniex @btc38com http://bit.ly/1oUPzyi #BTC #ETH #RTcreditbit/creditbitdecentralized cryptocurrency. Contribute to creditbit/creditbit development by creating an account on GitHub.github.com,12,12,0,False
44,MXJXN.eth@mxjxn,"Thats serious growth... #EthereumQuote TweetBob Summerwill@BobSummerwill · Mar 6, 2016Since you wrote this just TWO days ago:

#Ethereum nodes 5187  <--- LOOK!
#Bitcoin nodes 6956

Bonkers growth! https://twitter.com/donaldmcintyre_/status/705479479393591296…",2,1,1,False
45,John Lilic ₿ Ξ ∞@JohnLilic,"""The price of #Ether will be over $1.15 by 29th February, 2016."" @ConsenSysAndrew predictions coming true http://coindesk.com/16-blockchain-tech-predictions-2016/… #ConsenSysEthereum Will Arrive (and 15 Other Blockchain Predictions for 2016) - CoinDeskAndrew Keys from ConsenSys offers 16 predictions for the blockchain and decentralized technologies sector in 2016.coindesk.com",5,3,0,False
46,ethereum.network@EthereumNetw,"#Ethereum explained by Andreas Antonopoulos @aantonopEthereum explained by Andreas Antonopoulos - Bitcoin mining by...The world's largest crowd funded Bitcoin mine, BitClub Network just announced they are beginning to mine Ethereum. BitClub Network is sending Bitcoin viral...youtube.com",9,6,1,False
47,CryptoCompare@CryptoCompare,"#ETH price down 15.5% but #Ethereum - #BTC 24H vol. Ƀ 105,000. ~ 30% higher than the BTC-USD 24H vol. Ƀ 82,000.",2,1,0,False
49,JΞFF@jeffehh,.@jeffehh let this be a warning #ethereum miners.,2,4,1,False
50,BTCMANAGER@btc_manager,ICYMI: Ethereum “Takes Off the Training Wheels” w/ Homestead https://btcmanager.com/news/tech/ethereum-takes-off-the-training-wheels-with-homestead/… #ethereum #fintech #blockchain,4,0,0,False
51,OldBTC@Decred10min,RIP $ETH. Just making room for the real tech !  https://twitter.com/TheLordofBTC/status/706493130812624896…This Tweet is unavailable.,3,0,0,False
52,Sergei Lonshakov@EnsRationis,#DroneEmployee: new march'2016  field testing with #Ethereum #blockchain transactionDrone employee: field testing with Ethereum blockchain transaction...Second successful field test for 3DR X8 drones compatibility with Drone Employee software. You can see workflow process where Human send transaction to Dron...youtube.com,3,2,0,False
53,Ξ Fly Guy Ξ (flyguy.eth)@FlyGuyInTheSky,#ethereum Money is going back into #eth out of #bitcoin we maybe looking at new highs shortly.,1,0,0,False
54,Ian Allison@IanAllison123,"@sandroieva I agree charities should be transparent and on bockchain, no excuses, checkout http://nervemeter.co.uk using #ethereumNervemeterNervemeter magazine takes an alternative view on art, culture and society. Sold on the streets by homeless and vulnerably housed people mainly in Londonnervemeter.co.uk",2,2,1,False
55,SocialismSucks@VTCWhale,"Coins I Liked over the past few months: $ETH $FCT $MAID $BCY $RADS 

Additional Newer Interests: $CYG $CREDIT ($CRBIT) $WARP $DCR $DNET",4,1,0,False
56,BitcoinAgile@bitcoinagile,Forty big banks test RE3s #blockchain-based bond trading #ethereum #fintech #finance #CFO http://bit.ly/21Qnyts,2,1,0,False
58,John Gerryts@phonikg,@BobSummerwill Exactly what I mentioned today when someone tried to compare #ethereum now to #bitcoin in 2011 #itsnotjustthepricegoingup,2,1,1,False
59,Jaxx Liberty@jaxx_io,Ask & you shall receive. Jaxx v 0.0.12 now has optional security PIN. http://jaxx.io #bitcoin #ethereum,17,10,4,False
60,CryptoCryptics@CryptoCryptics,"My recommendation is to watch the #Ethereum chart very very closely each hour minimum today if you still have a large investment in it

$ETH",1,0,0,False
61,BitcoinAgile@bitcoinagile,KryptoKit adds more security features to its Jaxx Beta wallet #Bitcoin #Ethereum #Ether http://sebfor.com/kryptokit-adds-security-features-jaxx-beta-wallet…,3,1,0,False
62,Bob Summerwill@BobSummerwill,"I'm presenting on ""Ethereum @ Homestead"" at the Vancouver Ethereum Meetup at  @decentralvan, Mar 14th @ 7pm.  Join us!
#ethereum #vancouver",19,12,2,False
63,Michael Wuehler@wuehler,"Biggest hurdle to decentralized crypto adoption will be ""I Forgot My Password?"" In the end we want to trust someone when we forget #ethereum",2,2,0,False
64,Bitcoin News@BTCNewsletter,RT @Vindyne8 #creditbit symbol changing to $CRBIT changes incoming to github ASAP  #BTC #ETH #RT http://lnkplg.co/4rA4Q,1,2,0,False
65,Alunaut   @onemanatatime,"Gg. This the top for now boys. We buy back when this guy decides to sell his $ETH at 0.014 later this month.Quote TweetCryptoCryptics@CryptoCryptics · Mar 6, 2016""I just mortgaged my house to buy #Ethereum""

$ETH $ETHUSD $ETHBTC https://bitcointalk.org/index.php?topic=1388566.msg14107726#msg14107726…",8,3,1,False
67,ethereum.network@EthereumNetw,"...after BitClub Network, the world's largest crowd funded #Bitcoin mine, announced they are beginning to mine #Ethereum
@aantonop",2,2,0,False
68,Alunaut   @onemanatatime,"FYI, if you didn't get the memo, dump $FCT $ETH $XMR $MAID $DASH for now! Wait for $BTC to peak with confirmation before buying.",5,1,1,False
69,dj Thistle@DJThistle01,maybe BTD on $ETH @ 20-21 for the first bounce. 17-14 first legit support block.,2,0,0,False
79,Johan Nygren@resilience_me,Using mutual credit to draw a map of financial inter-dependence at a global scale https://resilience.press/using-mutual-credit-to-draw-a-map-of-financial-inter-dependence-at-a-global-scale-6a9a7ecf5b52#.4v1uhfrke… #ethereum,0,0,0,False
80,ethereum.network@EthereumNetw,"Replying to @EthereumNetw...after BitClub Network, the world's largest crowd funded #Bitcoin mine, announced they are beginning to mine #Ethereum
@aantonop",2,2,0,False
82,Bitcoin Is The KING @EthereumPredict,"The drop must be exhausted now and the market should retrace to 0.03btc / #ethereum. Care, never play with money you can't afford to lose.",0,0,0,False
83,kkekes@clonenee,ETHTRADE - CRYPTO 2.0 INVESTING http://ethtrade.org #ethereum #eth #ethtrade #bitcoin #crypto2.0 #investment,1,0,0,False
84,Cloud Mining Monitor@cmmonitorcom,#Ethereum #Cloudmining': 06.03.2016 Payment received. 6 MHs - 0.14145985 ETH. From Genesis Mining.Genesis Mining (Ethereum Mining)cmmonitor.com,0,0,0,False
86,ethereum.network@EthereumNetw,"A #scala implementation of #Ethereum.
How many do we have now? 8?
Ethereum developer environment growsA Scala implementation of Ethereum nodesPosted in r/ethereum by u/pirapira • 15 points and 1 commentreddit.com",0,0,0,False
93,ethereum.network@EthereumNetw,"Video of #Drone triggered by #Ethereum transaction
https://youtube.com/watch?v=V_3rcP2Duv0…
#transportation #DAO with #IoT on #blockchainDrone employee: field testing with Ethereum blockchain transaction...Second successful field test for 3DR X8 drones compatibility with Drone Employee software. You can see workflow process where Human send transaction to Dron...youtube.com",5,5,0,False
95,Hot RS@AliboxworkHot,ETHTRADE - CRYPTO 2.0 INVESTING http://ethtrade.org #ethereum #eth #ethtrade #bitcoin #crypto2.0 #investment,1,0,0,False
96,Alina@Alina___smile,ETHTRADE - CRYPTO 2.0 INVESTING http://ethtrade.org #ethereum #eth #ethtrade #bitcoin #crypto2.0 #investment,1,0,0,False
97,юлия юрьева@cfyz2606,ETHTRADE - CRYPTO 2.0 INVESTING http://ethtrade.org #ethereum #eth #ethtrade #bitcoin #crypto2.0 #investment,1,0,0,False
98,Bitcoin Sportsbook @SportsbookBTC,#LiveBitcoinBets ― #Ethereum blockchain almost at 9.5 GB #Ethereum → http://betbitcoin.trade,0,0,0,False
101,The Quantified VC@aquantvc,Everyone who got into #Ethereum did so with clear knowledge that it was a #GetRichQuick scheme and surely holds on tightly to private keys.,3,0,0,False
105,David Liam@crazydaveorama,#Ethereum Knocks on Wall Street Doors and Gets in Too! - NEWSBTC #blockchain http://newsbtc.com/2016/03/06/ethereum-knocks-on-wall-street/…,1,0,0,False
106,David Liam@crazydaveorama,Rootstock Contests #Ethereum for Smart Contracts Domain - NEWSBTC #blockchain http://newsbtc.com/2016/03/06/rootstock-contests-ethereum-for-smart-contracts-domain/…,1,0,0,False
107,Michael Wuehler@wuehler,I consider myself in the top 99% of those who grasp what's going on with #Cryptocurrency and I have 3 $ETH stuck in a wallet I can't access,0,0,0,False
108,Ethereum SE@StackEthereum,How can I efficiently get a large amount of data from a contract? http://ethereum.stackexchange.com/questions/1890/how-can-i-efficiently-get-a-large-amount-of-data-from-a-contract… #ethereum #solidity #web3js,0,0,0,False
110,Alina Andrianova@AlinaAndrianov5,Get up to 25% of your passive income every month due to eth trading on the platform/ http://ethtrade.org #ethereum #eth #ethtrade,0,0,0,False
113,Christopher Allsop@stealth2377,"My latest article: New security measures added to the jaxx #Bitcoin and #Ethereum wallet -KryptoKit adds more security features to its Jaxx Beta walletIn a posting on reddit Sunday, Anthony Di Iorio, founder and CEO of KryptoKit, announced their Jaxx wallet was going to add PIN security to their popular Jaxx beta wallet for Bitcoin and Ethereum....sebfor.com",1,0,0,False
114,fintechfolk@fintechfolk,Thanks bugrabalkac for registering for FinTechFolk - http://zpr.io/Mnfj #fintech #ethereum #bitcoin #blockchain,0,0,0,False
115,Lise Estelle Brault@le_brault,All options are open for #ethereum https://twitter.com/donaldmcintyre_/status/706585017510539264…This Tweet is unavailable.,0,0,0,False
117,Kevin Osterling@kevin_osterling,Can somebody recomend me the best #ethereum wallet?,1,0,0,False
118,ethereum.network@EthereumNetw,"Huge potential to increase efficiency, reduce costs makes #Ethereum & #blockchain tech a gold mine for #WallStreetEthereum Knocks on Wall Street Doors and Gets in Too!Ethereum is bringing the blockchain technology to the doors of Wall Street and rest of the banking and financial industry . Read more...newsbtc.com",1,3,0,False
119,CryptRoller@CryptRoller,"We keep finding them! Another #ether #faucet added to the list. Now counting a whopping 7 of them:
http://cryptroller.com/?co=eth #free #ethereumCryptRoller - The Ultimate List of Opportunities to Earn Crypto OnlineThe Ultimate List of Opportunities to Earn Crypto Onlinecryptroller.com",0,0,0,False
123,Emil Johansson@p145085,#Ethereum - New to Ethereum? https://reddit.com/r/ethereum/comments/4936d3/are_you_new_to_ethereum_here_are_many/…,0,0,0,False
124,BitcoinAgile@bitcoinagile,Quorum  Using #bitcoin keys with #ethereum https://medium.com/@alexberegszaszi/quorum-using-bitcoin-keys-with-ethereum-ad44cf28fb20…,3,0,0,False
125,Heldinne@Heldinne,#eth hypothermie,0,0,0,False
126,ethereum.network@EthereumNetw,"Best #Ethereum questions of the week by @StackEthereum
http://stackexchange.com/newsletters/newsletter?site=ethereum.stackexchange.com…",2,1,0,False
127,Heldinne@Heldinne,dat is A #eth,0,0,0,False
132,Ethereum Price@EthereumPrice_,"#Ethereum: Ether Price Index
1 ETH =0.025852Ƀ XBT = $10.513450 USD
Today: -6.27%⬇︎ Last 24h: -14.16%⬇︎
https://ethereum-price.com",0,0,0,False
134,BitcoinAgile@bitcoinagile,Rootstock Contests #ethereum for Smart Contracts Domain #news #channel #Bitcoin #BTC http://bit.ly/21QlMIY,1,3,0,False
135,Ethereum SE@StackEthereum,Contract functions not triggered http://ethereum.stackexchange.com/questions/1887/contract-functions-not-triggered… #ethereum #contractdevelopment #contractdebugging #contractinvocation,0,0,0,False
136,Ethereum SE@StackEthereum,Etherbase ID changed during sync http://ethereum.stackexchange.com/questions/1889/etherbase-id-changed-during-sync… #ethereum #mist,0,0,0,False
140,bigs21024@bigs21024,"Does someone have 1 eth you can send 
0x22aae8fcaa387f7e51960d7b92149dd9ded97ad6
#ethereum",1,1,0,False
142,BitcoinAgile@bitcoinagile,#ethereum Price Prediction March 6th 2016 Downtrend? #ethereumblockchain #ethereumblog http://bitcoin-daytrading.com/ethereum-price-prediction-march-6th-2016…,2,2,0,False
143,englishinvancouver@engvancouver,Ethereum Price Prediction March 6th 2016 Downtrend? http://bitcoin-daytrading.com/ethereum-price-prediction-march-6th-2016/… #ethereum,0,0,0,False
145,JΞFF@jeffehh,Replying to @jeffehh.@jeffehh let this be a warning #ethereum miners.,2,4,1,False
146,Chokri AlGhanmi@GhanmiChokri,Good news! Contracts for #Ethereum #mining are available again!  Start with 1 Mh/s for only 44… https://instagram.com/p/BBw_bIpu-B2/,0,0,0,False
147,BitcoinAgile@bitcoinagile,Rootstock Contests #ethereum for Smart Contracts Domain - NEWSBTC #blockchain #Bitcoin http://bit.ly/1L9pt4U,1,3,0,False
154,Jaxx Liberty@jaxx_io,"The Merkle: ""Jaxx is one of those wallets people seem to like from the moment they get their hands on it"" http://themerkle.com/news/jaxx-announces-new-security-features-for-ethereum-and-bitcoin-wallet/… #ethereumJaxx Announces New Security Features For Ethereum and Bitcoin WalletJaxx has been one of those wallet services people seem to like from the moment they can get their hands on the software. By supporting both Ethereum and Bitcoin, the Jaxx wallet is quite versatile, lethemerkle.com",5,2,0,False
155,david bravo@bravosmovil81,I just won free 0.00000200 ETHER from  http://ethereumfaucet.org #ether #satoshi #freeether #faucet vía @ethereumfaucet,0,0,0,False
156,Juan Pablo Daniel@jpdborgna,"My first thought was this is a  #ethereum (currency) meetup and then came back to read it again...it wasn't =>I loldQuote TweetCraig Ingram@cji · Mar 6, 2016Woah, go easy on the ether.",0,0,0,False
157,Gaëlle PICARD-ABEZIS@Gaellepicardabe,"""Are You Watching #Ether(ETH)?"" by @tgonser on @LinkedIn https://linkedin.com/pulse/you-watching-ether-tom-gonser…",0,0,0,False
158,Ethereum UAE@Ethereum_UAE,MIT Bitcoin Expo Day One Focuses on Technology http://ift.tt/1Ssentt #Ethereum,0,0,0,False
160,arvin@vindaRd,Great overview infographic for anyone trying to wrap their heads around #Ethereum http://decentral.ca/ethereum-infographic-homestead/…,0,0,0,False
161,Christine K@JustChristineK,"Today’s #customcoffeeblend: 70% #EthiopianFancy & 30% #ArabianMochaJava. 100% @PeetsCoffee
#ETH + #MJV = #ETHMJV",0,0,0,False
165,Load Debit Card@LoadDebitCard,Ethereum Debit Card #Ethereum to #debitcard with 40+ #altcoins #bitcoin @ethereumproject http://bit.ly/debitnow,1,0,0,False
166,CyberPrestige@Cyber_Prestige,#Ethereum #blockchain #technology to the doors of Wall Street and rest of the #banking and #financial industry.,1,0,0,False
168,Ethereum Price@EthereumPrice_,"#Ethereum: Ether Price Index
1 ETH =0.025349Ƀ XBT = $10.391520 USD
Today: -8.10%⬇︎ Last 24h: -14.53%⬇︎
https://ethereum-price.com",0,0,0,False
169,Jean-Pierre Buntinx@jdebunt,"Jaxx Announces New Security Features For Ethereum and Bitcoin Wallet - The Merkle http://themerkle.com/news/jaxx-announces-new-security-features-for-ethereum-and-bitcoin-wallet/… #jaxx #bitcoin #ethereumJaxx Announces New Security Features For Ethereum and Bitcoin WalletJaxx has been one of those wallet services people seem to like from the moment they can get their hands on the software. By supporting both Ethereum and Bitcoin, the Jaxx wallet is quite versatile, lethemerkle.com",2,1,0,False
170,Ξ Fly Guy Ξ (flyguy.eth)@FlyGuyInTheSky,#ethereum Volume to 0.029000...Is very thin meaning #ETH can quickly move higher with little resistance... Also down... 0.02200 resistance.,2,0,0,False
171,Quetzalcoalt@LLbajacrypto,#Ethereum on Wall Street #fintech #bitcoin #blockchain http://satoshinews.org/2016/03/ethereum-on-wall-street.html?spref=tw…,1,0,0,False
172,fintechfolk@fintechfolk,Thanks @peterlazou for registering for FinTechFolk - http://zpr.io/Mnfj #fintech #ethereum #bitcoin #blockchain,0,0,0,False
173,Edgar tu amo y señor@edgar5495,I just won free 0.00000125 ETHER from  http://ethereumfaucet.org #ether #satoshi #freeether #faucet vía @ethereumfaucet,0,0,0,False
174,Kenny Rowe@kennyrowe,"This one of the reasons I love #ethereum so much.Quote Tweetvitalik.eth@VitalikButerin · Mar 6, 2016""Help, I'm syncing!!!"" ""Well have you tried running with the --fast flag?""",1,0,0,False
175,CRYPTO DUBAI@CryptoDubai912,"An Early Blockchain Experiment by Global Banks is Revealed https://cryptocoinsnews.com/early-blockchain-experiment-global-banks-revealed/…
#ethereum",0,0,0,False
176,adem2030@adem2030a,Free Ethereum every 5 minutes http://etherfaucet.net/?r=0x8b117a414b56571c271ac33e63ad40ea7c8c5570… #ethereum via @FreeCryptoCo,0,0,0,False
177,CRYPTO DUBAI@CryptoDubai912,"Ethereum Knocks on Wall Street Doors and Gets in Too! http://newsbtc.com/2016/03/06/ethereum-knocks-on-wall-street/…
#ethereum",0,0,0,False
178,ethereum.network@EthereumNetw,"#Ethereum explained in Spanish.Quote TweetJorge@jmiehau · Mar 6, 2016Gracias @1am7h0m4s por traducir la ilustración de Ethereum al español http://etereo.info/wp-content/uploads/2015/07/Ethereum-image-infographic-beginners-guide2.png… via @migpradel",1,0,0,False
179,[sellsunder1mmprohib]CryptoHolmes@CryptoHolmes,reminder $eth cost 50% cheaper just 5 days ago..,0,0,0,False
180,clic4bitcoin.com@clic4bitcoin,GET 100 FREE ETHEREUM HERE http://free-ethereum.com/signupin/62075 #ether #eth #ethereum,0,0,0,False
181,'Radent Mamad@radent_mamad,#ETH Big Dump.. Buy/Sell please enjoy with #java coffee*,0,0,0,False
182,Valamontes Antonis@valamontestony,Free Ethereum every 5 minutes http://ln.is/www.etherfaucet.net/zpdfg… #ethereum via @FreeCryptoCo,0,0,0,False
183,bobby Liberꜩ@b_bbyLiberty,$eth cheat sheet https://tradingview.com/x/W3Uakp8L/,0,0,0,False
185,BTCMANAGER@btc_manager,Expansion & Growth: BTCMANAGER’s Week in Review https://btcmanager.com/news/expansion-and-growth-btcmanagers-week-in-review-for-march-6/… #bitcoin #blockchain #fintech #ethereum,1,1,0,False
186,AltsAreDead?@botbot1138,if you bought #ethereum this weekend. I have no sympathy for you. sorry.,0,0,0,False
187,ethereum.network@EthereumNetw,"Decentralized Autonomous Organizations (#DAO) like @slockitproject on #Ethereum and their #SmartContracts
https://blog.slock.it/a-primer-to-the-decentralized-autonomous-organization-dao-69fb125bd3cd?gi=d5b9a05f9b4c#.99b2m6ti5…",2,2,0,False
192,Alex.eth@AlexanderFisher,#Ethereum network hashrate has passed 1 TH/s! https://etherchain.org,1,0,0,False
194,BitcoinAgile@bitcoinagile,#ethereum Knocks on Wall Street Doors and Gets in Too http://bit.ly/1YiSnl8,1,1,0,False
195,Ethereum SE@StackEthereum,"How are the account ""pictures"" used in Mist generated? http://ethereum.stackexchange.com/questions/1885/how-are-the-account-pictures-used-in-mist-generated… #ethereum #accounts #mist",0,0,0,False
196,Ethereum Price@EthereumPrice_,"#Ethereum: Ether Price Index
1 ETH =0.025357Ƀ XBT = $10.300140 USD
Today: -8.07%⬇︎ Last 24h: -15.63%⬇︎
https://ethereum-price.com",0,0,0,False
197,Alex.eth@AlexanderFisher,Replying to @jaxx_io@jaxx_io Wallet PIN was exactly what I was waiting for.  Thanks guys! @diiorioanthony #ethereum,1,0,0,False
198,Antoine.blk@a_ferron,"Top mining pool on #ethereum has 40% of the global hashrate, is it so decentralized? #blockchain",1,1,1,False
200,Cryptotrader Zgz@juanansolis,"See you #ethereum , Hello #bitcoin. Trading nonstop!",0,0,0,False
201,Ethereum SE@StackEthereum,Ethereum transaction 'Exceeds block gas limit' http://ethereum.stackexchange.com/questions/1884/ethereum-transaction-exceeds-block-gas-limit… #ethereum #gaslimit,0,0,0,False
202,Bitcoin@bitcoinpoet,Ethereum Knocks on Wall Street Doors and Gets in Too!:       submitted by    /u/antyv2k  [link]   [c... http://bit.ly/1U4mgFm #ethereumEthereum Knocks on Wall Street Doors and Gets in Too!Posted in r/ethereum by u/antyv2k • 8 points and 1 commentreddit.com,1,0,0,False
203,Bitcoin@bitcoinpoet,How will the election process to become a validator look like?: Will it be political? Will it be bas... http://bit.ly/21SS4iU #ethereum,0,0,0,False
204,Ethereum UAE@Ethereum_UAE,Decentralized Apps: Key Questions from a Bank Innovation Director http://ift.tt/1R170dp #EthereumDecentralized Apps: Key Questions from a Bank Innovation Director - CoinDeskUBS's Alex Batlin discusses the future of decentralized applications and how they can resist centralizing forces.coindesk.com,0,0,0,False
205,Frisb@pterion2910,Replying to @pterion2910@pterion2910 was it close? $eth,0,0,0,False
206,[sellsunder1mmprohib]CryptoHolmes@CryptoHolmes,"oh man, you would have to travel back in time to March 4th 2016 to have gotten $Eth at these rates :p",1,0,0,False
207,Ξ Fly Guy Ξ (flyguy.eth)@FlyGuyInTheSky,#ethereum now retraced 18.50% from highs... Where now? I think we may get new highs in next few days.,0,0,0,False
208,Bijon Mehta@bijonmehta,Ethereum Knocks on Wall Street Doors and Gets in Too! http://newsbtc.com/2016/03/06/ethereum-knocks-on-wall-street/… #fintech #wallstreet #ethereum #smartcontracts,0,0,0,False
209,ethereum.network@EthereumNetw,"Concerns about centralized apps & services on #Ethereum.
Justified or a try to squeeze disruption into an old model?Decentralized Apps: Key Questions from a Bank Innovation Director - CoinDeskUBS's Alex Batlin discusses the future of decentralized applications and how they can resist centralizing forces.coindesk.com",0,0,0,False
211,fintechfolk@fintechfolk,Thanks alex_sellam for registering for FinTechFolk - http://zpr.io/Mnfj #fintech #ethereum #bitcoin #blockchain,0,0,0,False
212,Paul du Long@pdulong,"When all the kids get their first margin call, thanks for the cheap buy #domino #eth $eth",0,0,0,False
214,kumar@kumarp_unoffici,Free Ethereum every 10 minutes http://eth-faucet.com/?r=0x30d402913237a97ea9a0eb622b2c611c843e7be5… #ethereum via @FreeCryptoCo,0,0,0,False
215,Ethereum SE@StackEthereum,What can't I open Mix? http://ethereum.stackexchange.com/questions/1882/what-cant-i-open-mix… #ethereum #mix #ide,0,0,0,False
217,Yadunandan Batchu@nandubatchu,@ETHEXIndia what is the best mobile wallet to store or use #ethereum in #India ?,1,0,0,False
219,Ethereum UAE@Ethereum_UAE,This Turing Complete Platform Aims to Work With Bitcoin http://ift.tt/1TXJDBB #Ethereum,0,0,0,False
220,ziko dakhla@ziko9213,I just won free 0.00000125 ETHER from  http://etherfaucet.org #ether #satoshi #freeether #faucet via @etherfaucet,0,0,0,False
221,BitcoinAgile@bitcoinagile,#ethereum Knocks on Wall Street Doors and Gets in Too #Bitcoin #BTC #News http://bitcoinschannel.com/ethereum-knocks-on-wall-street-doors-and-gets-in-too…,1,1,0,False
222,Ethereum SE@StackEthereum,Is it possible to embedd the UI of DApp in the blockchain? http://ethereum.stackexchange.com/questions/1881/is-it-possible-to-embedd-the-ui-of-dapp-in-the-blockchain… #ethereum #blockchain #dapp #gui,1,0,0,False
223,BitcoinBuzz vega9@BitcoinBuzzV9,FREE Ethereum faucet #eth #bitcoin http://j.mp/1Rv8zKE,0,0,0,False
224,π $ETH $MAID bullish@peeether,"yay, tomorrow i'll start pool mining $BTC @BitClub_Network http://bitclub.bz/peeether
where can $ETH be pool mined or rig rented?",0,0,0,False
225,Ethereum SE@StackEthereum,Is it possible to embedd the UI of DAPP in the blockchain? http://ethereum.stackexchange.com/questions/1881/is-it-possible-to-embedd-the-ui-of-dapp-in-the-blockchain… #ethereum #blockchain #dapp #gui,0,0,0,False
227,CRYPTOCOINTALK@cryptocointalk,#Ethereum #ETH is constipated.  Can't seem to break .03 BTC.,1,0,0,False
228,Samuel Lewis@SamuelbenLew,@VitalikButerin have you created the Internet of ownership? #ioo #ethereum,1,1,0,False
229,BitcoinAgile@bitcoinagile,#ethereum Knocks on Wall Street Doors and Gets in Too - NEWSBTC #blockchain #bitcoin http://newsbtc.com/2016/03/06/ethereum-knocks-on-wall-street…,2,3,0,False
230,fintechfolk@fintechfolk,Thanks  for registering for FinTechFolk - http://zpr.io/Mnfj #fintech #ethereum #bitcoin #blockchain,0,0,0,False
231,AltsAreDead?@botbot1138,"i HOdl some coins but certainly not #ethereum, which I dump out of principle",0,0,0,False
233,Otmaro Rivero@otmaror,#Ethereum Sunday ...,0,0,0,False
235,JuicyG@JuicyGrabs,Bitcoin's Here to Stay: Here's Why (What Is Dead May Never Die) https://peerlyst.com/posts/bitcoin-s-here-to-stay-here-s-why-tobias-merkle… #bitcoin #dash #ethereum #maidsafe,2,3,0,False
236,fintechfolk@fintechfolk,Thanks @panispieri for registering for FinTechFolk - http://zpr.io/Mnfj #fintech #ethereum #bitcoin #blockchain,1,0,0,False
237,fintechfolk@fintechfolk,Thanks @charlieyouakim for registering for FinTechFolk - http://zpr.io/Mnfj #fintech #ethereum #bitcoin #blockchain,1,0,0,False
238,Alex.eth@AlexanderFisher,Slock.It Takes DAO to 'IoT' -- Decentralized Autonomous Organizations 101 http://buff.ly/1UG4cSs #ethereum #IoT,1,0,0,False
240,Menno Pietersen@btc_feed,The #ETH growth is not just about price! #Ethereum Unique Address Growth Rate is also amazing! #theothercoin #BTC,1,0,0,False
241,Menno Pietersen@MennoPP,The #ETH growth is not just about price! #Ethereum Unique Address Growth Rate is also amazing! #theothercoin #BTC,2,0,0,False
243,Ethereum SE@StackEthereum,Mining Difficulty on Ethereum http://ethereum.stackexchange.com/questions/1880/mining-difficulty-on-ethereum… #ethereum #mining #eth #difficulty,1,0,0,False
244,indxio@indxio,#Russia Market Close || #Bitcoin: $405.74 | 388.36 EUR||  #Litecoin: 0.0079 BTC  || #Ethereum: 0.0289 BTC   || $BTC $LTC $ETH $RUB,0,0,0,False
245,Ξ Fly Guy Ξ (flyguy.eth)@FlyGuyInTheSky,#bitcoin #ethereum consolidating before next advance. Resistance at 0.038800 support at 0.025000 buyers sitting.,1,1,0,False
246,BitWaRRior@bitwarriorX,"You might just have something here for #Namecoin, if you check http://btc-e.com ! #btc #altcoins #ethereum https://twitter.com/cointrader11/status/706304674924666881…This Tweet is unavailable.",0,0,0,False
247,fintechfolk@fintechfolk,Thanks @MichaelKaloudis for registering for FinTechFolk - http://zpr.io/Mnfj #fintech #ethereum #bitcoin #blockchain,1,0,0,False
248,Ξ Fly Guy Ξ (flyguy.eth)@FlyGuyInTheSky,#ethereum #bitcoin 8 days until #PiDay believe the hype..... A new Internet era has started.,0,0,0,False
249,fintechfolk@fintechfolk,Thanks @kevin_cash for registering for FinTechFolk - http://zpr.io/Mnfj #fintech #ethereum #bitcoin #blockchain,0,0,0,False
250,fintechfolk@fintechfolk,Thanks @iamaneto for registering for FinTechFolk - http://zpr.io/Mnfj #fintech #ethereum #bitcoin #blockchain,0,0,0,False
251,introtocryptos.ca@introtocryptos,How to start trading cryptocurrencies like #bitcoin and #ethereum. Only hours remain in our 60% course discount! http://lumbridgecity.com,0,0,0,False
255,Valamontes Antonis@valamontestony,Free Ethereum every 5 minutes http://ln.is/www.etherfaucet.net/JpX8v… #ethereum via @FreeCryptoCo,0,0,0,False
256,fintechfolk@fintechfolk,Thanks @tmiket for registering for FinTechFolk - http://zpr.io/Mnfj #fintech #ethereum #bitcoin #blockchain,1,0,0,False
257,BitcoiNapoleon@hodler_btc,"#Ethereum, update geth 1.3.5 on UBUNTU, OSX

$ cd /usr/local/go-ethereum
$ git pull
$ make geth
$ /build/bin/geth version

enjoy",0,0,0,False
258,fav@btsfav,Enter for a Chance to Win 5 #Ether #Ethereum ► http://favd.xyz/1QCkTJw #favs,0,0,0,False
259,UberPay BTC Wallet@uberwallet,Free Ethereum every 5 minutes http://etherfaucet.net/?r=0x9143909c726b21a0664be413b10b1a4de51f9540… #ethereum via @FreeCryptoCo,0,0,0,False
260,CryptoWorld@CryptoWor1d,New #ethereum #Primecoin #Faucet http://goo.gl/vThTb5 let's claim up to 5000 Satoshi,0,0,0,False
261,Newton Greg@Newton_Law360,I just won free 0.00000150 ETHER from  http://etherfaucet.org #ether #satoshi #freeether #faucet via @etherfaucet,0,0,0,False
262,Altcoinix[KLKS]@Yavuzcetinkaya3,Get your free BigUp per hours 10-20 bigup http://altcoinix.com/bigup-faucet/ #altcoin #bitcoinfaucets #bitcoin #ethereum,0,0,0,False
263,fintechfolk@fintechfolk,Thanks @salvadorpartner for registering for FinTechFolk - http://zpr.io/Mnfj #fintech #ethereum #bitcoin #blockchain,0,0,0,False
264,BTC2@btcplanet,"@btcecom When was the last time you added a new innovative coin? No #XMR, no #ETH?Quote TweetMarco ฿TC@Marco_BTC · Mar 6, 2016103000 BTC volume only in last 24h...it's 42 million$ only on @Poloniex!
And finally $FCT start moving!
#AltsAreBack",0,0,0,False
265,scuro@scuro75,Mach Mit - GoEco Project #zürich #tessin #ticino #nachhaltigkeit #mobilität #app #ios #android #eth http://goeco-project.ch/index.php/de/mach-mit/…,0,0,0,False
266,Wheel of Doge@WheelofDoge,"WIN! #dogecoin - Lots and lots of #dogecoin
http://wheelofdoge.com
#bitcoin #altcoins #eth #maidsafe #moneroGIF",0,0,0,False
267,Ethereum UAE@Ethereum_UAE,Bitcoin Devs Could Learn a Lot from BSD http://ift.tt/1QWKM5M #Ethereum,1,0,0,False
270,fintechfolk@fintechfolk,Thanks @andreasmav1 for registering for FinTechFolk - http://zpr.io/Mnfj #fintech #ethereum #bitcoin #blockchain,0,0,0,False
273,Maksim@balance_ra,"#bitcoin has now a classic ""Product"" problem. It happens when you start neglecting your customers. That's why #ethereum wins for the moment.",1,0,0,False
274,fintechfolk@fintechfolk,Thanks @_digitalbanking for registering for FinTechFolk - http://zpr.io/Mnfj #fintech #ethereum #bitcoin #blockchain,1,0,0,False
276,fintechfolk@fintechfolk,Thanks @ericbarbier for registering for FinTechFolk - http://zpr.io/Mnfj #fintech #ethereum #bitcoin #blockchain,0,0,0,False
277,alishop@serg21895,ETHTRADE - CRYPTO 2.0 INVESTING http://ethtrade.org #ethereum #eth #ethtrade #bitcoin #crypto2.0 #investment,0,0,0,False
278,Илья Батунов@wetel228,ETHTRADE - CRYPTO 2.0 INVESTING http://ethtrade.org #ethereum #eth #ethtrade #bitcoin #crypto2.0 #investment,0,0,0,False
279,Uğur Açık@uguracik,ETHTRADE - CRYPTO 2.0 INVESTING http://ethtrade.org #ethereum #eth #ethtrade #bitcoin #crypto2.0 #investment,0,0,0,False
281,Bitcoin Is The KING @EthereumPredict,"#bitcoin is uptrending ! #ethereum is still in a negotiation phase, resistance is tested. But it should go up too soon ! :)",0,0,0,False
282,Николай Кривоблоцкий@Zont72,ETHTRADE - CRYPTO 2.0 INVESTING http://ethtrade.org #ethereum #eth #ethtrade #bitcoin #crypto2.0 #investment,1,0,0,False
285,Family Farm Seaside@FamilyFarmSeasi,RT AmanMerchant Top #blockchain and #fintech movers and shakers to watch in 2016 - #ethereum #IoT #gaming http://ibtimes.co.uk/top-blockchain-fintech-movers-shakers-watch-2016-1533840…,0,0,0,False
287,Глеб@Zz3GHbB4doSCU8a,ETHTRADE - CRYPTO 2.0 INVESTING http://ethtrade.org #ethereum #eth #ethtrade #bitcoin #crypto2.0 #investment,1,0,0,False
288,Генадий Ефремов@dancovoz,ETHTRADE - CRYPTO 2.0 INVESTING http://ethtrade.org #ethereum #eth #ethtrade #bitcoin #crypto2.0 #investment,0,0,0,False
289,alferov vasiliy@alferov_vasiliy,Free Ethereum every 10 minutes http://eth-faucet.com/?r=0x1ec8bd802c32ab3a1177256f814676b67611443c… #ethereum via @FreeCryptoCo,0,0,0,False
291,Menno Pietersen@MennoPP,"Don't know why, but I feel like this will be a super Sunday for #ETH #Ethereum... Up and up we go",0,0,0,False
292,Наталия Варламова@warnat3,ETHTRADE - CRYPTO 2.0 INVESTING http://ethtrade.org #ethereum #eth #ethtrade #bitcoin #crypto2.0 #investment,0,0,0,False
293,cebotari igor@IorguzIgor,ETHTRADE - CRYPTO 2.0 INVESTING http://ethtrade.org #ethereum #eth #ethtrade #bitcoin #crypto2.0 #investment,0,0,0,False
295,Menno Pietersen@MennoPP,Replying to @EthereumPredict@EthereumPredict I am buying #ETH #Ethereum every dip... Very bullish long term! Got my profit out long ago.,1,0,0,False
296,Patrizio Stavola@halovast,"“Organisations That Create Themselves (through #Ethereum)” by @simondlrOrganisations That Create Themselves (through Ethereum)One of the great features of cryptocurrencies is that one can create something that acts as ownership in a platform, without requiring a…medium.com",1,0,0,False
302,Ethereum SE@StackEthereum,Is there a comprehensive reference list of all Serpent commands? http://ethereum.stackexchange.com/questions/1873/is-there-a-comprehensive-reference-list-of-all-serpent-commands… #ethereum #solidity #serpent,1,1,0,False
303,Issam Kadiri@IssamKadiri,Organisations That Create Themselves (through #Ethereum) http://flip.it/vqbSU #blockchainUntitledShared via Flipboardflip.it,1,0,0,False
304,fintechfolk@fintechfolk,Thanks @fvrqan for registering for FinTechFolk - http://zpr.io/Mnfj #fintech #ethereum #bitcoin #blockchain,0,0,0,False
305,BitcoinAgile@bitcoinagile,About Bata | Decentralized Barter Currency #Beta #Ethereum http://bata.io/about,1,0,0,False
306,Vatican Bank@VaticanBank,"Replying to @ThisIsNuse.@ThisIsNuse it's not that old, looks like #Beta [ http://bata.io/about ] have the same principle as #Ethereum, What you think?",1,1,2,False
307,bobby Liberꜩ@b_bbyLiberty,$ETH going to walk the red line or blastoff? #bitcoin https://tradingview.com/x/xiFK9EOH/,0,0,0,False
309,BitcoinAgile@bitcoinagile,#ethereum Price Weekly Analysis  Uptrend Remains Intact #news #channel #Bitcoin #BTC http://bit.ly/21S5RGB,1,0,0,False
310,Дамир Дульмухаметов@damirchekon,ETHTRADE - CRYPTO 2.0 INVESTING http://ethtrade.org #ethereum #eth #ethtrade #bitcoin #crypto2.0 #investment,0,0,0,False
311,Anondran@AnondranCrypto,"Wanna get CRYPTORICH? Get a huge loan. Diversify on Altcoins.Buy,Hodl,Wait, Sell. KABOOM. Retirement  this year #bitcoin #ethereum #altcoins",1,0,0,False
312,indxio@indxio,#China Market Close || #Bitcoin: $401.05 | 382 EUR||  #Litecoin: 0.0079 BTC  || #Ethereum: 0.0285 BTC   || $BTC $LTC $ETH $RMB,0,0,0,False
313,Raul Bataller@RaulBataller,I just exchanged #ETH with #BTC using @Coincap_io. Powered by @ShapeShift_io,2,0,0,False
314,Никита@nouesda,ETHTRADE - CRYPTO 2.0 INVESTING http://ethtrade.org #ethereum #eth #ethtrade #bitcoin #crypto2.0 #investment,0,0,0,False
315,Людмила Бекренева@Ludmilka567,ETHTRADE - CRYPTO 2.0 INVESTING http://ethtrade.org #ethereum #eth #ethtrade #bitcoin #crypto2.0 #investment,0,0,0,False
316,Abi Aryan@GoAbiAryan,Which one do you like more #bitcoin or #ethereum ? @AmanKalra78,1,0,0,False
317,Alexander Voynov@AlexanderVoynov,ETHTRADE - CRYPTO 2.0 INVESTING http://ethtrade.org #ethereum #eth #ethtrade #bitcoin #crypto2.0 #investment,0,0,0,False
318,Εлена Ηовикова@kardanoww,ETHTRADE - CRYPTO 2.0 INVESTING http://ethtrade.org #ethereum #eth #ethtrade #bitcoin #crypto2.0 #investment,0,0,0,False
320,BitcoinAgile@bitcoinagile,#ethereum Price Weekly Analysis  Uptrend Remains Intact - NEWSBTC #bitcoin #news #crypto http://bit.ly/21S1vPU,2,1,0,False
330,Ξ Fly Guy Ξ (flyguy.eth)@FlyGuyInTheSky,"@BitcoinWrld #ethereum at $11 today will be like.... #OMG in 5 years time. People will be saying ""why didn't I buy back then!"" Not pumping..",0,0,0,False
331,Alunaut   @onemanatatime,"Replying to @Assembloid@Assembloid that'd be insane. but yeah, $XMR definitely a strong contender, along with $ETH $FCT $MAID",1,0,0,False
332,Кира Корнус@kira199608,ETHTRADE - CRYPTO 2.0 INVESTING http://ethtrade.org #ethereum #eth #ethtrade #bitcoin #crypto2.0 #investment,0,0,0,False
334,Ξ Fly Guy Ξ (flyguy.eth)@FlyGuyInTheSky,"@BitcoinWrld people are pulling out of #bitcoin into ""useful"" alternatives such as #xrp #ethereum. You get a currency with benefits.",0,0,0,False
335,Ξ Fly Guy Ξ (flyguy.eth)@FlyGuyInTheSky,@BitcoinWrld no wonder when #ethereum is frightening all the miners! All those ASIC miners... Will be redundant.,0,0,0,False
336,fintechfolk@fintechfolk,Thanks @bobbyong for registering for FinTechFolk - http://zpr.io/Mnfj #fintech #ethereum #bitcoin #blockchain,1,0,0,False
340,fintechfolk@fintechfolk,Thanks Jwithfogstrup for registering for FinTechFolk - http://zpr.io/Mnfj #fintech #ethereum #bitcoin #blockchain,0,0,0,False
342,Alexandr Livanov@AlexLivan,ETHTRADE - CRYPTO 2.0 INVESTING http://ethtrade.org #ethereum #eth #ethtrade #bitcoin #crypto2.0 #investment,2,0,0,False
344,Геннадий@sko64yaru,ETHTRADE - CRYPTO 2.0 INVESTING http://ethtrade.org #ethereum #eth #ethtrade #bitcoin #crypto2.0 #investment,0,0,0,False
345,Ξ Fly Guy Ξ (flyguy.eth)@FlyGuyInTheSky,#ethereum #bitcoin Has Bitcoin dropped solely because of #eth rise? When ether rises the Mcap of #btc declines.,2,0,0,False
348,Иванова Елена@kostehkao5,ETHTRADE - CRYPTO 2.0 INVESTING http://ethtrade.org #ethereum #eth #ethtrade #bitcoin #crypto2.0 #investment,0,0,0,False
349,Ethereum SE@StackEthereum,How to find contract's address? http://ethereum.stackexchange.com/questions/1871/how-to-find-contracts-address… #ethereum #blockchain #contractdeployment,2,1,0,False
350,Eric buteera@eric_buteera,https://youtu.be/0ePQKD9iBfU the best diss song of all times #Ether @Nas @jay z @913CapitalFM @Mizzflav,0,0,0,False
351,ethereum.network@EthereumNetw,"New updates to #Ethereum news compilation https://reddit.com/r/ethtrader/comments/45shqc/boneheads_ethereum_news_to_come_updated/… and the ETHtrader FAQs https://reddit.com/r/ethtrader/wiki/faq…Bonehead's Ethereum News to Come (Updated)NEWs To Come - ` last updated - April 5th, 2016 ` Ethereum’s ecosystem is growing so quickly, very exciting news has a habit of coming out of...reddit.com",1,1,0,False
352,BitcoinAgile@bitcoinagile,#ethereum: the World Computer http://snoik.com/ethereum-the-world-computer…,2,0,0,False
353,MrCrisstian@MrCrisstian,ETHTRADE - CRYPTO 2.0 INVESTING http://ethtrade.org #ethereum #eth #ethtrade #bitcoin #crypto2.0 #investment,1,0,0,False
354,FinTechCrunch@ftcrunch,"RT BobSummerwill: Since you wrote this just TWO days ago:

#Ethereum nodes 5187  <--- LOOK!
#Bitcoin nodes 6956

B… https://twitter.com/donaldmcintyre_/status/705479479393591296…This Tweet is unavailable.",0,0,0,False
356,ivan gontarev@goivvlad,ETHTRADE - CRYPTO 2.0 INVESTING http://ethtrade.org #ethereum #eth #ethtrade #bitcoin #crypto2.0 #investment,1,0,0,False
357,Sillytuna (hiring devs) @sillytuna,High level summary on reddit of some #ethereum risksLogic please - Anyone who feels ETHs marketcap should be less than...Posted in r/ethtrader by u/nbr1bonehead • 37 points and 52 commentsreddit.com,2,0,0,False
358,John Gerryts@phonikg,Replying to @BobSummerwill@BobSummerwill Exactly what I mentioned today when someone tried to compare #ethereum now to #bitcoin in 2011 #itsnotjustthepricegoingup,2,1,1,False
359,Ethereum SE@StackEthereum,Is there a comprehensive reference list of all Solidity commands? http://ethereum.stackexchange.com/questions/1870/is-there-a-comprehensive-reference-list-of-all-solidity-commands… #ethereum #contractdevelopment,0,0,0,False
360,Ξ Fly Guy Ξ (flyguy.eth)@FlyGuyInTheSky,"#bitcoin #ethereum well #ether really took off yesterday. It seemed it was unstoppable... It then dropped about 15%... A ""healthy"" pause.",0,0,0,False
362,Ξ Fly Guy Ξ (flyguy.eth)@FlyGuyInTheSky,Replying to @FlyGuyInTheSky@FlyGuyInTheSky #ethereum #bitcoin Only 2 hrs left to plat in my poll....,0,0,0,False
363,всеслав бабаев@BabaevVseslav,ETHTRADE - CRYPTO 2.0 INVESTING http://ethtrade.org #ethereum #eth #ethtrade #bitcoin #crypto2.0 #investment,1,0,0,False
364,Вадим Гайнаншин@wer281289,ETHTRADE - CRYPTO 2.0 INVESTING http://ethtrade.org #ethereum #eth #ethtrade #bitcoin #crypto2.0 #investment,1,0,0,False
365,Ethereum SE@StackEthereum,"Protips needed: passwords, usernames and links handling http://ethereum.stackexchange.com/questions/1869/protips-needed-passwords-usernames-and-links-handling… #ethereum #password",0,0,0,False
366,Юрий Мелекесов@MYurai1,ETHTRADE - CRYPTO 2.0 INVESTING http://ethtrade.org #ethereum #eth #ethtrade #bitcoin #crypto2.0 #investment,2,0,0,False
367,Vindyne8@Vindyne8,"#BitSend $BDS | Bittrex, Safecex, Cryptopia | New Update 1.0.0.1 http://goo.gl/yqaNvR #btc #eth @wigitgetit #RT",13,15,0,False
375,fintechfolk@fintechfolk,Thanks @jkwade for registering for FinTechFolk - http://zpr.io/Mnfj #fintech #ethereum #bitcoin #blockchain,0,0,0,False
376,андрей фетисов@fetisov1977,ETHTRADE - CRYPTO 2.0 INVESTING http://ethtrade.org #ethereum #eth #ethtrade #bitcoin #crypto2.0 #investment,0,0,0,False
377,Ксения Курлина@applepink11,ETHTRADE - CRYPTO 2.0 INVESTING http://ethtrade.org #ethereum #eth #ethtrade #bitcoin #crypto2.0 #investment,1,0,0,False
378,Андрій Черепанин@0Monc0,ETHTRADE - CRYPTO 2.0 INVESTING http://ethtrade.org #ethereum #eth #ethtrade #bitcoin #crypto2.0 #investment,2,0,0,False
379,Mast3rMind@Dr3Ducati,"#ETHER Was slept on, RAW talent at its finest. Real musicians which is rare in this MicrowaveEra©",1,1,0,False
380,Ethereum SE@StackEthereum,Blind Auction: Reveal>>>How to successfully fill data fields http://ethereum.stackexchange.com/questions/1868/blind-auction-revealhow-to-successfully-fill-data-fields… #ethereum #sha3,1,1,0,False
