,user,text,likes,retweets,replies,is_thread
0,Scott Stevenson @scottastevenson,#ethereum prediction for the day #bitcoin #cryptocurrency,5,2,2,False
1,Ed@bitofpotential,'' Marketing is about Values'' #bitcoin #Ethereum #p2pworld #IDeaOS #vision,1,0,0,False
2,superskalar@marcobahn,"who wants to join me in this #ethereum #gamejam in #zrh #züri? check this out:Ethereum JamSat, Feb 27, 2016, 10:00 AM: Ethereum is a new kind of blockchain system being developed by a non-profit in Zug.https://www.ethereum.org/The interesting part for us is that you can deploy ""smart contrmeetup.com",2,0,0,False
3,Bitcoin News@BTC_Tipster7,"Invest to Future now: https://bitly.com/50shares
#btc #dash #technology #usd #share #ltc #doge #eth #invest #venture #fintech #profit #gain",2,0,0,False
4,Expanse@ExpanseOfficial,"http://bitcoinprbuzz.com/blockchain-based-dapps-expanse-project-exp-soars-to-new-heights-in-community-growth-utility-and-volume/… PR campaign started - Videos, publications, interviews coming #EXP #EXPANSE #ETH #ETHEREUMBlockchain Based Dapps Expanse™ Project [EXP] Soars to New Heights in Community Growth, Utility and...Bitcoin Press Release: Expanse volume hit a record high of more than $2.7 Million trading on Poloniex on 2/11/16. The Expanse blockchain enables a stable, bordebitcoinprbuzz.com",5,1,0,False
5,WinWire CTO@WinWireCTO,"word soup - but good stuff - #Azure #Blockchain as a Service (BaaS), #Ethereum client, Blockchain is the technology…Microsoft continues its blockchain-as-a-service push | ZDNetMicrosoft is beefing up efforts to turn blockchain shared transactional-ledger technology into an Azure cloud service.zdnet.com",1,0,0,False
6,Ethereum@ethereum,"Mist Wallet 0.4.0 (Beta 7) with pre-sale import is now available for download! https://github.com/ethereum/mist/releases/tag/0.4.0… #Ethereum #blockchain #walletRelease Wallet 0.4.0 (Beta 7) · ethereum/mistThis release includes an easier on boarding process that guides new users into the first steps for ethereum, while the blockchain syncs: Easy starting up on the testnet, if the user is not interes...github.com",48,71,3,False
7,Bitcoin Is The KING @EthereumPredict,As predicted 9h ago : Going down to 1000 satoshis.. #ether [..] #ethereum.. It might bounce there then go to 700 satoshis..,0,0,0,False
8,Neu@neucrypto,"Decentralized Apps or #DApps are #Blockchain Based Applications built in platforms like #Bitcoin, #Ethereum and #Lisk

Dapps are the future",4,3,0,False
9,LocalDayz@localdayz,#ethereum pool avaible. Use http://pool.laintimes.com for join US. #cryptocurrency #eth,1,0,0,False
10,I am Byroo@AmbyR00,Looks like #ETH is falling. #Ethereum.,1,0,0,False
11,Andrea Cattabriga@andrecatta,The first virtual constitution: dreams getting closer to reality #bitnation #ethereum #governance #blockchain http://buff.ly/1QisMJ0,6,0,0,False
12,Neu@neucrypto,"Only around an hour left!
Vote now #Lisk vs #Ethereum
#ETH #BTC #Bitcoin #Cryptocurrencies",0,0,0,False
13,Keyare@Keyare_,"6 best altcoins to watch in 2016. So far so good @Syscoin #ethereum http://cryptorials.io/10-altcoins-to-watch-in-2016/… #bitcoin6 of the Best Altcoins to Watch in 2016 | CryptorialsWhat are the best altcoins for 2016? Please note: this article is starting to get a little bit old, please take a look at this year’s post for the best […]cryptorials.io",5,8,0,False
14,Julie Nicolas@iamjulienicolas,Bitcoin falls as Ethereum rises #blockchain #Bitcoin #cryptocurrency #ethereum http://nexchange.com/article/8326,2,1,0,False
15,heyrobok@heyrobok,"As of now, 4 TRI equals 0.0040012 #BTC. https://bittrex.com/Market/Index?MarketName=BTC-TRI… buy n hodl! $TRI $BTC #altcoins #dogecoin #ETH #bitcoin #cryptocurrency",1,2,0,False
16,FailCommunity@FAILCommunity,Buy #Ethereum @ 0.01 - 0.011 #BTC and enjoy the ride. :) #ETH #fintech,3,0,0,False
17,Plutus@plutus,Make contactless payments & earn a reward on #Blockchain –Help us win @FinTechNL #EFTA16 #Fintech #Ethereum #Bitcoin http://ow.ly/YmkKk,3,2,0,False
18,MonetaryUnit@MonetaryUnit,"$MUE is THE #crypto payment in two entire shopping malls in #Vegas.
Over 90+ stores, 1 roof
#Bitcoin #dash #ethereum
https://bitcointalk.org/index.php?topic=778322.msg13670018#msg13670018…",3,3,0,False
19,Cargo@CryptoCargo,"#ethereum and #bitnation come together to make historyBitNation is inserting its constitution into the Ethereum...Susanne Tarkowski Tempelhof of http://bitnation.co teams up with Alexander Van de Sande, creator of the ethereum.org website and the...reddit.com",6,5,0,False
20,Monax@monaxHQ,"Motel, money, marmot, madness. @eris_ltd is on AWS. Run @BigchainDB, #Ethereum, @Bitcoin, @openbazaar, etc. etc...

https://blog.erisindustries.com/products/2016/02/16/aws/…",6,3,0,False
21,Sinz @Sinzfeldt,ETH perma-bulls right now $Eth #Ethereum,2,1,0,False
22,Sigmund@CryptoTherapist,Rip $ETH & Moon $BTC,4,1,0,False
23,Michael@misterigl,"Ukraine Government Plans to Trial #Ethereum #Blockchain-based Election PlatformUkraine Government Plans to Trial Ethereum Blockchain-Based Election PlatformA group of Ukrainian officials signed a memorandum late last week to move multiple levels of elections to the Ethereum blockchain using E-vox, a platformbitcoinmagazine.com",1,0,0,False
24,Ecologia Digital 𐃏@josemurilo,"BitNation #Estonia: virtual counterpart of citizenship, gov functions provided in a decentralized manner - http://forklog.net/?p=1368 #ethereum",3,3,0,False
25,Pirate Party Weekly@PiratePartyINT,Mist Wallet 0.4.0 Beta 7 w/pre-sale import https://github.com/ethereum/mist/releases/tag/0.4.0… #Ethereum #blockchain #devops #indiedev #bitcoin,5,8,0,False
26,Joerg Resch@joergresch,Congrats @UjoMusic for your work with @imogenheap on the future of a #blockchain #ethereum based music industry. https://alpha.ujomusic.com/#/imogen_heap/tiny_human/tiny_human…,3,3,0,False
27,Christopher Allsop@stealth2377,#bitcoin and #ethereum comes to the end user with an #Android wallet that switches between the currencies. http://ow.ly/YmWwB,1,0,0,False
28,wawin@wawin,"My face when I almost got margin called shorting $eth but it's now dumping hard and making me money

 #ethereum0:0039 views",0,0,0,False
29,fav@btsfav,Enter for a Chance to Win 5 #Ether #Ethereum ► http://favd.xyz/1olYf0P #favs,2,3,0,False
30,Jack@jackfru1t,Replying to @jackfru1t.@jackfru1t Another perspective. #Bitcoin,17,6,4,False
31,Jack@jackfru1t,.@jackfru1t $ETH has been leading $BTC. In a few months #bitcoin chart will look like #ethereum now,17,8,4,False
32,martin ➬@martinkrafft,"This curve could be your standard company stock, right? But it's #ethereum cc.#bitcoin",1,0,0,False
33,Vindyne8@Vindyne8,Check out the #creditbit website https://creditbit.org #btc #eth #bts #ltc #crypto #fintech @Bitcoin_Rush @BittrexExchange @Poloniex #RT,13,13,0,False
34,"David """" Golumbia@dgolumbia","cryptocurrency trading: just like the stock market, but without the rationality https://poloniex.com #bitcoin #ethereum #blockchain",1,0,0,False
35,indxio@indxio,#Russia Market Close || #Bitcoin: $402.77 | 377.85 EUR||  #Litecoin: 0.0078 BTC  || #Ethereum: 0.0122 BTC   || $BTC $LTC $ETH $RUB,0,0,0,False
36,FailCommunity@FAILCommunity,"""#Ethereum looks like #Syria now."" via @Poloniex trollbox. #ETH #cryptocurrency #fintech",1,1,0,False
37,CryptoCompare@CryptoCompare,#ETH down 15% to Ƀ 0.0119 ($ 4.71/€ 4.29). Have we reached the bottom of the bubble pop? https://cryptocompare.com/coins/eth/overview/BTC…,0,0,0,False
38,Ming Chan@mingchan88,"Just installed and tested the #Jaxx chrome extention. Easy + intuitive.  :) #ethereum #walletQuote TweetJaxx Liberty@jaxx_io · Feb 15, 2016Jaxx Chrome Extension uploaded to the Chrome store. Might take up to 60 minutes to be live. #bitcoin #ethereum",5,8,0,False
39,dj Thistle@DJThistle01,This is exactly why I said to wait on the second coupon yesterday. Dipping nice though. $ETH #ethereum chart https://tradingview.com/x/X3h0Nnyx/,2,1,0,False
40,CSR info@CSR_RT,RT @ BusinessPoverty: Welcome and thank you to our latest member MJHFSMike MJH Financial Solutions! http://bit.ly/1PCwLww  #business #eth…,0,0,0,False
41,martin ➬@martinkrafft,"#Ethereum explained to to… my mum, by @angelomilan #infographic
https://medium.com/@angelomilan/ethereum-explained-to-my-mom-infographic-673e32054c1c#.a3ktdj4pv…",1,1,0,False
42,Fabian Vogelsteller@feindura,"#Ethereum-Wallet 0.4.0 with pre-sale import released!
https://reddit.com/r/ethereum/comments/463igs/ethereumwallet_040_with_presale_import/…",13,10,0,False
43,CRYPTOCOINTALK@cryptocointalk,#Jaxx Releases #Chrome Extension For #Bitcoin and #Ethereum - https://cryptocointalk.com/topic/44801-themerkle-jaxx-releases-chrome-extension-for-bitcoin-and-ethereum/… #BTC #ETH,4,0,0,False
44,Ether@etherfaucet,Enter for a Chance to Win 5 #Ether #Ethereum https://wn.nr/jE4k5b,1,0,0,False
45,Crypto_Lobbyist@CryptoLobbyist,"#eth on fire #ethereum  huge pullback.Quote TweetCryptOrca@CryptOrca · Feb 16, 2016Replying to @CryptOrca@CryptOrca $ETH #ethereum Dat wall ... Goliath gonne get crushed or not lol",0,0,0,False
46,Menno Pietersen@MennoPP,The more #eth #ethereum stays between 3 -  4.5 euro and does not really crash the more it believe it will truly go up! #cryptocurrency #btc,1,0,0,False
47,Charles-Abner DADI@DadiCharles,Unpacking the term ‘Smart Contract’ #ethereum #BTC #fintech http://bit.ly/215SPFa,10,8,0,False
48,ethereum.network@EthereumNetw,".@MyBitNation on #Ethereum, see how the first virtual #constitution got created on the #blockchain.
http://youtu.be/x9UR7aVlF1A",2,2,0,False
49,TenaciousC@T3naciousC,MR. $ETH sais thanks to them who bought the top from him! #RememberWhenTheySaidItWouldNeverGoDownGoodTimes,2,1,0,False
50,Kevin Osterling@kevin_osterling,PEOPLE-COIN #Ethereum variation: Every mined block includes a coinbase tx to a DAO that distributes money to people in equal parts #Bitcoin,1,0,0,False
51,Lisk@LiskHQ,"The Lisk team is not associated with the Reddit user /u/liskhq who is trolling Ethereum users. Please ignore him. 

https://reddit.com/user/liskhq",4,5,1,False
52,Lisk@LiskHQ,"Here is my official response on the Ethereum subreddit regarding the troll. 

https://reddit.com/r/ethereum/comments/461z6r/uliskhq_is_no_official_representative_of_the_lisk/…
#ethereum #cryptocurrency/u/liskhq is no official representative of the Lisk Team!Hello Ethereum community, Hello /u/vbuterin, /u/thehighfiveghost, /u/avsa, /u/frozeman, /u/crypto-jesus, /u/ViggenPi, /u/Souptacular and...reddit.com",5,7,0,False
53,Koen Waasdorp@Koen_Waasdorp,"Reading up on #ethereum, some cool developments happening. Can anyone tell me more / send me articles / give advice? #blockchain #ether",2,1,1,False
54,Veritrader@VeriTrader,@Vericoin Top dev team + Solid fundamentals + Uptrend = Buy the dips $vrc #Bitcoin $ETH,6,3,0,False
55,BitcoinAgile@bitcoinagile,Ethereum Alternative Lisk Announces ICO With ShapeShift – CoinSpeaker #ethereum #lisk http://coinspeaker.com/2016/02/16/ethereum-alternative-lisk-announces-ico-with-shapeshift…,1,1,0,False
56,Collin Crypto@CollinCrypto,.@CollinCrypto not even a strong bounce off 0.01.  ouch hahaha  $eth #ethereum,1,0,0,False
57,GravityCoin - [ Not giving away any ETH ]@GravityCoin_GXX,Jaxx ^ #Releases #Chrome #extension For #Bitcoin and #ethereum http://themerkle.com/news/jaxx-chrome-extension-for-bitcoin-and-ethereum-released/… #wallet #cryptocurrency #Fintech2016 #ip #technology,0,0,0,False
58,Chris Ellis@MrChrisEllis,"OH ""Ether: you can't even buy drugs with it"" #Ethereum (not mine, I promise)",3,0,0,False
59,Moon Explorer@Moonexplorer1,"#Science or #ScienceFiction? The #Ether was considered the #medium in which #mass were ""floating"". #Rejected in favor of #Relativity.....",0,0,0,False
60,Wolfmetric@Wolfmetric,"Sandell the second big activist fund to blow out of $BKD last quarter after Jana earlier. Also sold down $QCOM, $SUNE, $BOBE, $ETH",2,0,0,False
61,Adam@CryptoDealer,$ETH money into $XMR would be nice,2,0,0,False
62,bxxa@boxxa,The biggest winner from the $ETH pump was @Poloniex,9,1,2,False
63,John Light | lightco.in@lightcoin,".@RSKsmart is to #ETH as Uber is to taxi medallions.

https://aei.org/wp-content/uploads/2015/03/taxiuber.jpg… https://twitter.com/GreggDourgarian/status/699655099598110720…This Tweet is unavailable.",1,0,0,False
64,Lord $RayDrake@Lord_Ashdrake,"but but but i thought $ETH was better than #BTC?
wat is happeningz0r0z0rz0rz0 x0x0x0x

fucking idiots",2,1,0,False
65,bxxa@boxxa,$ETH is dumping harder than the snow in Buffalo.,1,0,0,False
72,Lord $RayDrake@Lord_Ashdrake,holy fucking $ETH,0,0,0,False
73,bxxa@boxxa,I'm tempted to go through my feed and retweet everyone who gave me shit about ragging on $eth,2,0,0,False
74,Dennahz@Dennahz,"$ETH profits will flow into .... $nameyourcoin. Nope, they just keep their $BTC for the halvingpump and then dump on you.",3,1,1,False
75,Barbara Douglas@bd_259,RT TonySwish: Sweet! The first ethereumproject meetup in Detroit! http://ift.tt/1oI0GuK #ethereum #detroit #Ann… http://goo.gl/vjzYj9,0,0,0,False
76,Expanse@ExpanseOfficial,https://cryptocoinsnews.com/81453-2/ Another publication for Expanse #EXP #EXPANSE #ETH #ETHEREUM,1,0,0,False
77,CryptKeeper@CryptKeeperBTT,"Ukraine Government Plans to Trial #Ethereum #Blockchain-based Election Platform
 https://bitcoinmagazine.com/articles/ukraine-government-plans-to-trial-ethereum-blockchain-based-election-platform-1455641691…",0,0,0,False
78,Ethereum SE@StackEthereum,Can you input decimals number in smart contract? http://bit.ly/1RL0CWc #ethereum,0,0,0,False
80,Fortune. Bit by Bit!@FortuneBitXBit,John Light : @lightcoin: .@RSKsmart is to #ETH as Uber is to taxi… http://sh.st/WLX2s #BitCoin,0,0,0,False
82,Victoria Adams@ToriinDC,#Ethereum Alternative Lisk Announces ICO With ShapeShift – New Open Source Dapp & Sidechain Platform http://bit.ly/1Swj7yR,0,0,0,False
83,Macrochip@Macr0chip,A wild guess based on knowledge of current crypto-developments. #Bitcoin #Ethereum #Augur #DashDC #Maidsafe,0,0,0,False
84,Ming Chan@mingchan88,"Official #Ethereum Developer Logs are here! https://github.com/ethereum/diary/ Latest entry: ""Week 7"" #JeffWilcke Go & C++ newsQuote TweetJΞFF@jeffehh · Feb 12, 2016#ethereum developer diary: entry 2 https://reddit.com/r/ethereum/comments/45e3kp/ethereum_developer_diary_entry_2/…",2,0,0,False
86,Ethereum SE@StackEthereum,Will contracts on Frontier be wiped before the move to Homestead? http://tinyurl.com/htey7zv #ethereum,0,0,0,False
90,Craig C. O'Connor Jr@ccojr,"O  #divine  #Ether and  swift winged winds ^

And river fountains, Ocean's countless… https://instagram.com/p/BB3NaFEo8rA/",0,0,0,False
95,kane@btcunt,ship in btc to this address.... when it gets to 0.06 i will throw the rest in to list #eth @YobitExchange #good #alts #deeds #btcunt,2,0,0,False
97,Ethereum SE@StackEthereum,Option to give passphrase via web interface http://tinyurl.com/gnq7x3a #ethereum,0,0,0,False
99,@mariuskarma@mariuskarma,"@BitCoin, but which one?! 
 #Bitcoin
#Arch
#BitCrystals
#Blackcoin
#BitcoinDark
#Ether
https://shapeshift.io",0,0,0,False
100,Hannes Grassegger@HNSGR,Applied theory: #speculativeRealism & digital currency #ether,0,0,0,False
101,Joe Schwartz@businessatscale,Over 1 Million #Ethereum (ETH) Blocks Have Been Mined http://ow.ly/3bk10x,0,0,0,False
102,AltcoinLive bot@AltcoinLiveBot,updated $ETH buywall 16.0btc @ 0.00980000 http://altcoinlive.com/bittrex-eth-btc #altcoinlive (change -0.000779),0,0,0,False
103,AltcoinLive bot@AltcoinLiveBot,updated $ETH buywall 16.7btc @ 0.01057900 http://altcoinlive.com/bittrex-eth-btc #altcoinlive (change 0.000779),0,0,0,False
106,Kevin Osterling@kevin_osterling,"#Ethereum  dialy tx volume US$15MM, less than 1/5 of #bitcoin Thats the measure that matters #crypto",1,0,0,False
107,Nick Zeeb@NickZeeb,"Microsoft has fielded a C++ Ethereum client and is working on an Ethereum on Windows Server offering
http://zdnet.com/article/microsoft-continues-its-blockchain-as-a-service-push/… #ethereum",1,0,0,False
108,Monkam@CryptoMonkam,This $ETH dump have create great reentry on some AltCoins,0,0,0,False
109,BitcoinAgile@bitcoinagile,What Sparked the Cambrian Explosion? #ethereum http://bit.ly/1R6Fwj3,2,0,0,False
110,AltcoinLive bot@AltcoinLiveBot,new $ETH buywall 16.0btc @ 0.00980000 http://altcoinlive.com/bittrex-eth-btc #altcoinlive,0,0,0,False
112,How To Get Bitcoins  #KBF@htgbitcoins,Mist Wallet 0.4.0 (Beta 7) with pre-sale import is now available for download https://github.com/ethereum/mist/releases… #Ethereum,0,0,0,False
114,Bitcoin Is The KING @EthereumPredict,This Pump&Dump pattern is awesome ! Nice whales behind such moves ! #ethereum #ether,0,0,0,False
115,AltcoinLive bot@AltcoinLiveBot,removed $ETH buywall 18.6btc @ 0.01045446 http://altcoinlive.com/bittrex-eth-btc #altcoinlive,0,0,0,False
116,AltcoinLive bot@AltcoinLiveBot,new $ETH buywall 18.6btc @ 0.01045446 http://altcoinlive.com/bittrex-eth-btc #altcoinlive,0,0,0,False
120,Bitcoin Is The KING @EthereumPredict,This drop is going to be AMAZING :D #ethereum #ether,0,0,0,False
121,Bitcoin Is The KING @EthereumPredict,target is 700 satoshis #ethereum #ether,0,0,0,False
122,All Things Cheer@worldccheer,Can't believe we made it  so glad to have you here @akramcoco @isabellii22 #pastpresentfuture #ethiopianfood #eth…,0,0,0,False
123,Bitcoin Is The KING @EthereumPredict,"Sell now, price is high #ethereum #ether :)",0,0,0,False
124,Bitcoin Is The KING @EthereumPredict,#Ethereum #ether prediction..,0,0,0,False
125,AltcoinLive bot@AltcoinLiveBot,removed $ETH buywall 12.3btc @ 0.00950000 http://altcoinlive.com/bittrex-eth-btc #altcoinlive,0,0,0,False
128,Đaniel McClure@danielmcclure,The newest version of #Mist wallet (0.4.0)for #Ethereum is out and it lets you import crowdsale tokens - https://github.com/ethereum/mist/releases/tag/0.4.0…,0,0,0,False
130,Collin Crypto@CollinCrypto,I've got a feeling that the http://bitmexbtc.com market maker is a bit heavy on his margin longs for $ETH.,0,0,0,False
132,Michael McSweeney@mpmcsweeney,Seems like the $ETH pump is going well,0,0,0,False
135,wawin@wawin,"My face when I almost got margin called shorting $eth but it's now dumping hard and making me money

 #ethereum",0,0,0,False
136,TenaciousC@T3naciousC,Kinda feel bad for the new blood that got sacrificed at $ETH top... why do people continue to make this same mistake? #LearnItTheHardWay,0,0,0,False
137,CryptoCompare@CryptoCompare,"#ethereum continues to drop, 25% in the last 24H down to Ƀ 0.00991 ($ 4.08,€ 3.61) https://cryptocompare.com/coins/eth/overview/BTC…",1,0,0,False
138,Satoshi Trader@SatoshiTrader,there goes my $ETH dream... :),0,0,0,False
139,Master@cyb_master,2\ The world will never be monopolar just because at least one very powerful structure is here #Ethereum. Something more powerful is coming.,1,0,0,False
141,Collin Crypto@CollinCrypto,Replying to @CollinCrypto.@CollinCrypto not even a strong bounce off 0.01.  ouch hahaha  $eth #ethereum,1,0,0,False
142,Major Crypt@MajorCrypt,"$ETH is probably the best thing today in crypto xD 
BTCETH MOONING HARD!",0,0,0,False
143,WorldCoinIndex@WorldCoinIndex,"Crypto-currency losers http://worldcoinindex.com/trending
$KORE $CUBE $HAM $GAIA $ETH",0,0,0,False
144,AltcoinLive bot@AltcoinLiveBot,new $ETH buywall 12.3btc @ 0.00950000 http://altcoinlive.com/bittrex-eth-btc #altcoinlive,0,0,0,False
145,alldissolve@alldissolve,"Who couldn't see this coming... cmon 0.065

$eth",1,0,0,False
146,Bitcoin Is The KING @EthereumPredict,It's only the start of the fall.. #ethereum #ether,0,0,0,False
151,Ethereum Italia@ethereumita,"New version of Mist #ethereum . Now it's very easy to import presale wallet 

http://ow.ly/YokAL #blockchainRelease Wallet 0.4.0 (Beta 7) · ethereum/mistThis release includes an easier on boarding process that guides new users into the first steps for ethereum, while the blockchain syncs: Easy starting up on the testnet, if the user is not interes...github.com",0,0,0,False
152,Ethereum UAE@Ethereum_UAE,Ukraine Government Plans to Trial Ethereum Blockchain-based Election Platform http://ift.tt/1KUmw7X #Ethereum,0,0,0,False
154,Arunkumar Krishnakumar@Karunk,Ukraine Government Plans to Trial Ethereum Blockchain-based Election Platform #blockchain #ethereum https://bitcoinmagazine.com/articles/ukraine-government-plans-to-trial-ethereum-blockchain-based-election-platform-1455641691…,1,1,0,False
155,Bill Schafer@wjschafer,"Well how about that.. #EthereumQuote TweetBitcoin Magazine@BitcoinMagazine · Feb 16, 2016Ukraine Government Plans to Trial Ethereum #Blockchain-based Election Platform http://btcm.ag/ukraine",0,0,0,False
158,RELab ETH Zurich@RELabETHZ,Call for Abstracts: #Cybathlon Symposium 2016 #assistivetechnologies #ETH http://cybathlon-symposium.ethz.ch,0,0,0,False
159,AltcoinLive bot@AltcoinLiveBot,removed $ETH buywall 10.5btc @ 0.01086683 http://altcoinlive.com/bittrex-eth-btc #altcoinlive,0,0,0,False
160,AltcoinLive bot@AltcoinLiveBot,new $ETH buywall 10.5btc @ 0.01086683 http://altcoinlive.com/bittrex-eth-btc #altcoinlive,0,0,0,False
163,Patrizio Stavola@halovast,"gotta be fun. anyone located in CH plans to join? #ethereum #bitcoin #blockchain #ipfsQuote Tweetsuperskalar@marcobahn · Feb 16, 2016who wants to join me in this #ethereum #gamejam in #zrh #züri? check this out: http://meetup.com/Game-Developers-Zurich/events/228891229…",1,0,0,False
165,dennusd@dennusd,Replying to @xochinla@xochinla @Cryptopathic @T3naciousC Exchanged a little bit of $ETH for $XMR,0,0,0,False
166,AltcoinLive bot@AltcoinLiveBot,new $ETH buywall 20.6btc @ 0.01157770 http://altcoinlive.com/poloniex-eth-btc… #altcoinlive,0,0,0,False
168,Alunaut   @onemanatatime,"Replying to @onemanatatimeCan't decide if $ETH broken uptrend or not. Looks mighty close, but structure still sustainable. Pump delayed 1-2wks",2,0,0,False
169,AltcoinLive bot@AltcoinLiveBot,removed $ETH buywall 13.8btc @ 0.01147803 http://altcoinlive.com/poloniex-eth-btc… #altcoinlive,0,0,0,False
170,AltcoinLive bot@AltcoinLiveBot,updated $ETH buywall 13.8btc @ 0.01147803 http://altcoinlive.com/poloniex-eth-btc… #altcoinlive (change -0.00002197),0,0,0,False
171,Nanox@ijnark,I just won free 0.00001025 ETHER from  http://etherfaucet.org #ether #satoshi #freeether #faucet via @etherfaucet,0,0,0,False
172,Patrizio Stavola@halovast,Elections in Ukraine on #Ethereum's #Blockchain by using Ambisafe's E-Vox. http://forklog.net/?p=1309,1,0,0,False
173,Moon Explorer@Moonexplorer1,#Michelson-#morley #experiment did obtain a result but not as #expected. Was the #Ether discarded to hide something? #xfiles #Conspiracy,0,0,0,False
179,CyberDexter@thecyberdexter,Jaxx Releases Chrome Extension For #Bitcoin and #Ethereum -  http://themerkle.com/news/jaxx-chrome-extension-for-bitcoin-and-ethereum-released/…,0,0,0,False
181,Jack@jackfru1t,Replying to @jackfru1t.@jackfru1t $ETH has been leading $BTC. In a few months #bitcoin chart will look like #ethereum now,17,8,4,False
182,Bitcoin Is The KING @EthereumPredict,Capitulation phase ongoing #ethereum #ether via @scottastevenson,1,0,0,False
183,Jean-Pierre Buntinx@jdebunt,Jaxx Releases Chrome Extension For Bitcoin and Ethereum - The Merkle http://themerkle.com/news/jaxx-chrome-extension-for-bitcoin-and-ethereum-released/… #jaxx #ethereum #bitcoin,1,1,0,False
186,Kan Janyza@KanJanyza,$ETH going to 0.007,0,0,0,False
187,AltcoinLive bot@AltcoinLiveBot,removed $ETH buywall 10.4btc @ 0.01190045 http://altcoinlive.com/bittrex-eth-btc #altcoinlive,0,0,0,False
188,AltcoinLive bot@AltcoinLiveBot,new $ETH buywall 10.4btc @ 0.01190045 http://altcoinlive.com/bittrex-eth-btc #altcoinlive,0,0,0,False
189,AltcoinLive bot@AltcoinLiveBot,removed $ETH buywall 10.2btc @ 0.01174076 http://altcoinlive.com/bittrex-eth-btc #altcoinlive,0,0,0,False
190,AltcoinLive bot@AltcoinLiveBot,new $ETH buywall 10.2btc @ 0.01174076 http://altcoinlive.com/bittrex-eth-btc #altcoinlive,0,0,0,False
191,Ethereum SE@StackEthereum,What happens if you call a non-existent function of another contract that has no fallback function i... http://tinyurl.com/zhrjbm3 #ethereum,0,0,0,False
193,Theo Goodman@theog__,#ETH Price Cycle - Altcoins http://altcoins.in/eth-price-cycle/…,0,0,0,False
200,Dugee Gun'Em@DugeeGunEm,https://youtu.be/GnDI7f8JHts #DugeeGunEmMusic #THAT.HOT.MESS  #ETHER.MUSIC #FLORIDA.SOUND #PRESS THE LINK,0,0,0,False
201,Ethereum SE@StackEthereum,"Solidity, create contract from contract http://tinyurl.com/gqlf7ww #ethereum",0,0,0,False
205,sinesdigital@sinesdigital,I just won free 0.00003350 ETHER from  http://ethereumfaucet.org #ether #satoshi #freeether #faucet via @ethereumfaucet,0,0,0,False
206,Bitcoin Is The KING @EthereumPredict,"The price is still unstable, more drops to come.. #ethereum #ether",0,0,0,False
208,Bitboat@TheBitBoat,"On http://bitboat.net you can buy every kind of #cryptocurrency in a simple and fast way - Come visit us!

#bitcoin #ether #dogecoin",0,0,0,False
209,CoinFlux@CoinFlux,"Yesterday we set a new #record for daily trading #volume at 118.969 #Bitcoin. Get in touch if you want to trade #XBT, #ETH or #LTC vs RON.",1,1,0,False
211,AltcoinLive bot@AltcoinLiveBot,removed $ETH buywall 10.1btc @ 0.01151049 http://altcoinlive.com/bittrex-eth-btc #altcoinlive,0,0,0,False
212,GravityCoin - [ Not giving away any ETH ]@GravityCoin_GXX,@jaxx_io The New Fleet of #Bitcoin & #Ethereum #Wallets #beta https://goo.gl/gRXc1O #cryptocurency #blockchain #ip #Fintech2016 #announcedThe following media includes potentially sensitive content. Change settingsView,0,0,0,False
213,AltcoinLive bot@AltcoinLiveBot,new $ETH buywall 10.1btc @ 0.01151049 http://altcoinlive.com/bittrex-eth-btc #altcoinlive,0,0,0,False
214,ethereum.network@EthereumNetw,"Another try to explain what #Ethereum is and what it can do. By @simondlrQuote TweetSimon de la Rouviere @simondlr · Feb 16, 2016I just published “Blockchains as p2p cloud computers enforcing a set of rules.” https://medium.com/@simondlr/blockchains-as-p2p-cloud-computers-enforcing-a-set-of-rules-5005165ba1a5#.17rm9r45s…",0,0,0,False
215,Thorsten@digitaldonkey09,Just bought my ticket to #d10e Let's checkout how to get deeper into decentralized programming after my start with #ethereum,0,0,0,False
216,dj Thistle@DJThistle01,"still doesn't look like it's time to cash in that coupon. 1st one is good for a bounce, 2nd is to wait.

$ETH chart https://tradingview.com/x/BMdUnKjL/",0,0,0,False
217,Раб Божий@Diener_Gottes,#Ethereum Alternative #Lisk Announces ICO With ShapeShift: Decentralized applications and… http://goo.gl/fb/LcQNd1,1,0,0,False
219,dennusd@dennusd,Replying to @T3naciousC@T3naciousC Mostly I just lost big profit on $ETH... Have to learn not to be too greedy,0,0,0,False
220,dennusd@dennusd,"Replying to @T3naciousC@T3naciousC Bought at multiple heights, some at 138. I was hurt more by $EXP... Lost 3 BTC with it. I'm sure $ETH will rise again eventually",1,0,0,False
221,TenaciousC@T3naciousC,"Replying to @dennusd@dennusd Sorry man, you bought high? The good news: $ETH is a legit project, it'll go up again eventually, average down, buy the bottom",3,0,0,False
226,Lisk@LiskHQ,"Replying to @LiskHQHere is my official response on the Ethereum subreddit regarding the troll. 

https://reddit.com/r/ethereum/comments/461z6r/uliskhq_is_no_official_representative_of_the_lisk/…
#ethereum #cryptocurrency/u/liskhq is no official representative of the Lisk Team!Hello Ethereum community, Hello /u/vbuterin, /u/thehighfiveghost, /u/avsa, /u/frozeman, /u/crypto-jesus, /u/ViggenPi, /u/Souptacular and...reddit.com",5,7,0,False
227,Gary Spence@GarySpence_HSC,#HSCsandbox 1 office = millions of users #Blockchain solution #Ethereum #smartcontracts will enable true compliance.,0,0,0,False
229,AltcoinLive bot@AltcoinLiveBot,updated $ETH buywall 35.6btc @ 0.01150000 http://altcoinlive.com/poloniex-eth-btc… #altcoinlive (change 0.0000245),0,0,0,False
230,AltcoinLive bot@AltcoinLiveBot,updated $ETH buywall 30.8btc @ 0.01147550 http://altcoinlive.com/poloniex-eth-btc… #altcoinlive (change -0.0000245),0,0,0,False
231,AltcoinLive bot@AltcoinLiveBot,updated $ETH buywall 23.2btc @ 0.01150000 http://altcoinlive.com/poloniex-eth-btc… #altcoinlive (change 0.00007904),0,0,0,False
232,Bitcoin Is The KING @EthereumPredict,Little retrace but not meaningful.. Volumes are too low to see an uptrend. #ethereum #ether,0,0,0,False
233,Ethereum SE@StackEthereum,How can I make new account by JSON-RPC? http://tinyurl.com/gnoda4r #ethereum,0,0,0,False
234,Blocksolid.io@blocksolid_io,"For the latest news on @AugurProject, check out our interview with Director of Marketing @tonyswish - http://bit.ly/tony-augur #EthereumInterview: Tony Sakich @ AugurIt’s fair to say that Ethereum is a pretty hot topic right now. Following on from Devcon1 in November last year, there have been a number of positive news stories and the price of Ether has r…blocksolid.io",0,0,0,False
236,Gary Spence@GarySpence_HSC,Thank you @AXALab @BankToTheFuture for following our #Twitter feeds #IoT #Ethereum and #HSCSandbox we will keep you updated on our progress,1,1,0,False
238,Angelo Milan@angelomilan,"NEW title of my un/cool #ethereum infographic is a MASTERPIECE, so inspired. Share! https://medium.com/@angelomilan/ethereum-explained-to-my-mom-infographic-673e32054c1c#.wy8grcn1g… @martinkrafft @zacchiro @elkos",2,1,0,False
239,Monkam@CryptoMonkam,while everyone is looking $MAID $ETH $XMR other coins are at start line,1,0,0,False
240,AltcoinLive bot@AltcoinLiveBot,updated $ETH buywall 571.0btc @ 0.01142096 http://altcoinlive.com/poloniex-eth-btc… #altcoinlive (change 0.00022096),1,0,0,False
245,Bitcoin Is The KING @EthereumPredict,#ethereum is crashing ! Panic sell in progress.. #ether,0,0,0,False
246,AltcoinLive bot@AltcoinLiveBot,updated $ETH buywall 23.3btc @ 0.01120000 http://altcoinlive.com/poloniex-eth-btc… #altcoinlive (change -0.00001337),0,0,0,False
247,AltcoinLive bot@AltcoinLiveBot,updated $ETH buywall 90.5btc @ 0.01121337 http://altcoinlive.com/poloniex-eth-btc… #altcoinlive (change 0.00001337),0,0,0,False
248,AltcoinLive bot@AltcoinLiveBot,removed $ETH buywall 12.9btc @ 0.01000000 http://altcoinlive.com/bittrex-eth-btc #altcoinlive,0,0,0,False
250,Sebastião Pereira Si@ContatosSpsilva,I just won free 0.00001200 ETHER from  http://ethereumfaucet.org #ether #satoshi #freeether #faucet via @ethereumfaucet,0,0,0,False
251,Sebastião Pereira Si@ContatosSpsilva,I just won free 0.00000368 ETHER from  http://etherfaucet.org #ether #satoshi #freeether #faucet via @etherfaucet,0,0,0,False
253,Bitcoin Is The KING @EthereumPredict,No lie in this pattern.. Panic sell. #ethereum #ether target : 1000 satoshis,0,0,0,False
254,Bitcoin Is The KING @EthereumPredict,"Going down to 1000 satoshis.. #ether fall will be fast, sell as you can your #ethereum.. It might bounce there then go to 700 satoshis..",0,0,0,False
255,TenaciousC@T3naciousC,$ETH bag holders getting placed back to earth... #RealityCheck,1,0,0,False
256,Kan Janyza@KanJanyza,$ETH going #rekt,0,0,0,False
258,Major Crypt@MajorCrypt,WIIIEEEE!! shorting $ETH is so much fun!!! :D,0,0,0,False
259,Bitcoin Is The KING @EthereumPredict,"SELL AS FUCK #ethereum - No, rlly. It's about to collapse to me.. #ether",0,0,0,False
260,AltcoinLive bot@AltcoinLiveBot,new $ETH buywall 14.2btc @ 0.01181575 http://altcoinlive.com/poloniex-eth-btc… #altcoinlive,0,0,0,False
261,FailCommunity@FAILCommunity,#Ethereum dumped to $4.90. Time to #buy again? #ETH #cryptocurrency #fintech,0,0,0,False
262,Mr Marubozu Risin'@MrMarubozuRisin,Whoa! $ETH has literally dumped off the chart.,0,0,0,False
263,AltcoinLive bot@AltcoinLiveBot,removed $ETH buywall 16.5btc @ 0.01200000 http://altcoinlive.com/poloniex-eth-btc… #altcoinlive,0,0,0,False
264,AltcoinLive bot@AltcoinLiveBot,updated $ETH buywall 16.5btc @ 0.01200000 http://altcoinlive.com/poloniex-eth-btc… #altcoinlive (change 0.0002),0,0,0,False
266,AltcoinLive bot@AltcoinLiveBot,updated $ETH buywall 35.4btc @ 0.01180000 http://altcoinlive.com/poloniex-eth-btc… #altcoinlive (change -0.00008745),0,0,0,False
272,AltcoinLive bot@AltcoinLiveBot,updated $ETH buywall 14.3btc @ 0.01188745 http://altcoinlive.com/poloniex-eth-btc… #altcoinlive (change -0.00031255),0,0,0,False
274,Malwande July@Ive_SpokenTHOTS,You 38 in a karate class... #ether,0,0,0,False
275,Astrakhan Innovation & Management@AstrakhanC,"Toutes les informations sur #ethereum en un site !
#blockchain
http://bit.ly/1QgTkuc",1,4,0,False
279,martin ➬@martinkrafft,"… and another, more complex #Ethereum #infographic, by @diiorioanthony
https://blog.ethereum.org/2015/06/21/ethereum-messaging-masses-including-fathers-via-infographic/…",3,1,0,False
281,indxio@indxio,#China Market Close || #Bitcoin: $400.61 | 370.08 EUR||  #Litecoin: 0.0078 BTC  || #Ethereum: 0.0128 BTC   || $BTC $LTC $ETH $RMB,0,0,0,False
282,Ethereum SE@StackEthereum,Can I get from a transaction to contract state changes using RPC API http://tinyurl.com/jxny3sb #ethereum,1,1,0,False
283,CryptKeeper@CryptKeeperBTT,"Factors Behind the Rise of #Ethereum
http://newsbtc.com/2016/02/14/factors-behind-the-rise-of-ethereum/…",0,0,0,False
284,Agri-Food Alumni ETH@afalumni_ethz,Can #BigData help increase #FoodSecurity? http://bit.ly/1PnyDae #ETH #AAAS http://eurekalert.org/e/6tXb via @ETH_en @EurekAlertAAAS,0,0,0,False
286,FailCommunity@FAILCommunity,"#Ethereum lost 10% of its value in the past 24 hrs. Welcome to the beginningof the end? Nah, it will recover! #ETH #cryptocurrency #fintech",1,0,0,False
287,AltcoinLive bot@AltcoinLiveBot,updated $ETH buywall 68.0btc @ 0.01220000 http://altcoinlive.com/poloniex-eth-btc… #altcoinlive (change -0.00021313),0,0,0,False
291,BTC2@btcplanet,"Replying to @onemanatatime@onemanatatime @ThisIsNuse Any idea why altcoins are pumped so hard? Vol $ETH 50k BTC/day, $XMR 2500btc/day",1,0,0,False
292,AltcoinLive bot@AltcoinLiveBot,new $ETH buywall 12.4btc @ 0.01241313 http://altcoinlive.com/poloniex-eth-btc… #altcoinlive,0,0,0,False
293,AltcoinLive bot@AltcoinLiveBot,removed $ETH buywall 14.9btc @ 0.01244983 http://altcoinlive.com/poloniex-eth-btc… #altcoinlive,0,0,0,False
294,AltcoinLive bot@AltcoinLiveBot,updated $ETH buywall 14.9btc @ 0.01244983 http://altcoinlive.com/poloniex-eth-btc… #altcoinlive (change -0.00005017),0,0,0,False
295,AltcoinLive bot@AltcoinLiveBot,new $ETH buywall 61.7btc @ 0.01250000 http://altcoinlive.com/poloniex-eth-btc… #altcoinlive,0,0,0,False
297,AltcoinLive bot@AltcoinLiveBot,removed $ETH buywall 12.0btc @ 0.01260000 http://altcoinlive.com/poloniex-eth-btc… #altcoinlive,0,0,0,False
298,AltcoinLive bot@AltcoinLiveBot,updated $ETH buywall 12.0btc @ 0.01260000 http://altcoinlive.com/poloniex-eth-btc… #altcoinlive (change -0.0001),0,0,0,False
299,Ina@InaBansal,"Welcome to the Future of lending: #Ethereum & #Smartcontracts powered by #IoT
http://lending-times.com/internet-of-things-and-smart-contracts-will-change-the-lending-world/… #fintech #finserv via @miteshmed",9,4,0,False
300,Ethereum SE@StackEthereum,How can I get a list of of transaction data which are sent to a specific contract? http://bit.ly/1ojg67X #ethereum,1,0,0,False
302,Investors Hangout@IHPosts,chartguy89: ETH +0.88% Stock Charts $ETH Ethan AllenETH +0.88% Stock Charts $ETH Ethan - 2016 Trending Stocks #3553279 - Investors Hangout2016 Trending Stocks: ETH +0.88% Stock Charts $ETH Ethan Allen Interiors Inc. (NYSE) Last Updated: 02/15/2016 23:36:1 - #3553279investorshangout.com,0,0,0,False
303,Investors Hangout@IHPosts2,chartguy89: ETH +0.88% Stock Charts $ETH Ethan AllenETH +0.88% Stock Charts $ETH Ethan - 2016 Trending Stocks #3553279 - Investors Hangout2016 Trending Stocks: ETH +0.88% Stock Charts $ETH Ethan Allen Interiors Inc. (NYSE) Last Updated: 02/15/2016 23:36:1 - #3553279investorshangout.com,0,0,0,False
304,Stock Charts@stockcharts247,ETH +0.88% Stock Charts $ETH Ethan Allen Interiors Inc. (NYSE) Last Updated: 02/15/2016 23:36:10 ETH Stock Cha http://investorshangout.com/post/view?id=3553279…,0,0,0,False
305,Ernie C.@Too_Astute,"Replying to @VeryVeriViral@VeryVeriViral it is (or at least, was) on #CoinGecko
https://coingecko.com/en?hashing_algorithm=Proof+of+Stake-Time…
#VeriCoin #SuperNET $VRC $BTC $ETH $DASHCoinGecko: Cryptocurrency Prices and Market CapitalizationGet cryptocurrency prices, market overview, and analysis such as crypto market cap, trading volume, and more.coingecko.com",2,2,1,False
307,AltcoinLive bot@AltcoinLiveBot,new $ETH sellwall 163.5btc @ 0.01348191 http://altcoinlive.com/poloniex-eth-btc… #altcoinlive,0,0,0,False
308,AltcoinLive bot@AltcoinLiveBot,removed $ETH sellwall 17.0btc @ 0.01344209 http://altcoinlive.com/poloniex-eth-btc… #altcoinlive,0,0,0,False
