,user,text,likes,retweets,replies,is_thread
0,WilliamEllis@WillellisM,Bed's that rock you to sleep. Every parent should have one #BBC report from research at #ETH #Zurich #SwitzerlandThe bed which could rock you to sleepThe Somnomat uses bespoke motors to make smooth movements without making too much noise.bbc.com,0,0,0,False
1,Verium Reserve@VeriumReserve,7 days left before Verium ICO ends - http://VeriCoin.info/ico.html - 1 $VRM for 10 $VRC discount. #Crypto #FinTech #Blockchain $ETH $ETC $STEEM,16,15,0,False
2,Patrizio Stavola@halovast,"looks like UBS is going to announce something soon... ""#Ethereum: Here Come The Big Banks"" http://huffingtonpost.com/david-seaman/ethereum-here-come-the-bi_b_11439206.html… #blockchain #bitcoin",2,1,0,False
3,Kryptonews.live official account@Starfaucet,"http://ift.tt/2aNzTMa Is Ethereum Classic Spelling Trouble  #ethereum #ether
SILBERT HAS NOTHING TO FEAR FROM ANYBODY",0,0,0,False
4,𝖬𝖨𝖢𝖧𝖠𝖤𝖫 𝖱𝖤𝖴𝖳𝖤𝖱@michaelreuter,#Ethereum: Here Come The Big Banks http://huffingtonpost.com/david-seaman/ethereum-here-come-the-bi_b_11439206.html…,3,0,0,False
5,Vindyne8@Vindyne8,$waves Full node release imminent! http://coremedia.info/index.php/waves-news/item/292-waves-weekly-no-6… $ETH #Bitcoin #ethereum $ETC #cryptocurrency #fintech #blockchain,12,16,0,False
6,Bitcoin Trader@BTC_PRO,Short #USDJPY. Trade #bitcoin #stocks #forex 100% anonymously. Open live accnt under 30 sec http://goo.gl/th7eNQ,1,2,1,False
7,Bitcoin Trader@BTC_PRO,U can also trade #litecoin #namecoin #ethereum #oil #gold #stocks #cryptocurrencies & more 100% anonymously: https://goo.gl/th7eNQ,1,2,0,False
8,CryptKeeper@CryptKeeperBTT,"#Ethereum Tests ""Light Speed"" As More Banks Go #Blockchain http://huffingtonpost.com/david-seaman/ethereum-tests-light-spee_b_11452612.html… # via @HuffPostBiz
$ETH #etherEthereum Tests ""Light Speed"" As More Banks Go BlockchainBig week in blockchain tech. Simultaneous to our coverage that Swiss-based banking giant UBS appears to be building a smart bonds platform using Ethereum...huffpost.com",3,3,0,False
10,dontpanic@DontPanicBurns,"#EthereumClassic has established a pressroom on the slack. https://ethereumclassic.slack.com/messages/pressroom/details/…
#cryptocurrency #ethereum #dao",1,0,0,False
11,Aucamp @JC_Aucamp,Ethereum For Investors #26 - #Ethereum Class Investor Q&A With Former $ETH... https://youtu.be/zXc4lxBqkBw via @YouTube,0,0,0,False
12,iuri matias@iurimatias,"Embark  DApp Framework 1.2.0 - support for Mist and @metamask_io https://github.com/iurimatias/embark-framework/releases/tag/1.2.0… #ethereumRelease Embark 1.2.0 · embarklabs/embarkNew to Embark? If you are new to Embark, see the Readme. To Update to 1.2.0 npm update -g embark-framework If updating an existing project, run embark demo to see the differences, a lot has cha...github.com",7,3,1,False
13,Netcube93@Netcube93,#FACTOM ANNOUNCES COLLABORATION WITH #BigData INFORMATION PLATFORM DATAYES http://londonstockexchange.com/exchange/news/market-news/market-news-detail/other/12927809.html… #bitcoin #blockchain #ethereum,1,0,0,False
14,BitcoiNapoleon@hodler_btc,i support ETH whoelse ? #ETHEREUM,1,1,0,False
15,Chris Timuat@ChrisBizEnglish,"Via FinTechSummary: #Lisk is Not a Fork of #Ethereum, CEO Max Kordek States http://buff.ly/2aVRKzR #Crypto #FinTech …Lisk is Not a Fork of Ethereum, CEO Max Kordek StatesLisk CEO clarifies some misunderstandings and explains what Lisk is and is not about.cointelegraph.com",1,0,0,False
16,ether-camp@CampEther,Seen on #hackethercamp https://hack.ether.camp/idea/streetcred-street-donations-made-safe-and-easy-by-ethereum… #ethereum,1,0,0,False
17,Vinay Gupta@leashless,I'm starting a venture capital project. Find out all about Hexayurt Guy Capital Partners http://hexayurt.com/capital #hexaVC #ethereum #bitcoin,204,126,39,False
18,Heidi Hurskainen@HeidiHurskainen,Good news for #Ethereum https://cryptocoinsnews.com/ubs-develops-settlement-coin-bringing-block-chain-financial-markets/… #bitcoin #blockchain,1,0,0,False
19,Randy Hilarski@RandyHilarski,Life Changing Finance #5 - Know Yourself First - By Ta... http://slninja.com/1civ #Bitcoin #Ethereum #CryptoCurrency,7,0,0,False
20,Vindyne8@Vindyne8,$draco DT Asset Pool http://bit.ly/2bhht2n asset-backed value for #drachmaetoken #fintech #btc #eth #RT,15,17,0,False
21,Parity Technologies@ParityTech,Parity 1.2.4 stable is released! #ethcore #ethereum #blockchainParity 1.2.4 stable releasedPosted in r/ethereum by u/Blue-Chain • 59 points and 10 commentsreddit.com,23,20,0,False
22,FinTech Summary@FinTechSummary,Latest #FinTech Weekly Summary is out - http://buff.ly/2aFYa3V #banking #ethereum #digital #payments #blockchain,5,3,0,False
23,Gnosis@gnosisPM,"Yes, that is right: Gnosis will run on #Ethereum state channels that allow ten thousands of predictions per second.Ethereum Scaling Advances With 'First' Off-Blockchain Payments - CoinDeskA team of ethereum developers has successfully completed what they say is the first off-blockchain transaction on the network.coindesk.com",22,21,0,False
24,Suresh Naidu@supereagle1,"The 13 biggest funded fintech stars of India https://yourstory.com/2016/07/biggest-funded-fintech-startups/… 
Superb...welcome to the world of #fintech #XEGAINS #BITCOIN #ETHEREUM",1,0,0,False
25,Bitcoin Vice@BitcoinVice,"Barry Silbert takes a full load of Seaman in public over #Ethereum – this is getting nasty & messy: https://news.bitcoin.com/barry-silbert-pump-etc/…
by @jamieCryptoBarry Silbert Used 'Biased' Strategy to Pump ETC, Says ReporterJournalist David Seaman claims Barry Silbert is behind the Ethereum Classic chain pump, and the whole ETC project is a blatant scam in his opinion.news.bitcoin.com",4,2,1,False
26,IoT.do - DO the IoT@IoTdo,#IoT #Ethereum's 'Lightning Network' Raiden to strike IoT and #micropayments http://goo.gl/vBGYa7,3,8,0,False
27,Benjamin Bollen @BenjaminBollen,Join us in new open community slack at http://slack.eris.industries!! #blockchain #FOSS #ethereum #smartcontracts @eris_ltd Thx @cerebralbosons,5,4,1,False
28,Silicon Talent@silicontalent,"#blockchain #ethereum 's #Raiden  network emerges, allowing superfast asset transfers (circa 1,000,000 tx/sec).Ethereum Tests ""Light Speed"" As More Banks Go BlockchainBig week in blockchain tech. Simultaneous to our coverage that Swiss-based banking giant UBS appears to be building a smart bonds platform using Ethereum...huffpost.com",1,2,0,False
29,Monkeyscage@monkeyscage,A view inside ARK the first Collaborative Market DAO (BOTs management interface) #ethereum #dao,11,38,1,False
30,Samson Tesfaye@Sammytesfu,"#Trunesh #Dibaba #ETH #Ethiopia Good Luck and make us proud.Quote TweetWorld Athletics@WorldAthletics · Aug 11, 2016Can Dibaba be the 1st woman to win 3 consecutive golds in an individual athletics event?

https://goo.gl/TBvRBD",3,2,0,False
31,Laura Shin@laurashin,"These are the questions #theDAO and the #DAOhack raise for regulators: http://ow.ly/sIda3039cKF #ethereum #blockchain #cryptocurrencyHow The Blockchain Alliance Helps Law Enforcement With Bitcoin Crime And Developments Like The DAOAttorneys Jason Weinstein and Alan Cohn discuss their work with the Blockchain Alliance, a coalition of blockchain and cryptocurrency companies and law enforcement agencies including Interpol, the...forbes.com",4,1,1,False
32,Meltem Demirors@Melt_Dem,"just going to go ahead and leave this here #ethereum
https://ethereumclassic.github.io/assets/ETC_Declaration_of_Independence.pdf…",3,0,0,False
33,Patrizio Stavola@halovast,"Replying to @tristan_winters.@tristan_winters #solidity just added formal verification, type checking and source mapping. thats good https://github.com/ethereum/solidity/releases/tag/v0.3.6…
#ethereum",9,6,1,False
34,Timo Ξberhard@ZhuBajie72,"Meanwhile, $ETC patiently sitting on support, ready to lift-off... #Ethereum @krakenfx >>> https://tradingview.com/chart/ETHXBT/9qHNDek8-Breakup-Confirmed-Uptrend-Ignited/…",2,2,0,False
35,/r/Augur@AugurFeed,#reddit Ledger Nano S now supports ETH. Can the addresses generated by this HW wallet be use... http://bit.ly/2bhr5ef #ethereum #augur,2,1,0,False
36,Null TX@nulltxnews,"Ethereum's casper is causing some debates http://themerkle.com/casper-may-cause-centralized-staking-by-rich-ethereum-holders/… #ethereum #cryptocurrency #ethereumnews #ethnews $eth $etcCasper May Cause Centralized Staking By Rich Ethereum HoldersThe Ethereum developers have unveiled some more details regarding the Casper release. As part of this release, Ethereum will also transition from proof-of-work to proof-of-take. Securing the network athemerkle.com",4,4,0,False
37,Anthony Di Iorio@diiorioanthony,Ethereum's 'Lightning Network' Raiden to strike #IoT and micropayments #ethereumEthereum's 'Lightning Network' Raiden to strike IoT and micropaymentsRaiden creator Heiko Hees said a 100K transactions per second proof of concept could happen by end of August.ibtimes.co.uk,7,9,0,False
38,Bitcoin@bitcoinpoet,Leveraging opportunities on the blockchain - Bitshares and OpenLedger to bank the unbanked — Steemi... http://bit.ly/2aVfr9K #ethereum,1,2,0,False
39,Zach Herbert @zachherbert,"I support the original immutable chain! #ethereumQuote TweetEthereum Classic@eth_classic · Aug 11, 2016I am very proud to present ""The Ethereum Classic Declaration of Independence"" https://ethereumclassic.github.io/assets/ETC_Declaration_of_Independence.pdf…",11,5,0,False
40,Cointelegraph@Cointelegraph,"#Korea's Largest #Bitcoin Exchange Supports #Ethereum Classic, Eliminates All Fees https://cointelegraph.com/news/koreas-largest-bitcoin-exchange-supports-ethereum-classic-eliminates-all-fees… #etc",11,13,0,False
41,CEX.IO@cex_io,"Makers are already trading BTC, LTC, and ETH on CEX.IO with 0% fee! Join them now: https://cex.io #bitcoin #ethereum #litecoinBitcoin Exchange, Trading BTC USD, BTC EUR - CEX.IOBuy and sell Bitcoins for USD or EUR with payment cards or via bank transfers easily. Get into Bitcoin Trading on the worldwide Bitcoin Exchange.cex.io",2,5,0,False
42,YOCoin@YOC_Crypto,"Check our ANN, new roadmap already published

#bitcoin #yocoin #ethereum #ethereumclassic #ethc #blockchain",6,19,0,False
43,Abebe Birhanu@abirhanu,"Almaz vs Tirunesh will be an epic battle...
I can't wait . #ethQuote TweetLetsRun.com@letsrundotcom · Aug 9, 2016Trust us. That baby will string out quickly. http://letsrun.com/news/2016/08/2016-olympic-womens-10000-preview-tirunesh-dibaba-goes-historic-3rd-straight-title-clash-titans-almaz-ayana-molly-huddle-emily-infeld/… https://twitter.com/trackside2016/status/762639496538157057…",2,0,0,False
44,ፀደይ 𝕋𝕤𝕖𝕕𝕒𝕪@Tseday,Attending announcement for the 15th African Fine Coffee Conference/Exhibition to be held Feb 2017 in #ETH #AFCA2017,3,2,0,False
45,CNA@ChannelNewsAsia,#Swimming underdog #RobelTheWhale wins #Rio2016 hearts but accused of nepotism in #ETH http://bit.ly/2bkRbMk,6,17,0,False
46,Fred E @Fredilly,1. We've had enough laughs! Now it's time to stop dividing the #Ethereum community. $ETH & $ETC have something unique in crypto.,2,1,1,False
47,Bitcoin Traders@b1tcoin_traders,#Ethereum Developer publish statement denying affiliation with the Robin Hood Team? http://cointimes.tech/2016/08/11/why-no-public-statement-from-ethereumrobin-hood-team/…,20,13,1,False
48,Zeth Couceiro@Zeth_Plexus,"#Ethereum: Here Come The Big Banks http://huffingtonpost.com/david-seaman/ethereum-here-come-the-bi_b_11439206.html… via @HuffPostBiz #fintech @ubs #SmartBonds #Ether #ETHEthereum: Here Come The Big BanksThe Ethereum protocol, described by some in the cryptocurrency community as a new rival or sibling for frontrunner technology Bitcoin, is supported by it...huffpost.com",4,2,0,False
49,ethereum.network@EthereumNetw,Zero Dollar DAOs & Commonwealths on #Ethereum https://media.consensys.net/2016/08/10/zero-dollar-daos/… via @ConsenSysLLCZero Dollar DAOsThe DAO has given the world a glimpse into the promise of general purpose blockchains. A headless investment fund worth hundreds of millions of dollars sounds crazy to most people and wasn’t even…media.consensys.net,1,2,0,False
50,vessenes@vessenes,Horrible idea of the day: #ethereum smart contract using @oraclizeit to TLS validate DDOSCoin style attacks.,7,5,0,False
51,BitBay@BitBay,Now you can get a card to your BitBay account! https://bitbay.net/cards/index #Bitcoin #BTC #LSK #Ether #Litecoin #LTC,2,1,0,False
52,GOLEM NETWORK (not doing airdrops - stay safe)@golemproject,What can Golem do for you? Some ideas and use cases for decentralized distributed computing. https://medium.com/@golemproject/what-can-golem-do-for-you-503b2449767a… #ethereum #truecloud,22,7,0,False
53,Chris Burniske@cburniske,"Surprise! ETC / ETH hash rate ratio just broke downtrend (if that applies here?), #Ethereum in for more turbulence+",12,12,2,False
54,NEWSBTC@newsbtc,White Hat Hackers Could Have Crashed #Ethereum Classic http://ow.ly/AG343038E8T by @jdebunt #etc #trading #btc,4,4,0,False
55,Bιɾԋαɳυ M Lҽɳʝιʂσ@BirhanuLenjiso,"#ETH, open cnty for business & investigation acc. Mr. Reda's talk on @AJStream closed it's door to UN HR investigators by the same mouth",8,4,0,False
56,Crypto Helvetia@CryptoHelvetia,XI August's crypto divination pumps: $ETC $WAVES $DGB $XC  ~ Under observation: $ETH $LSK $FCTETC45.5%WAVES15.2%DGB27.3%XC12.1%66 votes·Final results,5,3,0,False
57,Emma Lovell (ODI)@E_lovel,Reflecting on great meetings in #KEN & #ETH for the Raising Risk Awareness Project http://cdkn.org/project/raising-risk-awareness/?loclang=en_gb… #climate,4,5,0,False
58,Cryptopatterns@Cryptopatterns,More CRASH signs. Relying on $ETH up $ETC down/ $BTC correlations? They work till they don't. #ethereum #bitcoin,2,1,0,False
59,Spiros Margaris@SpirosMargaris,"Read

#Ethereum Scaling Advances With 'First' Off-Blockchain Payments

http://bit.ly/2aNV3cY #fintech #coindesk",3,3,0,False
60,AskAudioMag@AskAudioMag,"NEWS: #Ether low-latency, pro, wireless headphone solution for DJs & Live Musicians >>> http://tinyurl.com/ztzvynr",3,3,0,False
61,Timo Ξberhard@ZhuBajie72,Dunno how this could possibly be more bullish... #Ethereum #Ether $ETH $ETHXBT @krakenfx,1,1,0,False
62,SingularDTV@SingularDTV,Great things in store for #Ethereum!  @ethereumreport @ETHNews_ @EthereumChina @etherreview http://bit.ly/2bjtkQ0,2,1,0,False
63,☞ Zaafouri Amine ☜@zaafouriFF,"I bet that #Sebsi would help his son too haahahah .. #Ethiopia #ETH #Tunisia #TUN #Hilarious #Rio2016Quote TweetZecharias Zelalem@ZekuZelalem · Aug 10, 2016#RobelHabte overweight, slow, reaching #Rio2016 has NOTHING to do with his dad being #Ethiopia 's Swim fed president",1,0,0,False
64,Jean-Pierre Buntinx@jdebunt,"#Ethereum failed to hit its ""moon"" target and has been crawling back to its hole ever since. #ETC overtakes in volume again. Fun times!",5,2,2,False
65,Bitcoin@bitcoinpoet,"GDAX/Coinbase ETH deposit Issues?: I did a deposit from bitfinex to Gdax yesterday and even though ... http://bit.ly/2aVeAFZ #ethereumGDAX/Coinbase ETH deposit Issues?I did a deposit from bitfinex to Gdax yesterday and even though I have 3800+ block confirmations and its been over 15 hours, my deposit still...reddit.com",2,1,0,False
66,Digital Currency Group@DCGco,"We urge everyone in the #bitcoin #ethereum #cryptocurrency community to keep a close eye on California's billQuote TweetCoin Center@coincenter · Aug 11, 2016Here's an update on the new California digital currency bill. http://coincenter.org/link/here-s-an-update-on-the-new-california-digital-currency-bill…GIF",9,6,0,False
67,NEWSBTC@newsbtc,#Ethereum Price Technical Analysis – Double Top Formation http://ow.ly/N0fC3038n8M by @AayushJs #btc #bitcoin #news,1,2,0,False
68,Cyber Phil ₿ ₿ ₿ ¯\_(ツ)_/¯ ₿ ₿ ₿@H4ck3rPh1ll,Ready? Shorted $ETH long $ETC now let's go ;),4,1,0,False
69,ETHNews@ETHNews_,ETH/USD Forecast - Is This ‘THE' Correction? #Ethereum #ETH #Ether $ETH http://ow.ly/3uOq30390Ra,0,0,0,False
75,Drew Ehlers@ehlersandrew,#Ethereum's 'Lightning Network' Raiden to strike #IoT and #micropayments http://goo.gl/vBGYa7,2,1,0,False
81,WKRB News@WKRBNews,Weekly Analysts’ Ratings Changes for Ethan Allen Interiors $ETH http://ift.tt/2aFpEs0,0,0,0,False
83,Suresh Naidu@supereagle1,Bitfinex Exchange to Resume Bitcoin Trading Today http://bit.ly/2b8kFAR via @CoinDesk #XEGAINS #BITCOIN #ETHEREUM #fintech #startups,0,0,0,False
84,Rimbit @rimbit,"Technical Analysis: Correction Over, Time For Bitcoin Price To Skyrocket http://rimbit.com/posts/12660 #bitcoin #ethereum",0,0,0,False
85,Altoros@Altoros,#Blockchain Adoption—Industry Requirements & the Role of Prototypes http://altoros.com/blog/blockchain-adoption-industry-requirements-and-the-role-of-prototypes/… | #Hyperledger #Ethereum,1,5,0,False
86,Numerati. Twetch#: @1033@MirakhorHassan,Replying to @randomoracleBasing precedent on #ethereum actions is not sound. They don't meet the definition of a blockchain anymore.1/,2,1,0,False
87,⛧ God of Gaming ⛧@TheGodofGamez,The world has the habit of making room for the man whose actions show that he knows where he is going. $ETH,0,0,0,False
88,bitto badger crew@bittobtc,Ethereum: Here Come The Big Banks http://huffingtonpost.com/david-seaman/ethereum-here-come-the-bi_b_11439206.html… via @HuffPostBiz #ethereum,0,0,0,False
89,Blockgeeks@Blockgks,How #Blockchain Helps Brooklyn Dwellers Use Neighbors' Solar Energy http://snip.ly/f3wcc #Ethereum,0,0,0,False
91,Coinstats@coinstats,"Ethereum Classic - ETC
Price: $1.86139
Change in 1h: -0.32%
Market cap: $154246968.0
Ranking: 6
#Ethereum Classic #ETC",0,0,0,False
92,Coinstats@coinstats,"Ethereum - ETH
Price: $11.7222
Change in 1h: +0.36%
Market cap: $971609570.0
Ranking: 2
#Ethereum #ETH",0,0,0,False
93,Ethereum SE@StackEthereum,sendTransaction results in double send with arbitrary library call http://ethereum.stackexchange.com/questions/7975/sendtransaction-results-in-double-send-with-arbitrary-library-call… #ethereum #truffle,1,0,0,False
94,Bekane Olana@bekansiif,"Replying to @CohenOnAfrica#Eth has rejected #UN call,Spokesmen Minister said It will not allow #UN at this time.",0,0,0,False
96,Johan Nygren@resilience_me,I'm mentioned in this paper http://johnlarocco.com/uploads/2/6/5/1/26512432/digitalubi.jlarocco.v.2.pdf… #ethereum,1,1,0,False
97,Ameer Rosic@AmeerRosic,#Cryptocurrency: A New Economy For The Future http://dld.bz/eEbgr #bitcoin #blockchain #ethereum,0,0,0,False
98,Brad Armstrong@Nvntr,Replying to @lisperatiTrue. It is good that we now have experience with 2chains running concurrently. ETW will be insurance blokchain for PoS #Ethereum,1,0,0,False
100,⛧ God of Gaming ⛧@TheGodofGamez,Wicked people are always surprised to find ability in those that are good. $ETH,0,0,0,False
101,Vanessa Szczzzzz@9Nessa3,Replying to @9Nessa3Multi-sig? always tell bestie when u get sum;but if in the same place with colonel mustard and a gun? court issues #ethereum,0,0,0,False
102,Cryptoy@cryptoycom,"#Ethereum Tests “Light Speed” As More #Banks Go #Blockchain
http://huffingtonpost.com/david-seaman/ethereum-tests-light-spee_b_11452612.html…",0,0,0,False
103,Cryptopatterns@Cryptopatterns,$ETH needs to get back over $12 in 2 hrs (eod) or=high prob bear pattern Doesnt = $ETC up!!! #ethereum #bitcoin $BTC,0,0,0,False
104,Ethereum SE@StackEthereum,How is an ABI stored in bytecode? http://ethereum.stackexchange.com/questions/7973/how-is-an-abi-stored-in-bytecode… #ethereum #evm #abi #bytecode,0,0,0,False
105,Ethereum UAE@Ethereum_UAE,"Technical Analysis: Correction Over, Time For Bitcoin Price to Skyrocket http://ift.tt/2aFgdJe #Ethereum",0,0,0,False
106,Ric Olsen@Ric9871Ric,"Start #Mining #Ether Without Purchasing Any Hardware

3% Discount With Coupon Code 8rRBkl

http://dld.bz/eMnVB",1,0,0,False
107,Blockgeeks@Blockgks,Why Latin American economies are turning to #bitcoin http://snip.ly/mtab3 #blockchain #ethereum,0,0,0,False
109,Ameer Rosic@AmeerRosic,10 Fascinating Facts About #Bitcoin You Need To Know. Full Video >> http://bit.ly/2aKBJaR #Blockchain #Ethereum,1,0,0,False
110,Chevdor@chevdor,"@VitaIikButrein How is filling up your fake profile doing? How about a new crypto? You can call it Etchereum
@VitalikButerin #Ethereum #fake",1,0,0,False
111,Bitcoin Updater@BitcoinUpdater,CoinOffering Links Virtual and Legal Worlds with Shares on the Ethereum Blockchain #ethereum http://soco.space/OMbhPs,1,0,0,False
113,Racheterian@Ratcheterians,Researching both $etc & $eth. Any good starting points?,1,1,0,False
114,David Liam@crazydaveorama,I use #Coinbase - you should try it! https://coinbase.com/join/55143b347fca57cb090000d1?src=twitter… #bitcoin #ether #altcoin #cryptocurrency,0,0,0,False
115,BlockChannel@BlockChannel,"BCN News: themerklenews: A money grab by Mist wallet developers http://themerkle.com/mist-developers-deliberately-use-shapeshift-affiliate-link-for-etc-transactions/… #ethereum #ethereumnews #cryptocurrency $eth $etc …Mist Developers Deliberately Use ShapeShift Affiliate Link For ETC TransactionsThe Ethereum ecosystem is filled with a lot of controversies as of late, and it looks like a new issue has been discovered The Mist wallet, which acts as a solution for Both Ethereum and Ethereum Clasthemerkle.com",0,0,0,False
116,Olivier Chapiteau@o_chapiteau,"11Aug16 21:34:04 UTC #Ether #Blockchain status - Block height @ 2,054,591 - 11,266 unconfirmed tr. - Last fork height @ 2,043,281",0,0,0,False
117,Olivier Chapiteau@o_chapiteau,11Aug16 21:34:04 UTC #Ethereum live spots - #Ether @ 11.66039$ - #EtherClassic @ 1.87853$,0,0,0,False
118,Zesty Tech News@zesty_tech,"Koreas Largest Bitcoin Exchange Supports #Ethereum Classic, Eliminates All Fees https://cointelegraph.com/news/koreas-largest-bitcoin-exchange-supports-ethereum-classic-eliminates-all-fees…",1,0,0,False
119,BlockchainLUX@blockchainLUX,"Never forget @barrysilbert called #ethereumclassic #etc $etc ""digital play-doh"" and real deal #ethereum ""digital oil"" before pnd @d_seaman",1,0,0,False
120,AltcoinWeekly@altcoinweekly,The latest Ethereum price is USD 12.01. For historical #Ethereum price charts - http://buff.ly/2aNdgl7,0,0,0,False
121,CoinGecko@coingecko,The latest Ethereum price is USD 12.01. For historical #Ethereum price charts - http://buff.ly/2aNdJnd,0,0,0,False
122,martin meier@MeierTinu46,Donate to our project! Add funds and receive $$$ in exchange from profits lifetime! @gagpubblicita #ethereum #miner https://indiegogo.com/projects/build-ethereum-mining-farm/x/14702367#/…,1,1,0,False
123,Ethereum UAE@Ethereum_UAE,Chain Inc. Announces Partnership with the Initiative for Cryptocurrency and Contracts http://ift.tt/2bbniSs #Ethereum,1,0,0,False
124,Numerati. Twetch#: @1033@MirakhorHassan,Its the $etc folks who are going to prison according to @d_seaman. What BS. The father probably has $eth now. Sell.,0,0,0,False
125,Alberto Jauregui | esoteRICK.eth @DisruptBanksy,"http://ift.tt/2aKxhJj Korea's Largest Bitcoin Exchange Supports Ethereum Classic, Eliminates All Fees - CoinTelegraph #ethereum #ether",1,0,0,False
126,/r/Augur@AugurFeed,#reddit What wallet do you guys use to recieve your rep? http://bit.ly/2aWtzzH #ethereum #augur,0,0,0,False
127,/r/Augur@AugurFeed,#reddit Will the future ever become decentralized? http://bit.ly/2aKwQ1P #ethereum #augurWill the future ever become decentralized?Posted in r/Augur by u/Worldme • 9 points and 0 commentsreddit.com,0,0,0,False
129,Somedoges@bitcoinbegger,Heads up folks this catdaddy -> @ShapeShfit__io is a scammer!!!! #run #Bitcoin #dogecoin #litecoin #eth #etcGIF,1,0,0,False
130,Ameer Rosic@AmeerRosic,What is Ethereum? Step-by-Step #Ethereum Infographic http://bit.ly/22M90bd #Blockchain #Bitcoin,1,0,0,False
131,⛧ God of Gaming ⛧@TheGodofGamez,"He who controls others may be powerful, but he who has mastered himself is mightier still. $ETH",1,0,0,False
132,Alex Chepurnoy@chepurnoy,"What is a ""logs bloom"" block header field for in #Ethereum ?",0,0,0,False
133,AhramOnlineSports@AO_Sports,#Eth 'Robel the Whale' booed back home after #Rio2016 controversy http://english.ahram.org.eg/News/238510.aspx…,0,0,0,False
134,Ethereum Monkey@EthMonkey,"Korea's Largest Bitcoin Exchange Supports Ethereum Classic, Eliminates All Fees #ethereum https://cointelegraph.com/news/koreas-largest-bitcoin-exchange-supports-ethereum-classic-eliminates-all-fees…",0,0,0,False
135,Will Ricketts@willricketts,I was really hoping to see #ethereum get a bit more traction by now :/,1,0,0,False
136,Null TX@nulltxnews,"A money grab by Mist wallet developers http://themerkle.com/mist-developers-deliberately-use-shapeshift-affiliate-link-for-etc-transactions/… #ethereum #ethereumnews #cryptocurrency $eth $etc #ethereumclassicMist Developers Deliberately Use ShapeShift Affiliate Link For ETC TransactionsThe Ethereum ecosystem is filled with a lot of controversies as of late, and it looks like a new issue has been discovered The Mist wallet, which acts as a solution for Both Ethereum and Ethereum Clasthemerkle.com",1,1,0,False
137,Coinstats@coinstats,"Ethereum Classic - ETC
Price: $1.90437
Change in 1h: +2.12%
Market cap: $157804396.0
Ranking: 6
#Ethereum Classic #ETC",0,0,0,False
138,Fintech news@currencies111,"Ethereum Scaling Advances With 'First' Off-Blockchain Payments http://bit.ly/2aOyReT @CoinDesk
#ethereum #altcoin #fintech #crypto",0,0,0,False
139,Coinstats@coinstats,"Ethereum - ETH
Price: $11.651
Change in 1h: -0.3%
Market cap: $965675703.0
Ranking: 2
#Ethereum #ETH",0,0,0,False
140,Ethereum Price@EthereumPrice_,"#Ethereum: Ether Price Index
1 ETH =0.019660Ƀ XBT = $11.659000 USD
Today: -4.16%⬇︎ Last 24h: -3.52%⬇︎
https://ethereum-price.com",1,0,0,False
141,Necio@Necio_news,Ethereum Scaling Advances With 'First' Off-Blockchain Payments http://goo.gl/IQxx3p #Ethereum #Blockchain,0,0,0,False
144,BitcoinAgile@bitcoinagile,Stake Prover: A Dapp that Allows Text on the #blockchain #StakeProver #Dapp #Ethereum http://ethnews.com/stake-prover-a-dapp-that-allows-text-on-the-blockchain…,0,0,0,False
145,ETHNews@ETHNews_,#StakeProver: A #Dapp that Allows Text on the #Blockchain #Ethereum http://ow.ly/zTqP3039Idc,1,2,0,False
146,Rimbit @rimbit,Brian Armstrong Ama: ‘etc Was Replay Attacked On Coinbase’ http://rimbit.com/posts/12641 #bitcoin #ethereum,0,0,0,False
147,Neil@neillifetwit,"@d_seaman If #Ethereum values the maintaining of smart contracts over being sound money, then why have its own Blockchain? #factom",0,0,0,False
149,STΞFAAN PONNΞT@sponnet,Just filled our #ethereum testnet faucet. Get free test-Ether to deploy your smart contracts. http://faucet.ma.cx:3000 @ethereumproject,0,0,0,False
151,Kat Swansey@katswansey,"Why are we shaming Robel Kiros Habte again? Because he looks normal like the rest of us? Oh, ok. Real nice y'all. #Rio2016 #ETH",0,0,0,False
152,rssbtc.com@rssbtc,"Ethereum Scaling Advances With 'First' Off-Blockchain Payments - http://bit.ly/2bkGVXi
#ethereum #digital #blockchain",1,0,0,False
153,BitcoinAgile@bitcoinagile,Scaling Advances With First Off-#blockchain Payments On #ethereum http://dao.gold/scaling-advances-with-first-off-blockchain-payments-on-ethereum…,1,0,0,False
154,Ethereum SE@StackEthereum,Mist not syncing properly http://ethereum.stackexchange.com/questions/7972/mist-not-syncing-properly… #ethereum #refund,0,0,0,False
155,Tekeste A. Demissie@tekestead,"Olympic starts for #ETH just today. Hoping Tiruye, Almaz and Gelete won't fail us. Good luck #TeamEthiopia Carraa gaarii! #Rio2016 @fitsekal",1,0,0,False
156,b@bu@babudahal,"#ETH vs #ETC... ""We have to let go of this notion that for Apple to win Microsoft has to lose."" - Steve Jobs. #ethereum #cryptocurrencies",0,0,0,False
157,ethereum.network@EthereumNetw,"#Ethereum Scaling Advances With Off-#Blockchain Payments
http://coindesk.com/ethereum-scaling-advances-first-off-blockchain-payments/…",3,1,0,False
159,Blockgeeks@Blockgks,How Will #Blockchain Change Banking? How Won't It? http://snip.ly/a2ci1 #Ethereum #Bitcoin,1,2,0,False
160,Coinstats@coinstats,"Ethereum Classic - ETC
Price: $1.87417
Change in 1h: -1.24%
Market cap: $155299409.0
Ranking: 6
#Ethereum Classic #ETC",0,0,0,False
162,Coinstats@coinstats,"Ethereum - ETH
Price: $11.6923
Change in 1h: +0.16%
Market cap: $969084806.0
Ranking: 2
#Ethereum #ETH",0,0,0,False
164,Marius Kjærstad@MKjrstad,Replying to @el33th4xorGuess he should have used #Ethereum instead...,1,0,0,False
165,Bitcoin Traders@b1tcoin_traders,#Ethereum Developer publish statement denying affiliation with the Robin Hood Team? $ETH $ETC http://cointimes.tech/2016/08/08/why-no-public-statement-from-ethereumrobin-hood-team/…,4,11,0,False
166,Tigray Legend@Tigray_Legend,NUREMBURG TRIALS OF ETHIOPIA - Amhara Shoan derg officials sentenced for crimes against humanity https://youtube.com/watch?v=ulsIGGksMpk… #ETH,2,0,0,False
167,Alessandro De Carli@a_d_c_,what happens to $ETH if the $DAO attacker decides to return its funds on the $ETC chain?,1,0,0,False
169,Arjan van der Kooij@kooija,"I am joining DECENT bounty campaign
http://sale.decent.ch
@DECENTplatform
#decent #ico #ethereum #bitcoin",3,0,0,False
170,Timo Ξberhard@ZhuBajie72,"Besides, in case you wanna show some love, consider sending a few #Ether to 0xaabc341b741ff98dfb2b5f3558c274f38a7b5059 - It´s chART, yaknow?",1,0,0,False
171,FinTech Summary@FinTechSummary,"#Lisk is Not a Fork of #Ethereum, CEO Max Kordek States http://buff.ly/2aVRKzR #Crypto #FinTech",1,0,0,False
172,Chocomeet.com@Chocomeet,"#BebeM6 #FRA
#PSGOL #Mor #Tun #Egy
#Cmr #Can #Usa #Uk #Rus #Chn
#Rio2016 #Eth #Alg #Rdc #Gab #Con - Incendies... http://fb.me/873m4LVOc",0,0,0,False
173,/r/Ethereum@r_Ethereum,Where does processing power come from in PoS/Casper? Is there any deposit risk? http://bit.ly/2bkC3Tx #Ethereum,0,0,0,False
174,/r/Ethereum@r_Ethereum,"Why I like Steemit, why I still really, really wish it was on Ethereum http://bit.ly/2b02usF #Ethereum",0,0,0,False
175,/r/Ethereum@r_Ethereum,Ethereum Tests “Light Speed” As More Banks Go Blockchain http://bit.ly/2bkDq4k #EthereumEthereum Tests “Light Speed” As More Banks Go BlockchainPosted in r/ethereum by u/zr1trader • 55 points and 0 commentsreddit.com,0,0,0,False
176,/r/Ethereum@r_Ethereum,Was this bug bounty issue ever resolved? http://bit.ly/2bkCkFW #Ethereum,0,0,0,False
177,/r/Ethereum@r_Ethereum,What can Golem do for you? some ideas for decentralized distributed computing on top of ethereum http://bit.ly/2bkCih7 #Ethereum,0,0,0,False
178,Alberto Jauregui | esoteRICK.eth @DisruptBanksy,http://ift.tt/2aKcs0w From Bitcoin Maximalist To Ethereum Classic Fanatic? - Huffington Post #ethereum #ether,0,0,0,False
179,Christof Claessens@xstof,Democracy Is Getting A Reboot On The Blockchain #democracyos #ethereum http://fastcoexist.com/3062386/democracy-is-getting-a-reboot-on-the-blockchain…,2,4,0,False
180,Alex Jiménez@RAlexJimenez,#Ethereum Scaling Advances With Off #Blockchain #Payments http://bit.ly/2aOyReT via @CoinDesk #fintech #in,1,0,0,False
181,a5ym4e@a5ym4e,"ETC: @d_seaman ""doth protest too much, methinks"" http://bit.ly/2aK9k4O @econodaily @HuffingtonPost @barrysilbert @DCGco #ethereumScam or not: Cryptocurrency community divided over Ethereum Classic - EconoTimesEthereum Classic has been gradually spreading its wings since the Ethereum community went ahead with the hardfork solution. Several exchanges and mining pools have added support this new cryptocurr...econotimes.com",0,0,0,False
182,BitcoinAgile@bitcoinagile,From #bitcoin Maximalist To #ethereum Classic Fanatic? http://huffingtonpost.com/david-seaman/from-bitcoin-maximalist-t_b_11457636.html…,0,0,0,False
183,Ethereum Monkey@EthMonkey,From Bitcoin Maximalist To Ethereum Classic Fanatic? #ethereum http://huffingtonpost.com/david-seaman/from-bitcoin-maximalist-t_b_11457636.html…,0,0,0,False
184,Blockgeeks@Blockgks,25 GENIUSES WHO ARE CREATING THE FUTURE OF BUSINESS http://snip.ly/avrq9 #Blockchain #Ethereum,0,0,0,False
185,Coinstats@coinstats,"Ethereum Classic - ETC
Price: $1.89404
Change in 1h: -1.31%
Market cap: $156943230.0
Ranking: 6
#Ethereum Classic #ETC",0,0,0,False
186,Coinstats@coinstats,"Ethereum - ETH
Price: $11.67
Change in 1h: -0.15%
Market cap: $967220794.0
Ranking: 2
#Ethereum #ETH",0,0,0,False
187,Ameer Rosic@AmeerRosic,The #Blockchain is the new Google http://snip.ly/7tjfx #Ethereum #Bitcoin #Cryptocurrency,0,0,0,False
188,Quetzalcoalt@LLbajacrypto,"We do not make this declaration lightly, The #Ethereum Classic Declaration of Independence #blockchain #startup https://ethereumclassic.github.io/assets/ETC_Declaration_of_Independence.pdf…",0,0,0,False
189,Randy Hilarski@RandyHilarski,LE30: Isaac Morehouse - Experience Based Education http://slninja.com/hdiv #Bitcoin #Ethereum #CryptoCurrency,8,2,0,False
190,BitcoinAgile@bitcoinagile,#ethereum Classic declaration of independence.pdf https://drive.google.com/file/d/0BxPZFxWvp6D5aHptMVdpWllOWTQ/view?pref=2&pli=1…,0,0,0,False
191,a5ym4e@a5ym4e,"#ethereum ""classic"": ""Declaration of Independence"" http://bit.ly/2aK7OQ2 @ethereumproject @The_DAO_Project @slockitprojectEthereum Classic declaration of independence.pdfdrive.google.com",0,0,0,False
192,temugunners@temumathe,Replying to @WorldAthletics and @iaaforgI hope she can do it  proud to be Ethiopian. . #ETH,0,0,0,False
193,Cloud Mining Monitor@cmmonitorcom,#Ethereum #Cloudmining': 11.08.2016 Payment received. 6 MHs - 0.04311703 ETH. From Genesis Mining.Genesis Mining (Ethereum Mining)cmmonitor.com,1,0,0,False
194,Fate@TheFateofBTC,"all #ethereum chains:

Sometimes you're the shorter, sometimes you're the loser. Your choice these days.",2,2,0,False
195,BlockChannel@BlockChannel,"BCN News: themerklenews: Ethereum's casper is causing some debates http://themerkle.com/casper-may-cause-centralized-staking-by-rich-ethereum-holders/… #ethereum #cryptocurrency #ethereumnews #ethnew…Casper May Cause Centralized Staking By Rich Ethereum HoldersThe Ethereum developers have unveiled some more details regarding the Casper release. As part of this release, Ethereum will also transition from proof-of-work to proof-of-take. Securing the network athemerkle.com",0,0,0,False
196,Bahiru Shewaye@bahiru_shewaye,Outright int'l #discussion #Lgbt #dana #eth #charity feeling excited @CherylOvers,1,0,0,False
197,Bitcoin@crypto_bitcoins,"#Korea's Largest #Bitcoin Exchange Supports #Ethereum Classic, Eliminates All Fees https://cointelegraph.com/news/koreas-largest-bitcoin-exchange-supports-ethereum-classic-eliminates-all-fees… #etc htt",0,0,0,False
198,Cointon@CointonDotCom,"#Korea's Largest #Bitcoin Exchange Supports #Ethereum Classic, Eliminates All Fees https://cointelegraph.com/news/koreas-largest-bitcoin-exchange-supports-ethereum-classic-eliminates-all-fees… #etc htt",0,0,0,False
199,Bob Summerwill@BobSummerwill,"I was asked ""Opinion on @EthereumClassic?   Any future for it?""
See thread below
#ethereum #hardfork https://twitter.com/jmseiko/status/763475981743120384…This Tweet is unavailable.",2,0,0,False
202,Blockgeeks@Blockgks,The #Blockchain is the new Google http://snip.ly/7tjfx #Ethereum #Bitcoin #Cryptocurrency,0,0,0,False
203,Coinstats@coinstats,"Ethereum Classic - ETC
Price: $1.92397
Change in 1h: +3.22%
Market cap: $159420560.0
Ranking: 6
#Ethereum Classic #ETC",0,0,0,False
204,Coinstats@coinstats,"Ethereum - ETH
Price: $11.6996
Change in 1h: -0.45%
Market cap: $969658099.0
Ranking: 2
#Ethereum #ETH",0,0,0,False
205,Ethereum Price@EthereumPrice_,"#Ethereum: Ether Price Index
1 ETH =0.019713Ƀ XBT = $11.669015 USD
Today: -3.90%⬇︎ Last 24h: -2.33%⬇︎
https://ethereum-price.com",1,0,0,False
206,fintechfolk@fintechfolk,Thanks @scootcho for registering for FinTechFolk - http://zpr.io/Mnfj #fintech #ethereum #bitcoin #blockchain,0,0,0,False
207,Julia Edling@bitcointonic,"#Ethereum Classic Eliminates All Fees: #Korbit, Korea’s largest #Bitcoin exchange has… http://dlvr.it/M17Hcc",0,0,0,False
208,Francisco Gordillo@FGordillo,"#bitcoin #blockchain Cryptsy CEO Stole Millions From Exchange, Court Receiver Alleges: Crypt... http://bit.ly/2aZJyu7 #ethereum #ether",0,0,0,False
209,Stephanie Clarke@Steph_ClarkeB2B,"Great another great article by @anthemlau in @bankingdotcom #blockchain #ethereum #fintechQuote TweetQuadient@Quadient · Aug 11, 2016Are Emerging Technologies a Threat to #Fintech? 
analysis on @bankingdotcom by @anthemlau
http://bit.ly/2aM2Emg",2,2,0,False
210,Ameer Rosic@AmeerRosic,How #Blockchain Technology Can Reinvent The Power Grid http://snip.ly/k7p0q #ethereum #Bitcoin,0,0,0,False
211,Reality Bites@thripance,"Since the court order, Vern has moved over $600k of #ethereum, #worldcoin , #earthcoin, #primecoin and #vertcoin out of  wallets #cryptsy",0,0,0,False
212,Pravin Bhudiya@pravin_bhudiya,"ShapeShift Adds #LBRY Credits! Instant Conversion to #Bitcoin, #Ethereum, and More http://goo.gl/408jiR #Crypto",2,1,0,False
214,Miss Sheree@missdiorsheree,'Big Four' #Accounting Firms Meet to Consider #Blockchain Consortium http://bit.ly/2aNMfkD via @CoinDesk #Ethereum #tech #standard,1,1,0,False
215,DJ ED@DJED163,#tbt @nas  PRIVATE LISTENING FOR STILLMATIC ALBUM!! #ETHER #NAS #TOP5DEADORALIVE https://instagram.com/p/BI-f88AgMCU/,0,0,0,False
216,Ethereum SE@StackEthereum,geth throwing header invalid error all the time http://ethereum.stackexchange.com/questions/7966/geth-throwing-header-invalid-error-all-the-time… #ethereum #goethereum #logs #nonce #blockheader,0,0,0,False
217,Mihai Alisie@MihaiAlisie,"If things go well the #Raiden team expects a beta launch by the end of the year #ethereum #payment #channels
http://coindesk.com/ethereum-scaling-advances-first-off-blockchain-payments/…",6,2,0,False
218,John Gerryts@phonikg,Replying to @phonikg@_shilpikumar can you confirm #eth support for @FilamentHQ? Love to chat again if true! @SriramVSharma @Tracxn @AugurProject @ethcoreproject,0,0,0,False
219,Reality Bites@thripance,Cryptsy recovered coins list #ethereum #litecoin #bitcoin #dash #anoncoin #feathercoin #dogecoin #bitcoinImgurimgur.com,0,0,0,False
220,Meeji@itsMeeji,@blockchain will you be releasing an ether wallet? #ether,1,1,0,False
221,Colin Sydes #FBPE  @SydesJokes,Vitalik Buterin Won’t Support ETC If It Takes Over ETH http://bit.ly/2aAQwJA #Ethereum #Bitcoin #Blockchain #CryptoCurrency #FinTech,1,1,0,False
222,Reality Bites@thripance,Cryptsy held 6.9 of 42 coin. 5000 ethereum and 1000 dash #daSh #ethereum #42coin #uselesscryptsyfacts,1,0,0,False
223,Rob Viglione@robviglione,"""#Ethereum Scaling Advances With 'First' Off-Blockchain Payments"" #bitcoin #finance #tech http://coindesk.com/ethereum-scaling-advances-first-off-blockchain-payments/…",3,0,0,False
224,ethereum.network@EthereumNetw,"Two #Ethereum Proof of Concepts:
*Credit transaction between banks
*Off chain scaling with http://raiden.network
http://huffingtonpost.com/david-seaman/ethereum-tests-light-spee_b_11452612.html…",1,0,0,False
225,Michael Olivier@molivier,Fun #Ethereum hack ideas. Look for upvotes below each and read the 5+ ones. I esp. like the crowd-sourced poem. https://lnkd.in/bzzGp2V,0,0,0,False
226,Reality Bites@thripance,Cryptsy receivership report #cryptsy #bitcoin #litecoin #ethereum http://cryptsyreceivership.com/v1/wp-content/uploads/2016/08/Notice-of-Filing-Receivers-2nd-Report-8-2-16-full.pdf…,0,0,0,False
227,Blockgeeks@Blockgks,#Airbnb just acquired a team of bitcoin and #blockchain experts http://snip.ly/66ft0 #Ethereum,1,0,0,False
228,Coinstats@coinstats,"Ethereum Classic - ETC
Price: $1.85858
Change in 1h: +0.98%
Market cap: $153999928.0
Ranking: 6
#Ethereum Classic #ETC",0,0,0,False
229,David Liam@crazydaveorama,"#Ethereum Price Technical Analysis – Targets Achieved, Buy Dips More?Ethereum Price Analysis – Targets Achieved, Buy Dips More?Ethereum price continued to gain traction against the US Dollar, and it looks like the idea of buying dips may still work in the short term.newsbtc.com",0,0,0,False
230,Coinstats@coinstats,"Ethereum - ETH
Price: $11.7422
Change in 1h: -0.81%
Market cap: $973172740.0
Ranking: 2
#Ethereum #ETH",0,0,0,False
231,David Liam@crazydaveorama,"#Ethereum Classic Price Technical Analysis – Continue Selling ETC - NEWSBTCEthereum Classic Price Technical Analysis – Continue Selling ETCEthereum classic price moved down against Bitcoin, and formed a new weekly low. ETC/BTC currently remains under selling pressure.newsbtc.com",1,0,0,False
232,David Liam@crazydaveorama,Is #Ethereum Classic Spelling Trouble for Barry Silbert? - NEWSBTC http://newsbtc.com/2016/08/10/does-ethereum-classic-spell-trouble-for-barry-silbert/…,0,0,0,False
233,Monkeyscage@monkeyscage,"How to emulate financial products using Online-Selling as basic module: ARK DAO is built on #Ethereum Launching soonQuote TweetMonkeyscage@monkeyscage · Aug 8, 2016#Ethereum #eth",5,7,0,False
234,Bitcoin Trader@BTC_PRO,Replying to @BTC_PROU can also trade #litecoin #namecoin #ethereum #oil #gold #stocks #cryptocurrencies & more 100% anonymously: https://goo.gl/th7eNQ,1,2,0,False
235,ethereum.network@EthereumNetw,"Use cases of @golemproject, the #decentralized #distributed computing network on #Ethereum
https://medium.com/@golemproject/what-can-golem-do-for-you-503b2449767a…",3,1,0,False
236,Monkeyscage@monkeyscage,"#Ethereum A new test for the DAOs ecosystem: ARK is a Collaborative Market (Plex-Market). Ready to test? #btcQuote TweetMonkeyscage@monkeyscage · Aug 8, 2016#Ethereum #eth",5,9,0,False
238,Ethereum SE@StackEthereum,Can oracles send data to smart contracts on multiple blockchains? http://ethereum.stackexchange.com/questions/7965/can-oracles-send-data-to-smart-contracts-on-multiple-blockchains… #ethereum #oracles #blockchaininteroperation,0,0,0,False
239,Ameer Rosic@AmeerRosic,How #blockchain technology can prevent the next financial crisis http://snip.ly/1voll #Bitcoin #Ethereum,0,0,0,False
241,John Lilic ₿ Ξ ∞@JohnLilic,"Enter #EthereumQuote TweetAster@AsterCapital · Aug 11, 2016#selfdriving cars : the race to find a business-model #SmartMobility http://bit.ly/2bfxQNJ",1,0,0,False
243,Ameer Rosic@AmeerRosic,10 Amazing Facts About #Bitcoin http://dld.bz/eNrfW #Blockchain #Cryptocurrency #Ethereum,0,0,0,False
244,Tedy MD@bitcoinjapanese,How Michelle Phan Cracked The Billion Dollar Beauty I... http://vid.staged.com/W6Vs #btcjapan #btcchina #ethereum.co.id,1,0,0,False
245,Brett McDonald@_bmcdonald,"Solving the public #blockchain scalability problem, one proof-of-concept at a time - #fintech #ethereum #bitcoin http://bit.ly/2aOyReT",0,0,0,False
246,MinerGate@MinerGate,The autumn is nigh! Just 20 days to enjoy our 0% pool fee for #ETC. Try in now on http://minergate.com #ethereum,10,8,0,False
247,fintechfolk@fintechfolk,Thanks  for registering for FinTechFolk - http://zpr.io/Mnfj #fintech #ethereum #bitcoin #blockchain,0,0,0,False
248,Blockgeeks@Blockgks,How #Blockchain Technology Can Reinvent The Power Grid http://snip.ly/k7p0q #ethereum #Bitcoin,1,0,0,False
249,Kryptonews.live official account@Starfaucet,#ethereum what happens when you send ethereum to ethereum classic address  by mistake from @brittex,0,0,0,False
250,Coinstats@coinstats,"Ethereum Classic - ETC
Price: $1.8305
Change in 1h: -0.14%
Market cap: $151670700.0
Ranking: 6
#Ethereum Classic #ETC",0,0,0,False
251,Coinstats@coinstats,"Ethereum - ETH
Price: $11.8381
Change in 1h: -0.37%
Market cap: $981105212.0
Ranking: 2
#Ethereum #ETH",0,0,0,False
252,Ameer Rosic@AmeerRosic,"In the Future, Ownerless Companies Will Live on the #Blockchain http://snip.ly/vt929 #Ethereum",0,0,0,False
253,Victoria Adams@ToriinDC,#Ethereum Scaling Advances With Off-#Blockchain Payments - http://goo.gl/alerts/kgdQE #GoogleAlerts,2,2,0,False
254,Vladimir Vano@vladimirvano,"@TunstallAsc Thanks for the follow and for retweets, Steve! How's life in #Singapore? What's hot in #ethereum sphere? ;-)",1,1,0,False
255,Cryptiv@Cryptiv,#Ethereum Scaling Advances With 'First' Off-#Blockchain Payments http://ow.ly/Eltm3038ZBk,0,0,0,False
256,Ethereum Monkey@EthMonkey,"Ethereum Tests ""Light Speed"" As More Banks Go Blockchain #ethereum http://huffingtonpost.com/david-seaman/ethereum-tests-light-spee_b_11452612.html…",0,0,0,False
257,BitcoinAgile@bitcoinagile,"#ethereum Tests Light Speed As More Banks Go #blockchain #bitcoin,technology http://huffingtonpost.com/david-seaman/ethereum-tests-light-spee_b_11452612.html…",0,0,0,False
258,Ethereum Monkey@EthMonkey,"Freewallet Has Released Mobile-First Wallet for ""Ethereum Alternative"" Lisk #ethereum http://financemagnates.com/cryptocurrency/innovation/freewallet-has-released-mobile-first-wallet-for-ethereum-alternative-lisk/…",1,0,0,False
261,Nicole Lynn@akamullin,"Korea's Largest Bitcoin Exchange Supports #Ethereum Classic,  Eliminates All Fees http://coint.co/3yby #bitcoin $etc #decentralization",7,6,0,False
262,DAPPSTER@DAPPSTER_PR,Real Project? You cannot found?Look at #DAPPSTER and buy today. https://yobit.net/en/trade/DLISK/BTC… One month old and trading above ICO price. #eth #etc,3,1,0,False
263,CryptKeeper@CryptKeeperBTT,"White Hat Hackers Could Have Crashed #Ethereum Classic
$ETH $ETC #etherWhite Hat Hackers Could Have Crashed Ethereum ClassicAs it turns out, self-professed white hat hackers are not trustworthy either. Particularly not when no one knows who is controlling the money right now.newsbtc.com",2,3,0,False
264,Angela Walch@angela_walch,"It all boils down to politics, folks. #ethereum #etc #blockchainQuote TweetEthereum Classic@eth_classic · Aug 11, 2016I am very proud to present ""The Ethereum Classic Declaration of Independence"" https://ethereumclassic.github.io/assets/ETC_Declaration_of_Independence.pdf…",0,0,0,False
266,ekdromoi@ekdromoi,"Replying to @VitalikButerin.@VitalikButerin @mrjonesza couldnt we also describe $ETH as a centralized bureaucracy, susceptible to values",0,0,0,False
267,Graeme Moore@MooreGrams,very entertaining read on events in ethereum. #eth #etc #ethereum #btc #bitcoin #crypto https://twitter.com/WhalePanda/status/760474635137867776…This Tweet is unavailable.,0,0,0,False
268,Beyond the void #blockchaingame@BeyondVoidGame,"#Beyondthevoid ‘s development continues, here is a new design for harvesters. #strategygame #indiegame #ethereum",3,1,0,False
269,Alberto Jauregui | esoteRICK.eth @DisruptBanksy,"http://ift.tt/2b89Pa2 Enterprise blockchains – trust, identity and the Ethereum hard fork - Diginomica #ethereum #ether",0,0,0,False
270,BitcoinAgile@bitcoinagile,#ethereum Classic declaration of independence.pdf https://drive.google.com/file/d/0BxPZFxWvp6D5aHptMVdpWllOWTQ/view?usp=sharing…,1,0,0,False
271,Ethereum Monkey@EthMonkey,"Enterprise blockchains - trust, identity and the Ethereum hard fork #ethereum http://diginomica.com/2016/08/11/enterprise-blockchains-trust-identity-and-the-ethereum-hard-fork/…",0,0,0,False
273,Ethereum Monkey@EthMonkey,Scam or not: Cryptocurrency community divided over Ethereum Classic - EconoTimes #ethereum http://econotimes.com/Scam-or-not-Cryptocurrency-community-divided-over-Ethereum-Classic-261843…,0,0,0,False
275,Silicon Talent@silicontalent,Team of #ethereum developers completes first off- #blockchain transaction.  @AlyssaHertig reports. http://coindesk.com/ethereum-scaling-advances-first-off-blockchain-payments/…,1,0,0,False
277,Blockgeeks@Blockgks,How #blockchain technology can prevent the next financial crisis http://snip.ly/1voll #Bitcoin #Ethereum,1,0,0,False
278,Coinstats@coinstats,"Ethereum Classic - ETC
Price: $1.82453
Change in 1h: -2.51%
Market cap: $151173320.0
Ranking: 6
#Ethereum Classic #ETC",0,0,0,False
279,Coinstats@coinstats,"Ethereum - ETH
Price: $11.8813
Change in 1h: +0.24%
Market cap: $984669987.0
Ranking: 2
#Ethereum #ETH",0,0,0,False
280,Ethereum Price@EthereumPrice_,"#Ethereum: Ether Price Index
1 ETH =0.019934Ƀ XBT = $11.869715 USD
Today: -2.82%⬇︎ Last 24h: +0.39%⬆︎
https://ethereum-price.com",3,0,0,False
281,Netcube93@Netcube93,DataYes and #Factom To Provide Immutable #Stockmarket Data in China http://thedashtimes.com/2016/08/11/datayes-and-factom-collobrate/… #blockchain #bitcoin #ethereum,0,0,0,False
282,⛧ God of Gaming ⛧@TheGodofGamez,"Today, give a stranger a smile without waiting for it may be the joy they need to have a great day. $ETH",0,0,0,False
285,Purple Walrus@LibertysGhost,$ETC is 100% $ETH tech but 20% the cost. Develop on #ETC for 80% off the price of fees(gas). Your end users & bottom line will thank you.,2,0,0,False
286,Ethereum SE@StackEthereum,How to configure max txpool memory size http://ethereum.stackexchange.com/questions/7961/how-to-configure-max-txpool-memory-size… #ethereum #txpool,0,0,0,False
287,Roua Crafts@RouaCrafts,Double wrap beaded textile bracelet :) #rouacrafts #london #uk #jewelry #textiles #beautiful #colourful #beads #eth…,1,0,0,False
288,Rimbit @rimbit,"Tradezero Platfom Opens Off-chain Exchange, Accepts Btc http://rimbit.com/posts/12612 #bitcoin #ethereum",0,0,0,False
289,Ameer Rosic@AmeerRosic,The Theory of a #Blockchain Circular Economy http://snip.ly/8snff #Ethereum #bitcoin,1,0,0,False
290,Ali Güçlü@aliguclu,"CoinTelegraph : #Korea's Largest #Bitcoin Exchange Supports #Ethereum Classic, Eliminates … https://twitter.com/CoinTelegraph/status/763742297716555776…)Quote TweetCointelegraph@Cointelegraph · Aug 11, 2016#Korea's Largest #Bitcoin Exchange Supports #Ethereum Classic, Eliminates All Fees https://cointelegraph.com/news/koreas-largest-bitcoin-exchange-supports-ethereum-classic-eliminates-all-fees… #etc",0,0,0,False
291,LAPITH@bhumharit,"#Korea's Largest #Bitcoin Exchange Supports #Ethereum Classic, Eliminates All Fees https://cointelegraph.com/news/koreas-largest-bitcoin-exchange-supports-ethereum-classic-eliminates-all-fees… #etc",0,0,0,False
293,Timo Ξberhard@ZhuBajie72,"While #ETClowns declare #democracy ""tyranny of the majority"", #Ethereum keeps on pushing real world #blockchain apps to the mainstream.",1,0,0,False
294,Cryptopatterns@Cryptopatterns,Long 50% Mid size $BTC @$600. Need 4 other trades-wouldn't buy 2 hold otherwise. IT trade. #bitcoin $ETH #ethereum,1,0,0,False
295,Dynamic Reality@DynamicReality,Replying to @desantis and @eth_classic$etc is still no more immutable than $eth. Devs just SAY they won't change. What's a promise worth these days? $1.80?,0,0,0,False
296,Timo Ξberhard@ZhuBajie72,'Big Four' Accounting Firms Meet [with @ConsenSysLLC] to Consider [#Ethereum backed] #Blockchain Consortium http://bit.ly/2aNMfkD #Ether,1,0,0,False
297,Chris Timuat@ChrisBizEnglish,Via FinTechSummary: #Coinbase to Enable #Ethereum Classic Withdrawals - CoinDesk http://buff.ly/2aL3zag #FinTech …,0,0,0,False
298,Master Node@master_node,In 2010 10k #bitcoin got you a #pizza In 2016 10k $dnet will get you a #darknet #masternode $ltc $dash $eth $etc,0,0,0,False
299,Liz Hermawan@LizHermawan,#Ethereum Scaling Advances With Off-Blockchain Payments: A team of ethereum developers… http://goo.gl/fb/7OaOy9 #vk,0,0,0,False
300,Ethereum Canada@EthereumCanada,"#Ethereum: Here Come the Big Banks: http://ow.ly/jcpf3038ONX #blockchain #fintech #bitcoin #cryptocurrencyEthereum: Here Come The Big BanksThe Ethereum protocol, described by some in the cryptocurrency community as a new rival or sibling for frontrunner technology Bitcoin, is supported by it...huffpost.com",0,0,0,False
301,Christine Sukasih@Christine_S025,#Ethereum Scaling Advances With Off-Blockchain Payments: A team of ethereum developers has… http://goo.gl/fb/l7q8ib,0,0,0,False
302,Blockgeeks@Blockgks,"In the Future, Ownerless Companies Will Live on the #Blockchain http://snip.ly/vt929 #Ethereum",0,0,0,False
303,Coinstats@coinstats,"Ethereum Classic - ETC
Price: $1.89745
Change in 1h: -0.21%
Market cap: $157212330.0
Ranking: 6
#Ethereum Classic #ETC",0,0,0,False
304,Ethereum UAE@Ethereum_UAE,'Big Four' Accounting Firms Meet to Consider Blockchain Consortium http://ift.tt/2b7SsWF #Ethereum,0,0,0,False
305,Coinstats@coinstats,"Ethereum - ETH
Price: $11.8441
Change in 1h: +1.07%
Market cap: $981570557.0
Ranking: 2
#Ethereum #ETH",0,0,0,False
306,Christine Soekasih@Christine_S02,#Ethereum Scaling Advances With Off-Blockchain Payments: A team of ethereum developers… http://goo.gl/fb/NCsm4p #vk,1,0,0,False
307,ThePowerOfKnowledge@PlanetEarthNews,"Realm of #Ethereum Splits into Two Coins; Volume & Hashrate of #ETC Surges //// #poloniex
https://shorter.pro/tHQK6",0,0,0,False
308,/r/Ethereum@r_Ethereum,Leveraging opportunities on the blockchain - Bitshares and OpenLedger to bank the unbanked — Steemit http://bit.ly/2aVfr9K #EthereumLeveraging opportunities on the blockchain - Bitshares and...Posted in r/ethereum by u/ccedk_pro • 0 points and 0 commentsreddit.com,0,0,0,False
309,/r/Ethereum@r_Ethereum,"GDAX/Coinbase ETH deposit Issues? http://bit.ly/2aVeAFZ #EthereumGDAX/Coinbase ETH deposit Issues?I did a deposit from bitfinex to Gdax yesterday and even though I have 3800+ block confirmations and its been over 15 hours, my deposit still...reddit.com",0,0,0,False
310,/r/Ethereum@r_Ethereum,The TRUTH about the Ethereum Classic community http://bit.ly/2bjxzfH #EthereumThe TRUTH about the Ethereum Classic communityreddit.com,0,0,0,False
311,FinTech Summary@FinTechSummary,#Coinbase to Enable #Ethereum Classic Withdrawals - CoinDesk http://buff.ly/2aL3zag #FinTech,0,0,0,False
312,This time it's different@MrAltCoin,From the #poloniex trollbox: but it will probably still drop cause eth is dying and it can only be pumped by stabbing its father #ethereum,0,0,0,False
313,Francisco Gordillo@FGordillo,#bitcoin #blockchain 'Big Four' Accounting Firms Meet to Consider Blockchain Consortium: 'Bi... http://bit.ly/2aZ60TS #ethereum #ether,1,0,0,False
314,⛧ God of Gaming ⛧@TheGodofGamez,Victory belongs to the most persevering. $ETH,0,0,0,False
316,Francisco Ribeiro@c1sc0r1b31r0,ETC declaration of independence https://ethereumclassic.github.io/assets/ETC_Declaration_of_Independence.pdf… #IndependenceDay #ETC #ETH,2,1,0,False
317,ThePowerOfKnowledge@PlanetEarthNews,"Exchange your #Bitcoin for USD, EUR, AUD, and more, safe and secure. Good trading #ethereum #etc
https://shorter.pro/Cpwd2",0,0,0,False
318,Ethereum SE@StackEthereum,Reverting changes made during the transaction without throwing an exception http://ethereum.stackexchange.com/questions/7956/reverting-changes-made-during-the-transaction-without-throwing-an-exception… #ethereum #solidity #exceptions,0,0,0,False
319,Ethereum SE@StackEthereum,"Besides the DAO - what are some examples of where Ether has been hacked, stolen or lost? http://ethereum.stackexchange.com/questions/7957/besides-the-dao-what-are-some-examples-of-where-ether-has-been-hacked-stolen… #ethereum #attacks",0,0,0,False
320,Timo Ξberhard@ZhuBajie72,"""The #Ethereum Crap Declownation of Indumbence""  

Impressive  
.
.
.
.
............................not.",0,0,0,False
321,Crypdex@CrypdexLLC,converted 17.66 mBTC $10.54 USD to ETH #Ethereum,0,0,0,False
322,ምንተስኖት ፍቅሬ(Mintila)@MintesinotF,"#Eth says UN observers not needed as protests rage...zs implies GOE entitled to kill & prison ppl stood against them
http://aje.io/7255",1,0,0,False
323,Scambust@scambust,"That's a great statement for a beta software... #Ethereum Classic $ETCQuote TweetEthereum Classic@eth_classic · Aug 11, 2016I am very proud to present ""The Ethereum Classic Declaration of Independence"" https://ethereumclassic.github.io/assets/ETC_Declaration_of_Independence.pdf…",1,0,0,False
328,Charles Douthat@creiddouthat,"Sure thing. Ya you can pick which Blockchain in the @LedgerHQ $ETH Wallet. Depending which you use, each time!",0,0,0,False
329,Golden Gateway@GoldenGatewayUS,Ethereum Scaling Advances With 'First' Off-Blockchain Payments http://officialgoldengateway.blogspot.com/2016/08/ethereum-scaling-advances-with-first_27.html… #ethereum,0,0,0,False
333,Alberto Jauregui | esoteRICK.eth @DisruptBanksy,http://ift.tt/2bjsJxZ Ethereum Scaling Advances With 'First' Off-Blockchain Payments - CoinDesk #ethereum #ether,0,0,0,False
334,Alberto Jauregui | esoteRICK.eth @DisruptBanksy,http://ift.tt/2b7QCFe White Hat Hackers Could Have Crashed Ethereum Classic - newsBTC #ethereum #ether,0,0,0,False
335,Champ’s Daddy@The1nONLY_Dubbz,We was suppose to #takeover... I caught her bumpin #Ether smh,0,0,0,False
336,YOᗪI ᕼEᖇᗰᗩᗯᗩᑎ@YodiHermawan,#Ethereum Scaling Advances With 'First' Off-Blockchain Payments: A team of ethereum… http://goo.gl/fb/dm367K #vk,0,0,0,False
337,Buzzlite@buzzlite732,Declaration of Independence for Ethereum Classic https://ethereumclassic.github.io/assets/ETC_Declaration_of_Independence.pdf… #ethereum classic #ethereumclassic #etc,1,0,0,False
338,Mohammed Aajaji@aajaji_m,"#ETC Community is preparing something, any hint ? #Ethereum #blockchainQuote TweetEthereum Classic@eth_classic · Aug 11, 2016We got something really important coming out at block 2,050,000. STAY TUNED!",0,0,0,False
339,Jacek (Jomsborg.eth)@timelessdev,"#Ethereum can achieve #VISA speed
https://cryptocoinsnews.com/ethereum-races-ahead-raidens-implementation-lightning-network/?utm_content=buffer9af57&utm_medium=social&utm_source=linkedin.com&utm_campaign=buffer…",0,0,0,False
341,Раб Божий@Diener_Gottes,#Ethereum Scaling Advances With 'First' Off-Blockchain Payments: A team of ethereum… http://goo.gl/fb/npcB94,0,0,0,False
342,swalayan alkhairaat@salsispalu,"war declaration :D
#ethereum #Bitcoin #poloniex #cryptocurrency #Bitfinex #KrakenQuote TweetEthereum Classic@eth_classic · Aug 11, 2016I am very proud to present ""The Ethereum Classic Declaration of Independence"" https://ethereumclassic.github.io/assets/ETC_Declaration_of_Independence.pdf…",0,0,0,False
343,OpenLedger@openledger,"Ex- #Ethereum Developer: How the #DAO Hack Happened And What Comes Next #cryptocurrency #ETH
https://cryptocoinsnews.com/ex-ethereum-developer-dao-hack-happened-comes-next/…",0,0,0,False
344,Vic Arulchandran@VicArulchandran,"@EthereumClassic declaration of independence 
#ethereum classic #blockchain
https://github.com/ethereumclassic/ethereumclassic.github.io/blob/master/assets/ETC_Declaration_of_Independence.pdf…",0,0,0,False
345,Riccardo Spagni@fluffypony,Ethereum Classic have released their Declaration of Independence: https://ethereumclassic.github.io/assets/ETC_Declaration_of_Independence.pdf… $ETH $ETC,1,3,0,False
347,Ethereum SE@StackEthereum,How do block explorers actually work? http://ethereum.stackexchange.com/questions/7955/how-do-block-explorers-actually-work… #ethereum #blockchain #explorers,0,0,0,False
348,Gastracker@gastrackerio,Hooray!!! #Ethereum #ETC Independence Block is here! https://gastracker.io/block/2050000,2,1,0,False
349,tgerring.eth@TaylorGerring,"Wednesday, October 26, I'll be presenting about #Ethereum at @AllThingsOpen. https://allthingsopen.org/schedule/",1,0,0,False
351,Bitcoin News@scryptsy,#Scryptsy.com #BTC #Ethereum Scaling Advances With 'First' Off-Blockchain Payments: A team… http://goo.gl/fb/Vxytjt,0,0,0,False
352,Cryptopatterns@Cryptopatterns,"Instincts say this is the trade, probabilities say it's too early to have edge $ETH $ETC $BTC #ethereum #Bitcoin",0,0,0,False
353,Ethereum UAE@Ethereum_UAE,Ethereum Scaling Advances With 'First' Off-Blockchain Payments http://ift.tt/2b7JEQO #Ethereum,0,0,0,False
354,Frank Morisano@morisano,#Ethereum Scaling Advances With 'First' Off-#Blockchain #Payments http://coindesk.com/ethereum-scaling-advances-first-off-blockchain-payments/… via @CoinDesk,0,0,0,False
355,Le La฿ TV @lelabtv,#Ethereum Scaling Advances With 'First' Off-Blockchain Payments --> http://j.mp/2b8wmX5,0,0,0,False
356,BitcoinAgile@bitcoinagile,SingularDTV #ethereum #singulardtv #icocountdown #ethereumproject http://bit.ly/2bjoFOm,1,1,0,False
357,ICOcountdown@ICOcountdown,https://singulardtv.com/sign-up #singulardtv signup for the newsletter for updates and secrets ;) #icocountdown #ethereum #ethereumproject,1,1,0,False
358,"Eyal Ron (""Neiman"")@neiman30","Changed $ETH for $ETC. We're in block #2049951.Quote TweetEthereum Classic@eth_classic · Aug 11, 2016We got something really important coming out at block 2,050,000. STAY TUNED!",0,0,0,False
359,Blockgeeks@Blockgks,#Blockchain Powered Micropayment Browser Brave Raises $4.5m http://snip.ly/qmlif #Ethereum #bitcoin,0,0,0,False
360,BitcoinAgile@bitcoinagile,Asus Strix AMD Radeon R7 370 4GB How To Get Maximum Hashrate #ethereum #ethOS #AMDRadeon http://1stminingrig.com/asus-strix-amd-radeon-r7-370-4gb-how-to-get-maximum-hashrate…,1,0,0,False
361,ONL@onlonlonl,Asus Strix AMD Radeon R7… http://dlvr.it/M12MMy #ethOS #AMDRadeon #AsusStrix #bestoverclock #ethereum #miningrig,1,0,0,False
362,Charles Douthat@creiddouthat,"Replying to @eth_classic@BitcoinTrezor @1cyrilblanc1 Did you know that the @LedgerHQ #NanoS wallet supports $ETH & $ETC both ""right now""? #LedgerNanoS",0,0,0,False
363,NCFA Canada@NCFACanada,The Next Generation of Open Source #Blockchain #NCFA #fintech #bitcoin #cryptocurrency #ethereum http://ow.ly/EgKi3038zEQ,0,0,0,False
364,Widget 4 Bitcoin@widget4bc,#Ethereum Scaling Advances With 'First' Off-Blockchain Payments: A team of ethereum… http://dlvr.it/M12BYR,0,0,0,False
365,4BC@aff4bc,#Ethereum Scaling Advances With 'First' Off-Blockchain Payments: A team of ethereum… http://dlvr.it/M12BYV,0,0,0,False
366,Francisco Gordillo@FGordillo,#bitcoin #blockchain Ethereum Scaling Advances With 'First' Off-Blockchain Payments: A team ... http://bit.ly/2aV7t0y #ethereum #ether,0,0,0,False
367,BitcoinAgile@bitcoinagile,#ethereum Scaling Advances With First Off-#blockchain Payments - Helena #bitcoin Mining http://helenabitcoinmining.com/2016/08/11/ethereum-scaling-advances-with-first-off-blockchain-payments…,1,0,0,False
368,BitcoinAgile@bitcoinagile,"#ethereum Hard Fork, an inconvenient truth #bitcoin #blockchain #medium https://medium.com/@amantrivedi/ethereum-hard-fork-an-inconvenient-truth-78e1c9ec1f37…",1,0,0,False
369,BitcoinAgile@bitcoinagile,#ethereum Scaling Advances With First Off-#blockchain Payments - CoinDesk #Featured http://coindesk.com/ethereum-scaling-advances-first-off-blockchain-payments…,2,7,0,False
370,BitcoinAgile@bitcoinagile,White Hat Hackers Could Have Crashed #ethereum Classic #etc #trading #btc #etcprice http://newsbtc.com/2016/08/11/white-hat-hackers-could-have-crashed-ethereum-classic…,0,0,0,False
371,Bitcoin Retweets@bitcoinbot121,White Hat Hackers Could Have Crashed #Ethereum Classic http://ow.ly/AG343038E8T by @jdebunt #etc #trading #btc,0,0,0,False
373,Ethereum UAE@Ethereum_UAE,"Jaxx Wallet to Integrate Dash http://ift.tt/2aDO6u0 #EthereumJaxx Wallet to Integrate DashDash gains integration into a major cryptocurrency wallet, Jaxx, which supports Bitcoin and Ethereum on multiple platforms.cointelegraph.com",0,0,0,False
374,Alejandro Sewrjugin@alesew23,The Chicken & Egg: #Blockchain Existed Before #Bitcoin http://coint.co/3xV3 #Ethereum #Crypto #Fintech #Tech #Finance #Banking #Digital,4,0,0,False
375,Frits Rincker@FritsRincker,We have an Ethereum server up and running.. #eth #ethereum domains http://ethereumcertify.com for sale..,1,0,0,False
376,Cryptopatterns@Cryptopatterns,Now short 40% $Dash @ .00178. Tuf calling tops-going slow staying very small. $ETH $ETC #ethereum #bitcoin #altcoin,1,0,0,False
377,Cryptopatterns@Cryptopatterns,Morning. Say again: THESE GUYS ARE REALLY GOOD. No shame losing on trades. Bk 2 patterns: $ETH $ETC $BTC #ethereum,0,0,0,False
378,Etherplay@etherplay,"more than 100 emails registered in less than 24 hours, keep them coming : http://etherplay.io #ethereum #videogamesEtherplay - Game Studio Building Unstoppable Games on EthereumGame Studio Building Unstoppable Games on Ethereumetherplay.io",0,0,0,False
379,Le La฿ TV @lelabtv,#Ethereum: Here Come The Big Banks --> http://j.mp/2b16ScY,0,0,0,False
381,indxio@indxio,#Russia Market Close || #Bitcoin: $594.52 | 530.21 EUR||  #Litecoin: 0.0031 BTC  || #Ethereum: 0.0196 BTC   || $BTC $LTC $ETH $RUB,0,0,0,False
382,Ethereum SE@StackEthereum,Why Constant variable gets initialised every time? http://ethereum.stackexchange.com/questions/7949/why-constant-variable-gets-initialised-every-time… #ethereum #goethereum #solidity,0,0,0,False
383,Fabrizio Villani@FintechItalia,Practical #Ethereum #Arbitrage Experiments http://buff.ly/2aUQ4pc @giacomozucco @RCasatta @aantonop @Ferdinando1970,0,0,0,False
385,Farah Yussuf@iFarahYussuf,Swimmer from #ETH becomes people's favourite at the #Rio2016 Olympics http://mobile.abc.net.au/news/2016-08-11/robel-the-whale-emerges-as-rio-cult-hero/7718846… #Ethiopia,0,0,0,False
387,Nina Lyon@LyonNina,Replying to @LyonNina@CoinIdol #Razormind to Launch #DeOS to Protect Your #Privacy as Rival #Ethereum Fades https://coinidol.com/razormind-to-launch-deos/…,0,0,0,False
388,Blockgeeks@Blockgks,The Theory of a #Blockchain Circular Economy http://snip.ly/8snff #Ethereum #bitcoin,0,0,0,False
389,Coinstats@coinstats,"Ethereum Classic - ETC
Price: $1.94001
Change in 1h: +3.5%
Market cap: $160733187.0
Ranking: 6
#Ethereum Classic #ETC",0,0,0,False
390,Coinstats@coinstats,"Ethereum - ETH
Price: $11.7161
Change in 1h: +0.43%
Market cap: $970929921.0
Ranking: 2
#Ethereum #ETH",0,0,0,False
391,Ethereum Price@EthereumPrice_,"#Ethereum: Ether Price Index
1 ETH =0.019689Ƀ XBT = $11.736850 USD
Today: -4.02%⬇︎ Last 24h: -2.89%⬇︎
https://ethereum-price.com",1,0,0,False
393,nmnoo@koreaa123,Replying to @koreaa123 and @JamalMOsman@omabha @ahmedvision1 @4Faisel @4DialogSK #UN is in #Eth:the 3rd #UN headquarter next2 #newyork & #brusseles is in #Eth!WALKUP!,0,0,0,False
394,Alberto Jauregui | esoteRICK.eth @DisruptBanksy,http://ift.tt/2b8ndO0 Scam or not Cryptocurrency community divided over Ethereum Classic - EconoTimes #ethereum #ether,1,0,0,False
395,Rimbit @rimbit,Silk Road Auction Could Help Bitcoin Price Bounce Back http://rimbit.com/posts/12603 #bitcoin #ethereum,0,0,0,False
396,⛧ God of Gaming ⛧@TheGodofGamez,"It's important to know that words don't move mountains. Work, exacting work moves mountains. $ETH",0,0,0,False
397,BitcoinAgile@bitcoinagile,Scam or not: Cryptocurrency community divided over #ethereum Classic - EconoTimes #money #news http://bit.ly/2b7yz27,0,0,0,False
399,nmnoo@koreaa123,@Vatescorp @SomaliaNewsroom @Abukarawale @osmando :#UN is in #ETH! The 3rd #UN headquarter next to #Newyork & #Brusseles is in #Eth!WALKUP!,0,0,0,False
400,nmnoo@koreaa123,"Replying to @koreaa123 and @JamalMOsman@HarunMaruf @JamaKadija @Moshireh @maomar324 :#UN is in #Eth,the 3rd headquarter next to #newyork & #Brusseles is in  #ETH!",1,0,0,False
401,kim macleod@bakerygirl9,"Mine Ethereum In The Cloud, No Hardware Needed! 3% Off With Coupon Code: 8rRBkl

http://dld.bz/eMnVB
#ethereum",0,0,0,False
403,Ξ Fly Guy Ξ (flyguy.eth)@FlyGuyInTheSky,#etc $etc getting pumped again! What your fingers... #ethereum,0,0,0,False
404,Rob Nelson@guruvan,"Haha haha

This, and multichain multiEVM obfuscation have been my favorite thoughts all week!

#ethereum #EtherSec https://twitter.com/prestonjbyrne/status/763555241451106305…This Tweet is unavailable.",0,0,0,False
405,Ameer Rosic@AmeerRosic,6 Reasons Why #Blockchain is Worth Getting Excited http://snip.ly/7je5i #bitcoin #Ethereum,2,0,0,False
406,Reuben Godfrey@ReubenGodfrey,more great insights.. thanks @MrYukonC https://youtube.com/watch?v=AWIOI_qWpw8… #ethereum #cryptocurrency #blockchain,0,0,0,False
407,BitcoinAgile@bitcoinagile,#ethereum Price Technical Analysis: Moving Down Due to Heavy Resistance http://bit.ly/2b7scvB,1,0,0,False
408,Wrisk HQ@WriskHQ,"Is this the moment #blockchain goes mainstream? Both @HSBC & @MerrillLynch, & @R3CEV
are at it.

http://buff.ly/2biYYNU
#fintech #BTC #ETH",1,1,0,False
409,Paul@ThePazul,"I'm sorry but why even enter then lol Don't usually approve of fat shaming, but if you're an Olympic athlete... #EthQuote TweetDaily Mail Online@MailOnline · Aug 11, 2016I WAS too fat for the Olympics admits #ETH swimmer shamed as 'the Whale' http://dailym.ai/2biTqUB #Rio2016",0,0,0,False
410,Chris Lustrino@SimpleInnovativ,"@coinbase excited to have purchased some of my first #bitcoin and #ether currency, a smart intuitive platform innovating digital currency",1,0,0,False
411,Md. Masud Rana@MasudRanafx2,ChannelNewsAsia: #Swimming underdog #RobelTheWhale wins #Rio2016 hearts but accused of nepotism in #ETH …,0,0,0,False
412,Coinstats@coinstats,"Ethereum Classic - ETC
Price: $1.87058
Change in 1h: +0.84%
Market cap: $154977991.0
Ranking: 6
#Ethereum Classic #ETC",0,0,0,False
413,Coinstats@coinstats,"Ethereum - ETH
Price: $11.6606
Change in 1h: -0.7%
Market cap: $966314935.0
Ranking: 2
#Ethereum #ETH",0,0,0,False
414,Timo Ξberhard@ZhuBajie72,Buying some #Ether here... #Ethereum $ETH $ETHXBT @krakenfx >>> https://tradingview.com/chart/ETHXBT/9qHNDek8-Breakup-Confirmed-Uptrend-Ignited/…,1,0,0,False
415,Alberto Jauregui | esoteRICK.eth @DisruptBanksy,http://ift.tt/2aNzTMa Is Ethereum Classic Spelling Trouble for Barry Silbert? - NEWSBTC - newsBTC #ethereum #ether,1,0,0,False
417,NO NAME@crypto_teen,"$ETH/BTC chart https://coinigy.com/s/i/57ac5674/
$eth buy?Yobit ETH/BTC Chart - Published on Coinigy.com on August 11th, 2016 at 10:41 AM.Yobit ETH/BTC Chart - Indicators used: Volume (true, 20) - Interval: 60. Published on Coinigy.com on August 11th, 2016 at 10:41 AM.coinigy.com",0,0,0,False
418,Ameer Rosic@AmeerRosic,#Blockchain Technology Proves Itself in Wall Street Test http://snip.ly/i6je1 #Bitcoin #Ethereum,0,0,0,False
419,Francisco Taveira@jftaveira1993,#UnitedNations demands probe of #Ethiopia protest killings http://video.aljazeera.com/channels/eng/videos/un-demands-probe-of-ethiopia-protest-killings/5079401293001… #ETH #EthiopiaProtests #Oromo #Amhara,1,0,0,False
421,kim macleod@bakerygirl9,"Get 3% off Ether Cloud Mining With Coupon Code - 8rRBkl

http://dld.bz/eMnVB
#ether #cloudmining #hashpower",1,0,0,False
422,Bitcoin Updater@BitcoinUpdater,CoinOffering Uses Smart Contracts To Issue Company Shares As Ethereum Tokens #ethereum http://soco.space/BNG9xg,1,0,0,False
423,ethereum.network@EthereumNetw,"#Ethereum's Upcoming #Anonymity Features Whisper & ZeroCash
http://themerkle.com/more-anonymity-features-are-coming-to-ethereum/…
#Privacy",4,3,0,False
424,Cyber Phil ₿ ₿ ₿ ¯\_(ツ)_/¯ ₿ ₿ ₿@H4ck3rPh1ll,Just for the protocol I'm highly bullish on $BTC and $ETC while being bearish on $ETH ,3,0,0,False
426,Eusebio Manzano@eusebiomanzano,#Ethereum's 'Lightning Network' Raiden to strike #IoT and #micropayments http://ibt.uk/A6bnO,0,0,0,False
427,/r/Ethereum@r_Ethereum,R3 Corda Distributed Ledger Slated to Increase Profits by 10% to 15% http://bit.ly/2aYxb16 #Ethereum,0,0,0,False
428,Victoria Uwonkunda@Msuwonkunda,"Any chance you will be speaking with #ETH Robel, @BenJourno anytime soon?",1,0,0,False
430,Crypto Trader Pro @CryptoTraderPro,#Ethereum Price Technical Analysis – Double Top Formation by @AayushJs #btc… http://dlvr.it/M0z9Hr #Ethereum #btc,0,0,0,False
431,Bitcoin Sportsbook @SportsbookBTC,#Ethereum Price Technical Analysis – Double Top Formation by @AayushJs #btc… http://dlvr.it/M0z9HR #Ethereum #btc,0,0,0,False
433,Daily Mail Online@MailOnline,I WAS too fat for the Olympics admits #ETH swimmer shamed as 'the Whale' http://dailym.ai/2biTqUB #Rio2016,27,48,6,False
434,Coinstats@coinstats,"Ethereum Classic - ETC
Price: $1.85696
Change in 1h: -0.64%
Market cap: $153846770.0
Ranking: 6
#Ethereum Classic #ETC",0,0,0,False
435,Coinstats@coinstats,"Ethereum - ETH
Price: $11.7621
Change in 1h: +0.07%
Market cap: $974711400.0
Ranking: 2
#Ethereum #ETH",0,0,0,False
437,Ameer Rosic@AmeerRosic,How #Blockchain Helps Brooklyn Dwellers Use Neighbors' Solar Energy http://snip.ly/f3wcc #Ethereum,1,0,0,False
438,Bitcoin Retweets@bitcoinbot121,#Ethereum Price Technical Analysis – Double Top Formation http://ow.ly/N0fC3038n8M by @AayushJs #btc #bitcoin #news,0,0,0,False
440,Bitcoin Updater@BitcoinUpdater,Ethereum (ETH and ETC) Price Trends (Week of August 8th) #ethereum http://soco.space/26znkF,0,0,0,False
441,Ethereum SE@StackEthereum,DwarfPool mining: Blockchain-syncing and firewall settings http://ethereum.stackexchange.com/questions/7948/dwarfpool-mining-blockchain-syncing-and-firewall-settings… #ethereum #mining #miningpools #ethminer #firewalls,0,0,0,False
443,EtherBlockchain.io@etherblockchain,R3 Corda Distributed Ledger Slated to Increase Profits by 10% to 15% - NEWSBTC http://newsbtc.com/2016/08/11/corda-distributed-ledger-and-profits/… #ether #blockchain,0,0,0,False
445,Chris Timuat@ChrisBizEnglish,Via FinTechSummary: Latest #FinTech Weekly Summary is out - http://buff.ly/2aFYa3V #banking #ethereum #digital #payments #blockchain #fin…,1,0,0,False
447,Dave O@D4v3_0,just observe $ETH - $ETC ping pong now. there is a chance to earn a decent amount of $BTC,0,0,0,False
448,Ram@hiddentao,Lol at ETH people indulging in a little schadenfreude due to ETC possibly being “stolen” by the so-called White-hat shenanigans :D #Ethereum,1,0,0,False
449,EtherBlockchain.io@etherblockchain,Designing Safer Smart Contracts https://media.consensys.net/2016/08/10/designing-safer-smart-contracts/… # via @ConsenSysLLC #ether #blockchain,4,4,0,False
450,Ameer Rosic@AmeerRosic,Why Latin American economies are turning to #bitcoin http://snip.ly/mtab3 #blockchain #ethereum,0,0,0,False
451,Alberto Jauregui | esoteRICK.eth @DisruptBanksy,http://ift.tt/2aUziG5 Ethereum Classic Price Technical Analysis – Book Profits In ETC - newsBTC #ethereum #ether,0,0,0,False
452,/r/Ethereum@r_Ethereum,Trouble doing the ETH/ETC split http://bit.ly/2aIzZzd #Ethereum,0,0,0,False
453,/r/Ethereum@r_Ethereum,"ETH/ETC Splitting, The Old Fashioned Way? http://bit.ly/2aUBrBB #Ethereum",0,0,0,False
454,/r/Ethereum@r_Ethereum,Thomson Reuters HackETHon http://bit.ly/2aIzjtA #Ethereum,0,0,0,False
455,/r/Ethereum@r_Ethereum,Some thinking about Ethereum http://bit.ly/2aUBhub #Ethereum,0,0,0,False
456,/r/Ethereum@r_Ethereum,New working DAPP: Securely Prove on forums that you are an Ether Stakeholder (works with Mist and M... http://bit.ly/2aIyW1U #EthereumNew working DAPP: Securely Prove on forums that you are an Ether...Try it right now here: https://ethdapps.github.io/StakeProver/ This Dapp allows you to submit a hash of a piece of text to the blockchain. The...reddit.com,0,0,0,False
457,Richard King@graphiclunarkid,"RT @OpenObservatory: Ethiopia: Internet Shutdown Amidst Recent Protests?
https://ooni.torproject.org/post/ethiopia-internet-shutdown-amidst-recent-protests/…
#Eth
#OromoProtests
#KeepItOn",0,0,0,False
458,Coinstats@coinstats,"Ethereum Classic - ETC
Price: $1.8903
Change in 1h: +12.29%
Market cap: $156606007.0
Ranking: 6
#Ethereum Classic #ETC",0,0,0,False
459,Sandile Khubisa@khubisa_sandile,Replying to @nealcol#ken #eth and #Bot are waitibg for the athletics.,0,0,0,False
460,Coinstats@coinstats,"Ethereum - ETH
Price: $11.7416
Change in 1h: -1.65%
Market cap: $972996281.0
Ranking: 2
#Ethereum #ETH",0,0,0,False
461,Ethereum Price@EthereumPrice_,"#Ethereum: Ether Price Index
1 ETH =0.019786Ƀ XBT = $11.727000 USD
Today: -3.54%⬇︎ Last 24h: -2.74%⬇︎
https://ethereum-price.com",0,0,0,False
462,Omar Bham (Crypt0)@crypt0snews,"https://youtu.be/7ecfen3g6bw Ethereum's (And classic/steemit/bitcoin) Latest News! #investing #news #blockchain #cryptocurrency #ethereum #investEp. #62- Ethereum News: ETC's Future, Shift Card, White-Hat Funds on... 𝙏𝙝𝙖𝙣𝙠 𝙔𝙤𝙪 𝙁𝙤𝙧 𝙒𝙖𝙩𝙘𝙝𝙞𝙣𝙜!  Remember to subscribe and hit the bell """" icon, so you don't miss your daily cryptocurrency news!-~-~~-~~~...youtube.com",0,0,0,False
463,Rimbit @rimbit,Hi From Montreal http://rimbit.com/posts/12599 #bitcoin #ethereum,0,0,0,False
464,Ethereum Monkey@EthMonkey,Ethereum Classic Price Technical Analysis - Book Profits In ETC - NEWSBTC #ethereum http://newsbtc.com/2016/08/11/ethereum-classic-price-technical-analysis-book-profits-etc/…,0,0,0,False
465,Claude Singirankabo@v_eagles,Replying to @oromopressAs long as the fight is for protecting #USA interests then it does not matter how evil #Eth gov might be. #Bdi wise up,0,0,0,False
466,cryptinsight@cryptinsight,#ethereum Classic Price Technical Analysis – Book Profits In ETC - NEWSBTC #BTC #BITCOIN #BITCOINER #ETC #ETCtoBTCEthereum Classic Price Technical Analysis – Book Profits In ETCEthereum classic price struggle continued during the past 24 hours against Bitcoin. More losses ahead in the ETC/BTC pair?newsbtc.com,0,0,0,False
468,Gift Off@GiftOff,Pay for VPN services with #bitcoin with the MINT Prepaid Card from Gift Off! http://bit.ly/2aS5slB #reddcoin #digibyte #ether,0,0,0,False
469,Coinstats@coinstats,"Ethereum - ETH
Price: $11.9442
Change in 1h: -0.29%
Market cap: $989770282.0
Ranking: 2
#Ethereum #ETH",0,0,0,False
470,Julia Edling@bitcointonic,Unboxing the #LedgerNano S: A #Bitcoin and #Ethereum wallet: We unbox a #LedgerNanoS in all… http://dlvr.it/M0x4qS,0,0,0,False
471,Darth Maul@malimujo,Replying to @jdebunt#ETH is scam made by #EthereumFoundation that is for sure now. EF looks more and more like crime syndicate... #ETC is #Ethereum,1,0,0,False
472,Parity Technologies@ParityTech,Parity 1.2.4 stable is released! #ethcore #ethereum #blockchainParity 1.2.4 stable releasedPosted in r/ethereum by u/Blue-Chain • 58 points and 10 commentsreddit.com,23,20,0,False
473,Ameer Rosic@AmeerRosic,How Will #Blockchain Change Banking? How Won't It? http://snip.ly/a2ci1 #Ethereum #Bitcoin,1,0,0,False
474,AltcoinWeekly@altcoinweekly,The latest Ethereum price is USD 12.08. For historical #Ethereum price charts - http://buff.ly/1Y3h6Jz,0,0,0,False
475,CoinGecko@coingecko,The latest Ethereum price is USD 12.08. For historical #Ethereum price charts - http://buff.ly/2aYby19,0,0,0,False
477,BitcoinAgile@bitcoinagile,Razormind to Launch DeOS to Protect Your Privacy as Rival #ethereum Fades http://prweb.com/releases/blockchain/deos/prweb13608043.htm…,1,0,0,False
478,ether-camp@CampEther,Seen on #hackethercamp https://hack.ether.camp/idea/platform-to-donate-1-of-income-to-charity… #ethereum,1,0,0,False
479,Bitcoin@crypto_bitcoins,Ethereum: Here Come The Big Banks http://goo.gl/xEi00O #crypto #bitcoin #ethereum #cryptocurrency #btc,1,0,0,False
480,Cointon@CointonDotCom,Ethereum: Here Come The Big Banks http://goo.gl/xEi00O #crypto #bitcoin #ethereum #cryptocurrency #btc,0,0,0,False
481,Ameer Rosic@AmeerRosic,25 GENIUSES WHO ARE CREATING THE FUTURE OF BUSINESS http://snip.ly/avrq9 #Blockchain #Ethereum,1,0,0,False
483,Rounik Sethi@LogicProTrainin,"NEWS: #Ether low-latency, pro, wireless headphone solution for DJs & Live Musicians >>> http://tinyurl.com/ztzvynr",0,0,0,False
484,macProVideo.com@macprovideo,"NEWS: #Ether low-latency, pro, wireless headphone solution for DJs & Live Musicians >>> http://tinyurl.com/ztzvynr",1,0,0,False
485,/r/Ethereum@r_Ethereum,"Ethereum News: Shift Debit Card, White-Hat Funds on Poloniex, Steemit Allowance http://bit.ly/2b61HXE #Ethereum",0,0,0,False
486,/r/Ethereum@r_Ethereum,Etherplay - Ethereum Based Games By Etherplay.io http://bit.ly/2b61ljs #Ethereum,1,0,0,False
487,/r/Ethereum@r_Ethereum,ETH/ETC Split. Did i just screw Myself? http://bit.ly/2b61H9X #Ethereum,1,0,0,False
488,/r/Ethereum@r_Ethereum,I hope Silicon Valley incorporate Ethereum references into next season http://bit.ly/2bipOWj #Ethereum,1,0,0,False
489,/r/Ethereum@r_Ethereum,Where to start with solidity? http://bit.ly/2b61HXv #Ethereum,1,0,0,False
490,Bitcoin is King@cryptoctic,Etherium latest price si $11.9825 #ether,0,0,0,False
491,Aaron Maoate@AaronMaoate,#ethereum is hard to explain to layman with all the moolah.,1,0,0,False
492,Coinstats@coinstats,"Ethereum Classic - ETC
Price: $1.62597
Change in 1h: -1.18%
Market cap: $134699994.0
Ranking: 6
#Ethereum Classic #ETC",0,0,0,False
493,Coinstats@coinstats,"Ethereum - ETH
Price: $12.0284
Change in 1h: -0.33%
Market cap: $996711337.0
Ranking: 2
#Ethereum #ETH",0,0,0,False
494,Ethereum Price@EthereumPrice_,"#Ethereum: Ether Price Index
1 ETH =0.020229Ƀ XBT = $11.990005 USD
Today: -1.38%⬇︎ Last 24h: -0.55%⬇︎
https://ethereum-price.com",1,0,0,False
495,Bitcoin Updater@BitcoinUpdater,CoinOffering registers as first company to issue shares in Ethereum tokens #ethereum http://soco.space/M0EY7O,0,0,0,False
496,Rimbit @rimbit,Industry Report: Bitfinex Forces Customers To Pay For Hack Losses http://rimbit.com/posts/12594 #bitcoin #ethereum,0,0,0,False
497,Ethiopia Network@EthiopiaNetwork,We could have found a better swimmer in Wondo Genet. #ETH #Olympics,0,0,0,False
498,TAINA@TainaMarket,"GET FREE #DOGE
Win dogecoin every 60 minutes
http://goo.gl/hE5Bk6
#doge #dogecoin
#Ethereum
#bitcoin #litecoin #gold #PrimeDay",0,0,0,False
499,ምንተስኖት ፍቅሬ(Mintila)@MintesinotF,"Robel had clocked z115th best time of z 115 swimmers in Russia last year&he said zt time he wants to be famous #EthQuote TweetSlate@Slate · Aug 11, 2016That slow, chubby Ethiopian swimmer totally deserved to be in the Olympics: http://slate.me/2b5LCRB",1,0,0,False
500,ethereum.network@EthereumNetw,"UBS is nearing a formal announcement regarding its acceptance of #Ethereum
http://huffingtonpost.com/david-seaman/ethereum-here-come-the-bi_b_11439206.html…",3,0,0,False
501,ethereum.network@EthereumNetw,"With permissive licensing, #Ethereum can be developed everywhere, benefiting each other project, too.
#opensourceQuote TweetBob Summerwill@BobSummerwill · Aug 10, 2016I think that my ""Ethereum Everywhere"" article flew under the radar a month or so ago.
So here is a re-post
https://bobsummerwill.com/2016/07/12/ethereum-everywhere/…
#ethereum",7,4,0,False
502,Blockgeeks@Blockgks,6 Reasons Why #Blockchain is Worth Getting Excited http://snip.ly/7je5i #bitcoin #Ethereum,1,0,0,False
503,Coinstats@coinstats,"Ethereum Classic - ETC
Price: $1.65117
Change in 1h: +3.45%
Market cap: $136785205.0
Ranking: 6
#Ethereum Classic #ETC",0,0,0,False
504,Coinstats@coinstats,"Ethereum - ETH
Price: $12.0716
Change in 1h: 0.0%
Market cap: $1000274760.0
Ranking: 2
#Ethereum #ETH",0,0,0,False
505,A B@BeNobody73,Exploring cryptocurrency.. #btc #eth,0,0,0,False
506,Master Node@master_node,Make sure you download and sync the new #darknet v2.0.2.0 wallet.  :) https://goo.gl/92cISC $dnet $dash $eth $btc,2,2,0,False
507,Master Node@master_node,"Current price for 10k $dnet to run a #darknet #masternode 0.075 BTC ($44,24) https://goo.gl/mZFJ2o $btc $eth $DASH",2,0,0,False
508,ethereum.network@EthereumNetw,"Solidity, #Ethereum's most used contract language, got updated with extended formal verification and source mappingRelease Version 0.3.6 · ethereum/solidityThis is the first release from the new ""solidity-standalone"" repository. It does not have dependencies to cpp-ethereum anymore and can be built just from the solidity github repository. N...github.com",19,15,0,False
509,Ethereum SE@StackEthereum,"Virus scan shows 6 chaindata files infected, when quarantined, node can't be found http://ethereum.stackexchange.com/questions/7939/virus-scan-shows-6-chaindata-files-infected-when-quarantined-node-cant-be-fou… #ethereum #ethereumj",0,0,0,False
510,Ethereum SE@StackEthereum,What are uncles? [duplicate] http://ethereum.stackexchange.com/questions/7945/what-are-uncles… #ethereum #mining,0,0,0,False
511,mmnjug™@mmnjug,#Tbt from #Rio2016 #swimming #ETH Loool!!,1,0,0,False
512,Mohamed Duale@MoDuale,"#Ethiopian swimmer struggles to finish 100m freestyle #swimming heat 
#ETH #Olympics #Rio2016 #Olympics2016
http://horndiplomat.com/2016/08/11/ethiopian-swimmer-struggles-to-finish-100m-freestyle-swimming-heat/…",1,1,0,False
513,Horndiplomattv@Horndiplomattv,"#Ethiopian swimmer struggles to finish 100m freestyle #swimming heat 
#ETH #Olympics #Rio2016 #Olympics2016
http://horndiplomat.com/2016/08/11/ethiopian-swimmer-struggles-to-finish-100m-freestyle-swimming-heat/…",2,0,0,False
514,E. R. Lund@Z6ATL,"Like a math problem
https://soundcloud.com/scarrzz/uvi
#Beats1 #minimalism #technomusic #experimentationmindset #teamnosleep #frenchtech #ETH #mad #rusUna Volta IlluminatoAnd brought them out, and said, Sirs, what must I do to be saved? And they said, Believe on the Lord Jesus Christ, and thou shalt be saved, and thy house.soundcloud.com",0,0,0,False
515,Coinstats@coinstats,"Ethereum Classic - ETC
Price: $1.60312
Change in 1h: -0.14%
Market cap: $132802948.0
Ranking: 6
#Ethereum Classic #ETC",0,0,0,False
516,Coinstats@coinstats,"Ethereum - ETH
Price: $12.0709
Change in 1h: -0.55%
Market cap: $1000200248.0
Ranking: 2
#Ethereum #ETH",0,0,0,False
