,user,text,likes,retweets,replies,is_thread
0,ICONOMI@iconomicom,"""I really feel uniqueness in this project.""
http://bit.ly/2bi16Rc
#iconomi #ICO #apptokens #ethereum #bitcoin #bounties #blockchain",340,669,0,False
1,Tim M. Zagar@wwwMZ,ICO starts in less than a day! @iconominet #ico #crowdfinance #ethereum #bitcoin #finance,4,6,1,False
2,ICONOMI@iconomicom,"ICO coming in less than 10 hours! http://bit.ly/2bjo2zJ @themerklenews
#iconomi #ico #apptokens #blockchain #cryptocurrency #etherIconomi ICO Starts Tomorrow: Blockchain Investment Fund Management PlatformIconomi, a platform where users can easily buy and sell Ether with Euros is expanding its services and creating a fund management platform that allows users to profit from thethemerkle.com",349,687,0,False
3,ICONOMI@iconomicom,"""This project can change the world and bring mass adoption to crypocurrencies.""
http://bit.ly/2bgiOb2
#iconomi #ico #cryptocurrency #ether",346,672,0,False
4,Alberto Jauregui | esoteRICK.eth @DisruptBanksy,"http://ift.tt/2bo9q4f UBS, Santander Announce Blockchain Project That Uses Ethereum - Huffington Post #ethereum #etherUBS, Santander Announce Blockchain Project Inspired By EthereumAs reported by Reuters, ""Swiss bank UBS is leading a team of four of the world's biggest banks developing a system to enable financial markets to make pa...huffpost.com",1,0,0,False
5,Yocoin Network@YocoinNetwork,"Join the Yocoin movement via the link provided http://secure.yocoin.org/user/registrationuser.aspx?ref=YC2804867…
#yocoin #bitcoin #cryptocurrencies #ethereum",1,0,0,False
6,slock.it@slockitproject,The History of the DAO and Lessons Learned - https://blog.slock.it/the-history-of-the-dao-and-lessons-learned-d06740f8cfa5#.a8ue562fg… #ethereum #dao,51,47,1,False
7,Mike S.@travel_018,ico one starts in September. I recommend. #smartcontacts #ico #btc #eth,1,0,0,False
8,Ethereum Price@EthereumPrice_,"#Ethereum: Ether Price Index
1 ETH =0.018936Ƀ XBT = $11.059000 USD
Today: +0.34%⬆︎ Last 24h: +0.97%⬆︎
https://ethereum-price.com",3,0,0,False
9,Maasterads@maasterads,Donate to our project! Add funds and receive $$$ in exchange from profits lifetime! @gagpubblicita #ethereum #miner https://indiegogo.com/projects/build-ethereum-mining-farm/x/14702367#/…,1,0,0,False
10,Patrizio Stavola@halovast,"UBS & other banks are not creating a new #digitalcurrency. It's #Blockchain settlement not #money
http://forbes.com/sites/timworstall/2016/08/24/ubs-and-other-banks-are-not-creating-a-new-digital-currency-its-blockchain-settlement-not-money/#4adf40252070… #ethereum #bitcoinUBS And Other Banks Are Not Creating A New Digital Currency - It's Blockchain Settlement Not MoneyUBS and other banks have announced that they're hoping to develop and roll out a new blockchain related development to aid in the settlement of financial trades. Some are very much getting the wrong...forbes.com",1,1,0,False
11,Michael Yuhn@mikeyuhn,"Aug 24 Newsletter featuring "" #Blockchain #Startup @Chronicled Launches #Ethereum #IoT Registry"" @wesleyyuhn1 http://nzzl.us/tWMgj59 #BaaS",2,0,0,False
12,8:45a@845a,A beautiful site: stacks of @PhilzCoffee #Ether at @Bespoke_SF.,7,3,1,False
13,Amsalu W. Yalew@amsalu_w,"Replying to @NatheZilla, @ErikSolheim (@UNEP Director) intends to show the light train in #ETH uses renewable/clean energy, not the service quality.",3,0,0,False
14,Bitcoin News@btcbitcoinmoney,"The developers of #YoCoin have announced the conversion of peer to peer #cryptocurrency into #Ethereum based asset. 
http://newsbtc.com/2016/08/24/yocoin-transforms-ethereum-based-cryptocurrency-asset-smart-contract-applications/?utm_source=twitterfeed&utm_medium=twitter&utm_campaign=%23Bitcoin…",1,0,0,False
15,Patrizio Stavola@halovast,#Blockchain Startup @ChronicledInc Launches #Ethereum #IoT #Registry http://coindesk.com/blockchain-startup-chronicled-launches-ethereum-iot-registry/… via @CoinDesk,4,1,0,False
16,Zeth Couceiro@Zeth_Plexus,FINTECH: A #blockchain reaction in the financial sector http://bit.ly/2bilMsm #fintech #cryptocurrency #DLT #bitcoin #ethereumFINTECH: A blockchain reaction in the financial sectorFINTECH: A blockchain reaction in the financial sectorintellinews.com,2,0,0,False
17,Zeth Couceiro@Zeth_Plexus,Chronicled Launches First-Of-Its-Kind Open Registry for #InternetofThings on #Ethereum #Blockchain https://letstalkpayments.com/chronicled-launches-first-of-its-kind-open-registry-for-internet-of-things-on-ethereum-blockchain/?utm_source=twitter&utm_medium=twitter&utm_campaign=twitter… - #IOT,1,0,0,False
18, Mikko Ohtamaa@moo9000,#Ethereum Contract Security Techniques and Tips https://github.com/ConsenSys/smart-contract-best-practices…,1,1,0,False
19,DecentralizedCapital@Decen_Capital,.@Airbnb Airbnb Acquires Team of #Blockchain experts: http://bit.ly/2biJfKf #Bitcoin #Ethereum,7,4,0,False
20,Vindyne8@Vindyne8,Got a #BlockPay in your business? Add your store http://blockpay.ch/blockpay-map/ for free and say hallo to new #Bitcoin #Steem #Ethereum customers!,11,11,0,False
21,FinTech Summary@FinTechSummary,Latest #FinTech Weekly Summary is out - http://buff.ly/2bcaiXI #banking #ethereum #digital #payments #blockchain,2,1,0,False
22,Bitcoin is King@cryptoctic,#StopBankCartelsBy embracing Cryptocurrencies for payments #Bitcoin #BTC #Ether #Ethereum #Litecoin #LTC,3,4,0,False
23,fintechfolk@fintechfolk,Thanks humanpdx for registering for FinTechFolk - http://zpr.io/Mnfj #fintech #ethereum #bitcoin #blockchain,1,1,0,False
24,Tom D@TWD913,Chronicled releases open registry for IoT built on blockchain http://tek.io/2c6wkRG #IoT #blockchain #ethereum #bitcoin #fintech #trust,1,1,0,False
25,Randy Hilarski@RandyHilarski,Preparing for 32c3 Talk http://slninja.com/PKiv #Bitcoin #Ethereum #CryptoCurrency,5,0,0,False
26,Null TX@nulltxnews,"The DAO is done for but the concept is not. http://themerkle.com/daos-still-have-value-despite-the-dao-failing-miserably/… #bitcoin #bitcoinnews #thedao #cryptocurrency #ethereum #blockchainDAOs Still Have Value Despite The DAO Failing MiserablyNow that the world’s most successful crowdfunding ever has completely fallen apart, the question becomes how viable DAO structures can be. Even though The DAO has failed miserably, the concept is stthemerkle.com",2,3,0,False
27,Juan Llanos@JuanLlanos,"""The transparency offered up in #Bitcoin and #Ethereum was an absolute deal-breaker for banks."" http://blogs.wsj.com/moneybeat/2016/08/24/a-closer-look-at-r3s-concord/… via @WSJMoneyBeatA Closer Look at R3’s Concord'Controlled transparency' inside a virtual machine built for banks.blogs.wsj.com",6,14,0,False
28,Bitcoin IRA@Bitcoin_IRA,Jim Grant may be bullish on #Gold @maxkeiser. @EdmundCMoy is as well. But #Bitcoin or #Ethereum will give #ROI http://po.st/k5IlGe,2,0,0,False
29,ethereum.network@EthereumNetw,"http://Chronicled.org wants to use the #Ethereum #blockchain to make #IoT database registries interoperable.
http://coindesk.com/blockchain-startup-chronicled-launches-ethereum-iot-registry/…",2,4,0,False
30,starttanky@starttanky,"#Ethereum Daily Chart 
support should hold
#Ether #blockchain",1,0,0,False
31,Ethereum SE@StackEthereum,Forking example - Ethereum 101 http://ethereum.stackexchange.com/questions/8289/forking-example-ethereum-101… #ethereum #forks,2,0,0,False
32,Christoph Hering@HeringChristoph,"@BlockPay_ch Zero Cost, digital currency Point-Of-Sale systems - Pre-ICO starts August 23th http://ow.ly/RH66303hqzw #Bitcoin #Dash #ETH #BTS",3,4,0,False
33,Randy Hilarski@RandyHilarski,"Bohemian Grove: ""You're wasting your time"" says MSNBC'... http://slninja.com/sMiv #Bitcoin #Ethereum #CryptoCurrency",6,1,0,False
34,Christine Sukasih@Christine_S025,Blockchain Startup #Chronicled Launches #Ethereum IoT Registry: In an effort to build a… http://goo.gl/fb/whlJGv,1,1,0,False
35,Cédric Walter@cedricwalter,2 days now and still i can sync my #ethereum node... come on go online now! #blockchain,2,1,0,False
36,Cem Paya@randomoracle,"You might be a bank if…
you dislike #Bitcoin & #Ethereum for having *too much* transparency",10,3,2,False
37,Cloud Mining Monitor@cmmonitorcom,#Ether #Ethereum #Cloudmining': 24.08.2016 Payment received. 6 MHs - 0.12063960 ETH. From HashFlareHashFlare (Ethereum Mining)cmmonitor.com,1,0,0,False
38,On The Blockchain @OnTheBlockChain,"""The transparency offered in #Bitcoin and #Ethereum was an absolute deal-breaker for banks""

http://blogs.wsj.com/moneybeat/2016/08/24/a-closer-look-at-r3s-concord/… @WSJMoneyBeat",1,3,0,False
39,Erik Voorhees@ErikVoorhees,"“On Tokens and Crowdsales” by @demibrener https://medium.com/bitcorps-blog/on-tokens-and-crowdsales-309e49d9530d#.pzr8r6vjg… #bitcoin #ethereum @shapeshift_ioOn Tokens and CrowdsalesCompanies we’ve never heard of are IPO’ing before our very eyes. Instead of ringing the IPO bell after multiple years of operations, they…medium.com",19,22,0,False
40,FunVidClick@FunVidClick,"Thinking Of #Investing In #Ether? Get Started Now! 3% Discount w/ Coupon - 8rRBkl http://dld.bz/ePx6q
#Ethereum",1,0,0,False
41,Igor Lilic ∞@ililic,PoPA is open to any #ethereum developer who wants to integrate a trusted attestation service. Permission-less platforms ftw :),16,8,1,False
42,Cryptopatterns@Cryptopatterns,$MAID bullish patterns still have edge. No guar of course. Key=Next Vol move  #maidsafe $BTC #bitcoin $ETH $ETC $xmr,4,2,0,False
43,Bitcoin Updater@BitcoinUpdater,Ethereum-based Prediction Market Service Gnosis Launches in Beta #ethereum http://soco.space/FeLSZh,1,0,0,False
44,Vella (Real account from April 2016)@cryptotrader85,"I put a couple of buy orders for $KR which were just filled. Thanks for filling my orders :) 

#Krypton #ETH #ETC #Smartcontracts #DAPPs",1,2,0,False
45,ConsenSys@Consensys,Replying to @CTUAgentIvan.@CTUAgentIvan we aren't partnering w/ Arcade City. We're open to #ethereum developers who want to integrate a trusted attestation service.,1,3,0,False
46,laserdario@cryptodario,"Stick a fork in $eth, it's done.

#ethereum $etc #blockchain",1,1,0,False
47,Steve Hodl @MrHodl,"Shitcoins are shitcoins. Let's see parity, after that lets see doom. #etc #eth #bitcoin https://twitter.com/moneytrigz/status/768387410577195008…This Tweet is unavailable.",4,2,0,False
48,Jack du Rose@jackdurose,"Check out @joincolony's 'Visions of the Future'—Part 1, featuring @rLoopTeam #servetheloop #ethereum #blockchain http://ow.ly/WgIT303xkSZ",5,3,0,False
49,NEWSBTC@newsbtc,"#Ethereum price #ETH popped a few points higher versus the #USD, but failed once again. http://bit.ly/2bFqsgg",2,1,0,False
50,Mohammed Ademo@OPride,Talked to @TylerRickyTynes abt #FeyisaLilesa and the place of Oromo athletes in #Eth w/great insights from @tselemma http://sbnation.com/2016/8/23/12584648/feyisa-lilesa-olympic-protest-x--ethopia-violence-oromo-people…,9,5,1,False
51,Ameer Rosic@AmeerRosic,#Blockchain Technology Proves Itself in Wall Street Test http://snip.ly/i6je1 #Bitcoin #Ethereum,1,0,0,False
52,Alex Jiménez@RAlexJimenez,#Blockchain Startup Chronicled Launches #Ethereum #IoT Registry http://bit.ly/2bFEsXr via @CoinDesk #fintech #in,4,2,0,False
53,John Lilic ₿ Ξ ∞@JohnLilic,"Your new name should be Juan Boss #ConsenSys #Ethereum #JuanBlanco making things happenQuote TweetJuan Blanco@juanfranblanco · Aug 24, 2016Now in a Mac: Ethererum Contract creation, private chain and deployment using .Net Core and VsCode @code
https://youtube.com/watch?v=M1qKcJyQcMY…",4,1,0,False
54,NEWSBTC@newsbtc,"#vDice is the first commercial, on #blockchain, betting game for #Ethereum. http://bit.ly/2bhyvMb",2,5,0,False
55,BTCMANAGER@btc_manager,"#Ethereum Classic Lays Out Roadmap...
https://btcmanager.com/news/ethereum-classic-lays-out-roadmap/…
#ETC #blockchain #crypto",2,1,0,False
56,Whalepool@whalepool,A generous user has donated 0.38 BTC to the Whalepool Community Fund! https://live.blockcypher.com/btc/tx/526c2fec30b023ae4425c0643b8b0438b96976d3b3fae79124e778e4a2ce0200/… #bitcoin #ethereum,1,1,0,False
57,Ansel Lindner@AnselLindner,"For every person that hits an altcoin pump, there are 10 that hold bags. Don't buy the top.
#factom #ethereum",4,1,0,False
58,Bitcoin Sportsbook @SportsbookBTC,"#Ethereum price #ETH popped a few points higher versus the #USD, but failed… http://dlvr.it/M61MQ7 #Ethereum #ETH",1,0,0,False
59,Rob Viglione@robviglione,"""Blockchain Startup Chronicled Launches #Ethereum IoT Registry"" #bitcoin http://coindesk.com/blockchain-startup-chronicled-launches-ethereum-iot-registry/…",1,2,0,False
60,Vortex@theonevortex,"The world has moved on from XT, BU & Classic. After the events of #ethereum no one wants #bitcoin to split. So for now we continue with Core",4,0,0,False
61,Blockgeeks@Blockgks,Would you like early access to BlockGeeks #Blockchain Community? Sign up here http://blockgeeks.com #ethereum,2,1,0,False
62,Bob Summerwill@BobSummerwill,"Congratulations to @clearmatics for making the front page of the FT :-)
http://ft.com/cms/s/0/1a962c16-6952-11e6-ae5b-a7cc5dd5a28c.html#axzz4IFGZc7w3…
#ethereumQuote TweetChris Gledhill@cgledhill · Aug 24, 2016Front page of the @ft today! 
#fintech #blockchain",2,1,0,False
63,Mark Cross @markcross,Replying to @CoinDesk@MihaiAlisie until the next hard fork?,1,0,0,False
64,Mihai Alisie@MihaiAlisie,.@markcross Especially after the next #hardfork! #Ethereum #metropolis will likely introduce significant improvements over #homestead ^_^ ,3,1,0,False
65,Juan Llanos@JuanLlanos,"""We are inclined to say #Ethereum is not ready for the masses and non-technical people just yet."" #BlockchainQuote TweetStephan Tual@stephantual · Aug 24, 2016Summary of the DAO and lessons learned during its development: https://blog.slock.it/the-history-of-the-dao-and-lessons-learned-d06740f8cfa5#.a8ue562fg…
#ethereum #dao",3,3,0,False
67,Bitcoin Master@drei4u,"I was right about $ETH long and $ETC short, eh? *wink*Quote TweetBitcoin Master@drei4u · Aug 21, 2016Preliminary chart check: Long $ETH, short $ETC not sure tho",2,1,0,False
68,Marius Kjærstad@MKjrstad,".@clearmatics, a company building on #Ethereum is on the front page of the Financial Times today! Well done to them!Quote TweetChris Gledhill@cgledhill · Aug 24, 2016Front page of the @ft today! 
#fintech #blockchain",1,0,0,False
69,BitcoinAgile@bitcoinagile,YoCoin: Now an #ethereum Based Cryptocurrency #YoCoin #Cryptocurrency http://ethnews.com/yocoin-ethereum-based-cryptocurrency…,2,3,1,False
70,Benoît Philibert@bpdesign_fr,"Looking 4 serious opportunities in crypto : Altcoin launch, join team board... I'm UX/UI Designer with HTML5 skills $BTC $XMR $ETC $ETH $FCT",1,1,0,False
71,Bob Summerwill@BobSummerwill,"Congratulations, @golemproject!
#ethereumQuote TweetGOLEM NETWORK (not doing airdrops - stay safe)@golemproject · Aug 24, 2016Our GitHub is now open @ https://github.com/imapp-pl/golem welcoming developers, security researchers & Ethereum enthusiasts!
https://medium.com/@golemproject/our-github-repository-is-now-open-89aebfb708b4…",2,0,0,False
72,EtherBlockchain.io@etherblockchain,Blockchain Startup Chronicled Launches Ethereum IoT Registry http://bit.ly/2bFEsXr via @CoinDesk #ether #blockchain,2,1,0,False
73,David Liam@crazydaveorama,#Blockchain #Startup #Chronicled Launches #Ethereum #IoT Registry http://bit.ly/2bFEsXr via @CoinDesk,1,1,0,False
82,Greig Leach@ArtofCycling,My #Rio2016 #Olympics #art is on Sale! Get this 1 $50 @ http://greigleach.com/large-multi-view/Summer%20Olympics/2836927-106-226051/PaintingEmbracing%20Another%20Gold%20Rio106-Greig-Leach.html#.V74zrJgrLIU… #Athletics #ETH #Bronze Tamrot Tola,0,0,0,False
83,Suresh Naidu@supereagle1,"World’s First Bitcoin-Based Oil Market Launched - Will It Be A Success?
https://cointelegraph.com/news/worlds-first-bitcoin-based-oil-market-launched-will-it-be-a-success#XEGAINS… #BITCOIN #ETHEREUM #fintech #startupsWorld’s First Bitcoin-Based Oil Market Launched - Will It Be A Success?Every country needs US dollars if it wants to buy crude oil. This may soon change as a market selling crude oil for Bitcoin has emerged.cointelegraph.com",0,0,0,False
85,Stephen King@mStephenKing,@REXMLS TokenSwap now live: http://live.rexmls.com/#/tokenswap #ethereum,0,0,0,False
86,Francisco Gordillo@FGordillo,#bitcoin #blockchain Moscow Government to Explore Blockchain Voting: Government officials in... http://bit.ly/2bjsFtq #ethereum #ether,0,0,0,False
88,/r/Ethereum@r_Ethereum,"UBS, Santander Announce Blockchain Project Inspired By Ethereum http://bit.ly/2bGp1Nj #EthereumUBS, Santander Announce Blockchain Project Inspired By EthereumPosted in r/ethereum by u/Bitcoinfriend • 38 points and 4 commentsreddit.com",0,0,0,False
89,/r/Ethereum@r_Ethereum,"Wallet and Mist 0.8.2: Coinbase integration, replay protection, new Auth UI and more http://bit.ly/2bGobQC #EthereumWallet and Mist 0.8.2: Coinbase integration, replay protection,...Posted in r/ethereum by u/avsa • 149 points and 56 commentsreddit.com",0,0,0,False
90,/r/Ethereum@r_Ethereum,Samsung Group CEOs study blockchain http://bit.ly/2bGqzXw #EthereumSamsung Group CEOs study blockchainPosted in r/ethereum by u/rusbit • 16 points and 0 commentsreddit.com,0,0,0,False
91,Jewels@JewelsCoin,"Want to chat with the #Pro4Never team?
Join Chris and I on the official $JEWELS slack.
https://jewels-slack.herokuapp.com
$JWL $BTC $ETH $XMR",1,0,0,False
95,kim macleod@bakerygirl9,"Mine Ethereum In The Cloud, No Hardware Needed! 3% Off With Coupon Code: 8rRBkl

http://dld.bz/ePx6q
#ethereum",1,0,0,False
96,Numerati. Twetch#: @1033@MirakhorHassan,"Replying to @theonevortex @AnselLindner and 2 othersPlus modeled on #Ethereum, which has certainly proven itself.",1,0,0,False
97,Coinstats@coinstats,"Ethereum Classic - ETC
Price: $1.46417
Change in 1h: -1.17%
Market cap: $121929745.0
Ranking: 6
#Ethereum Classic #ETC",0,0,0,False
98,Coinstats@coinstats,"Ethereum - ETH
Price: $11.0265
Change in 1h: -0.02%
Market cap: $918555853.0
Ranking: 2
#Ethereum #ETH",0,0,0,False
100,Daily Political@dailypoliticaln,Ethan Allen Interiors Inc. $ETH Stock Price Down 2.8% http://ift.tt/2bH60LX,1,0,0,False
102,John@SEAS0NS,I liked a @YouTube video from @_jayjoker http://youtu.be/x8BUztkEMiA?a Need For Speed (Be Fast V3) #WeAreT10 #BH #ETH,0,0,0,False
103,Yocoin Network@YocoinNetwork,"Dont worry if you missed the #bitcoin boat buy #yocoin and register now. http://secure.yocoin.org/user/registrationuser.aspx?ref=YC2804867…
#yocoin #bitcoin #ethereum #cryptocurrency",1,0,0,False
105,MeeseeksBTC@Meeseeks100BTC,"RT Start mining $ETH or $BTC together with people from all over the world.

https://goo.gl/tYClLG",0,0,0,False
107,Coinstats@coinstats,"Ethereum - ETH
Price: $11.0298
Change in 1h: +0.06%
Market cap: $918816564.0
Ranking: 2
#Ethereum #ETH",0,0,0,False
108,"Eyal Ron (""Neiman"")@neiman30",Took a glimpse in $ETH after a long while and - bang - there's a 127 BTC buy wall there. Good to see its as manipulative as ever.,0,0,0,False
109,a5ym4e@a5ym4e,"Patent application filed for @R3CEV Concord platform http://bit.ly/2bGc6ee @themerklenews #patentsmatter #blockchain #ethereum @usptoR3 Consortium Files Patent Application For CordaMost people know the R3 Consortium for their blockchain efforts. A project called Corda was announced not too long ago, which acts as a permissioned distributed ledger. Ever since, the team has been wthemerkle.com",1,0,0,False
110,Ameer Rosic@AmeerRosic,How #Blockchain Helps Brooklyn Dwellers Use Neighbors' Solar Energy http://snip.ly/f3wcc #Ethereum,1,2,0,False
111,SandyScoopsWaves@sandyscoopsfeed,$eth Balai - Run It Up (Prod. Genuine) : #NowPlaying On http://SandyScoops.com,0,0,0,False
112,/r/Ethereum@r_Ethereum,"ConsenSys Weekly: Emerging Governance Models, SingularDTV Releases Lightwallet, Utility Settlement ... http://bit.ly/2c851WW #EthereumConsenSys Weekly: Emerging Governance Models, SingularDTV Releases...reddit.com",0,0,0,False
113,/r/Ethereum@r_Ethereum,Dynamic Ether tokens offers up crypto-funded film production and lasting communities http://bit.ly/2c849S9 #EthereumDynamic Ether tokens offers up crypto-funded film production and...Posted in r/ethereum by u/zardari11 • 18 points and 0 commentsreddit.com,0,0,0,False
115,laserdario@cryptodario,"I have high hopes for prediction markets.

The outcome is as I predicted it would be.

$etc $eth #ethereumQuote Tweetlaserdario@cryptodario · Aug 20, 2016$ETC

What is more likely to happen when #ethereum switches to PoS:

$ETH miners:Show this poll",1,0,0,False
117,Vortex@theonevortex,Replying to @BTCcatalog @deathsknight2 and @rogerkverYou realize we just did this with #ethereum right?,1,0,0,False
118,DAPPSTER@DAPPSTER_PR,Buy your cheap #DAPPSTER #DLISK coins here - https://yobit.net/en/trade/DLISK/BTC… #etc #eth #poloniex #yobit #btc #ltc #waves #lsk,1,0,0,False
119,Ameer Rosic@AmeerRosic,Job Opportunity: We are looking for #Blockchain Content writers (Paid) Email Ameer@blockgeeks.com #Bitcoin #Ethereum,3,2,0,False
120,Ameer Rosic@AmeerRosic,Why Latin American economies are turning to #bitcoin http://snip.ly/mtab3 #blockchain #ethereum,1,0,0,False
121,vividrange@vividrange,"A way to top up your account - free Ethereum 
- https://cryptosource.net/free-ethereum/?r=L4c4upwbh8… #Ethereum",0,0,0,False
123,Coinstats@coinstats,"Ethereum Classic - ETC
Price: $1.48661
Change in 1h: -1.16%
Market cap: $123794708.0
Ranking: 6
#Ethereum Classic #ETC",0,0,0,False
125,CryptoWorld@CryptoWor1d,The DAO Attack http://goo.gl/a3GvFZ #Ethereum #TheDAO #TheDAOAttack,0,0,0,False
126,zenbot@zenbot_btc,ICYMI: Sticky post: What do you want to see in Zenbot 3.6? http://github.com/carlos8f/zenbo… #crypto #btc #bitcion #eth #etherium #bot #ai #trading,0,0,0,False
128,ETHNews@ETHNews_,#YoCoin: Now an #Ethereum Based #Cryptocurrency http://ow.ly/wnfe303yqHy,1,0,0,False
130,Cloud Mining Monitor@cmmonitorcom,#Ethereum #Cloudmining': 24.08.2016 Payment received. 6 MHs - 0.03944164 ETH. From Genesis Mining.Genesis Mining (Ethereum Mining)cmmonitor.com,0,0,0,False
131,Lennart Ante@Lennart_Ante,"The History of #TheDAO and what to learn from it. #Ethereum #Blockchain #DAOQuote Tweetslock.it@slockitproject · Aug 24, 2016The History of the DAO and Lessons Learned - https://blog.slock.it/the-history-of-the-dao-and-lessons-learned-d06740f8cfa5#.a8ue562fg… #ethereum #dao",0,0,0,False
132,Ξ Fly Guy Ξ (flyguy.eth)@FlyGuyInTheSky,#ethereum staying pretty steady #etc is going down into the cellar to hopefully disappear forever...,1,0,0,False
134,Faith Emmanuel@residualbitcoin,"UBS, Santander Announce #blockchain Project That Uses #ethereum #bitcoin http://bitcoinagile.com/7DA765/ubs-santander-announce-blockchain-project-that-uses-ethereum_stream… #ResidualBitcoin",0,0,0,False
135,Stefano Pozzobon@Stf10000,Free Ethereum every 5 minutes http://eth-faucet.com/?r=0x4445a4bb87213a049677fb226d93df67979bdf0d… #ethereum via @FreeCryptoCo,1,0,0,False
136,Stefano Pozzobon@Stf10000,Free Ethereum every 5 minutes http://etherfaucet.net/?r=0x4445a4bb87213a049677fb226d93df67979bdf0d… #ethereum via @FreeCryptoCo,1,0,0,False
137,BitcoinAgile@bitcoinagile,"UBS, Santander Announce #blockchain Project That Uses #ethereum #bitcoin http://bitcoinagile.com/7DA765/ubs-santander-announce-blockchain-project-that-uses-ethereum_stream…",3,0,0,False
138,Ethereum Monkey@EthMonkey,"UBS, Santander Announce Blockchain Project That Uses Ethereum #ethereum http://huffingtonpost.com/david-seaman/ubs-santander-announce-bl_b_11683838.html…",1,0,0,False
139,Francisco Gordillo@FGordillo,#bitcoin #blockchain Settlement Coin Creators Seek to 'Liberalize' Central Banks With Blockc... http://bit.ly/2bFVLqf #ethereum #ether,0,0,0,False
140,Megabyte@megabyte101,"The developers of #YoCoin have announced the conversion of peer to peer #cryptocurrency into #Ethereum based asset. 
http://newsbtc.com/2016/08/24/yocoin-transforms-ethereum-based-cryptocurrency-asset-smart-contract-applications/?utm_source=twitterfeed&utm_medium=twitter&utm_campaign=%23Bitcoin…",0,0,0,False
141,Coinstats@coinstats,"Ethereum Classic - ETC
Price: $1.50003
Change in 1h: -0.69%
Market cap: $124910938.0
Ranking: 6
#Ethereum Classic #ETC",0,0,0,False
142,BitcoinAgile@bitcoinagile,YoCoin Transforms Into an #ethereum Based Cryptocurrency Asset With Smart Contract http://bitcoinagile.com/7DA611/yocoin-transforms-into-an-ethereum-based-cryptocurrency-asset-with-smart-contract-applications_stream…,2,0,0,False
143,Coinstats@coinstats,"Ethereum - ETH
Price: $11.027
Change in 1h: +0.01%
Market cap: $918557851.0
Ranking: 2
#Ethereum #ETH",0,0,0,False
144,/r/Ethereum@r_Ethereum,"Any dev interested in cofounding Car Insurance Startup in India? http://bit.ly/2bj2hjo #EthereumAny dev interested in cofounding Car Insurance Startup in India?Hi, I have been toying with this idea and I'm yet to implement it, so I need some Devs to co-found this company in India, This will be using the...reddit.com",0,0,0,False
145,/r/Ethereum@r_Ethereum,"The Ethereum wikipedia is a mess http://bit.ly/2bj1P4P #EthereumThe Ethereum wikipedia is a messBasically, the [Ethereum wikipedia article](https://en.wikipedia.org/wiki/Ethereum) is poorly written, and is mostly a bunch of semi-random...reddit.com",0,0,0,False
146,/r/Ethereum@r_Ethereum,Dapp-a-day 13: Solidity Quirks http://bit.ly/2bj1LBU #EthereumDapp-a-day 13: Solidity QuirksPosted in r/ethereum by u/cassiopaia • 16 points and 0 commentsreddit.com,0,0,0,False
147,Wattcoin@wattcoin,"#Ethereum Based #Lottery Games Coming to #Singapore
http://bit.ly/2aMcRFE",0,0,0,False
148,BigTEquityAlerts@BigEquityAlerts,Ethan Allen Interiors hits a 1 month low http://tinyurl.com/jp7sbmd $ETH #EthanAllenInteriors,0,0,0,False
151,Ameer Rosic@AmeerRosic,How Will #Blockchain Change Banking? How Won't It? http://snip.ly/a2ci1 #Ethereum #Bitcoin,2,1,0,False
152,Ethereum SE@StackEthereum,Use web3.js API methods to interact with Eris chains http://ethereum.stackexchange.com/questions/8293/use-web3-js-api-methods-to-interact-with-eris-chains… #ethereum #web3js #erisindustries,0,0,0,False
154,Coinstats@coinstats,"Ethereum Classic - ETC
Price: $1.51039
Change in 1h: +2.11%
Market cap: $125771607.0
Ranking: 6
#Ethereum Classic #ETC",0,0,0,False
155,Coinstats@coinstats,"Ethereum - ETH
Price: $11.0266
Change in 1h: -0.21%
Market cap: $918509480.0
Ranking: 2
#Ethereum #ETH",0,0,0,False
156,Ameer Rosic@AmeerRosic,25 GENIUSES WHO ARE CREATING THE FUTURE OF BUSINESS http://snip.ly/avrq9 #Blockchain #Ethereum,1,0,0,False
157,Popcorn Index@popcornindex,"#Ethereum next DAO is gonna become the Venus project or some shit.Quote Tweet/r/Ethereum@r_Ethereum · Aug 24, 2016Colony's Visions of the Future—Part 1: rLoop http://bit.ly/2bvQD8O #Ethereum",0,0,0,False
159,Nigel Barron@NigelBarron,Cross platform development in #Ethereum using .Net Core and VsCode https://youtu.be/M1qKcJyQcMY via @juanfranblanco,1,0,0,False
160,Olivier Chapiteau@o_chapiteau,Congrats! - #Blockchain #Startup #Chronicled Launches #Ethereum #IoT Registry http://bit.ly/2bFEsXr via @CoinDesk,1,1,0,False
161,Olivier Chapiteau@o_chapiteau,"24Aug16 18:36:41 UTC #Ether #Blockchain status - Block height @ 2,132,445 - 11,278 unconfirmed tr. - Last fork height @ 2,132,439",1,0,0,False
162,Olivier Chapiteau@o_chapiteau,24Aug16 18:36:41 UTC #Ethereum live spots - #Ether @ 11.07404$ - #EtherClassic @ 1.50315$,0,0,0,False
163,Exodus@exodus_io,"Thanks @Martin_Yau! We've put a lot of work into the UI. This is only the beginning :) #bitcoin #ethereum #factomQuote TweetMartin Yau@Martin_Yau · Aug 24, 2016Just testing the Exodus Wallet on Windows. The user interface looks really nice actually and I… https://instagram.com/p/BJgD9iXA_IS/",2,2,1,False
164,Pasta Fritti@PastaFritti,"Replying to @BullBearAnalystmore important: will it do so for the #marketcap? i think, it can, at least vs $ETC. $ETH $XMR #monero #ethereum",0,0,0,False
166,Faith Emmanuel@residualbitcoin,Darknet Markets Finally Embracing A #bitcoin Alternative #ethereum http://vocativ.com/353221/darknet-markets-finally-embracing-a-bitcoin-alternative…  #ResidualBitcoin,0,0,0,False
167,AltcoinWeekly@altcoinweekly,The latest Ethereum price is USD 11.01. For historical #Ethereum price charts - http://buff.ly/2bwKqcy,0,0,0,False
168,CoinGecko@coingecko,The latest Ethereum price is USD 11.01. For historical #Ethereum price charts - http://buff.ly/2bwL4H5,0,0,0,False
169,/r/Ethereum@r_Ethereum,"""Identity Crisis: Clearer Identity through Correlation"" http://bit.ly/2biBl8z #Ethereum",0,0,0,False
170,/r/Ethereum@r_Ethereum,Casper question: Block generation and betting http://bit.ly/2bOf7I7 #Ethereum,0,0,0,False
171,/r/Ethereum@r_Ethereum,"""All The Banks Are Running Trials On Different Flavors Of Ethereum. That's Because It Is The Most A... http://bit.ly/2biBj0n #Ethereum""All The Banks Are Running Trials On Different Flavors Of...I guess this is kind of obvious to everyone in the financial world but still - it shows that Ethereum technology has massive potential to change...reddit.com",0,0,0,False
172,BitcoinAgile@bitcoinagile,Darknet Markets Finally Embracing A #bitcoin Alternative #ethereum http://vocativ.com/353221/darknet-markets-finally-embracing-a-bitcoin-alternative…,1,6,0,False
174,Kevin Müller@downunder2310,Free Ethereum every 5 minutes http://etherfaucet.net/?r=0xC7d9A902a7E39bD01f761B2147442F3035b771c5… #ethereum via @FreeCryptoCo,1,0,0,False
175,Blockgeeks@Blockgks,Will #Blockchain Affect Your Practice or Firm? http://stfi.re/ojaplrp #Bitcooin #Ethereum,0,0,0,False
176,Judson Bartels@judsonb,All 5 together!  #JedidiahJoy #ElliottGrace #HezekiahJethroFreedom #MadisonNekodaHope #Eth… http://ift.tt/2bApPkI,1,1,0,False
177,Coinstats@coinstats,"Ethereum Classic - ETC
Price: $1.48089
Change in 1h: -0.21%
Market cap: $123313238.0
Ranking: 6
#Ethereum Classic #ETC",0,0,0,False
178,Coinstats@coinstats,"Ethereum - ETH
Price: $11.0452
Change in 1h: -0.17%
Market cap: $920044571.0
Ranking: 2
#Ethereum #ETH",0,0,0,False
179,Ethereum Price@EthereumPrice_,"#Ethereum: Ether Price Index
1 ETH =0.018956Ƀ XBT = $11.038000 USD
Today: +0.45%⬆︎ Last 24h: +0.62%⬆︎
https://ethereum-price.com",1,0,0,False
180,Gerald de Jong@fluxe,Some initial #forklore in the land of #ethereum https://blog.slock.it/the-history-of-the-dao-and-lessons-learned-d06740f8cfa5#.txh8xsbpq…,1,0,0,False
181,Cryptopatterns@Cryptopatterns,$ETH being forgotten- makes me bullish. Patterns same range for weeks say no long yet #ethereum $ETC #bitcoin $BTC,3,0,0,False
182,Toby Wise@tobywise,RT @digifinancegirl: Chronicled Launches Open Registry for #IoT on #Ethereum | #blockchain via @letstalkpayments  http://klou.tt/4ajjmcaf8h6i,0,0,0,False
183,Cryptopatterns@Cryptopatterns,"$ETC going exactly as patterns predicted (tweeted) for weeks. Now watch volume. #ethereum $ETH $BTC #bitcoinQuote TweetCryptopatterns@Cryptopatterns · Aug 23, 2016$ETC mixed signals but edge still to bears Daily bottom band target $1.35 or lower . #ethereum $ETH $BTC #bitcoin",0,0,0,False
185,Popcorn Index@popcornindex,Anyone want to sponsor #Ethereum DEVCON2 ?   Anyone ?,1,2,0,False
186,Cryptopatterns@Cryptopatterns,$dash volume drying up while $XMR grows. Still would rather buy than short it. Watching #bitcoin $BTC $ETC $ETH,1,0,0,False
187,Cryptopatterns@Cryptopatterns,"$FCT on tempting track. #factom #bitcoin $BTC #ethereum $ETC $ETHQuote TweetCryptopatterns@Cryptopatterns · Aug 23, 2016$FCT low risk long trade setting up. watching. #factom #bitcoin $BTC $ETH $ETC",0,0,0,False
188,Cryptopatterns@Cryptopatterns,Still like $BTC long-that could change soon. #bitcoin $ETH $ETC $XMR,1,0,0,False
189,Samson Waithaka@samson_huki,"If the developers of #ethereum #Ethereum classic, modified it to fit the store of value, it would beat all other #cryptocoins by far.",1,1,0,False
190,Ethereum Monkey@EthMonkey,YoCoin Transforms into an Ethereum Based Cryptocurrency Asset with Smart Contract Applications #ethereum http://newsbtc.com/2016/08/24/yocoin-transforms-ethereum-based-cryptocurrency-asset-smart-contract-applications/…,1,0,0,False
191,Blockgeeks@Blockgks,The #Blockchain is the new Google http://snip.ly/7tjfx #Ethereum #Bitcoin #Cryptocurrency,0,0,0,False
192,Coinstats@coinstats,"Ethereum Classic - ETC
Price: $1.48375
Change in 1h: +1.07%
Market cap: $123549735.0
Ranking: 6
#Ethereum Classic #ETC",0,0,0,False
193,Coinstats@coinstats,"Ethereum - ETH
Price: $11.0723
Change in 1h: +0.17%
Market cap: $922287903.0
Ranking: 2
#Ethereum #ETH",0,0,0,False
194,Faith Emmanuel@residualbitcoin,YoCoin Transforms into an #ethereum Based Cryptocurrency Asset with Smart Contract #Bitcoin http://bitcoinagile.com/7D9A4D/yocoin-transforms-into-an-ethereum-based-cryptocurrency-asset-with-smart-contract-applications_stream… …,0,0,0,False
195,Crypto Price Ticker@TickerCrypto,"#Ethereum #ETH Rank:2 Last:฿0.01903487(1.183%) High:Buy Instantly! on  Low:฿0.01915739 Vol:฿6,306 Market Cap:฿1,585,529 / $917,216,200.96",0,0,0,False
196,BitcoinAgile@bitcoinagile,YoCoin Transforms into an #ethereum Based Cryptocurrency Asset with Smart Contract #Bitcoin http://bitcoinagile.com/7D9A4D/yocoin-transforms-into-an-ethereum-based-cryptocurrency-asset-with-smart-contract-applications_stream…,2,0,0,False
197,/r/Ethereum@r_Ethereum,Non-technical whitepaper for Corda released http://bit.ly/2bFnmri #EthereumNon-technical whitepaper for Corda releasedPosted in r/ethereum by u/bobsummerwill • 18 points and 3 commentsreddit.com,2,0,0,False
198,/r/Ethereum@r_Ethereum,The History of the DAO and Lessons Learned — Slock.it Blog http://bit.ly/2c79Yzf #Ethereum,1,1,0,False
199,/r/Ethereum@r_Ethereum,ConsenSys Proof of Physical Address http://bit.ly/2bFmpzr #EthereumConsenSys Proof of Physical AddressPosted in r/ethereum by u/oldskool47 • 28 points and 8 commentsreddit.com,1,1,0,False
200,/r/Ethereum@r_Ethereum,The Golem GitHub Repository is now open! Join us in building the Airbnb of computers today! http://bit.ly/2c7aIoe #Ethereum,1,1,0,False
201,#blocktalk@block_talk,"Replying to @coinderdotcomlol, it even says #ethereum on the bottom haha",1,0,0,False
202,Faith Emmanuel@residualbitcoin,#blockchain Startup Chronicled Launches #ethereum IoT Registry - CoinDesk http://bitcoinagile.com/7D96EF/blockchain-startup-chronicled-launches-ethereum-iot-registry-coindesk_stream…  #ResidualBitcoin,1,0,0,False
203,Jewels@JewelsCoin,"Buy some $Jewels and support a great project. 
http://apexconquer.com/ico.php
$BTC $XMR $LISK $ETH
#ApexConquer",1,1,0,False
204,EtherBlockchain.io@etherblockchain,“The History of the DAO and Lessons Learned” by @ChrJentzsch https://blog.slock.it/the-history-of-the-dao-and-lessons-learned-d06740f8cfa5#.tvyc2nu1n… #theDAO #ether #blockchain,0,0,0,False
205,BitcoinAgile@bitcoinagile,#blockchain Startup Chronicled Launches #ethereum IoT Registry - CoinDesk http://bitcoinagile.com/7D96EF/blockchain-startup-chronicled-launches-ethereum-iot-registry-coindesk_stream…,1,3,0,False
206,Brave New Coin@bravenewcoin,#Ethereum Classic Price: USD $1.47 #ETC http://ow.ly/QXxZ303j19Q,0,0,0,False
207,fintechfolk@fintechfolk,Thanks @pjczarnota for registering for FinTechFolk - http://zpr.io/Mnfj #fintech #ethereum #bitcoin #blockchain,0,0,0,False
208,Blockgeeks@Blockgks,#Airbnb just acquired a team of bitcoin and #blockchain experts http://snip.ly/66ft0 #Ethereum,0,0,0,False
209, Eliza Cheng @ElizaRyenne,Mine for #bitcoin #litecoin #dogecoin #ethereum #gold here in @eobot JOIN NOW at https://eobot.com/user/393610,0,0,0,False
210,Coinstats@coinstats,"Ethereum Classic - ETC
Price: $1.46653
Change in 1h: -1.61%
Market cap: $122113977.0
Ranking: 6
#Ethereum Classic #ETC",0,0,0,False
211,Corner Coin@Corner_Coin,"#Ethereum Classic Price Technical Analysis – New Low In ETC http://goo.gl/Mt7ylH via @newsbtc #fintech #BitcoinEthereum Classic Price Technical Analysis – New Low In ETCEthereum classic price moved down below 0.00260BTC and currently recovery. However, it remains below an important resistance of 0.0030BTC.newsbtc.com",3,3,0,False
212,Coinstats@coinstats,"Ethereum - ETH
Price: $11.0482
Change in 1h: -0.35%
Market cap: $920266421.0
Ranking: 2
#Ethereum #ETH",0,0,0,False
213,Antonio Mulatu@RasAntonioM,Replying to @RasAntonioMhospital that's St. Paulos hospital #ETH,1,0,0,False
214,fintechfolk@fintechfolk,Thanks @iamdmitrysereda for registering for FinTechFolk - http://zpr.io/Mnfj #fintech #ethereum #bitcoin #blockchain,1,0,0,False
215,Ethereum Monkey@EthMonkey,MinerGate Officially Adds Ethereum Classic Support #ethereum http://themerkle.com/minergate-officially-adds-ethereum-classic-support/…,1,1,0,False
216,Shannon Steele@digifinancegirl,Chronicled Launches Open Registry for #IoT on #Ethereum | #blockchain via @letstalkpayments  http://klou.tt/4ajjmcaf8h6i,0,0,0,False
218,Francisco Gordillo@FGordillo,#bitcoin #blockchain R3 Files Patent Application for Distributed Ledger Tech: New York-based... http://bit.ly/2c6Uo6M #ethereum #ether,1,0,0,False
219,#blocktalk@block_talk,Replying to @coinderdotcom@BitcoinDood your looking at the $ETH hashrate bud. Which is back at prefork levels.,1,1,0,False
220,Faith Emmanuel@residualbitcoin,#blockchain Startup Chronicled Launches #ethereum IoT Registry http://bitcoinagile.com/7D93AA/blockchain-startup-chronicled-launches-ethereum-iot-registry_stream… #ResidualBitcoin,0,0,0,False
221,BitcoinAgile@bitcoinagile,#blockchain Startup Chronicled Launches #ethereum IoT Registry http://bitcoinagile.com/7D93AA/blockchain-startup-chronicled-launches-ethereum-iot-registry_stream…,0,0,0,False
223,ETHNews@ETHNews_,#Ether Price Remains Range Bound #Ethereum #ETH #price http://ow.ly/FJ5l303xKH7,0,0,0,False
224,David Liam@crazydaveorama,#EthTrade Offers 25% Monthly Income on #Ethereum Investments http://newsbtc.com/2016/08/22/ethtrade-offers-25-monthly-income-ethereum-investments/…,0,0,0,False
227,Chris Timuat@ChrisBizEnglish,Via FinTechSummary: Latest #FinTech Weekly Summary is out - http://buff.ly/2bcaiXI #banking #ethereum #digital #payments #blockchain #fin…,1,0,0,False
229,Igor Lilic ∞@ililic,Replying to @Consensys and @consensysllcPoPA is open to any #ethereum developer who wants to integrate a trusted attestation service. Permission-less platforms ftw :),16,8,1,False
231,Stephan Tual@stephantual,"Summary of the DAO and lessons learned during its development: https://blog.slock.it/the-history-of-the-dao-and-lessons-learned-d06740f8cfa5#.a8ue562fg…
#ethereum #dao",34,27,3,False
232,Crypto Polish Guru@CryptoPLGuru,Replying to @eth_classicETH fans will say that Vitalik is a law or other dev team from #ETH .,0,0,0,False
233,Suresh Naidu@supereagle1,XCOINS.IO Cuts the Wait out of Getting Bitcoin https://cointelegraph.com/news/xcoinsio-cuts-the-wait-out-of-getting-bitcoin… via @Cointelegraph#XEGAINS #BITCOIN #ETHEREUM #fintech #startups,0,0,0,False
235,kim macleod@bakerygirl9,"The SMART Way To #Mine - SAVE 3% W/ Coupon Code 8rRBkl

http://dld.bz/ePx6q
#bitcoin #ether #ethereum #x11",0,0,0,False
236,Saifedean.com@saifedean,"New working paper: 
Can cryptocurrencies fulfil the functions of money? 
http://capitalism.columbia.edu/files/ccs/workingpage/2016/ammous_cryptocurrencies_and_the_functions_of_money.pdf…
#Bitcoin #ethereum #steem #litecoin #ripple",24,9,2,False
237,Janne Hansen@jannehansen,"I think I’ve now figured geth server stuff. First contracts written, now it’s just programming. Tools suck though. #blockchain #ethereum",0,0,0,False
238,Coinstats@coinstats,"Ethereum Classic - ETC
Price: $1.48874
Change in 1h: +1.67%
Market cap: $123961505.0
Ranking: 6
#Ethereum Classic #ETC",0,0,0,False
239,Coinstats@coinstats,"Ethereum - ETH
Price: $11.0805
Change in 1h: +0.3%
Market cap: $922940426.0
Ranking: 2
#Ethereum #ETH",0,0,0,False
240,Ethereum Price@EthereumPrice_,"#Ethereum: Ether Price Index
1 ETH =0.018975Ƀ XBT = $11.095500 USD
Today: +0.55%⬆︎ Last 24h: +0.84%⬆︎
https://ethereum-price.com",1,0,0,False
242,Adam Byrne@adamabyss,"Is bitcoin the answer if traditional investments are letting you down? https://theguardian.com/money/2016/aug/22/bitcoin-investments-cryptocurrency-traded-digital-money?CMP=share_btn_tw… #bitcoin #ethereum #blockchain #coinbaseIs bitcoin the answer if traditional investments are letting you down?The cryptocurrency has a volatile past, but is now being traded around the world. Here’s the lowdown on going digital with your moneytheguardian.com",1,0,0,False
243,/r/Ethereum@r_Ethereum,Where does blockchain fit into this diagram? http://bit.ly/2bNAZmM #Ethereum,0,0,0,False
244,/r/Ethereum@r_Ethereum,New Ethereum-Based Open Registry For Internet Of Things http://bit.ly/2bNCcua #EthereumNew Ethereum-Based Open Registry For Internet Of ThingsPosted in r/ethereum by u/CoinIdol • 17 points and 1 commentreddit.com,1,0,0,False
245,/r/Ethereum@r_Ethereum,Who are your favorite Blockchain leaders you follow? http://bit.ly/2bNArNR #Ethereum,0,0,0,False
247,H A N I F@hanf_ab,#OromoProtests Meles Zenawi of #ETH all time dictator scared people he oppressed even after death.,0,0,0,False
249,Ro Scythe@RoScythe,#cosign was watching this while listening to #ether that shit that'll make your soul burn slow http://fb.me/8bhRf9j1H,0,0,0,False
251,Francisco Gordillo@FGordillo,#bitcoin #blockchain MIT Study Reveals New Data on Free Bitcoin Airdrop: A new study by MIT ... http://bit.ly/2bEZ4hc #ethereum #ether,0,0,0,False
252,Moon-Audio.com@moonaudio,#Ether got an upgrade! Check it out @mrspeakers #headphones https://moon-audio.com/ether-flow-headphones-by-mr-speakers.html…,1,1,0,False
253,Ethereum SE@StackEthereum,I have a DAO wallet with 1100 tokens - how can I get that into Coinbase as ETH? http://ethereum.stackexchange.com/questions/8286/i-have-a-dao-wallet-with-1100-tokens-how-can-i-get-that-into-coinbase-as-eth… #ethereum #ether #thedao #dao,0,0,0,False
256,Colony@joincolony,"Check out @joincolony's 'Visions of the Future'—Part 1, featuring @rLoopTeam #servetheloop #ethereum #blockchain http://ow.ly/WgIT303xkSZ",15,10,0,False
258,Ethereum Monkey@EthMonkey,"Opair Launches ICO for ""Open and Fair"" Cryptocurrency #ethereum http://bitcoinist.net/opair-ico-cryptocurrency/…",1,0,0,False
260,Blockgeeks@Blockgks,10 Amazing Facts About #Bitcoin http://dld.bz/eNrfW #Blockchain #Cryptocurrency #Ethereum,1,0,0,False
263,Ethereum Monkey@EthMonkey,Chronicled launches blockchain-based open registry for IoT - EconoTimes #ethereum http://econotimes.com/Chronicled-launches-blockchain-based-open-registry-for-IoT-267795…,1,0,0,False
264,Emerging Behavior@emerge_behavior,Ethereum's Tale of Two Chains http://bit.ly/2axY5RQ #bitcoin #ethereum #blockchain,0,0,0,False
265,BlockchainLUX@blockchainLUX,Chronicled Launches First-Of-Its-Kind Open Registry For Internet Of Things On #ethereum  Blockchain http://prnewswire.com/news-releases/chronicled-launches-first-of-its-kind-open-registry-for-internet-of-things-on-ethereum-blockchain-300317282.html… -via Flynx,3,1,0,False
266,Marcin Zientek@zientekglobal,Chronicled Launches First-Of-Its-Kind Open Registry for Internet of Things on #Ethereum #Blockchain https://letstalkpayments.com/chronicled-launches-first-of-its-kind-open-registry-for-internet-of-things-on-ethereum-blockchain/?utm_source=twitter&utm_medium=twitter&utm_campaign=twitter…,1,0,0,False
268,Melus@melus,The latest Bitcoin Gazette! http://paper.li/f-1413984175?edition_id=87307b90-69fe-11e6-ab9d-0cc47a0d1605… #bitcoin #ethereum,0,0,0,False
269,/r/Ethereum@r_Ethereum,Question about Hashimoto attack vulnerabilities http://bit.ly/2bvRvKs #Ethereum,0,0,0,False
270,/r/Ethereum@r_Ethereum,Arcade City will be using Consensys' POPA (Proof of Physical Address) Come September launch http://bit.ly/2bvQMZB #EthereumArcade City will be using Consensys' POPA (Proof of Physical...Posted in r/ethereum by u/twigwam • 18 points and 29 commentsreddit.com,2,1,0,False
271,/r/Ethereum@r_Ethereum,Colony's Visions of the Future—Part 1: rLoop http://bit.ly/2bvQD8O #EthereumColony's Visions of the Future—Part 1: rLoopPosted in r/ethereum by u/AttaAtta • 34 points and 5 commentsreddit.com,1,0,0,False
272,/r/Ethereum@r_Ethereum,Chronicled launches Ethereum IoT registry http://bit.ly/2bhVerp #Ethereum,0,0,0,False
273,/r/Ethereum@r_Ethereum,Blockchain business areas up for grabs http://bit.ly/2bhVF4R #Ethereum,0,0,0,False
274,Julia Edling@bitcointonic,"Are Cryptocurrencies a Safe Investment/#Savings Tool? (#Bitcoin, #Ethereum, #Altcoin):… http://dlvr.it/M63k9s",0,0,0,False
275,kim macleod@bakerygirl9,"Get 3% off Ether Cloud Mining With Coupon Code - 8rRBkl

http://dld.bz/ePx6q
#ether #cloudmining #hashpower",0,0,0,False
276,Sophant Travel News@SophantTravel,The latest The Sophant Travel News Daily! http://paper.li/SophantTravel/1317473891?edition_id=0297a820-69fb-11e6-ab9d-0cc47a0d1605… #travel #ethereum,0,0,0,False
277,Blockgeeks@Blockgks,How #Blockchain Technology Can Reinvent The Power Grid http://snip.ly/k7p0q #ethereum #Bitcoin,0,0,0,False
278,Раб Божий@Diener_Gottes,Blockchain Startup #Chronicled Launches #Ethereum IoT Registry: In an effort to build a… http://goo.gl/fb/wJuE4t,1,0,0,False
279,BitcoinAgile@bitcoinagile,#ethereum Classic Lays Out Roadmap #blockchain #ETC #crypto http://bitcoinagile.com/7D864E/ethereum-classic-lays-out-roadmap_stream…,1,1,0,False
280,Avijit Samanta@thinkrocksavi,"Why #Bitcoin and #Ether prices might not matter, but blockchains do. 
https://blog.mixpanel.com/2016/08/04/ethereum-decentralized-apps?utm_campaign=growandtell&utm_source=twitter&utm_medium=social&utm_content=gt080416…",0,0,0,False
282,Ethereum SE@StackEthereum,Is this technically possible with Ethereum? http://ethereum.stackexchange.com/questions/8282/is-this-technically-possible-with-ethereum… #ethereum #goethereum,0,0,0,False
284,Bitcoin News@scryptsy,#Scryptsy.com #BTC Blockchain Startup #Chronicled Launches #Ethereum IoT Registry: In an… http://goo.gl/fb/fGS6Kw,0,0,0,False
285,Liz Hermawan@LizHermawan,Blockchain Startup #Chronicled Launches #Ethereum IoT Registry: In an effort to build a… http://goo.gl/fb/k9UeZ3 #vk,0,0,0,False
286,DEGENERATES CAPITAL INC@EarlyAdopter23,Bitcoin & Cryptocurrencies [BTC] https://youtube.com/playlist?list=PLmXtVwdZjMItch5yipYSDHlImKjIq2DrE… Watch now and subscribe! #bitcoin #blockchain #doge #dash #litecoin $BTC $LTC $ETH,0,0,0,False
288,AL@with_the_calm,Investment round starts tomorrow. Good opportunity @iconominet http://ico.iconomi.net #crowdfinance #blockchain #eth #lisk #btc,1,0,0,False
289,Christine Soekasih@Christine_S02,Blockchain Startup #Chronicled Launches #Ethereum IoT Registry: In an effort to build a… http://goo.gl/fb/JLL7bz #vk,1,1,0,False
290,ExploreTraveler@exploretravel1,"RT @newsbtc: #vDice is the first commercial, on #blockchain, betting game for #Ethereum. http://lnkplg.co/E07p2",1,0,0,False
291,Faith Emmanuel@residualbitcoin,#blockchain Startup Chronicled Launches #ethereum IoT Registry  ValuBit http://bitcoinagile.com/7D8487/blockchain-startup-chronicled-launches-ethereum-iot-registry-valubit_stream…  #ResidualBitcoin,0,0,0,False
292,Francisco Gordillo@FGordillo,#bitcoin #blockchain Blockchain Startup Chronicled Launches Ethereum IoT Registry: In an eff... http://bit.ly/2bhOOZk #ethereum #ether,1,0,0,False
293,4BC@aff4bc,Blockchain Startup #Chronicled Launches #Ethereum IoT Registry: In an effort to build a… http://dlvr.it/M62zSW,0,0,0,False
294,Widget 4 Bitcoin@widget4bc,Blockchain Startup #Chronicled Launches #Ethereum IoT Registry: In an effort to build a… http://dlvr.it/M62zSH,0,0,0,False
296,BitcoinAgile@bitcoinagile,#blockchain Startup Chronicled Launches #ethereum IoT Registry  ValuBit http://bitcoinagile.com/7D8487/blockchain-startup-chronicled-launches-ethereum-iot-registry-valubit_stream…,0,0,0,False
297,indxio@indxio,#Russia Market Close || #Bitcoin: $580.55 | 510.36 EUR||  #Litecoin: 0.0034 BTC  || #Ethereum: 0.0191 BTC   || $BTC $LTC $ETH $RUB,0,0,0,False
298,Alberto Jauregui | esoteRICK.eth @DisruptBanksy,http://ift.tt/2bVf3JU Blockchain Startup Chronicled Launches Ethereum IoT Registry - CoinDesk #ethereum #ether,0,0,0,False
299,Ethereum Monkey@EthMonkey,Blockchain Startup Chronicled Launches Ethereum IoT Registry - CoinDesk #ethereum http://coindesk.com/blockchain-startup-chronicled-launches-ethereum-iot-registry/…,0,0,0,False
301,Ethereum Monkey@EthMonkey,Chronicled Launches First-Of-Its-Kind Open Registry For Internet Of Things On Ethereum Blockchain #ethereum http://prnewswire.com/news-releases/391144421.html…,0,0,0,False
302,Blockgeeks@Blockgks,How #blockchain technology can prevent the next financial crisis http://snip.ly/1voll #Bitcoin #Ethereum,0,0,0,False
303,Coinstats@coinstats,"Ethereum Classic - ETC
Price: $1.57624
Change in 1h: -0.49%
Market cap: $131240692.0
Ranking: 6
#Ethereum Classic #ETC",0,0,0,False
304,BitcoinAgile@bitcoinagile,Replay Attack by retotrinkler #blockchain #ethereum http://slides.com/retotrinkler/replayattack…,1,0,0,False
305,Cédric Walter@cedricwalter,Replay attack explained on ETC and ETH after hard fork of #ethereum time to split now your funds http://slides.com/retotrinkler/replayattack#/… #blockchain,0,0,0,False
306,Coinstats@coinstats,"Ethereum - ETH
Price: $11.1173
Change in 1h: +0.07%
Market cap: $925957425.0
Ranking: 2
#Ethereum #ETH",0,0,0,False
307,Ethereum Price@EthereumPrice_,"#Ethereum: Ether Price Index
1 ETH =0.019017Ƀ XBT = $11.104250 USD
Today: +0.77%⬆︎ Last 24h: +0.70%⬆︎
https://ethereum-price.com",1,1,0,False
308,Algo4Crypto@Algo4Crypto,"#bitcoin #xmr #ethereum #poloniex #cryptotrader #bitfinex #kraken
First 24 hours of A4C-Supreme Trader v3.2 on XMR!",1,1,0,False
310,Cédric Walter@cedricwalter,Failure of Decentralisation and Immutability and the Potential Consequences #blockchain #ethereum great #meetup http://slideshare.net/arcatomia/ethereum-classic-18-august-2016…,0,0,0,False
311,BitcoinAgile@bitcoinagile,#blockchain Startup Chronicled Launches #ethereum IoT Registry - CoinDesk #Authentication http://coindesk.com/blockchain-startup-chronicled-launches-ethereum-iot-registry…,1,0,0,False
312,/r/Ethereum@r_Ethereum,D-Twitter on ethereum? http://bit.ly/2bhHVXN #Ethereum,0,0,0,False
313,/r/Ethereum@r_Ethereum,Any services yet for deploying contracts without running your own node? http://bit.ly/2bvCybj #EthereumAny services yet for deploying contracts without running your own...It's a recurring need of mine and I doubt I'm the only one who'd love to have something that accomplishes that.reddit.com,0,0,0,False
314,/r/Ethereum@r_Ethereum,"Ethereum News: SingularDtv, Devcon2 Reporting http://bit.ly/2bhGXuE #Ethereum",0,0,0,False
315,Skills Matter@skillsmatter,Join us at #chainconf on Dec 5-6 #bitcoin #fintech #blockchain #IoT #ethereum #bigdata http://buff.ly/2bvosnV,1,0,0,False
317,30Thou77@Virgotistic,"#earth practical #fire passion #water Emotion #air mental #ether . #elements30Thou | ReverbNationRap music, lyrics, and videos from Greenbelt, MD on ReverbNationreverbnation.com",1,0,0,False
318,CRYPTOCOINTALK@cryptocointalk,#Ethereum-based #Benefactory Will Change The #Media Landscape https://cryptocointalk.com/topic/49442-themerkle-ethereum-based-benefactory-will-change-the-media-landscape/… $ETH #finance #educational #economics,0,0,0,False
320,Blockgeeks@Blockgks,"In the Future, Ownerless Companies Will Live on the #Blockchain http://snip.ly/vt929 #Ethereum",0,0,0,False
321,Coinstats@coinstats,"Ethereum Classic - ETC
Price: $1.58162
Change in 1h: -0.22%
Market cap: $131686587.0
Ranking: 6
#Ethereum Classic #ETC",0,0,0,False
322,Coinstats@coinstats,"Ethereum - ETH
Price: $11.1028
Change in 1h: +0.23%
Market cap: $924734554.0
Ranking: 2
#Ethereum #ETH",0,0,0,False
324,BitcoinAgile@bitcoinagile,#ethereum Price Technical Analysis: Facing a Couple of Important Hurdles http://altcointoday.com/ethereum-price-technical-analysis-facing-a-couple-of-important-hurdles…,2,3,0,False
327,Crypto Trader Pro @CryptoTraderPro,"#Ethereum price #ETH popped a few points higher versus the #USD, but failed… http://dlvr.it/M61MPD #Ethereum #ETH",0,0,0,False
328,Stephen D Taylor@StephenD_Taylor,"So many truly inspiring ideas coming out of #hackethercamp. The #ethereum Dapp ecosystem will be made stronger.Quote Tweetether-camp@CampEther · Aug 24, 2016Replying to @CampEtherthis is epic, we've crossed 200 registered ideas #love https://hack.ether.camp/#/ideas/by-date",2,2,0,False
329,Zeth Couceiro@Zeth_Plexus,"YoCoin adds smart contract applications, becomes #Ethereum based digital currency - #blockchain #bitcoin @YOC_CryptoYoCoin adds smart contract applications, becomes Ethereum based digital currency - EconoTimesYoCoin, a decentralized peer-to-peer digital currency that was recently launched, has announced that it is now an Ethereum based asset along with its latest development being the addition of smart...econotimes.com",1,0,0,False
330,BitcoinAgile@bitcoinagile,YoCoin Transforms into an #ethereum Based Cryptocurrency Asset with Smart Contract Applications - #bitcoin http://bitcoinagile.com/7D7C15/yocoin-transforms-into-an-ethereum-based-cryptocurrency-asset-with-smart-contract-applications_stream…,1,0,0,False
331,/r/Ethereum@r_Ethereum,"Trailbot, a monitoring tool for sysadmins, leverages the Bitcoin and Ethereum blockchains to guaran... http://bit.ly/2c5TuHV #EthereumTrailbot, a monitoring tool for sysadmins, leverages the Bitcoin...Posted in r/ethereum by u/adansdpc • 16 points and 2 commentsreddit.com",1,0,0,False
332,/r/Ethereum@r_Ethereum,"Clearmatics, a company building on Ethereum is on the front page of the Financial Times today! Well... http://bit.ly/2c5Uxaz #EthereumClearmatics, a company building on Ethereum is on the front page...Posted in r/ethereum by u/Orangedie • 106 points and 13 commentsreddit.com",0,0,0,False
333,/r/Ethereum@r_Ethereum,Vitalik Is Rockin’ It In Singapore With His New “Hard Fork Café” T-Shirt! Gotta Love This Guy! http://bit.ly/2c5UtI6 #EthereumVitalik Is Rockin’ It In Singapore With His New “Hard Fork Café”...Posted in r/ethereum by u/CrystalETH_ • 172 points and 24 commentsreddit.com,1,0,0,False
334,/r/Ethereum@r_Ethereum,Central bank of South Africa considers blockchain implementation http://bit.ly/2c5U6x6 #EthereumCentral bank of South Africa considers blockchain implementationPosted in r/ethereum by u/smartgerman • 11 points and 0 commentsreddit.com,0,0,0,False
335,BitcoinAgile@bitcoinagile,#8: #ethereum: A Look into the World of Ethereum and How to Trade and Invest this http://pickyourbook.info/8-ethereum-a-look-into-the-world-of-ethereum-and-how-to-trade-and-invest-this-cryptocurrency.html…,1,0,0,False
336,Blockgeeks@Blockgks,#Blockchain Powered Micropayment Browser Brave Raises $4.5m http://snip.ly/qmlif #Ethereum #bitcoin,0,0,0,False
337,Coinstats@coinstats,"Ethereum Classic - ETC
Price: $1.58929
Change in 1h: +0.46%
Market cap: $132322866.0
Ranking: 6
#Ethereum Classic #ETC",0,0,0,False
338,Coinstats@coinstats,"Ethereum - ETH
Price: $11.078
Change in 1h: +0.08%
Market cap: $922653907.0
Ranking: 2
#Ethereum #ETH",0,0,0,False
339,Bekane Olana@bekansiif,"Heroic,Selfless,Man of th year, Freedom fighter #FeyisaLelisa stood with #OromoProtests ,killings,torture by #ETH.Quote TweetOakland Institute@oak_institute · Aug 23, 2016Read @Mittaloak #FeyisaLilesa it was a heroic political act, sending a msg globally about the plight of his people http://oaklandinstitute.org/feyisa-lilesa-crossing-line-ethiopia…",0,0,0,False
340,Blockgeeks@Blockgks,Are you a writer? We are looking for #Blockchain Content writers (Paid) to join our team.  Email Ameer@blockgeeks.com #Bitcoin #Ethereum,1,1,0,False
341,Ethereum SE@StackEthereum,My ethereum mist walled didn't receive my ether http://ethereum.stackexchange.com/questions/8278/my-ethereum-mist-walled-didnt-receive-my-ether… #ethereum #transactions,0,0,0,False
342,Mohiy Badawy@EgysaMco,Free #Ethereum every 5 minutes https://cryptosource.net/free-ethereum/?r=1heddTjLlF… #Ethereum via @CryptoSourceHQ,1,0,0,False
343,Mihai Alisie@MihaiAlisie,Replying to @markcross.@markcross Especially after the next #hardfork! #Ethereum #metropolis will likely introduce significant improvements over #homestead ^_^ ,3,1,0,False
345,Ethereum SE@StackEthereum,Is it a Solidity bug or not? http://ethereum.stackexchange.com/questions/8276/is-it-a-solidity-bug-or-not… #ethereum #solidity #contractdebugging #bug,0,0,0,False
346,Etherby@TheEtherby,http://EthNews.com news feed now on #Etherby. #Ethereum #EthereumClassic,0,0,0,False
347,FunVidClick@FunVidClick,"Start #Mining #Ether Without Purchasing Any Hardware

3% Discount With Coupon Code 8rRBkl

http://dld.bz/ePx6q",0,0,0,False
348,Blockgeeks@Blockgks,The Theory of a #Blockchain Circular Economy http://snip.ly/8snff #Ethereum #bitcoin,0,0,0,False
349,Coinstats@coinstats,"Ethereum Classic - ETC
Price: $1.57807
Change in 1h: -1.24%
Market cap: $131386733.0
Ranking: 6
#Ethereum Classic #ETC",0,0,0,False
350,Coinstats@coinstats,"Ethereum - ETH
Price: $11.0676
Change in 1h: -0.11%
Market cap: $921778757.0
Ranking: 2
#Ethereum #ETH",0,0,0,False
351,Ethereum Price@EthereumPrice_,"#Ethereum: Ether Price Index
1 ETH =0.018977Ƀ XBT = $11.109500 USD
Today: +0.56%⬆︎ Last 24h: -0.36%⬇︎
https://ethereum-price.com",0,0,0,False
352,Ethereum Monkey@EthMonkey,Ethereum-based Benefactory Will Change The Media Landscape #ethereum http://themerkle.com/ethereum-based-benefactory-will-change-the-media-landscape/…,1,1,0,False
353,Ethereum Monkey@EthMonkey,Ethereum Classic Price Technical Analysis - New Low In ETC - NEWSBTC #ethereum http://newsbtc.com/2016/08/24/ethereum-classic-price-technical-analysis-new-low-etc/…,1,0,0,False
354,Alberto Jauregui | esoteRICK.eth @DisruptBanksy,http://ift.tt/2bewNB5 Ethereum Classic Price Technical Analysis – New Low In ETC - newsBTC #ethereum #ether,1,0,0,False
355,ether-camp@CampEther,Seen on #hackethercamp https://hack.ether.camp/idea/trees-for-life… #ethereum,7,3,0,False
356,Alberto Jauregui | esoteRICK.eth @DisruptBanksy,http://ift.tt/2bvbE3e Ethereum-based Benefactory Will Change The Media Landscape - The Merkle #ethereum #ether,1,0,0,False
357,DEGENERATES CAPITAL INC@EarlyAdopter23,"https://cryptorex.com @CryptoRexMarket Safe, fast & reliable cryptocurrencies exchange! #bitcoin #fintech #blockchain #trading $BTC $ETH",1,0,0,False
358,/r/Ethereum@r_Ethereum,Ethereum-based Benefactory Will Change The Media Landscape http://bit.ly/2bMwSau #EthereumEthereum-based Benefactory Will Change The Media LandscapePosted in r/ethereum by u/fearofhellz • 25 points and 0 commentsreddit.com,0,0,0,False
359,/r/Ethereum@r_Ethereum,Settlement coin for Banks http://bit.ly/2bheYjz #EthereumSettlement coin for BanksPosted in r/ethereum by u/catfoodlover • 24 points and 9 commentsreddit.com,0,0,0,False
360,/r/Ethereum@r_Ethereum,Need eth on testnet http://bit.ly/2bMxBsy #EthereumNeed eth on testnetPlease send me some eth for testing 0x002e3d583330D20Ee9d467154A097bD630a5b488 THANK YOU !!!reddit.com,0,0,0,False
361,Faith Emmanuel@residualbitcoin,#ethereum Classic Price Technical Analysis  New Low In ETC - NEWSBTC #ETC #ETCtoBTC #price http://newsbtc.com/2016/08/24/ethereum-classic-price-technical-analysis-new-low-etc… …,0,0,0,False
362,BitcoinAgile@bitcoinagile,#ethereum Classic Price Technical Analysis  New Low In ETC - NEWSBTC #ETC #ETCtoBTC #price http://newsbtc.com/2016/08/24/ethereum-classic-price-technical-analysis-new-low-etc…,0,0,0,False
364,CryptoIndexes@CryptoIndexes,Ethereum was the least volatile coin over the last 12h $ETH #Poloniex | http://goo.gl/v4AeSX,1,0,0,False
365,CoinminerOne@CoinminerOne,Trade high leveraged $DAO $LSK $ETH and #Bitcoin on Bitmex: https://bitmex.com/register/pw4ld4,1,1,0,False
366,Coinstats@coinstats,"Ethereum Classic - ETC
Price: $1.59701
Change in 1h: -0.43%
Market cap: $132961255.0
Ranking: 5
#Ethereum Classic #ETC",0,0,0,False
367,John Lilic ₿ Ξ ∞@JohnLilic,"Replying to @AndrewDARMACAP @somemikesena and @uport_me""Japanese for the Yen that I'm handling"" #Tokyo. Helping make #Ethereum real and #ConsenSys global",5,6,0,False
368,Coinstats@coinstats,"Ethereum - ETH
Price: $11.0838
Change in 1h: +0.19%
Market cap: $923114408.0
Ranking: 2
#Ethereum #ETH",0,0,0,False
369,Ethereum SE@StackEthereum,what does solidity function call means? http://ethereum.stackexchange.com/questions/8270/what-does-solidity-function-call-means… #ethereum #goethereum #solidity #dappdevelopment #ethereumwalletdapp,0,0,0,False
370,Ethereum SE@StackEthereum,Browser Solidity not compiling http://ethereum.stackexchange.com/questions/8271/browser-solidity-not-compiling… #ethereum #soliditybrowser,0,0,0,False
371,Faith Emmanuel@residualbitcoin,YoCoin Transforms into an #ethereum Based Cryptocurrency Asset with Smart Contract Applications – CoinSpeaker http://bitcoinagile.com/7D73DF/yocoin-transforms-into-an-ethereum-based-cryptocurrency-asset-with-smart-contract-applications-coinspeaker_stream… #Res…,0,0,0,False
372,BitcoinAgile@bitcoinagile,YoCoin Transforms into an #ethereum Based Cryptocurrency Asset with Smart Contract Applications – CoinSpeaker http://bitcoinagile.com/7D73DF/yocoin-transforms-into-an-ethereum-based-cryptocurrency-asset-with-smart-contract-applications-coinspeaker_stream…,2,0,0,False
373,Alberto Jauregui | esoteRICK.eth @DisruptBanksy,"http://ift.tt/2bDIlLo YoCoin adds smart contract applications, becomes Ethereum based digital currency - EconoTimes #ethereum #ether",1,0,0,False
374,Yocoin Network@YocoinNetwork,"Join the Yocoin movement via the link 
http://secure.yocoin.org/user/registrationuser.aspx?ref=YC2804867…
#yocoin #bitcoin #ethereum #cryptocurrencies #invest",1,1,0,False
375,Faith Emmanuel@residualbitcoin,"YoCoin adds smart contract applications, becomes #ethereum based digital currency - EconoTimes http://bitcoinagile.com/7D728B/yocoin-adds-smart-contract-applications-becomes-ethereum-based-digital-currency-econotimes_stream… #ResidualBitcoin",0,0,0,False
376,Ethereum Monkey@EthMonkey,"YoCoin adds smart contract applications, becomes Ethereum based digital currency - EconoTimes #ethereum http://econotimes.com/YoCoin-adds-smart-contract-applications-becomes-Ethereum-based-digital-currency-265920…",0,0,0,False
377,BitcoinAgile@bitcoinagile,"YoCoin adds smart contract applications, becomes #ethereum based digital currency - EconoTimes http://bitcoinagile.com/7D728B/yocoin-adds-smart-contract-applications-becomes-ethereum-based-digital-currency-econotimes_stream…",1,0,0,False
378,Bitcoin Updater@BitcoinUpdater,Ethereum Prediction Market Service Takes First Steps With Beta Launch #ethereum http://soco.space/ujSOvN,0,0,0,False
379,Faith Emmanuel@residualbitcoin,#ethereum-based Benefactory Will Change The Media Landscape http://bitcoinagile.com/7D7200/ethereum-based-benefactory-will-change-the-media-landscape_stream…  #ResidualBitcoin,0,0,0,False
380,indxio@indxio,#China Market Close || #Bitcoin: $578.37 | 510.66 EUR||  #Litecoin: 0.0034 BTC  || #Ethereum: 0.0191 BTC   || $BTC $LTC $ETH $RMB,0,0,0,False
381,BitcoinAgile@bitcoinagile,#ethereum-based Benefactory Will Change The Media Landscape http://bitcoinagile.com/7D7200/ethereum-based-benefactory-will-change-the-media-landscape_stream…,1,0,0,False
383,LAPITH@bhumharit,RT fintechfolk: Thanks humanpdx for registering for FinTechFolk - http://zpr.io/Mnfj #fintech #ethereum #bitcoin #blockchain,0,0,0,False
385,zenbot@zenbot_btc,"Sticky post: What do you want to see in Zenbot 3.6? https://github.com/carlos8f/zenbot/issues/41… #crypto #btc #bitcion #eth #etherium #bot #ai #tradingSticky: Poll: What do you want to see in Zenbot 3.6? · Issue #41 · DeviaVir/zenbotGreetings Zenbot users! After a gazillion commits over the weekend Zenbot 3.5.x is fairly stable now. However there's much more Zenbot is capable of, and only so much time to implement it. ...github.com",1,0,0,False
387,Coinstats@coinstats,"Ethereum Classic - ETC
Price: $1.60404
Change in 1h: -0.14%
Market cap: $133545144.0
Ranking: 5
#Ethereum Classic #ETC",0,0,0,False
388,Coinstats@coinstats,"Ethereum - ETH
Price: $11.0604
Change in 1h: -0.07%
Market cap: $921150367.0
Ranking: 2
#Ethereum #ETH",0,0,0,False
389,Crypto Price Ticker@TickerCrypto,"#Ethereum #ETH Rank:2 Last:฿0.01909127(0.193%) High:Buy Instantly! on  Low:฿0.01918877 Vol:฿8,750 Market Cap:฿1,589,862 / $921,915,737.20",0,0,0,False
390,Crypdex@CrypdexLLC,converted 68.41 mBTC $39.52 USD to ETH #Ethereum,1,1,0,False
392,Crypto Price Ticker@TickerCrypto,"#Ethereum #ETH Rank:2 Last:฿0.01875962(-1.909%) High:Buy Instantly! on  Low:฿0.01918877 Vol:฿9,335 Market Cap:฿1,562,094 / $907,068,983.85",0,0,0,False
393,/r/Ethereum@r_Ethereum,"Why ""DAO"" is a dangerous term and analyzing what they really are http://bit.ly/2bMiOOo #EthereumWhy ""DAO"" is a dangerous term and analyzing what they really arereddit.com",1,0,0,False
395,Ethereum SE@StackEthereum,where to find ethereum wallet contracts? http://ethereum.stackexchange.com/questions/8268/where-to-find-ethereum-wallet-contracts… #ethereum #goethereum #solidity #mist #javascript,1,1,0,False
396,Ameer Rosic@AmeerRosic,Could #Blockchain Technology Disruptive The Real Estate Industry? http://dld.bz/eCvcw #ethereum,0,0,0,False
397,Coinstats@coinstats,"Ethereum Classic - ETC
Price: $1.6055
Change in 1h: +0.38%
Market cap: $133664429.0
Ranking: 6
#Ethereum Classic #ETC",0,0,0,False
398,Coinstats@coinstats,"Ethereum - ETH
Price: $11.0685
Change in 1h: -0.14%
Market cap: $921809486.0
Ranking: 2
#Ethereum #ETH",0,0,0,False
399,Ethereum Price@EthereumPrice_,"#Ethereum: Ether Price Index
1 ETH =0.018975Ƀ XBT = $11.056955 USD
Today: +0.55%⬆︎ Last 24h: -0.44%⬇︎
https://ethereum-price.com",0,0,0,False
400,jonromero@jonromero,I just released my own coin: HugCoin! Spread the love around and get the source here http://jon.io/hugcoin-build-your-own-cryptocurrency-coin.html… #ethereum #blockchain,5,1,0,False
401,Animal Neotropical@aneotropical,Your #donation also in #Ethereum - please help us to help now! - 0x0c36316598a8e6c0120f19df187e2f0fdd982579 - Thanks.,0,0,0,False
402,fintechfolk@fintechfolk,Thanks  for registering for FinTechFolk - http://zpr.io/Mnfj #fintech #ethereum #bitcoin #blockchain,1,1,0,False
406,Simon Dixon (Beware Impersonators)@SimonDixonTwitt,Not my place to give Altcoin speculation advise. Roll the dice if you choose. Here is my commentary #Ether https://youtu.be/uXt9W27zpC8,0,0,0,False
407,DEGENERATES CAPITAL INC@EarlyAdopter23,"https://cryptorex.com @CryptoRexMarket Safe, fast & reliable cryptocurrencies exchange! #bitcoin #fintech #blockchain #ethereum $BTC $LTC",1,0,0,False
408,Christian Di Giorgio@thelegendofk2,"A step in the right direction.  ""Design by Contract"" to the next level.  #ethereum #blockchain #Bitcoin #eiffelQuote TweetEthereum Report@ethereumreport · Aug 23, 2016https://cryptocoinsnews.com/microsoft-harvard-ucl-take-steps-bulletproof-smart-contracts/…",0,0,0,False
409,PhilliVanilli@RyvnHevly,Listen to Lil $tove X Yung $eth - Cola ( Prod. By GODLike1029 ) by Lil $tove #np on #SoundCloud https://soundcloud.com/yung-keem-909448571/lil-tove-x-yung-eth-cola-prod…,0,0,0,False
410,Ethereum SE@StackEthereum,Events called in constructor function http://ethereum.stackexchange.com/questions/8267/events-called-in-constructor-function… #ethereum #solidity #web3js #events #constructor,0,0,0,False
411,Alberto Jauregui | esoteRICK.eth @DisruptBanksy,http://ift.tt/2bMFZse Ethereum Price Technical Analysis – Short-term Resistance - newsBTC #ethereum #ether,0,0,0,False
412,Ethereum Monkey@EthMonkey,Ethereum Price Technical Analysis - Short-term Resistance - NEWSBTC #ethereum http://newsbtc.com/2016/08/24/ethereum-price-technical-analysis-short-term-resistance/…,0,0,0,False
413,Faith Emmanuel@residualbitcoin,#ethereum Price Technical Analysis  Short-term Resistance - NEWSBTC #bitcoin #ethereumtrade http://bitcoinagile.com/7D6C6D/ethereum-price-technical-analysis-short-term-resistance-newsbtc_stream… …,0,0,0,False
414,BitcoinAgile@bitcoinagile,#ethereum Price Technical Analysis  Short-term Resistance - NEWSBTC #bitcoin #ethereumtrade http://bitcoinagile.com/7D6C6D/ethereum-price-technical-analysis-short-term-resistance-newsbtc_stream…,1,3,0,False
415,Blockgeeks@Blockgks,"#Blockchain: the answer to life, the universe and everything? http://snip.ly/3fbl1 #Bitcoin #Ethereum",0,0,0,False
416,Coinstats@coinstats,"Ethereum Classic - ETC
Price: $1.59893
Change in 1h: -1.12%
Market cap: $133115324.0
Ranking: 6
#Ethereum Classic #ETC",0,0,0,False
417,Coinstats@coinstats,"Ethereum - ETH
Price: $11.0762
Change in 1h: +0.05%
Market cap: $922434806.0
Ranking: 2
#Ethereum #ETH",0,0,0,False
418,Ethereum SE@StackEthereum,Trying to understanding libraries http://ethereum.stackexchange.com/questions/8263/trying-to-understanding-libraries… #ethereum #solidity #library,1,0,0,False
419,AltcoinWeekly@altcoinweekly,The latest Ethereum price is USD 11.02. For historical #Ethereum price charts - http://buff.ly/2bdZY7z,0,0,0,False
420,CoinGecko@coingecko,The latest Ethereum price is USD 11.02. For historical #Ethereum price charts - http://buff.ly/2be0suf,1,0,0,False
421,Crypto@allaboutcrypto,Do you play dice? win $500 worth of #bitcoin per week just by wagering  at https://rollin.io/ref/uiu #Dice #gambling $ETH $BTCS #btc,0,0,0,False
423,Null TX@nulltxnews,"The White Hat hacker plot thickens... http://themerkle.com/white-hat-hackers-caught-red-handed-during-attempted-etc-sell-off/… #ethereum #ethereumnews #cryptocurrency #bitcoin #hackers $eth $etcWhite Hat Hackers Caught Red-handed During Attempted ETC Sell-offThere is still a significant debate going on regarding the Ethereum Classic funds obtained by self-professed white hat hackers. While they secured 7 million coins, several transactions were sent to exthemerkle.com",0,0,0,False
424,Blockgeeks@Blockgks,How Startups Are Using #Blockchain to Raise Capital http://snip.ly/u6hxk #bitcoin #ethereum,1,0,0,False
425,Yocoin Network@YocoinNetwork,"Register for a free Yocoin account via the link provided. http://secure.yocoin.org/user/registrationuser.aspx?ref=YC2804867…
#yocoin #bitcoin #ethereum #blockchain #cryptocurrencies",0,0,0,False
426,Coinstats@coinstats,"Ethereum Classic - ETC
Price: $1.61656
Change in 1h: -0.54%
Market cap: $134581090.0
Ranking: 6
#Ethereum Classic #ETC",0,0,0,False
427,Coinstats@coinstats,"Ethereum - ETH
Price: $11.0727
Change in 1h: -0.08%
Market cap: $922129602.0
Ranking: 2
#Ethereum #ETH",0,0,0,False
