,user,text,likes,retweets,replies,is_thread
0,Chandrashekhar More@cpmore,SWIFT Smart Contract Initial Implementation https://dropbox.com/s/q550354kcyp3ltw/SWIFT%20Smart%20Oracle.png… #digitaltransformation #blockchain #ETHEREUM #SWIFT @Smart_ContractSWIFT Smart Oracle.pngShared with Dropboxdropbox.com,2,1,0,False
1,Mik Michael Krist@mik_krist,#4steps to do #today.  #now #blockchain #ethereum #healthsuccessstories https://plus.google.com/109676021204615011758/posts/6tgSJvP8gWS?_utm_source=199-1-1…,2,0,0,False
2,tharude@Tharudebg,Ark.io marks 1000 TEC participants! Congrats Ark team! #LISK #bitcoin #crypto #PR #startups #success #ethereum #monero #factom #investing,5,5,0,False
3,Christian Seberino@c_seberino,How Blockchains Like Ethereum Will Disrupt Our Election System http://buff.ly/2fCAP4i #etc #eth #ethereumclassic #ethereum #blockchains,5,2,0,False
4,Spartak Tomanov@bulgar1an,"Maybe it sounds as a VERY bold statement, but I don't think that #Ethereum will be a $1bn #blockchain again.... #ETH #fintech",1,1,0,False
5,Kadena@kadena_io,"Mining and private blockchains don't mix http://bit.ly/2fM5ajd
#blockchain #bitcoin #ethereum",6,3,0,False
6,Christian Seberino@c_seberino,Enterprise blockchains are a HUGE overpromise – The Blockchain Times http://buff.ly/2emecn4 #etc #eth #ethereumclassic #ethereumEnterprise blockchains are a HUGE overpromiseTL;DR: Enterprise blockchains — if successful — can bring some technical improvements but they will fail to deliver on their hype.medium.com,1,2,0,False
7,fintechfolk@fintechfolk,Thanks @dan_e_gray for registering for FinTechFolk - http://zpr.io/Mnfj #fintech #ethereum #bitcoin #blockchain,2,0,0,False
8,BlockCDN@BlockCDN,Read our WP to learn how #BlockCDN will make the internet faster and more secure with #Blockchain http://blockcdn.org/index.jsp#book-int… #ethereum #ICO,31,381,0,False
9,BlockCDN@BlockCDN,Our bounty campaign is now LIVE! Join us at https://theviralexchange.com to start earning rewards today #investors #ICO #ethereum @viralexchangex,25,247,0,False
10,Kelly Bailey@kelbailey13,Another ex of how #blockchain may solve existing prob. #Ethereum Blockchain Apps Might Ensure #Freelancers Get Paid http://disq.us/t/2fmnob7,2,0,0,False
11,The Cypto Poll@TheCryptoPoll,"No bitcoin moon after #trump being elected so what's next?!
-
#bitcoin #altcoin $BTC $ETH $ZECBitcoin moon in December18.9%Alt- race in December56.8%Nothing until February24.3%37 votes·Final results",3,3,0,False
12,Bitcoin Brasil@BitcoinBr10,FIVE WAYS GAME IS BETTER THAN FIAT FOR THE GAMING INDUSTRY http://bitcoinbrasil10.blogspot.com.br/2016/11/cinco-modos-de-jogo-e-melhor-do-que.html… #Bitcoin #blockchain #game #coindesk #btc #ethereum #eth,4,5,0,False
13,MightyEther@mightybitcoin,Creating an Upgradeable Token With Dapple and Dappsys http://blog.nexusdev.us/dapple-tutorial/… #ethereum,2,2,0,False
14,indxio@indxio,#China Market Close || #Bitcoin: $713.1 | 657.94 EUR||  #Litecoin: 0.0027 BTC  || #Ethereum: 0.0143 BTC   || $BTC $LTC $ETH $RMB,2,0,0,False
15,Fred E @Fredilly,Be nice to #Ethereum. You'll miss it when it's gone.,3,1,0,False
16,Puneet Kukreja@iPuneetKukreja,Of #blockchain #identity and the development platform. Let #Deloitte help with its #Ethereum #platform. #DevOps https://lnkd.in/g9Mie-Q,1,0,0,False
17,Stephan Karpischek@kpi,"Looking forward to trying status, an #ethereum mobile client https://status.im/?mwr=1219-1cd83e62&mws=twitter… @ethstatusStatus - Private, Secure CommunicationStatus brings the power of Ethereum into your pocket by combining a messenger, crypto-wallet, and Web3 browser.status.im",2,0,0,False
18,Unallocated Space@Unallocated,"Join us for @BlockchainEdu #BlockChainGauntlet #HackNight Nov 20th
#ethereum #BlockChain Learn about #CryptoCurrencyBlockchain Education Network (BEN) Hack NightSun, Nov 20, 2016, 3:00 PM: During this hacknight, we'll give participants access to APIs and toolkits provided by IOTA, SIA, Chain, and Netki. Participants will also be able to directly connect withmeetup.com",4,4,0,False
19,veronica@VeroBTC,A Chance to Win 2500 ARK just by Tweeting our Project! Enter NOW! http://bit.ly/2fqap7W #btc #lisk #ARK $ARK #crypto #eth #bitcoin,2,1,0,False
20,The Viral Exchange@viralexchangex,Join us in welcoming #Blockcdn to The Viral Exchange. http://blockcdn.org @BlockCDN #eth #blockchain,35,40,0,False
21,ARK.io@ArkEcosystem,"#Ark on 8btc (#china)
http://8btc.com/forum.php?mod=viewthread&tid=41933…
$ARK #lisk #ethereum #bitcoin #digibyte #crypto #monero #dogecoin $LSK #factom $BTC #investing",9,6,0,False
22,Bitcoin Updater@BitcoinUpdater,Ethereum (ETH and ETC) Price Trends (Week of October 10th) #ethereum http://soco.space/MvF4K2,1,2,0,False
23,Alex.eth@AlexanderFisher,The Golem Token Sale: Irrational Exuberance? – ConsenSys Media http://buff.ly/2eNptrS #Ethereum #Fintech,1,1,0,False
24,FailCommunity@FAILCommunity,Deutsche Bank survey sees #blockchain adoption in six years https://news.bitcoin.com/deutsche-bank-blockchain-six-years/… #Bitcoin #EthereumDeutsche Bank Survey Sees Blockchain Adoption in Six Years – News Bitcoin NewsA newly published Deutsche Bank report called “Powering the flow of global capital” goes into great detail concerning the blockchain phenomena. Researchersnews.bitcoin.com,1,1,0,False
25,FailCommunity@FAILCommunity,"#Winter is coming, but miners doesn't care, because they have rigs to keep them warm. #bitcoin #litecoin #ethereum #zcash #FAILfun",3,1,0,False
26,Andrew@realbovin,Having issues withdrawaling Lisk from Poloniex? http://bit.ly/2eG3W4v #btc #lisk #ARK $ARK #crypto #cryptocurrency #eth #bitcoin,3,1,0,False
27,CoinBorse NEWS@CoinBorse,The latest CoinBorsenBote! http://paper.li/CoinBorse/1395949169?edition_id=49675b20-a910-11e6-b4da-0cc47a0d1605… #ethereum #blockchain,1,3,0,False
28,Christian Seberino@c_seberino,"BIP 151: The End-To-End Encryption Bitcoin Never Had - looks like Core Devs are starting work on this now http://buff.ly/2fSpxfS #etc #ethBIP 151: The End-To-End Encryption Bitcoin Never Had – but Soon WillTraffic over the Bitcoin network has always been unencrypted. Transactions and blocks are sent from node to node in plain sight, as are Bloom filters, which are often used by Simplified Payment...bitcoinmagazine.com",3,0,0,False
29,Hilary Carter @TweetFromHilary,"Deloitte's #ethereum-based identity platform intended to be ""free and easy to use."" http://coindesk.com/deloitte-opens-ethereum-identity-platform-blockchain-developers/… #Deloitte",2,2,0,False
30,Rob Viglione@robviglione,"""Blockchain Startup Everex Aims for Financial Inclusion"" #bitcoin #finance #banking #ethereumBlockchain Startup Everex Aims for Financial Inclusion – Bitcoin NewsA new startup called Everex a financial inclusion blockchain remittance company aims to nourish the 3.5 billion under-banked globally. The platform uses thenews.bitcoin.com",2,1,0,False
31,Cenacle Capital@cenaclecapital,Excited to meet W.Mougayar at the #insuranceblockchain summit and getting his book The Business Blochchain #ethereum,3,0,0,False
32,Vindyne8@Vindyne8,#RT Join Chronobank on Slack! http://chronobank.herokuapp.com #chronobank #bitcoin #blockchain #Ethereum #wavesplatform,13,12,0,False
33,Etherisc@etherisc,#blockchain #insurance recommended reading: Peer to peer insurance on an #ethereum blockchain by Joshua Davis http://dynamisapp.com/whitepaper.pdf,2,1,0,False
34,Saurabh Mishra@imsaurabhmishra,"What is #Ethereum? A Step-by-Step Beginners Guide #blockchain
http://bit.ly/2eGPYA1",2,0,0,False
35,Paul Schmitzer ن@LiteBitCo,A Chance to Win 2500 ARK just by Tweeting our Project! Enter NOW! http://bit.ly/2fqap7W #btc #lisk #ARK $ARK #crypto #eth #bitcoin,2,1,0,False
36,Serg@staiylero1,Having issues withdrawaling Lisk from Poloniex? http://bit.ly/2eG3W4v #btc #lisk #ARK $ARK #crypto #cryptocurrency #eth #bitcoin,2,1,0,False
37,creme.ai@creme_ai,#Ethereum Smart Contract Issues Frustrate Developers with Fatal Bugs https://cryptocoinsnews.com/ethereum-smart-contract-issues-frustrate-developers-fatal-bugs/…,4,0,0,False
38,Menno Pietersen @MennoPP,"$WAVES: my favorite #crypto investment, I sold my $BTC and $ETH https://youtube.com/watch?v=kTPwisoI98s… #BTC #TH #cryptocurrency #investmentWAVES: my favorite crypto investment, I sold my BTC and ETHInvest in Crypto via ICONOMI now: https://my.iconomi.com/register?ref=69gvQ-- UPDATE 28 December 2016so the price dumped very hard, bad times for waves.I sol...youtube.com",2,2,0,False
39,ethereum.network@EthereumNetw,"New high level language for #Ethereum, functional and strongly typed, based on python
By @VitalikButerinViper: a new (total functional, strongly typed,...The following represents a *very* rough pre-alpha, encompassing the work I have done on this over the last week. So feel free to test it out, but...reddit.com",7,8,0,False
40,Startup Collider@PwCCollider,#Ethereum #Blockchain Apps Might Ensure Freelancers Get Paid - CryptoCoinsNews http://buff.ly/2g0ghGr,3,3,0,False
41,Eric Gaubert@kalydeoo,How #blockchain is decentralizing #gambling https://techinasia.com/talk/blockchain-decentralizing-gambling… #ethereum,1,4,0,False
42,AminCad@AminCad,Creating an Upgradeable Token With Dapple and Dappsys http://blog.nexusdev.us/dapple-tutorial/… #ethereum,1,1,0,False
43,ETHNews@ETHNews_,#Ethereum within the #Insurance Industry http://ow.ly/RE9X30666Gh,2,3,0,False
44,ARK.io@ArkEcosystem,"ARK-TEC

#Ark Token Exchange Campaign: 7. November - 11. December 2016

$ARK $LSK $BTC $ETH #LISK #bitcoin #crypto #PR #startups #success",11,12,1,False
45,Crypto Helvetia@CryptoHelvetia,"XII November 2016's cryptos divination pumps : $XRP $FCT $ANS $SC #siacoin

Under observation : $xmr $eth $BTCXRP22.6%FCT32.3%ANS17.2%SC28%93 votes·Final results",10,9,0,False
46,Tommy@chasyrceo,"@FEhrsam you hear about @ArcadeCityHall They are the "" uber without uber"" making #ETHEREUM go mainstream. Also having a token sale.",2,1,0,False
47,Blockgeeks@Blockgks,Q&A: STEPHAN TUAL: Founder & COO Slock.it & The DAO http://dld.bz/faeQR #THEDAO #ethereum #blockchain,3,0,0,False
48,sh3lko@sh3lko,Another record #ICO - @golemproject raised over $8M in 20 min on #Ethereum. Congrats @julianzawist - #blockchain #CloudComputing https://twitter.com/golemproject/status/797104391102701568…This Tweet is unavailable.,3,0,0,False
49,Marc R Gagné MAPP @OttLegalRebels,he Next US #TreasurySecretary May Make or Break the #Crypto -Industry - http://goo.gl/alerts/vLN5e #cryptocurrency #bitcoin #ethereum,3,5,0,False
50,Blockchain Australia@BlockchainAUS,#Blockchain #Startup @Synereo  Threatens Monopoly of #Ethereum as Major DApps Host http://ow.ly/oT9b305WNB3,4,7,0,False
51,ahok ahong kumala@AhokKumala,A Chance to Win 2500 ARK just by Tweeting our Project! Enter NOW! http://bit.ly/2fqap7W #btc #lisk #ARK $ARK #crypto #eth #bitcoin,1,2,0,False
52,Contractize@contractize,Ethereum Blockchain Apps Might Ensure Freelancers Get Paid http://disq.us/t/2fmnob7 #Blockchain #Freelancer #Ethereum,2,0,0,False
53,coinfreak@puikonen,Having issues withdrawaling Lisk from Poloniex? http://bit.ly/2eG3W4v #btc #lisk #ARK $ARK #crypto #cryptocurrency #eth #bitcoin,2,1,0,False
54,Menno Pietersen@btc_feed,"$WAVES: my favorite #crypto investment, I sold my $BTC and $ETH https://youtube.com/watch?v=kTPwisoI98s… #BTC #TH #cryptocurrency #investmentWAVES: my favorite crypto investment, I sold my BTC and ETHInvest in Crypto via ICONOMI now: https://my.iconomi.com/register?ref=69gvQ-- UPDATE 28 December 2016so the price dumped very hard, bad times for waves.I sol...youtube.com",2,2,0,False
55,G2020  ✪@sv_frontier,"Internet of People by #Fermat #Bitcointalk topic is now Live, you can now directly get in touch with #IoP developers #eth #icn #steemit #lskQuote TweetIoP Community - Chapter DACH+@IoP_Germany · Nov 12, 2016Our official Bitcointalk announcement! If you want to learn more about the Fermat vision and the Internet of... http://fb.me/82Eiarndv",4,3,0,False
56,ARK.io@ArkEcosystem,"Possibility to acquire #Lisk in #EU
$ARK-TEC
#ethereum #bitcoin #digibyte #crypto #monero #dogecoin $LSK #factom $BTC $ETH #investing #ICOQuote TweetPolyCrypto@Polycrypto · Nov 10, 2016Buy or sell #Lisk on LiteBit
https://litebit.eu #blockchain #cryptocurrency #startup #exchange $LSK @LiskHQ @litebiteu",12,14,1,False
57,Blockgeeks@Blockgks,"Who is working on a blockchain powered sustainable energy solutions?
http://dld.bz/eVxaY #ethereum #blockchain",3,0,0,False
58,ExploreTraveler@exploretravel1,RT @kalydeoo: How #blockchain is decentralizing #gambling http://lnkplg.co/QbdEP #ethereum,1,3,0,False
61,0xc1c4da@0xc1c4da,"@VitalikButerin just announced Viper, #python 3 based programming language for #Ethereum !! https://reddit.com/r/ethereum/comments/5cjdcd/viper_a_new_total_functional_strongly_typed/…",1,2,0,False
62,blockchainmedia@Ethereumlab,Finally! A Simple Guide To understand Ethereum http://dld.bz/fcBTc #Ethereum #blockchain #fintech,1,1,0,False
63,𝖬𝖨𝖢𝖧𝖠𝖤𝖫 𝖱𝖤𝖴𝖳𝖤𝖱@michaelreuter,"3/ From an #ethereum developerś point of view, #ether should be low.",1,0,0,False
64,Menno Pietersen @MennoPP,"$waves Full Node coming! ""Relax guys we'll be launching the nodes over the weekend"" @sasha35625 @wavesplatform $eth $btc",1,1,0,False
65,ExploreTraveler@exploretravel1,"RT @TweetFromHilary: Deloitte's #ethereum-based identity platform intended to be ""free and easy to use."" http://lnkplg.co/enwev #Deloitte",1,1,0,False
66,Udi Wertheimer@udiWertheimer,The jokers at @TechCrunch reposted an article from May on how awesome #Ethereum and The #DAO are. They plan to repost a Note 7 review next.,1,1,0,False
67,Till Zier@tillzier,"What is #Ethereum? A Step-by-Step Beginners Guide #blockchain
http://bit.ly/2eGPYA1",3,2,0,False
68,muhammad sugon ahmad@muhamma63584455,A Chance to Win 2500 ARK just by Tweeting our Project! Enter NOW! http://bit.ly/2fqap7W #btc #lisk #ARK $ARK #crypto #eth #bitcoin,1,2,0,False
69,Alex Jiménez@RAlexJimenez,#Ethereum #Blockchain Apps Might Ensure Freelancers Get Paid https://cryptocoinsnews.com/blockchains-might-ensure-freelancers-get-paid/… #fintech #in,1,1,0,False
70,Сергій@SemBond,Having issues withdrawaling Lisk from Poloniex? http://bit.ly/2eG3W4v #btc #lisk #ARK $ARK #crypto #cryptocurrency #eth #bitcoin,2,1,0,False
71,Wanda Hermawan@_wanda27,A Chance to Win 2500 ARK just by Tweeting our Project! Enter NOW! http://bit.ly/2fqap7W #btc #lisk #ARK $ARK #crypto #eth #bitcoin,0,0,0,False
72,Ларион Клименко@larikklimenko,Having issues withdrawaling Lisk from Poloniex? http://bit.ly/2eG3W4v #btc #lisk #ARK $ARK #crypto #cryptocurrency #eth #bitcoin,14,1,0,False
73,Cris Carrascosa @CarrascosaCris_,"#Ethereum #blockchain #dapps might ensure freelancers get paidQuote TweetReal Time Crypto@RealTimeCrypto · Nov 12, 2016Ethereum Blockchain Apps Might Ensure Freelancers Get Paid http://ift.tt/2eS6VKu",0,0,0,False
74,Albert Colorway@wings0111,Having issues withdrawaling Lisk from Poloniex? http://bit.ly/2eG3W4v #btc #lisk #ARK $ARK #crypto #cryptocurrency #eth #bitcoin,2,1,0,False
75,L3gionario@L3gionario1,Having issues withdrawaling Lisk from Poloniex? http://bit.ly/2eG3W4v #btc #lisk #ARK $ARK #crypto #cryptocurrency #eth #bitcoin,2,1,0,False
86,Joseph Stuhlman@JStuhlman,Having issues withdrawaling Lisk from Poloniex? http://bit.ly/2eG3W4v #btc #lisk #ARK $ARK #crypto #cryptocurrency #eth #bitcoin,1,3,0,False
87,joko suhendrasayetno@JSayetno,Having issues withdrawaling Lisk from Poloniex? http://bit.ly/2eG3W4v #btc #lisk #ARK $ARK #crypto #cryptocurrency #eth #bitcoin,0,0,0,False
88,lega!!!@legaping,Having issues withdrawaling Lisk from Poloniex? http://bit.ly/2eG3W4v #btc #lisk #ARK $ARK #crypto #cryptocurrency #eth #bitcoin,1,1,0,False
89,XTexplorer@XTexplorer,Having issues withdrawaling Lisk from Poloniex? http://bit.ly/2eG3W4v #btc #lisk #ARK $ARK #crypto #cryptocurrency #eth #bitcoin,1,1,0,False
90,rick_raider's@rifurri,Having issues withdrawaling Lisk from Poloniex? http://bit.ly/2eG3W4v #btc #lisk #ARK $ARK #crypto #cryptocurrency #eth #bitcoin,1,1,0,False
91,Николай Швидкий@n_a_shvidi,Having issues withdrawaling Lisk from Poloniex? http://bit.ly/2eG3W4v #btc #lisk #ARK $ARK #crypto #cryptocurrency #eth #bitcoin,1,1,0,False
92,muhammad sugon ahmad@muhamma63584455,Having issues withdrawaling Lisk from Poloniex? http://bit.ly/2eG3W4v #btc #lisk #ARK $ARK #crypto #cryptocurrency #eth #bitcoin,1,1,0,False
103,Ameer Rosic@AmeerRosic,"#Blockchain can be confusing, but it doesn't have to be.  http://blockgeeks.com #bitcoin #Ethereum",1,0,0,False
104,blockchainmedia@Ethereumlab,Can someone explain to me what is Ethereum in laymen's term? http://dld.bz/eWbfN #ethereum #blockchain,0,0,0,False
105,Tedy MD@bitcoinjapanese,Precious Plum: Tow Truck (Ep. 3) http://vid.staged.com/xYut #btcjapan #btcchina #ethereum.co.id,0,0,0,False
106,gunawan bustiono@bustiono,Having issues withdrawaling Lisk from Poloniex? http://bit.ly/2eG3W4v #btc #lisk #ARK $ARK #crypto #cryptocurrency #eth #bitcoin,0,0,0,False
107,Violeta S.@leonvioleta4,"http://buff.ly/2fDOmby Start mining easy and quick; choose the cryptocurrency you want, earn money while you sleep #ethereum #dash #monero",2,0,0,False
110,Coinstats@coinstats,"Ethereum Classic - ETC
Price: $0.925622
Change in 1h: +0.43%
Market cap: $79422949.0
Ranking: 6
#Ethereum Classic #ETC",0,0,0,False
111,Coinstats@coinstats,"Ethereum - ETH
Price: $10.0598
Change in 1h: +0.79%
Market cap: $864113181.0
Ranking: 2
#Ethereum #ETH",0,0,0,False
112,Hagie@realhagie,Having issues withdrawaling Lisk from Poloniex? http://bit.ly/2eG3W4v #btc #lisk #ARK $ARK #crypto #cryptocurrency #eth #bitcoin,0,0,0,False
113,CryptoFanatic@Mr_Fijo,Having issues withdrawaling Lisk from Poloniex? http://bit.ly/2eG3W4v #btc #lisk #ARK $ARK #crypto #cryptocurrency #eth #bitcoin,0,0,0,False
114,Jason  Jones@mr_jasonjones,Replying to @thekidJUSit's still #ether ...,0,0,0,False
115,Constantin Malaeru@costi672000,Donate to our project! Add funds and receive $$$ in exchange from profits lifetime! @gagpubblicita #ethereum #miner https://indiegogo.com/projects/build-ethereum-mining-farm/x/14702367#/…,0,0,0,False
116,Dart Bitcoin@strana_posylok,Having issues withdrawaling Lisk from Poloniex? http://bit.ly/2eG3W4v #btc #lisk #ARK $ARK #crypto #cryptocurrency #eth #bitcoin,0,0,0,False
117,ExploreTraveler@exploretravel1,RT @luisvae: #Ethereum Smart Contract Issues Frustrate Developers with Fatal Bugs http://lnkplg.co/6Qblq,0,0,0,False
118,No coNnecT@_No_CoNnecT_,Having issues withdrawaling Lisk from Poloniex? http://bit.ly/2eG3W4v #btc #lisk #ARK $ARK #crypto #cryptocurrency #eth #bitcoin,0,0,0,False
119,Ameer Rosic@AmeerRosic,Great people deserve a great audience. http://blockgeeks.com #Blockchain #Ethereum #Bitcoin,2,0,0,False
120,Sinz @Sinzfeldt,"Awww cute, $ETH is trying to become like it's bastard brother $ETC, worthless. #ethereum",1,0,0,False
122,Paul Schmitzer ن@LiteBitCo,Having issues withdrawaling Lisk from Poloniex? http://bit.ly/2eG3W4v #btc #lisk #ARK $ARK #crypto #cryptocurrency #eth #bitcoin,0,0,0,False
124,Coinstats@coinstats,"Ethereum Classic - ETC
Price: $0.921115
Change in 1h: +0.36%
Market cap: $79035458.0
Ranking: 6
#Ethereum Classic #ETC",0,0,0,False
125,Coinstats@coinstats,"Ethereum - ETH
Price: $9.98239
Change in 1h: +0.73%
Market cap: $857454985.0
Ranking: 2
#Ethereum #ETH",0,0,0,False
126,Bonita@ladybonita13,Having issues withdrawaling Lisk from Poloniex? http://bit.ly/2eG3W4v #btc #lisk #ARK $ARK #crypto #cryptocurrency #eth #bitcoin,0,0,0,False
128,Sindi dea@SindiBagas,A Chance to Win 2500 ARK just by Tweeting our Project! Enter NOW! http://bit.ly/2fqap7W #btc #lisk #ARK $ARK #crypto #eth #bitcoin,0,0,0,False
130,Veki@Veki551155,Anyone tried Asrock Pro BTC R2.0?? — #ethereum Community Forum http://bitcoinagile.com/9499B5/anyone-tried-asrock-pro-btc-r20-ethereum-community-forum_stream…,0,0,0,False
131,Sindi dea@SindiBagas,Having issues withdrawaling Lisk from Poloniex? http://bit.ly/2eG3W4v #btc #lisk #ARK $ARK #crypto #cryptocurrency #eth #bitcoin,0,0,0,False
132,Anomalous1@anomalous__0N3,@VitalikButerin ugh will u please act like @elonmusk and promote $eth,0,0,0,False
133,Faith Emmanuel@residualbitcoin,Anyone tried Asrock Pro BTC R2.0?? — #ethereum Community Forum http://bitcoinagile.com/9499B5/anyone-tried-asrock-pro-btc-r20-ethereum-community-forum_stream… #ResidualBitcoin,0,0,0,False
134,Totally YourNight@totallyyn,Whats this? Ability for secure credentialing and tunneling that runs from your mobile device...#noblockchain #blockchain #ethereum,1,0,0,False
142,fintechfolk@fintechfolk,Thanks  for registering for FinTechFolk - http://zpr.io/Mnfj #fintech #ethereum #bitcoin #blockchain,1,1,0,False
143,Ameer Rosic@AmeerRosic,6 Reasons Why #Blockchain is Worth Getting Excited http://snip.ly/7je5i #bitcoin #Ethereum,0,0,0,False
144,BitcoinAgile@bitcoinagile,Anyone tried Asrock Pro BTC R2.0?? — #ethereum Community Forum http://bitcoinagile.com/9499B5/anyone-tried-asrock-pro-btc-r20-ethereum-community-forum_stream…,0,0,0,False
145,ToRiKaN@ToRiKaN,Having issues withdrawaling Lisk from Poloniex? http://bit.ly/2eG3W4v #btc #lisk #ARK $ARK #crypto #cryptocurrency #eth #bitcoin,0,0,0,False
146,MeeseeksBTC@Meeseeks100BTC,A Chance to Win 2500 ARK just by Tweeting our Project! Enter NOW! http://bit.ly/2fqap7W #btc #lisk #ARK $ARK #crypto #eth #bitcoin,0,0,0,False
147,MeeseeksBTC@Meeseeks100BTC,Having issues withdrawaling Lisk from Poloniex? http://bit.ly/2eG3W4v #btc #lisk #ARK $ARK #crypto #cryptocurrency #eth #bitcoin,0,0,0,False
148,Patrick Heinz@pjheinz,Having issues withdrawaling Lisk from Poloniex? http://bit.ly/2eG3W4v #btc #lisk #ARK $ARK #crypto #cryptocurrency #eth #bitcoin,1,0,0,False
149,Patrick Heinz@pjheinz,A Chance to Win 2500 ARK just by Tweeting our Project! Enter NOW! http://bit.ly/2fqap7W #btc #lisk #ARK $ARK #crypto #eth #bitcoin,0,0,0,False
151,ToRiKaN@ToRiKaN,A Chance to Win 2500 ARK just by Tweeting our Project! Enter NOW! http://bit.ly/2fqap7W #btc #lisk #ARK $ARK #crypto #eth #bitcoin,0,0,0,False
153,Sean Goodwin@DealAppSEO,"You should join me at this #Ethereum Blockchain Meetup in OC. Check it out and RSVP! http://meetu.ps/32bGQX Hey, there's free food!Ethereum and Blockchain discussion!Mon, Nov 14, 2016, 7:00 PM: The Ethereum Meetup is pleased to announce that C. Rees Morgan II, founder of Hudson Morgan Blockchain (HMBlock) , will be joining us as our meetup presenter. Mr. Morgan wimeetup.com",1,0,0,False
154,PapillonV@PapillonV5,Having issues withdrawaling Lisk from Poloniex? http://bit.ly/2eG3W4v #btc #lisk #ARK $ARK #crypto #cryptocurrency #eth #bitcoin,0,0,0,False
155,blockchainmedia@Ethereumlab,Welcome to Fortune's 2016 40 Under 40 http://dld.bz/eWbaX #ethereum #blockchain #business,0,0,0,False
156,Blockgeeks@Blockgks,"Check it out! Full Q &A with Richard Olsen, CEO at #lykke http://buff.ly/2cQ2dIQ #blockchain #ethereum",0,0,0,False
157,Veki@Veki551155,#ethereum Smart Contract Issues Frustrate Developers with Fatal Bugs #bitcoin #developers http://cryptocoinsnews.com/ethereum-smart-contract-issues-frustrate-developers-fatal-bugs…,0,0,0,False
158,Guioda@Guiclemes,A Chance to Win 2500 ARK just by Tweeting our Project! Enter NOW! http://bit.ly/2fqap7W #btc #lisk #ARK $ARK #crypto #eth #bitcoin,0,0,0,False
159,Faith Emmanuel@residualbitcoin,#ethereum Smart Contract Issues Frustrate Developers with Fatal Bugs #bitcoin #developers http://cryptocoinsnews.com/ethereum-smart-contract-issues-frustrate-developers-fatal-bugs… …,0,0,0,False
161,BitcoinAgile@bitcoinagile,#ethereum Smart Contract Issues Frustrate Developers with Fatal Bugs #bitcoin #developers http://cryptocoinsnews.com/ethereum-smart-contract-issues-frustrate-developers-fatal-bugs…,2,0,0,False
162,Churilov Ruslan@rus23kav,Having issues withdrawaling Lisk from Poloniex? http://bit.ly/2eG3W4v #btc #lisk #ARK $ARK #crypto #cryptocurrency #eth #bitcoin,0,0,0,False
163,Dejan Lesičar@dejanlesi,Having issues withdrawaling Lisk from Poloniex? http://bit.ly/2eG3W4v #btc #lisk #ARK $ARK #crypto #cryptocurrency #eth #bitcoin,0,0,0,False
164,Unmanned World@UnmannedWorld,#Blockchain-based #IoT project does #drone deliveries using #Ethereum http://bit.ly/2fHyJ6q,0,0,0,False
165,Guioda@Guiclemes,Having issues withdrawaling Lisk from Poloniex? http://bit.ly/2eG3W4v #btc #lisk #ARK $ARK #crypto #cryptocurrency #eth #bitcoin,0,0,0,False
166,Digital Dosh News@DigitalDoshNews,Business #phone #voip systems @nocroom with unlimited #extensions #pbx 702.789.0409 #btc #eth ok @nocroom via /r/C…Business #phone #voip systems @nocroom with unlimited #extensions...Posted in r/CryptoCurrency by u/NocRoom • 0 points and 0 commentsreddit.com,0,0,0,False
167,nurul  m qurana@NQurana,A Chance to Win 2500 ARK just by Tweeting our Project! Enter NOW! http://bit.ly/2fqap7W #btc #lisk #ARK $ARK #crypto #eth #bitcoin,0,0,0,False
168,nurul  m qurana@NQurana,Having issues withdrawaling Lisk from Poloniex? http://bit.ly/2eG3W4v #btc #lisk #ARK $ARK #crypto #cryptocurrency #eth #bitcoin,0,0,0,False
169,Avarice@5_Avarice,Having issues withdrawaling Lisk from Poloniex? http://bit.ly/2eG3W4v #btc #lisk #ARK $ARK #crypto #cryptocurrency #eth #bitcoin,0,0,0,False
171,Veki@Veki551155,Differences with Fiat Currencies - Unified Digital Currency #fintech #ethereum #bitcoin #bAgile #cryptocurrency http://bitcoinagile.com/949758/differences-with-fiat-currencies-unified-digital-currency_stream…,0,0,0,False
172,Faith Emmanuel@residualbitcoin,Differences with Fiat Currencies - Unified Digital Currency #fintech #ethereum #bitcoin #bAgile #cryptocurrency http://bitcoinagile.com/949758/differences-with-fiat-currencies-unified-digital-currency_stream… #R…,0,0,0,False
173,Cryptogeeks boop/bop/beep@Cryptogeeks,Business #phone #voip systems @nocroom with unlimited #extensions #pbx 702.789.0409 #btc #eth ok @nocroom - http://cryptogeeks.com/business-phone-voip-systems-nocroom-unlimited-extensions-pbx-7027890409-btc-eth-ok-nocroom…,0,0,0,False
174,Luis Vaello@luisvae,#Ethereum Smart Contract Issues Frustrate Developers with Fatal Bugs http://bit.ly/2fufPfc,0,0,0,False
175,BitcoinAgile@bitcoinagile,Differences with Fiat Currencies - Unified Digital Currency #fintech #ethereum #bitcoin #bAgile #cryptocurrency http://bitcoinagile.com/949758/differences-with-fiat-currencies-unified-digital-currency_stream…,0,0,0,False
176,Brave New Coin@bravenewcoin,#Ethereum Price: USD $10.04 $ETH http://ow.ly/6UKf3048WBe,1,0,0,False
183,Coinstats@coinstats,"Ethereum Classic - ETC
Price: $0.916938
Change in 1h: +-0.03%
Market cap: $78674415.0
Ranking: 6
#Ethereum Classic #ETC",0,0,0,False
184,Coinstats@coinstats,"Ethereum - ETH
Price: $9.97675
Change in 1h: +1.97%
Market cap: $856941323.0
Ranking: 2
#Ethereum #ETH",0,0,0,False
185,Ameer Rosic@AmeerRosic,How #Blockchain Helps Brooklyn Dwellers Use Neighbors' Solar Energy http://snip.ly/f3wcc #Ethereum,0,0,0,False
188,BULLETZGOTTI@i_am_god_gotti,Real talk #ether #foodforthought #rns https://instagram.com/p/BMuOSYvAbxk/,0,0,0,False
189,arhibalt@Arhibalt86,Having issues withdrawaling Lisk from Poloniex? http://bit.ly/2eG3W4v #btc #lisk #ARK $ARK #crypto #cryptocurrency #eth #bitcoin,1,0,0,False
190,Λnorak@AnorakTech,#zcash at $153 and falling. When is this going to stop? #ethereum #mining more profitable for 3 days now. #cryptomining is FUN! #irony,1,0,0,False
193,Teal Blue@Teal2Blue,"2:34pm>#WhatsCooking?MoreSweet #Ether>#Anaesthesia/#KnockOut #Drugs>
AssaultsBrain+Vision!
#Ottawa #Police #Health #OttNews #OttPolice #RCMP",0,0,0,False
194,Kal Goop@KalGoop,Having issues withdrawaling Lisk from Poloniex? http://bit.ly/2eG3W4v #btc #lisk #ARK $ARK #crypto #cryptocurrency #eth #bitcoin,1,0,0,False
195,Vinos74@Leoo974,Cloud Mining-> http://eobot.com/new.aspx?referid=27455… #BTC #ETH #LTC #STEEM #DOGE #XRP #DASH #RDD #BTS #CURE #XEM XMR ZEC FCT BCN REP LSK MAID BLK GRC GOLD,0,0,0,False
197,Hop Hey@udvoim,#ARK-TEC ! 5 Millions LSK exchanged in 24 hrs of ARK-TEC - THANKS! $ARK $LSK $ETH $ETC #LISK #PR #socialmedia… https://twitter.com/i/web/status/796065183525376001…,0,0,0,False
199,Teal Blue@Teal2Blue,"2:21pm>#WhatsCooking?Sweet #Ether>#Anaesthesia/#KnockOut #Drugs=#Sevoflurane?+#Musk+StopIt
#Ottawa #Police #Health #OttNews #OttPolice #RCMP",0,0,0,False
200,Karlsson@Karlsson_Roof,Having issues withdrawaling Lisk from Poloniex? http://bit.ly/2eG3W4v #btc #lisk #ARK $ARK #crypto #cryptocurrency #eth #bitcoin,1,0,0,False
201,Me Lon@yemelon18,A Chance to Win 2500 ARK just by Tweeting our Project! Enter NOW! http://bit.ly/2fqap7W #btc #lisk #ARK $ARK #crypto #eth #bitcoin,1,0,0,False
202,Me Lon@yemelon18,Having issues withdrawaling Lisk from Poloniex? http://bit.ly/2eG3W4v #btc #lisk #ARK $ARK #crypto #cryptocurrency #eth #bitcoin,0,0,0,False
203,Cliff K Jordan@CKJordan15,"Earn up to $65,610 daily! join & get the benefits http://coinomia.com/prelaunch/biggest-binary-MLM-prelaunch.html?id=vivante… #coinomia #ethereum #cryptoguide #Bitcoins",0,0,0,False
204,Cliff K Jordan@CKJordan15,"Just got my 1st #bitcoins on #Coinbase! Buy $100, Get $10 https://coinbase.com/join/vivante #coinarmy #Bitcointalk #ethereum",0,0,0,False
206,Ameer Rosic@AmeerRosic,Q&A: STEPHAN TUAL: Founder & COO Slock.it & The DAO http://dld.bz/faeQR #THEDAO #ethereum #blockchain,1,0,0,False
207,_Lucky_@ll_lucky_ll,Having issues withdrawaling Lisk from Poloniex? http://bit.ly/2eG3W4v #btc #lisk #ARK $ARK #crypto #cryptocurrency #eth #bitcoin,1,0,0,False
208,BitcMarckos@klarki1,Having issues withdrawaling Lisk from Poloniex? http://bit.ly/2eG3W4v #btc #lisk #ARK $ARK #crypto #cryptocurrency #eth #bitcoin,1,0,0,False
209,Blockgeeks@Blockgks,Step-by-Step Guide: What the heck is a Smart Contract? #blockchain #bitcoin #ethereum http://dld.bz/eYNat,2,1,0,False
210,Coinstats@coinstats,"Ethereum Classic - ETC
Price: $0.915724
Change in 1h: +-1.15%
Market cap: $78568872.0
Ranking: 6
#Ethereum Classic #ETC",0,0,0,False
211,Coinstats@coinstats,"Ethereum - ETH
Price: $9.78926
Change in 1h: +-1.25%
Market cap: $840823606.0
Ranking: 2
#Ethereum #ETH",0,0,0,False
212,Golden Gateway@GoldenGatewayUS,Markets Monthly: Bitcoin Tests 2016 Highs as Investors Seek Privacy http://officialgoldengateway.blogspot.com/2016/11/markets-monthly-bitcoin-tests-2016_9.html… #ethereum,1,1,0,False
214,Eric Ocelewski@Astro_Erik,"#ethereum is doomed by lack of $$$ and lack of developers !!Quote TweetAltCoin Calendar@AltCoinCalendar · Nov 12, 2016Ethereum Smart Contract Issues Frustrate Developers with Fatal Bugs: http://altcoincalendar.info/r/article/a3X",0,0,0,False
215,blockchainmedia@Ethereumlab,What is the difference between #Bitcoin and #Ethereum? http://dld.bz/eWaV7 #startup,0,0,0,False
216,Faith Emmanuel@residualbitcoin,#ethereum #blockchain Apps Might Ensure Freelancers Get Paid http://xpr.me//news/ethereum-blockchain-apps-might-ensure-freelancers-get-paid.html… #ResidualBitcoin,0,0,0,False
217,BitcoinAgile@bitcoinagile,#ethereum #blockchain Apps Might Ensure Freelancers Get Paid http://xpr.me//news/ethereum-blockchain-apps-might-ensure-freelancers-get-paid.html…,1,0,0,False
218,CryptoNewswire @CryptoNewswire,Ethereum Smart Contract Issues Frustrate Developers with Fatal Bugs - https://cryptocoinsnews.com/ethereum-smart-contract-issues-frustrate-developers-fatal-bugs/… $ETH #cryptocurrency #bitcoin #blockchain,0,0,0,False
219,Alberto Jauregui | esoteRICK.eth @DisruptBanksy,http://ift.tt/2eSyrHB Ethereum Smart Contract Issues Frustrate Developers with Fatal Bugs - CryptoCoinsNews #ethereum #ether,0,0,0,False
220,Ethereum Monkey@EthMonkey,Ethereum Smart Contract Issues Frustrate Developers with Fatal Bugs #ethereum https://cryptocoinsnews.com/ethereum-smart-contract-issues-frustrate-developers-fatal-bugs/…,1,2,0,False
221,Blockgeeks@Blockgks,It's coming! The #Blockchain Technology That Will Replace Lawyers http://dld.bz/eYNat #ethereum,1,0,0,False
222,Veki@Veki551155,#ethereum Smart Contract Issues Frustrate Developers with Fatal Bugs #EthereumBugs https://cryptocoinsnews.com/ethereum-smart-contract-issues-frustrate-developers-fatal-bugs…,0,0,0,False
223,Coinstats@coinstats,"Ethereum Classic - ETC
Price: $0.926713
Change in 1h: +-0.08%
Market cap: $79510425.0
Ranking: 6
#Ethereum Classic #ETC",0,0,0,False
224,Coinstats@coinstats,"Ethereum - ETH
Price: $9.91172
Change in 1h: +-0.95%
Market cap: $851328045.0
Ranking: 2
#Ethereum #ETH",0,0,0,False
225,Ethereum Price@EthereumPrice_,"#Ethereum: Ether Price Index
1 ETH =0.014011Ƀ XBT = $9.850645 USD
Today: -2.75%⬇︎ Last 24h: -2.77%⬇︎
https://ethereum-price.com",0,0,0,False
226,Olivier Chapiteau@o_chapiteau,"12Nov2016 18:00 UTC #Ether #Blockchain status - Block height @ 2,614,515 - 54,418 unconfirmed tr. - Last fork height @ 2,614,497",0,0,0,False
227,Ethereum SE@StackEthereum,Interact with Smart Contract private net with 3 nodes http://ethereum.stackexchange.com/questions/9993/interact-with-smart-contract-private-net-with-3-nodes… #ethereum #goethereum #synchronization #contractinvocation,0,0,0,False
228,Olivier Chapiteau@o_chapiteau,12Nov2016 18:00 UTC #Ethereum live spots - #Ether @ 9.87703 $ - #EtherClassic @ 0.92955 $,0,0,0,False
229,Faith Emmanuel@residualbitcoin,#ethereum Smart Contract Issues Frustrate Developers with Fatal Bugs #EthereumBugs https://cryptocoinsnews.com/ethereum-smart-contract-issues-frustrate-developers-fatal-bugs…  #Resid…,0,0,0,False
230,BitcoinAgile@bitcoinagile,#ethereum Smart Contract Issues Frustrate Developers with Fatal Bugs #EthereumBugs https://cryptocoinsnews.com/ethereum-smart-contract-issues-frustrate-developers-fatal-bugs…,1,0,0,False
232,IeSua@ie_sua,Having issues withdrawaling Lisk from Poloniex? http://bit.ly/2eG3W4v #btc #lisk #ARK $ARK #crypto #cryptocurrency #eth #bitcoin,1,0,0,False
234,m2ie@m2ie_conseil,What is #Ethereum ? A Step-by-Step Beginners Guide [Ultimate Guide] #Blockchain http://blockgeeks.com/guides/what-is-ethereum-a-step-by-step-beginners-guide/… via @@blockgks,1,1,0,False
235,blockchainmedia@Ethereumlab,What are the best #blockchain books to read? http://dld.bz/eWaV7 #bitcoin #ethereum #startup,0,0,0,False
237,Yura Voitenko@forksearsher,Having issues withdrawaling Lisk from Poloniex? http://bit.ly/2eG3W4v #btc #lisk #ARK $ARK #crypto #cryptocurrency #eth #bitcoin,0,0,0,False
238,Aytekin@AytekinKaradas,A Chance to Win 2500 ARK just by Tweeting our Project! Enter NOW! http://bit.ly/2fqap7W #btc #lisk #ARK $ARK #crypto #eth #bitcoin,0,0,0,False
239,Aytekin@AytekinKaradas,Having issues withdrawaling Lisk from Poloniex? http://bit.ly/2eG3W4v #btc #lisk #ARK $ARK #crypto #cryptocurrency #eth #bitcoin,0,0,0,False
241,cryptinsight@cryptinsight,Mining Profitability Comparison Between Zcash (ZEC) and #ethereum (ETH) #ZCash #cpumining #gpumining #mining #ZECMining Profitability Comparison Between Zcash (ZEC) and Ethereum (ETH) - 1st Mining Rig  shares 2.7Kviews Share via Facebook Like Twitter Pinterest LinkedIn Digg Del Tumblr VKontakte Print Email Flattr Reddit Buffer Love This Weibo Pocket Xing Odnoklassniki WhatsApp Meneame Blogger...1stminingrig.com,1,1,0,False
242,Blockgeeks@Blockgks,Smart Contracts: The #Blockchain Technology That Will Replace Lawyers http://dld.bz/eYNat #ethereum,1,0,0,False
243,Clemens Frowein@CFrowein,Microsoft’s Use of Ethereum Adoption http://paper.li/CFrowein/1471539402?read=https%3A%2F%2Fwww.crypto%2Dnews.net%2Fmicrosofts%2Duse%2Dof%2Dethereum%2Dhighlights%2Dadoption%2Dof%2Dblockchain%2Das%2Da%2Dservice%2F… #ethereum,0,0,0,False
244,Coinstats@coinstats,"Ethereum Classic - ETC
Price: $0.927063
Change in 1h: +-0.24%
Market cap: $79539067.0
Ranking: 6
#Ethereum Classic #ETC",0,0,0,False
245,MeeseeksBTC@Meeseeks100BTC,"RT Start mining $ETH or $BTC together with people from all over the world.

https://goo.gl/tYClLG",0,0,0,False
246,Bobe'bot@Bobe_bot,"1 #BTC = 711.9816 #CHF
1 #ETH = 10.2972 #CHF
1 #DOGE = 0.000215895644 #CHF
sources: @cryptonatorcom @hellobity",0,0,0,False
247,Coinstats@coinstats,"Ethereum - ETH
Price: $10.0019
Change in 1h: +-0.45%
Market cap: $859060892.0
Ranking: 2
#Ethereum #ETH",0,0,0,False
248,Ameer Rosic@AmeerRosic,How Will #Blockchain Change Banking? How Won't It? http://snip.ly/a2ci1 #Ethereum #Bitcoin,0,0,0,False
249,Colombina@Colombina_2,Having issues withdrawaling Lisk from Poloniex? http://bit.ly/2eG3W4v #btc #lisk #ARK $ARK #crypto #cryptocurrency #eth #bitcoin,0,0,0,False
250,Veki@Veki551155,#blockchain for CPU? Analyzing Golems #ethereum Token Sale https://getpocket.com/@Airwiwin/share/1407034…,0,0,0,False
251,Veki@Veki551155,ZCash ZEC Cloud Mining #ethereum #CloudMining #Mining #ZCash #miningrig #cloudmining #offer …,0,0,0,False
252,Faith Emmanuel@residualbitcoin,#blockchain for CPU? Analyzing Golems #ethereum Token Sale https://getpocket.com/@Airwiwin/share/1407034…  #ResidualBitcoin,0,0,0,False
253,Ethereum SE@StackEthereum,How to install and test Viper programming language? http://ethereum.stackexchange.com/questions/9990/how-to-install-and-test-viper-programming-language… #ethereum #contractdevelopment #installation #sha3 #keccak,0,0,0,False
254,5thAngel@LionTellSecrets,"still keeping my eye on #ICONOMI #ICNX , good tim ! #btc #bitcoin #trading #altcoin #cryptocurrency #lsk #eth #xmr #etc @iconominet",7,6,0,False
255,Faith Emmanuel@residualbitcoin,ZCash ZEC Cloud Mining #ethereum #CloudMining #Mining #ZCash #miningrig #cloudmining #offer http://1stminingrig.com/zcash-zec-cloud-mining… …ZCash (ZEC) Cloud Mining - 1st Mining Rig  shares 2.3Kviews Share via Facebook Like Twitter Pinterest LinkedIn Digg Del Tumblr VKontakte Print Email Flattr Reddit Buffer Love This Weibo Pocket Xing Odnoklassniki WhatsApp Meneame Blogger...1stminingrig.com,0,0,0,False
256,BitcoinAgile@bitcoinagile,ZCash ZEC Cloud Mining #ethereum #CloudMining #Mining #ZCash #miningrig #cloudmining #offer http://1stminingrig.com/zcash-zec-cloud-mining…,1,0,0,False
257,ONL@onlonlonl,ZCash (ZEC) Cloud Mining http://dlvr.it/MfH2ll #CloudMining #Mining #ZCash #cloudmining #ethereum #miningrig,0,0,0,False
258,Kristina Petrovskaya@Krista_VPX,Having issues withdrawaling Lisk from Poloniex? http://bit.ly/2eG3W4v #btc #lisk #ARK $ARK #crypto #cryptocurrency #eth #bitcoin,0,0,0,False
259,Inessa Mariyushkina@Mariyushkina_I,Having issues withdrawaling Lisk from Poloniex? http://bit.ly/2eG3W4v #btc #lisk #ARK $ARK #crypto #cryptocurrency #eth #bitcoin,1,1,0,False
260,Ethereum UAE@Ethereum_UAE,Markets Monthly: Bitcoin Tests 2016 Highs as Investors Seek Privacy http://ift.tt/2ftXi2D #Ethereum,1,0,0,False
261,Ethereum SE@StackEthereum,"When will the difficulty bomb make mining impossible? http://ethereum.stackexchange.com/questions/3779/when-will-the-difficulty-bomb-make-mining-impossible… #ethereum #mining #serenity #hashalgorithm #difficultyWhen will the difficulty bomb make mining impossible?I know the answer must be out there in the code already, but I couldn't figure out where exactly. Could someone do the maths for me: With block 200k the difficulty bomb started increasing the diffi...ethereum.stackexchange.com",0,0,0,False
262,Veki@Veki551155,Markets Monthly: #bitcoin Tests 2016 Highs as Investors Seek Privacy - CoinDesk #Ethereum http://coindesk.com/blockchain-investing-monero-zcash-october-bitcoin-markets…,0,0,0,False
263,Olesya@N_Pashunina,Having issues withdrawaling Lisk from Poloniex? http://bit.ly/2eG3W4v #btc #lisk #ARK $ARK #crypto #cryptocurrency #eth #bitcoin,0,0,0,False
264,Faith Emmanuel@residualbitcoin,Markets Monthly: #bitcoin Tests 2016 Highs as Investors Seek Privacy - CoinDesk #Ethereum http://coindesk.com/blockchain-investing-monero-zcash-october-bitcoin-markets… …,0,0,0,False
265,BitcoinAgile@bitcoinagile,Markets Monthly: #bitcoin Tests 2016 Highs as Investors Seek Privacy - CoinDesk #Ethereum http://coindesk.com/blockchain-investing-monero-zcash-october-bitcoin-markets…,1,0,0,False
267,Ameer Rosic@AmeerRosic,25 GENIUSES WHO ARE CREATING THE FUTURE OF BUSINESS http://snip.ly/avrq9 #Blockchain #Ethereum,1,0,0,False
269,Ryan Zurrer@rzurrer,Replying to @ArthurFalls and @mwilcoxlets debate on @etherreview re: 'exuberance' in crypto #crowdfunding & ideas for #ethereum fundraising models.,0,0,0,False
270,Ahmad Rifai@rifffaai,Having issues withdrawaling Lisk from Poloniex? http://bit.ly/2eG3W4v #btc #lisk #ARK $ARK #crypto #cryptocurrency #eth #bitcoin,0,0,0,False
271,Brave New Coin@bravenewcoin,#Ethereum Price: USD $10.09 $ETH http://ow.ly/6UKf3048WBe,1,0,0,False
272,CryptoCompare@CryptoCompare,RELEASE THE KRAKEN! #Ethereum #Trading made easier. http://ow.ly/ebQK304Yfqd,1,2,0,False
273,Coinstats@coinstats,"Ethereum Classic - ETC
Price: $0.929621
Change in 1h: +0.46%
Market cap: $79757250.0
Ranking: 6
#Ethereum Classic #ETC",0,0,0,False
274,Bitcoins Kenya@bitcoinskenya,How does #blockchain work?... http://buff.ly/2eRdVqO #bitcoin #ethereum #startup,0,0,0,False
275,Coinstats@coinstats,"Ethereum - ETH
Price: $10.0396
Change in 1h: +-0.91%
Market cap: $862284622.0
Ranking: 2
#Ethereum #ETH",0,0,0,False
276,AltCoinEx@AltCoinEx,Having issues withdrawaling Lisk from Poloniex? http://bit.ly/2eG3W4v #btc #lisk #ARK $ARK #crypto #cryptocurrency #eth #bitcoin,0,0,0,False
277,K0IN@FAUCETdotCF,A Chance to Win 2500 ARK just by Tweeting our Project! Enter NOW! http://bit.ly/2fqap7W #btc #lisk #ARK $ARK #crypto #eth #bitcoin,0,0,0,False
278,K0IN@FAUCETdotCF,Having issues withdrawaling Lisk from Poloniex? http://bit.ly/2eG3W4v #btc #lisk #ARK $ARK #crypto #cryptocurrency #eth #bitcoin,0,0,0,False
279,Kondiomir@acimirov,Having issues withdrawaling Lisk from Poloniex? http://bit.ly/2eG3W4v #btc #lisk #ARK $ARK #crypto #cryptocurrency #eth #bitcoin,1,0,0,False
280,Hadji Amine@amintek15,Having issues withdrawaling Lisk from Poloniex? http://bit.ly/2eG3W4v #btc #lisk #ARK $ARK #crypto #cryptocurrency #eth #bitcoin,0,0,0,False
282,Daniel Grudzinski@caex72,Having issues withdrawaling Lisk from Poloniex? http://bit.ly/2eG3W4v #btc #lisk #ARK $ARK #crypto #cryptocurrency #eth #bitcoin,0,0,0,False
283,Oleg Fomin@oleg_invest1,Having issues withdrawaling Lisk from Poloniex? http://bit.ly/2eG3W4v #btc #lisk #ARK $ARK #crypto #cryptocurrency #eth #bitcoin,0,0,0,False
284,Faith Emmanuel@residualbitcoin,Most noticeable blockchains [#ethereum] #bitcoin #blockchain #medium https://medium.com/@bobkilla/most-noticeable-blockchains-ethereum-f2d160e5c4f8… #ResidualBitcoin,0,0,0,False
285,Barakamon@MrPhaijoe,Having issues withdrawaling Lisk from Poloniex? http://bit.ly/2eG3W4v #btc #lisk #ARK $ARK #crypto #cryptocurrency #eth #bitcoin,0,0,0,False
286,Veki@Veki551155,Most noticeable blockchains [#ethereum] #bitcoin #blockchain #medium https://medium.com/@bobkilla/most-noticeable-blockchains-ethereum-f2d160e5c4f8…,0,0,0,False
287,BitcoinAgile@bitcoinagile,Most noticeable blockchains [#ethereum] #bitcoin #blockchain #medium https://medium.com/@bobkilla/most-noticeable-blockchains-ethereum-f2d160e5c4f8…,0,0,0,False
289,CryptoNewswire @CryptoNewswire,Ethereum Blockchain Apps Might Ensure Freelancers Get Paid - https://cryptocoinsnews.com/blockchains-might-ensure-freelancers-get-paid/… $ETH #blockchain #cryptocurrency #finance,0,0,0,False
290,blockchainmedia@Ethereumlab,Could #Blockchain Technology Bankrupt Spotify? A Music Revolution http://buff.ly/2cWIfNM #ethereum #bitcoin,0,0,0,False
291,Pravin Bhudiya@pravin_bhudiya,"Inaugural FirstBlood Social Tournament!
https://goo.gl/zNSyjY
@firstbloodio #cryptocurrency #gaming #altcoin #ETHEREUM #eSports #F1STBLOOD",4,5,0,False
294,cryptinsight@cryptinsight,Here's simple chart for GPU mining temperatures — #ethereum Community Forum http://bitcoinagile.com/948AAA/heres-simple-chart-for-gpu-mining-temperatures-ethereum-community-forum_stream…,1,0,0,False
296,Alberto Jauregui | esoteRICK.eth @DisruptBanksy,http://ift.tt/2fL2ajh Ethereum Blockchain Apps Might Ensure Freelancers Get Paid - CryptoCoinsNews #ethereum #ether,0,0,0,False
297,Coinstats@coinstats,"Ethereum Classic - ETC
Price: $0.925291
Change in 1h: +0.02%
Market cap: $79384453.0
Ranking: 6
#Ethereum Classic #ETC",0,0,0,False
298,Coinstats@coinstats,"Ethereum - ETH
Price: $10.1387
Change in 1h: +-0.41%
Market cap: $870783749.0
Ranking: 2
#Ethereum #ETH",0,0,0,False
299,Ethereum Price@EthereumPrice_,"#Ethereum: Ether Price Index
1 ETH =0.014431Ƀ XBT = $10.141570 USD
Today: +0.16%⬆︎ Last 24h: -0.93%⬇︎
https://ethereum-price.com",1,0,0,False
300,Ethereum SE@StackEthereum,Is it possible to link contracts to existing libraries from within geth console? http://ethereum.stackexchange.com/questions/9987/is-it-possible-to-link-contracts-to-existing-libraries-from-within-geth-console… #ethereum #goethereum,0,0,0,False
301,kampret kabur@kampretkabur,Having issues withdrawaling Lisk from Poloniex? http://bit.ly/2eG3W4v #btc #lisk #ARK $ARK #crypto #cryptocurrency #eth #bitcoin,0,0,0,False
303,Gaetano Manfredi@gamanfredi,"Mining CryptoCurrencies easily,quickly https://minergate.com/a/08e542bbb864efae96c5f8a5… and with no hassle you don't need to be an expert #bitcoin #ethereum",0,0,0,False
304,Veki@Veki551155,#ethereum #blockchain Apps Might Ensure Freelancers Get Paid - CryptoCoinsNews #Colony https://cryptocoinsnews.com/blockchains-might-ensure-freelancers-get-paid…,2,0,0,False
305,Faith Emmanuel@residualbitcoin,#ethereum #blockchain Apps Might Ensure Freelancers Get Paid - CryptoCoinsNews #Colony https://cryptocoinsnews.com/blockchains-might-ensure-freelancers-get-paid…  #R…,0,0,0,False
306,BitcoinAgile@bitcoinagile,#ethereum #blockchain Apps Might Ensure Freelancers Get Paid - CryptoCoinsNews #Colony https://cryptocoinsnews.com/blockchains-might-ensure-freelancers-get-paid…,1,0,0,False
307,Ethereum SE@StackEthereum,GasLimit check failed for header -1 when mining in private chain http://ethereum.stackexchange.com/questions/9986/gaslimit-check-failed-for-header-1-when-mining-in-private-chain… #ethereum #goethereum #privateblockchain,0,0,0,False
308,Kolar Kolarov@karnalovo,Having issues withdrawaling Lisk from Poloniex? http://bit.ly/2eG3W4v #btc #lisk #ARK $ARK #crypto #cryptocurrency #eth #bitcoin,0,0,0,False
309,blockchainmedia@Ethereumlab,"Is #Ethereum similar to #Bitcoin? Well, sort of, but not really. http://dld.bz/fcBTc #blockchain",1,0,0,False
310,Blockchain times@crypto_days,Having issues withdrawaling Lisk from Poloniex? http://bit.ly/2eG3W4v #btc #lisk #ARK $ARK #crypto #cryptocurrency #eth #bitcoin,0,0,0,False
311,BlockChannel@BlockChannel,BlockChannel: #Ethereum within the #Insurance Industry http://ow.ly/RE9X30666Gh,1,0,0,False
313,Crypto_FreeMan@Crypto_FreeMan,A Chance to Win 2500 ARK just by Tweeting our Project! Enter NOW! http://bit.ly/2fqap7W #btc #lisk #ARK $ARK #crypto #eth #bitcoin,0,0,0,False
314,Crypto_FreeMan@Crypto_FreeMan,Having issues withdrawaling Lisk from Poloniex? http://bit.ly/2eG3W4v #btc #lisk #ARK $ARK #crypto #cryptocurrency #eth #bitcoin,0,0,0,False
317,blockchainmedia@Ethereumlab,What are your favorite digital wallets to use and why? http://dld.bz/fevtV #blockchain #bitcoin #ethereum,1,0,0,False
319,Blockgeeks@Blockgks,Would you like early access to BlockGeeks #Blockchain Community? Sign up here http://blockgeeks.com #ethereum,1,0,0,False
320,wanda@wandahamz,Having issues withdrawaling Lisk from Poloniex? http://bit.ly/2eG3W4v #btc #lisk #ARK $ARK #crypto #cryptocurrency #eth #bitcoin,0,0,0,False
321,Coinstats@coinstats,"Ethereum Classic - ETC
Price: $0.926587
Change in 1h: +-0.24%
Market cap: $79493901.0
Ranking: 6
#Ethereum Classic #ETC",0,0,0,False
322,Coinstats@coinstats,"Ethereum - ETH
Price: $10.1904
Change in 1h: +-0.15%
Market cap: $875210259.0
Ranking: 2
#Ethereum #ETH",0,0,0,False
323,BitcoinBuzz vega9@BitcoinBuzzV9,http://bitcoinbuzz.vega9.com - Hot topics: #bitcoin #blockchain #crypto #btc #cryptocurrency #eth,1,0,0,False
325,Trial@Trial1551,Having issues withdrawaling Lisk from Poloniex? http://bit.ly/2eG3W4v #btc #lisk #ARK $ARK #crypto #cryptocurrency #eth #bitcoin,0,0,0,False
328,nasi goceng@nasigocengud,Having issues withdrawaling Lisk from Poloniex? http://bit.ly/2eG3W4v #btc #lisk #ARK $ARK #crypto #cryptocurrency #eth #bitcoin,0,0,0,False
329,Sly@S1y,"@VitalikButerin @leashless APPII using #Ethereum to verify candidates CVs and catalogue CPD #blockchain #CPD #intelligentprofile #DLTQuote TweetAPPII@appii_io · Nov 12, 2016@jamescaan @appii_io is using #blockchain to #verify candidates and support CPD. Have a look, what do you think? - https://youtu.be/NhV1cVAn7Jk",1,0,0,False
331,Stephan Tual@stephantual,"This must-read by Richard Stallman could be retitled ""Why Uber needs to be decentralized"": https://stallman.org/uber.html #ethereum #web3 #enigma",14,8,0,False
332,Faith Emmanuel@residualbitcoin,What is #ethereum? A Step-by-Step Beginners Guide [Ultimate Guide] #blockchain http://blockgeeks.stfi.re/guides/what-is-ethereum-a-step-by-step-beginners-guide/?ref=quuu&sf=zpejvay&.com…  #ResidualB…,1,0,0,False
334,Veki@Veki551155,What is #ethereum? A Step-by-Step Beginners Guide [Ultimate Guide] #blockchain http://blockgeeks.stfi.re/guides/what-is-ethereum-a-step-by-step-beginners-guide/?ref=quuu&sf=zpejvay&.com…,1,0,0,False
336,Cloud Mining Monitor@cmmonitorcom,#Ether #Ethereum #Cloudmining': 12.11.2016 Payment received. 6 MHs - 0.28559760 ETH. From HashFlareHashFlare (Ethereum Mining)cmmonitor.com,0,0,0,False
337,BitcoinAgile@bitcoinagile,What is #ethereum? A Step-by-Step Beginners Guide [Ultimate Guide] #blockchain http://blockgeeks.stfi.re/guides/what-is-ethereum-a-step-by-step-beginners-guide/?ref=quuu&sf=zpejvay&.com…,2,2,0,False
339,blockchainmedia@Ethereumlab,"Top AMA's with the leaders in #Blockchain, #Bitcoin and #Ethereum http://blockgeeks.com/ama/",0,0,0,False
340,Francesco Villa@cekospiu,Donate to our project! Add funds and receive $$$ in exchange from profits lifetime! @gagpubblicita #ethereum #miner https://indiegogo.com/projects/build-ethereum-mining-farm/x/14702367#/…,0,0,0,False
341,Budi Kurni Bayu@budibayu017,Having issues withdrawaling Lisk from Poloniex? http://bit.ly/2eG3W4v #btc #lisk #ARK $ARK #crypto #cryptocurrency #eth #bitcoin,0,0,0,False
344,Ethereum SE@StackEthereum,How can I create complex array relationships in solidity? http://ethereum.stackexchange.com/questions/2417/how-can-i-create-complex-array-relationships-in-solidity… #ethereum #solidity #contractdevelopment #arrays,0,0,0,False
345,Ethereum SE@StackEthereum,What is the cheapest hash function available in solidity? http://ethereum.stackexchange.com/questions/3184/what-is-the-cheapest-hash-function-available-in-solidity… #ethereum #solidity #gas #sha3 #hashalgorithm #keccak,0,0,0,False
346,Ethereum SE@StackEthereum,How to prevent being blacklisted for running an ethereum client? http://ethereum.stackexchange.com/questions/6386/how-to-prevent-being-blacklisted-for-running-an-ethereum-client… #ethereum #network #parity #connections #peers,0,0,0,False
347,Ethereum SE@StackEthereum,"Function takes input of 400 accounts, should output 400, outputs only 399. Why? http://ethereum.stackexchange.com/questions/9197/function-takes-input-of-400-accounts-should-output-400-outputs-only-399-why… #ethereum #contractdevelopment",0,0,0,False
348,Ethereum SE@StackEthereum,Is it possible to get an address of a struct in the Library or Contract without using mapping? http://ethereum.stackexchange.com/questions/9488/is-it-possible-to-get-an-address-of-a-struct-in-the-library-or-contract-without… #ethereum #goethereum,0,0,0,False
349,Ethereum SE@StackEthereum,"Does ""delete"" on mapping really frees the memory space? http://ethereum.stackexchange.com/questions/9601/does-delete-on-mapping-really-frees-the-memory-space… #ethereum #goethereum #solidity #arrays #mapping #memory",0,0,0,False
350,Ethereum SE@StackEthereum,Printing into console: Events TypeError - 'watch' is not a function http://ethereum.stackexchange.com/questions/9914/printing-into-console-events-typeerror-watch-is-not-a-function… #ethereum #goethereum #events #console,0,0,0,False
351,Ethereum SE@StackEthereum,Why is Geth trying to connect to private network IP addresses (RFC1918) http://ethereum.stackexchange.com/questions/9922/why-is-geth-trying-to-connect-to-private-network-ip-addresses-rfc1918… #ethereum #goethereum #discoveryprotocol,0,0,0,False
352,Ethereum SE@StackEthereum,"Eris : error compiling contracts http://ethereum.stackexchange.com/questions/9936/eris-error-compiling-contracts… #ethereum #privateblockchain #contractdeployment #erisindustries #dockerEris : error compiling contractsi try to deploy a contact using Eris Platform, i followed the tutorial in the documentation of Eris ( https://monax.io/docs/tutorials/getting-started/index.html?redirect_from_eris=true#fnref:1 ) butethereum.stackexchange.com",0,0,0,False
353,Ethereum SE@StackEthereum,unable to connect Ethereum node even RPC port: 8545 is open http://ethereum.stackexchange.com/questions/9938/unable-to-connect-ethereum-node-even-rpc-port-8545-is-open… #ethereum #goethereum #web3js #jsonrpc #nodes #nodejs,1,1,0,False
354,Ethereum SE@StackEthereum,"How many bootnodes are hardcoded into Ethereum clients? http://ethereum.stackexchange.com/questions/9947/how-many-bootnodes-are-hardcoded-into-ethereum-clients… #ethereum #bootnodes #nodediscoveryHow many bootnodes are hardcoded into Ethereum clients?Bootnodes are supposed to act as entry points for new nodes into the Ethereum network. How many such bootnodes are hard-coded into Ethereum clients? Also, Who maintains these bootnodes and what ha...ethereum.stackexchange.com",0,0,0,False
355,Ethereum SE@StackEthereum,Parity client from command line http://ethereum.stackexchange.com/questions/9950/parity-client-from-command-line… #ethereum #web3js #parity,0,0,0,False
356,Ethereum SE@StackEthereum,"parity in --geth mode brings ""unknown api"" error http://ethereum.stackexchange.com/questions/9951/parity-in-geth-mode-brings-unknown-api-error… #ethereum #mist #wallets #parity",0,0,0,False
357,Ethereum SE@StackEthereum,How to solve this solidity compiler error? [on hold] http://ethereum.stackexchange.com/questions/9952/how-to-solve-this-solidity-compiler-error… #ethereum #solidity #browsersolidity,0,0,0,False
358,Ethereum SE@StackEthereum,ConsenSys/eth-lightwallet - How does it work? http://ethereum.stackexchange.com/questions/9953/consensys-eth-lightwallet-how-does-it-work… #ethereum #dapps #ethlightwallet,0,0,0,False
359,Ethereum SE@StackEthereum,How to retrieve current date and time in solidity? http://ethereum.stackexchange.com/questions/9955/how-to-retrieve-current-date-and-time-in-solidity… #ethereum #solidity #browsersolidity,0,0,0,False
360,Ethereum SE@StackEthereum,Smart Contract data on Blockchain & retrieve smart contract data from blockchain http://ethereum.stackexchange.com/questions/9957/smart-contract-data-on-blockchain-retrieve-smart-contract-data-from-blockchain… #ethereum #solidity #security,0,0,0,False
361,indxio@indxio,#Russia Market Close || #Bitcoin: $706.35 | 656.84 EUR||  #Litecoin: 0.0027 BTC  || #Ethereum: 0.0143 BTC   || $BTC $LTC $ETH $RUB,1,0,0,False
362,Ethereum SE@StackEthereum,Where can I find the DHT in my system? http://ethereum.stackexchange.com/questions/9959/where-can-i-find-the-dht-in-my-system… #ethereum #nodediscovery #peers,0,0,0,False
363,Ethereum SE@StackEthereum,How to deploy a contract with inputs by using JSON-RPC? http://ethereum.stackexchange.com/questions/9962/how-to-deploy-a-contract-with-inputs-by-using-json-rpc… #ethereum #jsonrpc,0,0,0,False
364,Ethereum SE@StackEthereum,DEVgrants program still alive? http://ethereum.stackexchange.com/questions/9963/devgrants-program-still-alive… #ethereum #ether #dappdevelopment #ethereumwalletdapp,0,0,0,False
365,Ethereum SE@StackEthereum,How to generate a unique identifier in Solidity? http://ethereum.stackexchange.com/questions/9965/how-to-generate-a-unique-identifier-in-solidity… #ethereum #solidity #contractdevelopment #dappdevelopment,0,0,0,False
374,Ethereum SE@StackEthereum,How can ERC20 token implementations be verified? http://ethereum.stackexchange.com/questions/9974/how-can-erc20-token-implementations-be-verified… #ethereum #contractdevelopment #contractdesign #wallets #tokens,0,0,0,False
375,Ethereum SE@StackEthereum,"If two keystore files have the same password, can it be figured out? http://ethereum.stackexchange.com/questions/9975/if-two-keystore-files-have-the-same-password-can-it-be-figured-out… #ethereum #encryption",0,0,0,False
376,Ethereum SE@StackEthereum,What features are planned for Ethereum 2 and 3? http://ethereum.stackexchange.com/questions/9976/what-features-are-planned-for-ethereum-2-and-3… #ethereum #roadmap,0,0,0,False
377,Ethereum SE@StackEthereum,"Ethereum wallet shows ""no accounts yet"" and 0.00 balance http://ethereum.stackexchange.com/questions/9977/ethereum-wallet-shows-no-accounts-yet-and-0-00-balance… #ethereum #accounts",0,0,0,False
378,Ethereum SE@StackEthereum,Please Help! ReplaySafeSplit contract not working after sending too much ETH http://ethereum.stackexchange.com/questions/9981/please-help-replaysafesplit-contract-not-working-after-sending-too-much-eth… #ethereum #wallets #contractdeployment,1,0,0,False
379,Ethereum SE@StackEthereum,ERC-20 tokens and freezing accounts http://ethereum.stackexchange.com/questions/9983/erc-20-tokens-and-freezing-accounts… #ethereum #solidity #contractdevelopment #erc20,0,0,0,False
380,Moonny Dog@moonny_dog,Having issues withdrawaling Lisk from Poloniex? http://bit.ly/2eG3W4v #btc #lisk #ARK $ARK #crypto #cryptocurrency #eth #bitcoin,0,0,0,False
382,Cloud Mining Monitor@cmmonitorcom,#Ethereum #Cloudmining': 12.11.2016 Payment received. 6 MHs - 0.07753856 ETH. From Genesis Mining.Genesis Mining (Ethereum Mining)cmmonitor.com,1,0,0,False
383,Menno Pietersen @MennoPP,$waves just broke ATH more to come! 0.000556 #btc now $eth $btc,0,0,0,False
384,blockchainmedia@Ethereumlab,"Besides #Ethereum, which blockchains do you think are currently leading the pack http://dld.bz/fcNRx",3,1,0,False
385,Blockgeeks@Blockgks,"Join today! Blockgeeks is a #Blockchain innovation hub 
& marketplace http://blockgeeks.com #Bitcoin #Ethereum",1,0,0,False
386,Coinstats@coinstats,"Ethereum Classic - ETC
Price: $0.929831
Change in 1h: +-0.31%
Market cap: $79770848.0
Ranking: 6
#Ethereum Classic #ETC",0,0,0,False
387,Coinstats@coinstats,"Ethereum - ETH
Price: $10.2177
Change in 1h: +-0.8%
Market cap: $877537809.0
Ranking: 2
#Ethereum #ETH",0,0,0,False
388,SOFIA TEN@SOFIATEN0406,Having issues withdrawaling Lisk from Poloniex? http://bit.ly/2eG3W4v #btc #lisk #ARK $ARK #crypto #cryptocurrency #eth #bitcoin,0,0,0,False
389,KASKOVIAY@KASKOVIAY415,Having issues withdrawaling Lisk from Poloniex? http://bit.ly/2eG3W4v #btc #lisk #ARK $ARK #crypto #cryptocurrency #eth #bitcoin,0,0,0,False
390,ANGELL@ANGELL79226514,Having issues withdrawaling Lisk from Poloniex? http://bit.ly/2eG3W4v #btc #lisk #ARK $ARK #crypto #cryptocurrency #eth #bitcoin,0,0,0,False
396,AtomION@_Atom_ION,Having issues withdrawaling Lisk from Poloniex? http://bit.ly/2eG3W4v #btc #lisk #ARK $ARK #crypto #cryptocurrency #eth #bitcoin,3,0,0,False
398,Sinta Holix@HolixSinta,Having issues withdrawaling Lisk from Poloniex? http://bit.ly/2eG3W4v #btc #lisk #ARK $ARK #crypto #cryptocurrency #eth #bitcoin,0,0,0,False
399,john gerald@johngeraldas,Having issues withdrawaling Lisk from Poloniex? http://bit.ly/2eG3W4v #btc #lisk #ARK $ARK #crypto #cryptocurrency #eth #bitcoin,0,0,0,False
400,Crypto Lady@Lady_of_Crypto,Having issues withdrawaling Lisk from Poloniex? http://bit.ly/2eG3W4v #btc #lisk #ARK $ARK #crypto #cryptocurrency #eth #bitcoin,0,0,0,False
402,Dr Cryptos@DrCryptos,Having issues withdrawaling Lisk from Poloniex? http://bit.ly/2eG3W4v #btc #lisk #ARK $ARK #crypto #cryptocurrency #eth #bitcoin,0,0,0,False
403,nxtZen@NTeR006,Having issues withdrawaling Lisk from Poloniex? http://bit.ly/2eG3W4v #btc #lisk #ARK $ARK #crypto #cryptocurrency #eth #bitcoin,0,0,0,False
404,len@xtreme_prot,Having issues withdrawaling Lisk from Poloniex? http://bit.ly/2eG3W4v #btc #lisk #ARK $ARK #crypto #cryptocurrency #eth #bitcoin,0,0,0,False
405,George Ivanov@jimiendany,Having issues withdrawaling Lisk from Poloniex? http://bit.ly/2eG3W4v #btc #lisk #ARK $ARK #crypto #cryptocurrency #eth #bitcoin,0,0,0,False
406,GRAND EX@grand_ex,Having issues withdrawaling Lisk from Poloniex? http://bit.ly/2eG3W4v #btc #lisk #ARK $ARK #crypto #cryptocurrency #eth #bitcoin,0,0,0,False
407,Artem Setlichni@ArtemSetlichni,Having issues withdrawaling Lisk from Poloniex? http://bit.ly/2eG3W4v #btc #lisk #ARK $ARK #crypto #cryptocurrency #eth #bitcoin,0,0,0,False
410,Só Ofertas@promocaoeoferta,Having issues withdrawaling Lisk from Poloniex? http://bit.ly/2eG3W4v #btc #lisk #ARK $ARK #crypto #cryptocurrency #eth #bitcoin,0,0,0,False
411,Brave New Coin@bravenewcoin,#Ethereum Price: USD $10.36 $ETH http://ow.ly/6UKf3048WBe,1,0,0,False
412,follow me - i follow you - easy!@TeSigoDemais,Having issues withdrawaling Lisk from Poloniex? http://bit.ly/2eG3W4v #btc #lisk #ARK $ARK #crypto #cryptocurrency #eth #bitcoin,0,0,0,False
413,Blockgeeks@Blockgks,What is #Blockchain Technology? Guide For Beginners http://dld.bz/eW5DU #ethereum,3,0,0,False
414,Coinstats@coinstats,"Ethereum Classic - ETC
Price: $0.932481
Change in 1h: +-0.11%
Market cap: $79997173.0
Ranking: 6
#Ethereum Classic #ETC",0,0,0,False
415,Coinstats@coinstats,"Ethereum - ETH
Price: $10.2985
Change in 1h: +-0.01%
Market cap: $884467009.0
Ranking: 2
#Ethereum #ETH",0,0,0,False
416,Ethereum Price@EthereumPrice_,"#Ethereum: Ether Price Index
1 ETH =0.014480Ƀ XBT = $10.318720 USD
Today: +0.51%⬆︎ Last 24h: +0.87%⬆︎
https://ethereum-price.com",0,0,0,False
423,Khabib@ViperKhabib05,Having issues withdrawaling Lisk from Poloniex? http://bit.ly/2eG3W4v #btc #lisk #ARK $ARK #crypto #cryptocurrency #eth #bitcoin,0,0,0,False
424,Dima Zverev@Dima_zverev85,Having issues withdrawaling Lisk from Poloniex? http://bit.ly/2eG3W4v #btc #lisk #ARK $ARK #crypto #cryptocurrency #eth #bitcoin,0,0,0,False
425,Anzor Zaurbekov@Anzorro_95,Having issues withdrawaling Lisk from Poloniex? http://bit.ly/2eG3W4v #btc #lisk #ARK $ARK #crypto #cryptocurrency #eth #bitcoin,0,0,0,False
426,ULTRLOA crypto@UltrloaCrypto,Vdice ICO is a great Project to invest with come and stake on!  http://crowdsale.vdice.io/#vDice #crowdsale #ico #ethereum #ether #BitcoinUnlimited,0,0,0,False
427,weezenhofnar@weezenhofnar,Having issues withdrawaling Lisk from Poloniex? http://bit.ly/2eG3W4v #btc #lisk #ARK $ARK #crypto #cryptocurrency #eth #bitcoin,0,0,0,False
429,blockchainmedia@Ethereumlab,Can This 22-year-old Coder Out-Bitcoin #Bitcoin? http://dld.bz/eWMa7 #ethereum,0,0,0,False
430,wisnu@wisnu91141731,Having issues withdrawaling Lisk from Poloniex? http://bit.ly/2eG3W4v #btc #lisk #ARK $ARK #crypto #cryptocurrency #eth #bitcoin,0,0,0,False
431,Fintech news@currencies111,Having issues withdrawaling Lisk from Poloniex? http://bit.ly/2eG3W4v #btc #lisk #ARK $ARK #crypto #cryptocurrency #eth #bitcoin,0,0,0,False
432,MedosAdvert@medosadvert,Hi @neleonele get  biggest #business of 2016 http://medosadvert.com/go/coinomia/ #Mining #BitCoins #Ethereum via https://Statusbrew.com/?r=wl,1,0,0,False
433,MedosAdvert@medosadvert,Hi @LegierOllie get  biggest #business of 2016 http://medosadvert.com/go/coinomia/ #Mining #BitCoins #Ethereum via https://Statusbrew.com/?r=wl,0,0,0,False
434,CRΞATIVΞLIFΞ₿@CREATIVE818,Having issues withdrawaling Lisk from Poloniex? http://bit.ly/2eG3W4v #btc #lisk #ARK $ARK #crypto #cryptocurrency #eth #bitcoin,0,0,0,False
435,Nira_Crypto@Nira_crypto,Having issues withdrawaling Lisk from Poloniex? http://bit.ly/2eG3W4v #btc #lisk #ARK $ARK #crypto #cryptocurrency #eth #bitcoin,0,0,0,False
436,alex costa@bocs12345,Having issues withdrawaling Lisk from Poloniex? http://bit.ly/2eG3W4v #btc #lisk #ARK $ARK #crypto #cryptocurrency #eth #bitcoin,0,0,0,False
437,Bitcoin Updater@BitcoinUpdater,Ethereum Classic Price Technical Analysis – ETC Crashing #ethereum http://soco.space/qdvYeE,1,0,0,False
438,blockchainmedia@Ethereumlab,Check it out! Beginners guide to #Blockchain http://buff.ly/2dvhaDX #bitcoin #ethereum #startup,0,0,0,False
439,Coinstats@coinstats,"Ethereum Classic - ETC
Price: $0.930278
Change in 1h: +0.49%
Market cap: $79806572.0
Ranking: 6
#Ethereum Classic #ETC",0,0,0,False
443,Bobe'bot@Bobe_bot,"1 #BTC = 713.3513 #CHF
1 #ETH = 10.657 #CHF
1 #DOGE = 0.000216389316 #CHF
sources: @cryptonatorcom @hellobity",0,0,0,False
444,Coinstats@coinstats,"Ethereum - ETH
Price: $10.3059
Change in 1h: +0.21%
Market cap: $885088723.0
Ranking: 2
#Ethereum #ETH",0,0,0,False
445,Bitonator ∀@TimoBitonator,Having issues withdrawaling Lisk from Poloniex? http://bit.ly/2eG3W4v #btc #lisk #ARK $ARK #crypto #cryptocurrency #eth #bitcoin,0,0,0,False
447,ahok ahong kumala@AhokKumala,Having issues withdrawaling Lisk from Poloniex? http://bit.ly/2eG3W4v #btc #lisk #ARK $ARK #crypto #cryptocurrency #eth #bitcoin,0,0,0,False
448,Bitonator ∀@TimoBitonator,"vDice > The Crowdsale will start on Nov. 15 - Dec. 15 Dec.. 
http://crowdsale.vdice.io
#vDice #crowdsale #ico #ethereum #ether #bitcoin",0,0,0,False
449,Vin@coolup7738,Having issues withdrawaling Lisk from Poloniex? http://bit.ly/2eG3W4v #btc #lisk #ARK $ARK #crypto #cryptocurrency #eth #bitcoin,0,0,0,False
450,s0nix@s0nix0,Having issues withdrawaling Lisk from Poloniex? http://bit.ly/2eG3W4v #btc #lisk #ARK $ARK #crypto #cryptocurrency #eth #bitcoin,0,0,0,False
451,Silvio Dante@crypto_rush,Having issues withdrawaling Lisk from Poloniex? http://bit.ly/2eG3W4v #btc #lisk #ARK $ARK #crypto #cryptocurrency #eth #bitcoin,0,0,0,False
452,Block303@block_303,Having issues withdrawaling Lisk from Poloniex? http://bit.ly/2eG3W4v #btc #lisk #ARK $ARK #crypto #cryptocurrency #eth #bitcoin,0,0,0,False
453,Ameer Rosic@AmeerRosic,"Is #Ethereum similar to #Bitcoin? Well, sort of, but not really. http://dld.bz/fcBTc #blockchain",3,2,0,False
454,sergti@fantom196219,Having issues withdrawaling Lisk from Poloniex? http://bit.ly/2eG3W4v #btc #lisk #ARK $ARK #crypto #cryptocurrency #eth #bitcoin,1,1,0,False
455,Tedy MD@bitcoinjapanese,Meet 'Hulk' the giant pit bull http://vid.staged.com/3Nut #btcjapan #btcchina #ethereum.co.id,0,0,0,False
456,Bitmarck@MARch1ll,Having issues withdrawaling Lisk from Poloniex? http://bit.ly/2eG3W4v #btc #lisk #ARK $ARK #crypto #cryptocurrency #eth #bitcoin,0,0,0,False
458,Coinstats@coinstats,"Ethereum Classic - ETC
Price: $0.927362
Change in 1h: +-0.02%
Market cap: $79554992.0
Ranking: 6
#Ethereum Classic #ETC",0,0,0,False
459,Coinstats@coinstats,"Ethereum - ETH
Price: $10.3065
Change in 1h: +0.55%
Market cap: $885127016.0
Ranking: 2
#Ethereum #ETH",0,0,0,False
461,Ильдар Абдалов@ildarclickprime,Having issues withdrawaling Lisk from Poloniex? http://bit.ly/2eG3W4v #btc #lisk #ARK $ARK #crypto #cryptocurrency #eth #bitcoin,1,0,0,False
462,Nabilla Malisa@nabilamalisa69,Having issues withdrawaling Lisk from Poloniex? http://bit.ly/2eG3W4v #btc #lisk #ARK $ARK #crypto #cryptocurrency #eth #bitcoin,0,0,0,False
464,bitcoin on fire@btconfire,Having issues withdrawaling Lisk from Poloniex? http://bit.ly/2eG3W4v #btc #lisk #ARK $ARK #crypto #cryptocurrency #eth #bitcoin,0,0,0,False
465,Bitcoin Warrior@betget1,Having issues withdrawaling Lisk from Poloniex? http://bit.ly/2eG3W4v #btc #lisk #ARK $ARK #crypto #cryptocurrency #eth #bitcoin,0,0,0,False
468,crypto to fit@crypto_fit,Having issues withdrawaling Lisk from Poloniex? http://bit.ly/2eG3W4v #btc #lisk #ARK $ARK #crypto #cryptocurrency #eth #bitcoin,0,0,0,False
469,CryptoStorms@cryptostorms,Having issues withdrawaling Lisk from Poloniex? http://bit.ly/2eG3W4v #btc #lisk #ARK $ARK #crypto #cryptocurrency #eth #bitcoin,0,0,0,False
470,L3gionario@L3gionario1,A Chance to Win 2500 ARK just by Tweeting our Project! Enter NOW! http://bit.ly/2fqap7W #btc #lisk #ARK $ARK #crypto #eth #bitcoin,0,0,0,False
472,Adrian@AdrianLISK,Having issues withdrawaling Lisk from Poloniex? http://bit.ly/2eG3W4v #btc #lisk #ARK $ARK #crypto #cryptocurrency #eth #bitcoin,0,0,0,False
473,Stan@Stan_Tkachenko,Having issues withdrawaling Lisk from Poloniex? http://bit.ly/2eG3W4v #btc #lisk #ARK $ARK #crypto #cryptocurrency #eth #bitcoin,1,0,0,False
474,Criptofan@Criptofan1,Having issues withdrawaling Lisk from Poloniex? http://bit.ly/2eG3W4v #btc #lisk #ARK $ARK #crypto #cryptocurrency #eth #bitcoin,0,0,0,False
475,blockchainmedia@Ethereumlab,How does #blockchain work? The ultimate guide  http://buff.ly/2dvhaDX #bitcoin #ethereum #startup,0,0,0,False
476,Кастенич Давид@DavidKa3002,Having issues withdrawaling Lisk from Poloniex? http://bit.ly/2eG3W4v #btc #lisk #ARK $ARK #crypto #cryptocurrency #eth #bitcoin,0,0,0,False
477,sokololia@sokololia,Having issues withdrawaling Lisk from Poloniex? http://bit.ly/2eG3W4v #btc #lisk #ARK $ARK #crypto #cryptocurrency #eth #bitcoin,0,0,0,False
478,Damir@Dam2174,Having issues withdrawaling Lisk from Poloniex? http://bit.ly/2eG3W4v #btc #lisk #ARK $ARK #crypto #cryptocurrency #eth #bitcoin,0,0,0,False
479,Hannes Schleeh 史晗@schleeh,"#drone gets access to your door via #blockchain to deliver goods Chronicled uses #EthereumBlockchain-based IoT project does drone deliveries using EthereumSan Francisco-based Chronicled used Ethereum to authenticate drone package delivery system.Chronicled, a San Francisco-based technology company that is currently developing a blockchain-hosted …flip.it",1,0,0,False
480, xDarth Decred.XHV @Darth_Crypto,"Only 537 adresses hold $GNT! https://etherscan.io/token/Golem
#Ethereum #GolemProject",1,2,0,False
483,Papajager0@Papajager0,Having issues withdrawaling Lisk from Poloniex? http://bit.ly/2eG3W4v #btc #lisk #ARK $ARK #crypto #cryptocurrency #eth #bitcoin,0,0,0,False
484,Bitcoin Updater@BitcoinUpdater,Ethereum miner with CUDA and stratum support #ethereum http://soco.space/t9dPpJ,1,0,0,False
485,wintel@telexroom8895,Having issues withdrawaling Lisk from Poloniex? http://bit.ly/2eG3W4v #btc #lisk #ARK $ARK #crypto #cryptocurrency #eth #bitcoin,0,0,0,False
499,Blockgeeks@Blockgks,Can someone explain to me what is Ethereum in laymen's term? http://dld.bz/eWbfN #ethereum #blockchain,4,0,0,False
500,Coinstats@coinstats,"Ethereum Classic - ETC
Price: $0.930523
Change in 1h: +0.07%
Market cap: $79824501.0
Ranking: 6
#Ethereum Classic #ETC",0,0,0,False
501,Coinstats@coinstats,"Ethereum - ETH
Price: $10.2476
Change in 1h: +0.14%
Market cap: $880054926.0
Ranking: 2
#Ethereum #ETH",0,0,0,False
502,Ethereum Price@EthereumPrice_,"#Ethereum: Ether Price Index
1 ETH =0.014329Ƀ XBT = $10.252550 USD
Today: -0.54%⬇︎ Last 24h: -1.39%⬇︎
https://ethereum-price.com",0,0,0,False
503,Hayalperest@sezyumx,A Chance to Win 2500 ARK just by Tweeting our Project! Enter NOW! http://bit.ly/2fqap7W #btc #lisk #ARK $ARK #crypto #eth #bitcoin,0,0,0,False
504,Hayalperest@sezyumx,Having issues withdrawaling Lisk from Poloniex? http://bit.ly/2eG3W4v #btc #lisk #ARK $ARK #crypto #cryptocurrency #eth #bitcoin,0,0,0,False
505,Cryptoy@cryptoycom,Having issues withdrawaling Lisk from Poloniex? http://bit.ly/2eG3W4v #btc #lisk #ARK $ARK #crypto #cryptocurrency #eth #bitcoin,1,1,0,False
507,enigmanisimus@ciopalina,Having issues withdrawaling Lisk from Poloniex? http://bit.ly/2eG3W4v #btc #lisk #ARK $ARK #crypto #cryptocurrency #eth #bitcoin,0,0,0,False
508,cryptinsight@cryptinsight,"Golem Diborong, Decent Supply, Synereo AMP Update #ethereum #decent #synereo #golemproject http://bitcoinagile.com/947B2A/golem-diborong-decent-supply-synereo-amp-update_stream…",1,0,0,False
509,ARTUR and ILLIA@arturandillia,Having issues withdrawaling Lisk from Poloniex? http://bit.ly/2eG3W4v #btc #lisk #ARK $ARK #crypto #cryptocurrency #eth #bitcoin,0,0,0,False
510,5thAngel@LionTellSecrets,Having issues withdrawaling Lisk from Poloniex? http://bit.ly/2eG3W4v #btc #lisk #ARK $ARK #crypto #cryptocurrency #eth #bitcoin,1,0,0,False
511,Ameer Rosic@AmeerRosic,"Besides #Ethereum, which blockchains do you think are currently leading the pack http://dld.bz/fcNRx",1,1,0,False
512,Lucky Sign@geminigoldsaint,Having issues withdrawaling Lisk from Poloniex? http://bit.ly/2eG3W4v #btc #lisk #ARK $ARK #crypto #cryptocurrency #eth #bitcoin,0,0,0,False
518,blockchainmedia@Ethereumlab,Great people deserve a great audience. http://blockgeeks.com #Blockchain #Ethereum #Bitcoin,0,0,0,False
519,Yu@Yu_Daserod,Having issues withdrawaling Lisk from Poloniex? http://bit.ly/2eG3W4v #btc #lisk #ARK $ARK #crypto #cryptocurrency #eth #bitcoin,0,0,0,False
520,Dragonly@jamalaezaz,Having issues withdrawaling Lisk from Poloniex? http://bit.ly/2eG3W4v #btc #lisk #ARK $ARK #crypto #cryptocurrency #eth #bitcoin,0,0,0,False
521,Arthur@arturagasyan,Having issues withdrawaling Lisk from Poloniex? http://bit.ly/2eG3W4v #btc #lisk #ARK $ARK #crypto #cryptocurrency #eth #bitcoin,0,0,0,False
522,Антон Орлов@aqrisaqris,Having issues withdrawaling Lisk from Poloniex? http://bit.ly/2eG3W4v #btc #lisk #ARK $ARK #crypto #cryptocurrency #eth #bitcoin,0,0,0,False
523,Freddy U@spacetravel2020,Having issues withdrawaling Lisk from Poloniex? http://bit.ly/2eG3W4v #btc #lisk #ARK $ARK #crypto #cryptocurrency #eth #bitcoin,0,0,0,False
524,Ramond@h2002al,Having issues withdrawaling Lisk from Poloniex? http://bit.ly/2eG3W4v #btc #lisk #ARK $ARK #crypto #cryptocurrency #eth #bitcoin,0,0,0,False
525,vasya.vasyn@vasys174,Having issues withdrawaling Lisk from Poloniex? http://bit.ly/2eG3W4v #btc #lisk #ARK $ARK #crypto #cryptocurrency #eth #bitcoin,0,0,0,False
526,With That Being Said@AAntelmann22,"GrubHub will ceast to exist here soon anyway, #ArcadeCity is Coming! #Ethereum #P2P #Decentralization #1A #2A",1,1,0,False
529,cryptobounties@bountiescrypto,Having issues withdrawaling Lisk from Poloniex? http://bit.ly/2eG3W4v #btc #lisk #ARK $ARK #crypto #cryptocurrency #eth #bitcoin,0,0,0,False
530,outdoor@ActiveTourism,Having issues withdrawaling Lisk from Poloniex? http://bit.ly/2eG3W4v #btc #lisk #ARK $ARK #crypto #cryptocurrency #eth #bitcoin,0,0,0,False
531,Brave New Coin@bravenewcoin,#Ethereum Price: USD $10.31 $ETH http://ow.ly/6UKf3048WBe,2,3,0,False
532,blockchainmedia@Ethereumlab,Q&A: STEPHAN TUAL: Founder & COO Slock.it & The DAO http://dld.bz/faeQR #THEDAO #ethereum #blockchain,0,0,0,False
533,Coinstats@coinstats,"Ethereum Classic - ETC
Price: $0.92941
Change in 1h: +0.11%
Market cap: $79727763.0
Ranking: 6
#Ethereum Classic #ETC",0,0,0,False
534,BitcoinMan@eugeneym,Having issues withdrawaling Lisk from Poloniex? http://bit.ly/2eG3W4v #btc #lisk #ARK $ARK #crypto #cryptocurrency #eth #bitcoin,0,0,0,False
535,Coinstats@coinstats,"Ethereum - ETH
Price: $10.2226
Change in 1h: +-0.41%
Market cap: $877888345.0
Ranking: 2
#Ethereum #ETH",0,0,0,False
543,Humble crypto pig #masks4all@baltcoin,Having issues withdrawaling Lisk from Poloniex? http://bit.ly/2eG3W4v #btc #lisk #ARK $ARK #crypto #cryptocurrency #eth #bitcoin,0,0,0,False
547,blockchainmedia@Ethereumlab,"Check it out! Full Q &A with Richard Olsen, CEO at #lykke http://buff.ly/2cQ2dIQ #blockchain #ethereum",0,0,0,False
548,Coinstats@coinstats,"Ethereum Classic - ETC
Price: $0.928479
Change in 1h: +-0.01%
Market cap: $79646679.0
Ranking: 6
#Ethereum Classic #ETC",0,0,0,False
549,Coinstats@coinstats,"Ethereum - ETH
Price: $10.2651
Change in 1h: +0.59%
Market cap: $881525407.0
Ranking: 2
#Ethereum #ETH",0,0,0,False
552,blockchainmedia@Ethereumlab,"Who is working on a blockchain powered sustainable energy solutions?
http://dld.bz/eVxaY #ethereum #blockchain",0,0,0,False
553,xxxxxxxo@XxxxxxxoWxqkhy,#Anton Borin #Ether playlist/new entries on CHILL-ONE radio:  http://chillone.com,0,0,0,False
555,sansan@anasagatha90,A Chance to Win 2500 ARK just by Tweeting our Project! Enter NOW! http://bit.ly/2fqap7W #btc #lisk #ARK $ARK #crypto #eth #bitcoin,0,0,0,False
556,sansan@anasagatha90,Having issues withdrawaling Lisk from Poloniex? http://bit.ly/2eG3W4v #btc #lisk #ARK $ARK #crypto #cryptocurrency #eth #bitcoin,0,0,0,False
557,Teal Blue@Teal2Blue,"#WhatsCooking?1:21am>Sweet #Ether #Anaesthesia/#KnockOut #Drugs+Sevoflurane=SevereHeadache
#Ottawa #Police #Health #OttNews #OttPolice #RCMP",0,0,0,False
560,Rachel@Racheleavo,A Chance to Win 2500 ARK just by Tweeting our Project! Enter NOW! http://bit.ly/2fqap7W #btc #lisk #ARK $ARK #crypto #eth #bitcoin,0,0,0,False
561,Crypto Moar@CryptoMoar,A Chance to Win 2500 ARK just by Tweeting our Project! Enter NOW! http://bit.ly/2fqap7W #btc #lisk #ARK $ARK #crypto #eth #bitcoin,0,0,0,False
562,Alone@4lonee2,A Chance to Win 2500 ARK just by Tweeting our Project! Enter NOW! http://ln.is/gleam.io/yDqrZ/a8QE2… #btc #lisk #ARK $ARK #crypto #eth #bitcoin,0,0,0,False
563,Bitcoin Followers@Bitcoinfirst,A Chance to Win 2500 ARK just by Tweeting our Project! Enter NOW! http://bit.ly/2fqap7W #btc #lisk #ARK $ARK #crypto #eth #bitcoin,0,0,0,False
564,Bitcoin Followers@Bitcoinfirst,Having issues withdrawaling Lisk from Poloniex? http://bit.ly/2eG3W4v #btc #lisk #ARK $ARK #crypto #cryptocurrency #eth #bitcoin,0,0,0,False
567,jawara12@fadhil1986,Smith And Crown article explaining our price schedule for the #ICO http://ln.is/e6zav $ETH... by #btcgogreen via @c0nvey,0,0,0,False
568,Dominic@VeronAncient,Having issues withdrawaling Lisk from Poloniex? http://bit.ly/2eG3W4v #btc #lisk #ARK $ARK #crypto #cryptocurrency #eth #bitcoin,0,0,0,False
569,Badungs@badungsx,Having issues withdrawaling Lisk from Poloniex? http://bit.ly/2eG3W4v #btc #lisk #ARK $ARK #crypto #cryptocurrency #eth #bitcoin,0,0,0,False
570,veronica@VeroBTC,Having issues withdrawaling Lisk from Poloniex? http://bit.ly/2eG3W4v #btc #lisk #ARK $ARK #crypto #cryptocurrency #eth #bitcoin,1,0,0,False
571,kyu@kyucryp,Having issues withdrawaling Lisk from Poloniex? http://bit.ly/2eG3W4v #btc #lisk #ARK $ARK #crypto #cryptocurrency #eth #bitcoin,0,0,0,False
572,Crypto Moar@CryptoMoar,Having issues withdrawaling Lisk from Poloniex? http://bit.ly/2eG3W4v #btc #lisk #ARK $ARK #crypto #cryptocurrency #eth #bitcoin,0,0,0,False
573,Crypto Lovers@Cryptolove2,Having issues withdrawaling Lisk from Poloniex? http://bit.ly/2eG3W4v #btc #lisk #ARK $ARK #crypto #cryptocurrency #eth #bitcoin,0,0,0,False
574,Rachel@Racheleavo,Having issues withdrawaling Lisk from Poloniex? http://bit.ly/2eG3W4v #btc #lisk #ARK $ARK #crypto #cryptocurrency #eth #bitcoin,0,0,0,False
575,Anisa@_aniezae,Having issues withdrawaling Lisk from Poloniex? http://bit.ly/2eG3W4v #btc #lisk #ARK $ARK #crypto #cryptocurrency #eth #bitcoin,0,0,0,False
576,Alone@4lonee2,Having issues withdrawaling Lisk from Poloniex? http://bit.ly/2eG3W4v #btc #lisk #ARK $ARK #crypto #cryptocurrency #eth #bitcoin,0,0,0,False
577,Alexander@sidodadis,Having issues withdrawaling Lisk from Poloniex? http://bit.ly/2eG3W4v #btc #lisk #ARK $ARK #crypto #cryptocurrency #eth #bitcoin,0,0,0,False
578,blockchainmedia@Ethereumlab,Step-by-Step Guide: What the heck is a Smart Contract? #blockchain #bitcoin #ethereum http://dld.bz/eYNat,0,0,0,False
588,Wanda Hermawan@_wanda27,Having issues withdrawaling Lisk from Poloniex? http://bit.ly/2eG3W4v #btc #lisk #ARK $ARK #crypto #cryptocurrency #eth #bitcoin,0,0,0,False
589,Coinstats@coinstats,"Ethereum Classic - ETC
Price: $0.927281
Change in 1h: +0.31%
Market cap: $79543010.0
Ranking: 6
#Ethereum Classic #ETC",0,0,0,False
590,Coinstats@coinstats,"Ethereum - ETH
Price: $10.2096
Change in 1h: +0.46%
Market cap: $876749699.0
Ranking: 2
#Ethereum #ETH",0,0,0,False
591,Ethereum Price@EthereumPrice_,"#Ethereum: Ether Price Index
1 ETH =0.014196Ƀ XBT = $10.203100 USD
Today: -1.47%⬇︎ Last 24h: -2.52%⬇︎
https://ethereum-price.com",0,0,0,False
592,Olivier Chapiteau@o_chapiteau,"12Nov2016 06:00 UTC #Ether #Blockchain status - Block height @ 2,611,481 - 50,231 unconfirmed tr. - Last fork height @ 2,611,479",5,0,0,False
593,Olivier Chapiteau@o_chapiteau,12Nov2016 06:00 UTC #Ethereum live spots - #Ether @ 10.19552 $ - #EtherClassic @ 0.93097 $,0,0,0,False
594,Tedy MD@bitcoinjapanese,'Luxe' App Provides On Demand Parking | CNBC http://vid.staged.com/HLut #btcjapan #btcchina #ethereum.co.id,1,0,0,False
595,Kuckong@kuckong,A Chance to Win 2500 ARK just by Tweeting our Project! Enter NOW! http://bit.ly/2fqap7W #btc #lisk #ARK $ARK #crypto #eth #bitcoin,0,0,0,False
596,Kuckong@kuckong,Having issues withdrawaling Lisk from Poloniex? http://bit.ly/2eG3W4v #btc #lisk #ARK $ARK #crypto #cryptocurrency #eth #bitcoin,0,0,0,False
597,Mark Melvin@MelvisMax,A Chance to Win 2500 ARK just by Tweeting our Project! Enter NOW! http://bit.ly/2fqap7W #btc #lisk #ARK $ARK #crypto #eth #bitcoin,0,0,0,False
598,Mark Melvin@MelvisMax,Having issues withdrawaling Lisk from Poloniex? http://bit.ly/2eG3W4v #btc #lisk #ARK $ARK #crypto #cryptocurrency #eth #bitcoin,0,0,0,False
599,Muchamad Aldi Ananta@_dimox,A Chance to Win 2500 ARK just by Tweeting our Project! Enter NOW! http://ln.is/gleam.io/yDqrZ/ReBqf… #btc #lisk #ARK $ARK #crypto #eth #bitcoin,0,0,0,False
600,Muchamad Aldi Ananta@_dimox,Having issues withdrawaling Lisk from Poloniex? http://bit.ly/2eG3W4v #btc #lisk #ARK $ARK #crypto #cryptocurrency #eth #bitcoin,0,0,0,False
602,blockchainmedia@Ethereumlab,It's coming! The #Blockchain Technology That Will Replace Lawyers http://dld.bz/eYNat #ethereum,0,0,0,False
603,blockchainmedia@Ethereumlab,Smart Contracts: The #Blockchain Technology That Will Replace Lawyers http://dld.bz/eYNat #ethereum,0,0,0,False
604,Coinstats@coinstats,"Ethereum Classic - ETC
Price: $0.924435
Change in 1h: +0.03%
Market cap: $79297570.0
Ranking: 6
#Ethereum Classic #ETC",0,0,0,False
605,BigTCryptoAlerts@BigCryptoAlerts,Ethereum (USD) hits a 1 week low http://tinyurl.com/jfnrgfx $ETHUSD #Ethereum(USD),1,0,0,False
606,Bobe'bot@Bobe_bot,"1 #BTC = 724.4186 #CHF
1 #ETH = 10.5439 #CHF
1 #DOGE = 0.000219501596 #CHF
sources: @cryptonatorcom @hellobity",0,0,0,False
607,Coinstats@coinstats,"Ethereum - ETH
Price: $10.167
Change in 1h: +-0.0%
Market cap: $873079155.0
Ranking: 2
#Ethereum #ETH",0,0,0,False
608,VMX Labs@VMXLabs,"Integrating Ethereum Into Our Daily Lives - Jarrad Hope

http://buff.ly/2eVos1M
#Ethereum #VMXLabsIntegrating Ethereum Into Our Daily Lives - Jarrad HopeStatus is a hybrid DApp Browser / Instant Messenger client built with Whisper and Ethereum. We had been mentioned in DEVCON1 as being a recipient of a DEVGra...youtube.com",2,0,0,False
609,eCoin Project@ecoinproject,"Now accepting #bitcoin, #monero, #dash, #tether, #Litecoin, #ethereum, #lisk, #steemit, #NXT, and over 40 different #cryptocurrencies!",2,0,0,False
610,Independent Reserve@indepreserve,"Ethereum’s #Ether to Become World's Best-Performing Currency in 2016, #Bitcoin SecondEthereum’s Ether to Become World's Best-Performing Currency in 2016, Bitcoin SecondIt is time to look at a new champion that no one saw coming in 2016.cointelegraph.com",0,0,0,False
613,Aayush Jindal@AayushJs,#Ethereum - Can #Ether Price Sustain Further Losses? $Eth http://ethnews.com/analysis/11-11-2016-can-ether-price-sustain-further-losses…,0,0,0,False
614,Brave New Coin@bravenewcoin,#Ethereum Price: USD $10.26 $ETH http://ow.ly/6UKf3048WBe,2,4,0,False
