,user,text,likes,retweets,replies,is_thread
0,Germán Matosas@german_matosas,"Deloitte to build Ethereum-based 'digital bank' with New York City's ConsenSys http://ibtimes.co.uk/deloitte-build-ethereum-based-digital-bank-new-york-citys-consensys-1557864?utm_source=social&utm_medium=twitter&utm_campaign=/deloitte-build-ethereum-based-digital-bank-new-york-citys-consensys-1557864… via @IBTimesUK #ethereumDeloitte to build Ethereum-based 'digital bank' with New York City's ConsenSysDeloitte also announced blockchain partnerships with Bloq, Stellar and BlockCypher.ibtimes.co.uk",4,2,0,False
1,g_taylor@g_taylor,"My first post on #blockchain http://capgemini.github.io/blockchain/adventures-in-blockchain/…. #ethereum #meteor #reactjs @CapgeminiUKPRAdventures in BlockchainSharing some thoughts, tips and lessons learned building a Blockchain Applicationcapgemini.github.io",11,5,0,False
2,Bitcoin Brasil@BitcoinBr10,"Rotator Litecoin - #Bitcoin #Litecoin #Dogecoin #BTC #LTC #Blockchain #Paypal #ethereum #eth
http://litecoinbb.esy.es/ltc/",5,1,0,False
3,fungi ⟠ @defungi,"O Brother, Where art #DAO
@slockitproject #Ethereum #blockchain #IoT #theDAO",3,0,0,False
4,ΞTHΞЯΞUM ÐΞV NΞWS ⟠@Eth_Dev_News,BTC Relay connecting #bitcoin and #ethereum officially launched! http://buff.ly/1WCK83X #fintech #indiedev #gamedev #blockchain #IoT #Ether,1,2,0,False
5,CryptKeeper@CryptKeeperBTT,"Bitcoin 2016 :  ‘There Has Been an Awakening…’
#bitcoin #ethereum #blockchain https://news.bitcoin.com/bitcoin-2016%e2%80%8a%e2%80%8a-awakening/…",2,0,0,False
6,BACKFEED@Backfeed_cc,"Banks, tech companies move on from #bitcoin to #blockchain
http://reuters.com/article/us-usa-bitcoin-blockchain-idUSKCN0XT23Y…
#ethereum",4,7,0,False
7,wunderbar@TianchenW,"#blockchain #Ethereum using truffle VM http://slideshare.net/ThomasWuerthinger/graal-truffle-ethdec2013… + Docker + Vagrant, technical flexible and innovativeGraal and Truffle: One VM to Rule Them AllGraal is a dynamic meta-circular research compiler for Java that is designed for extensibility and modularity. One of its main distinguishing elements is the h…slideshare.net",2,0,0,False
8,Matyas Albert Nagy@albertmatyi,Enjoyng the #blockchan presentation @StylightTech #bitcoin #ethereum #steem #bitshares,2,0,0,False
9,Jean-Pierre Buntinx@jdebunt,"Using The Jaxx Wallet For Crowdsales And Token Purchases – The Merkle http://themerkle.com/using-the-jaxx-wallet-for-crowdsales-and-token-purchases/… #bitcoin #ethereum #jaxx #DAOUsing The Jaxx Wallet For Crowdsales And Token PurchasesThe Jaxx wallet has been getting a lot of attention lately, as this hybrid solution for both Bitcoin and Ethereum wallet purposes is rather unique. Moreover, due to the cross-platform availability ofthemerkle.com",2,0,0,False
10,Algo4Crypto@Algo4Crypto,#Ethereum 1h tick reaches a critical trendline. Consider Selling if there is a down breakage with large vols,1,1,1,False
11,Adam Holt@Adam91Holt,Nice to see #litecoin has been added to @UpholdInc. Now just waiting for the big one #ethereum #ether,1,1,0,False
12,Plutus@plutus,"#Pluton is the result of a marriage between the two #blockchain technologies, #Bitcoin and #Ethereum. #FintechEthereum and Bitcoin payment provider Plutus announces crowd saleThe startup has released a white paper and welcomed some talent to the team from PayPal, Visa and Morgan Stanley.ibtimes.co.uk",4,3,0,False
13,ΞTHΞЯΞUM ÐΞV NΞWS ⟠@Eth_Dev_News,"#Ethereum @VitalikButerin w/@ethereumproject WIN!!! ""Most Significant Tech Achievement"" #Consensus2016 #IoT #gamedev",23,24,0,False
14,Kevin Osterling@kevin_osterling,Is #ethereum pretending that DAO's will have a unique set of governance principles? Then whats the turing completeness for? #crypto #bitcoin,4,1,0,False
15,Roxana Adriana Sureanu@RoxanaSureanu,Today we celebrate World Press Freedom Day together with @AkashaProject ! Join us on http://akasha.world #ethereum #IPFS,4,4,0,False
16,Eduardo@Codiox,"Interesting times ahead, here I discuss how #Ethereum can help with IoT problems
http://themerkle.com/ethereum-can-solve-the-internet-of-things-problems/…
#IoT #InternetOfThings #BlockchainEthereum Can Solve The Internet of Thing’s ProblemsEthereum is a platform that offers many benefits for the Internet of Things, smart contracts and low confirmation times can solve some of the challenges ahead of IoT deployments: security and scalabilthemerkle.com",6,4,0,False
17,ethereum.network@EthereumNetw,"First #Ethereum Munich Meetup on Monday! See you there!Ethereum 101 - Trustless, decentralized, smart contractsMo., 9. Mai 2016, 19:00: Dr. Christian Reitwiessner (https://mobile.twitter.com/ethchris), Team Lead Ethereum and co-designer and lead implementor of Solidity (https://ethereum.github.io/solidity/), wmeetup.com",4,4,0,False
18,KLmoney@KLmoney8,"On the road to Metropolis with great UX. Excellent! Looking forward to seeing Lightwallet. @hitchcott
https://medium.com/@Digix/ui-development-update-ux-look-and-feel-meteor-light-wallet-141644a6d546#.djcxaozew… #ethereum",3,2,0,False
19,Johan Nygren@resilience_me,Resilience  –  a decentralized taxation system for free market taxation http://themerkle.com/resilience%E2%80%8A-%E2%80%8Aa-decentralized-taxation-system-for-free-market-taxation/… @leashless @timoreilly #ethereum,3,0,0,False
20,Jessi Baker @jessibaker,Do you really need a blockchain?http://doyoureallyneedablockchain.com #muchwow #blockchain #bitcoin #ethereum #btc #Consensus2016,7,9,0,False
21,Augur@AugurProject,"Please check out the new Augur website at http://Augur.net! Check out links to the Beta & other Augur info! #ethereum #augurAugur - The World's Most Accessible, No-Limit Betting PlatformThe World's Most Accessible, No-Limit Betting Platformaugur.net",28,24,4,False
22,Pelle Brændgaard (we are hiring)@PelleB,My latest article about thinking about financial Smart Contracts: Counter-Party risk on block chains http://buff.ly/1WFtktb #ethereum,3,3,0,False
23,BitcoinTalkRadio.com@btctalkradio,#Ethereum and #Bitcoin payment provider @Plutus announces crowd sale. http://bitcointalkradio.com/ethereum-and-bitcoin-payment-provider-plutus-announces-crowd-sale/… #funding #Fintech,1,2,0,False
24,Vladimir Budejicky@budejicky,UK Government Awards £248k for #Ethereum #Prototype - CoinDesk http://coindesk.com/uk-government-awards-250000-develop-cross-border-blockchain-prototype/?utm_source=CoinDesk+subscribers&utm_campaign=b56c624623-EMAIL_RSS_CAMPAIGNT2&utm_medium=email&utm_term=0_74abb9e6ab-b56c624623-79074957…,2,0,0,False
25,BitShares Hub@bitshareshub,"Meet us tonight 7pm at the @Stylight HQ, #Munich! Let´s talk #Bitcoin, #Ethereum #BitShares all night!! #StartupIntroduction to Blockchain and EthereumDi., 3. Mai 2016, 19:00: Please register on the meetup group event (http://www.meetup.com/Blockchain-Munich/events/230487236/) directlyFinally the first Blockchain Meetup is on!We'll have 3 very intermeetup.com",2,0,0,False
26,Kevin Osterling@kevin_osterling,DAO's should let their creators to design the corporate government principles and code them on the first tx #ethereum #bitcoin,2,0,0,False
27,FinTank@fin_tank,"For the record, Vitalik is a huge fan of CH&Co booth @Consensus2016 ;-)
#blockchain #ethereum #consensus2016",4,1,0,False
28,Anthony Di Iorio@diiorioanthony,Congrats to #ethereum for being named the ‘Most Significant Technical Achievement’.,8,4,0,False
29,Adv. Sarang Vaidya@advsarang,The Great #NikolaTesla believes in the #universal #truth!The real #theory of Universe. #Trivikram the #Great! #Ether,13,9,1,False
30,ConsenSys@Consensys,.@Deloitte and ConsenSys Enterprise join forces to fundamentally transform #banking! Read more http://buff.ly/24uHLmL #blockchain #Ethereum,12,10,0,False
31,Block Notary@blocknotary,"BlockNotary Team Develops Best #Truffle-based #Ethereum App
@ConsenSysLLC @Consensus2016
https://medium.com/@blocknotary/blocknotary-team-develops-best-truffle-based-ethereum-app-2a9d3eda16d2#.rfl3haka5…",4,2,1,False
32,CryptoParadise@CryptoParadiseX,"@ethereumproject Ethereum markets are now live  https://cryptomic.com/trade?c=ETH&p=BTC…
#Bitcoin #fintech #ethereum",3,2,0,False
33,Péter Szilágyi@peter_szilagyi,"Oh yeah, even @usnistgov is looking for #Ethereum developers! ;) https://usajobs.gov/GetJob/ViewDetails/436934500/…",11,6,0,False
34,STΞFAAN PONNΞT@sponnet,#TheDAO is now the 2nd largest #ETH wallet in existence. https://etherscan.io/accounts worth 13.6M$ in only 3 days. Wow! https://daohub.org,1,0,0,False
35,Alunaut   @onemanatatime,"Not sure how $DAO token creation will play out, but pretty sure there's gonna be some beef involved. #Ethereum $ETH",5,1,1,False
36,Lefteris Karapetsas@LefterisJP,A fine post by Colm of the #DAO community about the verification of the DAO's sourcecode. https://medium.com/daohub/daohub-verification-of-0xbb9bc244d798123fde783fcc1c72d3bb8c189413-d755317ee724#.9sbtsjir8… #ethereum @slockitproject,4,3,0,False
37,Stylight Tech@StylightTech,Super Cool #ethereum demo from @okoeth right now about Smart Contracts https://facebook.com/StylightTech/videos/1027755260611549/…,2,1,0,False
38,Fred Lutz@Fredericklutz,Come join me at the Cape Town #Ethereum Meetup 10 May. @StelliesDigital @TheLaunchLab http://buff.ly/1OddZJO,5,5,0,False
39,tgerring.eth@TaylorGerring,"It’s happening!!! #blockchain #ethereumQuote TweetPéter Szilágyi@peter_szilagyi · May 3, 2016Oh yeah, even @usnistgov is looking for #Ethereum developers! ;) https://usajobs.gov/GetJob/ViewDetails/436934500/…",6,5,0,False
40,helloeth.eth@newworlding,Congrats @VitalikButerin #ethereum wins the @coincenter most significant tech achievement of 2016 award #blockchain,3,0,0,False
41,Mihai Alisie@MihaiAlisie,The @AkashaProject signups are now open! Join us in this #freedomofspeech odyssey on http://akasha.world #WPFD2016 #ethereum #IPFS,7,6,0,False
42,ConsenSys@Consensys,@Deloitte and ConsenSys Enterprise join forces to fundamentally transform #banking! Read more: http://buff.ly/24uHLmL #blockchain #Ethereum,2,2,0,False
43,CoinJournal@CoinJournal,". @DAOhubORG Raises Over US$13 Million During First Three Days of Crowdsale #EthereumThe DAO Raises Over US$13 Million During First Three Days of Crowdsale | Coin JournalThe DAO, which serves as an investment fund for early stage Ethereum projects, has…coinjournal.net",2,0,0,False
44,CRYPTOCOINTALK@cryptocointalk,#European Exchange #BTCDirect Adds #Ethereum Trading https://cryptocointalk.com/topic/46697-themerkle-european-exchange-btcdirect-adds-ethereum-trading/… #altcoin $ETH #finance #marketing,1,1,0,False
45,Ξ Fly Guy Ξ (flyguy.eth)@FlyGuyInTheSky,#ethereum Well I've bought into #TheDAO not without risk but seems a worthwhile opportunity. DAO will be the brain #ether the blood.,4,1,1,False
46,DiEM25_UK@DiEM25_UK,"an #ethereum blockchain implementation of SPB is now possible with DAO technology @yanisvaroufakis @LonDiEM25Quote TweetMartin Brook@vgrade · May 3, 2016Markets, Money and Democratic Politics http://bit.ly/1QRG8Wq http://bit.ly/1TjAQol http://bit.ly/1UwmOVH #DAO",2,2,0,False
47,ΞTHΞЯΞUM ÐΞV NΞWS ⟠@Eth_Dev_News,The Bitcoin Podcast #57 - @stephantual of @slockitproject talks #TheDAO & #Ethereum http://thebitcoinpodcast.com/episode-57/ #gamedev,3,1,0,False
48,A-FRAME@_AFrame_,"Thanks for these clips @davidorban. Full video of the event will be released soon. #ethereum #Consensus2016Quote TweetDavid Orban@davidorban · May 2, 2016http://Piratebnb.com",2,0,0,False
49,Mihai Alisie@MihaiAlisie,"Unveiling the @AkashaProject http://bit.ly/akasha-world: A Next-Generation Social Media Network Immune To Censorship By Design #ethereumUnveiling AKASHAFor the past year we have worked on AKASHA , a next-generation social media network powered by…akasha.org",46,31,4,False
50,CryptoCompare@CryptoCompare,The Beta version of our #CryptoCurrency portfolio is available for testing https://cryptocompare.com/portfolio/ #eth #btc #xmr,3,2,1,False
51,Jan Miranda@JanMiranda,"William's book ""The Business of Blockchain"" signing #Consensus2016 #NYC #bitcoin #blockchain #ethereum #fintechQuote TweetWilliam Mougayar@wmougayar · May 3, 2016How long does it take to sign 500 copies? 2.5 hours! Thank you @Consensus2016 for gifting attendees!",4,1,0,False
52,NETWORK MIX@NETWORKMIX,"#Bitcoin vs #Litecoin vs #Ethereum Unlimited Quote TweetLitecoin Foundation@LTCFoundation · Mar 30, 2016We'll be releasing our development road map soon with all our projects and timescales. Stay tuned :) @Gramplona @MotobecaneTony",5,13,0,False
53,AKASHA@AKASHAworld,Did you know that #AKASHA means #ether in Sanskrit? Find out more on http://akasha.world/#about,5,5,1,False
54,Bitcoin Garden (Not Giving Away ETH)@BitcoinGarden,Vitalik Buterin Pitches Hyperledger Project on Ethereum Integration: http://bitcoingarden.tk/forum/index.php?topic=4580.msg112470#msg112470… tnx @coindesk | #Ethereum #News,5,4,0,False
55,Vera Reut@vera_reut,May 5 #Boston: join #hyperledger vs #ethereum with @efeatherston @garitweets @altoros http://paas.ly/Hyperledger-Boston…,1,1,0,False
56,Bitcoin@bitcoinpoet,"Tutorials: Mist, DAO Tokens, Backup: How To Create DAO Tokens https://youtube.com/watch?v=CRtBz... http://bit.ly/1NTBMn3 #ethereumTutorials: Mist, DAO Tokens, BackupHow To Create DAO Tokens https://www.youtube.com/watch?v=CRtBzpTmJ3A How to Install the Ethereum...reddit.com",1,2,0,False
57,DecentralizedCapital@Decen_Capital,Governments are just waking up to #Blockchain technology but those that embrace it will be hubs of innovation. #Consensus2016 #ethereum,4,1,0,False
58,John Lilic ₿ Ξ ∞@JohnLilic,"Awesome project by a very cool group of people building on top of #BlockApps #EthereumQuote TweetSuperRare John @SuperRareJohn · May 1, 2016Community relief fund built on @blockapps #ethereum #consensus2016",1,2,0,False
59,Jean-Pierre Buntinx@jdebunt,"European Exchange BTCDirect Adds Ethereum Trading – The Merkle http://themerkle.com/european-exchange-btcdirect-adds-ethereum-trading/… #ethereum #ETH $ETH #btcdirectEuropean Exchange BTCDirect Adds Ethereum TradingThe number of Bitcoin exchanges also offering an Ethereum buying and selling options keeps on growing, and one of the latest platforms to do so is BTCDirect in the Netherlands. As of today, this Europthemerkle.com",1,0,0,False
60,Bitsbetrippin@BitsBeTrippin,R9 370 4gb cards and noticeable diff. PCB boards on each. @ASUS_ROG Strix smallest size for mine rig #eth #ethereum,3,0,0,False
61,Pelle Brændgaard (we are hiring)@PelleB,I really like where Parity is going as an ethereum node: Announcing Parity 1.1 http://buff.ly/1Z7IshX #ethereum,1,1,1,False
62,Bitcoin Garden (Not Giving Away ETH)@BitcoinGarden,Ethereum Project The DAO Is Now Live: http://bitcoingarden.tk/forum/index.php?topic=4580.msg112415#msg112415… tnx @themerklenews | #Ethereum #News,3,4,0,False
63,Kenny Rowe@kennyrowe,.@epicenterbtc @MeherRoy @seb2point0 @crainbf This is one of your best shows. Really great content! Excellent work #blockchain #ethereum,5,3,1,False
64,Stéphane Bortzmeyer@bortzmeyer,To buy tokens or not to buy tokens? #investment #ethereum #money #power https://daohub.org,1,1,0,False
65,ethereum.network@EthereumNetw,".@ConsenSysLLC Enterprise Teams up with @Deloitte To ‘Fundamentally Transform’ #banking with #Ethereum
http://the-blockchain.com/2016/05/03/consensys-enterprise-teams-deloitte-fundamentally-transform-banking/…",1,2,0,False
66,Bob Summerwill@BobSummerwill,"""Future of a Shared Economy""
DAOs and @slockitproject with @stephantual
#ethereum #slockit #daoQuote TweetThe DAO@The_DAO_Project · May 3, 2016http://thebitcoinpodcast.com/episode-57/ #DAO #TheDAO",3,0,0,False
68,Uphold@UpholdInc,"@Adam91Holt Thanks for sharing Adam, #ethereum soon!",1,1,0,False
69,tgerring.eth@TaylorGerring,Strange how ardent #Bitcoin supporters won’t mention the title of Satoshi’s paper or #Ethereum. What are they so scared of?,2,2,5,False
70,ϻ  𝔤 𝔲 𝔯 𝔞 [ꜩ]@MagUraCrypto,Holding $EXP $NAUT $FCT $ETH,3,1,1,False
71,Cliff Willie@cliffdubya,Cold line summary: you signed to a dude who signed to another dude who is signed by 3 dudes #ether #damn @PUSHA_T,0,0,0,False
72,EtherFire@TheEtherFire,Hold the line! #ethereum is gonna hold .02 it's just gonna gotta do it! ,2,0,0,False
73,AltcoinLive bot@AltcoinLiveBot,updated $ETH buywall 22.7btc @ 0.02050000 http://altcoinlive.com/bittrex-eth-btc #altcoinlive (change -0.00028993),0,0,0,False
74,Bob Summerwill@BobSummerwill,"So #DAOHub funding has raised ~$15M USD now.
#6 all-time, just behind #ethereum itself.  Plenty of time left.
Wow!
https://en.wikipedia.org/wiki/List_of_highest_funded_crowdfunding_projects…",8,3,0,False
75,BitcoinAgile@bitcoinagile,Consensus 2016: #ethereum Won the “Most Significant Tech Achievement” Award http://bit.ly/1TkkfRb,1,0,0,False
76,BitcoinAgile@bitcoinagile,Bearish Breakout Appears Imminent for ETH-USD #blockchain #fintech #ethereum https://btcmanager.com/news/bearish-breakout-appears-imminent-for-eth-usd…,1,0,0,False
77,BTCMANAGER@btc_manager,Bearish Breakout Appears Imminent for ETH-USD https://btcmanager.com/news/bearish-breakout-appears-imminent-for-eth-usd/… #ethereum #fintech #blockchain,1,3,0,False
79,BTCVLC@BitcoinVLC,"#Bitcoin $452,24 | #Ethereum $9,55
#BitcoinPrice #coinbase #Venezuela #BTCVLC
WhatsApp 0426-2408251",0,0,0,False
80,BTCVLC@BitcoinVLC,"1 ETH =0.0210 Ƀ XBT
#Ethreum #ETH #EthereumPrice",0,0,0,False
82,ETHNews@ETHNews_,#Consensus2016: #Bitcoin takes governance lessons from #Ethereum http://ow.ly/4nnr7H via @IBTimesUKConsensus 2016: Bitcoin takes governance lessons from EthereumGovernance of Bitcoin was riding high with news that Dr Craig Wright has reiterated that he is Satoshi Nakamoto.ibtimes.co.uk,1,0,0,False
83,AltcoinLive bot@AltcoinLiveBot,updated $ETH buywall 20.8btc @ 0.02078993 http://altcoinlive.com/bittrex-eth-btc #altcoinlive (change -0.00005263),0,0,0,False
84,AltcoinLive bot@AltcoinLiveBot,updated $ETH buywall 20.8btc @ 0.02084256 http://altcoinlive.com/bittrex-eth-btc #altcoinlive (change 0.00005263),0,0,0,False
85,crush2bits@ragingbull27,#E is for #ether,0,0,0,False
86,AltcoinLive bot@AltcoinLiveBot,updated $ETH buywall 20.8btc @ 0.02078993 http://altcoinlive.com/bittrex-eth-btc #altcoinlive (change 0.00000141),0,0,0,False
89,Kenny Rowe@kennyrowe,Replying to @epicenterbtc.@epicenterbtc @MeherRoy @seb2point0 @crainbf This is one of your best shows. Really great content! Excellent work #blockchain #ethereum,5,3,1,False
90,AltcoinLive bot@AltcoinLiveBot,updated $ETH buywall 20.8btc @ 0.02078852 http://altcoinlive.com/bittrex-eth-btc #altcoinlive (change 0.00003844),0,0,0,False
91,Eka Nurochman@LawlietEn,"Now u can cloud #mining #ethercoin #ethereum. Get 3% #discount by input this code ""OfSCaG"". Register now! Here => http://buff.ly/1W4RPlh",1,0,0,False
92,Ethereum SE@StackEthereum,Is it possible to define a smart contract as the address when mining on a pool like ethermine? http://ethereum.stackexchange.com/questions/3561/is-it-possible-to-define-a-smart-contract-as-the-address-when-mining-on-a-pool-l… #ethereum #mining,0,0,0,False
94,Digiconomist@DigiEconomist,"#TheDAO is still on fire, raising almost $15 mio in the first few days  and pushing the price of #ETH towards $10 again. #Ethereum",0,0,0,False
96,Bitcoin@bitcoinpoet,Isn't it preferred to invest in the DAO with Mist and why there is no tutorial for it but just for ... http://bit.ly/21uoj7L #ethereumIsn't it preferred to invest in the DAO with Mist and why there is...Just decided to make sure before actually paying to the DAO address with Mist.reddit.com,0,0,0,False
97,Chokri AlGhanmi@GhanmiChokri,Good news! Contracts for #Ethereum #mining are available again!  Start with 1 Mh/s for only 44… https://instagram.com/p/BBw_bIpu-B2/,0,0,0,False
98,ETHNews@ETHNews_,"#Deloitte to build #Ethereum-based '#digital bank' with New York City's #ConsenSys #fintech http://ow.ly/4nnqCu via @IBTimesUKDeloitte to build Ethereum-based 'digital bank' with New York City's ConsenSysDeloitte also announced blockchain partnerships with Bloq, Stellar and BlockCypher.ibtimes.co.uk",0,0,0,False
99,Informulate@Informulate,"""The future of the Internet?"" #Ethereum #Technology http://ow.ly/4nldmM",1,0,0,False
100,Ethereum Price@EthereumPrice_,"#Ethereum: Ether Price Index
1 ETH =0.021023Ƀ XBT = $9.435500 USD
Today: -7.72%⬇︎ Last 24h: -5.76%⬇︎
https://ethereum-price.com",0,0,0,False
102,#SmartEthereum@SmartEthereum,"Come join me at the #CapeTown #Ethereum Meetup 10 May. @StelliesDigital @TheLaunchLab http://buff.ly/1OddZJOQuote TweetFred Lutz@Fredericklutz · May 3, 2016Come join me at the Cape Town #Ethereum Meetup 10 May. @StelliesDigital @TheLaunchLab http://buff.ly/1OddZJO",0,0,0,False
103,#SmartEthereum@SmartEthereum,"#European Exchange #BTCDirect Adds #Ethereum Trading http://cryptocointalk.com/topic/46697-th… #altcoin $ETH #finance #marketingQuote TweetCRYPTOCOINTALK@cryptocointalk · May 3, 2016#European Exchange #BTCDirect Adds #Ethereum Trading https://cryptocointalk.com/topic/46697-themerkle-european-exchange-btcdirect-adds-ethereum-trading/… #altcoin $ETH #finance #marketing",1,0,0,False
104,Inspire and Disrupt@A__Albrecht,"Ethereum Meetup in Mainz
#blockchain #Ethereum
http://blockchainers.org/index.php/2016/04/29/kw-17-weekly-blockchainers-recap/…",1,0,0,False
105,Crypto Price Ticker@TickerCrypto,"#Ethereum #ETH Rank:2 Last:฿0.02084326(-6.879%) High:฿0.02293434 Low:฿0.02084326 Vol:฿51,515 Market Cap:฿1,660,709 / $748,770,700.20",0,0,0,False
108,ETHNews@ETHNews_,#Ethereum Can Solve The #InternetofThing’s Problems #IoT http://ow.ly/4nnqk3,0,0,0,False
109,Crypto Price Ticker@TickerCrypto,"Ethereum(#ETH) #2 Price:$9.35(-4.10 %) Vol:$745,261,525.01 Cap:$25,534,000.0000 Supply:79,667,615 ETH http://dlvr.it/LD1bHq",0,0,0,False
110,Ξ Fly Guy Ξ (flyguy.eth)@FlyGuyInTheSky,#bitcoin look out you now have a real opponent with #ethereum and #TheDAO it's just going to prove so useful.,1,0,0,False
117,𝕸𝖊𝖗𝖑𝖎𝖓𝖘 𝕸𝖆𝖙𝖗𝖎𝖝@Merlinsmatrix,#Ethereum (ETH) Price Trends: 5/03/2016 http://cointelegraph.com/news/ethereum-eth-price-trends-5032016?ref=5991…,0,0,0,False
118,Algo4Crypto@Algo4Crypto,"#Ethereum #Cryptotrader
https://cryptotrader.org/topics/787762/algo4crypto-a4c-bots-support-thread…

Our bot's first steps! Tell us your opinion!",0,0,0,False
124,Cloud Mining Monitor@cmmonitorcom,#Ethereum #Cloudmining': 03.05.2016 Payment received. 5 MHs - 0.05870498 ETH. From MyCoinCloud.MyCoinCloud (Ethereum Mining)cmmonitor.com,0,0,0,False
125,Glyn MacLean 麦格荣@glynmaclean,#Ethereum mining website I am creating and evolving to assist discovery of new #wealth in #cryptocurrency https://lnkd.in/brHaeUj,0,0,0,False
126,Mas kuyus@MasKuyus,Free Ethereum every 5 minutes http://etherfaucet.net/?r=0xfb8d326bcf27c3e15cd9a32a05dd12238c8a7992… #ethereum via @FreeCryptoCo,0,0,0,False
127,AltcoinLive bot@AltcoinLiveBot,updated $ETH buywall 20.8btc @ 0.02075008 http://altcoinlive.com/bittrex-eth-btc #altcoinlive (change 0.00000007),0,0,0,False
128,AltcoinLive bot@AltcoinLiveBot,updated $ETH buywall 20.8btc @ 0.02075001 http://altcoinlive.com/bittrex-eth-btc #altcoinlive (change 0.00008325),0,0,0,False
129,AltcoinLive bot@AltcoinLiveBot,updated $ETH buywall 20.7btc @ 0.02066676 http://altcoinlive.com/bittrex-eth-btc #altcoinlive (change 0.00000324),0,0,0,False
130,Cloud Mining Monitor@cmmonitorcom,#Ethereum #Cloudmining': 03.05.2016 Payment received. 6 MHs - 0.07323022 ETH. From Genesis Mining.Genesis Mining (Ethereum Mining)cmmonitor.com,0,0,0,False
131,Mas kuyus@MasKuyus,Free Ethereum every 5 minutes http://eth-faucet.com/?r=0xfb8d326bcf27c3e15cd9a32a05dd12238c8a7992… #ethereum via @FreeCryptoCo,0,0,0,False
132,Stylight Tech@StylightTech,"Live demo of @ethereumproject #ethereum ""Setting up a dev network"" https://facebook.com/StylightTech/videos/1027755260611549/…",1,1,0,False
133,alldissolve@alldissolve,Glad I dumped my $eth earlier today. If BTC free to moon meow?,0,0,0,False
134,Coinality@Coinality,NEW #BLOCKCHAIN JOB - Create new #cryptocurrency based on #Ethereum - http://ow.ly/4nnTH5,3,0,0,False
135,clic4bitcoin.com@clic4bitcoin,Let's go to the moon with Ethereum https://ethtrade.org/@603726 Win Up to 25% Monthly  #invest #ethereum #trading #eth,1,0,0,False
137,ETHER@ETHERsk8er,Teaching my little brother Ocean @LilRedWolves to pop off the boxes at South Bank. #OCEAN #ETHER… https://instagram.com/p/BE9MQRbuL1K/,2,1,0,False
138,BitcoinAgile@bitcoinagile,BlockNotary Team Develops Best Truffle-based #ethereum App #bitcoin #blockchain #medium https://medium.com/@blocknotary/blocknotary-team-develops-best-truffle-based-ethereum-app-2a9d3eda16d2…,1,0,0,False
142,Patrizio Stavola@halovast,"Unveiling #AKASHA, a next-generation social media network powered by the #Ethereum world computer and the #IPFS. http://blog.akasha.world/2016/05/03/unveiling-akasha/…",1,1,0,False
143,fav@btsfav,Enter for a Chance to win 1 Ether ─ http://favd.xyz/1W5pJq0 #Ethereum #Raffle,3,0,0,False
146,BTCVLC@BitcoinVLC,"#Bitcoin $448,60 | #Ethereum $9,58
#BitcoinPrice #coinbase #Venezuela #BTCVLC
WhatsApp 0426-2408251",0,0,0,False
147,BTCVLC@BitcoinVLC,"1 ETH =0.0214 Ƀ XBT
#Ethreum #ETH #EthereumPrice",0,0,0,False
148,WangXiang@WangXiang,A bridge between the #bitcoin #blockchain and #ethereum smart contractsEthereum studio ConsenSys announces interoperable Bitcoin service BTC RelayUsing BTC Relay means developers can implement a \'Pay with Bitcoin\' button in their Ethereum-based Dapps.ibtimes.co.uk,0,0,0,False
149,a5ym4e@a5ym4e,MT:@dwr Decentralized...@twitter on #ethereum http://ethertweet.net https://github.com/yep/eth-tweet @ethereumproject,0,0,0,False
150,BlockTrΞnd@BlockTrend,"#Bitcoin Q&A: How can Bitcoin & #Ethereum work together? https://m.youtube.com/watch?feature=youtu.be&v=5IWPyrnnkZc&a=… @aantonop #blockchainEthereum Q&A: Can Bitcoin & Ethereum Work Together? - The Synergistic...In this talk in Berlin, Andreas looks at the inner structure of bitcoin and how high-level financial and trust applications are composed from smaller element...youtube.com",2,0,0,False
151,Ethereum Price@EthereumPrice_,"#Ethereum: Ether Price Index
1 ETH =0.021453Ƀ XBT = $9.561500 USD
Today: -5.83%⬇︎ Last 24h: -1.44%⬇︎
https://ethereum-price.com",1,0,0,False
152,Ethereum SE@StackEthereum,Storage location can only be given for array or struct types http://ethereum.stackexchange.com/questions/3559/storage-location-can-only-be-given-for-array-or-struct-types… #ethereum #solidity #memory,0,0,0,False
153,Stylight Tech@StylightTech,Livestream of our introduction to #blockchain and #ethereum MeetupIntroduction to BlockchainStylight Tech was live.facebook.com,9,5,0,False
155,Nick Myers ∞@kor3shan,If you want to build on Ethereum why wouldn't you approach #theDAO for funding? #ETH,1,0,0,False
156,FinTank@fin_tank,".MT @ChappuisHalder: For the record, Vitalik is a huge fan of CH&Co booth 
#blockchain #ethereum #consensus2016",2,0,0,False
157,ETHNews@ETHNews_,"#Ethereum Price Technical Analysis – $10.00 Target Hit, #ETH In Uptrend http://ow.ly/4nnpvE via @newsbtcEthereum Price Analysis – $10.00 Target Hit, ETH In UptrendEthereum price change in bias forecast was a success, as ETH/USD spiked higher and even broke the $10.00 resistance area.newsbtc.com",1,0,0,False
158,BitcoinAgile@bitcoinagile,"GPUs failing after ~5 mins of mining #btc #eth #newsGPUs failing after ~5 mins of miningI'm using Ubuntu 14.04, and I've installed cpp-ethereum through the following commands:sudo apt-get clean sudo add-apt-repository -y ppa:ethereum/ethereum-qt sudo add-apt-repository -y ppa:ethereum...forum.ethereum.org",0,0,0,False
160,Ethereum SE@StackEthereum,Why are smart contract languages need to be deterministic? http://ethereum.stackexchange.com/questions/3557/why-are-smart-contract-languages-need-to-be-deterministic… #ethereum #smartcontracts,0,0,0,False
161,Genesis Mining@GenesisMining,#Consensus2016 conference is happening in #NYC with @VitalikButerin and our CEO @Marco_Streng #Ethereum #blockchain,26,7,2,False
162,rider@ridercrypto,chromecast + poloniex nightmode so I can see $ETH candlestick charts from my bed,0,0,0,False
164,Load Debit Card@LoadDebitCard,Did you know you can load #debitcards on your website? http://bit.ly/merchantplugin #Bitcoin #Ethereum #Ripple #Litecoin,0,0,0,False
166,AltcoinWeekly@altcoinweekly,The latest Ethereum price is USD 9.59. For historical #Ethereum price charts - http://buff.ly/1Y3h6Jz,0,0,0,False
167,CoinGecko@coingecko,The latest Ethereum price is USD 9.59. For historical #Ethereum price charts - http://buff.ly/1Y3h6Jz,0,0,0,False
169,Chappuis Halder &Co.@ChappuisHalder,"For the record, Vitalik is a huge fan of CH&Co booth @Consensus2016 ;-)
#blockchain #ethereum #consensus2016 http://ow.ly/i/j2JWp",3,1,0,False
170,Nick Zeeb@NickZeeb,"AKASHA, a next-generation social media network powered by the #Ethereum world computerQuote TweetAKASHA@AKASHAworld · May 3, 2016Today is when it all begins! Unveiling #AKASHA http://bit.ly/akasha-world. Signups now open on http://akasha.world",1,1,0,False
171,Henk van Cann@henkvancann,@mandeleil #consensus2016 more than 100.000 #GPU's mining #Ether at the moment,3,0,0,False
172,Silvan Gertsch@silgert,"Deloitte has announced plans to create a blockchain-based digital bank http://ibt.uk/A6XGq via @IBTimesUK #ethereumDeloitte to build Ethereum-based 'digital bank' with New York City's ConsenSysDeloitte also announced blockchain partnerships with Bloq, Stellar and BlockCypher.ibtimes.co.uk",1,0,0,False
174,PS_PC-Parts@PS_PC_Parts,RiteAV - Cat6 Network Ethernet Cable - B http://amzn.to/1Ri87UX #RiteAV #- #Cat6 #Network #Eth,0,0,0,False
175,TIGER Altcoin@Tiger_Altcoin,Interested in automated trading on #Ethereum or #Bitcoin? Check out: http://bit.ly/TigerCT #BotTrading,1,0,0,False
176,BitcoinAgile@bitcoinagile,Satoshi Is Actually Building an #ethereum Company and Other Developments #bitcoin #medium https://medium.com/@jamesfickel/satoshi-is-actually-building-an-ethereum-company-and-other-developments-2c95c08685f7…,0,0,0,False
177,Carl Weir@CarlARPWeir,"UpholdInc: Adam91Holt Thanks for sharing Adam, #ethereum soon!",1,0,0,False
178,Uphold@UpholdInc,"Replying to @Adam91Holt@Adam91Holt Thanks for sharing Adam, #ethereum soon!",1,1,0,False
181,Ethereum SE@StackEthereum,"I created a wallet contract, sent ether to it and now cannot send to another account http://ethereum.stackexchange.com/questions/3555/i-created-a-wallet-contract-sent-ether-to-it-and-now-cannot-send-to-another-acc… #ethereum #transactions #mist",0,0,0,False
182,Julia Edling@bitcointonic,Today’s (ETH) #Ethereum Price Trends: Ethereum’s price is fortifying at a long-term level.… http://dlvr.it/LCwQBB,0,0,0,False
183,Clovis@clofamile,Free Ethereum every 5 minutes http://etherfaucet.net/?r=0x9dc618ad33d270ed68050186f5c08d7bf0b41c70… #ethereum via @FreeCryptoCo,0,0,0,False
184,Peter B. Nichol@PeterBNichol,"""Blockchain gives music lessons to #healthcare"" on @LinkedIn #blockchain #bitcoin #consensus2016 #CIO #ethereumBlockchain gives music lessons to healthcareArticle originally published on CIO.com.linkedin.com",2,2,0,False
185,Ethereum Price@EthereumPrice_,"#Ethereum: Ether Price Index
1 ETH =0.020773Ƀ XBT = $9.308165 USD
Today: -8.82%⬇︎ Last 24h: -6.54%⬇︎
https://ethereum-price.com",0,0,0,False
187,Mary R.@mary_aniram,May4: Intro to #Hyperledger #OpenBlockchain in Washington DC. Join us http://bit.ly/HyperLedger_DC …  #Bitcoin #Ethereum,0,0,0,False
188,Vera Reut@vera_reut,#Blockchain developer in #Boston? Join #hyperledger meetup ft #ethereum panel http://paas.ly/Hyperledger-Boston…,0,0,0,False
189,Olivier Revollat@o_revollat,"Does a #blockchain based #wiki exists ? A distributed wiki with e.g. a system of vote for consensus
#decentralization #ethereum #Bitcoin",1,0,0,False
190,Indy Johar@indy_johar,RT @jessibaker: Do you really need a blockchain?http://shrd.by/2Hploo #muchwow #blockchain #bitcoin #ethereum #btc #Consensus2016,1,0,0,False
191,Blockchain Wire@BlockchainWire,#Deloitte Unveils 5 Blockchain Partnerships and 20 Prototypes: 'Big Four' accounting. #Bitcoin #Ethereum #Dapps http://goo.gl/fb/cgTcUW,1,2,0,False
194,Ethereum SE@StackEthereum,"I created a wallet contract, sent ether to it and now cannot send to another account http://ethereum.stackexchange.com/questions/3555/i-created-a-wallet-contract-sent-ether-to-it-and-now-cannot-send-to-another-acc… #ethereum #wallets",1,1,0,False
195,AltcoinLive bot@AltcoinLiveBot,updated $ETH buywall 20.7btc @ 0.02066352 http://altcoinlive.com/bittrex-eth-btc #altcoinlive (change -0.00005487),0,0,0,False
196,BitcoinAgile@bitcoinagile,Deloitte to build #ethereum-based 'digital bank' with New York City's ConsenSys #Intology http://bit.ly/1SWhnNr,0,0,0,False
198,AltcoinLive bot@AltcoinLiveBot,updated $ETH buywall 20.7btc @ 0.02071839 http://altcoinlive.com/bittrex-eth-btc #altcoinlive (change 0.00005487),0,0,0,False
199,AltcoinLive bot@AltcoinLiveBot,updated $ETH buywall 20.7btc @ 0.02066352 http://altcoinlive.com/bittrex-eth-btc #altcoinlive (change 0.00007055),0,0,0,False
200,UnionD@uniondee,A DAO that is self-healing -- all critical parameters can be amended according to the members' will #blockchain #ethereum,1,1,0,False
201,Раб Божий@Diener_Gottes,#Ethereum (#ETH) #Price Trends: 5/03/2016: <![CDATA[ Ethereum's price continues its… http://goo.gl/fb/654TtN,0,0,0,False
202,Crypto Jeebus@crypto_jesus,Could http://daohub.org token sale outgrow the Foundation's? Entirely possible #ethereum,1,0,0,False
203,#blocktalk@block_talk,Checking my transfers and almost ready to press the button. $ETH $DAO,0,0,0,False
204,AltcoinLive bot@AltcoinLiveBot,updated $ETH buywall 20.6btc @ 0.02059297 http://altcoinlive.com/bittrex-eth-btc #altcoinlive (change 0.00005212),0,0,0,False
206,BitcoinAgile@bitcoinagile,"#ethereum Forums to remain open / Call for community moderators #btc #newsEthereum Forums to remain open / Call for community moderatorsHello everyone! As you may know, we recently announced that we were looking to close down the Ethereum Forums.forum.ethereum.org",0,0,0,False
207,AltcoinLive bot@AltcoinLiveBot,updated $ETH buywall 20.5btc @ 0.02054085 http://altcoinlive.com/bittrex-eth-btc #altcoinlive (change -0.00005813),0,0,0,False
208,TIGER Altcoin@Tiger_Altcoin,With a profit of 18.5% it has been a good few last days. See our live link: http://bit.ly/Tiger_Live #ethereum #bitcoin #cryptotrading,0,0,0,False
213,YOᗪI ᕼEᖇᗰᗩᗯᗩᑎ@YodiHermawan,#Ethereum (#ETH) #Price Trends: 5/03/2016: <![CDATA[ Ethereum's price continues its… http://goo.gl/fb/PxW1CU #vk,0,0,0,False
214,AltcoinLive bot@AltcoinLiveBot,updated $ETH buywall 20.6btc @ 0.02059898 http://altcoinlive.com/bittrex-eth-btc #altcoinlive (change -0.00011414),0,0,0,False
215,BitcoinAgile@bitcoinagile,Deloitte to build #ethereum-based digital bank with New York Citys ConsenSys #blockchain http://bit.ly/1rQWA5d,0,0,0,False
216,AltcoinLive bot@AltcoinLiveBot,updated $ETH buywall 20.7btc @ 0.02071312 http://altcoinlive.com/bittrex-eth-btc #altcoinlive (change 0.00006793),0,0,0,False
217,Degen Signals@degenyolo,GO YOLO LONG OR SHORT #ETH http://altcoins.in/how-to-go-long-and-short-eth-at-bitmex-eth-futures…,0,0,0,False
218,Pleb Bets@SportsBetPlebs,GO YOLO LONG OR SHORT #ETH http://altcoins.in/how-to-go-long-and-short-eth-at-bitmex-eth-futures…,0,0,0,False
219,Theo Goodman@theog__,GO YOLO LONG OR SHORT #ETH http://altcoins.in/how-to-go-long-and-short-eth-at-bitmex-eth-futures…,0,0,0,False
220,litecoin cfd@litecoincfd,GO YOLO LONG OR SHORT #ETH http://altcoins.in/how-to-go-long-and-short-eth-at-bitmex-eth-futures…,0,0,0,False
221,BitcoinAgile@bitcoinagile,BTC Relay The First #ethereum and #bitcoin Sidechain - Cigawebcom http://bit.ly/1rQVzdn,0,0,0,False
222,AltcoinLive bot@AltcoinLiveBot,updated $ETH buywall 20.6btc @ 0.02064519 http://altcoinlive.com/bittrex-eth-btc #altcoinlive (change 0.00000011),0,0,0,False
223,Majella de Jong@JellaBoem,"A very promising project that is all about Freedom of Press using the #ethereum network: #AkashaQuote TweetAKASHA@AKASHAworld · May 3, 2016Today is when it all begins! Unveiling #AKASHA http://bit.ly/akasha-world. Signups now open on http://akasha.world",1,0,0,False
224,Tyler Smith@FreeMyVunk,Huge announcement from @ConsenSysLLC #ethereum #deloitte To the Moon! https://consensys.net/static/deloitte.pdf…,0,0,0,False
225,AltcoinLive bot@AltcoinLiveBot,updated $ETH buywall 20.6btc @ 0.02064508 http://altcoinlive.com/bittrex-eth-btc #altcoinlive (change 0.00006922),0,0,0,False
226,Alt-Options LLC@AltOptionsLLC,#ETH support 9.40. Resistance 10.44. RSI 51. MACD #Bearish @newsbtc #Ethereum #FOREX http://ow.ly/4nmUyy,1,0,0,False
227,AltcoinLive bot@AltcoinLiveBot,updated $ETH buywall 20.6btc @ 0.02057586 http://altcoinlive.com/bittrex-eth-btc #altcoinlive (change -0.00002415),0,0,0,False
228,AltcoinLive bot@AltcoinLiveBot,updated $ETH buywall 20.6btc @ 0.02060001 http://altcoinlive.com/bittrex-eth-btc #altcoinlive (change -0.00001934),0,0,0,False
229,Sergei Lonshakov@EnsRationis,"Online game market demo #Truffle #Ethereum #dApp - http://aira.life/eco/
#GitHub repo: https://github.com/airalab/truffle-aira-economics…",0,0,0,False
230,AltcoinLive bot@AltcoinLiveBot,updated $ETH buywall 20.6btc @ 0.02061935 http://altcoinlive.com/bittrex-eth-btc #altcoinlive (change -0.00001018),0,0,0,False
232,AltcoinLive bot@AltcoinLiveBot,updated $ETH buywall 20.6btc @ 0.02062953 http://altcoinlive.com/bittrex-eth-btc #altcoinlive (change 0.00005217),0,0,0,False
233,AltcoinLive bot@AltcoinLiveBot,updated $ETH buywall 20.6btc @ 0.02057736 http://altcoinlive.com/bittrex-eth-btc #altcoinlive (change 0.00005240),0,0,0,False
242,AltcoinLive bot@AltcoinLiveBot,updated $ETH buywall 20.5btc @ 0.02052496 http://altcoinlive.com/bittrex-eth-btc #altcoinlive (change -0.00023512),0,0,0,False
243,AltcoinLive bot@AltcoinLiveBot,updated $ETH buywall 20.8btc @ 0.02076008 http://altcoinlive.com/bittrex-eth-btc #altcoinlive (change 0.00036716),0,0,0,False
244,AltcoinLive bot@AltcoinLiveBot,updated $ETH buywall 20.4btc @ 0.02039292 http://altcoinlive.com/bittrex-eth-btc #altcoinlive (change -0.00067856),0,0,0,False
245,AltcoinLive bot@AltcoinLiveBot,updated $ETH buywall 21.1btc @ 0.02107148 http://altcoinlive.com/bittrex-eth-btc #altcoinlive (change 0.00000002),0,0,0,False
246,AltcoinLive bot@AltcoinLiveBot,updated $ETH buywall 21.1btc @ 0.02107146 http://altcoinlive.com/bittrex-eth-btc #altcoinlive (change 0.00007114),0,0,0,False
247,AltcoinLive bot@AltcoinLiveBot,updated $ETH buywall 21.0btc @ 0.02100032 http://altcoinlive.com/bittrex-eth-btc #altcoinlive (change -0.00015594),0,0,0,False
248,Bitcoin Directory@dir4bc,##ETHereum (ETH) #Price Trends: 5/03/2016: Ethereum's price continues its fortification at… http://short.4bc.co/ttasks,0,0,0,False
249,4BC@aff4bc,##ETHereum (ETH) #Price Trends: 5/03/2016: Ethereum's price continues its fortification at… http://short.4bc.co/ttasks,0,0,0,False
250,Widget 4 Bitcoin@widget4bc,##ETHereum (ETH) #Price Trends: 5/03/2016: Ethereum's price continues its fortification at… http://short.4bc.co/ttasks,0,0,0,False
251,AltcoinLive bot@AltcoinLiveBot,updated $ETH buywall 21.6btc @ 0.02115626 http://altcoinlive.com/bittrex-eth-btc #altcoinlive (change 0.00037421),0,0,0,False
252,AltcoinLive bot@AltcoinLiveBot,updated $ETH buywall 20.8btc @ 0.02078205 http://altcoinlive.com/bittrex-eth-btc #altcoinlive (change -0.00028953),0,0,0,False
253,Ali Güçlü@aliguclu,"CoinTelegraph : #Ethereum (#ETH) Price Trends: 5/03/2016 http://cointelegraph.com/news/ethereum-eth-price-trends-5032016… … https://twitter.com/CoinTelegraph/status/727486817197527040…)Quote TweetCointelegraph@Cointelegraph · May 3, 2016#Ethereum (#ETH) Price Trends: 5/03/2016 http://cointelegraph.com/news/ethereum-eth-price-trends-5032016…",0,0,0,False
254,AltcoinLive bot@AltcoinLiveBot,updated $ETH buywall 21.1btc @ 0.02107158 http://altcoinlive.com/bittrex-eth-btc #altcoinlive (change 0.00017931),0,0,0,False
255,Cointelegraph@Cointelegraph,#Ethereum (#ETH) Price Trends: 5/03/2016 http://cointelegraph.com/news/ethereum-eth-price-trends-5032016…,0,0,0,False
256,BitcoinAgile@bitcoinagile,"BTC Relay The First #ethereum and #bitcoin Sidechain - Bitcoin Network, News, Charts, Guides http://livebitcoinnews.com/btc-relay-the-first-ethereum-and-bitcoin-sidechain…",0,0,0,False
257,Tone Vays (#EndLockdowns)@ToneVays,"""We know that if you call your project a #blockchain, you'll get funding for it"" -@JerryCuomo of @IBM at #Consensus2016 #Bitcoin #ethereum",11,12,1,False
258,AltcoinLive bot@AltcoinLiveBot,updated $ETH buywall 20.8btc @ 0.02083741 http://altcoinlive.com/bittrex-eth-btc #altcoinlive (change -0.00006260),0,0,0,False
259,AltcoinLive bot@AltcoinLiveBot,updated $ETH buywall 20.9btc @ 0.02090001 http://altcoinlive.com/bittrex-eth-btc #altcoinlive (change 0.00006110),0,0,0,False
260,AltcoinLive bot@AltcoinLiveBot,updated $ETH buywall 20.8btc @ 0.02083891 http://altcoinlive.com/bittrex-eth-btc #altcoinlive (change 0.00006034),0,0,0,False
261,AltcoinLive bot@AltcoinLiveBot,updated $ETH buywall 20.8btc @ 0.02077857 http://altcoinlive.com/bittrex-eth-btc #altcoinlive (change -0.00006031),0,0,0,False
262,AltcoinLive bot@AltcoinLiveBot,updated $ETH buywall 20.8btc @ 0.02083888 http://altcoinlive.com/bittrex-eth-btc #altcoinlive (change -0.00008749),0,0,0,False
263,BitcoinAgile@bitcoinagile,Day 2 - BitcoinAgile at #Consensus2016 #bitcoin #blockchain #ethereum #fintech #lendium… https://instagram.com/p/BE8heBPw_wz/,1,0,0,False
264,Roxana Adriana Sureanu@RoxanaSureanu,AKASHA = Advanced Knowledge Architecture for Social Human Advocacy #ethereum #WorldPressFreedomDay,9,2,0,False
265,BTFD @JayBitcoinBTC,@hellobity CEO @alexis_roussel talking at @swiss_sus about #cryptocurrencies #bitcoin #ether #ethereum #dao,2,3,0,False
266,Crypto DAR฿Y@DarbyOGill_,Buying more $eth to buy more DAO ICO just like the good ol days..,0,0,0,False
268,AltcoinLive bot@AltcoinLiveBot,updated $ETH buywall 20.9btc @ 0.02092637 http://altcoinlive.com/bittrex-eth-btc #altcoinlive (change -0.00005279),0,0,0,False
269,#SmartEthereum@SmartEthereum,"Congrats @VitalikButerin #ethereum wins the @coincenter most significant tech achievement of 2016 award #blockchainQuote TweetConsenSys@Consensys · May 2, 2016Congrats @VitalikButerin #ethereum wins the @coincenter most significant tech achievement of 2016 award #blockchain",2,0,0,False
270,#SmartEthereum@SmartEthereum,"Unveiling the @AkashaProject b A Next-Generation Social Media Network Immune To Censorship By Design #ethereumQuote TweetMihai Alisie@MihaiAlisie · May 3, 2016Unveiling the @AkashaProject http://bit.ly/akasha-world: A Next-Generation Social Media Network Immune To Censorship By Design #ethereum",0,0,0,False
271,AltcoinLive bot@AltcoinLiveBot,updated $ETH buywall 21.0btc @ 0.02097916 http://altcoinlive.com/bittrex-eth-btc #altcoinlive (change 0.00005284),0,0,0,False
272,Mary R.@mary_aniram,"#Hyperledger #blockchain Meetup on May4! #DC Join us! 
http://meetup.com/Hyperledger-Washington-DC/events/229692900/… … #EthereumIntro to Hyperledger/Open Blockchain. HyperLedger vs EthereumWed, May 4, 2016, 5:30 PM: Please NOTE: Your presence on the waitlist on meetup.com does not mean that you will not be credited to the list of attendees. If you are registered at EVENTBRITE.COM (httpsmeetup.com",0,0,0,False
273,AltcoinLive bot@AltcoinLiveBot,updated $ETH buywall 20.9btc @ 0.02092632 http://altcoinlive.com/bittrex-eth-btc #altcoinlive (change -0.00005399),0,0,0,False
274,Dr. Melissa Carver@carver_dr,"Who would you choose for an archetype?

#archetype - tuning into character energy. 
#ether #vibrations #youarethemGreen Arrow0%Storm0%Batman0%Harley Quinn0%0 votes·Final results",0,0,0,False
275,AltcoinLive bot@AltcoinLiveBot,updated $ETH buywall 21.0btc @ 0.02098031 http://altcoinlive.com/bittrex-eth-btc #altcoinlive (change 0.00000093),0,0,0,False
276,indxio@indxio,#Russia Market Close || #Bitcoin: $446.93 | 394.8 EUR||  #Litecoin: 0.0083 BTC  || #Ethereum: 0.0212 BTC   || $BTC $LTC $ETH $RUB,0,0,0,False
277,forklog.media@forklogmedia,Investment in #Slockit’s #DAO have exceeded $13.6 million. #Ethereum price has gained nearly 25%. http://forklog.net/investment-in-slock-its-dao-have-exceeded-13-6-million-ethereum-price-has-gained-nearly-25/…,1,0,0,False
278,AltcoinLive bot@AltcoinLiveBot,updated $ETH buywall 21.0btc @ 0.02097938 http://altcoinlive.com/bittrex-eth-btc #altcoinlive (change 0.00005247),0,0,0,False
279,Timo Ξberhard@ZhuBajie72,A bittersweet smell of crash is in the air... $ETH $ETHXBT #Ether #Ethereum,0,0,0,False
281,BACKFEED@Backfeed_cc,"The dawn and delusions of the ‘Nerd Reich’: BlockBusters #1

https://opendemocracy.net/digitaliberties/jaya-klara-brekke/dawn-and-delusions-of-nerd-reich-blockbusters-1…
#blockchain #ethereum",0,0,0,False
282,Ethereum Price@EthereumPrice_,"#Ethereum: Ether Price Index
1 ETH =0.021312Ƀ XBT = $9.475500 USD
Today: -6.45%⬇︎ Last 24h: -3.15%⬇︎
https://ethereum-price.com",0,0,0,False
283,AltcoinLive bot@AltcoinLiveBot,updated $ETH buywall 20.9btc @ 0.02092691 http://altcoinlive.com/bittrex-eth-btc #altcoinlive (change -0.00005636),0,0,0,False
284,AltcoinLive bot@AltcoinLiveBot,updated $ETH buywall 21.0btc @ 0.02098327 http://altcoinlive.com/bittrex-eth-btc #altcoinlive (change 0.00001037),0,0,0,False
286,AltcoinLive bot@AltcoinLiveBot,updated $ETH buywall 21.0btc @ 0.02097290 http://altcoinlive.com/bittrex-eth-btc #altcoinlive (change -0.00005626),0,0,0,False
287,AltcoinLive bot@AltcoinLiveBot,updated $ETH buywall 21.0btc @ 0.02102916 http://altcoinlive.com/bittrex-eth-btc #altcoinlive (change 0.00008108),0,0,0,False
288,AltcoinLive bot@AltcoinLiveBot,updated $ETH buywall 20.9btc @ 0.02094808 http://altcoinlive.com/bittrex-eth-btc #altcoinlive (change 0.00005281),0,0,0,False
289,AltcoinLive bot@AltcoinLiveBot,updated $ETH buywall 20.9btc @ 0.02089527 http://altcoinlive.com/bittrex-eth-btc #altcoinlive (change -0.00007417),0,0,0,False
290,AltcoinLive bot@AltcoinLiveBot,updated $ETH buywall 21.0btc @ 0.02096944 http://altcoinlive.com/bittrex-eth-btc #altcoinlive (change 0.00005342),0,0,0,False
291,AltcoinLive bot@AltcoinLiveBot,updated $ETH buywall 20.9btc @ 0.02091602 http://altcoinlive.com/bittrex-eth-btc #altcoinlive (change -0.00007803),0,0,0,False
292,crush2bits@ragingbull27,Moving heavily into #ether,0,0,0,False
293,MarketBeat@MarketBeatCom,"Ethan Allen Interiors Director Clinton Clark Sells $17,005.00 in $ETH http://ift.tt/1rQDEUj",0,0,0,False
294,Timo Ξberhard@ZhuBajie72,$ETH Bull Beast Ded? WTF!? $ETHXBT @krakenfx looks bad. Going down hard? :( #Ether #Ethereum https://tradingview.com/chart/ETHXBT/IxA8s2zx-Bull-Beast-Ded-WTF/…,0,0,0,False
295,AltcoinLive bot@AltcoinLiveBot,updated $ETH buywall 21.0btc @ 0.02099405 http://altcoinlive.com/bittrex-eth-btc #altcoinlive (change 0.00005317),0,0,0,False
296,Ben King@Grimeandreason,I aint seen no capitulation stage yet $eth,0,0,0,False
297,AltcoinLive bot@AltcoinLiveBot,updated $ETH buywall 20.9btc @ 0.02094088 http://altcoinlive.com/bittrex-eth-btc #altcoinlive (change -0.00012816),0,0,0,False
298,AltcoinLive bot@AltcoinLiveBot,updated $ETH buywall 21.1btc @ 0.02106904 http://altcoinlive.com/bittrex-eth-btc #altcoinlive (change 0.00005271),0,0,0,False
299,AltcoinLive bot@AltcoinLiveBot,updated $ETH buywall 21.0btc @ 0.02101633 http://altcoinlive.com/bittrex-eth-btc #altcoinlive (change -0.00008592),0,0,0,False
300,AltcoinLive bot@AltcoinLiveBot,updated $ETH buywall 21.1btc @ 0.02110225 http://altcoinlive.com/bittrex-eth-btc #altcoinlive (change -0.00005705),1,0,0,False
301,AltcoinLive bot@AltcoinLiveBot,updated $ETH buywall 21.2btc @ 0.02115930 http://altcoinlive.com/bittrex-eth-btc #altcoinlive (change -0.00009071),1,0,0,False
302,AltcoinLive bot@AltcoinLiveBot,updated $ETH buywall 21.3btc @ 0.02125001 http://altcoinlive.com/bittrex-eth-btc #altcoinlive (change -0.00005695),1,0,0,False
303,AltcoinLive bot@AltcoinLiveBot,updated $ETH buywall 21.3btc @ 0.02130696 http://altcoinlive.com/bittrex-eth-btc #altcoinlive (change 0.00005693),1,0,0,False
314,@Moonwaterz@_Moonwaterz_,Replying to @TheUnaOS@TheUnaOS Does it come with #cryptocurrency wallets pre-installed? (or ability to install #Bitcoin #Ethereum #Monero wallets),1,0,0,False
315,AltcoinLive bot@AltcoinLiveBot,updated $ETH buywall 21.3btc @ 0.02125003 http://altcoinlive.com/bittrex-eth-btc #altcoinlive (change 0.00000002),0,0,0,False
316,AltcoinLive bot@AltcoinLiveBot,updated $ETH buywall 21.3btc @ 0.02125001 http://altcoinlive.com/bittrex-eth-btc #altcoinlive (change -0.00000001),0,0,0,False
317,AltcoinLive bot@AltcoinLiveBot,updated $ETH buywall 21.3btc @ 0.02125002 http://altcoinlive.com/bittrex-eth-btc #altcoinlive (change 0.00006911),0,0,0,False
319,The Intersectionist ¯\_(ツ)_/¯@DeanDemellweek,"Should you invest in a #DAO?
… and how rich can you get? https://linkedin.com/pulse/should-you-invest-dao-how-rich-can-get-dean-demellweek… #Ethereum cc @DAOhubORG @stephantual @slockitprojectShould you invest in a DAO? … and how rich can you get?Many of you have asked me if you should invest in a DAO. Since the answer is not a plain ‘yes’ or ‘no’, I will share my thoughts hoping to help you reach your decision easier.linkedin.com",1,0,0,False
320,AltcoinLive bot@AltcoinLiveBot,updated $ETH buywall 21.2btc @ 0.02118091 http://altcoinlive.com/bittrex-eth-btc #altcoinlive (change -0.00005620),0,0,0,False
321,BitcoinBuzz vega9@BitcoinBuzzV9,http://bitcoinbuzz.vega9.com - Hot topics: #blockchain #bitcoin #ethereum #btc #crypto #cryptocurrency,1,0,0,False
322,AltcoinLive bot@AltcoinLiveBot,updated $ETH buywall 21.2btc @ 0.02123711 http://altcoinlive.com/bittrex-eth-btc #altcoinlive (change 0.00005785),0,0,0,False
323,AltcoinLive bot@AltcoinLiveBot,updated $ETH buywall 21.2btc @ 0.02117926 http://altcoinlive.com/bittrex-eth-btc #altcoinlive (change -0.00017262),0,0,0,False
324,AltcoinLive bot@AltcoinLiveBot,updated $ETH buywall 21.4btc @ 0.02135188 http://altcoinlive.com/bittrex-eth-btc #altcoinlive (change 0.00045570),0,0,0,False
325,AltcoinLive bot@AltcoinLiveBot,updated $ETH buywall 20.9btc @ 0.02089618 http://altcoinlive.com/bittrex-eth-btc #altcoinlive (change -0.00038309),0,0,0,False
326,AltcoinLive bot@AltcoinLiveBot,updated $ETH buywall 21.3btc @ 0.02127927 http://altcoinlive.com/bittrex-eth-btc #altcoinlive (change 0.00000002),0,0,0,False
327,AltcoinLive bot@AltcoinLiveBot,updated $ETH buywall 21.3btc @ 0.02127925 http://altcoinlive.com/bittrex-eth-btc #altcoinlive (change 0.00008053),0,0,0,False
328,AltcoinLive bot@AltcoinLiveBot,updated $ETH buywall 21.2btc @ 0.02119872 http://altcoinlive.com/bittrex-eth-btc #altcoinlive (change 0.00013871),0,0,0,False
329,@goodc0re@bitcoinhackers.org@goodc0re,"Dash Is Ready for Business: Dash Developers Ready Point-of-Sale Integration http://cointelegraph.com/news/dash-is-ready-for-business-dash-developers-ready-point-of-sale-integration… #dashdc #bitcoin #ethereum #btc #dashDash Is Ready for Business: Dash Developers Ready Point-of-Sale IntegrationBitcoin currently dominates the world of cryptocurrency merchant adoption. Not for long. Dash developer Moocowmoo talks Dash N’ Drink machine, WooCommerce plugin, and future merchant integration.cointelegraph.com",0,0,0,False
336,AltcoinLive bot@AltcoinLiveBot,updated $ETH buywall 21.1btc @ 0.02106001 http://altcoinlive.com/bittrex-eth-btc #altcoinlive (change -0.00005426),0,0,0,False
337,AltcoinLive bot@AltcoinLiveBot,updated $ETH buywall 21.1btc @ 0.02111427 http://altcoinlive.com/bittrex-eth-btc #altcoinlive (change 0.00005399),0,0,0,False
338,AltcoinLive bot@AltcoinLiveBot,updated $ETH buywall 21.1btc @ 0.02106028 http://altcoinlive.com/bittrex-eth-btc #altcoinlive (change -0.00005396),0,0,0,False
339,AltcoinLive bot@AltcoinLiveBot,updated $ETH buywall 21.1btc @ 0.02111424 http://altcoinlive.com/bittrex-eth-btc #altcoinlive (change 0.00000002),1,0,0,False
340,AltcoinLive bot@AltcoinLiveBot,updated $ETH buywall 21.5btc @ 0.02111422 http://altcoinlive.com/bittrex-eth-btc #altcoinlive (change 0.00005421),0,0,0,False
341,AltcoinLive bot@AltcoinLiveBot,updated $ETH buywall 21.1btc @ 0.02106001 http://altcoinlive.com/bittrex-eth-btc #altcoinlive (change 0.00005969),0,0,0,False
342,BitcoinAgile@bitcoinagile,#ethereum Price Technical Analysis: Uptrend Hits Recent High http://altcointoday.com/ethereum-price-technical-analysis-uptrend-hits-recent-high…,1,2,0,False
343,AltcoinLive bot@AltcoinLiveBot,updated $ETH buywall 21.0btc @ 0.02100032 http://altcoinlive.com/bittrex-eth-btc #altcoinlive (change -0.00005969),0,0,0,False
345,AltcoinLive bot@AltcoinLiveBot,updated $ETH buywall 21.1btc @ 0.02106001 http://altcoinlive.com/bittrex-eth-btc #altcoinlive (change -0.00007681),1,0,0,False
346,AltcoinLive bot@AltcoinLiveBot,updated $ETH buywall 21.1btc @ 0.02113682 http://altcoinlive.com/bittrex-eth-btc #altcoinlive (change -0.00008372),0,0,0,False
347,Aroonist @saenomour,Replying to @Melisscious88@go2sleepjj hold on to those. Eventually BTC will be pegged to $GOLD as the $weakens. I still hold a nice chunk but I am heavy in $ETH.,1,0,0,False
348,BitcoinBuzz vega9@BitcoinBuzzV9,http://bitcoinbuzz.vega9.com - Hot topics: #blockchain #fre #bitcoin #litecoin #ethereum #crypto,0,0,0,False
349,Crypto Jeebus@crypto_jesus,"Switched to Parity for main net use. Geth is still quicker when syncing up from zero, but, otherwise, is several times slower #ethereum",1,1,1,False
350,AltcoinLive bot@AltcoinLiveBot,updated $ETH buywall 21.2btc @ 0.02122054 http://altcoinlive.com/bittrex-eth-btc #altcoinlive (change 0.00000012),0,0,0,False
351,Alfred Jordan@SovereignFive,Replying to @a3456gf@a3456gf Self appointed tyrants who will fade away. #blockchain #bitcoin #ethereum #vertaseum #DAS,0,0,0,False
352,AltcoinLive bot@AltcoinLiveBot,updated $ETH buywall 21.2btc @ 0.02122042 http://altcoinlive.com/bittrex-eth-btc #altcoinlive (change -0.00007938),0,0,0,False
353,AltcoinLive bot@AltcoinLiveBot,updated $ETH buywall 21.3btc @ 0.02129980 http://altcoinlive.com/bittrex-eth-btc #altcoinlive (change 0.00002013),0,0,0,False
354,AltcoinLive bot@AltcoinLiveBot,updated $ETH buywall 21.3btc @ 0.02127967 http://altcoinlive.com/bittrex-eth-btc #altcoinlive (change -0.00002013),0,0,0,False
355,AltcoinLive bot@AltcoinLiveBot,updated $ETH buywall 21.3btc @ 0.02129980 http://altcoinlive.com/bittrex-eth-btc #altcoinlive (change 0.00007938),0,0,0,False
356,AltcoinLive bot@AltcoinLiveBot,updated $ETH buywall 21.2btc @ 0.02122042 http://altcoinlive.com/bittrex-eth-btc #altcoinlive (change -0.00006250),0,0,0,False
357,Ethereum SE@StackEthereum,Why the DAO contract have two reward accounts? http://ethereum.stackexchange.com/questions/3547/why-the-dao-contract-have-two-reward-accounts… #ethereum #dao #reward #slock.it,0,0,0,False
367,AltcoinLive bot@AltcoinLiveBot,updated $ETH buywall 21.3btc @ 0.02128292 http://altcoinlive.com/bittrex-eth-btc #altcoinlive (change -0.00008307),0,0,0,False
368,AltcoinLive bot@AltcoinLiveBot,updated $ETH buywall 21.4btc @ 0.02136599 http://altcoinlive.com/bittrex-eth-btc #altcoinlive (change -0.00012152),0,0,0,False
369,AltcoinLive bot@AltcoinLiveBot,updated $ETH buywall 21.5btc @ 0.02148751 http://altcoinlive.com/bittrex-eth-btc #altcoinlive (change -0.00013916),0,0,0,False
370,AltcoinLive bot@AltcoinLiveBot,updated $ETH buywall 21.6btc @ 0.02162667 http://altcoinlive.com/bittrex-eth-btc #altcoinlive (change 0.00005440),0,0,0,False
371,AltcoinLive bot@AltcoinLiveBot,updated $ETH buywall 21.6btc @ 0.02157227 http://altcoinlive.com/bittrex-eth-btc #altcoinlive (change -0.00005704),0,0,0,False
373,AltcoinLive bot@AltcoinLiveBot,updated $ETH buywall 21.6btc @ 0.02162931 http://altcoinlive.com/bittrex-eth-btc #altcoinlive (change -0.00010816),0,0,0,False
374,AltcoinLive bot@AltcoinLiveBot,updated $ETH buywall 21.7btc @ 0.02173747 http://altcoinlive.com/bittrex-eth-btc #altcoinlive (change 0.00006805),0,0,0,False
375,Yuanfen~Flow@YuanfenFlow2,"#Ethereum Foundation and Wanxiang Blockchain Labs announce Devcon2 and Blockchain Summit in Shanghai Sep 19–24, 2016 http://bit.ly/1rsR4VT",0,0,0,False
376,AltcoinLive bot@AltcoinLiveBot,updated $ETH buywall 21.7btc @ 0.02166942 http://altcoinlive.com/bittrex-eth-btc #altcoinlive (change 0.00005648),0,0,0,False
377,AltcoinLive bot@AltcoinLiveBot,updated $ETH buywall 21.6btc @ 0.02161294 http://altcoinlive.com/bittrex-eth-btc #altcoinlive (change 0.00005410),0,0,0,False
378,BitcoinBuzz vega9@BitcoinBuzzV9,http://bitcoinbuzz.vega9.com - Hot topics: #fre #bitfinex #bitcoin #litecoin #ethereum #blockchain,0,0,0,False
379,Ethereum Price@EthereumPrice_,"#Ethereum: Ether Price Index
1 ETH =0.021828Ƀ XBT = $9.774500 USD
Today: -4.19%⬇︎ Last 24h: +0.13%⬆︎
https://ethereum-price.com",0,0,0,False
380,Ethereum SE@StackEthereum,Do ethereum addresses follow a standard format? http://ethereum.stackexchange.com/questions/3542/do-ethereum-addresses-follow-a-standard-format… #ethereum #accounts #addresses #cryptography,0,0,0,False
381,How To Get Bitcoins  #KBF@htgbitcoins,Webinars will kick off in the second week of May https://medium.com/@Digix/webinars-will-kick-off-in-the-second-week-of-may-de45cc61d4e0#.z35fk89go… @DigixGlobal #Ethereum #Blockchain #Proposals #FrameworkWebinars will kick off in the second week of MayWe have received a few project proposals in preparation for DigixDAO when it goes live.medium.com,1,0,0,False
382,Fintech news@currencies111,"Ethereum Price Technical Analysis – $10.00 Target Hit, ETH In Uptrend
http://bit.ly/1WELVFW
#ethereum #altcoin #cryptocurrency",0,0,0,False
383,Ethereum SE@StackEthereum,how to combine two strings together [duplicate] http://ethereum.stackexchange.com/questions/3535/how-to-combine-two-strings-together… #ethereum #contractdesign,0,0,0,False
384,Ethereum SE@StackEthereum,How to export transactions into a CSV file http://ethereum.stackexchange.com/questions/3536/how-to-export-transactions-into-a-csv-file… #ethereum #transactions #accounts #csv #export,0,0,0,False
392,Ethereum SE@StackEthereum,Is ethereum based on bitcoin? http://ethereum.stackexchange.com/questions/3537/is-ethereum-based-on-bitcoin… #ethereum #bitcoin #history #forks #altcoin,0,0,0,False
393,Ethereum SE@StackEthereum,"How do I tell whether the Mist/Wallet is ""fast"" or ""full"" syncing? http://ethereum.stackexchange.com/questions/3538/how-do-i-tell-whether-the-mist-wallet-is-fast-or-full-syncing… #ethereum #goethereum #blockchain #fast",0,0,0,False
394,Ethereum SE@StackEthereum,Are there any alternatives for Meteor JS to build DApps? http://ethereum.stackexchange.com/questions/3539/are-there-any-alternatives-for-meteor-js-to-build-dapps… #ethereum #dappdevelopment #dapps #javascript #meteorjs,1,1,0,False
395,Ethereum SE@StackEthereum,How can I store big files on the blockchain? http://ethereum.stackexchange.com/questions/3540/how-can-i-store-big-files-on-the-blockchain… #ethereum #blockchain #storage #ipfs #swarm,0,0,0,False
397,AltcoinLive bot@AltcoinLiveBot,updated $ETH buywall 21.6btc @ 0.02155884 http://altcoinlive.com/bittrex-eth-btc #altcoinlive (change -0.00005833),0,0,0,False
398,Bitcoin@bitcoinpoet,Ethereum mentioned as a particular alternative to Bitcoin:       submitted by    /u/Sugardr1ve  [li... http://bit.ly/1Z6lEPJ #ethereum,0,0,0,False
399,Bitcoin@bitcoinpoet,Unveiling AKASHA: A Next-Generation Social Media Network Immune To Censorship By Design:       subm... http://bit.ly/1Z6lEzp #ethereum,1,0,0,False
401,AltcoinLive bot@AltcoinLiveBot,updated $ETH buywall 21.6btc @ 0.02161717 http://altcoinlive.com/bittrex-eth-btc #altcoinlive (change 0.00005422),0,0,0,False
402,Drake moves Fan@Steak_Shirt,Interested in mining cryptocurrency? Use promo-code: r8UBTu for 3% discount at http://ift.tt/1mvVNC1 #ethereum #bitcoin #invest #eth #btc,0,0,0,False
404,AltcoinLive bot@AltcoinLiveBot,updated $ETH buywall 21.6btc @ 0.02156295 http://altcoinlive.com/bittrex-eth-btc #altcoinlive (change -0.00002654),0,0,0,False
406,GeilDanke VR@GeilDanke,"Blockchain News #6 are out. Subscribe to receive #Bitcoin, #Ethereum and #Blockchain #Technology news for free.Quote TweetRichard Brammer@richardbrammer · May 2, 2016Blockchain News: #CraigWright, #Messaging, #Peace & #Stability, #Banking - http://eepurl.com/b0dqCv",0,0,0,False
407,Ethereum SE@StackEthereum,how to combine two strings together http://ethereum.stackexchange.com/questions/3535/how-to-combine-two-strings-together… #ethereum #contractdesign,0,0,0,False
410,AltcoinLive bot@AltcoinLiveBot,updated $ETH buywall 21.6btc @ 0.02158949 http://altcoinlive.com/bittrex-eth-btc #altcoinlive (change -0.00005661),1,0,0,False
415,BitcoinBuzz vega9@BitcoinBuzzV9,http://bitcoinbuzz.vega9.com - Hot topics: #bitfinex #newproducts #bitcoin #litecoin #ethereum #blockchain,1,0,0,False
416,AltcoinLive bot@AltcoinLiveBot,updated $ETH buywall 21.6btc @ 0.02164610 http://altcoinlive.com/bittrex-eth-btc #altcoinlive (change 0.00005464),0,0,0,False
417,AltcoinLive bot@AltcoinLiveBot,updated $ETH buywall 21.6btc @ 0.02159146 http://altcoinlive.com/bittrex-eth-btc #altcoinlive (change -0.00007797),0,0,0,False
418,AltcoinLive bot@AltcoinLiveBot,updated $ETH buywall 21.7btc @ 0.02166943 http://altcoinlive.com/bittrex-eth-btc #altcoinlive (change 0.00005922),0,0,0,False
419,ALΞCO@a_l_e_c_o,"#Ethereum is a platform that offers many #benefits for the #IoT & #smartcontracts. @themerklenews @slockitprojectQuote TweetNull TX@nulltxnews · May 3, 2016http://ift.tt/1THArPl Ethereum Can Solve The Internet of Thing’s Problems #bitcoin #bitcoinnews #cryptocurrency",0,0,0,False
420,AltcoinLive bot@AltcoinLiveBot,updated $ETH buywall 21.6btc @ 0.02161021 http://altcoinlive.com/bittrex-eth-btc #altcoinlive (change -0.00005485),0,0,0,False
421,AltcoinLive bot@AltcoinLiveBot,updated $ETH buywall 21.7btc @ 0.02166506 http://altcoinlive.com/bittrex-eth-btc #altcoinlive (change 0.00005456),0,0,0,False
422,BitcoinAgile@bitcoinagile,The DAO Raises Over US$13 Million During First Three Days of Crowdsale #Ethereum #Mobotiq http://bit.ly/24lqJKZ,0,0,0,False
424,AltcoinLive bot@AltcoinLiveBot,updated $ETH buywall 21.6btc @ 0.02161050 http://altcoinlive.com/bittrex-eth-btc #altcoinlive (change 0.00005511),0,0,0,False
425,AltcoinLive bot@AltcoinLiveBot,updated $ETH buywall 21.6btc @ 0.02155539 http://altcoinlive.com/bittrex-eth-btc #altcoinlive (change 0.00005438),0,0,0,False
428,Andy@cryptowanderer,"Note #ethereum's 1st nonce

Does this nonce-sense somehow explain something of our universe's underlying structures?Quote Tweetvitalik.eth@VitalikButerin · May 2, 2016More incontrovertible proof that I am the founder of ethereum.",1,0,0,False
429,indxio@indxio,#China Market Close || #Bitcoin: $443.65 | 392.93 EUR||  #Litecoin: 0.0083 BTC  || #Ethereum: 0.0218 BTC   || $BTC $LTC $ETH $RMB,0,0,0,False
430,CoinFollower@CoinFollowerCom,The DAO Raises Over US$13 Million During First Three Days of Crowdsale: #ethereum http://coinfollower.com/1623/The%20DAO%20Raises%20Over%20US$13%20Million%20During%20First%20Three%20Days%20of%20Crowdsale…,1,0,0,False
431,Kid Ding aka Green Candel@KidsDynamite,"$ETH>Wallet stopped syncing at 90% = Mined coins = Lost! DAO transaction site shows, people can`t handle it, too may errors. ...Okay....",0,0,0,False
433,AltcoinLive bot@AltcoinLiveBot,updated $ETH buywall 21.5btc @ 0.02150101 http://altcoinlive.com/bittrex-eth-btc #altcoinlive (change -0.00011110),0,0,0,False
434,CryptKeeper@CryptKeeperBTT,"ChinaLedger – China’s Own Personal #Blockchain Project
#ethereum #bitcoinChinaLedger - China's Own Personal Blockchain ProjectChina has decided to start its own distributed ledger alliance, calling it ChinaLedger, the resulting blockchain platform will be used by the Chinese fintech sector. Read more...newsbtc.com",0,0,0,False
435,AltcoinLive bot@AltcoinLiveBot,updated $ETH buywall 21.6btc @ 0.02161211 http://altcoinlive.com/bittrex-eth-btc #altcoinlive (change 0.00005426),0,0,0,False
436,AltcoinLive bot@AltcoinLiveBot,updated $ETH buywall 21.6btc @ 0.02155785 http://altcoinlive.com/bittrex-eth-btc #altcoinlive (change -0.00007398),1,0,0,False
437,AltcoinLive bot@AltcoinLiveBot,updated $ETH buywall 21.6btc @ 0.02163183 http://altcoinlive.com/bittrex-eth-btc #altcoinlive (change -0.00000107),0,0,0,False
438,AltcoinLive bot@AltcoinLiveBot,updated $ETH buywall 21.6btc @ 0.02163290 http://altcoinlive.com/bittrex-eth-btc #altcoinlive (change -0.00006048),0,0,0,False
439,AltcoinWeekly@altcoinweekly,The latest Ethereum price is USD 9.76. For historical #Ethereum price charts - http://buff.ly/1Y3h6Jz,0,0,0,False
440,CoinGecko@coingecko,The latest Ethereum price is USD 9.76. For historical #Ethereum price charts - http://buff.ly/1Y3h6Jz,0,0,0,False
441,AltcoinLive bot@AltcoinLiveBot,updated $ETH buywall 21.7btc @ 0.02169338 http://altcoinlive.com/bittrex-eth-btc #altcoinlive (change 0.00005452),0,0,0,False
442,AltcoinLive bot@AltcoinLiveBot,updated $ETH buywall 21.6btc @ 0.02163886 http://altcoinlive.com/bittrex-eth-btc #altcoinlive (change 0.00005500),0,0,0,False
443,EthereumNZ@EthereumNZ,.@ethereumNZ is a mini conf in WLG/AKL geared around learning about #ethereum & how it will impact your industry http://buff.ly/23hkHFm,2,0,0,False
445,NEWSBTC@newsbtc,"#Ethereum price change in bias forecast was a success,as ETH/#USD spiked #US #currency http://newsbtc.com/2016/05/03/ethereum-price-technical-analysis-10-00-target-hit-eth-uptrend/…",2,2,0,False
446,AltcoinLive bot@AltcoinLiveBot,updated $ETH buywall 21.6btc @ 0.02158386 http://altcoinlive.com/bittrex-eth-btc #altcoinlive (change -0.00006450),0,0,0,False
447,AltcoinLive bot@AltcoinLiveBot,updated $ETH buywall 21.6btc @ 0.02164836 http://altcoinlive.com/bittrex-eth-btc #altcoinlive (change -0.00000900),0,0,0,False
448,AltcoinLive bot@AltcoinLiveBot,updated $ETH buywall 21.7btc @ 0.02165736 http://altcoinlive.com/bittrex-eth-btc #altcoinlive (change 0.00005603),0,0,0,False
449,AltcoinLive bot@AltcoinLiveBot,updated $ETH buywall 21.6btc @ 0.02160133 http://altcoinlive.com/bittrex-eth-btc #altcoinlive (change -0.00012344),0,0,0,False
450,Ethereum Price@EthereumPrice_,"#Ethereum: Ether Price Index
1 ETH =0.021997Ƀ XBT = $9.794450 USD
Today: -3.45%⬇︎ Last 24h: +8.31%⬆︎
https://ethereum-price.com",0,0,0,False
451,AltcoinLive bot@AltcoinLiveBot,updated $ETH buywall 21.7btc @ 0.02172477 http://altcoinlive.com/bittrex-eth-btc #altcoinlive (change 0.00005433),0,0,0,False
452,Robin Hood Co-op@RobinHoodCoop,April [sic] Newsletter out. Lot's of new stuff coming ... http://us5.campaign-archive1.com/?u=26ad249c931b759df41f6ebb8&id=8715bc5afb&e=41c7c66fee… #ethereum #cryptoequity #shadowparasite #shorting,1,0,0,False
453,AltcoinLive bot@AltcoinLiveBot,updated $ETH buywall 21.7btc @ 0.02167044 http://altcoinlive.com/bittrex-eth-btc #altcoinlive (change 0.00011037),0,0,0,False
460,AltcoinLive bot@AltcoinLiveBot,updated $ETH buywall 21.6btc @ 0.02156007 http://altcoinlive.com/bittrex-eth-btc #altcoinlive (change -0.00012347),0,0,0,False
461,AltcoinLive bot@AltcoinLiveBot,updated $ETH buywall 21.7btc @ 0.02168354 http://altcoinlive.com/bittrex-eth-btc #altcoinlive (change 0.00007292),1,0,0,False
462,AltcoinLive bot@AltcoinLiveBot,updated $ETH buywall 21.6btc @ 0.02161062 http://altcoinlive.com/bittrex-eth-btc #altcoinlive (change 0.00005489),0,0,0,False
463,AltcoinLive bot@AltcoinLiveBot,updated $ETH buywall 21.6btc @ 0.02155573 http://altcoinlive.com/bittrex-eth-btc #altcoinlive (change 0.00005477),0,0,0,False
464,AltcoinLive bot@AltcoinLiveBot,updated $ETH buywall 21.5btc @ 0.02150096 http://altcoinlive.com/bittrex-eth-btc #altcoinlive (change -0.00006049),0,0,0,False
466,AltcoinLive bot@AltcoinLiveBot,updated $ETH buywall 21.6btc @ 0.02156145 http://altcoinlive.com/bittrex-eth-btc #altcoinlive (change -0.00019725),0,0,0,False
467,BitcoinAgile@bitcoinagile,Software Developer #ethereum Smart Contracts - #bitcoin-vacancycom #Working #job #unix http://bit.ly/1TsxiR0,0,0,0,False
468,BitcoinAgile@bitcoinagile,#ethereum support to 15$ by tomorrow! #btc #news http://bit.ly/1TswQCh,1,1,0,False
470,AltcoinLive bot@AltcoinLiveBot,updated $ETH buywall 21.8btc @ 0.02175870 http://altcoinlive.com/bittrex-eth-btc #altcoinlive (change 0.00005869),0,0,0,False
471,Bitsbetrippin@BitsBeTrippin,6x R9 370 4GB OC @ASUS_ROG STRIX #eth #ethereum mining rig on next BBT Livefeed on single Platinum @Corsair AX860,3,2,0,False
472,BitcoinAgile@bitcoinagile,"#ethereum Price Technical Analysis  $10.00 Target Hit, ETH In Uptrend - NEWSBTC #price http://newsbtc.com/2016/05/03/ethereum-price-technical-analysis-10-00-target-hit-eth-uptrend…",1,0,0,False
473,AltcoinLive bot@AltcoinLiveBot,updated $ETH buywall 21.7btc @ 0.02170001 http://altcoinlive.com/bittrex-eth-btc #altcoinlive (change 0.00006336),0,0,0,False
474,BitcoinAgile@bitcoinagile,BTC Relay: A Bridge Between the #bitcoin #blockchain & #ethereum Smart Contracts #finyear http://bit.ly/1WErUiK,0,0,0,False
475,AltcoinLive bot@AltcoinLiveBot,updated $ETH buywall 21.7btc @ 0.02170002 http://altcoinlive.com/bittrex-eth-btc #altcoinlive (change -0.00015249),0,0,0,False
477,AltcoinLive bot@AltcoinLiveBot,updated $ETH buywall 21.9btc @ 0.02185251 http://altcoinlive.com/bittrex-eth-btc #altcoinlive (change -0.00007078),0,0,0,False
478,BitcoinAgile@bitcoinagile,"Hot Tip: The DAO, literally.  How to Become a Venture Capitalist. #HotTip #DAO #Ethereum http://bit.ly/1WEqswS",0,0,0,False
479,AltcoinLive bot@AltcoinLiveBot,updated $ETH buywall 21.9btc @ 0.02192329 http://altcoinlive.com/bittrex-eth-btc #altcoinlive (change 0.00000285),0,0,0,False
480,ΞTHΞЯΞUM ÐΞV NΞWS ⟠@Eth_Dev_News,"#Ethereum can validate #Bitcoin transactions, which allows for token transfer between chains. #fintech #gamedev #IoT",5,4,0,False
481,Crypto Price Ticker@TickerCrypto,"#Ethereum #ETH Rank:2 Last:฿0.02247001(11.100%) High:฿0.02293434 Low:฿0.02017869 Vol:฿87,904 Market Cap:฿1,789,829 / $793,429,589.89",0,0,0,False
483,AltcoinLive bot@AltcoinLiveBot,updated $ETH buywall 21.9btc @ 0.02192044 http://altcoinlive.com/bittrex-eth-btc #altcoinlive (change 0.00006783),1,0,0,False
484,AltcoinLive bot@AltcoinLiveBot,updated $ETH buywall 21.9btc @ 0.02185261 http://altcoinlive.com/bittrex-eth-btc #altcoinlive (change 0.00001378),0,0,0,False
485,AltcoinLive bot@AltcoinLiveBot,updated $ETH buywall 21.8btc @ 0.02183883 http://altcoinlive.com/bittrex-eth-btc #altcoinlive (change 0.00008349),0,0,0,False
486,AltcoinLive bot@AltcoinLiveBot,updated $ETH buywall 21.8btc @ 0.02175534 http://altcoinlive.com/bittrex-eth-btc #altcoinlive (change -0.00005810),0,0,0,False
489,AltcoinLive bot@AltcoinLiveBot,updated $ETH buywall 21.8btc @ 0.02181344 http://altcoinlive.com/bittrex-eth-btc #altcoinlive (change 0.00011343),0,0,0,False
490,AltcoinLive bot@AltcoinLiveBot,updated $ETH buywall 21.7btc @ 0.02170001 http://altcoinlive.com/bittrex-eth-btc #altcoinlive (change -0.00015250),0,0,0,False
491,AltcoinLive bot@AltcoinLiveBot,updated $ETH buywall 21.9btc @ 0.02185251 http://altcoinlive.com/bittrex-eth-btc #altcoinlive (change -0.00020112),0,0,0,False
492,AltcoinLive bot@AltcoinLiveBot,updated $ETH buywall 22.1btc @ 0.02205363 http://altcoinlive.com/bittrex-eth-btc #altcoinlive (change -0.00011250),0,0,0,False
