,user,text,likes,retweets,replies,is_thread
0,Leo Bekhuis@leobekhuis,What does Zcash mean for Ethereum? http://buff.ly/2hd0a7n #zcash #ethereum #blockchain,2,1,0,False
1,Roma@RRbro1,"Mom, your son - crypto shareholder!
Tired of exchange gold bars to buy chikenburger!
#bitcoin #ethereum #crypto $exp #poloniex",1,1,0,False
2,crypthal@crypthal,"The ongoing strength of #bitcoin is testing my automated trading, I am #flatlining, (down 0.7% over 2 days), time to trade in #ethereum?",2,1,0,False
3,ConsenSys@Consensys,"Making Ethereum stronger with every #hardfork #ethereum #consensusfailure #Geth #Paroity https://futurism.com/how-this-blockchain-gets-stronger-from-each-attack/… @FuturismHard Fork: Blockchain Gets Stronger From Each AttackThe core team at Ethereum responds to the blockchain platform's recent consensus failure error, which temporarily lowered confidence in the network. As issues are identified and resolved, the...futurism.com",15,18,0,False
4,BlockCDN@BlockCDN,BlockCDN by numbers. See how we are doing #ethereum #bitcoin #altcoins #cryptocurrency #fintech,89,175,1,False
5,Λnorak@AnorakTech,Added Gigabyte RX480 Gaming G1 4GB Hynix roms to https://anorak.tech/Anoraks-VBIOS-collection… #zcash #ethereum #cryptocurrency Happy flashing!,2,2,0,False
6,fintechfolk@fintechfolk,Thanks  for registering for FinTechFolk - http://zpr.io/Mnfj #fintech #ethereum #bitcoin #blockchain,2,1,0,False
7,Summer@Summerh_23, artist #sunnymccoy YouTube Sunny McCoy watch full videos #ishouldb #boys #ether #ep coming soon #twenty7 special cloth,1,0,0,False
8,Vindyne8@Vindyne8,#RT Chronobank ICO in 27mins! Don`t miss 30% bonus. Go to chronobank.io register & access  dashboard #blockchain #ethereum #bitcoin #startup,17,16,0,False
9,matt edwards@meds888,"Electron is trying to sell a #blockchain makeover to the UK’s energy sector http://tcrn.ch/2hjEkiu #ethereum #technology #horizonscanningElectron is trying to sell a blockchain makeover to the UK’s energy sectorUK startup Electron is hoping to convince the energy sector to buy into the transformative potential of blockchain technology -- and, down the line, unlock commercialization opportunities for over...techcrunch.com",1,0,0,False
10,Ali⁦⁦@FOREX_82,Netherlands' I/O Digital to Release #Blockchain Upgrade http://the-blockchain.com/2016/12/14/io-digital-release-blockchain-upgrade/… via @blockchainers #iocoin $ioc $xmr $fct $pot $ETC $ETH,1,0,0,False
11,Netcube93@Netcube93,New Contest & Collaboration Platform: #Lykke Streams https://steemit.com/lykke/@ph03n1xii/new-contest-and-collaboration-platform-lykke-streams… #bitcoin #blockchain #ethereum #cryptocurrencyNew Contest & Collaboration Platform: Lykke Streams — SteemitAbout Lykke:  Lykke is building a global marketplace where users would be able to trade all classes of financial… by ph03n1xiisteemit.com,3,2,0,False
12,Branche@DESbranche,Thanks for following us @TizianoLenoci and @The_River_2! #fintech #blockchain #financialservices #bitcoin #ethereum #altcoin #crypto #Tardis,3,2,0,False
13,Péter Szilágyi@peter_szilagyi,"Geth 1.5.5 ""Doesn't look like anything to me"" released! Lots of small fixes for small annoyances! #Ethereum #golangRelease Doesn't look like anything to me (1.5.5) · ethereum/go-ethereumGeth 1.5.5 is a patch release, mostly fixing bugs and annoyances. The brave soul/sole feature of the release is support for exporting the blockchain to- and importing it from gzipped data streams (...github.com",57,43,2,False
14,OKorator@OKcashOrator,"“ #IoT for your crypto needs” by #Okcash Newsletter https://medium.com/@OkcashNews/iots-for-your-crypto-needs-c7d2f9a51179#.n466w6v3j… #iot #fintech #cryptocurrency #bitcoin $ok $dash $etc $eth $ampIoT for your crypto needsSince September 2009, when bitcoin was first introduced, many people have been gearing up with bitcoin miners, which is necessary to be…okcash.news",10,14,0,False
15,BlockCDN@BlockCDN,BlockCDN is partnered with Weiyi which translated as 'The Only Network' http://wy.cn/company/20160412_559.html… #ethereum #VC #BTC #blockchain #technology,65,98,0,False
16,Chrono.tech@ChronotechNews,#RT ICO starts in 1.5 hours. Join us on slack. Visit: https://chronobank.herokuapp.com #blockchain #bitcoin #ethereum,19,13,0,False
17,Vindyne8@Vindyne8,#RT ChronoBank. ICO starts in 56 minutes! ICOrating report. http://icorating.com/project/23/ChronoBank… #blockchain #ethereum #bitcoin,17,18,0,False
18,Vindyne8@Vindyne8,#RT ICO starts in 2 hours 40mins. Visit now chonobank.io. Time is Money http://coindesk.com/time-money-alternative-banking-moves-blockchain/… #ethereum #bitcoin #ltc #nem,16,16,0,False
19,Chrono.tech@ChronotechNews,#RT ChronoBank. ICO in 2 hours. Whitepaper. http://publizr.com/twitter/chronobanknews-whitepaper-dot-pdf#/0… #blockchain #bitcoin #ethereum #fintech #startup,24,17,1,False
20,krunal soni@krunal_soni,#Blockchain #ethereum Microsoft Announces Asia’s ‘First Blockchain Consortium’ in Taiwan https://cryptocoinsnews.com/?p=97635 via @CryptoCoinsNews,3,0,0,False
21,ConsenSys@Consensys,"#ConsenSysWeekly: A #Retro of 2016 #Blockchain Predictions by @ConsenSysAndrew #Ethereum's Growing Pains & More

http://buff.ly/2hmy6OU",17,8,0,False
22,cryptograffiti@cryptograffiti,"Silicon Valley in a nutshell.

#blockchain #bitcoin #cryptocurrency #ethereum",6,1,0,False
23,/r/Ethereum@r_Ethereum,TIFU sending ETH to a ETC wallet. #EthereumTIFU sending ETH to a ETC wallet.reddit.com,2,0,0,False
24,Michael Wuehler@wuehler,"Join us tonight @ThinkRiseNY to learn about #DFINITY with @dominic_w @String_Lab #Ethereum #NYCDFINITY: Hail the Decentralized CloudWed, Dec 14, 2016, 6:30 PM: Bitcoin gave us a decentralized protocol that produced an indestructible, tamperproof virtual ledger. Ethereum took this further with a decentralized protocol that producedmeetup.com",6,4,0,False
25,Chrono.tech@ChronotechNews,#RT ChronoBank. ICO starts in 1 hour. ICOrating report. http://icorating.com/project/23/ChronoBank… #blockchain #ethereum #bitcoin,15,2,0,False
26,WardOne Himself @WardOneApps,"#Ethereum May Spring Surprises in #2017
https://cointelegraph.com/news/ethereum-may-spring-surprises-in-2017?utm_campaign=crowdfire&utm_content=crowdfire&utm_medium=social&utm_source=twitter…",2,0,0,False
27,Amber @AmberBaldet,"As promised... Cakeshop, a pretty slick IDE/SDK for Quorum & #Ethereum blockchains, is now open source ConsenSys/cakeshopAn integrated development environment and SDK for Ethereum-like ledgers - ConsenSys/cakeshopgithub.com",37,32,5,False
28,Christian Seberino@c_seberino,Blockchain Demystified: great explanatory video http://buff.ly/2hlReKC #etc #eth #ethereumclassic #ethereum #blockchains,2,1,0,False
29,Bitcoin Brasil@BitcoinBr10,Your Phone is Better Than Chase Manhattan: Stories Behind Blockchain https://studiobitcoin.blogspot.com.br/2016/12/seu-telefone-e-melhor-do-que.html… #Bitcoin #blockchain #ethereum #coindesk #btc,2,1,0,False
30,Ethereum Price@EthereumPrice_,"#Ethereum: Ether Price Index
1 ETH =0.010708Ƀ XBT = $8.349250 USD
Today: +16.01%⬆︎ Last 24h: +17.06%⬆︎
https://ethereum-price.com",1,1,0,False
31,Paul Butler@PaulBTheBest,"Be a part of the growing change #invest #crowdfunding #FinTech #Ethereum #bitcoin #altcoins #cryptocurrency #gamechangerQuote TweetBlockCDN@BlockCDN · Dec 14, 2016BlockCDN by numbers. See how we are doing #ethereum #bitcoin #altcoins #cryptocurrency #fintech",1,3,0,False
32,Tobias Pfab@tobiaspfab,"There are many more than the discussed one - ask @etherisc_ what they do! #ethereum #blockchainQuote TweetKarl Heinz Passler@insurtechtalk · Dec 14, 2016Report with first  use cases for #Blockchain in the #Insurance Industry http://buff.ly/2ht2PXu",6,5,0,False
33,Sophant Travel News@SophantTravel,The latest The Sophant Travel News Daily! http://paper.li/SophantTravel/1317473891?edition_id=e8679280-c1fc-11e6-88a8-0cc47a0d1605… Thanks to @Georg_Grey #travel #ethereum,2,0,0,False
34,ethereum.network@EthereumNetw,".@ElectronDLT Introduces #Blockchain Technology to UK’s Energy Sector
http://newsbtc.com/2016/12/14/electron-blockchain-tech-uk/…
#EthereumElectron Introduces Blockchain Technology to UK's Energy SectorA UK-based blockchain startup, Electron has created a demo application for the country's energy industry. Read more...newsbtc.com",4,5,2,False
35,Tom Menner@tmenner,"Attending ""DFINITY: Hail the Decentralized Cloud"" via #ethereum Meetup at #ThinkRiseNY #blockchain w/ @guyhochDFINITY: Hail the Decentralized CloudWed, Dec 14, 2016, 6:30 PM: Bitcoin gave us a decentralized protocol that produced an indestructible, tamperproof virtual ledger. Ethereum took this further with a decentralized protocol that producedmeetup.com",2,1,0,False
36,Bitcoin Brasil@BitcoinBr10,Stolen Augur REP Recovered https://studiobitcoin.blogspot.com.br/2016/12/roubado-augur-rep-recuperado-stolen.html… #Bitcoin #blockchain #ethereum #rep #btc #eth #news #coindesk #Augur #poloniex #noticias,2,0,0,False
37,Blockgeeks@Blockgks,"New Post: OMG, Ethereum Is So Hard Forked http://buff.ly/2gVAbyA #blockchain #bitcoin #ethereum #fintech",3,1,0,False
38,Alberto Jauregui | esoteRICK.eth @DisruptBanksy,http://ift.tt/2hu5Uuh Ethereum May Spring Surprises in 2017 - CoinTelegraph #ethereum #ether,2,0,0,False
39,Ethereum Price@EthereumPrice_,"#Ethereum: Ether Price Index
1 ETH =0.010633Ƀ XBT = $8.369555 USD
Today: +15.20%⬆︎ Last 24h: +16.01%⬆︎
https://ethereum-price.com",1,0,0,False
40,Thomas Been@tombee74,#BusinessWorks Container Edition and #Mashery as key success factors in a #blockchain project: http://tibco.cm/2gLnWH3 #Hackathon #Ethereum,2,1,0,False
41,Defi.Central@DefiCentral,"Ethereum - v0.8.8 release
Details:https://goo.gl/JrNx0F
@ethereumproject #ETHEREUM $ETH #cryptocurrency #altcoin",3,0,0,False
42,Brave New Coin@bravenewcoin,#Ethereum Price: USD $8.44 $ETH http://ow.ly/6UKf3048WBe,1,4,0,False
43,Alexander Esslinger@patentlyGerman,"May the fork be with you! #ethereumQuote Tweetamanda.eth@AmandaCassatt · Dec 12, 2016Wrote this piece with @ConsenSysLLC colleagues @ethereumJoseph and @samcassatt to explain what's up with #Ethereum: https://medium.com/consensys-media/omg-ethereum-is-so-hard-forked-e8099749c27c#.gz5cqvaia…",3,1,2,False
44,BTCMANAGER@btc_manager,"#Ethereum Classic Considers #Bitcoin-esque Monetary Policy:
https://btcmanager.com/news/ethereum-classic-considers-bitcoin-esque-monetary-policy/…
#news #crypto #blockchain #fintech #ETC",10,7,0,False
45,FirstBlood@firstbloodio,"This is why we need #crypto!
#ethereum
https://i.imgur.com/uRf6jEP.gifv",4,1,1,False
46,Kenny Rowe@kennyrowe,"Progress! #ETHEREUMQuote TweetMaker@MakerDAO · Dec 14, 2016MakerDAO Update 925 https://blog.makerdao.com/2016/12/14/maker-update-925/…",1,1,1,False
47,UserSwitch@UserSwitch,"OMG, #Ethereum Is So Hard Forked via @Blockgks http://buff.ly/2gHBuoM #blockchain",1,1,0,False
48,Mogul News@mogulnews,Everything you need to know about Ethereum http://mktmgl.co/2hpjtZr #Ethereum #bitcoin,1,1,0,False
49,ethereum.network@EthereumNetw,".@ChronicledInc: the internet of everything protocol on #Ethereum
https://blog.chronicled.com/where-everything-belongs-9cfcfd847dd5#.2ds2kwrd5…
A decentralized @IFTTT ?Where EveryThing BelongsCaution: This article will intentionally try to exploit your imagination : )medium.com",3,0,0,False
50,Mogul News@mogulnews,Everything you need to know about Ethereum http://mktmgl.co/2hpjtZr #Ethereum #bitcoin,2,0,0,False
51,Emin Gün Sirer@el33th4xor,"These guys always find a way to crack me up.Quote TweetBitcoin Magazine@BitcoinMagazine · Dec 13, 2016Ethereum Classic Forges New Path; Revamped Monetary Policy Could Be Next http://btcm.ag/etcpoli #ethereum @eth_classic #blockchain",29,7,6,False
52,Sinz @Sinzfeldt,You always crack me up with your anti $ETC tweets because you're mother fuckin' saltier than the dead sea. #ethereum,3,0,0,False
53,Finding Genius Podcast@finding_genius,@ConsenSysLLC – Ethereum Blockchain Development Firm. Interview with @PelleB & @ArthurFalls https://goo.gl/wTzlQJ #ethereum #blockchain,6,7,0,False
54,Richard ~ ₿@blockchainbros,"A great development and future in #blockchain for #fintech companies -- http://iodigital.io/news/the-io-digital-foundation-announces-the-upcoming-launch-of-dions/… $fct $btc $eth @Finextra @coindesk #iocoinThe I/O Digital Foundation announces the upcoming launch of DIONSNederlandse (NL) versie van persbericht: klik hier (PDF) December 13, 2016, Amsterdam, Netherlands – The team behind I/O Coin (IOC) cryptocurrency (I/O Digital Foundation) has announced they are in…iodigital.io",4,27,0,False
55,BitcoinAgile@bitcoinagile,"Looking for #ethereum, #blockchain, Solidity developer partner. from Adonis_2115 - Coders http://bitcoinagile.com/9E8F83/looking-for-ethereum-blockchain-solidity-developer-partner-from-adonis-2115-coders-farm_stream…",4,1,0,False
56,Sean@seandotau,#Ethereum May Spring Surprises in 2017 http://buff.ly/2hwhDWl @thomaspower @Stevewal63 @NickAyton @jonnyfry175,1,1,0,False
57,Dennahz@Dennahz,"This looks more pro than the entire $ETH project. Really nice job @DigiByteCoin!Quote Tweet24@Alttrade · Dec 14, 2016#Digusign it in the #blockchain? @DigiByteCoin Digisign customers backend looks very interesting. $DGB #Digibyte",4,2,1,False
58,Vortex@theonevortex,"This is absolutely not the case for #ethereum. Possibly #ethereumclassic but not ethereum.Quote TweetFuturism@futurism · Dec 14, 2016As issues are identified, the platform gains strength.

https://futurism.com/how-this-blockchain-gets-stronger-from-each-attack/…",0,0,0,False
59,David Manheim@davidmanheim,"#Smartcontract s need platforms. @Legalese's L4 runs on #ethereum
@digitalassetcom's #DAML on @Hyperledger
Where does @Chain's language run?Quote TweetLaird Jeff Garzik@jgarzik · Dec 5, 2016#Bitcoin grows a new #smartcontract high-level language from @chain, ""Ivy""",1,0,0,False
60,Load Debit Card@LoadDebitCard,Ethereum May Spring Surprises in 2017 https://cointelegraph.com/news/ethereum-may-spring-surprises-in-2017… via @Cointelegraph #Ethereum #Ether,1,1,0,False
70,Foxes Den@foxesden34,Ethereum May Spring Surprises in 2017 https://cointelegraph.com/news/ethereum-may-spring-surprises-in-2017… #ethereum,0,0,0,False
71,Veki@Veki551155,"Looking for #ethereum, #blockchain, Solidity developer partner. from Adonis_2115 - Coders http://bitcoinagile.com/9E8F83/looking-for-ethereum-blockchain-solidity-developer-partner-from-adonis-2115-coders-farm_stream…",0,0,0,False
73,Ethereum SE@StackEthereum,"Where find Uport mobile web app http://ethereum.stackexchange.com/questions/10691/where-find-uport-mobile-web-app… #ethereum #protocolWhere find Uport mobile web appsome one knows where I can find the Uport mobile App. I only find this link https://uport.me/devbeta, but It seem no longer be active. Tks.ethereum.stackexchange.com",0,0,0,False
74,Faith Emmanuel@residualbitcoin,"Looking for #ethereum, #blockchain, Solidity developer partner. from Adonis_2115 - Coders http://bitcoinagile.com/9E8F83/looking-for-ethereum-blockchain-solidity-developer-partner-from-adonis-2115-coders-farm_stream… …",0,0,0,False
75,Alan Tsen@alantsen,"OMG, #Ethereum Is So Hard Forked via @Blockgks http://buff.ly/2gZaOvN #blockchain",1,0,0,False
76,seven nieberg@seven_nieberg,"GET 10MHs mining speed for F.R.E.E , and use it for Ethereum, litecoin or bitcoin mining http://bit.ly/10MHsFree #ethereum #bitcoin
29GIF",0,0,0,False
77,stephanus Nieberg@Allinoneprofit1,"GET 10MHs mining speed for F.R.E.E , and use it for Ethereum, litecoin or bitcoin mining http://bit.ly/10MHsFree #ethereum #bitcoin
40GIF",0,0,0,False
79,CryptKeeper@CryptKeeperBTT,Buterin and Microsoft Introduce #Ethereum at the First Indian #Blockchain Summit https://btcmanager.com/news/tech/buterin-and-microsoft-introduce-ethereum-at-the-first-indian-blockchain-summit/…,2,1,0,False
80,seven nieberg@seven_nieberg,"GET 10MHs mining speed for F.R.E.E , and use it for Ethereum, litecoin or bitcoin mining http://bit.ly/10MHsFree #ethereum #bitcoin
61GIF",0,0,0,False
81,stephanus Nieberg@Allinoneprofit1,"GET 10MHs mining speed for F.R.E.E , and use it for Ethereum, litecoin or bitcoin mining http://bit.ly/10MHsFree #ethereum #bitcoin
19GIF",0,0,0,False
83,blockchainmedia@Ethereumlab,What does #Zcash mean for #Ethereum? http://dld.bz/fhyWt #blockchain,0,0,0,False
85,Coinstats@coinstats,"Ethereum Classic - ETC
Price: $0.982612
Change in 1h: +-0.42%
Market cap: $85343661.0
Ranking: 6
#Ethereum Classic #ETC",0,0,0,False
86,Bobe'bot@Bobe_bot,"1 #BTC = 811.6006 #CHF
1 #ETH = 8.8211 #CHF
1 #DOGE = 0.000214166216 #CHF
sources: @cryptonatorcom @hellobity",0,0,0,False
87,Coinstats@coinstats,"Ethereum - ETH
Price: $8.26874
Change in 1h: +-0.57%
Market cap: $718754429.0
Ranking: 2
#Ethereum #ETH",0,0,0,False
88,seven nieberg@seven_nieberg,"GET 10MHs mining speed for F.R.E.E , and use it for Ethereum, litecoin or bitcoin mining http://bit.ly/10MHsFree #ethereum #bitcoin
43GIF",0,0,0,False
89,Blockgeeks@Blockgks,New Post: Blockchain Explorer: The UltimateTransparency In Finance http://buff.ly/2gD59z3 #blockchain #bitcoin #ethereum #fintech,1,0,0,False
90,Lika Nicolic@Ethereumhub,Can This 22-year-old Coder Out-Bitcoin #Bitcoin? http://dld.bz/eWMa7 #ethereum,1,1,0,False
93,seven nieberg@seven_nieberg,"GET 10MHs mining speed for F.R.E.E , and use it for Ethereum, litecoin or bitcoin mining http://bit.ly/10MHsFree #ethereum #bitcoin
96GIF",0,0,0,False
94,2ShakesNZ@2ShakesNZ,.@2Shakes is on the #Ethereum #Blockchain - whoop whoop @blockchainlabnz @EthereumNZ,6,6,1,False
96,JZay@BTCOlN,Replying to @jessecouchdirectly bought $ETH?,1,0,0,False
97,stephanus Nieberg@Allinoneprofit1,"GET 10MHs mining speed for F.R.E.E , and use it for Ethereum, litecoin or bitcoin mining http://bit.ly/10MHsFree #ethereum #bitcoin
89GIF",0,0,0,False
98,blockchainmedia@Ethereumlab,"OMG, Ethereum Is So Hard Forked http://dld.bz/fm2T7 #Ethereum #blockchain #bitcoin",0,0,0,False
99,seven nieberg@seven_nieberg,"GET 10MHs mining speed for F.R.E.E , and use it for Ethereum, litecoin or bitcoin mining http://bit.ly/10MHsFree #ethereum #bitcoin
52GIF",0,0,0,False
100,stephanus Nieberg@Allinoneprofit1,"GET 10MHs mining speed for F.R.E.E , and use it for Ethereum, litecoin or bitcoin mining http://bit.ly/10MHsFree #ethereum #bitcoin
30GIF",1,0,0,False
101,/r/Ethereum@r_Ethereum,"r/Ethereum has grown by 1,000 subscribers in the last ~Month. Unique Addresses up over 12% #Ethereumr/Ethereum has grown by 1,000 subscribers in the last ~Month....I noticed this because I posted excitedly about being sub number 23,000 and that was about a month ago. We grew roughly 4.35% in the last month...reddit.com",1,0,0,False
102,/r/Ethereum@r_Ethereum,US Standards Body Establishes Working Group for Blockchain Tokens #EthereumUS Standards Body Establishes Working Group for Blockchain TokensPosted in r/ethereum by u/twigwam • 9 points and 0 commentsreddit.com,1,0,0,False
103,Bitcoin Is The KING @EthereumPredict,"#Eth Ethereum is going down again after little recovery $eth
Going back to 0.07 btc ?",1,1,0,False
104,Future Thinkers@FutureThinkers_,"#Blockchain to Fight Air Pollution, ConsenSys Announcements, #Ethereum Research Update and the Week in Blockchain http://buff.ly/2hcoC9o",2,0,0,False
105,Degen Signals@degenyolo,SHITCOIN BLEED A LOT #ALTCOINSAREBACK #ETH #LISK #REP http://explainbitcoin.com/shitcoin-bleed-a-lot/…,0,0,0,False
109,Pleb Bets@SportsBetPlebs,SHITCOIN BLEED A LOT #ALTCOINSAREBACK #ETH #LISK #REP http://explainbitcoin.com/shitcoin-bleed-a-lot/…,0,0,0,False
110,degenbet@DegenBet1,SHITCOIN BLEED A LOT #ALTCOINSAREBACK #ETH #LISK #REP http://explainbitcoin.com/shitcoin-bleed-a-lot/…,0,0,0,False
111,Theo Goodman@theog__,SHITCOIN BLEED A LOT #ALTCOINSAREBACK #ETH #LISK #REP http://explainbitcoin.com/shitcoin-bleed-a-lot/…,0,0,0,False
114,stephanus Nieberg@Allinoneprofit1,"GET 10MHs mining speed for F.R.E.E , and use it for Ethereum, litecoin or bitcoin mining http://bit.ly/10MHsFree #ethereum #bitcoin
97GIF",0,0,0,False
115,seven nieberg@seven_nieberg,"GET 10MHs mining speed for F.R.E.E , and use it for Ethereum, litecoin or bitcoin mining http://bit.ly/10MHsFree #ethereum #bitcoin
84GIF",0,0,0,False
116,stephanus Nieberg@Allinoneprofit1,"GET 10MHs mining speed for F.R.E.E , and use it for Ethereum, litecoin or bitcoin mining http://bit.ly/10MHsFree #ethereum #bitcoin
63GIF",0,0,0,False
117,Lika Nicolic@Ethereumhub,Check it out! Beginners guide to #Blockchain http://buff.ly/2dvhaDX #bitcoin #ethereum #startup,0,0,0,False
120,blockchainmedia@Ethereumlab,What are your favorite digital wallets to use and why? http://dld.bz/fevtV #blockchain #bitcoin #ethereum,0,0,0,False
121,Christian Seberino@c_seberino,Why Ethereum Is The New Bitcoin http://buff.ly/2gwwdQs #etc #eth #ethereumclassic #ethereum,0,0,0,False
122,Coinstats@coinstats,"Ethereum Classic - ETC
Price: $0.98753
Change in 1h: +0.33%
Market cap: $85769464.0
Ranking: 6
#Ethereum Classic #ETC",0,0,0,False
123,Coinstats@coinstats,"Ethereum - ETH
Price: $8.32535
Change in 1h: +-0.28%
Market cap: $723665127.0
Ranking: 2
#Ethereum #ETH",0,0,0,False
124,seven nieberg@seven_nieberg,"GET 10MHs mining speed for F.R.E.E , and use it for Ethereum, litecoin or bitcoin mining http://bit.ly/10MHsFree #ethereum #bitcoin
51GIF",0,0,0,False
125,stef nieberg@sevens_heaven,"GET 10MHs mining speed for F.R.E.E , and use it for Ethereum, litecoin or bitcoin mining http://bit.ly/10MHsFree #ethereum #bitcoin
58GIF",0,0,0,False
126,Veki@Veki551155,"OMG, #ethereum Is So Hard Forked - Cyber Capital http://bitcoinagile.com/9E8842/omg-ethereum-is-so-hard-forked-cyber-capital_stream…",0,0,0,False
127,Veki@Veki551155,Why Im short #ethereum and long #bitcoin https://medium.com/@tuurdemeester/why-im-short-ethereum-and-long-bitcoin-aee5b1c198fd#---0-135.qh09d51hj…,0,0,0,False
128,stephanus Nieberg@Allinoneprofit1,"GET 10MHs mining speed for F.R.E.E , and use it for Ethereum, litecoin or bitcoin mining http://bit.ly/10MHsFree #ethereum #bitcoin
54GIF",0,0,0,False
129,Faith Emmanuel@residualbitcoin,"OMG, #ethereum Is So Hard Forked - Cyber Capital http://bitcoinagile.com/9E8842/omg-ethereum-is-so-hard-forked-cyber-capital_stream…  #ResidualBitcoin",0,0,0,False
130,Faith Emmanuel@residualbitcoin,Why Im short #ethereum and long #bitcoin https://medium.com/@tuurdemeester/why-im-short-ethereum-and-long-bitcoin-aee5b1c198fd#---0-135.qh09d51hj…  #ResidualBitcoin,0,0,0,False
131,seven nieberg@seven_nieberg,"GET 10MHs mining speed for F.R.E.E , and use it for Ethereum, litecoin or bitcoin mining http://bit.ly/10MHsFree #ethereum #bitcoin
68GIF",0,0,0,False
132,blockchainmedia@Ethereumlab,"Top AMA's with the leaders in #Blockchain, #Bitcoin and #Ethereum http://blockgeeks.com/ama/",1,0,0,False
133,Lika Nicolic@Ethereumhub,Is #Blockchain Technology Going To Disrupt Our Political System:  http://dld.bz/fgnWh #ethereum,0,0,0,False
134,BitcoinAgile@bitcoinagile,"OMG, #ethereum Is So Hard Forked - Cyber Capital http://bitcoinagile.com/9E8842/omg-ethereum-is-so-hard-forked-cyber-capital_stream…",0,0,0,False
135,BitcoinAgile@bitcoinagile,Why Im short #ethereum and long #bitcoin https://medium.com/@tuurdemeester/why-im-short-ethereum-and-long-bitcoin-aee5b1c198fd#---0-135.qh09d51hj…,0,0,0,False
136,seven nieberg@seven_nieberg,"GET 10MHs mining speed for F.R.E.E , and use it for Ethereum, litecoin or bitcoin mining http://bit.ly/10MHsFree #ethereum #bitcoin
58GIF",0,0,0,False
137,Ameer Rosic@AmeerRosic,Is #Youtube in Trouble? #Blockchain is coming! http://bit.ly/1tgKTVz #ethereum #bitcoin,0,0,0,False
138,seven nieberg@seven_nieberg,"GET 10MHs mining speed for F.R.E.E , and use it for Ethereum, litecoin or bitcoin mining http://bit.ly/10MHsFree #ethereum #bitcoin
91GIF",0,0,0,False
139,Vindyne8@Vindyne8,"Not sure how much you want to invest in #branche, but don't want to miss 15% bonus? Lock it in now with just 1 #ETH http://bitcoingarden.tk/forum/index.php?topic=11665.msg131317#msg131317…",19,22,0,False
140,BitcoinAgile@bitcoinagile,What is IBMs Hyperledger project? - Blockgeeks #fintech #ethereum #bitcoin #blockchain http://bitcoinagile.com/9E874F/what-is-ibms-hyperledger-project-blockgeeks_stream…,0,0,0,False
141,Blockgeeks@Blockgks,New Post: What is IBM's Hyperledger project? http://buff.ly/2gz18f0 #blockchain #bitcoin #ethereum #fintech  kiranvaidya,0,0,0,False
142,seven nieberg@seven_nieberg,"GET 10MHs mining speed for F.R.E.E , and use it for Ethereum, litecoin or bitcoin mining http://bit.ly/10MHsFree #ethereum #bitcoin
35GIF",0,0,0,False
143,Edward Bukstel@ebukstel,"Ex- #Barclays CEO is joining the board of #Blockchain
http://klou.tt/bhf4hfj2wgp6
#Ethereum
#FinTech
#DigitalHealth",0,0,0,False
144,Chrono.tech@ChronotechNews,#RT ICO starts in 3 hours. Visit now http://chonobank.io. Time is Money http://coindesk.com/time-money-alternative-banking-moves-blockchain/… #ethereum #bitcoin,17,13,0,False
146,seven nieberg@seven_nieberg,"GET 10MHs mining speed for F.R.E.E , and use it for Ethereum, litecoin or bitcoin mining http://bit.ly/10MHsFree #ethereum #bitcoin
66GIF",0,0,0,False
147,stef nieberg@sevens_heaven,"GET 10MHs mining speed for F.R.E.E , and use it for Ethereum, litecoin or bitcoin mining http://bit.ly/10MHsFree #ethereum #bitcoin
29GIF",0,0,0,False
148,blockchainmedia@Ethereumlab,"Besides #Ethereum, which blockchains do you think are currently leading the pack http://dld.bz/fcNRx",0,0,0,False
149,Blockgeeks@Blockgks,What does #Zcash mean for #Ethereum? http://dld.bz/fhyWt #blockchain,1,0,0,False
150,Stefan Hetges@shetges,"@BlockCDN #crowdasale live!
Be a part of the new sharing economy!
 http://ln.is/zJrRT #ethereum... by #dinisguarda via @c0nvey",1,0,0,False
151,Coinstats@coinstats,"Ethereum Classic - ETC
Price: $0.979387
Change in 1h: +-0.56%
Market cap: $85060302.0
Ranking: 6
#Ethereum Classic #ETC",0,0,0,False
152,Coinstats@coinstats,"Ethereum - ETH
Price: $8.33325
Change in 1h: +-0.31%
Market cap: $724336106.0
Ranking: 2
#Ethereum #ETH",0,0,0,False
153,Ethereum Price@EthereumPrice_,"#Ethereum: Ether Price Index
1 ETH =0.010665Ƀ XBT = $8.290000 USD
Today: +15.54%⬆︎ Last 24h: +15.32%⬆︎
https://ethereum-price.com",0,0,0,False
154,EUROPECOIN  (.eu.org)@europecoinEUORG,"DEEPEST FORM OF DECENTRALIZATION
#crypto #fintech #altcoins #bitcoin #bittrex $erc #SEPA #AMAZON #altcoin #eth #btcInsights to our launch in 4 days — SteemitEuropecoin has some more visions on its agenda, than just one. Some may follow our release path of ""Federated… by bitcoinsultingsteemit.com",23,17,0,False
156,/r/Ethereum@r_Ethereum,Withdrawing ETC balance from GDAX question #EthereumWithdrawing ETC balance from GDAX questionreddit.com,0,0,0,False
157,Ethereum SE@StackEthereum,How to derive the private key from UTC file? http://ethereum.stackexchange.com/questions/10690/how-to-derive-the-private-key-from-utc-file… #ethereum #privatekey #nodejs #lightclients,1,0,0,False
158,seven nieberg@seven_nieberg,"GET 10MHs mining speed for F.R.E.E , and use it for Ethereum, litecoin or bitcoin mining http://bit.ly/10MHsFree #ethereum #bitcoin
7GIF",0,0,0,False
160,Ameer Rosic@AmeerRosic,Could #Blockchain Technology Bankrupt #Spotify? http://bit.ly/1tgKTVz #ethereum #bitcoin,0,0,0,False
161,/r/Ethereum@r_Ethereum,Mining Ethereum #EthereumMining Ethereumreddit.com,0,0,0,False
162,Mona El Isa@Mona_El_Isa,"A lot ! And when it happens they will be using #decentralised #crypto #assetmanagement #software called #melon on #ethereumQuote TweetBlockchain Meetup Switzerland@blockchainerCH · Dec 13, 2016Q&A with @perham83 - how much will fund manager invest into crypto funds in the future?",12,5,1,False
163,stef nieberg@sevens_heaven,"GET 10MHs mining speed for F.R.E.E , and use it for Ethereum, litecoin or bitcoin mining http://bit.ly/10MHsFree #ethereum #bitcoin
0GIF",0,0,0,False
164,Jack Arnold@arnoldgroup,"@BlockCDN #crowdasale live!
Be a part of the new sharing economy!
 http://ln.is/Cr1BB #ethereum... by #dinisguarda via @c0nvey",0,0,0,False
165,Isaac Calvo@isaac_dev,"""5 cents per #Bitcoin transaction is too much for the #Internet of #Money"" -#ethereum creator #Vitalik https://vid.me/f8nB #fintech",1,0,0,False
166,stephanus Nieberg@Allinoneprofit1,"GET 10MHs mining speed for F.R.E.E , and use it for Ethereum, litecoin or bitcoin mining http://bit.ly/10MHsFree #ethereum #bitcoin
26GIF",1,0,0,False
168,stef nieberg@sevens_heaven,"GET 10MHs mining speed for F.R.E.E , and use it for Ethereum, litecoin or bitcoin mining http://bit.ly/10MHsFree #ethereum #bitcoin
87GIF",0,0,0,False
169,stephanus Nieberg@Allinoneprofit1,"GET 10MHs mining speed for F.R.E.E , and use it for Ethereum, litecoin or bitcoin mining http://bit.ly/10MHsFree #ethereum #bitcoin
41GIF",0,0,0,False
170,Edward Bukstel@ebukstel,"7,500 Faceless Coders Paid in #Bitcoin Built a #HedgeFund Brain  

http://klou.tt/sgcce6x5ug1i
#Ethereum
#Blockchain",2,0,0,False
171,stef nieberg@sevens_heaven,"GET 10MHs mining speed for F.R.E.E , and use it for Ethereum, litecoin or bitcoin mining http://bit.ly/10MHsFree #ethereum #bitcoin
46GIF",0,0,0,False
173,stef nieberg@sevens_heaven,"GET 10MHs mining speed for F.R.E.E , and use it for Ethereum, litecoin or bitcoin mining http://bit.ly/10MHsFree #ethereum #bitcoin
92GIF",0,0,0,False
174,stephanus Nieberg@Allinoneprofit1,"GET 10MHs mining speed for F.R.E.E , and use it for Ethereum, litecoin or bitcoin mining http://bit.ly/10MHsFree #ethereum #bitcoin
1GIF",1,0,0,False
175,BTCMANAGER@btc_manager,"Buterin and Microsoft Introduce #Ethereum at First Indian #Blockchain Summit:
https://btcmanager.com/news/tech/buterin-and-microsoft-introduce-ethereum-at-the-first-indian-blockchain-summit/…
#news #ETH #crypto #adoption #tech",6,7,0,False
178,seven nieberg@seven_nieberg,"GET 10MHs mining speed for F.R.E.E , and use it for Ethereum, litecoin or bitcoin mining http://bit.ly/10MHsFree #ethereum #bitcoin
19GIF",0,0,0,False
179,stef nieberg@sevens_heaven,"GET 10MHs mining speed for F.R.E.E , and use it for Ethereum, litecoin or bitcoin mining http://bit.ly/10MHsFree #ethereum #bitcoin
84GIF",0,0,0,False
180,Apex Technology@ApexTInc,"OMG, #Ethereum Is So Hard Forked via @Blockgks http://buff.ly/2gKEwa7 #blockchain",1,0,0,False
181,Brave New Coin@bravenewcoin,#Ethereum Price: USD $8.42 $ETH http://ow.ly/6UKf3048WBe,2,0,0,False
182,stephanus Nieberg@Allinoneprofit1,"GET 10MHs mining speed for F.R.E.E , and use it for Ethereum, litecoin or bitcoin mining http://bit.ly/10MHsFree #ethereum #bitcoin
90GIF",0,0,0,False
183,Blockgeeks@Blockgks,Could #Blockchain Technology Bankrupt Spotify? A Music Revolution http://buff.ly/2cWIfNM #ethereum #bitcoin,0,0,0,False
184,TIBCO@TIBCO,"#BusinessWorks Container Edition and #Mashery as key success factors in a #blockchain project: http://tibco.cm/2hFmJ5H #Hackathon #EthereumBlockchain – The Next Big Thing for MiddlewareBlockchain, most well known as the technology behind Bitcoin, has uses far beyond cryptocurrencies. This article explains the use cases and technical concepts behind blockchain, gives an overview...infoq.com",2,2,1,False
185,Coinstats@coinstats,"Ethereum Classic - ETC
Price: $0.983965
Change in 1h: +-0.14%
Market cap: $85456658.0
Ranking: 6
#Ethereum Classic #ETC",0,0,0,False
186,Timo Ξberhard@ZhuBajie72,Gsus(!) #Greenshill @tradingview still entirely clueless about #Ethereum... Sometimes one can only read and shake that head in disbelief.,0,0,0,False
187,Statspotting.com@statspotting,FX Markets: Trading volume dips in 2016 - http://statspotting.com/fx-markets-trading-volume-dips-2016/… #forex #trading #finance #markets #usd #bitcoin #ethereumFX Markets: Trading volume dips in 2016 - Statspotting!USD is 44 percent of the marketstatspotting.com,0,0,0,False
188,seven nieberg@seven_nieberg,"GET 10MHs mining speed for F.R.E.E , and use it for Ethereum, litecoin or bitcoin mining http://bit.ly/10MHsFree #ethereum #bitcoin
5GIF",0,0,0,False
189,stef nieberg@sevens_heaven,"GET 10MHs mining speed for F.R.E.E , and use it for Ethereum, litecoin or bitcoin mining http://bit.ly/10MHsFree #ethereum #bitcoin
30GIF",0,0,0,False
190,stef nieberg@sevens_heaven,"GET 10MHs mining speed for F.R.E.E , and use it for Ethereum, litecoin or bitcoin mining http://bit.ly/10MHsFree #ethereum #bitcoin
26GIF",0,0,0,False
191,KHP@KHPassler,"RT tobiaspfab: There are many more than the discussed one - ask etherisc_ what they do! #ethereum #blockchainQuote TweetKarl Heinz Passler@insurtechtalk · Dec 14, 2016Report with first  use cases for #Blockchain in the #Insurance Industry http://buff.ly/2ht2PXu",0,0,0,False
192,BO@b2o101,free ethereu every 20 minute http://cur.lv/142hm6 #ethereum #bitcoin #blockchain #dogecoin #crypto #satoshi,0,0,0,False
193,Branche@DESbranche,Thanks for following us @OlafBadstuebner and @namitbhatia! #fintech #blockchain #financialservices #ethereum #altcoin #crypto #mobiletech,2,1,0,False
194,Lika Nicolic@Ethereumhub,Become a #Blockchain Guest Contributor http://dld.bz/fgnwr #writer #bitcoin #ethereum,0,0,0,False
195,Branche@DESbranche,Thanks for following us @startupwatching and @Crypto_Flash! #fintech #blockchain #financialservices #ethereum #altcoin #crypto #marvelvsdc,1,1,0,False
196,seven nieberg@seven_nieberg,"GET 10MHs mining speed for F.R.E.E , and use it for Ethereum, litecoin or bitcoin mining http://bit.ly/10MHsFree #ethereum #bitcoin
85GIF",0,0,0,False
197,stephanus Nieberg@Allinoneprofit1,"GET 10MHs mining speed for F.R.E.E , and use it for Ethereum, litecoin or bitcoin mining http://bit.ly/10MHsFree #ethereum #bitcoin
66GIF",0,0,0,False
199,CryptoNewswire @CryptoNewswire,US Standards Body Establishes Working Group for Blockchain Tokens - http://coindesk.com/standards-body-working-group-blockchain/… $ETH #news #fintech #finance,0,0,0,False
200,/r/Ethereum@r_Ethereum,What is the relationship between seed hash and mix hash in mining? -- 250 SE rep bounty #EthereumWhat is the relationship between seed hash and mix hash in mining?...Posted in r/ethereum by u/tjade273 • 5 points and 0 commentsreddit.com,0,0,0,False
201,/r/Ethereum@r_Ethereum,"New webpage for ""Status"" Ethereum mobile app! ""Coming soon to Android and iOS."" #EthereumNew webpage for ""Status"" Ethereum mobile app! ""Coming soon to...Posted in r/ethereum by u/MrStormLars • 30 points and 3 commentsreddit.com",2,0,0,False
202,/r/Ethereum@r_Ethereum,Subroutines and Static Jumps for the EVM #EthereumSubroutines and Static Jumps for the EVMPosted in r/ethereum by u/gcolvin • 55 points and 8 commentsreddit.com,0,0,0,False
203,seven nieberg@seven_nieberg,"GET 10MHs mining speed for F.R.E.E , and use it for Ethereum, litecoin or bitcoin mining http://bit.ly/10MHsFree #ethereum #bitcoin
63GIF",0,0,0,False
204,stef nieberg@sevens_heaven,"GET 10MHs mining speed for F.R.E.E , and use it for Ethereum, litecoin or bitcoin mining http://bit.ly/10MHsFree #ethereum #bitcoin
44GIF",0,0,0,False
205,stephanus Nieberg@Allinoneprofit1,"GET 10MHs mining speed for F.R.E.E , and use it for Ethereum, litecoin or bitcoin mining http://bit.ly/10MHsFree #ethereum #bitcoin
80GIF",1,0,0,False
207,seven nieberg@seven_nieberg,"GET 10MHs mining speed for F.R.E.E , and use it for Ethereum, litecoin or bitcoin mining http://bit.ly/10MHsFree #ethereum #bitcoin
22GIF",0,0,0,False
208,stef nieberg@sevens_heaven,"GET 10MHs mining speed for F.R.E.E , and use it for Ethereum, litecoin or bitcoin mining http://bit.ly/10MHsFree #ethereum #bitcoin
81GIF",0,0,0,False
209,stephanus Nieberg@Allinoneprofit1,"GET 10MHs mining speed for F.R.E.E , and use it for Ethereum, litecoin or bitcoin mining http://bit.ly/10MHsFree #ethereum #bitcoin
75GIF",0,0,0,False
211,stephanus Nieberg@Allinoneprofit1,"GET 10MHs mining speed for F.R.E.E , and use it for Ethereum, litecoin or bitcoin mining http://bit.ly/10MHsFree #ethereum #bitcoin
64GIF",2,0,0,False
212,Ethereum UAE@Ethereum_UAE,US Standards Body Establishes Working Group for Blockchain Tokens http://ift.tt/2hmeoTK #Ethereum,3,0,0,False
213,Nick Ayton@NickAyton,Pure Gold at HackerGold @CampEther #blockchain http://ln.is/www.reddit.com/r/eth/NF5WE… @StephenD_Taylor #bitcoin #creatingpropositions #ethereum #dltNick Ayton - Ethereum - HackerGoldPosted in r/ethtrader by u/sandakersmann • 5 points and 0 commentsreddit.com,1,0,0,False
214,stef nieberg@sevens_heaven,"GET 10MHs mining speed for F.R.E.E , and use it for Ethereum, litecoin or bitcoin mining http://bit.ly/10MHsFree #ethereum #bitcoin
9GIF",0,0,0,False
215,NGCMarkets@NGCMarkets,.@a16z and @usv invest $10 million in hedge fund specializing in new digital assets like #bitcoin and #ether. http://ow.ly/mdVm30786jQ,0,0,0,False
216,stef nieberg@sevens_heaven,"GET 10MHs mining speed for F.R.E.E , and use it for Ethereum, litecoin or bitcoin mining http://bit.ly/10MHsFree #ethereum #bitcoin
54GIF",0,0,0,False
217,AltcoinLive bot@AltcoinLiveBot,new $ETH sellwall 38.6btc @ 0.01104437 http://altcoinlive.com/bittrex-eth-btc #altcoinlive,0,0,0,False
218,blockchainmedia@Ethereumlab,Can This 22-year-old Coder Out-Bitcoin #Bitcoin? http://dld.bz/eWMa7 #ethereum,0,0,0,False
219,Coinstats@coinstats,"Ethereum Classic - ETC
Price: $0.985222
Change in 1h: +-0.3%
Market cap: $85564399.0
Ranking: 6
#Ethereum Classic #ETC",0,0,0,False
220,Edward Bukstel@ebukstel,"5 enterprise-related things you can do with #blockchain technology 

http://klou.tt/ao72n6t8f1zr
#Ethereum",0,0,0,False
221,Coinstats@coinstats,"Ethereum - ETH
Price: $8.3348
Change in 1h: +-0.5%
Market cap: $724447893.0
Ranking: 2
#Ethereum #ETH",0,0,0,False
222,stephanus Nieberg@Allinoneprofit1,"GET 10MHs mining speed for F.R.E.E , and use it for Ethereum, litecoin or bitcoin mining http://bit.ly/10MHsFree #ethereum #bitcoin
84GIF",0,0,0,False
223,Vindyne8@Vindyne8,Join Chronobank.io Signature & Avatar Campaign https://bitcointalk.org/index.php?topic=1680361.msg16872529#msg16872529… #bitcointalk #bitcoin #blockchain #ethereum final hrs to ICO start!,16,16,0,False
225,stephanus Nieberg@Allinoneprofit1,"GET 10MHs mining speed for F.R.E.E , and use it for Ethereum, litecoin or bitcoin mining http://bit.ly/10MHsFree #ethereum #bitcoin
17GIF",0,0,0,False
226,lastbattle@GreatGrandBear,Download the app now to stay ahead of the #bitcoin market! https://play.google.com/store/apps/details?id=bitcoin.bitbot… #btc #eth #etc,0,0,0,False
227,/r/Ethereum@r_Ethereum,"Ethereum Lite Wallets? #EthereumEthereum Lite Wallets?Do these exist yet? I'd like to store my Ethereum on my Mac seeing as it's encrypted and backed up better than my Windows machine. That said, I...reddit.com",0,0,0,False
228,seven nieberg@seven_nieberg,"GET 10MHs mining speed for F.R.E.E , and use it for Ethereum, litecoin or bitcoin mining http://bit.ly/10MHsFree #ethereum #bitcoin
57GIF",0,0,0,False
229,stephanus Nieberg@Allinoneprofit1,"GET 10MHs mining speed for F.R.E.E , and use it for Ethereum, litecoin or bitcoin mining http://bit.ly/10MHsFree #ethereum #bitcoin
11GIF",0,0,0,False
230,stephanus Nieberg@Allinoneprofit1,"GET 10MHs mining speed for F.R.E.E , and use it for Ethereum, litecoin or bitcoin mining http://bit.ly/10MHsFree #ethereum #bitcoin
34GIF",0,0,0,False
231,Lika Nicolic@Ethereumhub,How does #blockchain work? The ultimate guide  http://buff.ly/2dvhaDX #bitcoin #ethereum #startup,2,2,0,False
232,stef nieberg@sevens_heaven,"GET 10MHs mining speed for F.R.E.E , and use it for Ethereum, litecoin or bitcoin mining http://bit.ly/10MHsFree #ethereum #bitcoin
47GIF",0,0,0,False
233,Ethereum UAE@Ethereum_UAE,Ethereum May Spring Surprises in 2017 http://ift.tt/2hwUJOP #Ethereum,0,0,0,False
234,blockchainmedia@Ethereumlab,Check it out! Beginners guide to #Blockchain http://buff.ly/2dvhaDX #bitcoin #ethereum #startup,0,0,0,False
236,/r/Ethereum@r_Ethereum,Working on a Simple Game- Betting DApp Similar to GameBattles/MLG but w/ ETH & BTC incentives #EthereumWorking on a Simple Game- Betting DApp Similar to GameBattles/MLG...Gauging market interest in an MVP to build a DApp w/ mobile-centric UI whereby users could bet on any game with a defined win/loss. Example:...reddit.com,1,0,0,False
237,Lou Bajuk@LouBajuk,#BusinessWorks Container Edition and #Mashery as key success factors in a #blockchain project: http://tibco.cm/2hx9ely #Hackathon #Ethereum,1,0,0,False
238,seven nieberg@seven_nieberg,"GET 10MHs mining speed for F.R.E.E , and use it for Ethereum, litecoin or bitcoin mining http://bit.ly/10MHsFree #ethereum #bitcoin
74GIF",0,0,0,False
241,stephanus Nieberg@Allinoneprofit1,"GET 10MHs mining speed for F.R.E.E , and use it for Ethereum, litecoin or bitcoin mining http://bit.ly/10MHsFree #ethereum #bitcoin
8GIF",0,0,0,False
243,seven nieberg@seven_nieberg,"GET 10MHs mining speed for F.R.E.E , and use it for Ethereum, litecoin or bitcoin mining http://bit.ly/10MHsFree #ethereum #bitcoin
27GIF",0,0,0,False
244,stef nieberg@sevens_heaven,"GET 10MHs mining speed for F.R.E.E , and use it for Ethereum, litecoin or bitcoin mining http://bit.ly/10MHsFree #ethereum #bitcoin
91GIF",0,0,0,False
246,stephanus Nieberg@Allinoneprofit1,"GET 10MHs mining speed for F.R.E.E , and use it for Ethereum, litecoin or bitcoin mining http://bit.ly/10MHsFree #ethereum #bitcoin
81GIF",0,0,0,False
247,Vindyne8@Vindyne8,#RT Join Chronobank ICO. Don`t miss 30% bonus. Visit chronobank.io #blockchain #ethereum #bitcoin #startup,17,16,0,False
248,CoinFollower@CoinFollowerCom,Ethereum May Spring Surprises in 2017: #ethereum http://coinfollower.com/18447/Ethereum%20May%20Spring%20Surprises%20in%202017…,0,0,0,False
249,Ethereum Monkey@EthMonkey,Ethereum May Spring Surprises in 2017 #ethereum https://cointelegraph.com/news/ethereum-may-spring-surprises-in-2017…,0,0,0,False
250,Coinstats@coinstats,"Ethereum Classic - ETC
Price: $0.989318
Change in 1h: +1.3%
Market cap: $85918661.0
Ranking: 6
#Ethereum Classic #ETC",0,0,0,False
251,Coinstats@coinstats,"Ethereum - ETH
Price: $8.37438
Change in 1h: +0.38%
Market cap: $727876309.0
Ranking: 2
#Ethereum #ETH",0,0,0,False
252,Olivier Chapiteau@o_chapiteau,"14Dec2016 18:00 UTC #Ether #Blockchain status - Block height @ 2,808,096 - 124,106 unconfirmed tr. - Last fork height @ 2,808,072",0,0,0,False
254,Olivier Chapiteau@o_chapiteau,14Dec2016 18:00 UTC #Ethereum live spots - #Ether @ 8.37017 $ - #EtherClassic @ 0.98238 $,0,0,0,False
255,stef nieberg@sevens_heaven,"GET 10MHs mining speed for F.R.E.E , and use it for Ethereum, litecoin or bitcoin mining http://bit.ly/10MHsFree #ethereum #bitcoin
99GIF",0,0,0,False
256,Veki@Veki551155,#ethereum May Spring Surprises in 2017 http://bitcoinagile.com/9E76C9/ethereum-may-spring-surprises-in-2017_stream…,0,0,0,False
261,Oodles Technologies@oodlestech,"Apple Disapproves #Ethereum Classic Proposed By #Jaxx

Visit :... http://fb.me/10Unjwlab",1,0,0,False
262,Branche@DESbranche,Thanks for following us @icocoin @GS_HSC and @fermat_mexico! #fintech #blockchain #financialservices #bitcoin #ethereum #altcoin #crypto,3,2,1,False
263,seven nieberg@seven_nieberg,"GET 10MHs mining speed for F.R.E.E , and use it for Ethereum, litecoin or bitcoin mining http://bit.ly/10MHsFree #ethereum #bitcoin
70GIF",0,0,0,False
265,stef nieberg@sevens_heaven,"GET 10MHs mining speed for F.R.E.E , and use it for Ethereum, litecoin or bitcoin mining http://bit.ly/10MHsFree #ethereum #bitcoin
5GIF",0,0,0,False
266,Branche@DESbranche,Thanks for following us @Clement_Lgs and @AtosPubSector! #fintech #blockchain #financialservices #bitcoin #ethereum #altcoin #cryptocurrency,2,3,0,False
268,BlackBullTradingPost ₿   @BlackBullTradn,CoinTelegraph: #Ethereum May Spring Surprises in 2017 https://cointelegraph.com/news/ethereum-may-spring-surprises-in-2017… - By olusegunisrael,1,0,0,False
269,Faith Emmanuel@residualbitcoin,#ethereum May Spring Surprises in 2017 http://bitcoinagile.com/9E76C9/ethereum-may-spring-surprises-in-2017_stream…  #ResidualBitcoin,0,0,0,False
270,stephanus Nieberg@Allinoneprofit1,"GET 10MHs mining speed for F.R.E.E , and use it for Ethereum, litecoin or bitcoin mining http://bit.ly/10MHsFree #ethereum #bitcoin
25GIF",0,0,0,False
271,BitcoinAgile@bitcoinagile,#ethereum May Spring Surprises in 2017 http://bitcoinagile.com/9E76C9/ethereum-may-spring-surprises-in-2017_stream…,1,0,0,False
272,Ali Güçlü@aliguclu,"CoinTelegraph : #Ethereum May Spring Surprises in 2017 https://cointelegraph.com/news/ethereum-may-spring-surprises-in-2017… - By oluse… https://twitter.com/CoinTelegraph/status/809090159996243969…)Quote TweetCointelegraph@Cointelegraph · Dec 14, 2016#Ethereum May Spring Surprises in 2017 https://cointelegraph.com/news/ethereum-may-spring-surprises-in-2017… - By @olusegunisrael",2,0,0,False
273,Rachel Brennan@RBrennanBPM,#BusinessWorks Container Edition and #Mashery as key success factors in a #blockchain project: http://tibco.cm/2gLCQx7 #Hackathon #Ethereum,1,0,0,False
274,SoftSpoon.io@soft_spoon,Daily #blockchain and #ethereum reads: http://softspoon.io/daily-reads-121416/…,0,0,0,False
275,Lika Nicolic@Ethereumhub,Great people deserve a great audience. http://blockgeeks.com #Blockchain #Ethereum #Bitcoin,1,0,0,False
276,stephanus Nieberg@Allinoneprofit1,"GET 10MHs mining speed for F.R.E.E , and use it for Ethereum, litecoin or bitcoin mining http://bit.ly/10MHsFree #ethereum #bitcoin
58GIF",0,0,0,False
277,seven nieberg@seven_nieberg,"GET 10MHs mining speed for F.R.E.E , and use it for Ethereum, litecoin or bitcoin mining http://bit.ly/10MHsFree #ethereum #bitcoin
53GIF",0,0,0,False
279,stef nieberg@sevens_heaven,"GET 10MHs mining speed for F.R.E.E , and use it for Ethereum, litecoin or bitcoin mining http://bit.ly/10MHsFree #ethereum #bitcoin
61GIF",0,0,0,False
280,stephanus Nieberg@Allinoneprofit1,"GET 10MHs mining speed for F.R.E.E , and use it for Ethereum, litecoin or bitcoin mining http://bit.ly/10MHsFree #ethereum #bitcoin
35GIF",0,0,0,False
282,Veki@Veki551155,The challenges of cryptocurrencies #ethereum #blockchain #ico https://medium.com/@humaniq.ico/the-challenges-of-cryptocurrencies-3d78591941a6…,0,0,0,False
283,seven nieberg@seven_nieberg,"GET 10MHs mining speed for F.R.E.E , and use it for Ethereum, litecoin or bitcoin mining http://bit.ly/10MHsFree #ethereum #bitcoin
26GIF",0,0,0,False
284,CryptoNewswire @CryptoNewswire,Ethereum Classic Considers Bitcoin-esque Monetary Policy - http://bitcoinschannel.com/ethereum-classic-considers-bitcoin-esque-monetary-policy/… $ETC $BTC $ETH #finance #bitcoin #markets,2,0,0,False
285,stephanus Nieberg@Allinoneprofit1,"GET 10MHs mining speed for F.R.E.E , and use it for Ethereum, litecoin or bitcoin mining http://bit.ly/10MHsFree #ethereum #bitcoin
86GIF",0,0,0,False
286,Distributed Ledger Beat@LedgerBeat,#Ethereum’s latest hard fork and how it affects the platform | #blockchain http://bit.ly/2gHLwpI,2,1,0,False
287,Faith Emmanuel@residualbitcoin,The challenges of cryptocurrencies #ethereum #blockchain #ico https://medium.com/@humaniq.ico/the-challenges-of-cryptocurrencies-3d78591941a6…  #ResidualBitcoin,0,0,0,False
288,BitcoinAgile@bitcoinagile,The challenges of cryptocurrencies #ethereum #blockchain #ico https://medium.com/@humaniq.ico/the-challenges-of-cryptocurrencies-3d78591941a6…,0,0,0,False
289,Humaniq@Humaniq,"The challenges of Cryptocurrencies, by @Alex_Fork.  Influenced by @VitalikButerin.  #ico #blockchain #ethereumThe challenges of cryptocurrenciesChallenges of the Modern Cryptoeconomymedium.com",0,0,0,False
290,Coinstats@coinstats,"Ethereum Classic - ETC
Price: $0.974711
Change in 1h: +-1.38%
Market cap: $84648872.0
Ranking: 6
#Ethereum Classic #ETC",0,0,0,False
291,Golden Gateway@GoldenGatewayUS,The Resurrection of Public Blockchains http://officialgoldengateway.blogspot.com/2016/12/the-resurrection-of-public-blockchains_14.html… #ethereum,0,0,0,False
292,Bobe'bot@Bobe_bot,"1 #BTC = 810.3515 #CHF
1 #ETH = 8.8672 #CHF
1 #DOGE = 0.000221162513 #CHF
sources: @cryptonatorcom @hellobity",0,0,0,False
293,Coinstats@coinstats,"Ethereum - ETH
Price: $8.3451
Change in 1h: +-0.24%
Market cap: $725320461.0
Ranking: 2
#Ethereum #ETH",0,0,0,False
294,stef nieberg@sevens_heaven,"GET 10MHs mining speed for F.R.E.E , and use it for Ethereum, litecoin or bitcoin mining http://bit.ly/10MHsFree #ethereum #bitcoin
41GIF",0,0,0,False
298,Lika Nicolic@Ethereumhub,"#Blockchain Technology and the Law Are Allies, Not Enemies http://dld.bz/fkYrY #ethereum #fintech",1,1,0,False
299,stephanus Nieberg@Allinoneprofit1,"GET 10MHs mining speed for F.R.E.E , and use it for Ethereum, litecoin or bitcoin mining http://bit.ly/10MHsFree #ethereum #bitcoin
6GIF",0,0,0,False
300,/r/Ethereum@r_Ethereum,zk-SNARKs Technically Explained: Basic Principles #Ethereumzk-SNARKs Technically Explained: Basic PrinciplesPosted in r/ethereum by u/srw • 27 points and 0 commentsreddit.com,0,0,0,False
301,/r/Ethereum@r_Ethereum,Breaking: Motion To Intervene IRS Summons On Coinbase Filed #EthereumBreaking: Motion To Intervene IRS Summons On Coinbase FiledPosted in r/ethereum by u/ETHNews • 29 points and 6 commentsreddit.com,0,0,0,False
302,seven nieberg@seven_nieberg,"GET 10MHs mining speed for F.R.E.E , and use it for Ethereum, litecoin or bitcoin mining http://bit.ly/10MHsFree #ethereum #bitcoin
90GIF",0,0,0,False
303,stephanus Nieberg@Allinoneprofit1,"GET 10MHs mining speed for F.R.E.E , and use it for Ethereum, litecoin or bitcoin mining http://bit.ly/10MHsFree #ethereum #bitcoin
30GIF",0,0,0,False
304,Russ Woolgar@RussWoolgar,"@BlockCDN #crowdasale live!
Be a part of the new sharing economy!
 http://ln.is/9DiUg #ethereum... by #BitcoinRTs via @c0nvey",0,0,0,False
306,MayaLuvsEthereum@MostlyRawMaia,Danish Central Bank To Digitalize National Currency https://cointelegraph.com/news/danish-central-bank-to-digitalize-national-currency… via @Cointelegraph #BitCoin #Ethereum,1,0,0,False
309,seven nieberg@seven_nieberg,"GET 10MHs mining speed for F.R.E.E , and use it for Ethereum, litecoin or bitcoin mining http://bit.ly/10MHsFree #ethereum #bitcoin
25GIF",0,0,0,False
310,stef nieberg@sevens_heaven,"GET 10MHs mining speed for F.R.E.E , and use it for Ethereum, litecoin or bitcoin mining http://bit.ly/10MHsFree #ethereum #bitcoin
20GIF",0,0,0,False
312,Cryptiv@Cryptiv,"Strong reminder of how much control governments & central banks have over their citizen's money and financial practices #bitcoin #ethereumQuote TweetAndreas (BEWARE of giveaway scams!)@aantonop · Dec 14, 2016India, Venezuela... next Australia? 

Does anyone see a pattern emerging?

http://news.com.au/finance/economy/australian-economy/government-floats-100-note-removal/news-story/042220701a8310c39a1a87da4e20de35…",0,0,0,False
313,stephanus Nieberg@Allinoneprofit1,"GET 10MHs mining speed for F.R.E.E , and use it for Ethereum, litecoin or bitcoin mining http://bit.ly/10MHsFree #ethereum #bitcoin
82GIF",0,0,0,False
314,WildTantra@wildtantra,"OMG, #Ethereum Is So Hard Forked via @Blockgks http://buff.ly/2hsAVyF #blockchain",0,0,0,False
315,seven nieberg@seven_nieberg,"GET 10MHs mining speed for F.R.E.E , and use it for Ethereum, litecoin or bitcoin mining http://bit.ly/10MHsFree #ethereum #bitcoin
99GIF",0,0,0,False
316,stephanus Nieberg@Allinoneprofit1,"GET 10MHs mining speed for F.R.E.E , and use it for Ethereum, litecoin or bitcoin mining http://bit.ly/10MHsFree #ethereum #bitcoin
52GIF",0,0,0,False
317,Lika Nicolic@Ethereumhub,Q&A: STEPHAN TUAL: Founder & COO Slock.it & The DAO http://dld.bz/faeQR #THEDAO #ethereum #blockchain,0,0,0,False
318,/r/Ethereum@r_Ethereum,"chronobank ICO, do or don't? Opinions? #Ethereumchronobank ICO, do or don't? Opinions?Like the title suggests, What are you opinions about Chronobank.io? Is it a legit team? Is it a workable idea? What do you think?reddit.com",1,0,0,False
319,stef nieberg@sevens_heaven,"GET 10MHs mining speed for F.R.E.E , and use it for Ethereum, litecoin or bitcoin mining http://bit.ly/10MHsFree #ethereum #bitcoin
83GIF",0,0,0,False
320,Faith Emmanuel@residualbitcoin,#ethereum Price Technical Analysis – ETH/USD To Gain Traction - newsBTC #cryptocurrency http://cryptocurrencyfaq.com/cryptocurrency-news/ethereum-price-technical-analysis-%E2%80%93-ethusd-gain-traction-newsbtc… #ResidualBitcoin,0,0,0,False
322,Blockgeeks@Blockgks,What are your favorite digital wallets to use and why? http://dld.bz/fevtV #blockchain #bitcoin #ethereum,0,0,0,False
323,Samuel Holt@plantman79,"Modified Dutch Auction! I'm glad @gnosis has gone away from the FOMO crazed models of recents token launches. #GNO #ETHQuote TweetGnosis@gnosisPM · Dec 12, 2016We've written a post introducing our token launch! 
https://blog.gnosis.pm/introducing-the-gnosis-token-launch-3cc4cffb5098#.ybtp9rro1…",0,0,0,False
324,Nxt Crypto Nerd@nxtcryptonerd,Ethereum Price Technical Analysis – ETH/USD To Gain Traction - NewsBTC - http://ow.ly/YP3b3077myd #ethereum #cryptocurrency,0,0,0,False
326,Coinstats@coinstats,"Ethereum Classic - ETC
Price: $0.98839
Change in 1h: +-0.9%
Market cap: $85835538.0
Ranking: 6
#Ethereum Classic #ETC",0,0,0,False
327,Coinstats@coinstats,"Ethereum - ETH
Price: $8.3706
Change in 1h: +0.15%
Market cap: $727525084.0
Ranking: 2
#Ethereum #ETH",0,0,0,False
328,stephanus Nieberg@Allinoneprofit1,"GET 10MHs mining speed for F.R.E.E , and use it for Ethereum, litecoin or bitcoin mining http://bit.ly/10MHsFree #ethereum #bitcoin
83GIF",0,0,0,False
330,Claus Dierksmeier@ProfCD,"#Bitcoin, #Ether, #Cryptocurrencies and #Alt coins in general --- are they a moral boon or bane? Check it out at... http://buff.ly/2hwFeqc",2,0,0,False
331,Statspotting.com@statspotting,The case for Ether - http://statspotting.com/the-case-for-ether/… #ethereum #bitcoin #ether #cryptoThe case for Ether - Statspotting!Bitcoin would be the Gold and Ether the oil of the P2P futurestatspotting.com,0,0,0,False
333,Ether Real@EtherReal_ID,"@vruz LOVED you last tweet - check out etherre.al -on a mission to seize and distribute digital identification, using #IPFS & #ethereum",1,0,0,False
335,stef nieberg@sevens_heaven,"GET 10MHs mining speed for F.R.E.E , and use it for Ethereum, litecoin or bitcoin mining http://bit.ly/10MHsFree #ethereum #bitcoin
33GIF",0,0,0,False
336,Faith Emmanuel@residualbitcoin,The case for Ether - Statspotting #bitcoin #ethereum #ether #crypto http://bitcoinagile.com/9E6A23/the-case-for-ether-statspotting_stream…  #ResidualBitcoin,0,0,0,False
337,seven nieberg@seven_nieberg,"GET 10MHs mining speed for F.R.E.E , and use it for Ethereum, litecoin or bitcoin mining http://bit.ly/10MHsFree #ethereum #bitcoin
60GIF",0,0,0,False
338,stephanus Nieberg@Allinoneprofit1,"GET 10MHs mining speed for F.R.E.E , and use it for Ethereum, litecoin or bitcoin mining http://bit.ly/10MHsFree #ethereum #bitcoin
60GIF",0,0,0,False
339,blockchainmedia@Ethereumlab,Q&A: STEPHAN TUAL: Founder & COO Slock.it & The DAO http://dld.bz/faeQR #THEDAO #ethereum #blockchain,2,0,0,False
340,BitcoinAgile@bitcoinagile,The case for Ether - Statspotting #bitcoin #ethereum #ether #crypto http://bitcoinagile.com/9E6A23/the-case-for-ether-statspotting_stream…,1,0,0,False
342,stef nieberg@sevens_heaven,"GET 10MHs mining speed for F.R.E.E , and use it for Ethereum, litecoin or bitcoin mining http://bit.ly/10MHsFree #ethereum #bitcoin
28GIF",0,0,0,False
343,Ameer Rosic@AmeerRosic,5 Blockchain Applications That will Revolutionize The world http://bit.ly/1U4aha8 #Blockchain #Bitcoin #ethereum,1,0,0,False
346,seven nieberg@seven_nieberg,"GET 10MHs mining speed for F.R.E.E , and use it for Ethereum, litecoin or bitcoin mining http://bit.ly/10MHsFree #ethereum #bitcoin
16GIF",0,0,0,False
348,LAPITH@bhumharit,RT BlockCDN: BlockCDN by numbers. See how we are doing #ethereum #bitcoin #altcoins #cryptocurrency #fintech,0,0,0,False
350,bitcoin Giver@bitcointhai191,"@BlockCDN #crowdasale live!
Be a part of the new sharing economy!
 http://ln.is/27ZI1 #ethereum... by #dewi_aries via @c0nvey",0,0,0,False
352,Ron Mousseau@ronmousseau,"OMG, #Ethereum Is So Hard Forked via @Blockgks http://buff.ly/2gZaehA #blockchain",0,0,0,False
353,Veki@Veki551155,#ethereum ETH and ETC Price Trends Week of December 12th - Altcoin Today #bitcoin #News http://bitcoinagile.com/9E6739/ethereum-eth-and-etc-price-trends-week-of-december-12th-altcoin-today_stream…,0,0,0,False
354,stef nieberg@sevens_heaven,"GET 10MHs mining speed for F.R.E.E , and use it for Ethereum, litecoin or bitcoin mining http://bit.ly/10MHsFree #ethereum #bitcoin
3GIF",0,0,0,False
355,Faith Emmanuel@residualbitcoin,#ethereum ETH and ETC Price Trends Week of December 12th - Altcoin Today #bitcoin #News http://bitcoinagile.com/9E6739/ethereum-eth-and-etc-price-trends-week-of-december-12th-altcoin-today_stream…  #…,0,0,0,False
356,Blockgeeks@Blockgks,"Top AMA's with the leaders in #Blockchain, #Bitcoin and #Ethereum http://blockgeeks.com/ama/",2,0,0,False
357,BitcoinAgile@bitcoinagile,#ethereum ETH and ETC Price Trends Week of December 12th - Altcoin Today #bitcoin #News http://bitcoinagile.com/9E6739/ethereum-eth-and-etc-price-trends-week-of-december-12th-altcoin-today_stream…,0,0,0,False
358,Coinstats@coinstats,"Ethereum Classic - ETC
Price: $0.998011
Change in 1h: +0.4%
Market cap: $86669840.0
Ranking: 6
#Ethereum Classic #ETC",0,0,0,False
359,Coinstats@coinstats,"Ethereum - ETH
Price: $8.35477
Change in 1h: +-0.24%
Market cap: $726138450.0
Ranking: 2
#Ethereum #ETH",0,0,0,False
361,stephanus Nieberg@Allinoneprofit1,"GET 10MHs mining speed for F.R.E.E , and use it for Ethereum, litecoin or bitcoin mining http://bit.ly/10MHsFree #ethereum #bitcoin
22GIF",0,0,0,False
362,BitcoinBuzz vega9@BitcoinBuzzV9,http://bitcoinbuzz.vega9.com - Hot topics: #bitcoin #blockchain #ethereum #fintech #cryptocurrency #btc,0,0,0,False
363,stef nieberg@sevens_heaven,"GET 10MHs mining speed for F.R.E.E , and use it for Ethereum, litecoin or bitcoin mining http://bit.ly/10MHsFree #ethereum #bitcoin
37GIF",0,0,0,False
364,stephanus Nieberg@Allinoneprofit1,"GET 10MHs mining speed for F.R.E.E , and use it for Ethereum, litecoin or bitcoin mining http://bit.ly/10MHsFree #ethereum #bitcoin
87GIF",0,0,0,False
365,Ethereum SE@StackEthereum,How to pass numbers greater than 999999999999999 to contracts? http://ethereum.stackexchange.com/questions/10685/how-to-pass-numbers-greater-than-999999999999999-to-contracts… #ethereum #solidity #bignumber #uint,0,0,0,False
366,Ameer Rosic@AmeerRosic,5 Blockchain Applications That Will Transform Society http://bit.ly/1U4aha8 #Blockchain #Bitcoin #ethereum,0,0,0,False
368,CoinFollower@CoinFollowerCom,The Resurrection of Public Blockchains: #ethereum http://coinfollower.com/18423/The%20Resurrection%20of%20Public%20Blockchains…,0,0,0,False
369,/r/Ethereum@r_Ethereum,"Geth 1.5.5 ""Doesn't look like anything to me"" released! #Ethereum http://ift.tt/2hEVJU8",1,0,0,False
370,stef nieberg@sevens_heaven,"GET 10MHs mining speed for F.R.E.E , and use it for Ethereum, litecoin or bitcoin mining http://bit.ly/10MHsFree #ethereum #bitcoin
66GIF",0,0,0,False
371,Statspotting.com@statspotting,Microsoft's Surface Hub Is A Billion Dollar Business - http://statspotting.com/microsofts-surface-hub-billion-dollar-business/… #vc #startups #microsoft #ethereumMicrosoft's Surface Hub Is A Billion Dollar Business - Statspotting!The product was released only in January 2016statspotting.com,1,0,0,False
373,Rob Viglione@robviglione,"#Ethereum Classic Gets More Interesting: More Developers and a New Monetary Policy https://steemit.com/ethereum/@finpunk/ethereum-classic-gets-more-interesting-more-developers-and-a-new-monetary-policy… #bitcoin #econ #financeEthereum Classic Gets More Interesting: More Developers and a New Monetary Policy — SteemitEthereum Classic (ETC) was one of the first major revolts of a successful cryptocurrency community, the point of… by finpunksteemit.com",2,3,0,False
374,Lika Nicolic@Ethereumhub,"Check it out! Full Q &A with Richard Olsen, CEO at #lykke http://buff.ly/2cQ2dIQ #blockchain #ethereum",0,0,0,False
375,stephanus Nieberg@Allinoneprofit1,"GET 10MHs mining speed for F.R.E.E , and use it for Ethereum, litecoin or bitcoin mining http://bit.ly/10MHsFree #ethereum #bitcoin
93GIF",0,0,0,False
376,Gautamm Mehra@DigitalTwister,"OMG, #Ethereum Is So Hard Forked via @Blockgks http://bit.ly/2hvFeGQ #blockchain",0,0,0,False
379,Cliff K Jordan@CKJordan15,"Earn up to $65,610 daily! join & get the benefits http://bit.ly/coinviv2 #coinomia #ethereum #cryptoguide #Bitcoins",0,0,0,False
380,Lindsey Torres@lashjiantorres,#BusinessWorks Container Edition and #Mashery as key success factors in a #blockchain project: http://tibco.cm/2hwiDdh #Hackathon #Ethereum,1,0,0,False
381,Ethereum SE@StackEthereum,How deploy a smart contract with meteor and metamask? http://ethereum.stackexchange.com/questions/10002/how-deploy-a-smart-contract-with-meteor-and-metamask… #ethereum #dappdevelopment #contractdeployment #metamask,0,0,0,False
383,Ethereum UAE@Ethereum_UAE,The Resurrection of Public Blockchains http://ift.tt/2hlpJmZ #Ethereum,2,5,0,False
384,Jackson Shaw @JacksonShaw,"The blockchain Daily is out! http://buff.ly/2gCpJy0 Stories via @Luna94089540 #blockchain #ethereum

— Dave Kearns (@dak3) December 10, 2…",0,0,0,False
385,stef nieberg@sevens_heaven,"GET 10MHs mining speed for F.R.E.E , and use it for Ethereum, litecoin or bitcoin mining http://bit.ly/10MHsFree #ethereum #bitcoin
49GIF",0,0,0,False
386,Vindyne8@Vindyne8,Check out @DESbranche #branche @smithandcrown https://smithandcrown.com/event/branche-ico-crowdsale-payday-lending-platform/… includes full response transcript #fintech #blockchain #eth #bitcoin,16,16,0,False
387,Veki@Veki551155,The Resurrection of Public Blockchains - CoinDesk #bitcoin #ethereum #trading #2016Review http://bitcoinagile.com/9E61BD/the-resurrection-of-public-blockchains-coindesk_stream…,0,0,0,False
388,Faith Emmanuel@residualbitcoin,The Resurrection of Public Blockchains - CoinDesk #bitcoin #ethereum #trading #2016Review http://bitcoinagile.com/9E61BD/the-resurrection-of-public-blockchains-coindesk_stream… …,0,0,0,False
389,Faith Emmanuel@residualbitcoin,Electron Introduces #blockchain Technology to UKs Energy Sector - NEWSBTC #ethereum #energy http://newsbtc.com/2016/12/14/electron-blockchain-tech-uk… …,0,0,0,False
391,BitcoinAgile@bitcoinagile,The Resurrection of Public Blockchains - CoinDesk #bitcoin #ethereum #trading #2016Review http://bitcoinagile.com/9E61BD/the-resurrection-of-public-blockchains-coindesk_stream…,0,0,0,False
392,Veki@Veki551155,Electron Introduces #blockchain Technology to UKs Energy Sector - NEWSBTC #ethereum #energy …,0,0,0,False
393,blockchainmedia@Ethereumlab,"Check it out! Full Q &A with Richard Olsen, CEO at #lykke http://buff.ly/2cQ2dIQ #blockchain #ethereum",0,0,0,False
394,Blockgeeks@Blockgks,"Besides #Ethereum, which blockchains do you think are currently leading the pack http://dld.bz/fcNRx",1,1,0,False
395,Tech Lib@tech__lib,"What is #Blockchain Technology? Guide For Beginners  #ethereum
@Fintechgrowth - http://techlib.online/what-istechnology-guide-for-beginners-2/…",0,0,0,False
396,Coinstats@coinstats,"Ethereum Classic - ETC
Price: $0.993779
Change in 1h: +0.36%
Market cap: $86300787.0
Ranking: 6
#Ethereum Classic #ETC",0,0,0,False
397,Coinstats@coinstats,"Ethereum - ETH
Price: $8.37441
Change in 1h: +-0.15%
Market cap: $727834790.0
Ranking: 2
#Ethereum #ETH",0,0,0,False
399,Lika Nicolic@Ethereumhub,"Who is working on a blockchain powered sustainable energy solutions?
http://dld.bz/eVxaY #ethereum #blockchain",0,0,0,False
400,stephanus Nieberg@Allinoneprofit1,"GET 10MHs mining speed for F.R.E.E , and use it for Ethereum, litecoin or bitcoin mining http://bit.ly/10MHsFree #ethereum #bitcoin
99GIF",0,0,0,False
402,Olivia Lory Kay@OliviaLoryKay,"OMG, #Ethereum Is So Hard Forked via @Blockgks http://buff.ly/2hvRLKw #blockchain",1,0,0,False
403,seven nieberg@seven_nieberg,"GET 10MHs mining speed for F.R.E.E , and use it for Ethereum, litecoin or bitcoin mining http://bit.ly/10MHsFree #ethereum #bitcoin
33GIF",0,0,0,False
404,stef nieberg@sevens_heaven,"GET 10MHs mining speed for F.R.E.E , and use it for Ethereum, litecoin or bitcoin mining http://bit.ly/10MHsFree #ethereum #bitcoin
90GIF",0,0,0,False
405,𝗖𝗥𝗬𝗣𝗧𝗢𝗟𝗜𝗩𝗘𝗥𝗠𝗢𝗥𝗘@Crypt0Livermore,Ethereum Classic may soon change the monetary policy putting an hard cap on the total amount of tokens to be issued. #etc #eth #ethereum,2,1,0,False
406,Ethereum SE@StackEthereum,How can you distribute dividends from a smart contract? http://ethereum.stackexchange.com/questions/10683/how-can-you-distribute-dividends-from-a-smart-contract… #ethereum #solidity #dao,1,0,0,False
407,stephanus Nieberg@Allinoneprofit1,"GET 10MHs mining speed for F.R.E.E , and use it for Ethereum, litecoin or bitcoin mining http://bit.ly/10MHsFree #ethereum #bitcoin
67GIF",0,0,0,False
408,Rebekah Quinn @Quinn_SantaCruz,#BusinessWorks Container Edition and #Mashery as key success factors in a #blockchain project: http://tibco.cm/2hwca1P #Hackathon #Ethereum,1,0,0,False
409,seven nieberg@seven_nieberg,"GET 10MHs mining speed for F.R.E.E , and use it for Ethereum, litecoin or bitcoin mining http://bit.ly/10MHsFree #ethereum #bitcoin
18GIF",0,0,0,False
410,blockchainmedia@Ethereumlab,"Who is working on a blockchain powered sustainable energy solutions?
http://dld.bz/eVxaY #ethereum #blockchain",0,0,0,False
413,stef nieberg@sevens_heaven,"GET 10MHs mining speed for F.R.E.E , and use it for Ethereum, litecoin or bitcoin mining http://bit.ly/10MHsFree #ethereum #bitcoin
70GIF",0,0,0,False
414,FunVidClick@FunVidClick,"Get 3% off Ether Cloud Mining With Coupon Code - 8rRBkl

http://dld.bz/ePx6q
#ether #cloudmining #hashpower",0,0,0,False
415,Lika Nicolic@Ethereumhub,Step-by-Step Guide: What the heck is a Smart Contract? #blockchain #bitcoin #ethereum http://dld.bz/eYNat,5,8,0,False
416,stef nieberg@sevens_heaven,"GET 10MHs mining speed for F.R.E.E , and use it for Ethereum, litecoin or bitcoin mining http://bit.ly/10MHsFree #ethereum #bitcoin
36GIF",0,0,0,False
417,stephanus Nieberg@Allinoneprofit1,"GET 10MHs mining speed for F.R.E.E , and use it for Ethereum, litecoin or bitcoin mining http://bit.ly/10MHsFree #ethereum #bitcoin
47GIF",0,0,0,False
418,indxio@indxio,#Russia Market Close || #Bitcoin: $778.4 | 730.24 EUR||  #Litecoin: 0.0023 BTC  || #Ethereum: 0.0107 BTC   || $BTC $LTC $ETH $RUB,1,0,0,False
419,seven nieberg@seven_nieberg,"GET 10MHs mining speed for F.R.E.E , and use it for Ethereum, litecoin or bitcoin mining http://bit.ly/10MHsFree #ethereum #bitcoin
2GIF",0,0,0,False
420,stef nieberg@sevens_heaven,"GET 10MHs mining speed for F.R.E.E , and use it for Ethereum, litecoin or bitcoin mining http://bit.ly/10MHsFree #ethereum #bitcoin
17GIF",0,0,0,False
421,Faith Emmanuel@residualbitcoin,CoinDesks Most Influential People in #blockchain 2016 - CoinDesk #bitcoin #ethereum http://coindesk.com/coindesks-influential-people-blockchain-2016…  #Resi…,0,0,0,False
422,Veki@Veki551155,CoinDesks Most Influential People in #blockchain 2016 - CoinDesk #bitcoin #ethereum http://coindesk.com/coindesks-influential-people-blockchain-2016…,0,0,0,False
424,BitcoinAgile@bitcoinagile,CoinDesks Most Influential People in #blockchain 2016 - CoinDesk #bitcoin #ethereum http://coindesk.com/coindesks-influential-people-blockchain-2016…,1,0,0,False
425,NCFA Canada@NCFACanada,"#Blockchain standards needed to avoid dangerous outcomes #fintech #bitcoin #ethereumBlockchain standards needed to avoid dangerous outcomes: report | IT World Canada NewsAs blockchains gain traction, a U.K.-based think tank is calling for better standardization around their use. A team of financial futurists called Long Finance issued a report in November, highligh...itworldcanada.com",0,0,0,False
426,Coinstats@coinstats,"Ethereum - ETH
Price: $8.38657
Change in 1h: +0.5%
Market cap: $728880590.0
Ranking: 2
#Ethereum #ETH",0,0,0,False
427,stef nieberg@sevens_heaven,"GET 10MHs mining speed for F.R.E.E , and use it for Ethereum, litecoin or bitcoin mining http://bit.ly/10MHsFree #ethereum #bitcoin
52GIF",0,0,0,False
430,Vindyne8@Vindyne8,#RT Chronobank ICO Newsletter No.1 - http://eepurl.com/cs48kz #blockchain #ethereum #bitcoin #ICO #startup #fintech Less than 12hrs!,15,18,0,False
431,bitcoin new's@jagga_dakku004,Want latest news about #Bitcoin #Faucets?Come here and join latest faucets https://goo.gl/TWs8QP #Altocin #ethereum #blockchain #secure,0,0,0,False
432,stef nieberg@sevens_heaven,"GET 10MHs mining speed for F.R.E.E , and use it for Ethereum, litecoin or bitcoin mining http://bit.ly/10MHsFree #ethereum #bitcoin
65GIF",0,0,0,False
433,Bitcoin_Social@Luckybitlover,Want latest news about #Bitcoin #Faucets?Come here and join latest faucets https://goo.gl/TWs8QP #Altocin #ethereum #blockchain #secure,0,0,0,False
434,Lika Nicolic@Ethereumhub,It's coming! The #Blockchain Technology That Will Replace Lawyers http://dld.bz/eYNat #ethereum,0,0,0,False
435,stephanus Nieberg@Allinoneprofit1,"GET 10MHs mining speed for F.R.E.E , and use it for Ethereum, litecoin or bitcoin mining http://bit.ly/10MHsFree #ethereum #bitcoin
65GIF",0,0,0,False
436,stef nieberg@sevens_heaven,"GET 10MHs mining speed for F.R.E.E , and use it for Ethereum, litecoin or bitcoin mining http://bit.ly/10MHsFree #ethereum #bitcoin
63GIF",0,0,0,False
437,seven nieberg@seven_nieberg,"GET 10MHs mining speed for F.R.E.E , and use it for Ethereum, litecoin or bitcoin mining http://bit.ly/10MHsFree #ethereum #bitcoin
71GIF",0,0,0,False
438,blockchainmedia@Ethereumlab,It's coming! The #Blockchain Technology That Will Replace Lawyers http://dld.bz/eYNat #ethereum,1,1,0,False
439,stef nieberg@sevens_heaven,"GET 10MHs mining speed for F.R.E.E , and use it for Ethereum, litecoin or bitcoin mining http://bit.ly/10MHsFree #ethereum #bitcoin
60GIF",0,0,0,False
442,stef nieberg@sevens_heaven,"GET 10MHs mining speed for F.R.E.E , and use it for Ethereum, litecoin or bitcoin mining http://bit.ly/10MHsFree #ethereum #bitcoin
24GIF",0,0,0,False
443,Humaniq@Humaniq,2017 will be the year of the smart contract.  #ico #bitcoin #blockchain #ethereum http://bit.ly/2gA7nKK,1,1,0,False
444,/r/Ethereum@r_Ethereum,"What value have pow chains if there is no power issue (costs) #EthereumWhat value have pow chains if there is no power issue (costs)There could be a point in time that for example, solar tech gained so much efficiency that there are no or very little power issues left in terms...reddit.com",0,0,0,False
445,BlockCDN@BlockCDN,Take part in BlockCDN today for 1 ETH = 902 BCDN Help us build a more equitable future #sharingeconomy #blockchain #ETH #bitcoin #crowdfund,68,110,0,False
446,Jeremy Ulysses Shuman@jeremyushuman,Not long until the price goes up! Last chance at 1 ETH = 950 BCDN http://ln.is/Ukblt #investors #ethereum #BTC…... by #dukbetrand,0,0,0,False
449,Josh Cutler@joshcutler,"What is #Ethereum? A Step-by-Step Beginners Guide #blockchain
http://buff.ly/2hkmpZb",1,1,0,False
450,blockchainmedia@Ethereumlab,Is #Blockchain Technology Going To Disrupt Our Political System:  http://dld.bz/fgnWh #ethereum,1,0,0,False
452,Coinstats@coinstats,"Ethereum Classic - ETC
Price: $0.991882
Change in 1h: +-0.22%
Market cap: $86133361.0
Ranking: 6
#Ethereum Classic #ETC",0,0,0,False
453,Coinstats@coinstats,"Ethereum - ETH
Price: $8.32532
Change in 1h: +-0.56%
Market cap: $723547221.0
Ranking: 2
#Ethereum #ETH",0,0,0,False
454,Ethereum Price@EthereumPrice_,"#Ethereum: Ether Price Index
1 ETH =0.010685Ƀ XBT = $8.333450 USD
Today: +15.76%⬆︎ Last 24h: +16.40%⬆︎
https://ethereum-price.com",0,0,0,False
456,Netcube93@Netcube93,Introducing Contest & Collaboration Platform #Lykke-Streams https://reddit.com/r/Bitcoin/comments/5ia5fe/introducing_contest_collaboration_platform/… #bitcoin #blockchain #ethereum #cryptocurrencyIntroducing Contest & Collaboration Platform Lykke-Streams[Lykke](https://www.lykke.com) is a semi-decentralized exchange on the Bitcoin-Blockchain. About three weeks ago they've released a platform...reddit.com,1,4,0,False
457,stephanus Nieberg@Allinoneprofit1,"GET 10MHs mining speed for F.R.E.E , and use it for Ethereum, litecoin or bitcoin mining http://bit.ly/10MHsFree #ethereum #bitcoin
18GIF",0,0,0,False
459,Francesco Villa@cekospiu,Donate to our project! Add funds and receive $$$ in exchange from profits lifetime! @gagpubblicita #ethereum #miner https://indiegogo.com/projects/build-ethereum-mining-farm/x/14702367#/…,0,0,0,False
461,blockchainmedia@Ethereumlab,Smart Contracts: The #Blockchain Technology That Will Replace Lawyers http://dld.bz/eYNat #ethereum,0,0,0,False
462,stef nieberg@sevens_heaven,"GET 10MHs mining speed for F.R.E.E , and use it for Ethereum, litecoin or bitcoin mining http://bit.ly/10MHsFree #ethereum #bitcoin
2GIF",0,0,0,False
463,Chenka Nkhata@ChenkaNkhata,"OMG, #Ethereum Is So Hard Forked via @Blockgks http://buff.ly/2hvLfnb #blockchain",0,0,0,False
464,Joseph Bouqdib@thejosephb,"OMG, #Ethereum Is So Hard Forked via @Blockgks http://buff.ly/2gHFuFq #blockchain",1,0,0,False
465,seven nieberg@seven_nieberg,"GET 10MHs mining speed for F.R.E.E , and use it for Ethereum, litecoin or bitcoin mining http://bit.ly/10MHsFree #ethereum #bitcoin
80GIF",0,0,0,False
467,Veki@Veki551155,#ethereum #blockchain ImagesEthereum Blockchain ImagesHi guys. Captain Anton is speaking.medium.com,0,0,0,False
468,BitcoinAgile@bitcoinagile,#ethereum #blockchain ImagesEthereum Blockchain ImagesHi guys. Captain Anton is speaking.medium.com,1,2,0,False
469,seven nieberg@seven_nieberg,"GET 10MHs mining speed for F.R.E.E , and use it for Ethereum, litecoin or bitcoin mining http://bit.ly/10MHsFree #ethereum #bitcoin
93GIF",0,0,0,False
470,stephanus Nieberg@Allinoneprofit1,"GET 10MHs mining speed for F.R.E.E , and use it for Ethereum, litecoin or bitcoin mining http://bit.ly/10MHsFree #ethereum #bitcoin
43GIF",0,0,0,False
472,stef nieberg@sevens_heaven,"GET 10MHs mining speed for F.R.E.E , and use it for Ethereum, litecoin or bitcoin mining http://bit.ly/10MHsFree #ethereum #bitcoin
18GIF",0,0,0,False
473,stef nieberg@sevens_heaven,"GET 10MHs mining speed for F.R.E.E , and use it for Ethereum, litecoin or bitcoin mining http://bit.ly/10MHsFree #ethereum #bitcoin
67GIF",0,0,0,False
475,Bitcoin Updater@BitcoinUpdater,Digital Currencies: The Best-Performing FX Bets of 2016? #ethereum http://soco.space/FiJB79,0,0,0,False
476,seven nieberg@seven_nieberg,"GET 10MHs mining speed for F.R.E.E , and use it for Ethereum, litecoin or bitcoin mining http://bit.ly/10MHsFree #ethereum #bitcoin
32GIF",0,0,0,False
477,Blockgeeks@Blockgks,Can This 22-year-old Coder Out-Bitcoin #Bitcoin? http://dld.bz/eWMa7 #ethereum,0,0,0,False
478,Coinstats@coinstats,"Ethereum Classic - ETC
Price: $0.995461
Change in 1h: +-0.02%
Market cap: $86442930.0
Ranking: 6
#Ethereum Classic #ETC",0,0,0,False
479,Bobe'bot@Bobe_bot,"1 #BTC = 812.7704 #CHF
1 #ETH = 8.9254 #CHF
1 #DOGE = 0.00022198343 #CHF
sources: @cryptonatorcom @hellobity",0,0,0,False
480,Coinstats@coinstats,"Ethereum - ETH
Price: $8.37704
Change in 1h: +0.12%
Market cap: $728034464.0
Ranking: 2
#Ethereum #ETH",0,0,0,False
481,stef nieberg@sevens_heaven,"GET 10MHs mining speed for F.R.E.E , and use it for Ethereum, litecoin or bitcoin mining http://bit.ly/10MHsFree #ethereum #bitcoin
51GIF",0,0,0,False
482,stephanus Nieberg@Allinoneprofit1,"GET 10MHs mining speed for F.R.E.E , and use it for Ethereum, litecoin or bitcoin mining http://bit.ly/10MHsFree #ethereum #bitcoin
44GIF",0,0,0,False
484,stef nieberg@sevens_heaven,"GET 10MHs mining speed for F.R.E.E , and use it for Ethereum, litecoin or bitcoin mining http://bit.ly/10MHsFree #ethereum #bitcoin
94GIF",0,0,0,False
486,Thomas Conté@tomconte,Blockchain development 101: Compile and deploy an #Ethereum smart contract with solc and web3 http://buff.ly/2gYWhQy,0,0,0,False
487,stephanus Nieberg@Allinoneprofit1,"GET 10MHs mining speed for F.R.E.E , and use it for Ethereum, litecoin or bitcoin mining http://bit.ly/10MHsFree #ethereum #bitcoin
79GIF",0,0,0,False
488,seven nieberg@seven_nieberg,"GET 10MHs mining speed for F.R.E.E , and use it for Ethereum, litecoin or bitcoin mining http://bit.ly/10MHsFree #ethereum #bitcoin
48GIF",0,0,0,False
489,stef nieberg@sevens_heaven,"GET 10MHs mining speed for F.R.E.E , and use it for Ethereum, litecoin or bitcoin mining http://bit.ly/10MHsFree #ethereum #bitcoin
85GIF",0,0,0,False
490,Ethereum UAE@Ethereum_UAE,"ARK Blockchain Ecosystem Launches Alpha Testnet, Mobile & Desktop Clients http://ift.tt/2gKkwo9 #EthereumARK Blockchain Ecosystem Launches Alpha Testnet, Mobile & Desktop ClientsThe ARK crew has launched an alpha testnet, as well as mobile and desktop clients to bolster development of its blockchain ecosystem.bitcoinist.com",1,1,0,False
491,Faith Emmanuel@residualbitcoin,Ethtrade presentation. Make money trading #ethereum https://vk.com/video35374033_456239233?list=03c61ee778cdf33c5b&og=1…  #ResidualBitcoin,0,0,0,False
492,Faith Emmanuel@residualbitcoin,"#bitcoin, #ethereum and the Internet of People #blockchain #medium https://medium.com/@luisfernandomolina/bitcoin-ethereum-and-the-internet-of-people-3877a7a4406d…  #ResidualBitcoin",0,0,0,False
493,BitcoinAgile@bitcoinagile,Ethtrade presentation. Make money trading #ethereum https://vk.com/video35374033_456239233?list=03c61ee778cdf33c5b&og=1…,2,0,0,False
494,Veki@Veki551155,"#bitcoin, #ethereum and the Internet of People #blockchain #medium https://medium.com/@luisfernandomolina/bitcoin-ethereum-and-the-internet-of-people-3877a7a4406d…",0,0,0,False
496,BitcoinAgile@bitcoinagile,"#bitcoin, #ethereum and the Internet of People #blockchain #medium https://medium.com/@luisfernandomolina/bitcoin-ethereum-and-the-internet-of-people-3877a7a4406d…",2,0,0,False
497,seven nieberg@seven_nieberg,"GET 10MHs mining speed for F.R.E.E , and use it for Ethereum, litecoin or bitcoin mining http://bit.ly/10MHsFree #ethereum #bitcoin
12GIF",0,0,0,False
498,stef nieberg@sevens_heaven,"GET 10MHs mining speed for F.R.E.E , and use it for Ethereum, litecoin or bitcoin mining http://bit.ly/10MHsFree #ethereum #bitcoin
1GIF",0,0,0,False
499,stephanus Nieberg@Allinoneprofit1,"GET 10MHs mining speed for F.R.E.E , and use it for Ethereum, litecoin or bitcoin mining http://bit.ly/10MHsFree #ethereum #bitcoin
70GIF",0,0,0,False
500,cryptinsight@cryptinsight,"Thanks for your post, I think this is a long overdue conversation in Ethereumland. #blockchain #EthereumThanks for your post, I think this is a long overdue conversation in Ethereumland.ICOs are certainly proving a superb tool in coordinating work on open source software at probably an unprecedented pace. However, unlike…medium.com",0,0,0,False
502,stephanus Nieberg@Allinoneprofit1,"GET 10MHs mining speed for F.R.E.E , and use it for Ethereum, litecoin or bitcoin mining http://bit.ly/10MHsFree #ethereum #bitcoin
45GIF",0,0,0,False
503,blockchainmedia@Ethereumlab,Become a #Blockchain Guest Contributor http://dld.bz/fgnwr #writer #bitcoin #ethereum,0,0,0,False
506,Tech Lib@tech__lib,"What is #Blockchain Technology? Guide For Beginners  #ethereum
@Ethereumlab - http://techlib.online/what-istechnology-guide-for-beginners/…",0,0,0,False
507,Blockgeeks@Blockgks,Check it out! Beginners guide to #Blockchain http://buff.ly/2dvhaDX #bitcoin #ethereum #startup,1,0,0,False
511,Coinstats@coinstats,"Ethereum Classic - ETC
Price: $0.998302
Change in 1h: +1.21%
Market cap: $86688673.0
Ranking: 6
#Ethereum Classic #ETC",0,0,0,False
512,Coinstats@coinstats,"Ethereum - ETH
Price: $8.36176
Change in 1h: +-0.51%
Market cap: $726691084.0
Ranking: 2
#Ethereum #ETH",0,0,0,False
514,Philsabang Bull Bull Bull@Philsabang,"Wouldn't be surprized if $ETH goes dumping from here. What do you think? #EthereumNo, next it's gonna pump28.6%Yeah, it's a dump71.4%14 votes·Final results",1,1,0,False
515,seven nieberg@seven_nieberg,"GET 10MHs mining speed for F.R.E.E , and use it for Ethereum, litecoin or bitcoin mining http://bit.ly/10MHsFree #ethereum #bitcoin
40GIF",0,0,0,False
516,stephanus Nieberg@Allinoneprofit1,"GET 10MHs mining speed for F.R.E.E , and use it for Ethereum, litecoin or bitcoin mining http://bit.ly/10MHsFree #ethereum #bitcoin
29GIF",0,0,0,False
517,yiseul@yiseulcho,"""The History of Casper — Chapter 1"" #blockchain #ethereum, #casper https://blog.ethereum.org/2016/12/06/history-casper-chapter-1/…",0,0,0,False
518, Eliza Cheng @ElizaRyenne,Let the bots mine #bitcoin #dogecoin #litecoin #ethereum #gold for you! JOIN NOW at https://eobot.com/user/393610 @eobot,0,0,0,False
519,/r/Ethereum@r_Ethereum,"Transaction costs! What am I missing? #EthereumTransaction costs! What am I missing?Imagine every ethereum dapp works perfect. We would manage our identity through u-port, transact value via digix, communicate via we-chat and...reddit.com",1,0,0,False
520,Daedrah@Destifada,Have you heard ‘DownADarkAlley’ by $eth V. on #SoundCloud? #np https://soundcloud.com/sethvasquez/10a?in=sethvasquez/sets/summer-16&utm_source=soundcloud&utm_campaign=share&utm_medium=twitter…,0,0,0,False
521,blockchainmedia@Ethereumlab,Would you like early access to BlockGeeks #Blockchain Community? Sign up here http://blockgeeks.com #ethereum,1,2,0,False
522,Blockgeeks@Blockgks,Is #Blockchain Technology Going To Disrupt Our Political System:  http://dld.bz/fgnWh #ethereum,1,3,1,False
531,Coinstats@coinstats,"Ethereum Classic - ETC
Price: $0.985667
Change in 1h: +0.58%
Market cap: $85589992.0
Ranking: 6
#Ethereum Classic #ETC",0,0,0,False
532,Coinstats@coinstats,"Ethereum - ETH
Price: $8.40105
Change in 1h: +-0.51%
Market cap: $730098080.0
Ranking: 2
#Ethereum #ETH",0,0,0,False
533,Ethereum Price@EthereumPrice_,"#Ethereum: Ether Price Index
1 ETH =0.010692Ƀ XBT = $8.394445 USD
Today: +15.83%⬆︎ Last 24h: +16.45%⬆︎
https://ethereum-price.com",2,0,0,False
534,Avtar Singh Sehra@avtarsehra,"Replying to @colingplattgood point. $etc is diverging from $eth, but the core protocol/evm for contract execution unchanged.",1,1,0,False
535,massiotblockchain@massiotblockcha,"Decentralized Arbitration Court #smartcontract #EthereumVidéo : ""Decentralized Arbitration Court"" - Bitcoin.frDans le cadre du second meetup « Startups & investisseurs«  du 5 décembre dernier [1] Clément Lesaege a présenté le projet « Decentralized Arbitration Court »,  un « smart contract » Ethereum qui...bitcoin.fr",1,1,0,False
536,stef nieberg@sevens_heaven,"GET 10MHs mining speed for F.R.E.E , and use it for Ethereum, litecoin or bitcoin mining http://bit.ly/10MHsFree #ethereum #bitcoin
31GIF",0,0,0,False
537,Daedrah@Destifada,Have you heard ‘Lost In My head’ by $eth V. on #SoundCloud? #np https://soundcloud.com/sethvasquez/4a-1?utm_source=soundcloud&utm_campaign=share&utm_medium=twitter…,0,0,0,False
538,Daedrah@Destifada,Have you heard ‘Outro’ by $eth V. on #SoundCloud? #np https://soundcloud.com/sethvasquez/outro?in=sethvasquez/sets/x177wznkodfb&utm_source=soundcloud&utm_campaign=share&utm_medium=twitter…,0,0,0,False
539,Lika Nicolic@Ethereumhub,Would you like early access to BlockGeeks #Blockchain Community? Sign up here http://blockgeeks.com #ethereum,0,0,0,False
540,Troy marcus@Thylacinelife3,Only the start #fintech #Ethereum #compliance #communication https://lnkd.in/gaiztkW,1,0,0,False
547,blockchainmedia@Ethereumlab,"Join today! Blockgeeks is a #Blockchain innovation hub 
& marketplace http://blockgeeks.com #Bitcoin #Ethereum",3,0,0,False
548,chanderdeep saini@chanderdeep,"@BlockCDN #crowdasale live!
Be a part of the new sharing economy!
 http://ln.is/m6BFH #ethereum... by #nosyhedgehog via @c0nvey",0,0,0,False
549,Ethereum SE@StackEthereum,What are ipc and rpc? http://ethereum.stackexchange.com/questions/10681/what-are-ipc-and-rpc… #ethereum #goethereum #ipc #ethrpc,0,0,0,False
550,Bitcoin Updater@BitcoinUpdater,R3 blockchain consortium has a new member: ABN AMRO #ethereum http://soco.space/NtUfqb,0,0,0,False
552,indxio@indxio,#China Market Close || #Bitcoin: $777.98 | 733.69 EUR||  #Litecoin: 0.0023 BTC  || #Ethereum: 0.0108 BTC   || $BTC $LTC $ETH $RMB,0,0,0,False
553,Ethereum UAE@Ethereum_UAE,Cryptocurrency Exchange Kraken Acquires Bitcoin Wallet Provider Glidera http://ift.tt/2hMiscO #EthereumCryptocurrency Exchange Kraken Acquires Bitcoin Wallet Provider GlideraKraken announced yesterday that they have acquired the American Bitcoin wallet provider Glidera to their corporate umbrella.bitcoinist.com,1,0,0,False
554,Clara Goldsmith@claragoldsmith,"#Blockchain & #energy - A demo platform on the #Ethereum blockchain for UK energy sector with  @ElectronDLT #startup
https://techcrunch.com/2016/12/13/electron-is-trying-to-sell-a-blockchain-makeover-to-the-uks-energy-sector/…",1,1,0,False
555,Lika Nicolic@Ethereumhub,"Join today! Blockgeeks is a #Blockchain innovation hub 
& marketplace http://blockgeeks.com #Bitcoin #Ethereum",1,0,0,False
556,Brave New Coin@bravenewcoin,#Ethereum Price: USD $8.53 $ETH http://ow.ly/6UKf3048WBe,1,3,0,False
557,blockchainmedia@Ethereumlab,What is #Blockchain Technology? Guide For Beginners http://dld.bz/eW5DU #ethereum,1,2,0,False
563,Coinstats@coinstats,"Ethereum Classic - ETC
Price: $0.979947
Change in 1h: +0.27%
Market cap: $85091990.0
Ranking: 6
#Ethereum Classic #ETC",0,0,0,False
564,Coinstats@coinstats,"Ethereum - ETH
Price: $8.44383
Change in 1h: +0.22%
Market cap: $733804686.0
Ranking: 2
#Ethereum #ETH",0,0,0,False
565,Silicon Talent@silicontalent,"Use case number 1,213. #Blockchain in energy. #Startup Electron builds #ethereum platform for energy market.        https://techcrunch.com/2016/12/13/electron-is-trying-to-sell-a-blockchain-makeover-to-the-uks-energy-sector/…",2,4,1,False
566,CoinBorse NEWS@CoinBorse,The latest CoinBorsenBote! http://paper.li/CoinBorse/1395949169?edition_id=5a4c3181-c1d0-11e6-88a8-0cc47a0d1605… #blockchain #ethereum,0,0,0,False
567,Faith Emmanuel@residualbitcoin,#ethereum Price Technical Analysis  ETH/USD To Gain Traction - #bitcoin News #Analysis http://newsbitcoin.info/ethereum-price-technical-analysis-ethusd-to-gain-traction…  #R…,0,0,0,False
568,Veki@Veki551155,#ethereum Price Technical Analysis  ETH/USD To Gain Traction - #bitcoin News #Analysis http://newsbitcoin.info/ethereum-price-technical-analysis-ethusd-to-gain-traction…,0,0,0,False
569,Lika Nicolic@Ethereumhub,What is #Blockchain Technology? Guide For Beginners http://dld.bz/eW5DU #ethereum,0,0,0,False
570,Teal Blue@Teal2Blue,"#WhatsCooking?2:25am>#Narcotic-Like+#Ether/#Anaethesia?KnockOut #Drugs+#Cathinones?+Dizzy+Sick+KOingMe!
#OttNews #Health #OttawaPolice #RCMP",0,0,0,False
571,BitcoinAgile@bitcoinagile,#ethereum Price Technical Analysis  ETH/USD To Gain Traction - #bitcoin News #Analysis http://newsbitcoin.info/ethereum-price-technical-analysis-ethusd-to-gain-traction…,2,0,0,False
576,Bitcoin Updater@BitcoinUpdater,Ethereum Classic Price Technical Analysis – ETC Eyes 0.00100BTC #ethereum http://soco.space/CbumWw,1,0,0,False
577,Coinstats@coinstats,"Ethereum Classic - ETC
Price: $0.978773
Change in 1h: +0.59%
Market cap: $84988680.0
Ranking: 6
#Ethereum Classic #ETC",0,0,0,False
578,Coinstats@coinstats,"Ethereum - ETH
Price: $8.43008
Change in 1h: +-0.16%
Market cap: $732597963.0
Ranking: 2
#Ethereum #ETH",0,0,0,False
579,Vindyne8@Vindyne8,#RT ChronoBank. ICO in under 18hrs!! Whitepaper. http://publizr.com/twitter/chronobanknews-whitepaper-dot-pdf#/0… #blockchain #bitcoin #ethereum #fintech #startup,16,17,0,False
580,Tiler Dean@khayaaevmh5,@SethWA2 hi $eth W A$hf0rd,0,0,0,False
581,blockchainmedia@Ethereumlab,Can someone explain to me what is Ethereum in laymen's term? http://dld.bz/eWbfN #ethereum #blockchain,1,1,0,False
582,Sean@seandotau,"With more than $1.5m raised, vDice enters the final week of its ICO http://buff.ly/2gYCSPT @thomaspower @Stevewal63 @NickAyton #ethereum",3,2,0,False
583,Ξ Fly Guy Ξ (flyguy.eth)@FlyGuyInTheSky,"@BlockCDN #BlockCDN Has now raised $350,000 around 41500 #ethereum or 29.5% of the capital needed to succeed in the ICO. 11 days 17hrs left.",0,0,0,False
591,Vindyne8@Vindyne8,The Branche #ICO #tokensale is live. Go to branche.io to take part! 15% bonus active! #blockchain #altcoininvestor #eth #fintech #branche,15,16,0,False
592,Christian Seberino@c_seberino,"Antonopoulos: Governments are Inadvertently Funding Bitcoin Scalability Solutions http://buff.ly/2hfJ1Kc #etc #eth #ethereumclassicAndreas Antonopoulos: Governments are Inadvertently Funding Bitcoin Scalability SolutionsIn a highly political talk at a Coinscrum event , Mastering Bitcoin author Andreas Antonopoulos…coinjournal.net",0,0,0,False
593,blockchainmedia@Ethereumlab,"#Blockchain Technology and the Law Are Allies, Not Enemies http://dld.bz/fkYrY #ethereum #fintech",1,0,0,False
594,Blockgeeks@Blockgks,"#Blockchain Technology and the Law Are Allies, Not Enemies http://dld.bz/fkYrY #ethereum #fintech",3,1,0,False
595,Coinstats@coinstats,"Ethereum Classic - ETC
Price: $0.971731
Change in 1h: +0.42%
Market cap: $84375720.0
Ranking: 6
#Ethereum Classic #ETC",0,0,0,False
596,Coinstats@coinstats,"Ethereum - ETH
Price: $8.4444
Change in 1h: +0.1%
Market cap: $733830285.0
Ranking: 2
#Ethereum #ETH",0,0,0,False
597,Ethereum Price@EthereumPrice_,"#Ethereum: Ether Price Index
1 ETH =0.010774Ƀ XBT = $8.440820 USD
Today: +16.72%⬆︎ Last 24h: +16.55%⬆︎
https://ethereum-price.com",1,0,0,False
598,Olivier Chapiteau@o_chapiteau,"14Dec2016 06:00 UTC #Ether #Blockchain status - Block height @ 2,805,031 - 116,598 unconfirmed tr. - Last fork height @ 2,805,021",1,0,0,False
606,Olivier Chapiteau@o_chapiteau,14Dec2016 06:00 UTC #Ethereum live spots - #Ether @ 8.42966 $ - #EtherClassic @ 0.97379 $,0,0,0,False
607,ExploreTraveler@exploretravel1,RT @EntropyBoat: First in a series about testing Solidity contracts: http://lnkplg.co/zOkQB #Ethereum #Solidity #DAO,2,0,0,False
608,Ξntropy @EntropyBoat,"First in a series about testing Solidity contracts: https://youtube.com/watch?v=CK4rIOluDew… #Ethereum #Solidity #DAOSolidity Testing Setups and ProblemsIntroduction to how we're testing our Solidity Ethereum contracts with Truffle - how to set your project up and how stuff fits together.Some gotchas, some tr...youtube.com",2,1,0,False
609,Lika Nicolic@Ethereumhub,"#Blockchain Technology and the Law Are Allies, Not Enemies http://dld.bz/fkYrY #Ethereum #crypto",0,0,0,False
610,/r/Ethereum@r_Ethereum,Electron is trying to sell a blockchain makeover to the UK’s energy sector #EthereumElectron is trying to sell a blockchain makeover to the UK’s...reddit.com,0,0,0,False
611,/r/Ethereum@r_Ethereum,Shaking Up The Music Industry With The Blockchain #EthereumShaking Up The Music Industry With The BlockchainPosted in r/ethereum by u/csilvaethnews • 8 points and 0 commentsreddit.com,1,2,0,False
613,Ethereum Monkey@EthMonkey,Ethereum Price Technical Analysis - ETH/USD To Gain Traction - NEWSBTC #ethereum http://newsbtc.com/2016/12/14/ethereum-price-technical-analysis-ethusd-gain-traction/…,1,0,0,False
614,/r/Ethereum@r_Ethereum,The U.S. Government Wants All Cars to Be Able to Talk to Each Other #EthereumThe U.S. Government Wants All Cars to Be Able to Talk to Each OtherPosted in r/ethereum by u/Hiphopsince1988 • 3 points and 9 commentsreddit.com,0,0,0,False
615,Alberto Jauregui | esoteRICK.eth @DisruptBanksy,http://ift.tt/2gGEMbO Ethereum Price Technical Analysis – ETH/USD To Gain Traction - newsBTC #ethereum #ether,0,0,0,False
616,Veki@Veki551155,#ethereum Price Technical Analysis  ETH/USD To Gain Traction > Temptations News Resource http://bitcoinagile.com/9E4042/ethereum-price-technical-analysis-ethusd-to-gain-traction-temptations-news-resource-aggregate_stream…,0,0,0,False
622,Brave New Coin@bravenewcoin,Use BNC's Free Digital Currency Tickers #API http://ow.ly/2aUi3073IN3 #crypto #ethereum #markets,2,0,0,False
623,Faith Emmanuel@residualbitcoin,#ethereum Price Technical Analysis  ETH/USD To Gain Traction > Temptations News Resource http://bitcoinagile.com/9E4042/ethereum-price-technical-analysis-ethusd-to-gain-traction-temptations-news-resource-aggregate_stream…  …,0,0,0,False
624,BitcoinAgile@bitcoinagile,#ethereum Price Technical Analysis  ETH/USD To Gain Traction > Temptations News Resource http://bitcoinagile.com/9E4042/ethereum-price-technical-analysis-ethusd-to-gain-traction-temptations-news-resource-aggregate_stream…,0,0,0,False
625,Lika Nicolic@Ethereumhub,Introduction to #Ethereum #Blockchain: The Internet's Government http://dld.bz/fkYrH #crypto,1,0,0,False
626,Veki@Veki551155,#ethereum Price Technical Analysis  ETH/USD To Gain Traction - NEWSBTC #EthereumPricechart http://newsbtc.com/2016/12/14/ethereum-price-technical-analysis-ethusd-gain-traction…,1,0,0,False
627,CryptoNewswire @CryptoNewswire,"Ethereum Price Technical Analysis ETH/USD To Gain Traction - http://newsbtc.com/2016/12/14/ethereum-price-technical-analysis-ethusd-gain-traction/… $BTC $ETH #investing #markets #financeEthereum Price Technical Analysis – ETH/USD To Gain TractionEthereum price succeeded in gaining bids intraday against the US Dollar and Bitcoin, and it looks like ETH/USD may trade a few points higher.newsbtc.com",0,0,0,False
628,Faith Emmanuel@residualbitcoin,"#ethereum Price Technical Analysis  ETH/USD To Gain Traction - NEWSBTC #EthereumPricechart http://newsbtc.com/2016/12/14/ethereum-price-technical-analysis-ethusd-gain-traction… …Ethereum Price Technical Analysis – ETH/USD To Gain TractionEthereum price succeeded in gaining bids intraday against the US Dollar and Bitcoin, and it looks like ETH/USD may trade a few points higher.newsbtc.com",0,0,0,False
629,Blockgeeks@Blockgks,Become a #Blockchain Guest Contributor http://dld.bz/fgnwr #writer #bitcoin #ethereum,0,0,0,False
633,BitcoinAgile@bitcoinagile,#ethereum Price Technical Analysis  ETH/USD To Gain Traction - NEWSBTC #EthereumPricechart http://newsbtc.com/2016/12/14/ethereum-price-technical-analysis-ethusd-gain-traction…,1,0,0,False
634,Coinstats@coinstats,"Ethereum Classic - ETC
Price: $0.967998
Change in 1h: +-0.03%
Market cap: $84050416.0
Ranking: 6
#Ethereum Classic #ETC",0,0,0,False
635,Bobe'bot@Bobe_bot,"1 #BTC = 811.5485 #CHF
1 #ETH = 8.9762 #CHF
1 #DOGE = 0.000221736364 #CHF
sources: @cryptonatorcom @hellobity",0,0,0,False
636,Coinstats@coinstats,"Ethereum - ETH
Price: $8.43968
Change in 1h: +-0.32%
Market cap: $733408629.0
Ranking: 2
#Ethereum #ETH",0,0,0,False
637,Andy Cole@andycole28,Replying to @SethayatesDFSthat's why they call you $eth,1,0,0,False
638,FunVidClick@FunVidClick,"Mine Ethereum In The Cloud, No Hardware Needed! 3% Off With Coupon Code: 8rRBkl

http://dld.bz/ePx6q
#ethereum",1,0,0,False
639,Nilesh Giri@NeilTibco,#BusinessWorks Container Edition and #Mashery as key success factors in a #blockchain project: http://tibco.cm/2gJH6gx #Hackathon #Ethereum,1,0,0,False
640,Mr. Me_Dos@Mr_Me_Dos,#ETHER Air Forces making a comeback. Clean #AF can't wait to rock these bad boys. #suedeAF1… https://instagram.com/p/BN_A8DOjVr3/,0,0,0,False
642,Earn Weekly!@dailyoptionsorg, Earn at http://DailyOptions.org. #Algorithm #currency #Business #Capital #Crowdfunding #Fundraising #ethereum #investing #Explore #Alaska,1,1,0,False
643,Brave New Coin@bravenewcoin,#Ethereum Price: USD $8.54 $ETH http://ow.ly/6UKf3048WBe,3,0,0,False
647,Lika Nicolic@Ethereumhub,Can someone explain to me what is Ethereum in laymen's term? http://dld.bz/eWbfN #ethereum #blockchain,1,3,0,False
648,Coinstats@coinstats,"Ethereum Classic - ETC
Price: $0.967695
Change in 1h: +0.54%
Market cap: $84022511.0
Ranking: 6
#Ethereum Classic #ETC",0,0,0,False
649,Coinstats@coinstats,"Ethereum - ETH
Price: $8.45927
Change in 1h: +-0.16%
Market cap: $735099791.0
Ranking: 2
#Ethereum #ETH",0,0,0,False
