,user,text,likes,retweets,replies,is_thread
0,Troy marcus@Thylacinelife3,No #fintech no #blockchain no #ethereum  my new #friend #Python  on my shed roof ,3,1,1,False
1,Get Free Dogecoin@GetDogecoin,"GET FREE #DOGE
Win dogecoin every 60 minutes
http://goo.gl/hE5Bk6
#doge #dogecoin
#Ethereum
#bitcoin #litecoin #PrimeDay",2,1,0,False
2,Ivan Franciscovich ~Liberate the Banked~@IvanFranciscovi,Interledger - Is this something? #Crypto #BTC #LTC #XRP #ETH #ETC #ICN https://interledger.org,1,1,1,False
3,Alberto Jauregui | esoteRICK.eth @DisruptBanksy,http://ift.tt/2g6CeSt Ethereum Price Weekly Analysis – ETH/USD Struggle to Continue - newsBTC #ethereum #ether,2,1,0,False
4,Zach Piester@zachpiester,"How to hire a #Blockchain #Developer
https://linkedin.com/pulse/how-find-hire-blockchain-ethereum-hyperledger-zach-piester?trk=hp-feed-article-title-publish…
#bitcoin #startup #blockchain #ethereum @hyperledger",15,7,0,False
5,BlockCDN@BlockCDN,UPDATE: Mining codes now 2 ETH! visit our Slack to get yours https://bcdn.herokuapp.com #mining #blockchain #cryptocurrency #ethereum #bitcoin,54,400,2,False
6,OpenLedger@OpenLedgerDC,"Blockchain Players Look To E-Sports, See Dollar Signs via @forbes http://forbes.com/sites/rogeraitken/2016/10/24/beyond-the-voids-e-sports-game-launching-worlds-first-moba-gaming-ico… #gaming #ingame #esports #sports #MOBA #NXC #ethBlockchain Players Look To E-Sports, See Dollar SignsBeyond The Void, a new ‘free-to-play’ RTS-MOBA game could be poised to storm the gaming industry backed by an initial coin offering (ICO) and Ethereum blockchain tokens, which are being presented in...forbes.com",3,3,0,False
7,Followback MGWV@eliyahnizha,12 Days until the ICO ends! 1 ETH = 100 vSlice! http://crowdsale.vdice.io #Ethereum #ICO #blockchain https://pic.twitter.com/hFLkyZD2LO,1,3,1,False
8,Crypto Dood@BitcoinDood,Ethereum Research Update https://blog.ethereum.org/2016/12/04/ethereum-research-update/… $ETH #Ethereum,3,2,0,False
9,Fred E @Fredilly,"If you get married on the #Ethereum blockchain, it'll fork you over.",5,4,0,False
10,ARK.io@ArkEcosystem,"#ARK-TEC last week $BTC sweepstakes!
https://blog.ark.io/announcing-last-chance-ark-btc-sweepstakes-37c966b8e8bb…
$ARK $LSK $ETH #LISK #bitcoin #crypto #ICO #startups #investors #blockchainAnnouncing “Last Chance” ARK BTC Sweepstakes(For our current daily winners check out this post) As we come to the final week of the ARK Token Exchange Campaign (TEC), time is almost up for you to get in on one of the most anticipated new...ark.io",18,20,1,False
11,Alberto Jauregui | esoteRICK.eth @DisruptBanksy,http://ift.tt/2fWMHRE THe Amount of Self-Proclaimed Ethereum Experts Surpasses 3000 On LinkedIn - Live Bitcoin News #ethereum #ether,1,2,0,False
12,Ameer Rosic@AmeerRosic,#Blockchain Technology Proves Itself in Wall Street Test http://snip.ly/i6je1 #Bitcoin #Ethereum,4,6,0,False
13,John Galt@_J0hnGalt_,Here are some details on The ICO and Code Audits! #ethereum #ICO $VSL $ETH https://medium.com/@vdiceio/vdice-ico-details-and-code-audits-4f735a75535#.24weojv96… … by #SaracenRomero,1,1,0,False
14,iExec@iEx_ec,"This is our brand #new #teaser: https://youtube.com/watch?v=kUM0qR2cmZY… Stay tuned! #blockchain #cloud #bitcoin #ethereum #hpc Don't forget to #share it!iExec Teaserhttp://iex.eciExec White Paper is about to be published.If you can't wait, just send us an email at slack@iex.ecWebsite : http://iex.ecTwitter : https://twit...youtube.com",11,106,1,False
15,Patrizio Stavola@halovast,"#Ethereum Research Update by @VitalikButerin: #Metropolis, #PoS, #Sharding, #Cryptoeconomics and State Size control https://blog.ethereum.org/2016/12/04/ethereum-research-update/…",5,5,0,False
16,Etherplay@etherplay,#ethereum #esports #china Thanks to @shaopingzhang there is now explanation for http://etherplay.io in Chinese : http://ethfans.org/shaoping/articles/etherplay-beta…Etherplay - Game Studio Building Unstoppable Games on EthereumGame Studio Building Unstoppable Games on Ethereumetherplay.io,4,5,0,False
17,TheUltraAliens@TheUltraAliens,"IRS  Ethereum

#openyoureyes #Ethereum #Bitcoin",1,3,0,False
18,Chrono.tech@ChronotechNews,#RT Chronobank. Labour-Hour Stable Coins. https://youtube.com/watch?v=a_WrXEMpNAE… #blockchain #bitcoin #ethereum #fintech #Chronobank,23,22,0,False
19,Foxes Den@foxesden34,"Ethereum (ETH) Price Index, Charts, FIAT Exchange Rates, USD,EUR,CNY http://paper.li/f-1473176678?read=http%3A%2F%2Fbravenewcoin.com%2Fethereum… #ethereum",2,1,1,False
20,Eric Axelrod@axelrod_eric,Very cool Sean @cloudnthings @Stevewal63 @thomaspower #ethereum #blockchain by #kingofpayments,3,2,1,False
21,Cloud Mining Monitor@cmmonitorcom,#Ethereum #Cloudmining': 04.12.2016 Payment received. 5 MHs - 0.18175000 ETH. From MyCoinCloud.MyCoinCloud (Ethereum Mining)cmmonitor.com,2,5,0,False
22,BitDice@BitDice,"Want to play anonymously? Come and WIN BIG @ http://bit.ly/2g7Rr5m
BitDice has you covered with SLOTS and DICE! #BTC #ETH #DOGE #SLOTS",22,48,0,False
23,Statspotting.com@statspotting,"Every Third Person In The US Workforce Is A Freelancer
#vc #startups #technews #technology #freelancing #work #ethereum #airbnb #dropbox",3,1,1,False
24,Faith Emmanuel@residualbitcoin,"Evolution of Kadena, the First Real Private #blockchain - CoinDesk #bitcoin #ethereum http://bit.ly/2fZIcky  #Re…",1,2,0,False
25,Vindyne8@Vindyne8,#RT ChronoBank Development Plan https://blog.chronobank.io/chronobank-development-plan-5a2187d0e89#.ik96ng3a5… #blockchain #bitcoin #ethereum #wavesplatform #fintech #appcoin,12,14,0,False
26,ETHNews@ETHNews_,"#Ethereum-Powered #Decentralized #VPN: A Truly Secure Internet Connection?
http://ethnews.com/ethereum-powered-decentralized-vpn-a-truly-secure-internet-connection…",2,2,0,False
27,Fred E @Fredilly,"#Ethereum is so decentralized, all the founders have very different jobs now",6,2,1,False
28,Putra Adji@Ilmansyahadjie,Chances to win up to 150K ARK just for Tweeting! Hook me UP! http://bit.ly/2gkXtRM #btc #lisk #ARK $ARK #crypto #eth #bitcoin,1,1,0,False
29,Crypto Dood@BitcoinDood,Don't have a lot of faith in #Ethereum but think I should buy some as a long term hold just in case. What say you? $ETH #FOMOSmart move Dood.21.6%Just stay away!78.4%37 votes·Final results,4,5,3,False
30,Ξntropy @EntropyBoat,"All our git repos are now hosted on the decentralised, peer to peer git-ssb network http://ssb.project-entropy.com:7718
#p2p #Git #Ethereum",6,1,0,False
31,ethereum.network@EthereumNetw,"Winners of the #Blockchain Startup Contest Announced: Etherisc and Status
http://ethnews.com/winners-of-the-blockchain-startup-contest-announced-etherisc-and-status…
#Ethereum @ethstatus",2,0,0,False
32,Ali⁦⁦@FOREX_82,"What is I/O Digital? https://youtu.be/II3TJx9Y7CY via @YouTube
@IO_Coin #iocoin $ioc $xmr $fct $ETH
#fintech #blockchain",1,0,0,False
33,Bitcoinist.com@bitcoinist,Antonopoulos Talks Ethereum as Regulations Bite Bitcoin - http://bitcoinist.com/antonopoulos-ethereum-regs-bitcoin/… @aantonop #bitcoin #ethereumAntonopoulos Talks Ethereum as Regulations Bite BitcoinAndreas Antonopoulos has delivered timely words of encouragement for Ethereum speculators as the altcoin flounders and Bitcoin surges ahead.bitcoinist.com,1,4,0,False
34,Matt Cavanaugh@mattanaw,"Not sure I have the time, but this looks like fun! #ethereum #blockchainQuote TweetSean@seandotau · Dec 4, 2016Replying to @NickAytonStill getting my street creds! Built first #ethereum miner. V hard but learnt so much abt #Blockchain @NickAyton @Stevewal63 @thomaspower",3,4,2,False
35,Ethereum UAE@Ethereum_UAE,Antonopoulos Talks Ethereum as Regulations Bite Bitcoin http://ift.tt/2gUT9sd #Ethereum,2,2,0,False
36,CoinKorea@CoinKor,"#Ethereum Research Update
https://goo.gl/lNDZTP",1,1,0,False
37,Λnorak@AnorakTech,Late for HEX tutorial but progressing well! Release first chapter of tutorial tomorrow. :D #cryptocurrency #zec #eth https://anorak.tech,1,0,0,False
38,Tedy MD@bitcoinjapanese,Attendee Interviews at Texas Bitcoin Conference http://vid.staged.com/Dz1t #btcjapan #btcchina #ethereum.co.id,1,4,0,False
39,ARK.io@ArkEcosystem,"1 hour left for the LAST Lisk and Bitcoin Bonuses!

$ARK $LSK $ETH $BTC #altcoins #crypto #ICO #blockchain #Lisk #bitcoin #investors #PR",13,11,0,False
40,Chris P Thompson@CryptoBooksAlt,#bitcoin #ethereum #monero #gamecredits find out how DigiByte began in 2014. A book about #digibyte on Amazon https://goo.gl/NY5RYL,3,2,0,False
41,hack.ether.camp@hackethercamp,HackerGold Sale Price Change in 2 Hours. https://hack.ether.camp/sale$HKG #ethereum #shapeshift,4,3,1,False
42,Bitcoin Updater@BitcoinUpdater,Synereo Re-Emerges as Leading Blockchain Promise after a Successful Fundraising Campaign #ethereum http://soco.space/3zY9di,1,3,0,False
43,Dissentralized@bitcoin_machine,Build a Bitcoin Generating Machine Step 1: EtherMiners:http://tinyurl.com/h9btw6v #BTC #Bitcoin #investor #ETHEREUM #Cloudmining #MLM,3,3,0,False
44,kim macleod@bakerygirl9,"Thinking Of #Investing In #Ether? Get Started Now! 3% Discount w/ Coupon - 8rRBkl http://dld.bz/ePx6q
#Ethereum",1,1,1,False
45,Defi.Central@DefiCentral,"Ethereum Research Update
Details:https://goo.gl/gjMNTX
@ethereumproject #ETHEREUM #altcoin #cryptocurrency $ETH",2,0,0,False
46,Curlew Research@CurlewResearch,"""There is no real distinction between a friend and a dapp."" #ethereum #blockchainQuote TweetCoinDesk@CoinDesk · Dec 4, 2016Status is a We-Chat-like wallet about ready to launch for Ethereum: http://coindesk.com/wechat-wallet-ethereum-blockchain-status…",1,2,0,False
47,John Lilic ₿ Ξ ∞@JohnLilic,"While many are busy with market speculation #Ethereum tech development continues https://blog.ethereum.org/2016/12/04/ethereum-research-update/… #TheNerdsStrikeBackEthereum Research UpdateThis week marks the completion of our fourth hard fork, Spurious Dragon, and the subsequent state clearing process, the final steps in the two-hard-fork solution to the recent Ethereum denial of...blog.ethereum.org",26,13,0,False
48,MedosAdvert@medosadvert,#Ethereum - #cryptocurrency of the next generation and the decentralized platform for application creation. http://cryptocoins.it/go/etherminers/ #Mining,1,6,0,False
49,Brave New Coin@bravenewcoin,#Ethereum Price: USD $7.84 $ETH http://ow.ly/6UKf3048WBe,1,2,0,False
50,Christian Seberino@c_seberino,"Status is a browser, messenger, and gateway to the decentralised world of Ethereum. http://buff.ly/2gCSVDd #etc #eth #ethereumclassicStatus - Private, Secure CommunicationStatus brings the power of Ethereum into your pocket by combining a messenger, crypto-wallet, and Web3 browser.status.im",1,2,0,False
51,Timo Ξberhard@ZhuBajie72,"Moonshot postponed ONCE again. Time for the FINAL dip down into the €6.80s... 

#Ethereum #Ether #NewParadigm $ETH $ETHEUR @krakenfx",2,2,0,False
52,Ameer Rosic@AmeerRosic,Q&A: STEPHAN TUAL: Founder & COO Slock.it & The DAO http://dld.bz/faeQR #THEDAO #ethereum #blockchain,2,1,0,False
53,Suraya ringgitohringgit.com@surayaror,"#bitcoin #bitcoindebitcard #crypto

card can be loaded with #eth #dash #monero #ltc etc via @ShapeShift_io https://twitter.com/wirexapp/status/805271307520770048…This Tweet is unavailable.",1,0,0,False
54,Nick Ayton@NickAyton,Replying to @ETH_INFOCHAINBig claim to be #ethereum expert given the tech is in its infancy @ETH_INFOCHAIN #blockchain @cloudnthings @Stevewal63 @thomaspower,3,5,2,False
55,Sean@seandotau,Still getting my street creds! Built first #ethereum miner. V hard but learnt so much abt #Blockchain @NickAyton @Stevewal63 @thomaspower,2,3,2,False
56,Nick Ayton@NickAyton,Replying to @seandotauVery cool Sean @cloudnthings @Stevewal63 @thomaspower #ethereum #blockchain,3,6,1,False
57,CryptoCompare@CryptoCompare,"We have 10x more registered users than twitter followers. Join & stay informed about #BTC, #ETH, #Zcash & others https://cryptocompare.com",2,1,0,False
58,ARK.io@ArkEcosystem,"#ARK-TEC - #ArkEcosystem!

Please join our Slack to chat with our members

https://ark.io/join-ark-slack
$ARK $LSK $ETH $BTC #altcoins #crypto",3,6,0,False
59,Paul Butler@PaulBTheBest,"Have you seen this project plan? #blockchain #Ethereum #ICO
#crowdfunding #gamechanger #invest #fintechQuote TweetBlockCDN@BlockCDN · Dec 4, 2016Good things come to those who wait! - enjoy 40% share of profits for 3 years  https://bitcointalk.org/index.php?topic=1611265.0… #investors #crowdfunding #blockchain",2,1,1,False
60,BLVCK PHVNTOM@blvck_phvntom,"Fresh face in the game #Spotify #AppleMusic BLESS #ETHER #ATLQuote TweetBLE$$@Neil396 · Dec 1, 2016Y'all go get ""Ether"" from iTunes and Spotify!! @1Kidgraphic",1,1,0,False
61,BitcoinAgile@bitcoinagile,"Evolution of Kadena, the First Real Private #blockchain - CoinDesk #bitcoin #ethereum http://bit.ly/2fZIcky",1,7,0,False
62,Dissentralized@bitcoin_machine,Build a Bitcoin Generating Machine Step 3 : FutureAdPro:http://tinyurl.com/zhjrzme #BTC #Bitcoin #ETHEREUM #cloudmining #investor #investing,1,2,0,False
63,Sean@seandotau,Replying to @NickAytonEveryone's an expert with #Google in their back pocket! @NickAyton @ETH_INFOCHAIN @Stevewal63 @thomaspower,2,1,1,False
64,Nick Ayton@NickAyton,The missing word 'apparently' an expert Paper thin knowledge @cloudnthings @ETH_INFOCHAIN @Stevewal63 @thomaspower #blockchain #ethereum,4,2,0,False
65,xJakob Fugger@Crypto_Fugger,Replying to @BitcoinDood$ETC is a better long term move,2,1,0,False
71,Crypto Dood@BitcoinDood,Agreed. Currently holding $ETC long term. Lost faith in $ETH after the DAO and the ensuing hardfork.,3,0,0,False
72,CryptoEmmaT@CryptoEmmaT,"@aantonop always has wise words of wisdom. #ethereum #bitcoin #regulationsQuote TweetAgeesen@AgeesenSri · Dec 4, 2016Antonopoulos Talks Ethereum as Regulations Bite Bitcoin - Andreas Antonopoulos has delivered timely words of en... http://ow.ly/njF7507c5su",2,0,0,False
73,CryptoNewswire @CryptoNewswire,Antonopoulos Talks Ethereum as Regulations Bite Bitcoin - http://thebitcoinnews.com/antonopoulos-talks-ethereum-as-regulations-bite-bitcoin/… $BTC $ETH #crypto #markets #investing,2,2,1,False
74,Kenny Rowe@kennyrowe,"People who think the USD is safe are fooling themselves long term. #bitcoin #cryptocurrency #ETHEREUMQuote TweetDavid Goodman@_DavidGoodman · Dec 4, 2016Euro Slides as Exit Polls Show Italy Voted ‘No’ in Referendum http://bloom.bg/2g0wiHn via @chiaraalbanese",1,2,1,False
84,AlertCo.in@AlertCoin,"@alexkramer98
#Poloniex: $ETH / BTC

Alert price: <= 0.00957
Current price: 0.00956361

http://AlertCo.in",0,0,0,False
86,AlertCo.in@AlertCoin,"@alexkramer98
#Poloniex: $ETH / BTC

Alert price: <= .0096
Current price: 0.00957007

http://AlertCo.in",0,0,0,False
89,Dissentralized@bitcoin_machine,Build a Bitcoin Generating Machine Step 2 MyPayingCryptoAds:http://tinyurl.com/zv29k7g #BTC #bitcoin #ETHEREUM #investor #cloudmining,1,2,0,False
90,Carrion Elited@ausernameforyou,"#ether #spiral #tshirt #pataphysics #uburoi #alfredjarry @ Northside, Richmond, Virginia https://instagram.com/p/BNnR1sPhT9Z/",1,0,0,False
93,Hip Hop News CAN@HipHopNewsCAN,"Gucci Mane either bouta get look past or catch the #EtherQuote Tweetallhiphopcom@allhiphopcom · Dec 4, 2016Gucci Mane Disses Nas? DA FUQ? http://allhiphop.com/2016/12/03/gucci-mane-disses-nas-da-fuq/…",0,0,0,False
94,davrola@davrola,Developers Respond to #Ethereum’s Unexpected #Fork http://zoeticnetworks.com/2016/12/04/developers-respond-to-ethereums-unexpected-fork/…,1,1,0,False
95,/r/Ethereum@r_Ethereum,"PassRhyme - grammatically meaningful, rhyming mnemonics #EthereumPassRhyme - grammatically meaningful, rhyming mnemonicsThe mnemonics approach to cold wallets is everywhere. In some cases, though, it is desirable that the user actually memorizes the password (not as...reddit.com",1,1,1,False
96,Sean@seandotau,Replying to @mattanawIt was hard work. The blog post made it look so easy! But better than being in meetings all day. #ethereum #blockchain @mattanaw,0,0,0,False
98,blockchainmedia@Ethereumlab,Could #Blockchain Technology Bankrupt Spotify? A Music Revolution http://buff.ly/2cWIfNM #ethereum #bitcoin,0,0,0,False
99,Blockgeeks@Blockgks,What is #Ethereum? A Step-by-Step Beginners Guide  http://dld.bz/fcBTc #blockchain #fintech,1,1,0,False
100,Coinstats@coinstats,"Ethereum Classic - ETC
Price: $0.760347
Change in 1h: +0.36%
Market cap: $65790181.0
Ranking: 6
#Ethereum Classic #ETC",0,0,0,False
101,Coinstats@coinstats,"Ethereum - ETH
Price: $7.59673
Change in 1h: +-1.04%
Market cap: $657931489.0
Ranking: 2
#Ethereum #ETH",0,0,0,False
102,Bobe'bot@Bobe_bot,"1 #BTC = 802.9502 #CHF
1 #ETH = 8.1167 #CHF
1 #DOGE = 0.00021200972 #CHF
sources: @cryptonatorcom @hellobity",0,0,0,False
103,PLACIDO CARDENAS@PLACIDO80,#alliancesystemclub #ASC #bitcoin #ethereum #SATOSHIS #criptomonedás @ Alliance system club… https://instagram.com/p/BNnOQdihqd-/,0,0,0,False
105,Ameer Rosic@AmeerRosic,How #Blockchain Helps Brooklyn Dwellers Use Neighbors' Solar Energy http://snip.ly/f3wcc #Ethereum,1,1,0,False
110,fintechfolk@fintechfolk,Thanks @Legionof7 for registering for FinTechFolk - http://zpr.io/Mnfj #fintech #ethereum #bitcoin #blockchain,1,0,0,False
112,Brandon Allison@soulof79,Replying to @ShannonSharpe@studmarino #ether lmbo ,0,0,0,False
113,Alex O'neal@Hearsay87,Replying to @AllDef and @alldefdigital@UncleRUSH Fuck jay-Z! #Ether,0,0,0,False
114,Nick Ayton@NickAyton,Replying to @seandotauWhen you build real stuff #ethereum all starts to make real sense @cloudnthings @Stevewal63 @thomaspower,4,6,0,False
117,/r/Ethereum@r_Ethereum,Coinbase IRS Appeal / Casper Advancement / Steemit Moving / Singularity #EthereumCoinbase IRS Appeal / Casper Advancement / Steemit Moving /...Posted in r/ethereum by u/DarkestChaos • 6 points and 0 commentsreddit.com,1,2,0,False
118,/r/Ethereum@r_Ethereum,"Notes on running Parity on a QNAP NAS box (with howtos on Docker, http://ethstats.net, MyEtherWallet) #EthereumNotes on running Parity on a QNAP NAS box (with howtos on Docker,...Posted in r/ethereum by u/benjaminion • 8 points and 1 commentreddit.com",1,1,0,False
120,Nick Ayton@NickAyton,Replying to @seandotauThe missing word 'apparently' an expert Paper thin knowledge @cloudnthings @ETH_INFOCHAIN @Stevewal63 @thomaspower #blockchain #ethereum,4,2,0,False
122,blockchainmedia@Ethereumlab,"Is #Ethereum similar to #Bitcoin? Well, sort of, but not really. http://dld.bz/fcBTc #blockchain",0,0,0,False
129,Coinstats@coinstats,"Ethereum Classic - ETC
Price: $0.757298
Change in 1h: +-1.4%
Market cap: $65525549.0
Ranking: 6
#Ethereum Classic #ETC",0,0,0,False
130,Coinstats@coinstats,"Ethereum - ETH
Price: $7.66186
Change in 1h: +-0.78%
Market cap: $663562415.0
Ranking: 2
#Ethereum #ETH",0,0,0,False
131,Sean@seandotau,Replying to @NickAytonStill getting my street creds! Built first #ethereum miner. V hard but learnt so much abt #Blockchain @NickAyton @Stevewal63 @thomaspower,2,3,2,False
134,Ethereum SE@StackEthereum,Calling a constant function with no arguments using async http://ethereum.stackexchange.com/questions/10495/calling-a-constant-function-with-no-arguments-using-async… #ethereum #web3js #contractinvocation #async,0,0,0,False
135,Ameer Rosic@AmeerRosic,Why Latin American economies are turning to #bitcoin http://snip.ly/mtab3 #blockchain #ethereum,4,4,0,False
137,Bitcoin Updater@BitcoinUpdater,"Synechron joins hands with ConsenSys, BlockApps #ethereum http://soco.space/Q_qsnD",1,0,0,False
143,Ethereum SE@StackEthereum,Make function invisible for general user http://ethereum.stackexchange.com/questions/10493/make-function-invisible-for-general-user… #ethereum #contractdevelopment #security #abi,0,0,0,False
144,Ethereum SE@StackEthereum,Is it normal pending transaction are removed after restart of geth? http://ethereum.stackexchange.com/questions/10494/is-it-normal-pending-transaction-are-removed-after-restart-of-geth… #ethereum #goethereum #mining,0,0,0,False
145,nSTRYKERb@NStrykerB,"#fintech #cryptocurrency #bitcoin #ethereum doing what they should- #Demonitization of less stable, less useful #government backed #CurrencyQuote TweetKristov Atlas@kristovatlas · Dec 2, 2016via @jamieCrypto: How many national currencies are smaller than bitcoin?",0,0,0,False
147,/r/Ethereum@r_Ethereum,Workshop: Build Your First DApp with Parity Ethereum Client - DAppHack Berlin 2016 #EthereumWorkshop: Build Your First DApp with Parity Ethereum Client -...Posted in r/ethereum by u/j32804 • 15 points and 1 commentreddit.com,0,0,0,False
148,blockchainmedia@Ethereumlab,What does #Zcash mean for #Ethereum? http://dld.bz/fhyWt #blockchain,0,0,0,False
149,Crypto Byte@crypto_byte721,Is it TIME to buy #ETH?,0,0,0,False
150,Coinstats@coinstats,"Ethereum Classic - ETC
Price: $0.768684
Change in 1h: +1.86%
Market cap: $66509782.0
Ranking: 6
#Ethereum Classic #ETC",0,0,0,False
151,Coinstats@coinstats,"Ethereum - ETH
Price: $7.70564
Change in 1h: +0.22%
Market cap: $667343850.0
Ranking: 2
#Ethereum #ETH",0,0,0,False
152,Ethereum Price@EthereumPrice_,"#Ethereum: Ether Price Index
1 ETH =0.009987Ƀ XBT = $7.677370 USD
Today: -2.20%⬇︎ Last 24h: -2.59%⬇︎
https://ethereum-price.com",1,0,0,False
160,Dissentralized@bitcoin_machine,Day 10 EtherMiners Report.  30% Return! Join me @:http://tinyurl.com/h9btw6v #bitcoin #BTC #ETHEREUM #cloudmining #investing #forex #stocks,2,0,0,False
162,blockchainmedia@Ethereumlab,What are your favorite digital wallets to use and why? http://dld.bz/fevtV #blockchain #bitcoin #ethereum,0,0,0,False
164,Cliff K Jordan@CKJordan15,"Earn up to $65,610 daily! join & get the benefits http://bit.ly/coinviv2 #coinomia #ethereum #cryptoguide #Bitcoins",0,0,0,False
166,CryptoNewswire @CryptoNewswire,"THe Amount of Self-Proclaimed Ethereum Experts Surpasses 3,000 On LinkedIn - http://thebitcoinnews.com/the-amount-of-self-proclaimed-ethereum-experts-surpasses-3000-on-linkedin/… $ETH #markets #fintech #news",1,0,0,False
167,LiTMAS@LiTMASme,The LiTMAS.me blockchain Daily is out! http://paper.li/LiTMASme/1456664522?edition_id=2d3b3a80-ba5d-11e6-a8e5-002590a5ba2d… #blockchain #ethereum,1,1,1,False
174,blockchainmedia@Ethereumlab,"Top AMA's with the leaders in #Blockchain, #Bitcoin and #Ethereum http://blockgeeks.com/ama/",1,1,0,False
175,Blockgeeks@Blockgks,What does #Zcash mean for #Ethereum? http://dld.bz/fhyWt #blockchain,1,1,0,False
176,Coinstats@coinstats,"Ethereum Classic - ETC
Price: $0.754456
Change in 1h: +-0.09%
Market cap: $65275726.0
Ranking: 6
#Ethereum Classic #ETC",0,0,0,False
177,Coinstats@coinstats,"Ethereum - ETH
Price: $7.6832
Change in 1h: +0.75%
Market cap: $665390699.0
Ranking: 2
#Ethereum #ETH",0,0,0,False
178,Ameer Rosic@AmeerRosic,How Will #Blockchain Change Banking? How Won't It? http://snip.ly/a2ci1 #Ethereum #Bitcoin,1,2,0,False
180,Crypto Dood@BitcoinDood,Replying to @Crypto_FuggerAgreed. Currently holding $ETC long term. Lost faith in $ETH after the DAO and the ensuing hardfork.,3,0,0,False
183,blockchainmedia@Ethereumlab,"Besides #Ethereum, which blockchains do you think are currently leading the pack http://dld.bz/fcNRx",1,1,0,False
191,Иван@ivanoff_f,WINGS and @ForkLog Announce a #Contest for Best #DAO Concept http://ln.is/9cIoc #bitcoin #ethereum…... by #straiyc via @c0nvey,0,0,0,False
193,Ameer Rosic@AmeerRosic,25 GENIUSES WHO ARE CREATING THE FUTURE OF BUSINESS http://snip.ly/avrq9 #Blockchain #Ethereum,2,2,0,False
194,Blockgeeks@Blockgks,Could #Blockchain Technology Bankrupt Spotify? A Music Revolution http://buff.ly/2cWIfNM #ethereum #bitcoin,2,3,0,False
196,Coinstats@coinstats,"Ethereum Classic - ETC
Price: $0.754823
Change in 1h: +-0.87%
Market cap: $65307478.0
Ranking: 6
#Ethereum Classic #ETC",0,0,0,False
197,Coinstats@coinstats,"Ethereum - ETH
Price: $7.59502
Change in 1h: +0.32%
Market cap: $657741213.0
Ranking: 2
#Ethereum #ETH",0,0,0,False
198,BitcoinBuzz vega9@BitcoinBuzzV9,http://bitcoinbuzz.vega9.com - Hot topics: #bitcoin #blockchain #btc #ethereum #fintech #crypto,1,1,0,False
199,/r/Ethereum@r_Ethereum,"Parity does it well: version, sync, peers, web-based, etc #EthereumParity does it well: version, sync, peers, web-based, etcPosted in r/ethereum by u/akalaud • 26 points and 3 commentsreddit.com",1,1,0,False
201,jayeharrill.eth @JayeHarrill,I just signed up to @ethstatus - an #ethereum #dapps browser for mobile: https://status.im/invite/1219-6929447b…,4,3,0,False
202,/r/Ethereum@r_Ethereum,Coin Interview with Arcade CIty (ICO followup) #EthereumCoin Interview with Arcade CIty (ICO followup)reddit.com,2,4,0,False
214,/r/Ethereum@r_Ethereum,What's Happening in Ethereum - Dec 4 #EthereumWhat's Happening in Ethereum - Dec 4Posted in r/ethereum by u/hermanmaas • 50 points and 3 commentsreddit.com,1,3,0,False
215,Ethereum UAE@Ethereum_UAE,"BlockCDN TV Box Miner Uses Spare Bandwidth to Make Coin http://ift.tt/2gplZNT #EthereumBlockCDN TV Box Miner Uses Spare Bandwidth to Make CoinChinese startup BlockCDN has announced the release and ICO for its set-top box miner, which uses spare bandwidth to mine cryptocurrencies.bitcoinist.com",1,1,0,False
216,Veki@Veki551155,Whats Happening in #ethereum http://bit.ly/2g8k2HP,0,0,0,False
217,Faith Emmanuel@residualbitcoin,Whats Happening in #ethereum http://bit.ly/2g8k2HP  #ResidualBitcoin,0,0,0,False
218,BitcoinAgile@bitcoinagile,Whats Happening in #ethereum http://bit.ly/2g8k2HP,1,1,0,False
219,Ethereum SE@StackEthereum,"What does Parity logs means? http://ethereum.stackexchange.com/questions/10491/what-does-parity-logs-means… #ethereum #parity #logs #terminologyWhat does Parity logs means?Usually, Parity logs looks like: 2016-12-04 20:56:28 Syncing #2346672 6eb0…3382 2 blk/s 25 tx/s 0 Mgas/s 13529+ 0 Qed #2360201 0/ 8/25 peers 10 MiB db 6 MiB chain 50 MiBethereum.stackexchange.com",1,1,0,False
223,Alex Chepurnoy@chepurnoy,Replying to @FridgeSealKit@marcdemesel it's already here probably (we can count from the day #Ethereum went back under $1B) (1/3),1,2,0,False
224,/r/Ethereum@r_Ethereum,"Google/Code-Prettify: Who can create syntax highlighting for solidity, serpent, and ...? #EthereumGoogle/Code-Prettify: Who can create syntax highlighting for...Posted in r/ethereum by u/5chdn • 6 points and 0 commentsreddit.com",1,1,0,False
225,Chris P Thompson@CryptoBooksAlt,#bitcoin #ethereum #monero #gamecredits find out how TrumpCoin began in 2016. A book about #trumpcoin on Amazon at https://goo.gl/RYRcIZ,1,1,0,False
226,blockchainmedia@Ethereumlab,Can This 22-year-old Coder Out-Bitcoin #Bitcoin? http://dld.bz/eWMa7 #ethereum,1,0,0,False
227,Vindyne8@Vindyne8,#RT Chronobank. Labour-Hour Stable Coins. https://youtube.com/watch?v=a_WrXEMpNAE… #blockchain #bitcoin #ethereum #fintech #Chronobank,20,18,0,False
228,Coinstats@coinstats,"Ethereum Classic - ETC
Price: $0.761484
Change in 1h: +-0.13%
Market cap: $65883786.0
Ranking: 6
#Ethereum Classic #ETC",0,0,0,False
229,Coinstats@coinstats,"Ethereum - ETH
Price: $7.5757
Change in 1h: +0.34%
Market cap: $656061811.0
Ranking: 2
#Ethereum #ETH",0,0,0,False
230,Ethereum Price@EthereumPrice_,"#Ethereum: Ether Price Index
1 ETH =0.009767Ƀ XBT = $7.543425 USD
Today: -4.35%⬇︎ Last 24h: -5.42%⬇︎
https://ethereum-price.com",1,1,0,False
231,Ethereum SE@StackEthereum,Parity not syncing anymore http://ethereum.stackexchange.com/questions/10490/parity-not-syncing-anymore… #ethereum #goethereum #synchronization #parity,1,1,0,False
232,Olivier Chapiteau@o_chapiteau,"04Dec2016 18:00 UTC #Ether #Blockchain status - Block height @ 2,747,516 - 101,455 unconfirmed tr. - Last fork height @ 2,747,507",0,0,0,False
233,Olivier Chapiteau@o_chapiteau,04Dec2016 18:00 UTC #Ethereum live spots - #Ether @ 7.52376 $ - #EtherClassic @ 0.75443 $,0,0,0,False
234,BitcoinBuzz vega9@BitcoinBuzzV9,http://bitcoinbuzz.vega9.com - Hot topics: #bitcoin #blockchain #btc #fintech #bitcoins #ethereum,0,0,0,False
236,Carlos Macías@CarlosMacias_,".
@VitalikButerin
#Ethereum network

""we expect that the results of the work will start to bear fruit very soon""

https://blog.ethereum.org/2016/12/04/ethereum-research-update/…
.",1,0,0,False
246,Cloud Mining Monitor@cmmonitorcom,#Ethereum #Cloudmining': 04.12.2016 Payment received. 6 MHs - 0.06696800 ETH. From Genesis Mining.Genesis Mining (Ethereum Mining)cmmonitor.com,2,2,0,False
247,blockchainmedia@Ethereumlab,Check it out! Beginners guide to #Blockchain http://buff.ly/2dvhaDX #bitcoin #ethereum #startup,0,0,0,False
248,Ethereum SE@StackEthereum,What does mg/s mean when running geth? http://ethereum.stackexchange.com/questions/10488/what-does-mg-s-mean-when-running-geth… #ethereum #goethereum #blockchain,1,3,0,False
249,ŻET Technologies@ZET_Tech,"Our scrypt detected the most profitable coin to mine is:
#Zclassic @ZclassicCoin
#ZEC #ZCASH @zcashco
#ethereum #ethclassic
#mining",0,0,0,False
250,Blockgeeks@Blockgks,"Is #Ethereum similar to #Bitcoin? Well, sort of, but not really. http://dld.bz/fcBTc #blockchain",1,1,0,False
251,Clemens Frowein@CFrowein,vDice Initial Coin Offering: Distributed Economy for All http://paper.li/CFrowein/1471539402?read=http%3A%2F%2Fmarkets.financialcontent.com%2Fstocks%2Fnews%2Fread%2F33303238%2FvDice_Initial_Coin_Offering… #ethereum,1,0,0,False
252,Coinstats@coinstats,"Ethereum Classic - ETC
Price: $0.762291
Change in 1h: +-0.3%
Market cap: $65952790.0
Ranking: 6
#Ethereum Classic #ETC",0,0,0,False
261,Coinstats@coinstats,"Ethereum - ETH
Price: $7.54632
Change in 1h: +-0.14%
Market cap: $653507698.0
Ranking: 2
#Ethereum #ETH",0,0,0,False
262,Bobe'bot@Bobe_bot,"1 #BTC = 798.9105 #CHF
1 #ETH = 8.022 #CHF
1 #DOGE = 0.000218234549 #CHF
sources: @cryptonatorcom @hellobity",0,0,0,False
263,ali$on@alisonmarkz,all hail Super $eth,1,0,0,False
264,Veki@Veki551155,"Evolution of Kadena, the First Real Private #blockchain - CoinDesk #bitcoin #ethereum http://bit.ly/2fZIcky",1,0,0,False
266,bitcoin cloud@bitcoincloud,"#eth #ethereum drops further in price, #xmr #monero still stable. #btc #bitcoin price still very high. next days will be  eventful.",1,1,0,False
268,PLACIDO CARDENAS@PLACIDO80,#alliancesystemclub #bitcoin #bitcoins #criptomonedás #ethereum @ Alliance system club Monterrey https://instagram.com/p/BNmivX8BKvH/,0,0,0,False
276,Ethereum SE@StackEthereum,Raw transaction data in Go http://ethereum.stackexchange.com/questions/10486/raw-transaction-data-in-go… #ethereum #goethereum #rawtransaction #golang,3,3,0,False
277,Chris P Thompson@CryptoBooksAlt,#bitcoin #ethereum #monero #gamecredits find out how Dogecoin began in 2013. A book about #dogecoin on Amazon https://goo.gl/gzVx7u,1,1,0,False
280,/r/Ethereum@r_Ethereum,Ethereum-Powered Decentralized VPN #EthereumEthereum-Powered Decentralized VPNPosted in r/ethereum by u/meetrais • 39 points and 10 commentsreddit.com,1,1,0,False
281,Ethereum SE@StackEthereum,getMessages() throwing error http://ethereum.stackexchange.com/questions/10485/getmessages-throwing-error… #ethereum #goethereum #whisper,2,1,0,False
283,Chris P Thompson@CryptoBooksAlt,#bitcoin #ethereum #monero #gamecredits find out how Reddcoin began in 2014. A book about #reddcoin on Amazon https://goo.gl/aYiWs0,2,1,0,False
284,LAPITH@bhumharit,RT Vindyne8: #RT ChronoBank Development Plan https://blog.chronobank.io/chronobank-development-plan-5a2187d0e89#.ik96ng3a5… #blockchain #bitcoin #ethereum #wavesplatfor… https://twitter.com/i/web/status/805394475786915842…ChronoBank Development PlanThis is a preliminary development plan for different amounts of ICO fundsblog.chronobank.io,1,1,0,False
286,BlockChannel@BlockChannel,"BlockChannel: #Ethereum-Powered #Decentralized #VPN: A Truly Secure Internet Connection?
http://ethnews.com/ethereum-powered-decentralized-vpn-a-truly-secure-internet-connection…",1,1,0,False
288,Brave New Coin@bravenewcoin,#Ethereum Price: USD $7.69 $ETH http://ow.ly/6UKf3048WBe,1,1,0,False
289,blockchainmedia@Ethereumlab,How does #blockchain work? The ultimate guide  http://buff.ly/2dvhaDX #bitcoin #ethereum #startup,1,0,0,False
290,Blockgeeks@Blockgks,What are your favorite digital wallets to use and why? http://dld.bz/fevtV #blockchain #bitcoin #ethereum,1,1,0,False
291,Coinstats@coinstats,"Ethereum Classic - ETC
Price: $0.764859
Change in 1h: +-0.55%
Market cap: $66173686.0
Ranking: 6
#Ethereum Classic #ETC",1,0,0,False
292,Coinstats@coinstats,"Ethereum - ETH
Price: $7.62733
Change in 1h: +1.57%
Market cap: $660508426.0
Ranking: 2
#Ethereum #ETH",1,0,0,False
293,Ethereum SE@StackEthereum,How to call a Contract from an existing contract http://ethereum.stackexchange.com/questions/10482/how-to-call-a-contract-from-an-existing-contract… #ethereum #contractdevelopment #contractinvocation,1,1,0,False
294,matty c@mecampbellsoup,"Replying to @TuurDemeesterwhere do you get data re: long vs. shorts in $ETH? last i saw from you there were way more longs, is that still true?",2,0,0,False
297,matty c@mecampbellsoup,Replying to @mecampbellsoup$BTC / $ETH trade update: so this trade continues to work nicely. @TuurDemeester what could give $ETH a pop - anything on the radar?,1,0,0,False
298,/r/Ethereum@r_Ethereum,Is GPU Mining Worth It? #EthereumIs GPU Mining Worth It?I know I'm late to the game but I was wondering if GPU mining is worth it for ETC?reddit.com,1,4,0,False
300,Empty Bucket@teamemptybucket,Our personal experience in investing in Ethereum. #ethereum #kraken #emptybucket... http://fb.me/P50bu6g5,0,0,0,False
302,blockchainmedia@Ethereumlab,Great people deserve a great audience. http://blockgeeks.com #Blockchain #Ethereum #Bitcoin,0,0,0,False
303,Blockgeeks@Blockgks,"Top AMA's with the leaders in #Blockchain, #Bitcoin and #Ethereum http://blockgeeks.com/ama/",1,1,0,False
305,Coinstats@coinstats,"Ethereum Classic - ETC
Price: $0.76883
Change in 1h: +-0.52%
Market cap: $66516068.0
Ranking: 6
#Ethereum Classic #ETC",1,0,0,False
306,Coinstats@coinstats,"Ethereum - ETH
Price: $7.50879
Change in 1h: +-0.51%
Market cap: $650233888.0
Ranking: 2
#Ethereum #ETH",1,0,0,False
307,stef nieberg@sevens_heaven,"GET 10MHs mining speed for F.R.E.E , and use it for Ethereum, litecoin or bitcoin mining http://bit.ly/10MHsFree #ethereum #bitcoin
4GIF",1,1,1,False
308,Ethereum Price@EthereumPrice_,"#Ethereum: Ether Price Index
1 ETH =0.009662Ƀ XBT = $7.494695 USD
Today: -5.37%⬇︎ Last 24h: -3.36%⬇︎
https://ethereum-price.com",1,1,0,False
309,Thorsten@digitaldonkey09,"We talked about a #ethereum #hackaton in Dubai ""Blockchain Virtual GovHack"" Read more here http://govtechioneersrace.com/hackathon",2,2,1,False
310,Thorsten@digitaldonkey09,Thank to @ohmu808 for bringing your #ethereum knowledge to #drupal community at  #dcmuc16 https://twitter.com/morenstrat/status/805400396504166400…This Tweet is unavailable.,3,1,0,False
311,ARK.io@ArkEcosystem,"ARK-TEC

#Ark Token Exchange Campaign: 7. November - 11. December 2016

$ARK $LSK $BTC $ETH #LISK #bitcoin #crypto #PR #startups #success",10,13,0,False
312,Thorsten@digitaldonkey09,Replying to @DriesFinished my talk with @ohmu808 about #drupal and the #ethereum #blockchain at #dcmuc16 http://bit.ly/slides-drupal-ethereum-dcmuc2016…,1,1,0,False
313,blockchainmedia@Ethereumlab,Q&A: STEPHAN TUAL: Founder & COO Slock.it & The DAO http://dld.bz/faeQR #THEDAO #ethereum #blockchain,0,0,0,False
314,/r/Ethereum@r_Ethereum,"Trying to send ether to another address (ledger) zero conformations after 24hours #EthereumTrying to send ether to another address (ledger) zero...Hi there, what could be wrong? I am trying to send 14eth (classic) to a ledger eth classic address, but I still have zero conformations. In my...reddit.com",1,1,0,False
315,Crytopan™@cryptopan,Look $ETH down hahaha,0,0,0,False
316,seven nieberg@seven_nieberg,"GET 10MHs mining speed for F.R.E.E , and use it for Ethereum, litecoin or bitcoin mining http://bit.ly/10MHsFree #ethereum #bitcoin
8GIF",1,2,1,False
317,Tone Vays (#EndLockdowns)@ToneVays,"Replying to @gadikianThere r none, u don't understand what #blockchain is! having said that, some tokens r scammier ($STEEM $ETH) vs Others ($LTC)",2,0,0,False
326,Раб Божий@Diener_Gottes,Antonopoulos Talks #Ethereum as Regulations Bite #Bitcoin: Andreas Antonopoulos has… https://goo.gl/fb/joie1I,1,3,1,False
327,Josh Hayden@joshhayden10,15 years ago a napalm bomb hit. Happy #ether day!,1,0,0,False
328,Blockgeeks@Blockgks,"Besides #Ethereum, which blockchains do you think are currently leading the pack http://dld.bz/fcNRx",1,1,0,False
329,/r/Ethereum@r_Ethereum,"How do I watch vSlice tokens in Mist? #EthereumHow do I watch vSlice tokens in Mist?All I see to check token balance is from their own internal website. When I try to watch the contract address I sent my Ether to, nothing shows...reddit.com",1,3,0,False
330,Coinstats@coinstats,"Ethereum Classic - ETC
Price: $0.772943
Change in 1h: +-0.47%
Market cap: $66870856.0
Ranking: 6
#Ethereum Classic #ETC",1,0,0,False
331,BitcoinBuzz vega9@BitcoinBuzzV9,http://bitcoinbuzz.vega9.com - Hot topics: #bitcoin #blockchain #ethereum #new #teaser #cloud,1,0,0,False
332,Coinstats@coinstats,"Ethereum - ETH
Price: $7.53686
Change in 1h: +-0.99%
Market cap: $652654383.0
Ranking: 2
#Ethereum #ETH",1,0,0,False
342,WowWowCoin@myluckbitcoin,Antonopoulos Talks #Ethereum as Regulations Bite #Bitcoin http://dlvr.it/MpRJXF,1,1,1,False
343,Gaetano Manfredi@gamanfredi,Excellent for Begin. GO NOW New Mining USERs click HERE-->https://goo.gl/hgCvqh #bitcoin #btc #cloudminig #ethereum #litecoin #monero https://twitter.com/hasheer_mining/status/803054242109849600…This Tweet is unavailable.,2,1,1,False
344,karim karazia@karimkarazia,Free #Ethereum every 5 minutes https://cryptosource.net/free-ethereum/?r=qwWqwZe5oB… #Ethereum via @CryptoSourceHQ,0,0,0,False
345,SingularDTV@SingularDTV,"#Ethereum research update
@ethereumproject @VitalikButerin
https://blog.ethereum.org/2016/12/04/ethereum-research-update/…",24,17,0,False
346,Melus@melus,The latest Bitcoin Gazette! http://paper.li/f-1413984175?edition_id=612a0980-ba25-11e6-8835-0cc47a0d1605… #ethereum #blockchain,1,1,1,False
347,seven nieberg@seven_nieberg,"GET 10MHs mining speed for F.R.E.E , and use it for Ethereum, litecoin or bitcoin mining http://bit.ly/10MHsFree #ethereum #bitcoin
52GIF",3,3,0,False
348,Игорь Репной@repnoi,WINGS and @ForkLog Announce a #Contest for Best #DAO Concept http://ln.is/9Ly7t #bitcoin #ethereum…... by #hendraka via @c0nvey,0,0,0,False
350,indxio@indxio,#Russia Market Close || #Bitcoin: $766.94 | 723.81 EUR||  #Litecoin: 0.0025 BTC  || #Ethereum: 0.0098 BTC   || $BTC $LTC $ETH $RUB,1,2,0,False
351,seven nieberg@seven_nieberg,"GET 10MHs mining speed for F.R.E.E , and use it for Ethereum, litecoin or bitcoin mining http://bit.ly/10MHsFree #ethereum #bitcoin
1GIF",1,1,0,False
352,Ameer Rosic@AmeerRosic,"Is #Ethereum similar to #Bitcoin? Well, sort of, but not really. http://dld.bz/fcBTc #blockchain",1,1,0,False
360,AlertCo.in@AlertCoin,"@phemealert
#Bittrex: $ETH / BTC

Alert price: <= 0.009836
Current price: 0.00982668

http://AlertCo.in",0,0,0,False
361,seven nieberg@seven_nieberg,"GET 10MHs mining speed for F.R.E.E , and use it for Ethereum, litecoin or bitcoin mining http://bit.ly/10MHsFree #ethereum #bitcoin
9GIF",1,1,0,False
362,blockchainmedia@Ethereumlab,"Check it out! Full Q &A with Richard Olsen, CEO at #lykke http://buff.ly/2cQ2dIQ #blockchain #ethereum",1,0,0,False
363,Coinstats@coinstats,"Ethereum Classic - ETC
Price: $0.777353
Change in 1h: +-0.15%
Market cap: $67250350.0
Ranking: 6
#Ethereum Classic #ETC",1,0,0,False
364,/r/Ethereum@r_Ethereum,What do you think of the actual Ethereum price tendency? #EthereumWhat do you think of the actual Ethereum price tendency?reddit.com,1,1,0,False
365,Coinstats@coinstats,"Ethereum - ETH
Price: $7.6233
Change in 1h: +-1.16%
Market cap: $660129295.0
Ranking: 2
#Ethereum #ETH",1,0,0,False
366,BitcoinBuzz vega9@BitcoinBuzzV9,http://bitcoinbuzz.vega9.com - Hot topics: #bitcoin #blockchain #ethereum #dao #btc #wings,1,0,0,False
367,Cloud Mining Monitor@cmmonitorcom,#Ether #Ethereum #Cloudmining': 04.12.2016 Payment received. 6 MHs - 0.25089096 ETH. From HashFlareHashFlare (Ethereum Mining)cmmonitor.com,1,1,0,False
368,Gopi Ganesalingam@GopiAtMDEC,"Had the privilege to have dinner with Vitalik Buterin. We spoke of the impact of #Blockchain technology, #Bitcoins and #ETHEREUM. Awesome!",1,1,1,False
372,seven nieberg@seven_nieberg,"GET 10MHs mining speed for F.R.E.E , and use it for Ethereum, litecoin or bitcoin mining http://bit.ly/10MHsFree #ethereum #bitcoin
70GIF",1,1,0,False
373,Brave New Coin@bravenewcoin,Find the latest $ETC $MAID $XMR $OMNI $FCT $XCP $AMP $BTC $ETH. Price feeds & charts .@BNC_markets,0,0,0,False
374,blockchainmedia@Ethereumlab,"Who is working on a blockchain powered sustainable energy solutions?
http://dld.bz/eVxaY #ethereum #blockchain",1,1,0,False
375,seven nieberg@seven_nieberg,"GET 10MHs mining speed for F.R.E.E , and use it for Ethereum, litecoin or bitcoin mining http://bit.ly/10MHsFree #ethereum #bitcoin
70GIF",1,2,0,False
376,/r/Ethereum@r_Ethereum,How Developers Are Responding to Ethereum's Unexpected Fork #EthereumHow Developers Are Responding to Ethereum's Unexpected ForkPosted in r/ethereum by u/dryf2 • 0 points and 1 commentreddit.com,2,2,0,False
377,seven nieberg@seven_nieberg,"GET 10MHs mining speed for F.R.E.E , and use it for Ethereum, litecoin or bitcoin mining http://bit.ly/10MHsFree #ethereum #bitcoin
31GIF",1,1,0,False
378,@RickyGQ,"So here's a thread of all the actual facts on #Ether, in honor of the 15th Anniversary of #EtherDay...",16,27,3,False
379,Λnorak@AnorakTech,"Updated Sapphire R9 290X 4GB roms at https://anorak.tech/Anoraks-VBIOS-collection… New memoryshift, overclock and powersave vers. #zcash #ethereum #cryptocurrency",3,1,1,False
380,seven nieberg@seven_nieberg,"GET 10MHs mining speed for F.R.E.E , and use it for Ethereum, litecoin or bitcoin mining http://bit.ly/10MHsFree #ethereum #bitcoin
5GIF",1,1,0,False
381,Brave New Coin@bravenewcoin,#Ethereum Price: USD $7.84 $ETH http://ow.ly/6UKf3048WBe,1,1,0,False
382,Crypto Ventures@crypto_ventures,Best website to check your currencies: https://worldcoinindex.com #cryptocurrency #bitcoin #ethereum #doa,1,1,1,False
383,Francesco Villa@cekospiu,Donate to our project! Add funds and receive $$$ in exchange from profits lifetime! @gagpubblicita #ethereum #miner https://indiegogo.com/projects/build-ethereum-mining-farm/x/14702367#/…,0,0,0,False
384,seven nieberg@seven_nieberg,"GET 10MHs mining speed for F.R.E.E , and use it for Ethereum, litecoin or bitcoin mining http://bit.ly/10MHsFree #ethereum #bitcoin
84GIF",1,4,0,False
385,blockchainmedia@Ethereumlab,Step-by-Step Guide: What the heck is a Smart Contract? #blockchain #bitcoin #ethereum http://dld.bz/eYNat,0,0,0,False
386,Timo Ξberhard@ZhuBajie72,"When reading the #cryptocurrencies #trollbox @tradingview I cannot stop to be like...

#Bitcoin #Ethereum #NewParadigmGIF",1,0,0,False
389,@RickyGQ,"Happy Ether Day! @nas
#15yearanniversary #Nas #Ether #Goat https://instagram.com/p/BNmC9h_D1XW/",0,0,0,False
390,MeeseeksBTC@Meeseeks100BTC,"RT Start mining $ETH or $BTC together with people from all over the world.

https://goo.gl/tYClLG",0,0,0,False
391,Coinstats@coinstats,"Ethereum Classic - ETC
Price: $0.778197
Change in 1h: +-0.55%
Market cap: $67323366.0
Ranking: 6
#Ethereum Classic #ETC",0,0,0,False
392,Coinstats@coinstats,"Ethereum - ETH
Price: $7.7141
Change in 1h: +-0.13%
Market cap: $667985209.0
Ranking: 2
#Ethereum #ETH",0,0,0,False
393,Ethereum Price@EthereumPrice_,"#Ethereum: Ether Price Index
1 ETH =0.010064Ƀ XBT = $7.662480 USD
Today: -1.44%⬇︎ Last 24h: -1.67%⬇︎
https://ethereum-price.com",1,1,0,False
394,Ethereum SE@StackEthereum,How to call a Contract from an existing contract http://ethereum.stackexchange.com/questions/10482/how-to-call-a-contract-from-an-existing-contract… #ethereum #contractdevelopment,1,1,0,False
396,seven nieberg@seven_nieberg,"GET 10MHs mining speed for F.R.E.E , and use it for Ethereum, litecoin or bitcoin mining http://bit.ly/10MHsFree #ethereum #bitcoin
49GIF",1,0,0,False
397,Ameer Rosic@AmeerRosic,"Besides #Ethereum, which blockchains do you think are currently leading the pack http://dld.bz/fcNRx",1,2,0,False
398,seven nieberg@seven_nieberg,"GET 10MHs mining speed for F.R.E.E , and use it for Ethereum, litecoin or bitcoin mining http://bit.ly/10MHsFree #ethereum #bitcoin
52GIF",1,0,0,False
399,blockchainmedia@Ethereumlab,It's coming! The #Blockchain Technology That Will Replace Lawyers http://dld.bz/eYNat #ethereum,0,0,0,False
401,seven nieberg@seven_nieberg,"GET 10MHs mining speed for F.R.E.E , and use it for Ethereum, litecoin or bitcoin mining http://bit.ly/10MHsFree #ethereum #bitcoin
45GIF",1,0,0,False
402,CurrenSky@CurrenSky,2 days of ICO and we still accept $BTC $BLK $DOGE $ETC $ETH $LTC $MAID $XMR $NMC $PPC $XRP $START $STEEM $ZEC..Don't miss the cheapest wave!,0,0,0,False
403,AlertCo.in@AlertCoin,"@alexkramer98
#Poloniex: $ETH / BTC

Alert price: <= 0.00993
Current price: 0.00992101

http://AlertCo.in",0,0,0,False
411,seven nieberg@seven_nieberg,"GET 10MHs mining speed for F.R.E.E , and use it for Ethereum, litecoin or bitcoin mining http://bit.ly/10MHsFree #ethereum #bitcoin
6GIF",0,0,0,False
412,blockchainmedia@Ethereumlab,Is #Blockchain Technology Going To Disrupt Our Political System:  http://dld.bz/fgnWh #ethereum,0,0,0,False
413,Blockgeeks@Blockgks,Can This 22-year-old Coder Out-Bitcoin #Bitcoin? http://dld.bz/eWMa7 #ethereum,2,2,0,False
414,Tech Lib@tech__lib,"What is #Blockchain Technology? Guide For Beginners  #ethereum
@blockchainhelpr - http://techlib.online/what-istechnology-guide-for-beginners-2/…",0,0,0,False
415,Coinstats@coinstats,"Ethereum Classic - ETC
Price: $0.78316
Change in 1h: +-0.26%
Market cap: $67751824.0
Ranking: 6
#Ethereum Classic #ETC",0,0,0,False
416,Bobe'bot@Bobe_bot,"1 #BTC = 796.4873 #CHF
1 #ETH = 8.1662 #CHF
1 #DOGE = 0.000209483235 #CHF
sources: @cryptonatorcom @hellobity",0,0,0,False
417,Coinstats@coinstats,"Ethereum - ETH
Price: $7.69699
Change in 1h: +-0.05%
Market cap: $666491948.0
Ranking: 2
#Ethereum #ETH",0,0,0,False
418,/r/Ethereum@r_Ethereum,"Is there a video that vulgarises the technology behind Ethereum? #EthereumIs there a video that vulgarises the technology behind Ethereum?Hi all, I love Ethereum but I just understand parts of it. It there a video that vulgarizes Ethereum so I could get the pic picture? Btw What is...reddit.com",1,1,0,False
427,seven nieberg@seven_nieberg,"GET 10MHs mining speed for F.R.E.E , and use it for Ethereum, litecoin or bitcoin mining http://bit.ly/10MHsFree #ethereum #bitcoin
22GIF",0,0,0,False
428,Fred E @Fredilly,Vitalik is the CEO of #Ethereum. Deal with it!,6,3,1,False
429,/r/Ethereum@r_Ethereum,Venezuela was the google search leader in 2016 #EthereumVenezuela was the google search leader in 2016Posted in r/ethereum by u/malefizer • 7 points and 5 commentsreddit.com,2,2,0,False
430,stephanus Nieberg@Allinoneprofit1,"GET 10MHs mining speed for F.R.E.E , and use it for Ethereum, litecoin or bitcoin mining http://bit.ly/10MHsFree #ethereum #bitcoin
8GIF",1,1,1,False
431,/r/Ethereum@r_Ethereum,Ethereum Research Update #EthereumEthereum Research UpdatePosted in r/ethereum by u/BeerBellyFatAss • 186 points and 29 commentsreddit.com,2,3,0,False
432,seven nieberg@seven_nieberg,"GET 10MHs mining speed for F.R.E.E , and use it for Ethereum, litecoin or bitcoin mining http://bit.ly/10MHsFree #ethereum #bitcoin
62GIF",0,0,0,False
433,stephanus Nieberg@Allinoneprofit1,"GET 10MHs mining speed for F.R.E.E , and use it for Ethereum, litecoin or bitcoin mining http://bit.ly/10MHsFree #ethereum #bitcoin
10GIF",1,1,0,False
434,blockchainmedia@Ethereumlab,Smart Contracts: The #Blockchain Technology That Will Replace Lawyers http://dld.bz/eYNat #ethereum,1,0,0,False
435,/r/Ethereum@r_Ethereum,Winners of the Blockchain Startup Contest Announced: Etherisc and Status #EthereumWinners of the Blockchain Startup Contest Announced: Etherisc and...Posted in r/ethereum by u/ethek • 12 points and 1 commentreddit.com,1,1,0,False
436,seven nieberg@seven_nieberg,"GET 10MHs mining speed for F.R.E.E , and use it for Ethereum, litecoin or bitcoin mining http://bit.ly/10MHsFree #ethereum #bitcoin
68GIF",0,0,0,False
437,/r/Ethereum@r_Ethereum,"Resources On Accepting And Processing Ethereum #EthereumResources On Accepting And Processing EthereumI've been in a stump trying to find a simple way to accept and process Ethereum payments in a PHP storefront. Ideally, I would like to process...reddit.com",1,3,0,False
438,stephanus Nieberg@Allinoneprofit1,"GET 10MHs mining speed for F.R.E.E , and use it for Ethereum, litecoin or bitcoin mining http://bit.ly/10MHsFree #ethereum #bitcoin
18GIF",1,1,0,False
440,Followback Team MGWV@OracleCoin,“Distributed Economy For All” -  http://markets.financialcontent.com/siliconvalley/news/read/33303238… #ethereum #ethnews #ICO,1,0,0,False
441,seven nieberg@seven_nieberg,"GET 10MHs mining speed for F.R.E.E , and use it for Ethereum, litecoin or bitcoin mining http://bit.ly/10MHsFree #ethereum #bitcoin
16GIF",0,0,0,False
443,seven nieberg@seven_nieberg,"GET 10MHs mining speed for F.R.E.E , and use it for Ethereum, litecoin or bitcoin mining http://bit.ly/10MHsFree #ethereum #bitcoin
34GIF",0,0,0,False
444,stephanus Nieberg@Allinoneprofit1,"GET 10MHs mining speed for F.R.E.E , and use it for Ethereum, litecoin or bitcoin mining http://bit.ly/10MHsFree #ethereum #bitcoin
53GIF",1,1,0,False
445,Blockgeeks@Blockgks,Check it out! Beginners guide to #Blockchain http://buff.ly/2dvhaDX #bitcoin #ethereum #startup,1,2,0,False
446,Coinstats@coinstats,"Ethereum Classic - ETC
Price: $0.785747
Change in 1h: +0.37%
Market cap: $67974612.0
Ranking: 6
#Ethereum Classic #ETC",0,0,0,False
447,Coinstats@coinstats,"Ethereum - ETH
Price: $7.69955
Change in 1h: +-2.22%
Market cap: $666704179.0
Ranking: 2
#Ethereum #ETH",0,0,0,False
448,stephanus Nieberg@Allinoneprofit1,"GET 10MHs mining speed for F.R.E.E , and use it for Ethereum, litecoin or bitcoin mining http://bit.ly/10MHsFree #ethereum #bitcoin
95GIF",1,1,0,False
449,Chris Williams is typing...@Scampiuk,Ethereum Research Update http://ift.tt/2fYHJzc #ethereum,1,1,1,False
450,seven nieberg@seven_nieberg,"GET 10MHs mining speed for F.R.E.E , and use it for Ethereum, litecoin or bitcoin mining http://bit.ly/10MHsFree #ethereum #bitcoin
53GIF",0,0,0,False
451,stephanus Nieberg@Allinoneprofit1,"GET 10MHs mining speed for F.R.E.E , and use it for Ethereum, litecoin or bitcoin mining http://bit.ly/10MHsFree #ethereum #bitcoin
27GIF",1,1,0,False
452,stephanus Nieberg@Allinoneprofit1,"GET 10MHs mining speed for F.R.E.E , and use it for Ethereum, litecoin or bitcoin mining http://bit.ly/10MHsFree #ethereum #bitcoin
88GIF",1,1,0,False
453,Faith Emmanuel@residualbitcoin,#ethereum Research Update - Ethereum Blog https://blog.ethereum.org/2016/12/04/ethereum-research-update…  #ResidualBitcoin,0,0,0,False
454,AlertCo.in@AlertCoin,"@alexkramer98
#Poloniex: $ETH / BTC

Alert price: <= 0.01
Current price: 0.00999909

http://AlertCo.in",0,0,0,False
455,seven nieberg@seven_nieberg,"GET 10MHs mining speed for F.R.E.E , and use it for Ethereum, litecoin or bitcoin mining http://bit.ly/10MHsFree #ethereum #bitcoin
38GIF",0,0,0,False
456,Alberto Jauregui | esoteRICK.eth @DisruptBanksy,http://ift.tt/2fYHJzc Ethereum Research Update #ethereum #ether,2,2,0,False
457,stephanus Nieberg@Allinoneprofit1,"GET 10MHs mining speed for F.R.E.E , and use it for Ethereum, litecoin or bitcoin mining http://bit.ly/10MHsFree #ethereum #bitcoin
92GIF",1,1,0,False
459,Veki@Veki551155,#ethereum Research Update - Ethereum Blog https://blog.ethereum.org/2016/12/04/ethereum-research-update…,0,0,0,False
460,BitcoinAgile@bitcoinagile,#ethereum Research Update - Ethereum Blog https://blog.ethereum.org/2016/12/04/ethereum-research-update…,2,1,0,False
462,seven nieberg@seven_nieberg,"GET 10MHs mining speed for F.R.E.E , and use it for Ethereum, litecoin or bitcoin mining http://bit.ly/10MHsFree #ethereum #bitcoin
48GIF",0,0,0,False
463,stephanus Nieberg@Allinoneprofit1,"GET 10MHs mining speed for F.R.E.E , and use it for Ethereum, litecoin or bitcoin mining http://bit.ly/10MHsFree #ethereum #bitcoin
39GIF",0,0,0,False
464,stef nieberg@sevens_heaven,"GET 10MHs mining speed for F.R.E.E , and use it for Ethereum, litecoin or bitcoin mining http://bit.ly/10MHsFree #ethereum #bitcoin
39GIF",0,0,0,False
465,stephanus Nieberg@Allinoneprofit1,"GET 10MHs mining speed for F.R.E.E , and use it for Ethereum, litecoin or bitcoin mining http://bit.ly/10MHsFree #ethereum #bitcoin
65GIF",0,0,0,False
466,seven nieberg@seven_nieberg,"GET 10MHs mining speed for F.R.E.E , and use it for Ethereum, litecoin or bitcoin mining http://bit.ly/10MHsFree #ethereum #bitcoin
96GIF",0,0,0,False
467,Tedy MD@bitcoinjapanese,Nicolas Cage's Agent http://vid.staged.com/n01t #btcjapan #btcchina #ethereum.co.id,1,2,1,False
468,blockchainmedia@Ethereumlab,Become a #Blockchain Guest Contributor http://dld.bz/fgnwr #writer #bitcoin #ethereum,0,0,0,False
469,Blockgeeks@Blockgks,Is #Blockchain Technology Going To Disrupt Our Political System:  http://dld.bz/fgnWh #ethereum,1,1,0,False
470,Coinstats@coinstats,"Ethereum Classic - ETC
Price: $0.780833
Change in 1h: +-0.2%
Market cap: $67548171.0
Ranking: 6
#Ethereum Classic #ETC",0,0,0,False
471,seven nieberg@seven_nieberg,"GET 10MHs mining speed for F.R.E.E , and use it for Ethereum, litecoin or bitcoin mining http://bit.ly/10MHsFree #ethereum #bitcoin
50GIF",0,0,0,False
472,Coinstats@coinstats,"Ethereum - ETH
Price: $7.87177
Change in 1h: +-0.88%
Market cap: $681607098.0
Ranking: 2
#Ethereum #ETH",0,0,0,False
475,Ethereum Price@EthereumPrice_,"#Ethereum: Ether Price Index
1 ETH =0.010294Ƀ XBT = $7.856490 USD
Today: +0.82%⬆︎ Last 24h: -1.44%⬇︎
https://ethereum-price.com",1,2,0,False
476,stephanus Nieberg@Allinoneprofit1,"GET 10MHs mining speed for F.R.E.E , and use it for Ethereum, litecoin or bitcoin mining http://bit.ly/10MHsFree #ethereum #bitcoin
31GIF",0,0,0,False
477,Felix2cat@Felixtocat,"Not clear : are $ZEC and $ETH the worst garbage altcoins ?Quote Tweetnotsofast@notsofast · Dec 3, 2016This is amazing if you zoom into pic 4 https://twitter.com/bitcoinmom/status/805187244944396288…",0,0,0,False
478,/r/Ethereum@r_Ethereum,Trust Disrupted: Bitcoin and the Blockchain (7 short episodes including Ethereum) #EthereumTrust Disrupted: Bitcoin and the Blockchain (7 short episodes...Posted in r/ethereum by u/TonyMcCarp • 7 points and 0 commentsreddit.com,2,1,0,False
479,Bitcoin Updater@BitcoinUpdater,Ethereum Price Technical Analysis – ETH/USD Targets Additional Weakness #ethereum http://soco.space/Bob-A2,1,1,1,False
480,seven nieberg@seven_nieberg,"GET 10MHs mining speed for F.R.E.E , and use it for Ethereum, litecoin or bitcoin mining http://bit.ly/10MHsFree #ethereum #bitcoin
63GIF",0,0,0,False
481,кคՇєгץภค ςђєгภเєเ@triuzla,Students To Weigh in On #Bitcoin Vs #Ethereum Investment Debate - http://route.overnewser.com/bitcoinwrld/?url=http%3A%2F%2Fwww.newsbtc.com%2F2016%2F11%2F08%2Fstudents-weigh-bitcoin-vs-ethereum-investment-debate%2F…,1,1,1,False
482,stef nieberg@sevens_heaven,"GET 10MHs mining speed for F.R.E.E , and use it for Ethereum, litecoin or bitcoin mining http://bit.ly/10MHsFree #ethereum #bitcoin
23GIF",0,0,0,False
484,seven nieberg@seven_nieberg,"GET 10MHs mining speed for F.R.E.E , and use it for Ethereum, litecoin or bitcoin mining http://bit.ly/10MHsFree #ethereum #bitcoin
5GIF",0,0,0,False
486,Ethereum SE@StackEthereum,Parity 1.4.4: syncing stopped at some block (actually is very slow) http://ethereum.stackexchange.com/questions/10283/parity-1-4-4-syncing-stopped-at-some-block-actually-is-very-slow… #ethereum #blockchain #parity,1,1,0,False
487,Ethereum SE@StackEthereum,Testing Smart Contracts - accessing internal vars http://ethereum.stackexchange.com/questions/10379/testing-smart-contracts-accessing-internal-vars… #ethereum #testing,1,1,0,False
488,Ethereum SE@StackEthereum,Solidity: Is there a good way to initialise a struct in an array? http://ethereum.stackexchange.com/questions/10390/solidity-is-there-a-good-way-to-initialise-a-struct-in-an-array… #ethereum #solidity,1,1,0,False
489,Ethereum SE@StackEthereum,"What's the difference between Olympic, Morden and Ropsten? http://ethereum.stackexchange.com/questions/10469/whats-the-difference-between-olympic-morden-and-ropsten… #ethereum #testnets #morden #ropsten #networkid #olympic",1,1,0,False
490,Ethereum SE@StackEthereum,Bad jump destination in escrow Smart Contract http://ethereum.stackexchange.com/questions/10472/bad-jump-destination-in-escrow-smart-contract… #ethereum #solidity #contractdevelopment #testnets #browsersolidity,1,1,0,False
491,Ethereum SE@StackEthereum,A solidity function to accept two mappings and return a single combined map http://ethereum.stackexchange.com/questions/10473/a-solidity-function-to-accept-two-mappings-and-return-a-single-combined-map… #ethereum #solidity #storage #mapping,1,1,0,False
492,Ethereum SE@StackEthereum,Power operations in solidity http://ethereum.stackexchange.com/questions/10475/power-operations-in-solidity… #ethereum #solidity,1,1,0,False
493,Ethereum SE@StackEthereum,Clearing a custom struct http://ethereum.stackexchange.com/questions/10478/clearing-a-custom-struct… #ethereum #solidity #mapping,1,1,0,False
494,stef nieberg@sevens_heaven,"GET 10MHs mining speed for F.R.E.E , and use it for Ethereum, litecoin or bitcoin mining http://bit.ly/10MHsFree #ethereum #bitcoin
38GIF",1,2,0,False
497,stephanus Nieberg@Allinoneprofit1,"GET 10MHs mining speed for F.R.E.E , and use it for Ethereum, litecoin or bitcoin mining http://bit.ly/10MHsFree #ethereum #bitcoin
46GIF",0,0,0,False
498,seven nieberg@seven_nieberg,"GET 10MHs mining speed for F.R.E.E , and use it for Ethereum, litecoin or bitcoin mining http://bit.ly/10MHsFree #ethereum #bitcoin
33GIF",1,1,0,False
499,stef nieberg@sevens_heaven,"GET 10MHs mining speed for F.R.E.E , and use it for Ethereum, litecoin or bitcoin mining http://bit.ly/10MHsFree #ethereum #bitcoin
87GIF",1,2,0,False
501,indxio@indxio,#China Market Close || #Bitcoin: $764.95 | 722.91 EUR||  #Litecoin: 0.0026 BTC  || #Ethereum: 0.0103 BTC   || $BTC $LTC $ETH $RMB,2,3,0,False
502,stephanus Nieberg@Allinoneprofit1,"GET 10MHs mining speed for F.R.E.E , and use it for Ethereum, litecoin or bitcoin mining http://bit.ly/10MHsFree #ethereum #bitcoin
13GIF",0,0,0,False
503,LEARVISION@LearVision,"@s_c_  $till bitter over #ether heck no that was no way better than #ether ask @Nas and @HOT97 #ether #ether ed u JQuote TweetMr. Carter@sc · Nov 2, 201611/4 Cleveland. Let's make history (again) Thank you to the incredible artist dedicating their time this Friday!",0,0,0,False
506,/r/Ethereum@r_Ethereum,Relationship between price of ether and value of Ethereum #Ethereum http://ift.tt/2gP5eMQ,1,1,0,False
507,Brave New Coin@bravenewcoin,#Ethereum Price: USD $8.05 $ETH http://ow.ly/6UKf3048WBe,1,2,0,False
508,Dr Wendy L Schultz@wendyinfutures,Developers Responding to #Ethereum's Unexpected Fork - CoinDesk https://goo.gl/RjyoC8 implications #blockchain,1,1,1,False
509,seven nieberg@seven_nieberg,"GET 10MHs mining speed for F.R.E.E , and use it for Ethereum, litecoin or bitcoin mining http://bit.ly/10MHsFree #ethereum #bitcoin
42GIF",1,1,0,False
510,stef nieberg@sevens_heaven,"GET 10MHs mining speed for F.R.E.E , and use it for Ethereum, litecoin or bitcoin mining http://bit.ly/10MHsFree #ethereum #bitcoin
24GIF",1,1,0,False
511,stephanus Nieberg@Allinoneprofit1,"GET 10MHs mining speed for F.R.E.E , and use it for Ethereum, litecoin or bitcoin mining http://bit.ly/10MHsFree #ethereum #bitcoin
34GIF",0,0,0,False
512,BitcoinBuzz vega9@BitcoinBuzzV9,http://bitcoinbuzz.vega9.com - Hot topics: #bitcoin #blockchain #btc #ethereum #dappsheet #crypto,1,1,1,False
513,stef nieberg@sevens_heaven,"GET 10MHs mining speed for F.R.E.E , and use it for Ethereum, litecoin or bitcoin mining http://bit.ly/10MHsFree #ethereum #bitcoin
12GIF",2,1,0,False
514,Shannon Steele@digifinancegirl,Idle Mining: Earn #cryptocurrency with your TV | #Ethereum #blockchain via @ethnews_ http://klou.tt/15uiyhuab62b9,3,3,0,False
515,seven nieberg@seven_nieberg,"GET 10MHs mining speed for F.R.E.E , and use it for Ethereum, litecoin or bitcoin mining http://bit.ly/10MHsFree #ethereum #bitcoin
78GIF",0,0,0,False
516,stephanus Nieberg@Allinoneprofit1,"GET 10MHs mining speed for F.R.E.E , and use it for Ethereum, litecoin or bitcoin mining http://bit.ly/10MHsFree #ethereum #bitcoin
21GIF",1,1,0,False
518,stephanus Nieberg@Allinoneprofit1,"GET 10MHs mining speed for F.R.E.E , and use it for Ethereum, litecoin or bitcoin mining http://bit.ly/10MHsFree #ethereum #bitcoin
57GIF",1,1,0,False
520,seven nieberg@seven_nieberg,"GET 10MHs mining speed for F.R.E.E , and use it for Ethereum, litecoin or bitcoin mining http://bit.ly/10MHsFree #ethereum #bitcoin
29GIF",0,0,0,False
521,stef nieberg@sevens_heaven,"GET 10MHs mining speed for F.R.E.E , and use it for Ethereum, litecoin or bitcoin mining http://bit.ly/10MHsFree #ethereum #bitcoin
44GIF",1,1,0,False
522,stephanus Nieberg@Allinoneprofit1,"GET 10MHs mining speed for F.R.E.E , and use it for Ethereum, litecoin or bitcoin mining http://bit.ly/10MHsFree #ethereum #bitcoin
1GIF",1,1,0,False
523,blockchainmedia@Ethereumlab,"Join today! Blockgeeks is a #Blockchain innovation hub 
& marketplace http://blockgeeks.com #Bitcoin #Ethereum",0,0,0,False
524,iconews@iconews_lee,Chances to win up to 150K ARK just for Tweeting! Hook me UP! http://bit.ly/2gkXtRM #btc #lisk #ARK $ARK #crypto #eth #bitcoin,0,0,0,False
526,Tech Lib@tech__lib,"Is #Blockchain Technology Going To Disrupt Our Political System:    #ethereum
@blockchainhelpr - http://techlib.online/istechnology-going-to-disrupt-our-political/…",0,0,0,False
528,blockchainmedia@Ethereumlab,What is #Blockchain Technology? Guide For Beginners http://dld.bz/eW5DU #ethereum,0,0,0,False
529,Coinstats@coinstats,"Ethereum Classic - ETC
Price: $0.781846
Change in 1h: +0.35%
Market cap: $67634154.0
Ranking: 6
#Ethereum Classic #ETC",0,0,0,False
530,Coinstats@coinstats,"Ethereum - ETH
Price: $7.86845
Change in 1h: +-0.1%
Market cap: $681298979.0
Ranking: 2
#Ethereum #ETH",0,0,0,False
531,Ξntropy @EntropyBoat,Projects we’re building so far and ideas for what’s next: http://project-entropy.com/pages/projects #Ethereum #DAO #recycling #ElectricBoat,1,2,1,False
532,Defi.Central@DefiCentral,"Ethereum Classic Year One and Monetary Policy : London
https://goo.gl/r7FHyd
@EthereumClassic #ethereum #ETC #EthereumClassic #ethclassic",1,2,0,False
534,Denis Levoshko@levoshkodenis,"http://allcoinsnews.com/2016/12/01/blockchain-solution-for-supply-chain-finance-from-mahindra-and-ibm/… 
any idea what are they upto and what can we have for sbetalist ? #blockchain #ethereum #bitcoin #ibm #mahindra.",1,1,0,False
535,Niaal@NiaalSharma,"http://allcoinsnews.com/2016/12/01/blockchain-solution-for-supply-chain-finance-from-mahindra-and-ibm/… 
any idea what are they upto and what can we have for sbetalist ? #blockchain #ethereum #bitcoin #ibm #mahindra.",2,1,1,False
536,/r/Ethereum@r_Ethereum,What's happened to the price? #EthereumWhat's happened to the price?reddit.com,1,2,0,False
537,Christian Seberino@c_seberino,Looming Grand Challenges for Smart Contracts  http://buff.ly/2fPlXxS #etc #eth #ethereumclassic #ethereum #blockchains,1,2,1,False
538,Blockgeeks@Blockgks,Become a #Blockchain Guest Contributor http://dld.bz/fgnwr #writer #bitcoin #ethereum,0,0,0,False
539,Coinstats@coinstats,"Ethereum Classic - ETC
Price: $0.778548
Change in 1h: +-0.71%
Market cap: $67347779.0
Ranking: 6
#Ethereum Classic #ETC",0,0,0,False
540,Coinstats@coinstats,"Ethereum - ETH
Price: $7.87712
Change in 1h: +-0.01%
Market cap: $682039744.0
Ranking: 2
#Ethereum #ETH",0,0,0,False
541,Ethereum Price@EthereumPrice_,"#Ethereum: Ether Price Index
1 ETH =0.010202Ƀ XBT = $7.834205 USD
Today: -0.09%⬇︎ Last 24h: -2.77%⬇︎
https://ethereum-price.com",1,1,0,False
542,Olivier Chapiteau@o_chapiteau,"04Dec2016 06:00 UTC #Ether #Blockchain status - Block height @ 2,744,459 - 98,231 unconfirmed tr. - Last fork height @ 2,744,448",1,0,0,False
543,Olivier Chapiteau@o_chapiteau,04Dec2016 06:00 UTC #Ethereum live spots - #Ether @ 7.80754 $ - #EtherClassic @ 0.77397 $,1,0,0,False
544,AltcoinLive bot@AltcoinLiveBot,updated $ETH sellwall 25.5btc @ 0.01050322 http://altcoinlive.com/bittrex-eth-btc #altcoinlive (change 0.00014000),0,0,0,False
545,Christian Seberino@c_seberino,What are Colored Coins? http://buff.ly/2gbQeYm #etc #eth #ethereumclassic #ethereum #blockchains,1,1,0,False
546,Faith Emmanuel@residualbitcoin,#ethereum Price Weekly Analysis  ETH/USD Struggle to Continue > Temptations News Resource http://bit.ly/2g6Fop0 …,0,0,0,False
547,Faith Emmanuel@residualbitcoin,#ethereum Price Weekly Analysis  ETH/USD Struggle to Continue - #bitcoin News #Analysis http://newsbitcoin.info/ethereum-price-weekly-analysis-ethusd-struggle-to-continue…  #…,0,0,0,False
548,Veki@Veki551155,#ethereum Price Weekly Analysis  ETH/USD Struggle to Continue > Temptations News Resource http://bit.ly/2g6Fop0,0,0,0,False
549,Veki@Veki551155,#ethereum Price Weekly Analysis  ETH/USD Struggle to Continue - #bitcoin News #Analysis http://newsbitcoin.info/ethereum-price-weekly-analysis-ethusd-struggle-to-continue…,0,0,0,False
550,BitcoinAgile@bitcoinagile,#ethereum Price Weekly Analysis  ETH/USD Struggle to Continue > Temptations News Resource http://bit.ly/2g6Fop0,1,1,0,False
551,BitcoinAgile@bitcoinagile,#ethereum Price Weekly Analysis  ETH/USD Struggle to Continue - #bitcoin News #Analysis http://newsbitcoin.info/ethereum-price-weekly-analysis-ethusd-struggle-to-continue…,1,1,0,False
552,Coinstats@coinstats,"Ethereum Classic - ETC
Price: $0.783221
Change in 1h: +-0.15%
Market cap: $67751124.0
Ranking: 6
#Ethereum Classic #ETC",0,0,0,False
553,Bobe'bot@Bobe_bot,"1 #BTC = 799.0847 #CHF
1 #ETH = 8.3656 #CHF
1 #DOGE = 0.000217987276 #CHF
sources: @cryptonatorcom @hellobity",0,0,0,False
554,Coinstats@coinstats,"Ethereum - ETH
Price: $7.88169
Change in 1h: +-0.12%
Market cap: $682424822.0
Ranking: 2
#Ethereum #ETH",0,0,0,False
555,/r/Ethereum@r_Ethereum,"Trying to create discussion at http://forum.ethereum.org #EthereumTrying to create discussion at forum.ethereum.orgHi, I signed up at forum.ethereum.org but I can't comment or create a thread, I don't see a single button for that! I've confirmed my email. Any...reddit.com",1,1,0,False
556,Ξ Fly Guy Ξ (flyguy.eth)@FlyGuyInTheSky,Replying to @FlyGuyInTheSkyI'd put #ethereum at 65% buy 35% sell. I'm a buyer on dips ... bad news has gone.. oversold. Devs active..not like #bitcoin,1,1,0,False
558,CryptoNewswire @CryptoNewswire,"Ethereum Price Weekly Analysis ETH/USD Struggle to Continue - http://newsbtc.com/2016/12/04/ethereum-price-weekly-analysis-ethusd-struggle-continue/… $ETH #altcoin #fintech #blockchainEthereum Price Weekly Analysis – ETH/USD Struggle to ContinueEthereum price traded towards $7.00 handle against the US Dollar this past week, and it looks like there can be more decline in ETH/USD going forward.newsbtc.com",1,1,0,False
560,Ξ Fly Guy Ξ (flyguy.eth)@FlyGuyInTheSky,"Replying to @FlyGuyInTheSkyI'd say 80% sell 20% buy, at these levels it's way too high. #ethereum needs good news... Protocol update before big rise...",1,1,0,False
561,Veki@Veki551155,#ethereum Price Weekly Analysis  ETH/USD Struggle to Continue - NEWSBTC #EthereumPricechart …,0,0,0,False
562,Ethereum Monkey@EthMonkey,Ethereum Price Weekly Analysis - ETH/USD Struggle to Continue - NEWSBTC #ethereum http://newsbtc.com/2016/12/04/ethereum-price-weekly-analysis-ethusd-struggle-continue/…,1,2,0,False
563,Jacob Gadikian@gadikian,Replying to @ToneVays @tone_llt and 2 othersThese are called bugs and I think that if $ETH takes their problems seriously they can be fixed.,0,0,0,False
566,Ξ Fly Guy Ξ (flyguy.eth)@FlyGuyInTheSky,"Replying to @ToneVays @tone_llt and 2 othersScams they aren't.... #bitcoin isn't a scam either.. it's an ""accepted scam"" #ethereum is fast useful but BETA",0,0,0,False
567,Ξ Fly Guy Ξ (flyguy.eth)@FlyGuyInTheSky,Replying to @ToneVays @tone_llt and 2 others#bitcoin is an elephant on a tightrope frightened by a few little mice underneath called #ethereum #ripple.,0,0,0,False
568,Jaya Wijya@jayawijya82,Chances to win up to 150K ARK just for Tweeting! Hook me UP! http://bit.ly/2gkXtRM #btc #lisk #ARK $ARK #crypto #eth #bitcoin,0,0,0,False
569,Faith Emmanuel@residualbitcoin,#ethereum Price Weekly Analysis  ETH/USD Struggle to Continue - NEWSBTC #EthereumPricechart http://bit.ly/2g6vtQr …,0,0,0,False
570,Tone Vays (#EndLockdowns)@ToneVays,Replying to @FlyGuyInTheSky @marccwr and @Truthcoinyes it is not #bitcoin one of them is not yet a scam while the other was before $ETH was tradable,2,0,0,False
571,Ξ Fly Guy Ξ (flyguy.eth)@FlyGuyInTheSky,Replying to @ToneVays @tone_llt and 2 othersI'm just waiting for the next #bitcoin robbery from an exchange... #ethereum managed damage limitation on #DAO,0,0,0,False
572,BitcoinAgile@bitcoinagile,#ethereum Price Weekly Analysis  ETH/USD Struggle to Continue - NEWSBTC #EthereumPricechart http://bit.ly/2g6vtQr,1,1,0,False
573,Tone Vays (#EndLockdowns)@ToneVays,"Replying to @koeppelmann and @gnosisPMso decentralize to protect funds, like #TheDAO? Or weekly $ETH Fork? How bout just multiSig BTC escrow",3,0,0,False
574,Ξ Fly Guy Ξ (flyguy.eth)@FlyGuyInTheSky,Replying to @ToneVays @tone_llt and 2 othersYou are on my list of #bitcoin blinkered individuals (had another word but I'm polite) #ethereum is not BTC,1,0,0,False
575,Ξ Fly Guy Ξ (flyguy.eth)@FlyGuyInTheSky,Replying to @ToneVays @tone_llt and 2 othersIt's a scam that's why Microsoft and IBM amongst others are investing in #ethereum...40 banks in #ripple..,1,0,0,False
576,Brave New Coin@bravenewcoin,#Ethereum Price: USD $8.03 $ETH http://ow.ly/6UKf3048WBe,1,1,0,False
577,Blockgeeks@Blockgks,How does #blockchain work? The ultimate guide  http://buff.ly/2dvhaDX #bitcoin #ethereum #startup,1,0,0,False
578,Coinstats@coinstats,"Ethereum Classic - ETC
Price: $0.786123
Change in 1h: +0.37%
Market cap: $68001226.0
Ranking: 6
#Ethereum Classic #ETC",0,0,0,False
579,Coinstats@coinstats,"Ethereum - ETH
Price: $7.9025
Change in 1h: +0.02%
Market cap: $684217067.0
Ranking: 2
#Ethereum #ETH",0,0,0,False
