,user,text,likes,retweets,replies,is_thread
0,AltcoinLive bot@AltcoinLiveBot,new $ETH buywall 21.3btc @ 0.02131341 http://altcoinlive.com/bittrex-eth-btc #altcoinlive,0,0,0,False
1,AltcoinLive bot@AltcoinLiveBot,removed $ETH buywall 21.5btc @ 0.02145085 http://altcoinlive.com/bittrex-eth-btc #altcoinlive,0,0,0,False
2,Etherite@EtheritePool,"Payments for Block: 1,602,089 have been sent :) Happy mining all and good luck #ethereum #ethermining",1,0,0,False
3,TheCrowbill@TheCrowbill,Still the best!!! Free Ethereum Faucet http://etherfaucet.net/?r=0xe7398c0ab36309dc6c20f4eb442d7210f7c4633f… #ethereum via @FreeCryptoCo #cryptocurrency,0,0,0,False
4,Julia Vaingurt@julia_vaingurt,The next question is.... will #ethereum see a #haloeffect from the #bitcoin price… http://cur.lv/z1dwm,5,0,0,False
5,Thomas J. Quinlan@thomas_quinlan,The next question is.... will #ethereum see a #haloeffect from the #bitcoin price… https://goo.gl/C1Z9lJ,0,0,0,False
6,Ansel Lindner@AnselLindner,"Right when everyone gets long, we will retrace to $500. #BTFD is solid advice right here. #bitcoin $btc

Oh, and short $eth rally ;)",0,0,0,False
7,bitcoinking.de@CoinkingDe,"Retweeted Ethereum SE (@StackEthereum):

manually Inistilizing an array http://ethereum.stackexchange.com/questions/4399/manually-inistilizing-an-array… #ethereum #arrays... http://fb.me/4n4xNPMwH",2,0,0,False
8,Ethereum SE@StackEthereum,"""potential rewrite attack"" message on Geth http://ethereum.stackexchange.com/questions/4401/potential-rewrite-attack-message-on-geth… #ethereum #goethereum #security""potential rewrite attack"" message on GethWhen I was sending Ether using Mist I got the following message on Geth. I0528 18:34:57.312997 core/blockchain.go:959] imported 1 block(s) (0 queued 0 ignored) including 3 txs in 19.344963ms. #160...ethereum.stackexchange.com",1,0,0,False
9,₿TCKYLE@BTCKYLE,LMFAO! -- $BTC #BITCOIN $DAO $ETH $LSK,4,0,0,False
20,HealthCareCounts@HealthCare_293,$MMXVI is going to be the next hot gaming currency!!! Get it here: https://goo.gl/d6uvKB $BTC $LTC $GAME $LISK $GROW $ETH $XRP $DASH,2,0,0,False
21,Bitsbetrippin@BitsBeTrippin,#background #screensaver #ethereum mining rig enjoying natural air conditioning today @bitcoinagile @btcArtGallery,4,2,0,False
22,"Bitcoin BTC Alt Crypto Wise, Gold Silver sarcastic@CRYPT0N1TE","I coulda had $BTC from mining the last two weeks, but all I got was this shitty $ETH and $DAO to show for my efforts.  #epicfail #DAO #ETH",5,1,3,False
23,FinTech Summary@FinTechSummary,"#Ethereum, explained: why #Bitcoin's stranger cousin is now worth $1 billion http://buff.ly/1TN1YRe #fintech #blockchain",13,20,0,False
24,Λce@AceOfWallStreet,"Trade #Bitcoin, #Litecoin, #Ethereum, + more with up to 100x leverage
$BTC $LTC $ETH
http://bit.ly/BTCMargin",0,0,0,False
25,BTCVLC@BitcoinVLC,"#Bitcoin $538,24 #Ethereum $11,58
#BitcoinPrice #coinbase #Venezuela #BTCVLC
WhatsApp 0426-2408251",0,0,0,False
26,BitcoinAgile@bitcoinagile,Cryptocurrency Highlights Of The Week - Digiconomist #ethereum #bitcoin #Cryptocurrency http://bitcoinagile.com/6CE0E2/cryptocurrency-highlights-of-the-week-digiconomist_stream…,2,0,0,False
29,The Time Machine @MachineBlock33,"Seems the whales are fishing to let some go so it can live big #Bitcoin  #doge #eth o_OQuote TweetTimothy J. Hosek@timhosek · May 28, 2016Bitcoin is soaring on unprecedented burst in Chinese buying..  exciting times! #bitcoin #cryptocurrency #blockchain https://twitter.com/zerohedge/status/736665314461650944…",2,0,0,False
30,BTCVLC@BitcoinVLC,"#Bitcoin $534,41 #Ethereum $11,65
#BitcoinPrice #coinbase #Venezuela #BTCVLC
WhatsApp 0426-2408251",0,0,0,False
31,BTCVLC@BitcoinVLC,"#Bitcoin $530,01 #Ethereum $11,74
#BitcoinPrice #coinbase #Venezuela #BTCVLC
WhatsApp 0426-2408251",1,0,0,False
32,Ethereum SE@StackEthereum,manually Inistilizing an array http://ethereum.stackexchange.com/questions/4399/manually-inistilizing-an-array… #ethereum #arrays #constructor,1,0,0,False
33,Warren Young@DJWarrenYoung,"Retweeted ฿itcoinMario (@altcoinmario):

Trade #bitcoin with up to 100x leverage and #ethereum with 25x up to... http://fb.me/4D8XIT09P",0,0,0,False
34,Magda Borowik@magdaborowik,Replying to @CoinDesklast minute for #ethereum tokens ;),0,0,0,False
35,Pages from Ceefax@ceefaxx,#nowplaying #Ether - If You Really Wanna Know on http://malfunctionradio.com,0,0,0,False
36,Etherite@EtheritePool,"And another block, slightly better luck with this one! Come and join us, we are now pushing over 1GH/s :) #ethereum #ETH",1,0,0,False
37,The Time Machine @MachineBlock33,"#bitcoin finally takes off 
#crypto #eth #doge o_O",0,0,0,False
38,Netcube93@Netcube93,Interesting topic about #Ethereum and #Factom with answer of @paulsnx2 https://reddit.com/r/ethtrader/comments/4lb6n4/ethereum_factom_insight_appreciated/… #blockchain #bitcoin #ethEthereum & Factom - Insight AppreciatedHi everyone. I have been looking into Factom and think it is a solid idea especially for getting institutions involved in the blockchain without...reddit.com,1,0,0,False
39,Ethereum Dude@EthereumDude,"Paper Points Up Flaws in Venture Fund Based on Virtual Money 

http://nyti.ms/1U1NetH
#DOA #etheruem #ether #bitcoin #cryptocurrencyPaper Points Up Flaws in Venture Fund Based on Virtual Money (Published 2016)A group of computer scientists has asked the Decentralized Autonomous Organization, or D.A.O., fund to hold off on investing until its vulnerabilities are addressed.nytimes.com",0,0,0,False
40,AltcoinLive bot@AltcoinLiveBot,new $ETH sellwall 22.8btc @ 0.02282403 http://altcoinlive.com/bittrex-eth-btc #altcoinlive,0,0,0,False
41,AltcoinLive bot@AltcoinLiveBot,removed $ETH sellwall 22.8btc @ 0.02282403 http://altcoinlive.com/bittrex-eth-btc #altcoinlive,0,0,0,False
42,BTCVLC@BitcoinVLC,"#Bitcoin $520,10 #Ethereum $11,59
#BitcoinPrice #coinbase #Venezuela #BTCVLC
WhatsApp 0426-2408251",0,0,0,False
43,Cloud Mining Monitor@cmmonitorcom,#Ethereum #Cloudmining': 28.05.2016 Payment received. 5 MHs - 0.05130500 ETH. From MyCoinCloud.MyCoinCloud (Ethereum Mining)cmmonitor.com,0,0,0,False
44,Patrizio Stavola@halovast,GOLDMAN SACHS: 5 practical​ uses for #blockchain — from Airbnb to stock markets http://read.bi/1TEA4Dt #ethereum #bitcoib,1,1,0,False
54,CRYPTOCOINTALK@cryptocointalk,The #DAO Trading Temporarily Halted At #Poloniex Due To Delayed Deposits https://cryptocointalk.com/topic/47378-themerkle-the-dao-trading-temporarily-halted-at-poloniex-due-to-delayed-deposits/… #exchange #blockchain #Ethereum $ETH,1,0,0,False
55,Spiros Margaris@SpirosMargaris,"Good read

Why Are People Looking up to #Ethereum ?

http://bit.ly/1qSIMpr #fintech #blockchain #DAO",6,5,0,False
56,Bitsbetrippin@BitsBeTrippin,Light breeze ... #beastmode liking the outdoors #ethereum #TheDAO filming should wrap up today!,1,0,0,False
57,flix1 @flix1,RT @ShapeShift_io: The DAO is now live on ShapeShift. No account needed. https://reddit.com/r/ethtrader/comments/4lhks6/dao_dgd_now_tradable_on_shapeshift_w_30_other/… #bitcoin #ethereum @The_DAO_ProjectDAO & DGD now tradable on ShapeShift w/ 30 other coinsThe DAO is now live on www.ShapeShift.io along with DGD (Digix DAO token). Buy or sell these assets with more direct pairs than any other...reddit.com,2,0,0,False
58,ShapeShift @ShapeShift_io,The DAO is now live on ShapeShift. No account needed. https://reddit.com/r/ethtrader/comments/4lhks6/dao_dgd_now_tradable_on_shapeshift_w_30_other/… #bitcoin #ethereum @The_DAO_ProjectDAO & DGD now tradable on ShapeShift w/ 30 other coinsThe DAO is now live on www.ShapeShift.io along with DGD (Digix DAO token). Buy or sell these assets with more direct pairs than any other...reddit.com,51,46,2,False
59,a5ym4e@a5ym4e,#DAO “Command Center” http://bit.ly/1qSHhaP @jaxx_io @btc_manager @diiorioanthony @DECENTRALca @ethereumproject #ethereum #blockchain,1,0,0,False
67,RISE Vision@RiseVisionTeam,#RISE 2FA NOW INSTALLED --> https://rise.vision $rise #lisk #waves #btc #ltc #eth #dao,27,39,1,False
68,Ethereum SE@StackEthereum,manually Inistilizing an array http://ethereum.stackexchange.com/questions/4399/manually-inistilizing-an-array… #ethereum #arrays #constructor,0,0,0,False
69,Ethereum Price@EthereumPrice_,"#Ethereum: Ether Price Index
1 ETH =0.022300Ƀ XBT = $11.635000 USD
Today: -6.49%⬇︎ Last 24h: -4.14%⬇︎
https://ethereum-price.com",0,0,0,False
70,"Artificially Flavored Investments, LLC@hiAFIllc",Best outperformers ranked 80-85 $HII $RAX $HDS $ABCO $ETH,0,0,0,False
71,Vindyne8@Vindyne8,"Wavesplatform Client v0a working fine, polishing & releasing for test this week #btc #fintech #ethereum $waves #RT",13,9,0,False
72,Craig Milroy@CraigMilroy,#DAO's to disrupt #Uber and #Airbnb http://buff.ly/1XXyrWx via @Enterprisei #blockchain #ethereum,0,0,0,False
73,Brave New Coin@bravenewcoin,"Informational Report On The #DAO - Last Day Of The #Software Sale   http://ow.ly/fyXE300GA5w #ethereumInformational Report On The DAO - Last Day Of The Software Sale » Brave New CoinWith the end of The DAO software sale approaching in less than an hour, its worth spending some time to look at the project in a level of detail that goes beyond, what is flying around in the media...bravenewcoin.com",2,0,0,False
74,Ethereum SE@StackEthereum,Can a contract be the owner of another contract and kill it? http://ethereum.stackexchange.com/questions/4397/can-a-contract-be-the-owner-of-another-contract-and-kill-it… #ethereum #solidity #contractdesign,0,0,0,False
84,Matthieu Riou@mriou,Replying to @mriouthe sad state of #ethereum block explorers,1,1,0,False
85,Ethereum SE@StackEthereum,Creating a contract with constructor in ethereumj http://ethereum.stackexchange.com/questions/4395/creating-a-contract-with-constructor-in-ethereumj… #ethereum #contractdeployment #contractinvocation #ethereumj,0,0,0,False
86,Wheel of Doge@WheelofDoge,"MP3 interview archives featuring Jackson Palmer, #Dogecoin creator! #bitcoin #altcoin #ethereum #lisk #crypto
http://mp3keep.com/mp3/foundation-38-jackson-palmer.html…",0,0,0,False
87,Julia Vaingurt@julia_vaingurt,"Check out this shibe's #dogecoin collection! #bitcoin #altcoin #ethereum #litecoin #lisk
http://cur.lv/z18i0
http://cur.lv/z18i1",0,0,0,False
88,Wheel of Doge@WheelofDoge,"Check out this shibe's #dogecoin collection! #bitcoin #altcoin #ethereum #litecoin #lisk
https://reddit.com/r/dogecoin/comments/4j6qkm/much_dogecoin_very_rich/…",1,1,0,False
89,#HelloWorld@NithinSR,Yes #Ethereum “Ethereum is the Forefront of Digital Currency” by @FEhrsamEthereum is the Forefront of Digital CurrencyWe have sat here for the last 3 years seeing only infrastructure apps like wallets and exchanges emerge on top of Bitcoin. Why is that?blog.coinbase.com,1,0,0,False
90,Julia Vaingurt@julia_vaingurt,"Why Are People Looking up to #ethereum? - NEWSBTC #blockchain #bitcoin #IBM #microsoft http://cur.lv/z18f0
http://cur.lv/z18f1",1,0,0,False
91,BitcoinAgile@bitcoinagile,Why Are People Looking up to #ethereum? - NEWSBTC #blockchain #bitcoin #IBM #microsoft http://bitcoinagile.com/6CDDDB/why-are-people-looking-up-to-ethereum-newsbtc_stream…,3,3,0,False
92,The Time Machine @MachineBlock33,I love how #bitcoin is just changing the world  better each day  #cryptocurrency #doge #eth o_O,0,0,0,False
93,AltcoinLive bot@AltcoinLiveBot,updated $ETH sellwall 24.6btc @ 0.02459999 http://altcoinlive.com/bittrex-eth-btc #altcoinlive (change -0.00010000),0,0,0,False
94,Gabriele Farei@jayfarei,VCs apply the wisdom of experts. The DAO is an experiment in the wisdom of the crowd. #DAO #EthereumThe DAO: How the Employeeless Company Has Already Made a Boatload of MoneyIt has already made a lot of money and it hasn’t done anything yet.observer.com,0,0,0,False
101,AltcoinLive bot@AltcoinLiveBot,updated $ETH sellwall 24.7btc @ 0.02469999 http://altcoinlive.com/bittrex-eth-btc #altcoinlive (change -0.00003172),0,0,0,False
102,AltcoinLive bot@AltcoinLiveBot,updated $ETH buywall 24.1btc @ 0.02407703 http://altcoinlive.com/bittrex-eth-btc #altcoinlive (change 0.00006096),0,0,0,False
103,AltcoinLive bot@AltcoinLiveBot,updated $ETH sellwall 24.7btc @ 0.02473171 http://altcoinlive.com/bittrex-eth-btc #altcoinlive (change -0.00000011),0,0,0,False
104,AltcoinLive bot@AltcoinLiveBot,updated $ETH buywall 24.0btc @ 0.02401607 http://altcoinlive.com/bittrex-eth-btc #altcoinlive (change 0.00000142),0,0,0,False
105,AltcoinLive bot@AltcoinLiveBot,updated $ETH buywall 24.0btc @ 0.02401465 http://altcoinlive.com/bittrex-eth-btc #altcoinlive (change 0.00000142),0,0,0,False
106,AltcoinLive bot@AltcoinLiveBot,new $ETH buywall 24.0btc @ 0.02401323 http://altcoinlive.com/bittrex-eth-btc #altcoinlive,0,0,0,False
107,AltcoinLive bot@AltcoinLiveBot,removed $ETH buywall 23.9btc @ 0.02386926 http://altcoinlive.com/bittrex-eth-btc #altcoinlive,0,0,0,False
108,Craig Milroy@CraigMilroy,“A Current List of Use Cases for #Ethereum” by @AroundTheBlock_ http://buff.ly/1XF9heQ #dao #smartcontracts #blockchain #fintech,3,2,0,False
109,AltcoinLive bot@AltcoinLiveBot,updated $ETH buywall 23.9btc @ 0.02386926 http://altcoinlive.com/bittrex-eth-btc #altcoinlive (change 0.00001925),0,0,0,False
110,AltcoinLive bot@AltcoinLiveBot,new $ETH sellwall 24.7btc @ 0.02473182 http://altcoinlive.com/bittrex-eth-btc #altcoinlive,0,0,0,False
111,AltcoinLive bot@AltcoinLiveBot,updated $ETH buywall 23.9btc @ 0.02385001 http://altcoinlive.com/bittrex-eth-btc #altcoinlive (change 0.00161887),0,0,0,False
112,Craig Milroy@CraigMilroy,“#Ethereum is the Forefront of #DigitalCurrency” by @FEhrsam http://buff.ly/1X3RVtM #blockchain #dao #smartcontracts #fintech,3,3,0,False
113,Iliana Oris Valiente@IlianaOV,"Amid the controversy, the @The_DAO_Project is the largest EVER crowdfunding campaign, at $164M. #ethereum #DAO #tech",3,0,0,False
114,amar@amar_mca,"Ethereum’s $150-Mi Blockchain-Powered Fund Opens Just as Researchers Call For a Halt http://spectrum.ieee.org/tech-talk/computing/networks/ethereums-150-million-dollar-dao-opens-for-business-just-as-researchers-call-for-a-moratorium… #ethereum #blockchain #BitcoinEthereum’s $150-Million Blockchain-Powered Fund Opens Just as Researchers Call For a HaltThe Ethereum DAO was to be a triumph, but vulnerabilities could mar the debutspectrum.ieee.org",0,0,0,False
115,Bitcoin Master@drei4u,"If you can change 100 $DAO tokens back to 1.5 $ETH, you'll be getting a value of 0.0162btc of $ETH - a 32% discount",1,1,0,False
116,Bitcoin Master@drei4u,Replying to @drei4uPeople might opt to exchange $DAO back to $ETH rather than sell at dismal sub-ICO price @drei4u @cryptoSqueeze,1,0,0,False
117,Bitcoin Master@drei4u,"Replying to @cryptoSqueezeAccdg to $DAO site 1.5 $ETH per 100 tokens, so it means at 0.0239BTC/eth, ICO price is 35,850 satoshis and it's 33% below ICO @cryptoSqueeze",1,0,0,False
124,Cloud Mining Monitor@cmmonitorcom,#Ethereum #Cloudmining': 28.05.2016 Payment received. 6 MHs - 0.05728968 ETH. From Genesis Mining.Genesis Mining (Ethereum Mining)cmmonitor.com,0,0,0,False
125,Free Bitcoin Expert@FreeBTCExpert,Are you looking for the highest-paying #ETH faucet currently available? Earn #Ethereum every 10 minutes! https://digitalgain.net/faucets/ethereum-faucet?r=BYXM9X6nyB… #FreeETH,1,0,0,False
126,rmnstr@rmnstr,"singularityblog: A Venture Fund With Plenty of Virtual Capital, but No Capitalist http://nyti.ms/1s1HnhD #Bitcoin #Ether #Altcoin",2,1,0,False
127,Nikola Danaylov@singularityblog,"A Venture Fund With Plenty of Virtual Capital, but No Capitalist http://nyti.ms/1s1HnhD #Bitcoin #Ether #Altcoin",4,3,1,False
128,Lefteris Karapetsas@LefterisJP,"And the proposals to the #DAO started with an all time classic. ""Do you believe in god?""
#ethereum",16,9,1,False
129,Jay @ysgjay,Margin funding my $eth so I don't waste it on dumb trades,0,0,0,False
130,BlockchainDan@BlockchainDan,"Pulled all my buys except some low ball buys on $DAO and $LSK. Looking to short $ETH. Alt bloodbath going to get worse, that's buy time!",1,3,0,False
131,BitcoinAgile@bitcoinagile,Moratorium Proposed on DAO as a Security Precaution #ethereum #fintech #TheDAO #Security http://bitcoinagile.com/6CDBA4/moratorium-proposed-on-dao-as-a-security-precaution_stream…,0,0,0,False
132,BTCMANAGER@btc_manager,Moratorium Proposed on #TheDAO as a #Security Precaution https://btcmanager.com/news/business/moratorium-proposed-on-dao-as-a-security-precaution/… #fintech #ethereum,2,1,0,False
133,CoinGecko@coingecko,The latest Ethereum price is USD 11.84. For historical #Ethereum price charts - http://buff.ly/1Y3h6Jz,0,0,0,False
134,AltcoinWeekly@altcoinweekly,The latest Ethereum price is USD 11.84. For historical #Ethereum price charts - http://buff.ly/1Y3h6Jz,0,0,0,False
135,ALΞCO@a_l_e_c_o,Welcome to official blog #Wings #DAO #Platform @wingsplatform https://medium.com/@wings.ai/welcome-to-the-age-of-dao-35a504dca36e#.cjnjwkmd8… #bitcoin #blockchain #ethereum https://twitter.com/wingsplatform/status/736621267319685121…This Tweet is unavailable.,4,2,0,False
136,Dave Proffer@deeptwit,"3 good reads: @el33th4xor @VladZamfir http://spectrum.ieee.org/computing/networks/ethereum-developer-explores-the-dark-side-of-bitcoininspired-technology… #Bitcoin #ethereum http://hackingdistributed.com/2016/05/27/dao-call-for-moratorium/…Quote TweetMorgen Peck@morgenpeck · May 28, 2016Researchers are calling for a moratorium on DAO proposals until fixes are made. My coverage for IEEE Spectrum: http://bit.ly/27Wxm5U",5,4,0,False
137,DansTheMan3000@DansTheMan3000,Listen to death bed flex feat. Daniel $eth ( prod. OthaSyde ) by jadeninspacedeath bed flex feat. Daniel $eth ( prod. OthaSyde )instagram: jadeninspace twitter: jadeninspace email: jadeninspace.info@gmail.comsoundcloud.com,2,1,0,False
138,chrisco@chrisco,Good (and important) blog post by @fehrsam “Ethereum is the Forefront of Digital Currency”: https://medium.com/the-coinbase-blog/ethereum-is-the-forefront-of-digital-currency-5300298f6c75… #bitcoin #ethereum,0,0,0,False
139,BitcoinAgile@bitcoinagile,Jaxx #bitcoin & #ethereum Wallet - KryptoKit - TheMunSession #Jaxx #KryptoKit #Wallet http://themunsessiongt.com/jaxx-bitcoin-ethereum-wallet-kryptokit…,3,0,0,False
140,Christie Harkin@cryptowords,The one iPhone in our household has Jaxx 1.0 on it. Now for the rest of the devices... #bitcoin #ethereum @jaxx_io,1,0,0,False
141,Adam@CryptoDealer,"will be interesting to see what happens between $BTC $ETH $LSK and $DAO over the next few days, its fascinating seem them all link and react",9,2,0,False
142,Ethereum SE@StackEthereum,How to enable vi mode in geth console? (readline's inputrc not honored) http://ethereum.stackexchange.com/questions/4391/how-to-enable-vi-mode-in-geth-console-readlines-inputrc-not-honored… #ethereum #goethereum,0,0,0,False
143,Ethereum Price@EthereumPrice_,"#Ethereum: Ether Price Index
1 ETH =0.023762Ƀ XBT = $11.764010 USD
Today: -0.37%⬇︎ Last 24h: +1.30%⬆︎
https://ethereum-price.com",0,0,0,False
144,BitcoinBuzz vega9@BitcoinBuzzV9,http://bitcoinbuzz.vega9.com - Hot topics: #bitcoin #ethereum #hashflare #genesismining #blockchain #btc,0,0,0,False
145,Highaltitudeinv@HighAltitudeInv,#ethereum and #bitcoin may begin running together. bitcoin halving happens in aprox 30 days.,1,0,0,False
146,BitcoinAgile@bitcoinagile,The Legality of Crypto-Currency Holdings #BTC #DASH #DAO #ETH http://dashpaymagazine.com/index.php/2016/05/28/legality-crypto-currency-holdings…,2,0,0,False
147,cm@Crackmacs,"Sold off my 19 #litecoin lastnight, bought #Ethereum at around $10, it's now at about $12. I have 8.7 Ether coins.",4,1,1,False
148,Tristan Winters@tristan_winters,"Jaxx Set to Launch 1.0: Aims to Become DAO “Command Center” https://btcmanager.com/news/tech/jaxx-1-0-the-dao-and-ethereums-rise-the-latest-from-anthony-di-iorio/…
#ethereum",0,0,0,False
149,Tony Thijs@OpenMarketingTV,"Why you should Care about #ethereum, #blockchain via Amanda Jansen @jansenam http://fb.me/7T4VS1XbZ",2,1,1,False
150,Joshua Clarke@JoshuaScynikal,Don't be #salty at me @MichelleDBeadle @SportsNation said @BarryBonds dog is tiny cause when he stopped juicin his dog did too! #lol #ether,1,0,0,False
151,Cryptowatch@cryptowat_ch,"Now tracking the new $DAO markets on @krakenfx. #DAO #ethereum
http://cryptowat.ch/kraken/daoeur
http://cryptowat.ch/kraken/daoeth
http://cryptowat.ch/kraken/daobtc",4,3,0,False
152,pipermerriam@pipermerriam,If you want to talk #blockchain or #ethereum at #pycon2016 come find me.,0,0,0,False
153,Ethereum SE@StackEthereum,Storing an address in nested mapping does not work http://ethereum.stackexchange.com/questions/4387/storing-an-address-in-nested-mapping-does-not-work… #ethereum #solidity #truffle,0,0,0,False
154,Ethereum SE@StackEthereum,Delete Wallet AND disable Wallet address http://ethereum.stackexchange.com/questions/4389/delete-wallet-and-disable-wallet-address… #ethereum #goethereum #wallets,0,0,0,False
155,Ethereum SE@StackEthereum,"Why do I see some transactions of ""The DAO"" in my mist client? http://ethereum.stackexchange.com/questions/4390/why-do-i-see-some-transactions-of-the-dao-in-my-mist-client… #ethereum #goethereum #transactions #mist #thedao",0,0,0,False
156,Victoria Adams@ToriinDC,#Ethereum’s $150-Million #Blockchain-Powered Fund Opens Just as Researchers Call For a Halt http://feedproxy.google.com/~r/IeeeSpectrumFullText/~3/xaZu4hpj_V8/ethereums-150-million-dollar-dao-opens-for-business-just-as-researchers-call-for-a-moratorium…,4,0,0,False
157,tgerring.eth@TaylorGerring,"Replying to @jimmysongSays the guy who thinks #Bitcoin supports all #Ethereum use cases. All squares are rectangles, but not the other way around",1,0,0,False
158,Digiconomist@DigiEconomist,"Replying to @DigiEconomist and @prestonjbyrnePerhaps somewhat surprising, as #ETH isn't that easy to retrieve from #TheDAO...",0,0,0,False
159,Digiconomist@DigiEconomist,"Replying to @DigiEconomist and @prestonjbyrneYou could conclude that's a minor loss, but overall it's trading at intrinsic value (value of #ETH underlying #TheDAO).",1,0,0,False
160,"Marie Lee, CPA@FocusWiseLLC",All the cool kids are doing Ethereum now http://tcrn.ch/259vK6l via @techcrunch #blockchain #ethereum,0,0,0,False
161,MiddleClassGuy@kopaczpl1,"$KR has the worst timing to be added on @BittrexExchange, but from the other side it's an opportunity to buy cheap.
#Krypton #DAO #ETH",1,3,1,False
162,Digiconomist@DigiEconomist,"Replying to @prestonjbyrneInvestors have received about 97 DAO tokens per #ETH on avg, and they would currently get roughly 98 DAO tokens per #ETH.",1,0,0,False
163,tgerring.eth@TaylorGerring,"Known issuance rate is what’s important, not whether it’s capped or disinflationary #Bitcoin #Ethereum",3,2,2,False
164,Digiconomist@DigiEconomist,"#TheDAO tokens started trading today, and are currently trading at about 12 cents USD (a little below 100 DAO tokens per 1 #ETH).",1,0,0,False
171,Pontus Lindblom@ponli137,Eris co-founder argues for legal compliance and private blockchains #ethereum https://twitter.com/prestonjbyrne/status/736539613704163328…This Tweet is unavailable.,0,0,0,False
172,Jaxx Liberty@jaxx_io,Excited to bring #ethereum to iOS. Jaxx 1.0 blockchain wallet now available on the #AppStore http://decentral.ca/jaxx-brings-ethereum-to-ios-official-1-0-wallet-now-available-in-the-app-store/…,19,9,0,False
173,Anne Socarras@Anne_Socarras,"#m2tc good work, $eth.",1,0,0,False
174,CryptyCoin@CryptyCoin,"DAO Trading Launches Today - What Should We Expect?
http://cointelegraph.com/news/dao-trading-launches-today-what-should-we-expect…
#DAO #ethereumDAO Trading Launches Today - What Should We Expect?How The DAO - or the the first Decentralized Autonomous Organization - performs on the Ethereum blockchain after its launch today will go a long way to affect other aspects of the digital currency...cointelegraph.com",0,0,0,False
175,Ethereum SE@StackEthereum,Storing an address in nested mapping does not work http://ethereum.stackexchange.com/questions/4387/storing-an-address-in-nested-mapping-does-not-work… #ethereum #solidity,1,0,0,False
176,Jeremy Gardner@Disruptepreneur,"$ETH and $BTC are ascending together nicely. 

#Complements",6,4,0,False
177,Bob Summerwill@BobSummerwill,"NY Times - Paper Points Up Flaws in Venture Fund Based on Virtual Money http://nyti.ms/1Wrb20g
#ethereum #thedao",0,0,0,False
178,Ed Featherston #stayathome #wearthedamnmask@efeatherston,#Ethereum’s $150-Million #blockchain Powered Fund Opens Just as Researchers Call For a Halt - @IEEESpectrum http://spectrum.ieee.org/tech-talk/computing/networks/ethereums-150-million-dollar-dao-opens-for-business-just-as-researchers-call-for-a-moratorium…,0,0,0,False
179,DMAFinTech@DMAFinTech,The Seven Sins of the #DAO. http://bitcoinist.net/the-seven-sins-dao/… #cybersecurity #hacking #ethereum #cryptocurrency,0,0,0,False
180,DMAFinTech@DMAFinTech,#Ethereum's $150 million #blockchain powered #fund opens for biz. #DAO http://spectrum.ieee.org/tech-talk/computing/networks/ethereums-150-million-dollar-dao-opens-for-business-just-as-researchers-call-for-a-moratorium…,0,0,0,False
181,Rodrigo Paulo Gomes []@bgcoin,"DAO Trade Voting Launches Today - What Should We Expect?
http://cointelegraph.com/ref1218/news/dao-trading-launches-today-what-should-we-expect…
#TheDAO #ethereum #blockchain >@TheDaoHubDAO Trading Launches Today - What Should We Expect?How The DAO - or the the first Decentralized Autonomous Organization - performs on the Ethereum blockchain after its launch today will go a long way to affect other aspects of the digital currency...cointelegraph.com",0,0,0,False
182,Tech Talks Central@TTCwire,Ethereum’s $150-Million Blockchain-Powered Fund Opens Just as Researchers Call For a Halt http://spectrum.ieee.org/tech-talk/computing/networks/ethereums-150-million-dollar-dao-opens-for-business-just-as-researchers-call-for-a-moratorium… #ethereum #crowdfunding,0,0,0,False
183,Ethereum SE@StackEthereum,Private Ethereum blockchain to implement in-game currency--legit? http://ethereum.stackexchange.com/questions/4385/private-ethereum-blockchain-to-implement-in-game-currency-legit… #ethereum #dappdevelopment #privateblockchain,0,0,0,False
184,Ξ Fly Guy Ξ (flyguy.eth)@FlyGuyInTheSky,Replying to @FlyGuyInTheSkyit's a rollercoaster ride...  #ethereum up 12% today... #TheDAO seems to have got off ok.,0,0,0,False
185, CRN@CRNBTC,Im in for a ride on this $ETH short . I Dont trust what im seeing with the $DAO so ill watch careful and cut my losses if necessary,0,0,0,False
186,FK@FedKassad,Replying to @notsofast @notsofastcrypto and @onemanatatimeI did worse. Sold at 2.6 before the dgax insider news pump. Profit is still profit. $ETH,1,0,0,False
190,Joan Stewart (I  Hive)@joanstewart1,Still having fun on Free #Ethereum every 5 minutes http://ln.is/www.eth-faucet.com/ocuof… #ethereum via @FreeCryptoCo,0,0,0,False
191,Ethereum UAE@Ethereum_UAE,DAO Trading Launches Today - What Should We Expect? http://ift.tt/1Wsoe4Y #Ethereum,0,0,0,False
192,RTMoney@RTMoney_,$DAO is indirect pump for $ETH after implosion/crash association easily forgotten but market cap maintained,1,0,0,False
193,Agri-Food Alumni ETH@afalumni_ethz,"18 professors appointed at ETH Zurich, one of them agricultural scientist Bruno Studer #eth http://ethz.ch/en/news-and-events/eth-news/news/2016/05/18-professors-appointed-at-eth-zurich.html…",0,0,0,False
194,Menno Pietersen@MennoPP,you dont get it #dao is not just some coin. People in for long investment not quick P&D $DAO will rise in time with proposals #eth,0,0,0,False
195,The Ongaku@TheOngaku,".@DigixGlobal, first mover in tokenizing assets on the blockchain - http://goo.gl/vfik0V.  #VR #Ethereum.",8,9,0,False
196,EtherBlockchain.io@etherblockchain,"Love the great work you're doing @ShapeShift_io #Ether #BlockchainQuote TweetShapeShift @ShapeShift_io · May 27, 2016We will have both The DAO and the Digix DGD tokens on ShapeShift asap. The world is seeing the potential of tokens, so exciting. #ethereum",0,0,0,False
197,Crypto Polish Guru@CryptoPLGuru,"next short on $eth -> direction -> 0,020000",0,0,0,False
198,𝚃𝚒𝚏𝚏𝚊𝚗𝚢 𝙷𝚊𝚢𝚍𝚎𝚗@haydentiff,Promoting #Bitcoin and #Ethereum grassroots orgs gave an illusion that a #fintech industry exists in Detroit. Oops,18,6,0,False
199,Ross Gerber@GerberKawasaki,Replying to @SLVSurfer and @impossiblebtcI still don't get this. Please explain. #ethereum #bitcoin,1,0,0,False
200,FK@FedKassad,"@onemanatatime check this out from 11th of May :) $ETH $DAO $BTCQuote TweetFK@FedKassad · May 11, 2016Why is everyone shilling $DAO before the crowd sale is over? Makes no sense unless they are waiting to dump $ETH and not convert to $DAO",1,0,0,False
201,Fran Strajnar@Techemist,"Informational Report On The DAO - Last Day Of The Software Sale http://bravenewcoin.com/news/informational-report-on-the-dao-last-day-of-the-software-sale/… #ethereum #TheDAO #fintech #blockchainInformational Report On The DAO - Last Day Of The Software Sale » Brave New CoinWith the end of The DAO software sale approaching in less than an hour, its worth spending some time to look at the project in a level of detail that goes beyond, what is flying around in the media...bravenewcoin.com",0,0,0,False
202,"Marie Lee, CPA@FocusWiseLLC",Was Ether's Loss Bitcoin's Gain? Traders Wonder After Wild Week http://bit.ly/1TINLXm via @CoinDesk #ethereum #Bitcoin #blockchainWas Ether's Loss Bitcoin's Gain? Traders Wonder After Wild Week - CoinDeskThe price of bitcoin appreciated nearly 4% for the week ending 27th May.coindesk.com,1,0,0,False
203,Hyperion@HyperionExch,Curious about the DAO? We know how you like numbers and equations so check this out: DAO Accounting Guide https://github.com/slockit/DAO/wiki/Understanding-the-DAO-accounting… #ethereum,14,9,1,False
204,Ethereum SE@StackEthereum,Can two state-changing transactions be in a single block? http://ethereum.stackexchange.com/questions/4383/can-two-state-changing-transactions-be-in-a-single-block… #ethereum #transactions #smartcontracts,1,0,0,False
205,Ethereum Price@EthereumPrice_,"#Ethereum: Ether Price Index
1 ETH =0.024805Ƀ XBT = $12.269995 USD
Today: +4.01%⬆︎ Last 24h: +8.96%⬆︎
https://ethereum-price.com",0,0,0,False
206,FK@FedKassad,Replying to @onemanatatimewith so many people shilling $DAO during ico it was kind of obvious the plan was an $ETH p&d all along,1,1,0,False
207,Sillytuna (hiring devs) @sillytuna,Now we're seeing the limits of the Mist wallet being stretched by #thedao contract. Stress testing to the max! #ethereum,1,0,0,False
214,Sillytuna (hiring devs) @sillytuna,.@slockitproject have also delayed the USN proposal until the security stuff is sorted. Major kudos and great news for #thedao and #ethereum,5,4,0,False
215,John Slazas@JSservices,#trading #ethereum $ETH TEMPERATURE CHANGE 11.50 is the STRUCTURE point for positive SENTIMENT. 12.55 confirmation + shift @ConsenSysLLC,0,0,0,False
216,How To Get Bitcoins  #KBF@htgbitcoins,Jaxx brings Ethereum to iOS. Official 1.0 wallet now available in the App Store http://decentral.ca/jaxx-brings-ethereum-to-ios-official-1-0-wallet-now-available-in-the-app-store/… @jaxx_io #Bitcoin #Ethereum #Wallet,0,0,0,False
217,Kapil Gupta@Kapsg,The latest Cryptocurrency Daily! http://paper.li/Kapsg/1386949501?edition_id=d28db550-24e2-11e6-96e8-0cc47a0d1609… #bitcoin #ether,0,0,0,False
218,Michael Vasanth@Michael_Vasanth,RT #Ethereum’s $150-Million Blockchain-Powered Fund Opens Just as Researchers Call For a Halt http://ift.tt/1NUuXSG,0,0,0,False
219,Bitcoin Master@drei4u,The question is: Which will be bigger? $ETH or $DAO Previous #ethereum  chart/orderbook action may point to some clues.,1,0,0,False
220,jen@jen_jenjen11,"@TrevonJB I'd risk #Bitcoin on a startup coin like #Espers before #ethereum look a #ripple any other ICO bankers ""love"" evn stock ipo's scam",0,0,0,False
221,BitcoinAgile@bitcoinagile,6 Things That The #blockchain Needs to Become Mainstream #bitcoin #ethereum https://medium.com/@jrodthoughts/6-things-that-the-blockchain-needs-to-become-mainstream-fe2360097e4f…,5,0,0,False
222,BTCMANAGER@btc_manager,UPDATED: Jaxx 1.0 Now Available in Apple Store https://btcmanager.com/news/tech/jaxx-1-0-the-dao-and-ethereums-rise-the-latest-from-anthony-di-iorio/… #bitcoin #ethereum #fintech #blockchain,4,3,0,False
223,Jesus Rodriguez@jrdothoughts,I just published “6 Things That The Blockchain Needs to Become Mainstream” https://medium.com/@jrodthoughts/6-things-that-the-blockchain-needs-to-become-mainstream-fe2360097e4f#.c7l68vlvh… #blockchain #ethereum #bitcoin6 Things That The Blockchain Needs to Become MainstreamThe blockchain is one of the most fascinating technologies of the last few years. Notoriously for powering the infrastructure behind…jrodthoughts.medium.com,0,0,0,False
224,Digiconomist@DigiEconomist,Replying to @jonmatonisThese are closely related. #ETH inflation rate will likely be reduced at PoS introduction - could enable price rally by then...,0,0,0,False
225,Digiconomist@DigiEconomist,Replying to @mwilcox @prestonjbyrne and 2 others+ an Ether rally as that would mean 11m #ETH on the supply side is completely locked up? ;),2,0,0,False
226,Alunaut   @onemanatatime,"Who would have thought.. best move was to buy $ETH on the first day, and sell it all few days before end, then wait for DAO/BTC to launch.",6,3,0,False
227,Alex.eth@AlexanderFisher,What's up with block sync on geth? I keep getting Synchronization failed when it worked before. Clock is good. Port 30303 is good. #ethereum,0,0,0,False
228,Crypto ― logen@cryptologen,"Was #Ether's Loss #Bitcoin's Gain? Traders Wonder After Wild Week http://bit.ly/1TINLXm via @CoinDesk
#cryptocurrency #ETH #BIP #altcoinsWas Ether's Loss Bitcoin's Gain? Traders Wonder After Wild Week - CoinDeskThe price of bitcoin appreciated nearly 4% for the week ending 27th May.coindesk.com",0,0,0,False
229,RISE Vision@RiseVisionTeam,#RISE Updated Sigs with new logo & dates available here --> https://bitcointalk.org/index.php?topic=1445947.msg14993314#msg14993314… thanks everyone. $rise #waves #lisk #eth #dao #btc #ltc,19,36,0,False
230,Bayou Technologies@BayouTechnology,"Look out #bitcoin, there's a new kid in town

All the cool kids are doing #Ethereum now | TechCrunchAll the cool kids are doing Ethereum nowIn the beginning the Prophet Satoshi brought us Bitcoin. And the cryptogeeks and libertarians looked upon it, and said lo, we smile upon this, for it is good, and decentralized, and solves the...techcrunch.com",0,0,0,False
231,cryptinsight@cryptinsight,#fintech News #26 - aboutfintech.de #ethereum #DAO #mobilepayment #Curve #FinGym #Hamburg #MobilePayment #Paymit http://aboutfintech.de/2016/05/28/fintech-news-26…,0,0,0,False
232,TheUltraAliens@TheUltraAliens,"#ethereum $ETH #bitcoin $BTC #Dash $DASHQuote TweetJon Matonis@jonmatonis · May 28, 2016Hashrate distribution of mining pools for Ethereum https://etherchain.org/statistics/miners…",1,1,0,False
233,Balázs Némethi@nembal,"#blockchain Accelerator moments, trading on 84"" makes things crazier! #bitcoin #ethereum",2,0,0,False
234,Richard Scholtz@RichardScholtz,The bleeding edge of digital currency...#Ethereum is the Forefront of #Digital #Currency” by @FEhrsam https://medium.com/the-coinbase-blog/ethereum-is-the-forefront-of-digital-currency-5300298f6c75#.lae4x2oc1…,1,0,0,False
235,Ethereum SE@StackEthereum,My Wallet wont sync http://ethereum.stackexchange.com/questions/4382/my-wallet-wont-sync… #ethereum #wallets #synchronization,0,0,0,False
236,Rob Ward@krozruch,"Cf. @jhalderm's https://coursera.org/learn/digital-democracy… course: @ethereumproject or no #ethereum, there are also good reasons to keep democracy low tech.",1,0,0,False
237,State of Globe@StateofGlobe,#Kraken to Add DAO Trading as Critics Call for ... - http://stateofglobe.com/2016/05/28/kraken-to-add-dao-trading-as-critics-call-for-moratorium/… - #Ethereum #Exchanges #News #Subfeatured #TheDAO,0,0,0,False
238,Joan Stewart (I  Hive)@joanstewart1,Free #Ethereum every 5 minutes - Grow #FinTech together  http://ln.is/www.eth-faucet.com/TUigZ… #ethereum via @FreeCryptoCo,0,0,0,False
239,Colin Platt@colingplatt,Replying to @jonmatonis and @ofnumbers@googledocs that is like your fifth #Ethereum related comment in 24 hours. You coming around it?,1,1,0,False
240,Alison Brooks Architects@AlisonBrooksArc,"and more...'Beyond the slab, beyond the dome, beyond free form, beyond bending' #ETH @venicebiennale",1,0,0,False
241,nordinebelhadjchaidi@leking1974,Free Ethereum every 5 minutes http://etherfaucet.net/?r=0x7A588dc32F35F6bB72D769AF9D5A84C4aFCd130c… #ethereum via @FreeCryptoCo,0,0,0,False
242,24@Alttrade,Replying to @jonmatonis and @ofnumbersMillions of $ into this coin and look at that shitty powerpoint made by a 9yo. :/  $ETH,1,1,0,False
243,fav@btsfav,Mine #Ethereum from home - even with a weak PC ► http://favd.xyz/1XE3iae,1,3,0,False
244,CryptoCryptics@CryptoCryptics,"This was planned since even before #Ethereum was coded, since @VitalikButerin announced his idea:

https://twitter.com/jonmatonis/status/736540360013455360… $ETH $ETHUSD #PoSQuote TweetJon Matonis@jonmatonis · May 28, 2016Ethereum dev team plans to transition network from PoW to proof-of-stake (Casper) later this year https://docs.google.com/presentation/d/1JKKef7NVjgtRZFsTcAteS4VtHG0aYu7TApZhWUENbWQ/edit#slide=id.p… via @ofnumbers",2,0,0,False
245,Ethereum SE@StackEthereum,DAO balance in Myetherwallet differs from balance in etherscan http://ethereum.stackexchange.com/questions/4378/dao-balance-in-myetherwallet-differs-from-balance-in-etherscan… #ethereum #dao #myetherwallet,0,0,0,False
246,Ethereum SE@StackEthereum,How does the DAO invest in a project? http://ethereum.stackexchange.com/questions/4381/how-does-the-dao-invest-in-a-project… #ethereum #thedao,0,0,0,False
247,EtherFire@TheEtherFire,#DAO & #eth prices on #poloniex,1,0,0,False
248,Digiconomist@DigiEconomist,"Looks like dwarfpool is getting smaller. Was around 50% some time ago. Good development. #EthereumQuote TweetJon Matonis@jonmatonis · May 28, 2016Hashrate distribution of mining pools for Ethereum https://etherchain.org/statistics/miners…",0,0,0,False
249,BZ (ex. ChangeBot)@bitzlato,"We overcame 1,000 users!
#Bitcoin #ethereum #litecoin #dogecoin #cryptocurrency #telegram",2,1,0,False
250,Vindyne8@Vindyne8,Check out $INFX #influxcoin http://bitcointalk.org/index.php?topi… 5 days left till #AutoSwap is unleashed #eth #nxt #btc #RT,10,11,0,False
251,Adam Byrne@adamabyss,"Replying to @prestonjbyrneAbsolutely, it's an utter catastrophe waiting to happen #ethereum #bitcoin #thedao",2,0,0,False
252,Niall Maye@theirishdivil,"#Bitcoin, #Ethereum & #Blockchain revolution coming to #Ireland, let's make this country a global hub @ReubenGodfrey @pauljennis @LoryKehoe",3,1,0,False
253,Julia Vaingurt@julia_vaingurt,"The Tao of “The DAO” or: How the autonomous corporation is already here
http://cur.lv/z0w3m
#Bitcoin #cryptocurrency #Ethereum #DAO",1,1,0,False
254,Jaxx Liberty@jaxx_io,Jaxx iOS is now live! App Store link: https://itunes.apple.com/WebObjects/MZStore.woa/wa/viewSoftware?id=1084514516&mt=8… Details: http://decentral.ca/jaxx-brings-ethereum-to-ios-official-1-0-wallet-now-available-in-the-app-store/… #Ethereum #Bitcoin,36,22,7,False
255,Omar Bouguerra@0marB9,Cool drawing for my bday from Jean. He is a fan haha. #ethereum,0,0,0,False
256,Operator Burstup@Burstup,"Decentralize everything, part 2. #TheDAO http://fm4.orf.at/stories/1770483 @radiofm4 #ethereum #bitcoin",3,3,1,False
257,Alex.eth@AlexanderFisher,Is Detroit Media Refusing To Cover Blockchain Tech? — Medium http://buff.ly/1TJnYOw #ethereum #blockchain #fintech,4,4,1,False
258,Sillytuna (hiring devs) @sillytuna,"#thedao short term trader incentives highly misaligned with internal incentives, including security #ethereum @el33th4xor @VladZamfir",10,5,1,False
259,Ryan Radloff@RyanRadloff,"regarding #DAO ""democracy is about rights, not about knowledge; efficiency is about knowledge, not about rights"" #ethereum",0,0,0,False
260,Electronic Money Association@EMoneyAssoc,"@Coinbase Exchange to Rebrand Following #Ethereum Trading LaunchCoinbase Exchange to Rebrand Following Ethereum Trading Launch - CoinDeskBitcoin exchange and wallet service Coinbase is adding support for ether, the native cryptocurrency of the Ethereum network.coindesk.com",0,0,0,False
261,indxio@indxio,#Russia Market Close || #Bitcoin: $490.09 | 432.96 EUR||  #Litecoin: 0.009 BTC  || #Ethereum: 0.0283 BTC   || $BTC $LTC $ETH $RUB,0,0,0,False
262,fav@btsfav,#Trezor to add #Ethereum and...  http://favd.xyz/1NTS8wd,2,0,0,False
263,BTCVLC@BitcoinVLC,"#Bitcoin $490,56 #Ethereum $11,51
#BitcoinPrice #coinbase #Venezuela #BTCVLC
WhatsApp 0426-2408251",0,0,0,False
264,BTCVLC@BitcoinVLC,"#Bitcoin $493,06 #Ethereum $11,27
#BitcoinPrice #coinbase #Venezuela #BTCVLC
WhatsApp 0426-2408251",0,0,0,False
265,CyberDexter@thecyberdexter,"$132 Million in VC later -  ""A Call for a Temporary Moratorium on #TheDAO."" http://bitcoinist.net/the-seven-sins-dao/… #blockchain #ethereum",0,0,0,False
266,Mark Diekmann@markdiekmann,#WorthReading: All the cool kids are doing #Ethereum now http://tcrn.ch/259vK6l via @techcrunch #Fintech,1,0,0,False
267,Joan Stewart (I  Hive)@joanstewart1,Free Ethereum every 5 minutes Plus 80% referrals -  http://ln.is/www.eth-faucet.com/mPGmC… #ethereum via @FreeCryptoCo,1,0,0,False
268,BlockTrΞnd@BlockTrend,"#slockit retracts its #DAO security proposal presents a new thinner version http://themerkle.com/slock-it-retracts-its-dao-security-proposal-presents-a-new-thinner-version/… #blockchain #ethereumSlock.it Retracts Its DAO.Security Proposal, Presents A New Thinner VersionSlock.it has acknowledged the negative feedback that its first proposal received, the German startup has decided to present a new, thinner version. Slock.it will update the DAO general framework for fthemerkle.com",4,0,0,False
270,Ethereum Price@EthereumPrice_,"#Ethereum: Ether Price Index
1 ETH =0.022637Ƀ XBT = $11.125000 USD
Today: -5.08%⬇︎ Last 24h: -0.98%⬇︎
https://ethereum-price.com",0,0,0,False
271,Gabriele Farei@jayfarei,#Ethereum -“It feels like the rate of change in digital currency is accelerating” -@FEhrsam https://medium.com/the-coinbase-blog/ethereum-is-the-forefront-of-digital-currency-5300298f6c75#---0-89.4ibu4iclz…,0,0,0,False
272,Remo Software@remosoftware,Now All Cool #Kids are Moving towards #Ethereum http://tcrn.ch/259vK6l via @rezendi @techcrunch,2,0,0,False
273,Oliver Thylmann@othylmann,Very nice trading of #ether on @gdax by the @coinbase guys. Well done exchange in general. This is starting to get there.,0,0,0,False
274,BitcoinAgile@bitcoinagile,Technology Lead - #bitcoin-vacancycom #ethereum #technology #Lead #Go #nodejs #scrum #agile http://bitcoin-vacancy.com/job/technology-lead…,5,11,0,False
275,Bedeho@bedehomender,"Intriguing 'pro-copyright' style argument by @Truthcoin for why #ethereum cannot have useful contracts:Drivechain - Sidechain Privatization (2/5) - ""When Contracts Attack""...Bitcoin already contains a powerful scripting language. Items such as nLockTime, multisig, and CheckSequenceVerify allow for Bitcoin transactions to be compl...youtube.com",1,0,0,False
276,5 Boring Games@5boringgamesLP,#TheDAO is live on #poloniex trading site https://poloniex.com/exchange#btc_dao… #dao #ethereum,0,0,0,False
277,jcaldwell@jcaldwell,It begins.  #DAO #ethereum #daohub,2,2,0,False
278,Joan Stewart (I  Hive)@joanstewart1,RT .@steve_somers Free Ethereum every 5 minutes http://ln.is/www.eth-faucet.com/wnTtG… #ethereum via @FreeCryptoCo,0,0,0,False
279,MyEtherWallet | MEW@myetherwallet,"If you <3 us & new features, feel free to send some ETH our way so we keep it up. ;) #eth #dao #dgdMyEtherWallet.com: Your Key to EthereumFree, open-source, client-side Ethereum wallet. Enabling you to interact with the blockchain easily & securely.myetherwallet.com",2,1,2,False
280,MellowMoney@MellowMoneyTeam,"FREE #Ethereum for everybody! https://mellowmoney.wordpress.com/ethereum-faucets/…
#ETHEthereum Faucets ListHere we have a list of the most trusted and best paying Ethereum faucet sites! For your best experience, we only provide faucets with easy captchas and no faucets with annoying Anti-Bot-Clicking! C…mellowmoney.wordpress.com",3,0,0,False
281,BTCVLC@BitcoinVLC,"1 ETH =0.0223 Ƀ XBT
#Ethreum #ETH #EthereumPrice",0,0,0,False
282,Steve Somers@steve_somers,How to see your #DAO tokens in #MIST #Ethereum Wallet http://buff.ly/1VmTlhh,1,0,0,False
283,Joan Stewart (I  Hive)@joanstewart1,"Test, Test and see Free #Ethereum every 5 minutes http://ln.is/www.eth-faucet.com/dcivm… #ethereum via @FreeCryptoCo",0,0,0,False
284,Andy@cryptowanderer,"#ethereum, #TheDAO, akasha and an always-already brave new world. These are the times we live in, friends @simondlr",4,1,0,False
285,BitcoinAgile@bitcoinagile,#ethereum is the Forefront of Digital Currency https://getpocket.com/@cp1gbd72p1536A77fnT85cUT01Aap136691i8at654gpkty7c8a30x71oK1je8a2/share/697565…,0,0,0,False
286,Scott @ScottaBeTrue,$DAO and $BTC and $ETH and @Poloniex exchange ... These are a few of my favorite things...,4,2,0,False
287,K0JiR3N@K0JiR3N,"https://hashflare.io/r/CADF66FE

Still loving @hashflare #btc #Bitcoin #ethereum @ethereumproject @eth_jackpot",0,0,0,False
288,UIisses Nogueira@Uli6_,$BRL-> $USD-> $BTC-> $ETH-> $GAS-> $DAO -> Head Explodes,0,0,0,False
289,FK@FedKassad,You can turn $DAO to $ETH (100:1) but you can't turn $ETH do $DAO (1:100),1,1,0,False
290,Ethereum UAE@Ethereum_UAE,The Seven Sins of the DAO http://ift.tt/1WRzUhu #Ethereum,0,0,0,False
291,Darth Maul@malimujo,#DAO #THEDAO #ETH Sent DAO between my accounts and transfer was instant. :-) Where can I check for trading on POLO? Do not see pair  DAO-ETH,0,0,0,False
292,Alunaut   @onemanatatime,Replying to @Cryptopathic.@Cryptopathic yeah 1 $ETH to 100 $DAO should act as a kind of support for now. this triple BTC-ETH-DAO relationship kinda confusing smtimes,3,2,0,False
293,Business Services@BusinessServi,The latest Crypto Commodities Daily! http://paper.li/f-1408321008?edition_id=4c7b80c0-24bd-11e6-b3bb-0cc47a0d1605… #ether #bitcoin,0,0,0,False
294,Patrick Mijnals@ZukunftsDesignr,"Today I backed my first #ethereum #crowdfunding @The_DAO_Project by @VitalikButerin @ethereumprojectQuote TweetThe DAO@The_DAO_Project · May 28, 2016Congratulations to all who helped this manifest and the ones joining the community #theDAO",1,0,0,False
295,Rodrigo Paulo Gomes []@bgcoin,".@B9Lab Offers Ethereum Training Courses, to Use Blockchain for Certification
http://newsbtc.com/2016/05/27/b9lab-offers-ethereum-training-courses-use-blockchain-certification/…
#blockchain #ethereum #CertificationB9Lab Offers Ereum Training Courses, Use Blockchain CertificationB9Lab introduces training course in Etheruem to create the much needed breed of blockchain engineers. Read more...newsbtc.com",1,0,0,False
296,Jakob Jenkov@jjenkov,"Ethereum - the next step after BitCoin

https://youtube.com/watch?v=gjwr-7PgpN8…
#bitcon #ethereum #cryptocurrenciesDEVCON1: Understanding the Ethereum Blockchain Protocol - Vitalik...DEVCON1 09:20am Day 3Ethereum's Vitalik Buterin (https://twitter.com/VitalikButerin) presents on the intricacies of the Ethereum Blockchain Protocol.youtube.com",5,3,0,False
297,Ethereum Italia@ethereumita,The dao is live. #ethereum #blockchain #dao,2,3,0,False
298,fav@btsfav,Enter for a Chance to win 1 Ether ► http://favd.xyz/1NTS53K #Ethereum #Raffle,3,0,0,False
299,notsofast@notsofast,"Replying to @loomdart and @BittrexExchangeyou mean, pumping $ETH to 3.3 mil to by DAO",1,0,0,False
300,Andra Chira@andrachira,"Enter Bloq. Like an #Ethereum plug-in for #Bitcoin to run #smartcontractsJeff Garzik's Bloq runs smart contracts like an 'Ethereum plug-in for Bitcoin'BloqEnterrpise promises Turing-complete smart contracts plugged into Bitcoin, written in JavaScript and Pythonibtimes.co.uk",1,0,0,False
301,ALΞCO@a_l_e_c_o,"@myetherwallet updated #Chrome Extension! #DAO #DGD #ETH #Ethereum #TheDAO @DAOhubORG https://chrome.google.com/webstore/detail/myetherwallet-cx/nlbmnnijcnlegkjjpcfjclmcfggfefdm… …Quote TweetMyEtherWallet | MEW@myetherwallet · May 28, 2016The updated Chrome Extension is now live too! Finally updated to MewTwo!! #DAO #DGD #ETH https://chrome.google.com/webstore/detail/myetherwallet-cx/nlbmnnijcnlegkjjpcfjclmcfggfefdm…",7,2,0,False
302,Sillytuna (hiring devs) @sillytuna,The exchange rate problem is common to all #thedao contractors. Perhaps first task should be some oracles! #ethereum,1,0,0,False
303,Sillytuna (hiring devs) @sillytuna,Slept on #thedao security proposal. Shouldn't it be made in usd? Or are @slockitproject hedging somehow? #ethereum,0,0,0,False
304,Jean-Pierre Buntinx@jdebunt,"Coincheck Lets Users Buy The DAO Tokens With JPY – The Merkle http://themerkle.com/coincheck-lets-users-buy-the-dao-tokens-with-jpy/… @coincheckjp #TheDAO #ethereum #tradingCoincheck Lets Users Buy The DAO Tokens With JPYMore and more exchange platforms have announced they will add support for trading tokens related to The DAO. Coincheck will be the first Japanese exchange to do so, and users will be able to transferthemerkle.com",1,0,0,False
305,Yannig Roth@Yannigroth,"""So far no one has created an application for #Ethereum — or #Bitcoin — that has appealed to mainstream consumers"" http://vox.com/2016/5/24/11718436/ethereum-the-dao-bitcoin…",1,0,0,False
306,MyEtherWallet | MEW@myetherwallet,The updated Chrome Extension is now live too! Finally updated to MewTwo!! #DAO #DGD #ETH https://chrome.google.com/webstore/detail/myetherwallet-cx/nlbmnnijcnlegkjjpcfjclmcfggfefdm…,24,25,2,False
307,H E R M I C I T Y@HERMICITY_DAO,until everything is dumped into $ETH.,0,0,0,False
308,H E R M I C I T Y@HERMICITY_DAO,"""Just in case you were living in HERMICITY the past 48 hours..."" cool to see #ethereum community talking like this!What is happening today and tomorrow will be on textbooks, act...Just in case you were living in HERMICITY the past 48 hours, let me tell you that we are about to test the strength of the first wealthy DAO under...reddit.com",1,1,0,False
309,Joan Stewart (I  Hive)@joanstewart1,"Who said ""Something for Nothing and Tricks for Free""  #Ethereum every 5 minutes http://ln.is/www.eth-faucet.com/7PgRD… #ethereum via @FreeCryptoCo",0,0,0,False
310,Matt McDonnell@mattmcd,A Call for a Temporary Moratorium on “The #DAO” http://bit.ly/1P5Tp3G #blockchain #ethereum,1,2,0,False
311,How To Get Bitcoins  #KBF@htgbitcoins,"A Call for a Temporary Moratorium on 
“The DAO” https://docs.google.com/document/d/10kTyCmGPhvZy94F7VWyS-dQ4lsBacR2dUgGTtV98C40/edit#heading=h.exdzp88avpn4… #Ethereum #TheDAO",1,0,0,False
312,Matt McDonnell@mattmcd,#Blockchain Company Wants to Reinvent Companies - #Bloomberg View http://bloom.bg/1UbsnE9 #DAO #ethereum #bitcoin,0,0,0,False
313,ACIndex@10e7_Fund,"Replying to @10e7_Fund#Bitcoin price target updated to $672 (short term), $1132 (medium term); #BTCBears, it's time to hibernate $BTC $ETH",0,0,0,False
314,"Raphael Roettgen, CFA@RaphaelE2MC","Right on. #ethereum  community has a natural interest in this use case being successful #TheDAOQuote Tweetvitalik.eth@VitalikButerin · May 27, 2016To follow up on my previous tweet, *I* still am a curator of the DAO and am looking forward to the next step in this great experiment.",1,0,0,False
315,Joan Stewart (I  Hive)@joanstewart1,Rocking with Free #Ethereum every 5 minutes http://ln.is/www.eth-faucet.com/VxKYz… #ethereum via @FreeCryptoCo,0,0,0,False
316,Ethereum Price@EthereumPrice_,"#Ethereum: Ether Price Index
1 ETH =0.021905Ƀ XBT = $11.021785 USD
Today: -8.15%⬇︎ Last 24h: -12.46%⬇︎
https://ethereum-price.com",0,0,0,False
317,Wietse Van Ransbeeck@WietseVR,“#Ethereum is the Forefront of Digital Currency” by @FEhrsam https://medium.com/the-coinbase-blog/ethereum-is-the-forefront-of-digital-currency-5300298f6c75#.xye1f662i…,0,0,0,False
318,CoinGecko@coingecko,The latest Ethereum price is USD 11.12. For historical #Ethereum price charts - http://buff.ly/1Y3h6Jz,0,0,0,False
319,AltcoinWeekly@altcoinweekly,The latest Ethereum price is USD 11.12. For historical #Ethereum price charts - http://buff.ly/1Y3h6Jz,1,0,0,False
320,Drake moves Fan@Steak_Shirt,Interested in mining cryptocurrency? Use promo-code: r8UBTu for 3% discount at http://ift.tt/1mvVNC1 #ethereum #bitcoin #invest #eth #btc,0,0,0,False
321,Crypto Jeebus@crypto_jesus,"looks like we're reaching a consensus on the temporary moratorium issue https://reddit.com/r/ethereum/comments/4lcito/a_call_for_a_temporary_moratorium_on_the_dao/… #TheDAO #ethereumA call for a Temporary Moratorium on the DAOHi Everyone! I'm making a call for a temporary moratorium on the DAO. If it goes into effect, the moratorium would last until certain security...reddit.com",0,0,0,False
322,BitcoinAgile@bitcoinagile,"poelzi comments on ""Coinbase Co-founder: #ethereum Is the Forefront of Digital Currency"" http://articles.explodingads.com/?p=4202",0,0,0,False
323,Kopjes Kattenoppas@Kattenkopjes,#Ethereum's level of #app #development is already faster than #Bitcoin’s | #momentum | http://bit.ly/1Ubq2sT,0,0,0,False
326,greenami & da silva@greenami1,#Ethereum's level of #app #development is already faster than #Bitcoin’s | #momentum | http://bit.ly/1Ubq2sT,0,0,0,False
327,Marc Meierhenrich@Mond432,Free Ethereum every 5 minutes http://etherfaucet.net/?r=0xEEe9bae8ED17Dbc72f2387Aba02E070895386a12… #ethereum via @FreeCryptoCo,0,0,0,False
328,Bitcoin Master@drei4u,46 mins left to convert $ETH to $DAO using Poloniex https://poloniex.com/dao/,0,0,0,False
329,Julia Vaingurt@julia_vaingurt,"Good article on the ""rivalry"" between #Bitcoin and #Ethereum
http://cur.lv/z0oku",2,4,0,False
330,On The Blockchain @OnTheBlockChain,"Good article on the ""rivalry"" between #Bitcoin and #EthereumBitcoin rivals » Brave New CoinWhile Bitcoin might not compete against Gold or USD, it can still catch the attention of some [gold bugs](http://www.wsj.com/articles/bitcoin-catches-on-with-gold-bugs-1463959897), [internet seller...bravenewcoin.com",1,1,0,False
331,TheUltraAliens@TheUltraAliens,"If you believe you have found Dao and conquered Dao you are mistaken.  Dao has found and conquered you.

#ethereum $ETH $DAO #bitcoin $BTC",3,0,0,False
332,Lawrence  Ham@lawham,Anyone actually try #ethereum with #EHRs or other #HIPAA sensitive data?,1,0,0,False
333,Daniel Vassilev@thedanvass,"$LSK launches, $ETH crashes, $BTC spikes and the $DAO comes to life. What a crazy couple of days. #blockchain #bitcoin #dao #ethereum #lisk",8,1,0,False
334,Brave New Coin@bravenewcoin,"Which got me thinking - can #Ethereum or any other cryptocurrency be seen as a #Bitcoin rival?Bitcoin rivals » Brave New CoinWhile Bitcoin might not compete against Gold or USD, it can still catch the attention of some [gold bugs](http://www.wsj.com/articles/bitcoin-catches-on-with-gold-bugs-1463959897), [internet seller...bravenewcoin.com",3,0,0,False
335,𝔊usta𝔉@gerikson,A Call for a Temporary Moratorium on The DAO #ethereum #crypto http://hackingdistributed.com/2016/05/27/dao-call-for-moratorium/…,0,0,0,False
336,Etherite@EtheritePool,"Payouts for last block sent, happy mining and hope for good luck all! #ethereum",0,0,0,False
337,Alfred Jordan@SovereignFive,"#smart contracts are poised to drive our future #blockchain #BitcoinPrice #ethereum redefining industries, commerce and nations.",1,0,0,False
338,RobertChalmers@R_A_Chalmers,"@99BitcoinsHQ Whats the current status of #Bitcoin and #Ethereum - Leaders? Losers? Going no where? 
And... How about more update Tweets?",0,0,0,False
339,RHoK_WesternSydney@RHoKParramatta,Replying to @JulieOwensMP@RHoKAustralia @parracity plans are underway - still lots to brainstorm! #blockchain #ethereum #innovation #solar,1,0,0,False
340,Alfred Jordan@SovereignFive,It is amazing to be able to see the entire world fabric change from power centers to distributed abundance. #blockchain #Bitcoin #ethereum,1,1,0,False
341,Ethereum SE@StackEthereum,Unable to execute transactions due to out of gas on Ethereum Mist Wallet? http://ethereum.stackexchange.com/questions/4372/unable-to-execute-transactions-due-to-out-of-gas-on-ethereum-mist-wallet… #ethereum #mist #testnets #outofgas,0,0,0,False
342,Chief Trader@CryptoChief1111,#TheDAO ico ends in 95 mins! #Ethereum #Bitcoin #cryptocurrency #blockchain,2,0,0,False
343,Vella (Real account from April 2016)@cryptotrader85,"If $LTC hits $5 I may just off load 20% of my holdings and keep 80% in case it gets to $10 Will we see $10 LTC? 

#BTC #LTC #ETH",1,0,0,False
344,CryptoCoinFlipper@CoinFlipperDude,$635 by the end of next week? I still think so. #Bitcoin #Prediction #btc $btc $eth $dao,3,3,1,False
345,Vella (Real account from April 2016)@cryptotrader85,"Bitcoin just passed $500 :D

#BTC #LTC #ETH",1,0,0,False
346,ALTIS@AltisInvest,"Interview #DAO #Ethereum #Blockchain @slockitproject #Fintech #BitcoinInterview: Griff Green from Slock.it with Jose Rodriguez BitsoJose Rodriguez from Bitso interviews Griff Green from Slock.it to talk about their company, Blockchain, Ethereum, Bitcoin and the DAOJose Rodriguez de Bitso ...youtube.com",3,1,0,False
347,indxio@indxio,#China Market Close || #Bitcoin: $498.77 | 439.77 EUR||  #Litecoin: 0.009 BTC  || #Ethereum: 0.0273 BTC   || $BTC $LTC $ETH $RMB,1,0,0,False
348,BitcoinAgile@bitcoinagile,Digix first mover in tokenizing assets on the #blockchain #VR #Ethereum http://bitcoinagile.com/6CC943/digix-first-mover-in-tokenizing-assets-on-the-blockchain_stream…,1,8,0,False
351,The DAO@The_DAO_Project,"Forget FUD, HYPE, Curators, Proposals, millions of ETH/$ etc...NOW its time to celebrate #theDAO #ethereumGIF",25,20,1,False
352,RHoK_WesternSydney@RHoKParramatta,@CollaboratoryAU discussing #ethereum & #blockchain #tech at LaunchPad @westernsydneyu @RHoKAustralia p2p #architectures @RHoKAustralia,3,1,0,False
353,❝ Llewyn Scott ❞@Isildur1990,"http://wsj.com/articles/BL-CIOB-9557…
Good read #WSJ #WallStreet #FinTech #Banking #BlockChain #BTC #TheDAO #Ripple #Ethereum #InnovationIsGREAT #MoneyIs FinTech Forcing Banking to a Tipping Point?\wsj.com",2,0,0,False
354,Nikolay Kolev@nikolay,Chinese speculators making quick bucks out of ancient #Bitcoin again. Real cryptocurrency #ether dropping instead. What's new?! #OldTricks,1,2,0,False
355,RHoK_WesternSydney@RHoKParramatta,@akuswara thanks for being part of our #hackathon today! @hackaus @RHoKAustralia #blockchain #ethereum #innovation,3,0,0,False
356,Francisco Parrilla A@fcoparrilla,Very interesting: The #blockchain and how it will change your life. #bitcoin #ethereum #smartContractThe Blockchain and how it will change your lifeOPINION: Mark Pascall on the evolution of Bitcoin.nbr.co.nz,3,2,0,False
357,DMAFinTech@DMAFinTech,#Ethereum #mining made possible on weak PCs. http://cointelegraph.com/news/ethereum-mining-made-possible-on-weak-pcs… #DigitalCurrency,1,0,0,False
358,Fintech news@currencies111,"B9Lab To Offer Ethereum Blockchain Training Courses
http://bit.ly/1Z5Xmph
#ethereum #altcoin #blockchainB9Lab To Offer Ethereum Blockchain Training CoursesEthereum is a platform designed to run applications that are secured by the power of cryptography, realizing the importance of this and to train qualified manpower to develop Dapps, B9Lab is going tothemerkle.com",3,2,0,False
359,RHoK_WesternSydney@RHoKParramatta,@hugooconnor from @bittradelabs - part of the BitWatt team @RHoKAustralia #hackathons #ethereum,4,0,0,False
360,RHoK_WesternSydney@RHoKParramatta,"Discussing #ethereum with @hugooconnor from @bittradelabs, Liam Magee + #hackathon attendees @RHoKAustralia @hackaus",8,1,0,False
361,CryptKeeper@CryptKeeperBTT,"Was Ether's Loss Bitcoin's Gain? Traders Wonder After Wild Week
#bitcoin #ethereum $BTC $ETH
http://coindesk.com/was-ethers-loss-bitcoins-gain/…",2,1,0,False
362,Ξ Fly Guy Ξ (flyguy.eth)@FlyGuyInTheSky,#ethereum has dropped 25% in the last week.. Bitcoin up 12%. The halving will come and go. #ether will play catch up,1,0,0,False
363,John@johndotpub,All the cool kids are doing #Ethereum now http://tcrn.ch/259vK6l via @techcrunch @pt #bitcoin #SOMA #turing,0,0,0,False
364,Ethereum Price@EthereumPrice_,"#Ethereum: Ether Price Index
1 ETH =0.021650Ƀ XBT = $10.697695 USD
Today: -9.22%⬇︎ Last 24h: -10.82%⬇︎
https://ethereum-price.com",0,0,0,False
365,CowOperate@CowOperate,@coinbase @gdax @brian_armstrong @rogerkver @gavinandresen #ETH #BTC #bulltrend #bitcoin Guys ... this is for you: https://youtube.com/watch?v=L0MK7qz13bU…,1,0,0,False
366,CAPSOL@CAPSOL2,"井 - Well (n.) ""a frog in a well does not know the great ocean"" https://en.m.wiktionary.org/wiki/%E4%BA%95 #WELS #ethereum井en.m.wiktionary.org",1,0,0,False
367,Vic Arulchandran@VicArulchandran,"No need to panic, actually positive clarification ... #ethereum #DAOQuote Tweetvitalik.eth@VitalikButerin · May 27, 2016Reminder: the Ethereum Foundation has no involvement in the DAO. All DAO token holders and curators are doing so as private individuals.",3,0,0,False
368,R@rveyrin,"A Call for a Temporary Moratorium on 
“The DAO”: https://docs.google.com/document/d/10kTyCmGPhvZy94F7VWyS-dQ4lsBacR2dUgGTtV98C40/mobilebasic… #dao #blockchain #ethereum",3,1,0,False
369,Vinay Rao@vrstartup,A Call for a Temporary Moratorium on The DAO http://hackingdistributed.com/2016/05/27/dao-call-for-moratorium/… #blockchain #ether,1,1,0,False
370,Ana@neptox,@Poloniex will there be a  #DAO deposit on #Poloniex where we can send tokens from #Ethereum wallet to?,0,0,0,False
371,Francois Haguel@FHaguel,Interesting! #currency #bitcoin #ethereum All the cool kids are doing Ethereum now http://tcrn.ch/259vK6l via @techcrunch,1,1,0,False
372,Whalepool@whalepool,"""I owe cryptokeeper ( @jsamulaitis ) an apology"" - Rick ( @cryptoafterdark ) #bitcoin #lisk #eth",2,0,0,False
373,Ξ Fly Guy Ξ (flyguy.eth)@FlyGuyInTheSky,"Funny how they go ""bankrupt"" just before the #bitcoin halving. the world will be a bit greener now.. #ethereum POS!Quote TweetThe BitCoiner@The_BitCoiner · May 27, 2016BREAKING: KNC Miner files for bankruptcy (use google translate) http://bit.ly/1TNGnbh",0,0,0,False
374,Jack Peterson@GlaresAtKoalas,"""Is Detroit Media Refusing To Cover Blockchain Tech?"", or ""@TonySwish Rages Against the Machine"" https://medium.com/@TonySwish/why-is-detroit-media-refusing-to-cover-blockchain-fc718b774a99#.unpalb71o… #augur #ethereumIs Detroit Media Refusing To Cover Blockchain Tech?Earlier today I spoke as a part of Detroit Startup Week, my event was called “Introduction to Ethereum, Blockchains and DAOs” and was the…medium.com",2,1,0,False
375,Captain Amigo@yoyoamigoyo,DAO Trading will begin soon in just a few hours! What will the price be for the highest crowdfunded project of all time!? #TheDAO #Ethereum,1,0,0,False
376,Spiros Margaris@SpirosMargaris,"Was #Ether's Loss #Bitcoin's Gain? Traders Wonder After Wild Week 

http://bit.ly/1XDKyrv #fintech #blockchain",1,2,0,False
377,BTCVLC@BitcoinVLC,"#Bitcoin $498,98 #Ethereum $10,89
#BitcoinPrice #coinbase #Venezuela #BTCVLC
WhatsApp 0426-2408251",0,0,0,False
378,Altcoinspekulant@Altcoinspekulan,Anyone of you know how to transfer #DAO Token from #ethereum Mist Wallet to #Poloniex today??,1,0,0,False
379,Eth@EtherCoins,#BTC #Bitcoin reaches $500 again - Let's get if it can establish a new floor here or keep rising. #Fintech #Ethereum,1,2,0,False
380,Animal Neotropical@aneotropical,Your #donation also in #Ethereum - please help us to help now! - 0x0c36316598a8e6c0120f19df187e2f0fdd982579 - Thanks.,0,0,0,False
381,BTCVLC@BitcoinVLC,"#Bitcoin $492,85 #Ethereum $10,68
#BitcoinPrice #coinbase #Venezuela #BTCVLC
WhatsApp 0426-2408251",0,0,0,False
382,Erik WP@erikwp,The latest Coin Compliance! http://paper.li/f-1411445428?edition_id=37b626f0-248a-11e6-87b9-0cc47a0d164b… #bitcoin #ether,0,0,0,False
383,On The Blockchain @OnTheBlockChain,Looks like all that #Ethereum that funded #TheDAO is being exchanged for #Bitcoin...  ;-),2,1,0,False
384,BTCVLC@BitcoinVLC,"#Bitcoin $490,00 #Ethereum $10,53
#BitcoinPrice #coinbase #Venezuela #BTCVLC
WhatsApp 0426-2408251",1,0,0,False
385,Ethereum SE@StackEthereum,Seeing a contract created contract in Mix http://ethereum.stackexchange.com/questions/4371/seeing-a-contract-created-contract-in-mix… #ethereum #mix,0,0,0,False
