,user,text,likes,retweets,replies,is_thread
0,Cryptolina@Cryptolina,We thank @camharvey & @DukeFuqua for hosting us at MBA Class today. Lots of energy. #ethereum #Bitcoin #blockchain,3,2,0,False
1,votesapp@votesapp,on #blockchain #voting and #scalability --- #ethereum does scale up to +131% per day. #bitcoin doesn't scale at all.,5,2,1,False
2,Bitcoin Is The KING @EthereumPredict,Price of #ethereum is going down on  long term ! https://cryptowat.ch/kraken/ethbtc/6h… #ether,1,0,0,False
3,Julia Vaingurt@julia_vaingurt,"Budapest Taxi Drivers Now Accept Bitcoin Payments Through COinPAY http://cur.lv/vbo95
#Ethereum",2,0,0,False
4,grahvity@grahvity,"$ETH/XBT put a stink bid at .00616 & get rich #ethereumKraken ETH/XBT Chart - Published on Coinigy.com on February 12th, 2016 at 8:18 AM.Kraken ETH/XBT Chart - Indicators used: Volume (true, 20) - Interval: D. Published on Coinigy.com on February 12th, 2016 at 8:18 AM.coinigy.com",2,0,0,False
5,wawin@wawin,Looks like $eth is running out of steam. Time to short #ethereum ?,2,0,0,False
6,Collin Crypto@CollinCrypto,Worth it.  $eth #ethereum,9,3,0,False
7,AltimateWarrior@AltimateFighter,"$EXP, $SOIL, $SHF are all #ethereum clones that would have made you some good dough! What other $ETH clones are out there?",13,2,0,False
8,Prestigious@Prestigious216,????? I'm going with #Ether,1,1,0,False
9,infinitechaos@InfiniteChaos__,@InfiniteChaos__ Party is over. $ETH,2,2,0,False
10,Loopringer Alien@dozkah,#ethereum reached 6.99$ yesterday! #huge #pump #eth #btc #news #finance #trading #fintech #blockchain #INVESTMENT,4,3,0,False
11,Erik Voorhees@ErikVoorhees,"For the first time ever, the market value of all altcoins has surpassed $1b USD. http://CoinCap.io #bitcoin #ethereum #litecoin #dash",49,53,8,False
12,PolyCrypto@Polycrypto,"Don't forget: #LISK ICO will start in 9 days! You can participate with #BTC, #ETH or #XCR -> https://lisk.io/ico",8,12,1,False
13,Thomas Kim Pham@ithingsch,Stephan Tual talking about #Ethereum #IoT #Blockchain http://bit.ly/20Za1Mu inspiring part ~10min about #autonomous #cars integration.,2,0,0,False
14,Gary Spence@GarySpence_HSC,#crowdfunding 3 years of R&D now is the time #hscsandbox #blockchain #fintech #investment #vc #disrupter #ethereum #supplychain #7pl,5,0,0,False
15,Robin Hood Co-op@RobinHoodCoop,"NEWS: Robin Hood Coop moves on to the #ethereum #blockchain #coop2dot0 @HitfinMoving on to blockchainImagine… that Robin Hood Coop shares were registered on a blockchain and their value was marked-to-market every day. For starters, this would make the shares much more liquid. Members could easily...discourse.robinhoodcoop.org",42,37,1,False
16,Patrizio Stavola@halovast,Self-Driving Vehicles and Smart Contracts via the #Blockchain https://cryptocoinsnews.com/self-driving-vehicles-and-smart-contracts-blockchain/… #Ethereum #bitcoin #IoT,2,2,0,False
17,OG Blockchain Proof Of ^\_(ツ)_/^ Protocol@OGblockchain,"The #blockchain-based ""smart contract"" sounds great; where's the beef? http://ericdixonlaw.com/2014/06/bitcoin-smart-contracts-redefining.html… #bitcoin #ethereum",1,0,0,False
18,RELab ETH Zurich@RELabETHZ,#ETH Knee Perturbator Studies How Legs Recover from Stumbles to Improve Prostheses http://medgadget.com/2016/02/knee-perturbator-studies-how-legs-recover-from-stumbles-to-improve-prostheses.html…,1,1,0,False
19,Ethereum UAE@Ethereum_UAE,BigChainDB – the Scalable Blockchain Database for Securing Diamonds and More http://ift.tt/20s50d3 #Ethereum,1,0,0,False
20,Cointelegraph@Cointelegraph,"Eight Months Since Release, #Ethereum Is Second Only To #Bitcoin http://cointelegraph.com/news/eight-months-since-release-ethereum-is-second-only-to-bitcoin… @ethereumproject",20,29,4,False
21,道 德 TaoTeh1221@OpenCryptoPortfolioTracker.org@taoteh1221,"My goodness, the #ethereum #cryptocurrency #markets chart looks like a #spacex mission trajectory: http://coinmarketcap.com/currencies/ethereum/…",1,0,0,False
22,ethereum.network@EthereumNetw,#Ethereum’s True Rise Began In October 2015Ethereum’s True Rise Began In October 2015In the past few hours I’ve started to see pieces pop up in news outlets and threads discussing Ether’s price increase over the recent days…medium.com,4,2,0,False
23,JΞFF@jeffehh,#ethereum developer diary: entry 2Ethereum Developer Diary: entry 2Posted in r/ethereum by u/jeffehhh • 36 points and 2 commentsreddit.com,7,10,0,False
24,LocalDayz@localdayz,#ethereum pool avaible. Use http://pool.laintimes.com for join US. #cryptocurrency #eth,0,0,0,False
25,Thibaut Rouffineau@thibautR,Autonomous charging stations for autonomous cars? The future of energy is in the blockhain https://blog.slock.it/partnering-with-rwe-to-explore-the-future-of-the-energy-sector-1cc89b9993e6#.n2kfzym1g… #ethereumPartnering with RWE to explore the future of the Energy SectorSlock.it unveils an exciting new collaboration and projects at Lift Conference 2016blog.stephantual.com,8,6,0,False
26,Simon de la Rouviere @simondlr,"Replying to @simondlrGuys. Holy shit. All the crazy ideas we've had for the past few years, we all get to run & try out now. <3. #ethereum",11,3,1,False
27,DYOR@ethereum92,Decentral to Sell Bitcoin in Retail Stores Across Canada - CCN: Financial #Bitcoin & Cryptocurrency News #ethereum https://cryptocoinsnews.com/decentral-to-sell-bitcoin-to-canadians-in-retail-stores/…,1,0,0,False
28,Maciej Olpinski@maciejolpinski,1/ fascinated how bubbles drive adoption and free advertising for the underlying tech #ethereum,8,3,2,False
29,Patrizio Stavola@halovast,transforming the way of charging electric vehicles #blockchain #ethereumPartnering with RWE to explore the future of the Energy SectorSlock.it unveils an exciting new collaboration and projects at Lift Conference 2016blog.stephantual.com,1,0,0,False
30,Раб Божий@Diener_Gottes,"Eight Months Since Release, #Ethereum Is Second Only To #Bitcoin: Launched in July 2015, the… http://goo.gl/fb/hSV0EH",1,1,0,False
31,ethereum.network@EthereumNetw,"Ukraine Embraces #Ethereum Blockchain For Election #Transparency
""Ukraine Confirms Interest in #blockchain""Ukraine Embraces Ethereum Blockchain For Election TransparencySmart contracts circumvent all of these worries, and they are native to the Ethereum blockchain as well.newsbtc.com",6,5,0,False
32,CRYPTOCOINTALK@cryptocointalk,“#Ethereum’s True Rise Began In Fall of 2015” by @TonySwish https://medium.com/@TonySwish/ethereum-s-true-rise-began-in-fall-of-2015-fa3cf04c5e7c#.kid4oh82m… #ETHEthereum’s True Rise Began In October 2015In the past few hours I’ve started to see pieces pop up in news outlets and threads discussing Ether’s price increase over the recent days…medium.com,3,3,0,False
33,Brave New Coin@bravenewcoin,#Ethereum ETH price now is USD $$6.67 up 44.82% over 24hrs http://ow.ly/YeMZL,2,6,0,False
34,Simon de la Rouviere @simondlr,Slock.it partnering with RWE. https://blog.slock.it/partnering-with-rwe-to-explore-the-future-of-the-energy-sector-1cc89b9993e6#.ev96yhjv9…. #future. #ethereum,3,2,1,False
35,JΞFF@jeffehh,Got my first #ethereum unicorn! #swag,14,3,3,False
36,Sillytuna (hiring devs) @sillytuna,Identity is the killer app for blockchains (non fintech). I'm more sure of it now than ever #ethereum #bitcoin @ChrisLundkvist #uport,8,5,3,False
37,Brave New Coin@bravenewcoin,"#Ethereum will cross a billion $ market cap this rally. The market shall mark it Bitcoin's equal.”  Meher RoyEthereum surges, overtaking Ripples market cap for the second time » Brave New CoinOn February 11, 2016, the market cap of Ethereum (ETH) surpassed the US$356 million mark, recording a staggering 30.79% 24-hour price growth.bravenewcoin.com",5,2,2,False
38,NEWSBTC@newsbtc,"E-Vox Merges Elections With #Ethereum #Blockchain Technology http://ow.ly/YfAy6 #bitcoin #fintechUkraine Embraces Ethereum Blockchain For Election TransparencySmart contracts circumvent all of these worries, and they are native to the Ethereum blockchain as well.newsbtc.com",1,3,0,False
39,Vladimir Kurumilian@vkurumilian,"#Ether, the element believed in ancient and medieval civilizations to fill all space above the sphere of the moon... http://fb.me/7OjAjvTzK",2,0,0,False
40,Bitcoin@bitcoinpoet,Thanks ethereum community for offering a choice: I'm following bitcoin for some time now and followi... http://bit.ly/1QwPcRc #ethereumThanks ethereum community for offering a choiceI'm following bitcoin for some time now and following the debates about the block size thats going on for too long now really feels depressing....reddit.com,1,3,0,False
41,Bitcoin IT News@bitcoin_ita,"Eight Months Since Release, #Ethereum Is Second Only To #BitcoinEight Months Since Release, Ethereum Is Second Only To BitcoinThe reasons behind Ethereum’s impressive performance.cointelegraph.com",1,2,1,False
42,Alunaut   @onemanatatime,"Pump season's here. Got ur bags rdy yet? #altsareback
$VNL $XMR $DGB $VRC $DOGE $BLK $ETH $MAID $DCR $START $DOGED",14,2,2,False
43,Lisk@LiskHQ,"Lisk's first decentralized application arrives 

https://blog.lisk.io/lisk-s-first-decentralized-application-arrives-bd933919004…
#bitcoin #cryptocurrency #ethereum #dapps",11,12,0,False
44,MyEtherWallet | MEW@myetherwallet,Loving what the KryptoKit guys are up to: http://jaxx.io @jaxx_io #ether #ethereum,1,1,0,False
45,Menno Pietersen@MennoPP,Replying to @alex_bcg@btc_alex lol you will regret this tweet in a few weeks... Up and up we fo #eth #ethereum,0,0,0,False
47,Digiconomist@DigiEconomist,@bravenewcoin Wouldn't be surprising. It will be a wild ride though. A lot of Fear of Missing Out in this #Ethereum rally as well.,2,0,0,False
48,Craig Hepburn@craighepburn,"I'm definitely bullish on Ethereum. Could be a game changer. #bitcoin #ethereumQuote TweetMarc Dangeard@mdangear · Feb 12, 2016Bitcoin rival Ethereum's price skyrockets | @scoopit http://sco.lt/8m9Oef",2,0,0,False
49,John Lilic ₿ Ξ ∞@JohnLilic,@jessicasier possibly fair to think of #bitcoin as a pocket calculator and #ethereum as a laptop computer #smartcontract #platform,2,0,0,False
50,Sunny Ray@SunnyRayShow,Setting up your own central bank is just the start with Ethereum http://ibt.uk/A6Qa2 via @IBTimesUK #ethereum,1,1,0,False
51,CryptoCompare@CryptoCompare,"#ethereum has another storming day mcap of $410m
Paypal censors #bitcoin parody add

https://cryptocompare.com/email-updates/daily/2016/feb/12/…",1,0,0,False
52,The Viral Exchange@viralexchangex,Want to earn #Bitcoin? http://Theviralexchange.com Instructional video released #startup #growthhacking $nxt $blitz $eth https://m.youtube.com/watch?v=DgF8p_e3JTk…,2,2,0,False
53,Ethereum UAE@Ethereum_UAE,"Eight Months Since Release, Ethereum Is Second Only To Bitcoin http://ift.tt/20sFG6P #Ethereum",2,0,0,False
54,BitcoinAgile@bitcoinagile,Ukraine Embraces Ethereum Blockchain For Election Transparency - NEWSBTC #Ukraine #Ethereum http://newsbtc.com/2016/02/12/ukraine-embraces-ethereum-blockchain-for-election-transparency…,1,7,0,False
55,Bob Summerwill@BobSummerwill,"Congratulations, @ethchris!
Really looking forward to C++ and Go working together more closely :-)
#ethereum https://twitter.com/TonySwish/status/698081427221569536…This Tweet is unavailable.",9,6,0,False
56,ethereum.network@EthereumNetw,"More people, more developers are joining the #Ethereum train, reasons here from @mandeleil and @VitalikButerin:Eight Months Since Release, Ethereum Is Second Only To BitcoinThe reasons behind Ethereum’s impressive performance.cointelegraph.com",1,0,0,False
57,Sillytuna (hiring devs) @sillytuna,We have so many uses that are tied together with identity. It's just about the right people getting them done #ethereum @ChrisLundkvist,2,1,0,False
58,Aaron Wright@awrigh01,The number of #ethereum addresses and transactions similar to #btc in late 2012 / early 2013.  Btc took 3 years; ethereum 4 months.,2,0,0,False
59,Bob Summerwill@BobSummerwill,"Summary of latest happenings in Ethereum development world!
#ethereumQuote TweetJΞFF@jeffehh · Feb 12, 2016#ethereum developer diary: entry 2 https://reddit.com/r/ethereum/comments/45e3kp/ethereum_developer_diary_entry_2/…",1,0,0,False
60,Sinz @Sinzfeldt,"Well it looks like @Poloniex is borderline dead, way to crap on the rally guys, sort it out. #ethereum #mtgox",1,0,0,False
61,"Brock M Cusick, Esq.@bmcusick",Reading Vitalik's post of privacy on #Ethereum makes me doubt the whole model. Seems overly complicated and costly.,1,0,0,False
62,BitcoinZAR ₿Bitcoin South Africa @BitcoinZAR,"$ETH in panic, its a bloodbath ... about 10k coin dumped, thats only like 100 $BTC or something right? #SmallFry #bitcoin",2,0,0,False
63,bxxa@boxxa,I own ICO $eth and have not touched it but the chart looks so paycoinish it is amazing.,3,1,0,False
64,Brave New Coin@bravenewcoin,30 day Digital Asset Stats > #Bitcoin down 9% > #Ripples up 40 % > #Ethereum up 417% http://ow.ly/Yh23O,1,1,0,False
65,Satoshi Trader@SatoshiTrader,$ETH moon delayed,1,1,0,False
66,iuri matias@iurimatias,Ukraine Embraces #ethereum #blockchain For Election Transparency http://newsbtc.com/2016/02/12/ukraine-embraces-ethereum-blockchain-for-election-transparency/…,3,1,0,False
74,MyEtherWallet | MEW@myetherwallet,"MyEtherWallet ""customer support"" (aka us! The devs!) have already received 16 messages today. 1 was in Russian. #beginningoftheend #eth",0,0,0,False
75,Augur@AugurProject,"Blocksolid.io Interview with Tony Sakich of Augur: http://wp.me/p74MFJ-3H via @blocksolid_io #ethereum #augur @TonySwishInterview: Tony Sakich @ AugurIt’s fair to say that Ethereum is a pretty hot topic right now. Following on from Devcon1 in November last year, there have been a number of positive news stories and the price of Ether has r…blocksolid.io",2,7,0,False
77,Ethereum SE@StackEthereum,Mist Wallet vs Account - How do I send ether from Wallet to exchange? http://tinyurl.com/h3km8vg #ethereum,0,0,0,False
78,BitcoinAgile@bitcoinagile,"Google Trends - Web Search interest - Worldwide, 2004 - present #Factom #bitcoin #blockchain #fintech #eth https://google.com/trends/explore#q=factom&date=today%2012-m&cmpt=date&tz=Etc%2FGMT-2…",3,2,0,False
79,Netcube93@Netcube93,Google-Trends: #Factom https://google.com/trends/explore#q=factom&date=today%2012-m&cmpt=date&tz=Etc%2FGMT-2… #bitcoin #blockchain #fintech #eth,0,0,0,False
80,Michael Wuehler@wuehler,The #ethereum world computer will agree on the 1 millionth block sometime late Sunday night (in NYC). Congrats @VitalikButerin and team!,3,3,0,False
81,thebitledger@thebitledger,Replying to @ErikVoorhees@ErikVoorhees #Ethereum  added ~$500 million to crypto space  value.  24 months ago it was a powerpoint.,0,0,0,False
82,ezequiel camilo@chococamilo,I just won free 0.00002025 ETHER from  http://etherfaucet.org #ether #satoshi #freeether #faucet vía @etherfaucet,0,0,0,False
83,MonetaryUnit@MonetaryUnit,"Replying to @btcdrak@btcdrak @BlTC0lN @petertoddbtc 
And so are all the people investing in $ETH",0,0,0,False
85,infinitechaos@InfiniteChaos__,$ETH closed below my daily trend line with a 4th consecutive red candle on the 1HR. Retest of .013 incoming.,2,0,0,False
86,@willethuad@willethuad,#Ethereum developer wanted for project based in the sun. Remote ok.  DM @willethuad,0,0,0,False
87,LocalDayz@localdayz,#ethereum pool avaible. Use http://pool.laintimes.com for join US. #cryptocurrency #eth,1,0,0,False
88,Ethereum Canada@EthereumCanada,Ukraine Embraces #Ethereum Blockchain For Election Transparency http://ow.ly/YghcC,17,10,0,False
89,Gary Spence@GarySpence_HSC,Ok guys time to relax with family more #Blockchain #ethereum #Smartcontract #HSCSandbox tomorrow stay safe guys,0,0,0,False
91,Menno Pietersen@MennoPP,"Replying to @BTC_kahir@BTC_kahir It is all risky, but #ETH is the best bet ever I think, Profit change is still HUGE!",0,0,0,False
92,Digiconomist@DigiEconomist,Replying to @bravenewcoin@bravenewcoin Wouldn't be surprising. It will be a wild ride though. A lot of Fear of Missing Out in this #Ethereum rally as well.,2,0,0,False
93,Crypto_Lobbyist@CryptoLobbyist,"Still we faith in #eth #ethereum.Quote TweetTheArchitect@Tall_Geek · Feb 12, 2016ETH still in that upward trend...and probably cheap enough to buy in again.
https://coinigy.com/s/i/56be54e9/",0,0,0,False
94,Menno Pietersen@MennoPP,"Replying to @EthereumCanada@EthereumCanada Told my girlfriend: ""Digital decentralized, safe and programmable system. Can be a platform for amazing systems"" #Ethereum",1,0,0,False
95,Michael Wuehler@wuehler,"We have #ethereum to thank for that.Quote TweetErik Voorhees@ErikVoorhees · Feb 12, 2016For the first time ever, the market value of all altcoins has surpassed $1b USD. http://CoinCap.io #bitcoin #ethereum #litecoin #dash",0,0,0,False
96,Cryptoknight@brelly1978,@SOILcoin Is it true your coin is first to fork #ethereum and have only very small premine?,1,0,0,False
98,Hugh Lang@hughlang,"Looking back 2 years when #Ethereum was first announced. http://coindesk.com/ethererum-launches-cryptocurrency-2-0-network/…

Read the comments. They are hilarious.Ethereum Launches ‘Cryptocurrency 2.0’ NetworkEthereum is no altcoin; it's an operating system for altcoins, say developers.coindesk.com",0,0,0,False
99,Digiconomist@DigiEconomist,"#Ethereum is already stealing some of #Bitcoin's use cases here. Smart contracts > colored coins.Quote TweetBitcoinAgile@bitcoinagile · Feb 12, 2016Ukraine Embraces Ethereum Blockchain For Election Transparency - NEWSBTC #Ukraine #Ethereum http://newsbtc.com/2016/02/12/ukraine-embraces-ethereum-blockchain-for-election-transparency…",1,1,0,False
100,'Radent Mamad@radent_mamad,I just won free 0.00122025 ETHER from http://etherfaucet.org/?r=5420 #ether #satoshi #freeether #faucet lewat @etherfaucet,0,0,0,False
104,druid andrew@andyypants,Its like shoukd we make contracts in this inflated currency #ether that might implode in value and mess up the payoff matrix of our deals?,1,0,0,False
106,Bitcoin Is The KING @EthereumPredict,#Ethereum market #ether,0,0,0,False
107,ETHNews@ETHNews_,#Ukraine Embraces #Ethereum #Blockchain For Election #Transparency #virtualcurrency http://ow.ly/YgeEA via @newsbtc,1,0,0,False
108,Jaymotionx@Jaymotionx,Replying to @cryptsy@cryptsy pls honour my withdrawal request for #ethereum,1,0,0,False
111,Ethereum SE@StackEthereum,"What is actually removed during a contract suicide, and why doesn't this cause the blockchain to change? http://bit.ly/1o7t9JB #ethereum",0,0,0,False
112,Ethereum SE@StackEthereum,Greeter variables are all undefined and contract doesn't run http://bit.ly/1o7t9tg #ethereum,0,0,0,False
113,Bitcoin Is The KING @EthereumPredict,The resistance is broken.. The #ethereum will suffer some more drops :(,0,0,0,False
115,kire mitev@kiremitev9,I just won free 0.00002500 ETHER from  http://etherfaucet.org #ether #satoshi #freeether #faucet via @etherfaucet,0,0,0,False
118,Tone Vays (#EndLockdowns)@ToneVays,"Replying to @C1aranMurray@C1aranMurray @tradewithdave @JuicyGrabs I'm against technological innovations, i'm against scamy digital assets out of thin air: like $ETH",1,1,0,False
119,UGLYFACE@kevin_uglyface,"Possibly accepting #ether as well?Quote Tweetethereum.network@EthereumNetw · Feb 12, 2016.@openbazaar, the #decentralized marketplace, is Nearing Feature Complete Status
http://cryptogeeks.com/bitcoin-openbazaar-nearing-feature-complete-status…",0,0,0,False
121,DON CONNECT@DONCONNECT,True or not ... NAS took Jay lyrically .. Jay still came out on top #ether https://instagram.com/p/BBswT5lPjHL/,0,0,0,False
122,a5ym4e@a5ym4e,#ethereum DEV Update: C++ Roadmap http://bit.ly/1TXjTUS @ethereumproject @ethchris,0,0,0,False
124,Ethan Buchman@buchmanster,"guys, please stop buying eth. its almost as expensive as cauliflower in canada. this is getting ridiculous #ethereum #blockchain",15,5,0,False
125,Gary Spence@GarySpence_HSC,"What if #ethereum dealt with documents, products as a #cryptocurrency and not just #monitary the scope will be #7pl",0,0,0,False
127,Ethereum SE@StackEthereum,How do I remove accounts using the Geth console? http://tinyurl.com/zo4mrpt #ethereum,1,0,0,False
129,tgerring.eth@TaylorGerring,Replying to @Dream_State.@Dream_State Multisig wallet is built into the #Ethereum Mist GUI client,0,0,0,False
130,druid andrew@andyypants,with just the exchange fees on #ether #poloniex will make how much #cryptsy goxed in 100 days and not have done anything illegal.,1,1,0,False
131,Sebastião Pereira Si@ContatosSpsilva,I just won free 0.00002200 ETHER from  http://ethereumfaucet.org #ether #satoshi #freeether #faucet via @ethereumfaucet,0,0,0,False
132,Sebastião Pereira Si@ContatosSpsilva,I just won free 0.00002025 ETHER from  http://etherfaucet.org #ether #satoshi #freeether #faucet via @etherfaucet,0,0,0,False
134,Bitcoin@bitcoinpoet,WARNING: There's an impostor Poloniex app in the Google Play Store. Do not use this; it may be malic... http://bit.ly/1QwPcRa #ethereumWARNING: There's an impostor Poloniex app in the Google Play...Posted in r/ethereum by u/skapaneas • 150 points and 1 commentreddit.com,1,0,0,False
135,BitcoinTalkRadio.com@btctalkradio,Ethereum Price Rise being led by Bitcoin Flight. http://bitcointalkradio.com/ethereum-price-rise-being-led-by-bitcoin-flight/… #ethereum #cryptocurrency #bitcoin,1,1,0,False
136,Phil Wynter@TheIllMechanism,"#Bernie across the belly, he proved you lost already #Bernie2016 #BernieSanders #Ether #caucus https://m.youtube.com/watch?v=YjPOnBvi2XY…",0,0,0,False
137,Tr𝟎y.𝐞𝐭𝐡 @Danny_Desert,"Interview with Troy Murray, CEO of The Rudimental http://sebfor.com/?p=2109 via @sebforreports #Ethereum",0,0,0,False
139,Gilbert Njovu@Flexx305,Everytime I listen to dust to dust I get a new meaning....#Ether of Africa peace up to @casspernyovest,0,0,0,False
141,Raphaël Mazet@raph_alice,"This would would be an incredibly interesting pilot! #EthereumQuote Tweetiuri matias@iurimatias · Feb 12, 2016Ukraine Embraces #ethereum #blockchain For Election Transparency http://newsbtc.com/2016/02/12/ukraine-embraces-ethereum-blockchain-for-election-transparency/…",1,0,0,False
143,Widget 4 Bitcoin@widget4bc,"Eight Months Since Release, #Ethereum Is Second Only To #Bitcoin: Launched in July 2015,… http://short.4bc.co/QFA",0,0,0,False
144,4BC@aff4bc,"Eight Months Since Release, #Ethereum Is Second Only To #Bitcoin: Launched in July 2015,… http://short.4bc.co/QFA",0,0,0,False
145,Bitcoin Directory@dir4bc,"Eight Months Since Release, #Ethereum Is Second Only To #Bitcoin: Launched in July 2015,… http://short.4bc.co/QFA",0,0,0,False
146,YOᗪI ᕼEᖇᗰᗩᗯᗩᑎ@YodiHermawan,"Eight Months Since Release, #Ethereum Is Second Only To #Bitcoin: Launched in July 2015… http://goo.gl/fb/KJIjlT #vk",0,0,0,False
147,Ali Güçlü@aliguclu,"CoinTelegraph : Eight Months Since Release, #Ethereum Is Second Only To #Bitcoin … https://twitter.com/CoinTelegraph/status/698194835476520960…)Quote TweetCointelegraph@Cointelegraph · Feb 12, 2016Eight Months Since Release, #Ethereum Is Second Only To #Bitcoin http://cointelegraph.com/news/eight-months-since-release-ethereum-is-second-only-to-bitcoin… @ethereumproject",0,0,0,False
148,DYOR@ethereum92,"Bitcoin Is Too Libertarian to Save the Developing World, Says UN Paper http://motherboard.vice.com/read/bitcoin-is-too-libertarian-to-save-the-developing-world-says-un-paper… via motherboard #ethereum",1,0,0,False
150,@KP_official1 on IG@KP_Official_1,Shannon reads hit a particular place because you so rarely see him come out of his mouth about certain subjects but when he does #Ether,0,0,0,False
151,DYOR@ethereum92,BigChainDB - the Scalable #Blockchain Database for Securing Diamonds and More - http://Bitcoinist.net #ether http://bitcoinist.net/bigchaindb-the-scalable-blockchain-database-for-securing-diamonds-and-more/…,2,1,0,False
152,fjccoin@fjccoin,"Ethereum’s True Rise Began In October 2015 #ethereum
http://bit.ly/1o6PfvN",0,0,0,False
153,Tr𝟎y.𝐞𝐭𝐡 @Danny_Desert,"Might be a little bias, but I like it. ;) #Ethereum #TheRudimentalThe following media includes potentially sensitive content. Change settingsView",0,0,0,False
154,torrentDAO @torrentDAO,"Great write up about our coming app! #Ethereum #TheRudimentalInterview with Troy Murray, CEO of The RudimentalThis week we had the opportunity to interview the creator of an upcoming Ethereum based application called The Rudimental.  Troy Murray, a Los Angeles based producer, runs the production company...sebfor.com",3,4,0,False
157,BitcoinAgile@bitcoinagile,Brokers need to innovate to prevent becoming obsolete #ethereum http://money-marketuk.com/business-and-finance/brokers-need-to-innovate-to-prevent-becoming-obsolete…,0,0,0,False
158,DYOR@ethereum92,Brokers need to innovate to prevent becoming obsolete | Business and Finance #ethereum http://money-marketuk.com/business-and-finance/brokers-need-to-innovate-to-prevent-becoming-obsolete…,0,0,0,False
160,trabajo trabajo@trabajo_00,I just won free 0.00000768 ETHER from  http://etherfaucet.org #ether #satoshi #freeether #faucet vía @etherfaucet,0,0,0,False
163,trabajo trabajo@trabajo_00,I just won free 0.00001018 ETHER from  http://ethereumfaucet.org #ether #satoshi #freeether #faucet vía @ethereumfaucet,0,0,0,False
165,Teflondahn@lildoubleup,"""My ex said she gave me the best years of her life. I saw a recent picture of her, i guess she was right"" -@kanyewest on 30hours #ether",0,0,0,False
167,DYOR@ethereum92,South Korea: KB Kookmin Bank to offer #blockchain remittance services using Coinplug #bitcoin #ethereum http://ibtimes.co.uk/south-korea-kb-kookmin-bank-offer-blockchain-remittance-servics-using-coinplug-1543522…,0,0,0,False
171,ethereum.network@EthereumNetw,"#Ethereum DEV Update: the C++ client roadmap under new lead of Christian Reitwiessner
https://blog.ethereum.org/2016/02/12/ethereum-dev-update-c-roadmap/…",1,0,0,False
172,News BTC Ukraine@NewsBTC_UA,good news for #Ukraine - elections on a base of #Ethereum http://ua.newsbtc.com/vybory-v-ukraini-na-blockchaini/…,0,0,0,False
173,ETH Zurich@ETH_en,"Find out why #ETH scientists have created a machine that “kicks” people in the leg as they walk:Scientists Have Created an Exoskeleton that Kicks Its Wearer in the KneeThere are all kinds of exoskeletons out there. Some save you energy. Some help you do heavy work. Some lightly kick you in the knee. The question is, why does that last one exist? A Swiss research...gizmodo.com",3,0,0,False
174,trabajo trabajo@trabajo_00,I just won free 0.00002125 ETHER from  http://ethereumfaucet.org #ether #satoshi #freeether #faucet vía @ethereumfaucet,0,0,0,False
175,Ethereum Italia@ethereumita,Reaching 300 people 4 Telegram groups 2 Facebook 1 Twitter 1 Web 1 Meetup #blockchain #ethereum @GeorgeAHallamEthereum ItaliaLa prima Communty Ufficiale Italiana dell'Ethereum Project e degli Smart Contracts sulla Blockchain. Fondata nel 2014ethereum-italia.it,1,4,0,False
176,Christopher Allsop@stealth2377,#Ethereum has had a pretty good couple of days. http://ow.ly/YfSLw #blockchain #bitcoin,0,0,0,False
177,CryptoCompare@CryptoCompare,"#ethereum BTC volume at 75,000 BTC Versus #bitcoin USD volume at 80,000 BTC
#crypto #trading
https://goo.gl/Hddgl8",2,0,0,False
178,fav@btsfav,Buy Gold-Backed Tokens on #Ethereum - How-To ► http://favd.xyz/1o94lSg #favs,0,0,0,False
180,Bitcoin Is The KING @EthereumPredict,#Poloniex is down. The price of #Ethereum is going to fall when back online.. #ether,0,0,0,False
181,Menno Pietersen@MennoPP,Replying to @InfiniteChaos__@InfiniteChaos__ Way too soon to claim that! #ETH #ethereum,1,0,0,False
182,Crypto Gnosys@CryptoGnosys,"Replying to @InfiniteChaos__@InfiniteChaos__ weve seen that before, and it was def not over.  Its a hot market. 
https://coinigy.com/s/i/56bde918/
$ETHPoloniex BTC/ETH Chart - Published on Coinigy.com on February 12th, 2016 at 2:15 PM.Poloniex BTC/ETH Chart - Indicators used: - Interval: 60. Published on Coinigy.com on February 12th, 2016 at 2:15 PM.coinigy.com",1,1,0,False
184,Morgan Polotan@morganpolotan,@taariqlewis @mikehorton why an #ethereum crash?,0,0,0,False
185,Crypto Gnosys@CryptoGnosys,@Poloniex is now @cryptsy slow.  Scary.  $btc $eth,1,1,0,False
187,Crypto Bean@William42111948,"#ethereum was hacked, blockchain down and destroyed

#eth",1,1,0,False
188,Bitcoin Is The KING @EthereumPredict,Care ! A new drop seems more than probable as ppl are afraid of loosing more money #ether #ethereum,1,0,0,False
189,wawin@wawin,This crazy $eth rally (and incomming megadump) confirms that in 2016 #altsareback #ethereum,0,0,0,False
190,Micha Roon@drgorb,"""The new kid on the block(chain)"" on @LinkedIn #ethereumThe new kid on the block(chain)With a value that has shot from 1$ to 5$ in the last 5 weeks, ETHer (Ethereum's currency) is the new challenger of BitCoin for the position of #1 crypto-currency. It is still way behind in terms of...linkedin.com",0,0,0,False
191,Sebastião Pereira Si@ContatosSpsilva,I just won free 0.00003200 ETHER from  http://etherfaucet.org #ether #satoshi #freeether #faucet via @etherfaucet,0,0,0,False
192,Sebastião Pereira Si@ContatosSpsilva,I just won free 0.00003200 ETHER from  http://ethereumfaucet.org #ether #satoshi #freeether #faucet via @ethereumfaucet,0,0,0,False
193,I am Byroo@AmbyR00,@jeffcliff1 How much has ETH price jumped since you bought in? #Ethereum,1,0,0,False
196,OG Blockchain Proof Of ^\_(ツ)_/^ Protocol@OGblockchain,The most honest person in #blockchain technology is the one who asks: How the hell do we use this? #bitcoin #ethereum $GAHC #ledger,0,0,0,False
197,indxio@indxio,#Russia Market Close || #Bitcoin: $382.73 | 359.72 EUR||  #Litecoin: 0.008 BTC  || #Ethereum: 0.0147 BTC   || $BTC $LTC $ETH $RUB,2,0,0,False
198,Maxllf@Maxllf1,I just won free 0.00003200 ETHER from  http://ethereumfaucet.org #ether #satoshi #freeether #faucet via @ethereumfaucet,2,0,0,False
199,John Lasschuit@kwalitisme,"Six #Ethereum Projects and its Five Competitors 
Jamie Redman - @Bitocinist http://buff.ly/20CaXd1",0,0,0,False
200,DYOR@ethereum92,Replying to @WTjern@WTjern Go on #Kraken to buy #ether Very good place.,0,0,0,False
203,trabajo trabajo@trabajo_00,I just won free 0.00002125 ETHER from  http://etherfaucet.org #ether #satoshi #freeether #faucet vía @etherfaucet,0,0,0,False
204,Ronald Konijnenburg@Konijnenburg,GuessI should have invested  when somebody told me about this new currency which was about to take off... #ethereum,1,1,0,False
206,CRYPTOCOINTALK@cryptocointalk,#Ethereum Foundation Appoints ​Dr. Christian ​Reitwiessner C++ Leader http://bitcoinist.net/ethereum-foundation-appoints-…​dr-christian-​reitwiessner-to-c-team-leader/,1,0,0,False
207,Jay Baptiste@jasonbaptiste,"#ethereum still not stopping pumping, at 6.04 now :)",0,0,0,False
211,trabajo trabajo@trabajo_00,I just won free 0.00003200 ETHER from  http://etherfaucet.org #ether #satoshi #freeether #faucet vía @etherfaucet,0,0,0,False
212,trabajo trabajo@trabajo_00,I just won free 0.00003200 ETHER from  http://ethereumfaucet.org #ether #satoshi #freeether #faucet vía @ethereumfaucet,0,0,0,False
213,fav@btsfav,Enter for a Chance to Win 5 #Ether #Ethereum ► http://favd.xyz/1PGSmlo #favs,0,0,0,False
215,Yashu Gola@bitcoinwallah,#Ukraine Embraces #Ethereum #Blockchain For Election Transparency http://ow.ly/YfpDq - via @jdebunt @newsbtc #bitcoin #fintech,0,0,0,False
216,Bitcoin Retweets@bitcoinbot121,#Ukraine Embraces #Ethereum #Blockchain For Election Transparency http://ow.ly/YfpuL - via @jdebunt @newsbtc #bitcoin #fintech,0,0,0,False
217,NEWSBTC@newsbtc,#Ukraine Embraces #Ethereum #Blockchain For Election Transparency http://ow.ly/YfpDm - via @jdebunt @newsbtc #bitcoin #fintech,4,4,0,False
218,votesapp@votesapp,Replying to @votesapp@votesapp @DomSchiener did you consider #scalability of #ethereum yet for your #voting analysis?Voting on the Ethereum Blockchain: An AnalysisThe main reason why I’ve created PublicVotes (apart from the intellectual challenge) is to determine the feasibility of utilizing Ethereum…medium.com,0,0,0,False
220,Mr Marubozu Risin'@MrMarubozuRisin,Replying to @MagUraCrypto@magaura11 @AngeloBTC Was waiting for other shorts to develop i.e. $ETH. Got out at .0146 Then 50% MAID & 50% SC,0,0,0,False
221,CyberSecurityToolz@cybersecurityZZ,"Top story: @CryptOrca: '@CryptOrca $ETH #ethereum Trend not broken ... yet lol.… , see more http://tweetedtimes.com/v/8427?s=tnp",0,0,0,False
222,Ethereum SE@StackEthereum,What are effective techniques to encrypt data before storing in a smart contract? http://tinyurl.com/hhyec6z #ethereum,0,0,0,False
223,Ethereum SE@StackEthereum,How to control which client mist is using as blockchain backend? http://tinyurl.com/jb2xfoe #ethereum,0,0,0,False
224,druid andrew@andyypants,well that was some insane profits today lol told ya the made in china #ethereum would take advantage of their low marketing effort.,2,0,0,False
225,naythitoo@nay_thitoo,I just won free 0.00002125 ETHER from  http://etherfaucet.org #ether #satoshi #freeether #faucet via @etherfaucet,0,0,0,False
226,Chaz Sterling Jaco@HearWithEar,I just won free 0.00002125 ETHER from  http://etherfaucet.org #ether #satoshi #freeether #faucet via @etherfaucet,0,0,0,False
227,BlockchainLUX@blockchainLUX,"#doge for the #lulz, #Bitcoin for the legacy, and #ethereum for the future of machines and mankind!",0,0,0,False
228,ajlopez@ajlopez,#Ethereum Will Arrive (and 15 Other #Blockchain Predictions for 2016)Ethereum Will Arrive (and 15 Other Blockchain Predictions for 2016) - CoinDeskAndrew Keys from ConsenSys offers 16 predictions for the blockchain and decentralized technologies sector in 2016.coindesk.com,0,0,0,False
229,Gary Spence@GarySpence_HSC,Hope everyone has a happy #FridayFeeling #ethereum #Supplychain what is it? well mail us info@hscuk.net to find out,2,1,0,False
230,Too 50@BC10_hoops,Replying to @robinlundberg@robinlundberg that's right...you're a Jay-Z guy. Our impressionable years Premier was synonymous w/ NaS. #Ether,0,0,0,False
234,SpeculatingStocks: Public Companies Raise Funds!@specstockscom,"Get your say in on $ETH at SpeculatingStocks, the discovery engine. http://speculatingstocks.com/pulse/stock/ETH #stocks$ETH Up-to-the-Minute Social Network PageStream of posts, sentiment, stats and data solely dedicated to $ETH (Ethan Allen Interiors Inc.) on SpeculatingStocks Pulse -- The Discovery Engine for Stocks.speculatingstocks.com",0,0,0,False
235,FailCommunity@FAILCommunity,More than 74k #BTC volume on @Poloniex! Record? #Bitcoin #Ethereum #fintech,0,0,0,False
237,Mr Marubozu Risin'@MrMarubozuRisin,"Today, my bets are on $MAID and $SC. #Poloniex 
I got out of $ETH at .0146",0,0,0,False
238,John Lilic ₿ Ξ ∞@JohnLilic,Replying to @jessicasier@jessicasier possibly fair to think of #bitcoin as a pocket calculator and #ethereum as a laptop computer #smartcontract #platform,2,0,0,False
239,ajlopez@ajlopez,Vitalik Buterin explains #Ethereum https://youtube.com/watch?v=TDGq4aeevgY…,1,0,0,False
240,votesapp@votesapp,@classygustav teases #ethereum #homestead release at the #berlin #blockchain meetup. uh-oh!,1,0,0,False
241,Sillytuna (hiring devs) @sillytuna,#ethereum foundation has several years funding and corporate sponsorships arriving. Meanwhile bitcoin in-fights https://reddit.com/r/ethereum/comments/45bhus/so_the_ethereum_foundation_can_now_fund_itself/czwpr04…,0,0,0,False
243,₿TCKYLE@BTCKYLE,$ETH/$BTC - $FCT/$LTC - Watching #Factom closely - $ETH $MAID,1,0,0,False
244,Ethereum SE@StackEthereum,How to offer free DApps for users without any barriers? http://bit.ly/1RvpIZi #ethereum,0,0,0,False
245,Ethereum SE@StackEthereum,How to add a node to the Ethereum Network Status page? http://bit.ly/1RvpGAA #ethereum,0,0,0,False
246,Fox_Trading@Fox_Trading93,"Is it making 'The candle' or not yet ? https://tradingview.com/x/pVezfdli/
#ETH #Greed",0,0,0,False
247,DYOR@ethereum92,"Bitcoin hard fork conspiracy treacherous #bitcoin futur is unpredictable #ethereumBitcoin hard fork conspiracy treacherousDaniel Friedberg, a principal at law firm of Riddell Williams PS in Seattle, considers the legal implications of a hard fork.ibtimes.co.uk",1,0,0,False
248,Patrizio Stavola@halovast,Ethereum(J): the library that can be embedded in any Java/Scala project to full support #Ethereum protocol http://ethereumj.io/blog/2016/02/11/release-1-1-0/… #bitcoin,0,0,0,False
251,votesapp@votesapp,Who could pay the user's fees for #voting on the #blockchain? http://ethereum.stackexchange.com/q/1283/87 #ethereum,2,3,0,False
254,Ethereum UAE@Ethereum_UAE,Budapest Taxi Drivers Now Accept Bitcoin Payments Through COinPAY http://ift.tt/20rZJSJ #Ethereum,0,0,0,False
255,Ethereum UAE@Ethereum_UAE,Ethereum Foundation Appoints ​Dr. Christian ​Reitwiessner to C++ Team Leader http://ift.tt/20Ptxyo #Ethereum,0,0,0,False
256,Chaz Sterling Jaco@HearWithEar,I just won free 0.00003200 ETHER from  http://etherfaucet.org #ether #satoshi #freeether #faucet via @etherfaucet,0,0,0,False
257,John Lasschuit@kwalitisme,"#Ethereum is winning in both Enterprise & Consumer markets 
@DailyFintech http://buff.ly/1SCbTJR",0,0,0,False
261,Alexander Maier@maaailex,“Unpacking the term ‘Smart Contract’” by @ConsenSysLLC #blockchain #ethereum https://medium.com/@ConsenSys/unpacking-the-term-smart-contract-dc8ac8afc0ef…,3,0,0,False
262,Aaron R. Temple@ART_UglyFace,"Replying to @kevin_uglyface@kevin_uglyface Excited 2 be part of @freemyvunk's movement, looking forward to growing the #ethereum community #reVUNKolution",3,0,0,False
263,ethereum.network@EthereumNetw,"Replying to @EthereumNetwBetter use an open #blockchain like #Bitcoin or #Ethereum
Nothing learned from @AOL or @IBM's own proprietary networkng system?
@Hyperledger",4,1,0,False
264,UGLYFACE@kevin_uglyface,"Excited to be part of @freemyvunk's movement, looking forward to growing the #ethereum community #reVUNKolution @ART_UglyFace",2,1,1,False
266,TenaciousC@T3naciousC,"On Oct 1st, 2015 $ETH was around 0.0031 BTC.. and  $REP 0.00245 BTC... looking forward to see how high @AugurProject is gonna fly!",2,0,0,False
268,Severin @severinulrich1,List of Ether #ETH App Developments http://buff.ly/1nWuDpY,0,0,0,False
269,Bitcoin Is The KING @EthereumPredict,Retrace in progress ! The #ethereum is going back to 1600 satoshis !,1,0,0,False
270,NEWSBTC@newsbtc,"#Bitcoin rival #Ethereum has breached the $350 million dollar market capEthereum Price Rise being led by Bitcoin FlightEthereum has been the ""wonder"" of the crypto currency world for a second week in a row. As the Bitcoin blocksize debate has caused disunity and discordnewsbtc.com",1,2,0,False
275,Bitcoin Is The KING @EthereumPredict,The #ethereum is quite unstable now. Maybe consolidation around 1400~1500 satoshis !,0,0,0,False
276,Bob Summerwill@BobSummerwill,"Recent Ether price run-up has put @ethereumproject in a much healthier financial state.   Hurrah!
V says: https://reddit.com/r/ethereum/comments/45bhus/so_the_ethereum_foundation_can_now_fund_itself/czwpr04…
#ethereum",2,0,0,False
277,Gary Spence@GarySpence_HSC,"Well its #FF another busy week we've produced 2 #Whitepapers on #Ethereum #Supplychain and #7pl, hows your week been?",1,1,0,False
278,Dario UTXO @DarioUTXO,"Can someone ELI50 please the rise value ... #eth can be created **at will** for little marginal cost, no ??Quote TweetBrave New Coin@bravenewcoin · Feb 12, 2016#Ethereum ETH price now is USD $$6.67 up 44.82% over 24hrs http://ow.ly/YeMZL",0,0,0,False
279,ethereum.network@EthereumNetw,"Open source, decentralized crowd funding platform on #Ethereum, @WeiFund, is coming along nicely.Quote TweetWeiFund@WeiFund · Feb 12, 2016We have a soft-launch due soon. Check the repo for beta contract =D https://twitter.com/itsnotan3rror/status/693041780187664384…",4,1,0,False
280,Bitcoin Is The KING @EthereumPredict,There is great volumes on buy now ! Things go fast in the #ethereum world ! #ether,1,0,0,False
281,Julia Edling@bitcointonic,#Ethereum #SKYROCKETS: Now #2 Cryptocurrency Behind #Bitcoin: #Ethereum cofounder #Taylor… http://dlvr.it/KTqYHV,0,0,0,False
282,Bitcoin Is The KING @EthereumPredict,"The fall seems to be over, a new rallye might begin #ethereum #ether",0,0,0,False
284,TenaciousC@T3naciousC,Let's see if those $ETH profits are gonna fuel some more crazy alt pumps,2,0,0,False
286,TenaciousC@T3naciousC,$ETH going down faster than it could climb... just while poloniex is having troubles... coincidence?,1,0,0,False
287,indxio@indxio,#China Market Close || #Bitcoin: $380.86 | 360.97 EUR||  #Litecoin: 0.008 BTC  || #Ethereum: 0.0138 BTC   || $BTC $LTC $ETH $RMB,0,0,0,False
288,Bitcoin Is The KING @EthereumPredict,"Decentralized money but centralized market #ethereum #ether
#Poloniex and #kraken seem to be under DDoS :/",1,0,0,False
290,Bitcoin Is The KING @EthereumPredict,Poloniex having trouble.. Maybe a DDoS to limit the fall of the #ether #ethereum,0,0,0,False
291,DNA@ETH6A,@Poloniex can I get a refund for lost funds the servers have failed us #ethereum #altcoin #btc,1,0,0,False
292,Bitcoin Is The KING @EthereumPredict,"Replying to @MennoPP@MennoPP #ether is the same as bitcoin for the moment as we don't have PoS. Well, there is the Dapp favour but it didn't make any proof atm",1,1,0,False
293,Menno Pietersen@MennoPP,Replying to @EthereumPredict@EthereumPredict might be a bubble like #bitcoin but that went to $1000+ and is now $370+ #eth might do same #ethereum,1,0,0,False
299,Menno Pietersen@MennoPP,"Replying to @EthereumPredict@EthereumPredict LOL just watched your tweets, you are predicting a drop since the push started every few hours... #eth #Ethereum",0,0,0,False
300,Menno Pietersen@MennoPP,Replying to @EthereumPredict@EthereumPredict why so bearish? I see no reason yet to think it will crash more then 3.5 euro #eth #ethereum. Al lot of good news coming,1,0,0,False
301,Bob Summerwill@BobSummerwill,"Fantastic!   Any plans for Ether cards?   Please say ""yes, it's planned""!
@diiorioanthony @DECENTRALca #ethereumQuote TweetAnthony Di Iorio@diiorioanthony · Feb 11, 2016@DECENTRALca to Launch #bitcoin Cards at Retailers Nationwide http://marketwired.com/press-release/decentral-to-launch-bitcoin-cards-at-retailers-nationwide-2095929.htm…",1,1,1,False
302,Patrizio Stavola@halovast,"Replying to @jamie247@jamie247 #ethereum execution fee for every operation is ""gas"".logic behind is to make the rapid change in #ether price less impacting...",0,0,0,False
303,m2ie@m2ie_conseil,“The #Ethereum Wallet: An Introduction for Non-Devs” by @thegrifft https://blog.slock.it/the-ethereum-wallet-an-introduction-for-non-devs-9c530f75c018#.c05suvzg6…,0,0,0,False
304,Bitcoin Is The KING @EthereumPredict,Europeans are going to wake up and sell their #ethereum #ether,2,0,0,False
306,Ethereum SE@StackEthereum,How can the global registrar be called from a contract? http://tinyurl.com/zqhup7q #ethereum,0,0,0,False
307,Bitcoin Is The KING @EthereumPredict,High volumes right now ! Watch & care ! #ethereum #ether,0,0,0,False
309,Menno Pietersen@MennoPP,"Little lower price for #ethereum #eth still on the way up, the push is not over people! Don't panic sell and hold!",0,0,0,False
310,Digiconomist@DigiEconomist,Replying to @DigiEconomist@donaldmcintyre_ @NickSzabo4 Personally not too impressed. If #ETH manages to realize just some of is potential then $500m is still a joke.,0,0,0,False
312,Bitcoin Is The KING @EthereumPredict,Here is the roadmap for the price of #ethereum ! Target : ~ 1100 satoshis #ether,0,0,0,False
313,Bitcoin Is The KING @EthereumPredict,The fall is slow but it should accelerate as ppl are going to begin to panic sell #ethereum #ether,0,0,0,False
314,Bitcoin@bitcoinpoet,what if ETHER market cap reach $3b? how much is each ether worth in usd?:       submitted by    /u/m... http://bit.ly/1Sl13ra #ethereumwhat if ETHER market cap reach $3b? how much is each ether worth...reddit.com,2,0,0,False
315,Bitcoin@bitcoinpoet,Olympic testnet: Is there anybody still on Olympic? I'm trying to sync but it's still waiting after ... http://bit.ly/1Sl15iM #ethereumOlympic testnetIs there anybody still on Olympic? I'm trying to sync but it's still waiting after 20 minutes.reddit.com,0,0,0,False
316,Bitcoin Is The KING @EthereumPredict,Kraken is following this fall too ! #kraken #ethereum #ether,0,0,0,False
317,Alunaut   @onemanatatime,"Replying to @onemanatatimePump season's here. Got ur bags rdy yet? #altsareback
$VNL $XMR $DGB $VRC $DOGE $BLK $ETH $MAID $DCR $START $DOGED",14,2,2,False
318,Alunaut   @onemanatatime,Replying to @onemanatatimeWhen does the $ETH pump end?Peaked at 0.017825%Few more days upside29.2%Few more wks upside10.4%Never!35.4%48 votes·Final results,2,0,0,False
319,Dee Lew @DeeLew80,My nigga Nas about to touch that billion before Jay? #Ether,0,0,0,False
320,Flameo Hotman @3castILLo3_,Some me n eds rn would be #ether,0,0,0,False
321,Bitcoin Is The KING @EthereumPredict,"#ethereum is going down, fractal situation. #kraken is up again (right now!)",0,0,0,False
322,EtherFire@TheEtherFire,Hot coins today Friday 2-12-16 #ETH #EXP #SC,1,0,0,False
323,YOᗪI ᕼEᖇᗰᗩᗯᗩᑎ@YodiHermawan,#Ethereum Foundation Appoints ​Dr. Christian ​Reitwiessner to #C++ Team Leader: Zug… http://goo.gl/fb/VeR1FD #vk,0,0,0,False
324,Раб Божий@Diener_Gottes,#Ethereum Foundation Appoints ​Dr. Christian ​Reitwiessner to #C++ Team Leader: Zug… http://goo.gl/fb/dfP5xn,0,0,0,False
325,Bitcoin Is The KING @EthereumPredict,#kraken is down.. And the #ethereum goes down ! Awww.,0,0,0,False
326,Bitcoin Is The KING @EthereumPredict,"Oh well. It is not. #Ethereum #ether
But this little drop might be just a first signal",0,0,0,False
327,Bitcoin Is The KING @EthereumPredict,"The DROP is real and HARD ! #Ethereum #ether 
SELL !!",0,0,0,False
328,ethereum.network@EthereumNetw,"Thanks to the price rise and maybe some sponsorship, the #Ethereum foundation can now advance much quicker.So the Ethereum foundation can now fund itself for 7 years vs 1...Posted in r/ethereum by u/sjalq • 66 points and 71 commentsreddit.com",3,1,0,False
329,BitcoinAgile@bitcoinagile,Global Crypto Currency Market 2016-2020 #ether #ethereum http://finyear.com/Global-Crypto-Currency-Market-2016-2020_a35372.html…,0,0,0,False
330,DYOR@ethereum92,Global Crypto Currency Market 2016-2020 #ether #ethereum ?? http://finyear.com/Global-Crypto-Currency-Market-2016-2020_a35372.html…,0,0,0,False
331,Ξ Fly Guy Ξ (flyguy.eth)@FlyGuyInTheSky,Replying to @EthereumPredict@EthereumPredict Yes that's when it gets dangerous. The idea is great but like all coin...Fear will take over in the end. #ethereum #bitcoin,2,0,0,False
332,SimkoMiner@SimkoMiner,"Replying to @SimkoMiner@SimkoMiner So I assume when whales dump #ETH, #EXP and other #Altcoin crap they will pump #BTC one more time to execute final exit in #FIAT",0,0,0,False
335,Forest Willie Mctell@forwilliemctell,@d_seaman #ethereum hits half a billion dollar market cap!! #ether #eth,0,0,0,False
336,Bitcoin Is The KING @EthereumPredict,Hard to tell the trends of #ethereum.. We all know that the price is fucking high. But it seems unstoppable..,2,0,0,False
337,Ξ Fly Guy Ξ (flyguy.eth)@FlyGuyInTheSky,#bitcoin #ethereum #ripple Ether is learning to fly.... Let's just hope it doesn't fly into a pane of glass... Caution is needed I think.,2,0,0,False
338,Ξ Fly Guy Ξ (flyguy.eth)@FlyGuyInTheSky,#Bitcoin #ethereum #xrp #ripple Ether volume now 39% of Bitcoin ... Not long ago it was 6% Is a bubble about to pop?,1,2,0,False
339,Ξ Fly Guy Ξ (flyguy.eth)@FlyGuyInTheSky,#bitcoin #ether #ethereum Ether  has exploded over the last week or so market cap $500m How long can rise last?,0,0,0,False
340,[sellsunder1mmprohib]CryptoHolmes@CryptoHolmes,"$MAID gone up, looks good pre MVP. Obv $exp & $eth nuts today and past days (watching). Waiting on $Rads to @Poloniex if they'll have it.",1,1,0,False
341,OG Blockchain Proof Of ^\_(ツ)_/^ Protocol@OGblockchain,What's missing from the discussion on smart contracts? #blockchain #bitcoin #ethereum http://ericdixonlaw.com/2014/06/bitcoin-smart-contracts-redefining.html… $GAHC,0,0,0,False
343,Kimberly Dray@kymdray,"On the #Space-#Vortex #Structure
of the #Electron http://tewari.org/Theory_Papers/Tewari-Final%20Proof.pdf…
#fluidity #blackholes #ether",0,0,0,False
344,JJV@Vielshanko,Kissinger moment of the debate for me.  #ether,0,0,0,False
