,user,text,likes,retweets,replies,is_thread
0,TanNoisEr-IT@fcwitness,"WAHT ETHEREUM IS #Freedom #CyberSecurity 
What really #ethereum is?",1,3,2,False
1,Richard Foley@rw227,#Blockchain #Startup #Chronicled Launches #Ethereum #IoT #Registry http://bit.ly/2bFEsXr via @CoinDesk #fintech #infosec #DLT #crypto,5,4,0,False
2,"have fun, jmo@hfjm",#Ethereum Classic Fundamentals http://j.mp/2fTwEDM,11,6,0,False
3,Anjani L@anjani332,"The winners of the first #ARK #sweepstakes are: 
 http://ln.is/bK3yo $ARK $LSK $ETH $BTC... by #LeonidPetrov5 via @c0nvey",1,0,0,False
4,SingularDTV@SingularDTV,"Blockchain - 
The next big disruptive force in #media
@Forbes
#Blockchain #Ethereum #fintech #Decentralization
http://bit.ly/2fs2eW6",14,11,0,False
5,Timo Nurminiemi@TimoNurminiemi,#Ethereum Bug Sends #SmartContracts Back to the Drawing Board | #fintech #blockchain http://bit.ly/2e3pKeE via @CoinDeskEthereum Bug Sends Smart Contracts Back to the Drawing Board - CoinDeskA small Solidity bug has stirred a big debate among ethereum developers.coindesk.com,2,0,0,False
6,Λnorak@AnorakTech,#zcash dropping under $250 today? Painful pricedrop! Who is switching to ETH again? #ethereum #blockchain #cryptocurrency #Mining,2,1,2,False
7,BlackLine Advisory@Blackline_Adv,"Are ICOs subject to regulation?  Likely, yes.  http://blacklineadvisorygroup.com/news-item-icos-cloud-based-but-likely-grounded-in-regulations.html… #cryptocurrency #ethereum #Zcash #bitcoin",1,1,2,False
8,Churchill Safaris@churchilsafaris,"That #Excitement you can't #hide;
Hahaha!
#Ether Red
#Bwindi National Park
Travel with #ChurchillSafaris",2,1,0,False
9,OKorator@OKcashOrator,What is #OkCash? An #OkCash Review http://cryptolix.com/what-is-okcash-an-okcash-review/… #bitcoin #cryptocurrency #zec #doge #ltc #eth,1,1,0,False
10,Wim Tobback@wimtobback,"Event - #Blockchain in Practice @itworks https://medium.com/wearetheledger/event-blockchain-in-practice-itworks-4b48b87094a7#.tthzhgy6w… #betech #fintech #ethereum @wearetheledger @craftworkz @cronosgroepEvent - Blockchain in Practice — ITWORKSThe 24th of November, ITWorks will host a seminar about “Blockchain in Practice”. Craftworkz (Sam Hendrickx) & TheLedger (Thomas Marckx)…medium.com",3,1,0,False
11,Tommy@chasyrceo,That time @TheChainsmokers used @ArcadeCityHall  #ethereum #Mainstream #pimping,15,7,0,False
12,Ethereum Canada@EthereumCanada,#Ethereum-based gambling platform @vDice_io to launch ICO on Nov. 15: http://ow.ly/epFG305WhHS #blockchain #eth,3,0,0,False
13,OpenLedger@OpenLedgerDEX,"#ethereum Classic Price Technical Analysis
http://newsbtc.com/2016/11/07/ethereum-classic-price-technical-analysis-etc-recovery-initiated…
#ETH #Crypto #cryptocurrency #OpenLedgerEthereum Classic Price Analysis – ETC Recovery InitiatedEthereum classic price started moving higher against the Bitcoin to trade as high as 0.00145BTC before starting a correction.newsbtc.com",4,5,0,False
14,Douglas Mbura@mburadouglas,"Earn #bitcoin by playing this game a few minutes: https://play.google.com/store/apps/details?id=com.bombevo.gumstreetgames…
#indiedev #blockchain #btc #ethereum #indiegame #androiddev",1,1,0,False
15,kumala dewi@KumalaD93,"#ARK-TEC participants!

Lisk Community Wallet: http://ln.is/uxVg9 $ARK $LSK $ETH $BTC #altcoins... by #LeonidPetrov5 via @c0nvey",2,0,0,False
16,Aisyah Aila Varisha@aisyahailava,"The winners of the first #ARK #sweepstakes are: 
 http://ln.is/UPcta $ARK $LSK $ETH $BTC... by #LeonidPetrov5 via @c0nvey",1,0,0,False
17,amanda khan@amandakhan20134,"Smith + Crown about #ARK
http://ln.is/18jfO $ARK $LSK $ETH $BTC #altcoins #fintech #crowdfund... by #LeonidPetrov5 via @c0nvey",3,1,0,False
18,Cointelegraph@Cointelegraph,"#Blockchain Startup @Synereo Threatens Monopoly of #Ethereum as Major #DApps Host https://cointelegraph.com/news/blockchain-startup-synereo-threatens-monopoly-of-ethereum-as-major-dapps-host… - By @iykearuBlockchain Startup Synereo Threatens Monopoly of Ethereum as Major DApps HostBlockchain startup, Synereo, has initiated an attempt to break the monopoly of Ethereum as the only major platform that hosts distributed applications.cointelegraph.com",13,20,0,False
19,Netcube93@Netcube93,This looks awesome!  https://factom.com/blog/factom-launches-federated-testnet… #Factom #Bitcoin #Blockchain #Ethereum,7,5,0,False
20,Bloq@bloqinc,Bloq is looking for some great #blockchain engineers who love to code. https://angel.co/bloqinc/jobs/186605-blockchain-engineer… #bitcoin #ethereum,17,21,4,False
21,ipfconline@ipfconline1,[video] #Blockchain Keynote at @CloudExpo | #IoT #M2M #Bitcoin #Ethereum | Things Expo http://buff.ly/2dJfnLe,19,20,0,False
22,jiaimo@jiaimo7374629,How can the #blockchain be used to power #OnlineGaming? Watch it here. by @ConsenSysLLC https://medium.com/consensys-media/how-can-the-blockchain-be-used-to-power-online-gaming-watch-it-here-91e7a122b094#.9848oh9wp… #ethereum,1,2,0,False
23,ShaneO@Shanes937,There will never be a more special team. #ETH @OEHSfootball,53,29,0,False
24,Churilov Ruslan@rus23kav,ARK-TEC soon! $ARK $LSK $ETH $BTC #altcoin #Bitcoin #fintech #crowdfund #ICO #blockchain #investors,11,10,0,False
25,Safwan Zaheer@safwanzaheer,"Microsoft places a big bet on #Ethereum
#FinTech #KPMGFinTech https://lnkd.in/dq3Ytgp",3,2,2,False
26,NEM@NEMofficial,"Chronobank.io is working on developing a Blockchain-based financial system #Bitcoin, #Ethereum and #NEM Blockchains http://bit.ly/2fV4JU4",23,18,1,False
27,Netcube93@Netcube93,FXTM’s London General Manager Demetrios Zamboglou becomes senior executive at #Lykke http://financefeeds.com/breaking-news-fxtms-london-general-manager-demetrios-zamboglou-leaves-company-becomes-senior-executive-lykke-switzerland/… #bitcoin #blockchain #ethereum,4,2,0,False
28,"have fun, jmo@hfjm",#Bitcoin & #Ethereum + 50 Digital Currencies Price Data Now Delivered to Major Global Markets http://j.mp/2eF9A9Y,9,5,0,False
29,Christopher David@ArcadeCityMayor,"I am honored to hand off my #ArcadeCity council seat to the very capable Bernd Lapp, the new mayor of Arcade City! @BrenntL #ethereum",23,23,0,False
30,ARK.io@ArkEcosystem,"#ARK-TEC !

FIRST MILLION $LSK exchanged in 1h 25m of ARK-TEC

$ARK $LSK $ETH $ETC #LISK #PR #Entrepreneur #socialmedia #success",20,15,0,False
31,euros@euros,"#ethereum + pool + beer.. there's only one place to get all three in London: https://meetup.com/N-O-M-A-N-London/events/235412052/… See you there!The HustleWed, Nov 16, 2016, 6:30 PM: This is our three-weekly London meetup at the coolest pool venue in London to ""hustle"" around blockchains, dapps, daos and more! We normally focus primarily on Ethereum becmeetup.com",5,4,1,False
32,PolyCrypto@Polycrypto,Blockchain startup #Synereo threatens monopoly of #ethereum as major #dapps host https://cointelegraph.com/news/blockchain-startup-synereo-threatens-monopoly-of-ethereum-as-major-dapps-host… #startup #blockchain @Cointelegraph,9,2,0,False
33,Crypto News Alerts@CryptoCoiners,Jaxx Announces Rootstock Integration at laBITconf - http://decentral.ca/jaxx-announces-rootstock-integration-at-labitconf-2/… via @DECENTRALca #bitcoin #ethereum #fintech,4,2,0,False
34,Vic Arulchandran@VicArulchandran,“What does Zcash mean for Ethereum?” @ConsenSysLLC #blockchain #zcash #ethereum http://ow.ly/3EKp100oeBK,1,0,0,False
35,Christian Seberino@c_seberino,National Association of Realtors Release Study on Bitcoin’s Applicability in Real Estate http://buff.ly/2e8R37k #etc #eth #ethereumclassic,3,5,0,False
36,Elena Litani @elenalitani,Synechron applied #blockchain to address complex claim & contract management for insurers:  http://businesswire.com/news/home/20161107005309/en/Synechron-Wins-ACORD-Innovation-Awards-Blockchain-Micro-Insurance… #insurtech #ethereum,6,6,2,False
37,STΞFAAN PONNΞT@sponnet,http://arcade.city Token Sale already raised over 400K USD. Price now = 100 ARC/ETH. Increases in +/- 31 hours. #ridesharing #ethereum,4,2,0,False
38,FinTech Summary@FinTechSummary,Latest #FinTech Weekly Summary is out - http://bit.ly/2fdwUuB #ethereum #blockchain,2,1,0,False
39,Thomas Andersen@TAA33,"""Data to the people!"" says Prof. Ernst Hafen from #ETH Zürich presenting the Swiss #MIDATA project at #sciencematch",3,8,0,False
40,Numerati. Twetch#: @1033@MirakhorHassan,Saw that. Very weird. #ethereum https://twitter.com/benvh/status/795523612736425985…This Tweet is unavailable.,2,2,2,False
41,Revex@RevexCo,"Vote at http://Revex.co and help us pick our first 10 exchanges and 15 #cryptocurrencies
#altcoin
#bitcoin
#ethereum
#monero
#Zcash",2,3,0,False
42,Olivier Chapiteau@o_chapiteau,07Nov2016 18:00 UTC #Ethereum live spots - #Ether @ 10.95538 $ - #EtherClassic @ 0.97376 $,1,0,0,False
43,Peter Edmonds@PeterDEdmonds,"Replying to @borkarabhijeet @astrotweeps and @OmanReaganYes, no argument there!",1,0,0,False
44,Claudio Bruderer@cbruderer,our #ETH-colleague @NCaplar did a similar analysis: http://astrodataiscool.com/2015/04/our-daily-vox-charta/…,4,1,0,False
45,ARK.io@ArkEcosystem,"#ARK-TEC!

Lisk Community Wallet works fine: http://desktop.lisk-wallet.com
$ARK $LSK $ETH $BTC #altcoins #crypto #ICO #blockchain #investors",7,6,0,False
46,Arthur Falls@ArthurFalls,"The Ether Review #47 — Epic Infrastructure in China
#ethereum #blockchain #VentureCapitalThe Ether Review #47 — Epic Infrastructure in ChinaIn Brief Chinese multinational, Wanxiang Group, has purchased over 700 hectares of land on which to build a smart city where it plans to…etherreview.info",5,3,1,False
47,thebitcoinshark@thebitcoinshark,Mining Profitability of Zcash (ZEC) and Ethereum (ETH) Is Now Pretty Much the Same http://bit.ly/2faufTZ #GeneralInfo #CryptoCompare #ETH,1,1,2,False
48,jtnichol.eth@prodjkc,@chejazi @jrmoreau wonderful #blogpost application for #ethereum.  What a neat service! https://btcmanager.com/news/cameron-hejazi-moves-from-bitcoin-and-adtech-business-into-ethereum-and-blogging-with-credsign/#comment-2988673692…  Go Credsign. Great service!,2,1,0,False
49,CryptoNewswire @CryptoNewswire,Price Analysis: A Look at the Ethereum Charts - https://cryptocoinsnews.com/price-analysis-look-ethereum-charts/… $ETH #bitcoin #news #fintech,2,0,0,False
50,StockChain@StockChainClub,"We are on the level of support. #ETHBTC #Ethereum 
Unfortunately no news from #ETH team. We need impulse!",2,3,2,False
51,Karlsson@Karlsson_Roof,"New #ARK video of the Chinese #ARK community! THANKS!

 http://ln.is/FX6bl $ARK $LSK $ETH $BTC... by #ArkEcosystem via @c0nveyARK -A PLatform for Consumer Adoption官网OFFICAL:www.ark.ioBitcointalk:https://bitcointalk.org/index.php?topic=1651599.0推特:https://twitter.com/ArkEcosystemBitcointalk ID:ICONEWSqqqun:178695506youtube.com",4,1,0,False
52,Status@ethstatus,"Interested in #DApps, #Ethereum & #blockchain? Join our #Slack! Let's chat & shape the #crypto industry together: http://slack.status.im",6,4,2,False
53,Techemy@TechemyGroup,#Blockchain #Startup @Synereo  Threatens Monopoly of #Ethereum as Major DApps Host http://ow.ly/oT9b305WNB3,3,3,0,False
54,Ethereum Monkey@EthMonkey,Decentralised Gambling Platform vDice to Launch ICO on November 15th #ethereum http://newsbtc.com/2016/11/07/decentralised-gambling-platform-vdice-to-start-ico-on-november-15th/…,1,2,0,False
55,Collin Crypto@CollinCrypto,The global hashrate of #Ethereum dropped 50% since the launch of #Zcash. $ETH $ETC $ZEC,19,13,6,False
56,NEWSBTC@newsbtc,Arcade City Taps Blockchain Technology to Create New-Age Uber http://ow.ly/BPjg305WEo1 #ethereum #killerapp #ridesharing #byeuber,17,12,0,False
57,ComiX DOUGOUT™@ComiXDOUGOUT,EXISTENTIALLY EERILY ETHEREAL!! #ETHER #1 BLOWS YOUR AWAY 11/16!! #DarkHorse @mattkindt @davidrubin @ComicsDougout https://darkhorse.com/Comics/30-559/Ether-1…,4,3,0,False
58,Omar Bham (Crypt0)@crypt0snews,"https://youtu.be/IPe_zo75lAY #Zcash  Mining is soon to be unprofitable...what next? #ethereum #mining #rig #crypto #bitcoin #blockchain #goldEp. #161- Zcash Mining Soon To Be Unprofitable / Rootstock For Bitcoin 𝙏𝙝𝙖𝙣𝙠 𝙔𝙤𝙪 𝙁𝙤𝙧 𝙒𝙖𝙩𝙘𝙝𝙞𝙣𝙜!  Remember to subscribe and hit the bell """" icon, so you don't miss your daily cryptocurrency news!-~-~~-~~~...youtube.com",1,1,0,False
59,Pontus Lindblom@ponli137,"Buy #Bitcoin vs #Ethereum vs #Litecoin - Google trends Worldwide - 2004 to todayQuote TweetDennis Parker@Xentagz · Nov 7, 2016This >> https://google.fr/trends/explore?date=all&q=buy%20bitcoin,buy%20ethereum,buy%20litecoin…",1,1,0,False
60,Spotlights3.0@Spotlights3_0,#Blockchain Startup @Synereo Threatens Monopoly of #Ethereum as Major #DApps Host https://cointelegraph.com/news/blockchain-startup-synereo-threatens-monopoly-of-ethereum-as-major-dapps-host… -,2,0,0,False
61,Dmitry ButΞrin@BlockGeekDima,What is the difference between #Bitcoin and #Ethereum? -  http://buff.ly/2eEOd8Q #blockchain,2,2,1,False
62,BitcoinAgile@bitcoinagile,Arcade City Taps #blockchain Technology to Create New-Age Uber #ethereum #bitcoin #uber http://bit.ly/2fhQmWo,8,7,0,False
63,Yacine Teraï@startupyacine,"Follow #rootstock an exciting startup among our portfolio, building a sidechain w/ #Ethereum capabilities & #Bitcoin's security&transparencyQuote TweetCoinsilium@CoinsiliumGroup · Nov 7, 2016Our investee co @RSKsmart is in the press with smart contracts platform with support for iPhone & iPad http://ibtimes.co.uk/blockchain-wallet-jaxx-integrates-rootstock-rsk-1590143…",2,2,2,False
64,Dr Tayo Abinusawa@tabinusawa,"@IBM, @Microsoft & @Deloitte are leading the #Blockchain as a Service revolution - #baas #fintech #IOT #Ethereum #rubix #bluemixQuote TweetMEDICI Global@gomedici · Nov 7, 20163 Companies Leading the #Blockchain as a Service (BaaS) Revolution http://buff.ly/2eHSFRM",2,3,0,False
65,Simon de la Rouviere @simondlr,"Last time this year, I set off to London for #devcon1. What a great conference & what a crazy year it's been since then. #ethereum",10,1,0,False
66,₿TCKYLE@BTCKYLE,Got a new video coming up. Some lessons learned and coins im looking at $WAVES $START $ETC $ETH $REP $ZEC,13,5,1,False
67,STΞFAAN PONNΞT@sponnet,"Chris David steps down from the #ArcadeCity project, giving devs, swarm, leadership room to grow. #ethereum #decentralisation #respectQuote TweetChristopher David@ArcadeCityMayor · Nov 7, 2016I am honored to hand off my #ArcadeCity council seat to the very capable Bernd Lapp, the new mayor of Arcade City! @BrenntL #ethereum",6,3,0,False
72,a5ym4e@a5ym4e,#Ethereum monopoly as #DApps host threatened http://bit.ly/2eGL60n @Cointelegraph @Synereo @ethereumproject @Elokane @Assesauga #Rholang,2,1,0,False
73,Chevdor@chevdor,"With love to @metamask_io and the #Mist #ethereum browser. Award of awesomeness to #Parity from @ethcoreproject. @gavofyork your team rocks.Quote TweetTobias Latzke@TbLtzk · Nov 7, 2016@chevdor presenting his brandnew dapp on #etherium @blockchainCGN @STARTPLATZ",10,7,1,False
74,Bitcoin Sportsbook @SportsbookBTC,Arcade City Taps Blockchain Technology to Create New-Age Uber #ethereum #killerapp… https://twitter.com/i/web/status/795723192254038020… http://dlvr.it/McT7dP,5,2,0,False
75,BitcoinAgile@bitcoinagile,#blockchain Startup Synereo Threatens Monopoly of #ethereum as Major DApps Host - #bitcoin http://bitcoin.xyz/blockchain-startup-synereo-threatens-monopoly-ethereum-major-dapps-host…,2,2,0,False
80,CryptKeeper@CryptKeeperBTT,#Blockchain Startup #Synereo Threatens Monopoly of #Ethereum as Major DApps Host https://cointelegraph.com/news/blockchain-startup-synereo-threatens-monopoly-of-ethereum-as-major-dapps-host… via @Cointelegraph #ether $ETH $AMP,1,0,0,False
81,Timo Ξberhard@ZhuBajie72,Arcade City Taps [#Ethereum] #Blockchain Technology to Create New-Age #UberArcade City Taps Blockchain Technology to Create New-Age UberArcade City is a blockchain-based ride sharing and car for hire application created by Christopher David.newsbtc.com,4,2,0,False
87,Foxes Den@foxesden34,Blockchain Startup Synereo Threatens Monopoly of Ethereum as Major DApps Host https://cointelegraph.com/news/blockchain-startup-synereo-threatens-monopoly-of-ethereum-as-major-dapps-host… #ethereum,2,1,0,False
89,TRESORIO@TresorioCloud,PRESALE : 200 dedicated servers. Remote control our AMD GPU rigs! http://mining.tresorio.com #CloudComputing #rx480 #Zcash #ethereum #Mining,1,2,1,False
91,Comic Box@comicbox,The latest Comic Box - Comics News Round-Up! http://paper.li/comicbox/1339615623?edition_id=5260a9b0-a542-11e6-a676-0cc47a0d15fd… #ether #westworld,0,0,0,False
92,Ethereum SE@StackEthereum,Block time and block size in Eris http://ethereum.stackexchange.com/questions/9888/block-time-and-block-size-in-eris… #ethereum #proofofstake #erisindustries,1,2,0,False
95,Alberto Jauregui | esoteRICK.eth @DisruptBanksy,http://ift.tt/2fwGTgZ Price Analysis: A Look at the Ethereum Charts - CryptoCoinsNews #ethereum #ether,1,1,0,False
96,Blockgeeks@Blockgks,How To Invest in a #Blockchain #Startup. http://buff.ly/2eENdBO #bitcoin #ethereum,2,1,0,False
98,Blockgeeks@Blockgks,Check it out! Beginners guide to #Blockchain http://buff.ly/2dvhaDX #bitcoin #ethereum #startup,3,2,0,False
99,Coinstats@coinstats,"Ethereum Classic - ETC
Price: $0.955488
Change in 1h: +-0.15%
Market cap: $81830770.0
Ranking: 5
#Ethereum Classic #ETC",0,0,0,False
100,Bobe'bot@Bobe_bot,"1 #BTC = 698.4181 #CHF
1 #ETH = 11.0381 #CHF
1 #DOGE = 0.000240152351 #CHF
sources: @cryptonatorcom @hellobity",0,0,0,False
101,Coinstats@coinstats,"Ethereum - ETH
Price: $10.8368
Change in 1h: +-0.19%
Market cap: $929146922.0
Ranking: 2
#Ethereum #ETH",0,0,0,False
102,ARK.io@ArkEcosystem,"#ARK-TEC !

SECOND MILLION $LSK exchanged in 4 hours of ARK-TEC - THANKS!

$ARK $LSK $ETH $ETC #LISK #PR #socialmedia #success #startup",36,26,0,False
103,Blockgeeks@Blockgks,Besides #Ethereum: How Many #Blockchains Are There? [Guide] http://buff.ly/2evsNIa,1,1,0,False
104,Legal Bit@Legalbitcoins,"Still earning faithfully on our Ethereum investment at Ethtrade --> http://bit.ly/2f58aYI
#bitcoin #ethereum #hyip",1,2,1,False
105,Timo Ξberhard@ZhuBajie72,"@cryptowat_ch broken or #crypto #prophecy(?)>>>
#Bitcoin #Hacked #Ponzi #Ethereum #NewParadigm",1,0,0,False
106,Chevdor@chevdor,"@jacogr @rphmeier This one is for you and the amazing work you put into Parity. #thumbsup #ethereum #blockchainQuote TweetChevdor@chevdor · Nov 7, 2016With love to @metamask_io and the #Mist #ethereum browser. Award of awesomeness to #Parity from @ethcoreproject. @gavofyork your team rocks. https://twitter.com/TbLtzk/status/795714837674422274…",2,0,0,False
108,Chevdor@chevdor,Replying to @TbLtzk @blockchainCGN and @STARTPLATZYou mean #ethereum #blockchain ;),1,0,0,False
109,#SmartEthereum@SmartEthereum,#Bitcoin or #Ether? #College Teams Compete in $10k #Crypto #Investment Contest https://twitter.com/bitcoinwrld/status/795755377618984960…This Tweet is unavailable.,1,0,0,False
111,Ethereum SE@StackEthereum,Updating contract http://ethereum.stackexchange.com/questions/9886/updating-contract… #ethereum #solidity #contractdevelopment #contractdesign,1,1,0,False
112,Nick Ayton@NickAyton,Replying to @pbucquetHe is right <50% if done properly @pbucquet @efc_global #blockchain #ethereum,2,2,0,False
113,Elson A.Rosa@ElsonAssisRosa,Free #Ethereum every 5 minutes https://cryptosource.net/free-ethereum/?r=LhyVCZMjuq… #Ethereum via @CryptoSourceHQ,0,0,0,False
114,Nick Ayton@NickAyton,Zero Knowledge is Genius What is Zcash All About? http://ln.is/futurism.com/aTy35… via @Futurism #Zcash #blockchain #ethereum,2,2,0,False
118,Christian Seberino@c_seberino,"Turkey Doubles Down On Censorship With Block On VPNs, Tor http://buff.ly/2fqkn7c #etc #eth #ethereumclassic #ethereum",3,1,0,False
120,Coinstats@coinstats,"Ethereum Classic - ETC
Price: $0.954367
Change in 1h: +-0.85%
Market cap: $81733535.0
Ranking: 5
#Ethereum Classic #ETC",0,0,0,False
121,Load Debit Card@LoadDebitCard,#Sepa to your local #Bank account using 40+ #Altcoins #Digibyte #DigixDao #Dogecoin #Emercoin #Ethereum http://bit.ly/cryptotobank,1,1,3,False
122,Coinstats@coinstats,"Ethereum - ETH
Price: $10.875
Change in 1h: +0.05%
Market cap: $932402934.0
Ranking: 2
#Ethereum #ETH",0,0,0,False
123,Ethereum SE@StackEthereum,"Synch stuck at block 2,306,843 with wallet 0.8.7 http://ethereum.stackexchange.com/questions/9883/synch-stuck-at-block-2-306-843-with-wallet-0-8-7… #ethereum #goethereum #wallets #network",1,1,0,False
124,Eugene Zavarzin@ADZ4BIZ,#ADZ and #Ethereum http://bit.ly/2exknjy have a big budget for securing evergreen growth,0,0,0,False
125,(((Per Lind)))@pclind1,"Way to go @bojansimic @HyprCorp #biometric #cybersecurity #fintech #banks #payment #blockchain #realtimepayment #bitcoin #EthereumQuote TweetHYPR@HyprCorp · Nov 7, 2016Congrats to Co-Founder CTO @bojansimic on being cited by the @ForbesTechCncl http://ow.ly/TKU0305WPuK | #CTO #CISO #CINO",1,0,0,False
126,CryptoRTs +  = @CryptoRTs,"Chronobank.io is working on developing a Blockchain-based financial system #Bitcoin, #Ethereum and #NEM Blockchains http://bit.ly/2fV4JU4",0,0,0,False
127,Val@jamesvale2019,"Chronobank.io is working on developing a Blockchain-based financial system #Bitcoin, #Ethereum and #NEM Blockchains http://bit.ly/2fV4JU4",1,2,1,False
130,Timo Ξberhard@ZhuBajie72,"Just got banned again @tradingview for nothing. Stay tuned on here for updated #chART or contact ""khun"" on Skype. #Crypto #Bitcoin #Ethereum",2,1,0,False
131,Christof Claessens@xstof,"Nice. Why do people often write ""Ðapp"" instead of ""Dapp"" ? The ""cool"" D in Greek is called ""ETH"" #ethereumWhy do people often write ""Ðapp"" instead of ""Dapp"" ?Does the Ð have a different meaning than a simple D ? Or is it just to ""look cool"", like in ""Ξther"" ?reddit.com",1,1,1,False
132,Alexander Kuis@AndrewBruceFisk,I plan to have a look at #ethereum soon. https://ethereum.org Here is the main site for the technology. I need to study it. #blockchain,1,1,1,False
133,Load Debit Card@LoadDebitCard,#Swift to your local #Bank account using 40+ #Altcoins #Digibyte #DigixDao #Dogecoin #Emercoin #Ethereum http://bit.ly/cryptotobank,1,1,1,False
134,Faith Emmanuel@residualbitcoin,#blockchain Startup Synereo Threatens Monopoly of #ethereum as Major DApps Host - #bitcoin http://bitcoin.xyz/blockchain-startup-synereo-threatens-monopoly-ethereum-major-dapps-host… …,0,0,0,False
135,Veki@Veki551155,#blockchain Startup Synereo Threatens Monopoly of #ethereum as Major DApps Host - #bitcoin http://bitcoin.xyz/blockchain-startup-synereo-threatens-monopoly-ethereum-major-dapps-host…,0,0,0,False
136,Chokri AlGhanmi@GhanmiChokri,CoinMama gives you an option to buy #bitcoin and #Ethereum worldwide with credit card instantly.… https://instagram.com/p/BC01R_AO-AI/,2,1,1,False
139,Blockgeeks@Blockgks,What is the difference between #Bitcoin and #Ethereum? -  http://buff.ly/2eERDst #blockchain,1,1,0,False
141,Coinstats@coinstats,"Ethereum Classic - ETC
Price: $0.964392
Change in 1h: +-0.45%
Market cap: $82590820.0
Ranking: 5
#Ethereum Classic #ETC",0,0,0,False
142,Coinstats@coinstats,"Ethereum - ETH
Price: $10.8698
Change in 1h: +0.32%
Market cap: $931943007.0
Ranking: 2
#Ethereum #ETH",0,0,0,False
143,Ethereum Price@EthereumPrice_,"#Ethereum: Ether Price Index
1 ETH =0.015343Ƀ XBT = $10.908895 USD
Today: +0.81%⬆︎ Last 24h: -0.32%⬇︎
https://ethereum-price.com",1,2,0,False
145,Ethereum SE@StackEthereum,Is the solidity compiler deterministic? http://ethereum.stackexchange.com/questions/9881/is-the-solidity-compiler-deterministic… #ethereum #solidity #solc #compilation,1,2,0,False
146,Faith Emmanuel@residualbitcoin,Arcade City Taps #blockchain Technology to Create New-Age Uber #ethereum #bitcoin #uber http://bit.ly/2fhQmWo  #…,1,0,0,False
149,Crypto Trader Pro @CryptoTraderPro,Arcade City Taps Blockchain Technology to Create New-Age Uber #ethereum #killerapp… https://twitter.com/i/web/status/795723192254038020… http://dlvr.it/McT7Z5,1,1,0,False
151,Veki@Veki551155,Arcade City Taps #blockchain Technology to Create New-Age Uber #ethereum #bitcoin #uber http://bit.ly/2fhQmWo,1,0,0,False
152,Blockgeeks@Blockgks,How does #blockchain work? The ultimate guide  http://buff.ly/2dvhaDX #bitcoin #ethereum #startup,2,2,0,False
153,Coinstats@coinstats,"Ethereum Classic - ETC
Price: $0.971108
Change in 1h: +-0.01%
Market cap: $83164984.0
Ranking: 5
#Ethereum Classic #ETC",0,0,0,False
154,Coinstats@coinstats,"Ethereum - ETH
Price: $10.8283
Change in 1h: +-0.11%
Market cap: $928374957.0
Ranking: 2
#Ethereum #ETH",0,0,0,False
155,Ethereum SE@StackEthereum,Is the solidity compiler determinist? http://ethereum.stackexchange.com/questions/9881/is-the-solidity-compiler-determinist… #ethereum #solidity #compilation,1,2,0,False
156,Monkeys Fighting Robots • COMIC BOOK COMMENTARY@monkeys_robots,Monkeys Fighting Robots daily is out! http://paper.li/monkeys_robots/1426013597?edition_id=7c0532e0-a524-11e6-898d-002590a5ba2d… #ether #westworld,1,0,0,False
157,Ameer Rosic@AmeerRosic,Check it out! Beginners guide to #Blockchain http://buff.ly/2dvhaDX #bitcoin #ethereum #startup,3,4,0,False
158,Julia Edling@bitcointonic,"Startup Threatens #Ethereum Monopoly as Major Apps Host: #Blockchain startup, #Synereo, has initiated an attempt to… http://dlvr.it/McSdFj",1,1,0,False
159,Patrick Michael@patrickpresents,"""Helping Trump and Hillary with Blockchain Tech.""
https://medium.com/@patrickssucceeding/helping-trump-and-hillary-with-blockchain-tech-f37794e00456#.49d2ijmom…
#Election2016 #ElectionFinalThoughts #blockchain #ethereum #btc",1,0,0,False
160,Julia Edling@bitcointonic,"#TUTORIAL#BTC : Como converter #doge, #dash, bytecoin, #ethereum em bitcoin com o #changer: link for exchange of… http://dlvr.it/McSbk7",2,1,0,False
161,ARK.io@ArkEcosystem,"#ARK NEWS!

LSK transactions are currently delayed because of HEAVY LOAD on LISK network

$ARK $LSK $ETH $ETC #LISK #PR #investors #crypto",9,8,1,False
162,Alex Jiménez@RAlexJimenez,#Blockchain Startup @Synereo Threatens Monopoly of #Ethereum as Major DApps Host https://cointelegraph.com/news/blockchain-startup-synereo-threatens-monopoly-of-ethereum-as-major-dapps-host… via @Cointelegraph #fintech #in,1,0,0,False
163,Gaetano Manfredi@gamanfredi,"Mining CryptoCurrencies easily,quickly https://minergate.com/a/08e542bbb864efae96c5f8a5… and with no hassle you don't need to be an expert #bitcoin #ethereum",1,1,2,False
165,5thAngel@LionTellSecrets,just got some #ARK ...deposited some Lisk and it's confirmed. Don't forget to enable 2FA Wink #lsk #btc #eth,2,1,0,False
166,NaS [➞₿∎]@HiNasirDotcom,burning midnight oil... i'm so old... #devcon2 #ethereum #blockchain http://fb.me/2YcNr8Ygw,2,1,2,False
167,Cliff K Jordan@CKJordan15,"Earn up to $65,610 daily! join & get the benefits http://coinomia.com/prelaunch/biggest-binary-MLM-prelaunch.html?id=vivante… #coinomia #ethereum #cryptoguide #Bitcoins",0,0,0,False
168,DecentralizedCapital@Decen_Capital,DC is Bringing #BTC to #Ethereum; Changes to DVIP Sale http://bit.ly/2fhKY5u #Bitcoin #blockchain,2,1,0,False
169,Cliff K Jordan@CKJordan15,"Just got my 1st #bitcoins on #Coinbase! Buy $100, Get $10 https://coinbase.com/join/vivante #coinarmy #Bitcointalk #ethereum",0,0,0,False
172,Faith Emmanuel@residualbitcoin,Price Analysis: A Look at the #ethereum Charts http://xpr.me//news/price-analysis-look-ethereum-charts.html… #ResidualBitcoin,0,0,0,False
173,Veki@Veki551155,Price Analysis: A Look at the #ethereum Charts http://xpr.me//news/price-analysis-look-ethereum-charts.html…,0,0,0,False
174,Ameer Rosic@AmeerRosic,How does #blockchain work? The ultimate guide  http://buff.ly/2dvhaDX #bitcoin #ethereum #startup,4,1,0,False
175,BitcoinAgile@bitcoinagile,Price Analysis: A Look at the #ethereum Charts http://xpr.me//news/price-analysis-look-ethereum-charts.html…,1,2,0,False
176,starttanky@starttanky,#Ethereum Daily Chart correction is over soon #ethereumproject,1,1,0,False
177,ARK.io@ArkEcosystem,"#ARK-TEC started NOW!

$ARK $LSK $ETH $ETC #LISK #PR #Entrepreneur #socialmedia #success",61,110,4,False
178,Coinstats@coinstats,"Ethereum Classic - ETC
Price: $0.970799
Change in 1h: +-0.04%
Market cap: $83137236.0
Ranking: 5
#Ethereum Classic #ETC",0,0,0,False
179,Coinstats@coinstats,"Ethereum - ETH
Price: $10.825
Change in 1h: +-0.69%
Market cap: $928076049.0
Ranking: 2
#Ethereum #ETH",0,0,0,False
180,Tedy MD@bitcoinjapanese,"(Oct, 2011) HALLOWEEN http://vid.staged.com/L4tt #btcjapan #btcchina #ethereum.co.id",1,1,0,False
181,Ethereum Monkey@EthMonkey,BlockApps brings the power of Blockchain-as-a-Service to the Chinese market #ethereum http://siliconangle.com/blog/2016/11/07/blockapps-brings-the-power-of-blockchain-as-a-service-to-the-chinese-market/…,2,2,0,False
184,Blockgeeks@Blockgks,Great people deserve a great audience. http://blockgeeks.com #Blockchain #Ethereum #Bitcoin,1,1,0,False
185,Coinstats@coinstats,"Ethereum Classic - ETC
Price: $0.97083
Change in 1h: +-0.84%
Market cap: $83138178.0
Ranking: 5
#Ethereum Classic #ETC",0,0,0,False
186,Coinstats@coinstats,"Ethereum - ETH
Price: $10.9426
Change in 1h: +0.68%
Market cap: $938143063.0
Ranking: 2
#Ethereum #ETH",0,0,0,False
187,Ethereum Price@EthereumPrice_,"#Ethereum: Ether Price Index
1 ETH =0.015406Ƀ XBT = $10.987915 USD
Today: +1.22%⬆︎ Last 24h: -0.42%⬇︎
https://ethereum-price.com",2,1,0,False
188,ExterNetworks Inc@ExterNetworks,#Microsoft’s #Ethereum #Consortium Blockchain #Network Named Project #Bletchley Hits #Azure #MarketplaceMicrosoft's Ethereum Consortium Blockchain Network Named Project Bletchley Hits Azure Marketplace –...Microsoft promises the same great functionality as the original release in the Azure Quickstart templates along with a more robust user experience.snip.ly,1,1,2,False
189,Olivier Chapiteau@o_chapiteau,"07Nov2016 18:00 UTC #Ether #Blockchain status - Block height @ 2,584,372 - 32,360 unconfirmed tr. - Last fork height @ 2,584,358",1,0,0,False
191,Dmitry ButΞrin@BlockGeekDima,How To Invest in a #Blockchain #Startup. http://buff.ly/2eESkSq #bitcoin #ethereum,2,1,0,False
193,BitcoinPari@Bitcoinpari_,"Replying to @Crypto_Krill and @BitBetshi, you can bet on #uselections using your #eth #dogecoin #ltc #BTC here: https://directbet.eu/Event.cshtml?EventID=27713489&AffiliateID=1AiUhFhp55BBrhfjj9xN9pzBSrBSwHho7w…",1,0,0,False
194,Skeletor@skeletor_btc,@Synereo Threatens Monopoly of #Ethereum as Major DApps Host https://cointelegraph.com/news/blockchain-startup-synereo-threatens-monopoly-of-ethereum-as-major-dapps-host…,1,0,0,False
196,Nick Ayton@NickAyton,You think you understand #Blockchain Check Out these Common Myths https://channels.theinnovationenterprise.com/articles/7-myths-about-blockchain… #ethereum #bitcoin #IoT #bigdata #Security #Crypto7 Myths About Blockchain | Articles | Big DataNick Ayton looks at seven of the primary myths currently believed to be true in the world of Blockchain and explains the reality of the technology's potentialchannels.theinnovationenterprise.com,1,1,0,False
197,Sakari Harlas@sakkeh75,#Blockchain Startup @Synereo Threatens Monopoly of #Ethereum as Major DApps Host https://cointelegraph.com/news/blockchain-startup-synereo-threatens-monopoly-of-ethereum-as-major-dapps-host… via @Cointelegraph #Rholang,0,0,0,False
200,GX-Coin@gx_coin,Why banks in #Israel will unite over #blockchain http://ow.ly/YShf305HClG #cryptocurrency #bitcoin #ethereum,0,0,0,False
201,CryptoRTs +  = @CryptoRTs,"Why Israel's Banks Will Unite Over Blockchain http://bit.ly/2eFw4aZ
#Investing #entrepreneur #cryptocurrencies #banks #DAO #EtherWhy Israel's Banks Will Unite Over Blockchain - CoinDeskIsrael took a global lead on cyber security. Could it do the same with blockchain?coindesk.com",0,0,0,False
202,Blockgeeks@Blockgks,Q&A: STEPHAN TUAL: Founder & COO Slock.it & The DAO http://dld.bz/faeQR #THEDAO #ethereum #blockchain,0,0,0,False
203,Coinstats@coinstats,"Ethereum Classic - ETC
Price: $0.978602
Change in 1h: +-1.15%
Market cap: $83802498.0
Ranking: 5
#Ethereum Classic #ETC",0,0,0,False
205,Bobe'bot@Bobe_bot,"1 #BTC = 700.1328 #CHF
1 #ETH = 11.0735 #CHF
1 #DOGE = 0.000240012094 #CHF
sources: @cryptonatorcom @hellobity",0,0,0,False
206,Coinstats@coinstats,"Ethereum - ETH
Price: $10.8747
Change in 1h: +0.39%
Market cap: $932300350.0
Ranking: 2
#Ethereum #ETH",0,0,0,False
207,Ethereum SE@StackEthereum,parity command failes due to missing c++ libs http://ethereum.stackexchange.com/questions/9877/parity-command-failes-due-to-missing-c-libs… #ethereum #parity,1,2,0,False
208,Cryptiv@Cryptiv,What does #Zcash mean for #Ethereum? – ConsenSys Media – Medium http://ow.ly/LP1b305VKbT,1,2,0,False
211,Veki@Veki551155,Price Analysis: A Look at the #ethereum Charts - CryptoCoinsNews http://bit.ly/2fa4XWg,0,0,0,False
212, Eliza Cheng @ElizaRyenne,Let the bots mine #bitcoin #dogecoin #litecoin #ethereum #gold for you! JOINE NOW at https://eobot.com/user/393610 @eobot,0,0,0,False
213,mohamed yaseer@yazeerm3,I just signed up to @ethstatus - an #ethereum #dapps browser for mobile: https://status.im/invite/1219-d8b5024a…,1,0,0,False
214,Faith Emmanuel@residualbitcoin,Price Analysis: A Look at the #ethereum Charts - CryptoCoinsNews http://bit.ly/2fa4XWg  #ResidualBitcoin,0,0,0,False
215,BitcoinAgile@bitcoinagile,Price Analysis: A Look at the #ethereum Charts - CryptoCoinsNews http://bit.ly/2fa4XWg,1,2,0,False
216,José Carlos Baquero @jbaquerot,#Ethereum Energy Startup Awarded #Blockchain Patent.Ethereum Energy Startup Awarded Blockchain PatentA Brooklyn blockchain startup has been awarded a patent for its work using the tech to facilitate peer-to-peer energy transfers. LO3 is one of several startups seeking to using a blockchain system...bcvcsc.tumblr.com,1,0,0,False
217,Moba Lover@moba_lover,Replying to @BeyondVoidGameProtonexium will be eligible even for rank bonus? #ICO $BCY $ETH,1,0,0,False
218,Pravin Bhudiya@pravin_bhudiya,"LET'S TALK ETC! (ETHEREUM CLASSIC) - EPISODE #1
https://goo.gl/giQgy6
@EthereumClassic @ethereumproject #ETHEREUM #EthereumClassic #etc",2,0,0,False
219,Brave New Coin@bravenewcoin,#Ethereum Price: USD $10.89 #ETH http://ow.ly/6UKf3048WBe,2,0,0,False
220,Coinstats@coinstats,"Ethereum Classic - ETC
Price: $0.989596
Change in 1h: +-0.62%
Market cap: $84742974.0
Ranking: 5
#Ethereum Classic #ETC",0,0,0,False
221,Coinstats@coinstats,"Ethereum - ETH
Price: $10.8284
Change in 1h: +-0.41%
Market cap: $928320949.0
Ranking: 2
#Ethereum #ETH",0,0,0,False
222,Faith Emmanuel@residualbitcoin,#blockchain Startup Synereo Threatens Monopoly of #ethereum as Major DApps Host  #tech http://bit.ly/2f9ThD4  #R…,1,0,0,False
223,Veki@Veki551155,#blockchain Startup Synereo Threatens Monopoly of #ethereum as Major DApps Host  #tech http://bit.ly/2f9ThD4,1,1,0,False
224,BitcoinAgile@bitcoinagile,#blockchain Startup Synereo Threatens Monopoly of #ethereum as Major DApps Host  #tech http://bit.ly/2f9ThD4,2,3,0,False
225,Veki@Veki551155,#ethereum to Become 2016s Best Performing Currency http://bit.ly/2f9O8dS,1,0,0,False
226,Faith Emmanuel@residualbitcoin,#ethereum to Become 2016s Best Performing Currency http://bit.ly/2f9O8dS  #ResidualBitcoin,0,0,0,False
227,BitcoinAgile@bitcoinagile,#ethereum to Become 2016s Best Performing Currency http://bit.ly/2f9O8dS,2,0,0,False
229,Sunil Gopinath Pillai@Pillai_Sunil,#Blockchain Startup @Synereo Threatens Monopoly of #Ethereum as Major #DApps Host https://cointelegraph.com/news/blockchain-startup-synereo-threatens-monopoly-of-ethereum-as-major-dapps-host… - By... by #kingofpayments,1,0,0,False
231,Ethereum SE@StackEthereum,parity command failes due to missing c++ libs http://ethereum.stackexchange.com/questions/9877/parity-command-failes-due-to-missing-c-libs… #ethereum #parity,1,0,0,False
232,Dmitry ButΞrin@BlockGeekDima,Besides #Ethereum: How Many #Blockchains Are There? [Guide] http://buff.ly/2evuNQy,1,0,0,False
233,Proof of Work@proofofwork,@officialmcafee questions the #ethereum  hardfork.,0,0,0,False
234,Coinstats@coinstats,"Ethereum Classic - ETC
Price: $0.996007
Change in 1h: +-0.25%
Market cap: $85290643.0
Ranking: 5
#Ethereum Classic #ETC",0,0,0,False
235,Coinstats@coinstats,"Ethereum - ETH
Price: $10.8841
Change in 1h: +-0.26%
Market cap: $933082176.0
Ranking: 2
#Ethereum #ETH",0,0,0,False
236,Ethereum Price@EthereumPrice_,"#Ethereum: Ether Price Index
1 ETH =0.015493Ƀ XBT = $10.886055 USD
Today: +1.79%⬆︎ Last 24h: -0.33%⬇︎
https://ethereum-price.com",2,0,0,False
237,Veki@Veki551155,Original #ethereum Coin  Silver http://bit.ly/2f9Kdh8,0,0,0,False
238,BitcoinAgile@bitcoinagile,Original #ethereum Coin  Silver http://bit.ly/2f9Kdh8,1,2,1,False
242,Maksim@balance_ra,Replying to @SDLernerWait. Innovating without customers was so easy that you had to copy #Ethereum Virtual Machine?,0,0,0,False
243,Alberto Jauregui | esoteRICK.eth @DisruptBanksy,http://ift.tt/2fs0D2H Blockchain Startup Synereo Threatens Monopoly of Ethereum as Major DApps Host - CoinTelegraph #ethereum #ether,1,0,0,False
244,John Slazas@JSservices,#ethereum STRUGGLING $ETH below 11.40 is vulnerable down to 8.25 if not 7.30. Rise above 11.80 needed to give #ETH its legs back.,1,2,0,False
245,Ameer Rosic@AmeerRosic,What is Ethereum? Step-by-Step #Ethereum Infographic http://bit.ly/22M90bd #Blockchain #Bitcoin,2,2,0,False
246,Bitcoin Directory@dir4bc,"Blockchain Startup #Synereo Threatens Monopoly of #Ethereum as Major #DApps Host: Blockchain startup, Synereo, has… http://dlvr.it/McMgZJ",3,0,0,False
247,Widget 4 Bitcoin@widget4bc,"Blockchain Startup #Synereo Threatens Monopoly of #Ethereum as Major #DApps Host: Blockchain startup, Synereo, has… http://dlvr.it/McMgTg",1,0,0,False
249,4BC@aff4bc,"Blockchain Startup #Synereo Threatens Monopoly of #Ethereum as Major #DApps Host: Blockchain startup, Synereo, has… http://dlvr.it/McMgMh",1,0,0,False
250,CoinFollower@CoinFollowerCom,Blockchain Startup Synereo Threatens Monopoly of Ethereum as Major DApps Host: #ethereum http://coinfollower.com/15475/Blockchain%20Startup%20Synereo%20Threatens%20Monopoly%20of%20Ethereum%20as%20Major%20DApps%20Host…,2,0,0,False
251,Cryptopatterns@Cryptopatterns,$ZEC buy patterns mult timeframes tgt 400+. <$250 means <$100 higher prob. Good risk/reward but PURE GAMBLING #zcoin $BTC #bitcoin $ETH,4,4,0,False
254,Faith Emmanuel@residualbitcoin,''Building Google For the Web 3.0 on the #ethereum #blockchain' - introduction to Userfeeds.io #Building #Economic http://bit.ly/2fgP6Tq…,1,0,0,False
255,Veki@Veki551155,''Building Google For the Web 3.0 on the #ethereum #blockchain' - introduction to Userfeeds.io #Building #Economic http://bit.ly/2fgP6Tq,1,0,0,False
256,BitcoinAgile@bitcoinagile,''Building Google For the Web 3.0 on the #ethereum #blockchain' - introduction to Userfeeds.io #Building #Economic http://bit.ly/2fgP6Tq,2,1,0,False
257,WingzTV@realnewsvideos,#Building #‘Google For The #Economic Web’ The #Ethereum #Blockchain. – userfeeds http://wingztv.com/video/building-google-for-the-web-30-on-the-ethereum-blockchain-introduction-to-userfeedsio…,1,0,0,False
258,عادل الرميتي@AdilRmiti,Donate to our project! Add funds and receive $$$ in exchange from profits lifetime! @gagpubblicita #ethereum #miner https://indiegogo.com/projects/build-ethereum-mining-farm/x/14702367#/…,0,0,0,False
259,LAPITH@bhumharit,RT: #Blockchain Startup Synereo Threatens Monopoly of #Ethereum as Major #DApps Host https://cointelegraph.com/news/blockchain-startup-synereo-threatens-monopoly-of-ethereum-as-major-dapps-host… - By iykearu,1,0,0,False
260,LAPITH@bhumharit,#Blockchain Startup Synereo Threatens Monopoly of #Ethereum as Major #DApps Host https://cointelegraph.com/news/blockchain-startup-synereo-threatens-monopoly-of-ethereum-as-major-dapps-host… - By iykearu,1,0,0,False
261,Ethereum UAE@Ethereum_UAE,Blockchain Startup Synereo Threatens Monopoly of Ethereum as Major DApps Host http://ift.tt/2fuZABA #Ethereum,1,0,0,False
262,Ethereum Monkey@EthMonkey,Blockchain Startup Synereo Threatens Monopoly of Ethereum as Major DApps Host #ethereum https://cointelegraph.com/news/blockchain-startup-synereo-threatens-monopoly-of-ethereum-as-major-dapps-host…,1,1,0,False
263,BlackBullTradingPost ₿   @BlackBullTradn,CoinTelegraph: #Blockchain Startup Synereo Threatens Monopoly of #Ethereum as Major #DApps Host https://cointelegraph.com/news/blockchain-startup-synereo-threatens-monopoly-of-ethereum-as-major-dapps-host… - By iykearu,1,0,0,False
264,Ali Güçlü@aliguclu,"CoinTelegraph : #Blockchain Startup Synereo Threatens Monopoly of #Ethereum as Major #DApp… https://twitter.com/CoinTelegraph/status/795631980515770368…)Quote TweetCointelegraph@Cointelegraph · Nov 7, 2016#Blockchain Startup @Synereo Threatens Monopoly of #Ethereum as Major #DApps Host https://cointelegraph.com/news/blockchain-startup-synereo-threatens-monopoly-of-ethereum-as-major-dapps-host… - By @iykearu",1,0,0,False
266,memii@Meimmii,New #Ethereum #Blockchain Based #Gambling #vDice. #Crowdsale will start on Nov.15 Go to http://crowdsale.vdice.io   and invest! #Bitcoin,1,1,0,False
267,Sergio Demian Lerner (sergio.lerner.rsk)@SDLerner,Replying to @balance_raIt's easy to innovate not having 100 business depending on your code! RSK can innovate more than #Ethereum for the same reason!,1,1,0,False
269,ARK.io@ArkEcosystem,"#ARK video

https://youtu.be/UWCsAFGnv5c
$ARK $LSK $ETH $BTC #altcoins #crypto #ICO #blockchain #investors #Entrepreneur #socialmedia #success",19,13,0,False
270,Blockgeeks@Blockgks,"Who is working on a blockchain powered sustainable energy solutions?
http://dld.bz/eVxaY #ethereum #blockchain",2,2,0,False
271,Coinstats@coinstats,"Ethereum Classic - ETC
Price: $0.99949
Change in 1h: +0.14%
Market cap: $85587494.0
Ranking: 5
#Ethereum Classic #ETC",0,0,0,False
272,PuyDaCosTa@PuyDaCosTa,"RX470(3) RX480(2) run on Claymore's ZCash 2.0

#eth #etc #zec #zcash #rx470 #rx480… https://instagram.com/p/BMgvGVEjWlK/",0,0,0,False
273,ARK.io@ArkEcosystem,"New #ARK video of the Chinese #ARK community! THANKS!

https://youtu.be/cIh_-oSbu9k
$ARK $LSK $ETH $BTC #altcoins #ICO #blockchain #cryptoARK -A PLatform for Consumer Adoption官网OFFICAL:www.ark.ioBitcointalk:https://bitcointalk.org/index.php?topic=1651599.0推特:https://twitter.com/ArkEcosystemBitcointalk ID:ICONEWSqqqun:178695506youtube.com",13,10,0,False
274,Paul the Cryptopus @PaulCryptopus,Would you long or short $eth right now?Short36.4%Long0%Who the fuck trades eth63.6%11 votes·Final results,0,0,0,False
275,ExploreTraveler@exploretravel1,"RT @safwanzaheer: Microsoft places a big bet on #Ethereum
#FinTech #KPMGFinTech http://lnkplg.co/GEDKK",1,0,0,False
277,Timo Nurminiemi@TimoNurminiemi,What is #Ethereum? A Step-by-Step Beginners Guide [Ultimate Guide] | #fintech http://blockgeeks.com/guides/what-is-ethereum-a-step-by-step-beginners-guide/…  @@blockgks,2,1,0,False
278,Ameer Rosic@AmeerRosic,@solarwinds Thanks for contributing. What Are Smart Contracts? A Beginner’s Guide to Smart Contracts http://buff.ly/2e6ZhbO #Ethereum,1,0,0,False
279,Faith Emmanuel@residualbitcoin,"What is The Future of #ethereum: Good, Bad or Ugly? #bitcoin https://forum.bitcoin.com/viewtopic.php?t=12290&p=36466#p36466… #ResidualBitcoin",0,0,0,False
280,Veki@Veki551155,"What is The Future of #ethereum: Good, Bad or Ugly? #bitcoinWhat is The Future of Ethereum: Good, Bad or Ugly?Where do you see the future of Ethereum? http: guides what-is-ethereum-a-step-by-step-beginners-guideforum.bitcoin.com",1,1,0,False
281,BitcoinAgile@bitcoinagile,"What is The Future of #ethereum: Good, Bad or Ugly? #bitcoinWhat is The Future of Ethereum: Good, Bad or Ugly?Where do you see the future of Ethereum? http: guides what-is-ethereum-a-step-by-step-beginners-guideforum.bitcoin.com",0,0,0,False
282,Frank Bolten@BoFrank01,Clear statement by #hdiedrich in his new #Ethereum book about #blockchain use https://lnkd.in/eSZGCQd,1,2,0,False
284,ARK.io@ArkEcosystem,"#ARK FAQ - for more answers about ARK

https://blog.ark.io/ark-faq-407155d3aa15#.30267bu7h…
$ARK $LSK $ETH $BTC #altcoins #crypto #ICO #blockchain #investors #crypto",10,13,0,False
286,indxio@indxio,#Russia Market Close || #Bitcoin: $703.98 | 636.28 EUR||  #Litecoin: 0.0027 BTC  || #Ethereum: 0.0154 BTC   || $BTC $LTC $ETH $RUB,0,0,0,False
287,Claudio Bruderer@cbruderer,Replying to @PeterDEdmonds @borkarabhijeet and 2 othersour #ETH-colleague @NCaplar did a similar analysis: http://astrodataiscool.com/2015/04/our-daily-vox-charta/…,4,1,0,False
288,Blockgeeks@Blockgks,Step-by-Step Guide: What the heck is a Smart Contract? #blockchain #bitcoin #ethereum http://dld.bz/eYNat,3,2,0,False
289,CryptoCompare@CryptoCompare,FirstBlood! The first eSports platform with 1vs1 matches - no middleman involved! Learn more #Ethereum #Blockchain http://ow.ly/ZV86304Yfq3,1,1,0,False
290,Coinstats@coinstats,"Ethereum Classic - ETC
Price: $0.996789
Change in 1h: +1.8%
Market cap: $85354336.0
Ranking: 5
#Ethereum Classic #ETC",0,0,0,False
291,Coinstats@coinstats,"Ethereum - ETH
Price: $10.9207
Change in 1h: +0.51%
Market cap: $936190106.0
Ranking: 2
#Ethereum #ETH",0,0,0,False
292,Veki@Veki551155,#ethereum Price Technical Analysis: Finding it Hard to Break Resistance http://altcointoday.com/ethereum-price-technical-analysis-finding-hard-break-resistance…,2,1,0,False
293,BitcoinAgile@bitcoinagile,#ethereum Price Technical Analysis: Finding it Hard to Break Resistance http://altcointoday.com/ethereum-price-technical-analysis-finding-hard-break-resistance…,2,0,0,False
294,Thorsten@digitaldonkey09,"Check #drupal and #ethereum use case examples http://bit.ly/drupalvoting and http://bit.ly/semidecentalisation… lets talk about at #DCMuc16Quote TweetDrupal User Group München@dugmuc · Nov 3, 2016Thanks for a new proposal: ""Drupal and the Blockchain"" by @digitaldonkey09 http://ow.ly/o3iE305qCxa #Drupalcamp #Munich #DCMuc16 @reinblau",1,1,1,False
295,Ameer Rosic@AmeerRosic,"Join today! Blockgeeks is a #Blockchain innovation hub 
& marketplace http://blockgeeks.com #Bitcoin #Ethereum",1,0,0,False
296,DOCKSIDE GRAPHICS@Dockside_GB,"Mine #Zcash $ZEC on https://genesis-mining.com/a/202902
Promo code: v10aYs
They accept #bitcoin and visa/mastercard #bitcoinmining #altcoin #x11 #eth",1,0,0,False
297,ULTRLOA crypto@UltrloaCrypto,Don't miss the chances to get some stock of vdice invest on now.. http://crowdsale.vdice.io/#vDice #crowdsale #ico #ethereum #ether #BitcoinUnlimited,1,0,0,False
298,Brave New Coin@bravenewcoin,#Ethereum Price: USD $10.9 #ETH http://ow.ly/6UKf3048WBe,1,0,0,False
299,Chris Timuat@ChrisBizEnglish,Via FinTechSummary: Latest #FinTech Weekly Summary is out - http://bit.ly/2fdwUuB #ethereum #blockchain  #fintech,1,1,1,False
301,Blockgeeks@Blockgks,It's coming! The #Blockchain Technology That Will Replace Lawyers http://dld.bz/eYNat #ethereum,1,1,0,False
303,Coinstats@coinstats,"Ethereum Classic - ETC
Price: $0.979258
Change in 1h: +0.53%
Market cap: $83851826.0
Ranking: 5
#Ethereum Classic #ETC",0,0,0,False
304,Coinstats@coinstats,"Ethereum - ETH
Price: $10.8377
Change in 1h: +0.26%
Market cap: $929053368.0
Ranking: 2
#Ethereum #ETH",0,0,0,False
305,CRYPTOCOINTALK@cryptocointalk,#Ethereum Classic Price Technical Analysis – $ETC Recovery Initiated http://newsbtc.com/2016/11/07/ethereum-classic-price-technical-analysis-etc-recovery-initiated/… #finance #cryptocurrencyEthereum Classic Price Analysis – ETC Recovery InitiatedEthereum classic price started moving higher against the Bitcoin to trade as high as 0.00145BTC before starting a correction.newsbtc.com,3,2,0,False
307,Ameer Rosic@AmeerRosic,"#Blockchain can be confusing, but it doesn't have to be.  http://blockgeeks.com #bitcoin #Ethereum",1,0,0,False
308,3esmit.stateofus.eth@3esmit,#ethereum state is defined by bounded validators that bet their stake in a chain believed valid for when including blocks.,2,0,0,False
309,Bitcoin NewsBoard@bitcoinewsboard,"Ethereum, #Ethereum Classic and #Monero Crash as #Bitcoin Surges http://bitcoinnewsboards.com/?p=35487 #altcoins #bitcoinnews #ethereumclassic #news",0,0,0,False
310,Daniel Wright@danielmwright,"If you're trading #ethereum, today is probably the best day to buy before it climbs. Tomorrow should greatly affect value! #cryptocurrency",1,2,0,False
311,Veki@Veki551155,First #ethereum Developers Certified on the #blockchain Says B9lab #bitcoin http://blockchaindailynews.com/First-Ethereum-Developers-Certified-on-the-Blockchain-Says-B9lab_a24709.html…,0,0,0,False
312,Francesco Villa@cekospiu,Donate to our project! Add funds and receive $$$ in exchange from profits lifetime! @gagpubblicita #ethereum #miner https://indiegogo.com/projects/build-ethereum-mining-farm/x/14702367#/…,0,0,0,False
313,Bitcoin Updater@BitcoinUpdater,"So, Ethereum's Blockchain is Still Under Attack… #ethereum http://soco.space/LmpnjZ",1,0,0,False
314,Ambisafe@ambisafeco,"#Ethereum within the #Insurance Industry
http://ethnews.com/ethereum-within-the-insurance-industry…
#Dynamis #Inchain",2,1,0,False
315,Faith Emmanuel@residualbitcoin,First #ethereum Developers Certified on the #blockchain Says B9lab #bitcoin http://blockchaindailynews.com/First-Ethereum-Developers-Certified-on-the-Blockchain-Says-B9lab_a24709.html…  #ResidualBitc…,1,0,0,False
316,BitcoinAgile@bitcoinagile,First #ethereum Developers Certified on the #blockchain Says B9lab #bitcoin http://blockchaindailynews.com/First-Ethereum-Developers-Certified-on-the-Blockchain-Says-B9lab_a24709.html…,2,2,0,False
317,BTCVLC@BitcoinVLC,"Infiltration | #Overwatch | #Bitcoin #Ethereum #ZCASH #BTCVLCCorto animado de Overwatch | ""Infiltration""¡Hackea hasta llegar al sexto corto animado de Overwatch: Infiltration! Luego, comienza a formar parte de Overwatch en PC, PlayStation 4 o Xbox One: https:/...youtube.com",1,0,0,False
318,Blockgeeks@Blockgks,Smart Contracts: The #Blockchain Technology That Will Replace Lawyers http://dld.bz/eYNat #ethereum,1,2,0,False
319,MarcellaMac~Creative Needle Artistry@MsMarcellaMac, Sending #heartfelt#loving#prayer into the #ether again today #rip #Andrew  https://instagram.com/p/BMgZg2PDowZ/,0,0,0,False
320,ARK.io@ArkEcosystem,"#ARK-TEC participants!

Lisk Community Wallet: http://desktop.lisk-wallet.com
$ARK $LSK $ETH $BTC #altcoins #crypto #ICO #blockchain #investors",16,17,0,False
321,Ethereum SE@StackEthereum,Where is the geth.exe in the Ethereum mist? http://ethereum.stackexchange.com/questions/9870/where-is-the-geth-exe-in-the-ethereum-mist… #ethereum #mist #meteor,1,0,0,False
322,Veki@Veki551155,Building Google For The Economic Web on The #ethereum #blockchain.  userfeeds https://medium.com/userfeeds/building-google-for-the-economic-web-on-the-ethereum-blockchain-de27cb3d23b…,1,1,0,False
324,Faith Emmanuel@residualbitcoin,Building Google For The Economic Web on The #ethereum #blockchain.  userfeeds https://medium.com/userfeeds/building-google-for-the-economic-web-on-the-ethereum-blockchain-de27cb3d23b…  #ResidualBi…,1,1,0,False
325,sisilia putri@sisiliaput4,"Smith + Crown about #ARK
http://ln.is/suTXB $ARK $LSK $ETH $BTC #altcoins #fintech #crowdfund... by #LeonidPetrov5 via @c0nvey",7,3,0,False
329,BitcoinAgile@bitcoinagile,Building Google For The Economic Web on The #ethereum #blockchain.  userfeeds https://medium.com/userfeeds/building-google-for-the-economic-web-on-the-ethereum-blockchain-de27cb3d23b…,1,0,0,False
330,Alberto Jauregui | esoteRICK.eth @DisruptBanksy,http://ift.tt/2fv5HE3 Ethtrade Offers Profitable Management of Ethereum Assets - Live Bitcoin News #ethereum #ether,1,0,0,False
331,Faith Emmanuel@residualbitcoin,"Ethtrade Offers Profitable Management of #ethereum Assets - #bitcoin Network, News, Charts, Guides & Analysis http://livebitcoinnews.com/ethtrade-offers-profitable-management-ethereum-assets… #Res…",0,0,0,False
332,Veki@Veki551155,"Ethtrade Offers Profitable Management of #ethereum Assets - #bitcoin Network, News, Charts, Guides & Analysis http://livebitcoinnews.com/ethtrade-offers-profitable-management-ethereum-assets…",1,0,0,False
333,endonpdc@endonpdc,"Long term Investment ETHRADE 
Get Up to 25 % Monthly https://youtu.be/1IROFtuxwsU register:  https://goo.gl/8hYJQP #bitcoin #Ethtrade #Ethereum",2,2,0,False
334,BitcoinAgile@bitcoinagile,"Ethtrade Offers Profitable Management of #ethereum Assets - #bitcoin Network, News, Charts, Guides & Analysis http://livebitcoinnews.com/ethtrade-offers-profitable-management-ethereum-assets…",2,0,0,False
335,CryptoNewswire @CryptoNewswire,Earning Passive Income is Easy with Ethtrade - http://newsbtc.com/2016/11/07/earning-passive-income-easy-ethtrade/… $ETH #blockchain #fintech #altcoin,1,0,0,False
336,Peggy Hetscher@PeggyHetscher,"#Amazing business last #prelaunch days from a partner. #ethereum #lotto #kibo look here: 
http://kibo-lotto.biz/Social/12/
#anmelden 071512098209",2,1,2,False
337,Peggy Hetscher@PeggyHetscher,#Happy #follow #week #mynews are #you #trends welcome #ethereum #bitcoin & #company #anmelden 071512098209,1,1,0,False
338,Claudio Bruderer@cbruderer,Replying to @astrotweepsperks of doing politics in Switzerland: more food to share with my colleagues at #ETH ;) cc @MahraRahimi,1,0,0,False
339,Ameer Rosic@AmeerRosic,Great people deserve a great audience. http://blockgeeks.com #Blockchain #Ethereum #Bitcoin,1,2,0,False
340,Bound-Oxygen & Recover your Health@Bound_Oxygen,"Day4People #Ethereum has its own dedicated sub-category, please have a look at the updated map: https://mindmeister.com/694609910/bitcoin-blockchain…",3,0,0,False
341,Florian Graillot@FGraillot,"#Ethereum has its own dedicated sub-category, please have a look at the updated map: https://mindmeister.com/694609910/bitcoin-blockchain…",0,0,0,False
342,Karlsson@Karlsson_Roof,"#ethereum Classic Price Technical Analysis
 http://ln.is/w67nK #ETH #Crypto #cryptocurrency... by #CCEDKOpenLedger via @c0nveyEthereum Classic Price Analysis – ETC Recovery InitiatedEthereum classic price started moving higher against the Bitcoin to trade as high as 0.00145BTC before starting a correction.newsbtc.com",0,0,0,False
343,Coinstats@coinstats,"Ethereum Classic - ETC
Price: $0.976632
Change in 1h: +0.17%
Market cap: $83624713.0
Ranking: 5
#Ethereum Classic #ETC",0,0,0,False
344,Coinstats@coinstats,"Ethereum - ETH
Price: $10.828
Change in 1h: +-0.37%
Market cap: $928196845.0
Ranking: 2
#Ethereum #ETH",0,0,0,False
349,BoyanBC@Boyanbc,"An interesting look towards:
#fairmoney #basicincome #blockchain
#ethereum @ConsenSysLLC
https://medium.com/@ConsenSys/basic-income-on-the-blockchain-fair-money-45662889077c#.9lakdd6bq…",1,0,0,False
350,Ξ Fly Guy Ξ (flyguy.eth)@FlyGuyInTheSky,Replying to @FlyGuyInTheSky#Zcash from $650 ...down to $250.some people have got seriously burned... at least with #ethereum you can feel heat first.,1,0,0,False
351,Ameer Rosic@AmeerRosic,6 Reasons Why #Blockchain is Worth Getting Excited http://snip.ly/7je5i #bitcoin #Ethereum,2,0,0,False
353,CryptoNewswire @CryptoNewswire,Decentralised Gambling Platform vDice to Launch ICO on November 15th - http://newsbtc.com/2016/11/07/decentralised-gambling-platform-vdice-to-start-ico-on-november-15th/… $ETH #cryptocurrency #finance #crypto,0,0,0,False
356,BlockchainItalia@blockchainITA,Microsoft's #Ethereum Consortium #Blockchain Network Named Project #Bletchley Hits #Azure Marketplace http://coinspeaker.com/2016/11/04/microsofts-ethereum-consortium-blockchain-network-named-project-bletchley-hits-azure-marketplace/… #microsoft,1,1,0,False
358,Coinstats@coinstats,"Ethereum Classic - ETC
Price: $0.972256
Change in 1h: +0.29%
Market cap: $83248106.0
Ranking: 5
#Ethereum Classic #ETC",0,0,0,False
359,Coinstats@coinstats,"Ethereum - ETH
Price: $10.8719
Change in 1h: +0.1%
Market cap: $931939516.0
Ranking: 2
#Ethereum #ETH",0,0,0,False
360,Ethereum Price@EthereumPrice_,"#Ethereum: Ether Price Index
1 ETH =0.015382Ƀ XBT = $10.916800 USD
Today: +1.06%⬆︎ Last 24h: -0.01%⬇︎
https://ethereum-price.com",1,0,0,False
361,BoyanBC@Boyanbc,"""The roof, the roof is on ""
#fintech #banking #blockchain #ethereum
http://bbc.com/news/business-37891742…",2,2,0,False
362,ARK.io@ArkEcosystem,"#ARK-TEC start TODAY ! Enjoy the VERY Special Bonuses on FIRST 24 Hours

$ARK $LSK $ETH $BTC #altcoins #ICO #blockchain #investors #Crypto",15,11,0,False
363,ARK.io@ArkEcosystem,"#Ark follows 136 people who are highly influential

$ARK $LSK $ETH $BTC #altcoins #fintech #crowdfund #ICO #blockchain #investors #Crypto",20,7,0,False
364,Ameer Rosic@AmeerRosic,#Blockchain Technology Proves Itself in Wall Street Test http://snip.ly/i6je1 #Bitcoin #Ethereum,3,0,0,False
365,Alberto Jauregui | esoteRICK.eth @DisruptBanksy,http://ift.tt/2fSLRVY Ethereum Classic Price Technical Analysis – ETC Recovery Initiated - newsBTC #ethereum #ether,1,2,0,False
367,Ξ Fly Guy Ξ (flyguy.eth)@FlyGuyInTheSky,#ramblermetals is looking  VERY interesting! To my #ethereum followers... just a little side tip. I'm looking at 25p and eventual 45p #RMM,1,2,8,False
368,Ethereum Monkey@EthMonkey,Ethereum Classic Price Technical Analysis - ETC Recovery Initiated - NEWSBTC #ethereum http://newsbtc.com/2016/11/07/ethereum-classic-price-technical-analysis-etc-recovery-initiated/…,2,0,0,False
369,ARK.io@ArkEcosystem,"#ARK Ecosystem slack

https://ark.io/join-ark-slack/
$ARK $LSK $ETH $BTC #altcoins #fintech #crowdfund #ICO #blockchain #investors #Crypto",7,4,0,False
370,indxio@indxio,#China Market Close || #Bitcoin: $706.85 | 640.05 EUR||  #Litecoin: 0.0027 BTC  || #Ethereum: 0.0154 BTC   || $BTC $LTC $ETH $RMB,1,2,0,False
371,ARK.io@ArkEcosystem,"LESS THAN 11 HOURS LEFT !

#ARK-TEC START TODAY - 19:00 UTC

http://worldtimebuddy.com
$ARK #blockchain #ICO $BTC $ETH $ETC $LSK #Lisk",7,2,0,False
372,Veki@Veki551155,#ethereum Classic Price Technical Analysis  ETC Recovery Initiated - NEWSBTC #ETC #ETCtoBTC …,0,0,0,False
373,Veki@Veki551155,Join Ark Slack - ARK.io #blockchain #fintech #ARK #altcoins #crowdfund #ICO $ARK $LSK $ETH $BTC https://ark.io/join-ark-slack,1,0,0,False
374,BitcoinAgile@bitcoinagile,#ethereum Classic Price Technical Analysis  ETC Recovery Initiated - NEWSBTC #ETC #ETCtoBTC http://bit.ly/2ffZv1y,1,0,0,False
375,Blockgeeks@Blockgks,Would you like early access to BlockGeeks #Blockchain Community? Sign up here http://blockgeeks.com #ethereum,2,2,0,False
376,Coinstats@coinstats,"Ethereum Classic - ETC
Price: $0.96927
Change in 1h: +-0.25%
Market cap: $82991090.0
Ranking: 5
#Ethereum Classic #ETC",0,0,0,False
377,Coinstats@coinstats,"Ethereum - ETH
Price: $10.8762
Change in 1h: +0.01%
Market cap: $932292442.0
Ranking: 2
#Ethereum #ETH",0,0,0,False
378,Ethereum SE@StackEthereum,Casting a uint to a smaller uint http://ethereum.stackexchange.com/questions/9868/casting-a-uint-to-a-smaller-uint… #ethereum #solidity,1,0,0,False
379,BitcoinAgile@bitcoinagile,Join Ark Slack - ARK.io #blockchain #fintech #ARK #altcoins #crowdfund #ICO $ARK $LSK $ETH $BTC https://ark.io/join-ark-slack,6,3,0,False
380,Ameer Rosic@AmeerRosic,How #Blockchain Helps Brooklyn Dwellers Use Neighbors' Solar Energy http://snip.ly/f3wcc #Ethereum,1,4,0,False
382,Ξ Fly Guy Ξ (flyguy.eth)@FlyGuyInTheSky,Replying to @RealTimeCryptowell personally tech analysis with Crypto is debatable. #ethereum is hanging and waiting for hard fork around 17th. Ingnore!,1,0,0,False
384,Ameer Rosic@AmeerRosic,Q&A: STEPHAN TUAL: Founder & COO Slock.it & The DAO http://dld.bz/faeQR #THEDAO #ethereum #blockchain,1,1,0,False
385,Faith Emmanuel@residualbitcoin,#ethereum Price Technical Analysis  ETH/USD Keeps Struggling - NEWSBTC #bitcoin #price http://newsbtc.com/2016/11/07/ethereum-price-technical-analysis-ethusd-keeps-struggling…  #R…,0,0,0,False
386,Veki@Veki551155,#ethereum Price Technical Analysis  ETH/USD Keeps Struggling - NEWSBTC #bitcoin #price http://newsbtc.com/2016/11/07/ethereum-price-technical-analysis-ethusd-keeps-struggling…,0,0,0,False
387,BitcoinAgile@bitcoinagile,#ethereum Price Technical Analysis  ETH/USD Keeps Struggling - NEWSBTC #bitcoin #price http://newsbtc.com/2016/11/07/ethereum-price-technical-analysis-ethusd-keeps-struggling…,5,0,0,False
388,Blockgeeks@Blockgks,What is #Blockchain Technology? Guide For Beginners http://dld.bz/eW5DU #ethereum,1,4,0,False
390,Елена Bagera@bagera5769,"@ArkEcosystem is awesome, the future is NOW! #bitcoin #lisk #altcoin #eth #etc https://wn.nr/h8s3Xd",1,0,0,False
391,(((Per Lind)))@pclind1,Where Will a Dead Man's Bitcoins Go? http://buff.ly/2eE3JC0 #bitcoin #Blockchain #regtech #fintech #banks #payment #Ethereum @ThaiFinTechWhere Will a Dead Man's Bitcoins Go?Trying to retrieve Bitcoins from a deceased may be challenging or even impossible. But the solutions of this problem are being developed.cointelegraph.com,3,3,0,False
392,(((Per Lind)))@pclind1,Where Will a Dead Man's Bitcoins Go? http://buff.ly/2eE2Ida #bitcoin #BlockchainTH #regtech #fintech #banks #payment #Ethereum @ThaiFinTechWhere Will a Dead Man's Bitcoins Go?Trying to retrieve Bitcoins from a deceased may be challenging or even impossible. But the solutions of this problem are being developed.cointelegraph.com,3,6,0,False
393,Christian Seberino@c_seberino,Did you hear about Zcash? What do you think-Can it beat its rivals?? http://buff.ly/2fLmN2W #etc #eth #ethereumclassic #ethereumZcash Anonymous Cryptocurrency Launched | Bitcoin ChaserZcash is finally here. Take a look at the newest anonymous cryptocurrency and how it wil perform in the markets. Can it beat its rivals?bitcoinchaser.com,1,1,0,False
394,AliReza Rahbari@rahbari_alireza,"#Bitcoin and #Altcoins News: #Bitcoin & #Ethereum Among 50 Digital Currencies Who...Bitcoin and Altcoins News: Bitcoin & Ethereum Among 50 Digital Currencies Whose Price Data Will be...Tullett Prebon Information (TPI), a provider of real-time price information from the global OTC financial and commodity markets, has s...bestaltcoin.blogspot.com",1,1,1,False
395,Bitcoin Updater@BitcoinUpdater,Looks like Ethereum will be hard forked... again. #ethereum http://soco.space/.42zr5,2,0,0,False
396,Ethereum SE@StackEthereum,Update account passphrase over RPC(using web3)? http://ethereum.stackexchange.com/questions/9866/update-account-passphrase-over-rpcusing-web3… #ethereum #goethereum #web3js #accounts,1,0,0,False
397,CryptoNewswire @CryptoNewswire,Ethereum Price Technical Analysis ETH/USD Keeps Struggling - http://thebitcoinnews.com/ethereum-price-technical-analysis-ethusd-keeps-struggling/… $ETH #markets #finance #blockchain,1,0,0,False
399,Ethereum Monkey@EthMonkey,Ethereum Price Technical Analysis - ETH/USD Keeps Struggling - NEWSBTC #ethereum http://newsbtc.com/2016/11/07/ethereum-price-technical-analysis-ethusd-keeps-struggling/…,3,0,0,False
401,Alberto Jauregui | esoteRICK.eth @DisruptBanksy,http://ift.tt/2f8pL0j Ethereum Price Technical Analysis – ETH/USD Keeps Struggling - newsBTC #ethereum #ether,2,0,0,False
402,CrypTech@ethlete_,"it's no surprise that the CTO of one of the most promising dapps on #ethereum @DigixGlobal @tym4t hails from Las Islas FilipinasQuote TweetDrAhmedAlFalasi@DrAhmedAlFalasi · Nov 7, 2016The Philippine Fintech Startup Report and Landscape | Fintech Singapore http://fintechnews.sg/4282/philippines/the-philippine-fintech-startup-report-and-landscape/…",2,1,0,False
403,Coinstats@coinstats,"Ethereum Classic - ETC
Price: $0.964143
Change in 1h: +-0.23%
Market cap: $82548153.0
Ranking: 5
#Ethereum Classic #ETC",0,0,0,False
404,Bobe'bot@Bobe_bot,"1 #BTC = 701.4268 #CHF
1 #ETH = 11.1346 #CHF
1 #DOGE = 0.000246412154 #CHF
sources: @cryptonatorcom @hellobity",0,0,0,False
405,Coinstats@coinstats,"Ethereum - ETH
Price: $10.9149
Change in 1h: +0.11%
Market cap: $935570545.0
Ranking: 2
#Ethereum #ETH",0,0,0,False
406,Ameer Rosic@AmeerRosic,How Will #Blockchain Change Banking? How Won't It? http://snip.ly/a2ci1 #Ethereum #Bitcoin,1,5,0,False
408,Timo Nurminiemi@TimoNurminiemi,#Microsoft Doubles Down on #Ethereum With New #Blockchain Product | #Azure #fintech http://bit.ly/2e5h0oD via @CoinDesk,1,0,0,False
409, Eliza Cheng @ElizaRyenne,Mine for #bitcoin #litecoin #dogecoin #ethereum #gold here in @eobot JOIN NOW at https://eobot.com/user/393610,0,0,0,False
410,Ethereum SE@StackEthereum,"After loading the solidity script, i get null [object Object]. What should i do? http://ethereum.stackexchange.com/questions/9865/after-loading-the-solidity-script-i-get-null-object-object-what-should-i-do… #ethereum #goethereum #solidity",2,0,0,False
411,BTCVLC@BitcoinVLC,Equipos VLC-RIGS MINER SERIES | whastapp 0426-2408251 #BTCVLC #Bitcoin #Ethereum #EthereumClassic #MONERO #DASH #Counterparty #ZCASH,2,0,0,False
412,Ameer Rosic@AmeerRosic,25 GENIUSES WHO ARE CREATING THE FUTURE OF BUSINESS http://snip.ly/avrq9 #Blockchain #Ethereum,4,0,0,False
413,allyourbase  #🅂🄴🄻🄻🄽🄴🅅🄴🅁@allyouracid,Today's top coins: $WAVES $ZEC $NLG $LSK $XMR $ETH $STEEM $START $DNET $XZC $CLUB $POT $XAUR $VOX - http://bitshit.shice.info,2,0,0,False
414,Brave New Coin@bravenewcoin,#Ethereum Price: USD $10.92 #ETH http://ow.ly/6UKf3048WBe,2,0,0,False
415,Coinstats@coinstats,"Ethereum Classic - ETC
Price: $0.966741
Change in 1h: +-0.42%
Market cap: $82769425.0
Ranking: 5
#Ethereum Classic #ETC",0,0,0,False
416,Coinstats@coinstats,"Ethereum - ETH
Price: $10.8888
Change in 1h: +-0.19%
Market cap: $933313013.0
Ranking: 2
#Ethereum #ETH",0,0,0,False
