,user,text,likes,retweets,replies,is_thread
0,E meth@01101O10,#Ethereum Bulls This Morning! $ETH https://vine.co/v/iuHE6HAaWxU,8,2,0,False
1,Michael van Breda@Michaelvb30,Ether mining from@home. Fun fun money money. Coins #coins #cryptocurrency #ethereum0:2727 views,2,0,0,False
2,Crypto ― logen@cryptologen,"RunCPA Announces Decentralized #Ethereum App Competition With $250,000/Year Job P... http://coint.co/2wrq
#ETH #altcoin #cryptocurrency",2,3,0,False
3,Ethereum UAE@Ethereum_UAE,Money 20/20: Bitcoin industry Leaders Discuss Block Size Debate http://ift.tt/1Xld3Ir #Ethereum,2,0,0,False
4,Otmaro Rivero@otmaror,Fryday #CloudMining #Btc #Ltc #Ethereum,0,0,0,False
5,Jean-Pierre Buntinx@jdebunt,EtherEx – Decentralized Exchange On The Ethereum Protocol – The Merkle http://themerkle.com/etherex-decentralized-exchange-on-the-ethereum-protocol/… #etherex #ethereum #ETH #blockchainEtherEx – Decentralized Exchange On The Ethereum ProtocolThe Ethereum ecosystem has been attracting a lot of attention from both within and outside of the digital currency ecosystem in recent months. Most people attribute this to recent Ethereum price increthemerkle.com,2,0,0,False
6,PolyCrypto@Polycrypto,$LISK IOUs trading at $3.38 on Yobit +4700% increase from ICO-price #lisk #blockchain #bitcoin #ethereum #cryptocurrency #dapps #future,5,6,0,False
8,BlockTrΞnd@BlockTrend,Report suggests #IoE market could be worth $23.97 Trillion by 2020. Do you agree with this? #blockchain #ethereumYes100%No0%5 votes·Final results,3,0,0,False
9,fintechfolk@fintechfolk,Thanks @tom_nostrum for registering for FinTechFolk - http://zpr.io/Mnfj #fintech #ethereum #bitcoin #blockchain,2,0,0,False
10,William Devine@WilliamDevine10,Who will run the industry by the end of 2016? #Bitcoin #ethereum #cryptocurrency #blockchain #IoT #cloudcomputingEthereum100%Bitcoin0%Other0%3 votes·Final results,1,0,0,False
11,Crypto ― logen@cryptologen,"#Ethereum (#ETH) Price Trends: 4/08/2016 http://coint.co/2wrw
#altcoin #cryptocurrency",1,2,0,False
12,Riko@CryptologyPriv,"Raistone Reinventing Escrow.
https://cryptocoinsnews.com/raistone-reinventing-escrow/… #blockchain #bitcoin #ethereum #btc #eth",0,0,0,False
13,rantsalot@btcrantsalot,#ethereum is to #bitcoin as #netbui is to #TCPIP,0,0,0,False
14,John Lilic ₿ Ξ ∞@JohnLilic,A big welcome to @davehoover who recently joined our team @ConsenSysLLC #RockOnDude #Ethereum,11,6,2,False
15,ChicagoRuby@ChicagoRuby,"@JohnLilic @ConsenSysLLC Congrats to all! Time to update @davehoover ‘s bio :-) http://meetup.com/ChicagoRuby/events/224923432/… #EthereumFriday walk on the Highline in Greenwood Village.Fri, Jul 13, 2018, 9:00 AM: The description of the event, Friday walk on the Highline in Greenwood Village. , is available only to members.meetup.com",2,0,0,False
16,Adam Guerbuez Foundation@AdamGuerbuez,Yours Truly featured in China's Largest News Site today. #bitcoin #ethereum #affiliatemarketing http://mt.sohu.com/20160408/n443648791.shtml…,4,0,0,False
17,Rodrigo Paulo Gomes []@bgcoin,"Delaware to Push Blockchain, Smart Contract Technologies
http://americanbanker.com/news/bank-technology/delaware-to-push-blockchain-smart-contract-technologies-1080264-1.html…
#blockchain #SmartContracts #ethereum #bitcoin >@AmerBankerDelaware to Push Blockchain, Smart Contract TechnologiesDelaware, whose business-friendly laws have lured more than half the country's publicly traded corporations and more than 60% of the Fortune 500 to incorporate in the state, is now vying to become a...americanbanker.com",1,0,0,False
18,K0JiR3N@K0JiR3N,First phase of building my mining rig complete up and running #ethereum #AMDBuild #altcoins,1,1,0,False
19,Corner Coin@Corner_Coin,"BitBay Offers #Ethereum Trading In #Poland http://bit.ly/1V1paNe via @newsbtc #fintech #bitcoinBitBay Offers Ethereum Trading Against Fiat And BitcoinBitBay offers Ethereum trading markets for Bitcoin, EUR, PLN, and USD, which should attract traders from all over the world.newsbtc.com",3,1,0,False
20,Netcube93@Netcube93,Tiana Laurence of #Factom at the #Blockchain & #Bitcoin Africa Conference 3rd & 4th March 2016 https://youtube.com/watch?v=OBnZoZtkoa8… #fintech #ethereumThe Blockchain & Bitcoin Africa Conference 3rd & 4th March 2016 -...Topic: Blockchain is the Future: Blockchain innovation & helping developing nations with land titles & government transparency.Tiana is the Chief Marketing O...youtube.com,5,2,1,False
21,Alessandro Sartori@Ampsicora0,"Group for women in Bitcoin 
@rhian_is 

Medium: https://medium.com/@rhian_is/why-i-run-a-group-for-women-in-bitcoin-dfa8deae0699…
#Bitcoin #Blockchain #Ethereum #BitcoinConference #meetupWhy I run a group for women in BitcoinThis is a photograph of some women enjoying a chat and a drink at a bar in London. You may be surprised to read that it is also a…rhian-is.medium.com",2,0,0,False
22,Christopher Carruthers@TaoOfSatoshi,"Evan Duffield details Dash's next-generation budget system a bit more:
#DASH #DigitalCash #Bitcoin #Ethereum #DAO",10,10,0,False
23,BlockTrΞnd@BlockTrend,"Looks like a fantastic turnout! @slockitproject #ethereum #dapps #blockchainQuote TweetStephan Tual@stephantual · Apr 7, 2016Ethereum London meetup about to start - we need thing about booking Wembley next time - #ETHLDN",6,0,0,False
24,Ethereum Price@EthereumPrice_,"#Ethereum: Ether Price Index
1 ETH =0.023738Ƀ XBT = $9.980000 USD
Today: -0.62%⬇︎ Last 24h: -2.25%⬇︎
https://ethereum-price.com",1,0,0,False
25,BullBear Analytics@BullBearAnalyst,"""$ETH now needs a true crypto-correction. How far will it go?.."" #Ethereum #FreeReport: http://bit.ly/1LGUDRE",3,1,0,False
26,Rodrigo Paulo Gomes []@bgcoin,"JPMorgan, Deutsche Borse, DTCC and CME take leadership roles in Hyperledger Project
http://fiercefinanceit.com/story/jpmorgan-deutsche-borse-dtcc-and-cme-take-leadership-roles-hyperledger-proj/2016-03-31?utm_campaign=AddThis&utm_medium=AddThis&utm_source=twitter#.VwdJ0sOGPSs.twitter…
#blockchain #bitcoin #ethereum",1,0,0,False
27,ConsenSys@Consensys,#PoPhA created by our awesome developers is live and ready to use! check it out http://proofofphysicaladdress.com #ethereum,11,17,1,False
28,ethereum.network@EthereumNetw,"An update on @EtherEx_Crypto, the #decentralized #cryptocurrency exchange on #Ethereum
https://etherex.org/blog/update-etherex…",8,4,0,False
29,indxio@indxio,#Russia Market Close || #Bitcoin: $420.7 | 366.31 EUR||  #Litecoin: 0.0077 BTC  || #Ethereum: 0.0229 BTC   || $BTC $LTC $ETH $RUB,0,0,0,False
30,TBM NEWS@TBMGPT_News,"New Study Explores Competition Among #Bitcoin, #Ethereum And Other Privately Issued Money - EconoTimesNew Study Explores Competition Among Bitcoin, Ethereum And Other Privately Issued Money - EconoTimesThe advent of cryptocurrencies such as Bitcoin, Ethereum, Litecoin and others has sparked interest in governments, financial institutions and the public in general in privately issued money. Research...econotimes.com",1,0,0,False
31,Ethereum Price@EthereumPrice_,"#Ethereum: Ether Price Index
1 ETH =0.023148Ƀ XBT = $9.710000 USD
Today: -3.09%⬇︎ Last 24h: -3.83%⬇︎
https://ethereum-price.com",1,0,0,False
32,rssbtc.com@rssbtc,"Money20/20: Blockchain Technicalities and Potential - http://bit.ly/1Sk936D
#network #fintech #blockchain #ethereum",1,1,0,False
33,sweatin' bullets hi@benjzx,"50 BTC buy of $XCP by someone last night on polo, now some pretty obvious price suppression happening. #BTC #ETH #fintech #counterparty",1,0,0,False
34,BullBear Analytics@BullBearAnalyst,"The BBA Show: Episode 7  -  https://youtu.be/_TUQCKSd8uQ #bitcoin #ethereum $DXY $SPYThe BBA Show: Episode 7Hello and welcome back to another episode of The BBA Show! Today Rich and I discuss bitcoin and ethereum fundamentals, Deustche Bank, foreign exchange marke...youtube.com",6,6,0,False
35,Bradley C Hughes@AngelsInTheAI,Here's a good simple overview of #Ethereum project. Touches on what #Blockchain is good for. http://fb.me/9jTK1a925,1,0,0,False
36,crypto Nepal@977crypto,I created my Profile/Store  @openbazaar .Contact me for #iPad #iPhone App Development. #Mobileapp #bitcoin #btc #eth,10,5,0,False
37,ajlopez@ajlopez,"Sidechains, Drivechains, and RSK 2-Way peg Design http://rootstock.io/blog/sidechains-drivechains-and-rsk-2-way-peg-design… by @Sdlerner @rsksmart #ethereum",1,0,0,False
38,BACKFEED@Backfeed_cc,"#Ethereum based Proof Of Individuality Prevents #SybilAttacs
http://newsbtc.com/2016/04/05/proof-of-individuality-blockchain-security/…
#blockchain #cybersecurity",11,17,0,False
39,Johan Nygren@resilience_me,Proof-of-Individuality (POI) Whitepaper https://github.com/proofofindividuality/poi/blob/master/whitepaper.pdf… @AdamDScislowicz #ethereumproofofindividuality/poidraft of the full http://proofofindividuality.online system - proofofindividuality/poigithub.com,2,0,0,False
40,Makoto Inoue ( matoken.eth )@makoto_inoue,"#ethldn one spot left for  London  #ethereum codeup next Tuesday !IndianStartups.com Event : Decrypting the Investor Pitch Deck for StartupsWed, Apr 7, 2021, 7:00 PM: Raising capital from investors is an art and is a multi-step process. Funds are raised through external sources like Angel Investors, Venture Capitalists who are unaware ofmeetup.com",1,1,0,False
41,CryptoCompare@CryptoCompare,"Intel releases distributed #blockchain platform
@itBit closes in texas
#Ethereum drops 7.1% & #bitcoin @ $422Daily market update: 17 June 2019 | CryptoCompare.comWe bring you all the data in the world of crypto currencies and Bitcoin in an easily digestible value added format and we give you the tools you need to make that decision. Join the discussion on our...cryptocompare.com",3,2,0,False
42,Bitcoin@bitcoinpoet,"A way of explaining the value of DAOs: "" Launching as a DAO is a very cheap IPO, where all of the vo... http://bit.ly/1SkIYEm #ethereum",3,2,0,False
43,Juan Blanco@juanfranblanco,"Nethereum, inital example of an ethereum crossplatform wallet (RPC) using #Xamarin Forms #Ethereum https://github.com/Nethereum/Nethereum.UI.Wallet.Sample… @BobSummerwillNethereum/Nethereum.UI.Wallet.SampleCross platform wallet example using Nethereum, Xamarin.Forms and MvvmCross - Nethereum/Nethereum.UI.Wallet.Samplegithub.com",5,2,0,False
44,ETHNews@ETHNews_,#Ethereum Price Technical Analysis 04/08/2016 – Perfect Sell; Downside Move #ETH http://ow.ly/10rYGd via @newsbtcEreum Price Analysis 04/08/2016 – Perfect Sell; Downside MoveEthereum price traded further down and broke yesterday’s low. Can losses extend or ETH/USD could manage to correct higher in the short term?newsbtc.com,0,0,0,False
45,Gavin Wood@gavofyork,#ethereum Parity on RasPi 2B after 16 hours of block processing: #590622  15 blk/s | 14 tx/s | 616433 gas/s,24,12,1,False
46,Julia Rakova@jrakova,"Proud of young #Russian programmers! Vitalik Buterin - the founder of #Ethereum, winner of the World Technology Award, born 1994.",2,3,0,False
47,Marie-Lynn@mlrichard,"Cryptocurrency consultants will likely see an increase in HNWI asking about #bitcoin (#ETH), #ethereum (#ETH) et al. #panamapapers",1,0,0,False
48,Bitcoin Retweets@bitcoinbot121,#Ethereum Price Technical Analysis 04/08/2016 – Perfect Sell; Downside Move http://ow.ly/10qGmi by @AayushJs,0,0,0,False
49,🆇🆄🅻🅴🅻🅴@bubblebobble123,"""For all the critics of $LISK and trading before release, do you remember #Ethercoin @bittrex"", http://bitcointalk.org/index.php?topic=798031.0…",1,0,0,False
50,Altcoinspekulant@Altcoinspekulan,#Ethereum breaking through the USD 10 support is a bad sign. #Bitcoin #Altcoin #Ether,1,0,0,False
51,John Lilic ₿ Ξ ∞@JohnLilic,"Building next generation KYC/AML solutions #Ethereum #ConsenSys Excellent work baby bro @ililic #ConsenSysEnterpriseQuote TweetConsenSys@Consensys · Apr 8, 2016#PoPhA created by our awesome developers is live and ready to use! check it out http://proofofphysicaladdress.com #ethereum",3,2,0,False
52,CRYPTOCOINTALK@cryptocointalk,#EtherEx – Decentralized Exchange On The #Ethereum Protocol https://cryptocointalk.com/topic/46084-themerkle-etherex-…–-decentralized-exchange-on-the-ethereum-protocol/ $ETH,1,2,0,False
53,CryptoCompare@CryptoCompare,"New universes are being born! #ethereumQuote Tweetaurel ∞@awrelllRo · Apr 8, 2016Replying to @cryptorush@cryptorush @slockitproject @vcealicu @CryptoCompare",2,0,0,False
54,Bitcoin@bitcoinpoet,"Any Cool DAPP ideas?: Is there a thread somewhere that has a list of ideas for dapps? I'm not a deve... http://bit.ly/1qBmwkK #ethereumAny Cool DAPP ideas?Is there a thread somewhere that has a list of ideas for dapps? I'm not a developer, but I think it would be nice for devs to have a place to get...reddit.com",2,0,0,False
55,Pelle Brændgaard (we are hiring)@PelleB,Great news for Ethereum devs. http://Ether.Camp now supports 3 different Ethereum blockchains  http://blog.ether.camp/post/142457676953/liveethercamp-supports-them-all… #ethereum,1,1,0,False
56,CoinGecko@coingecko,The latest Ethereum price is USD 9.71. For historical #Ethereum price charts - http://buff.ly/1Y3h6Jz,1,0,0,False
57,ethereum.network@EthereumNetw,".@CarstenStoecker from @RWE_AG at #Ethereum LondonQuote Tweetslock.it@slockitproject · Apr 7, 2016Carsten Stöcker from energy giant RWE - ""With Innoz and Slock.it, we're getting Ethereum in the real world"" #ETHLDN",4,1,0,False
58,Bitswift®@Bit_Swift,"#bitswift is on #Azure - https://github.com/Azure/azure-quickstart-templates/tree/master/bitswift-blockchain-ubuntu… - go check it out!
$BTC $SWIFT $LTC $ETH #bitcoin #litecoin",1,0,0,False
59,notsofast@notsofast,Bought $ETH at 2.29M sats.,3,1,0,False
60,Make Africa Great Again @ProTwoolz,Every Time @Beyonce listens to #EtherGIF,1,1,0,False
61,BitcoinAgile@bitcoinagile,#ethereum Price Technical Analysis: Downside Move http://altcointoday.com/ethereum-price-technical-analysis-downside-move…,1,0,0,False
62,Bitcoin@bitcoinpoet,Intel Unveils 'Sawtooth Lake' Proposal at Hyperledger Meeting:       submitted by    /u/ryoumh  [lin... http://bit.ly/1SiySnq #ethereumIntel Unveils 'Sawtooth Lake' Proposal at Hyperledger MeetingPosted in r/ethereum by u/ryoumh • 3 points and 0 commentsreddit.com,1,0,0,False
63,M!keyB™@iam_MikeyB,"@ThaddisLove 
Turned on Notifications bruh 
We gon collabo saw it in the #Ether",1,0,0,False
64,Crypto Games@Crypto_Games,0% House edge is happening! @GridcoinNetwork @Game_Credits @Dashpay #dogecin #ethereum #bitcoin #litecoin @PeercoinPPC,1,0,0,False
65,Bob Summerwill@BobSummerwill,"This is very, very cool, @juanfranblanco!
Check it out, world :-)
Bring on the XBOX One version!
#ethereum #xamarinQuote TweetJuan Blanco@juanfranblanco · Apr 8, 2016Nethereum, inital example of an ethereum crossplatform wallet (RPC) using #Xamarin Forms #Ethereum https://github.com/Nethereum/Nethereum.UI.Wallet.Sample… @BobSummerwill",4,2,0,False
66,John Lilic ₿ Ξ ∞@JohnLilic,"Could also change consensus formation algorithm to optimize for energy efficiency ;) #Ethereum #PutSolarOnItQuote TweetJamie Lee Mattison@JamieLMattison · Apr 8, 2016Mining 1 #Bitcoin in 2020 could = 1/2 a US household's electricity and 4t of CO2! Time for #solar / #storage miners! https://twitter.com/coindesk/status/716248907806846976…",5,2,0,False
67,BitcoinAgile@bitcoinagile,"With Digix tech, artists can turn music into gold #Ethereum http://theongaku.com/posts/with-digix-tech-artists-can-turn-music-into-gold…",1,0,0,False
68,Michael Wuehler@wuehler,Ethereum Enthusiasts @ RISE Barclays NYC:: Web 3.0 by Example #ethereum @ethcoreproject @ThinkRiseNY http://youtu.be/Kbu-Xbr3fdQ,1,0,0,False
69,Marco ฿TC@Marco_BTC,"$ETH collapsing fast...already under 0.0229!
How long before other alts will follow this trend?",4,2,0,False
70,Dave Hoover@davehoover,Replying to @JohnLilic@JohnLilic @ConsenSysLLC Thanks John! Excited to focus on #Ethereum!,1,0,0,False
71,#SmartEthereum@SmartEthereum,"Proof-of-Individuality (POI) Whitepaper http://github.com/proofofindivid… @AdamDScislowicz #ethereumQuote TweetJohan Nygren@resilience_me · Apr 8, 2016Proof-of-Individuality (POI) Whitepaper https://github.com/proofofindividuality/poi/blob/master/whitepaper.pdf… @AdamDScislowicz #ethereum",1,0,0,False
72,★ Casey P. O’Neill ★@cponeill,Finally! My #ethereum mist wallet is up to date. AND @ShapeShift_io is down.,0,0,0,False
73,plumptoiletduck@plumptoiletduck,"$eth holders, just let go. Move toward the light. ",1,0,0,False
74,Anondran@AnondranCrypto,"$LISK vs $ETH LET THE BATTLE BEGIN !!!Quote TweetActual Advice Bitcoin@ActualAdviceBTC · Apr 7, 2016Consulted with experts about the key difference between $LISK and $ETH
@VitalikButerin 
ps ETH still very bearish",1,1,0,False
83,Jebus@jebus911,Damn straight I slept in a x25 $Eth short that I didn't mean to open at x25. Slept great too.,3,0,0,False
84,CryptoCryptics@CryptoCryptics,"If you zoom into the Ethereum transaction chart it shows a peak and the start of a decline 

https://twitter.com/stephantual/status/718145083594383361… $ETHQuote TweetStephan Tual@stephantual · Apr 7, 2016Ok that R package for Ethereum is seriously cool. Note the Devcon One Peak in the chart. #ETHLDN",2,1,0,False
85,AltcoinLive bot@AltcoinLiveBot,updated $ETH buywall 13.7btc @ 0.02275861 http://altcoinlive.com/bittrex-eth-btc #altcoinlive (change -0.00009356),0,0,0,False
87,AltcoinLive bot@AltcoinLiveBot,updated $ETH buywall 13.7btc @ 0.02285217 http://altcoinlive.com/bittrex-eth-btc #altcoinlive (change -0.00009894),0,0,0,False
88,AltcoinLive bot@AltcoinLiveBot,updated $ETH buywall 13.8btc @ 0.02295111 http://altcoinlive.com/bittrex-eth-btc #altcoinlive (change 0.00009306),0,0,0,False
89,Welcome to my Life@mochalatte09,regrann from @ladyether314  -  #music #musicvideo #ether #alllivesmatter #runningwithcash… https://instagram.com/p/BD9UTc8gJA_/,1,0,0,False
90,هشام دياب@diab_hisham,Free Ethereum every 5 minutes http://eth-faucet.com/?r=0xb894c8bfa933ffda48976d29f71ed9cdf4bc35b1… #ethereum via @FreeCryptoCo,0,0,0,False
91,Ethereum UAE@Ethereum_UAE,Genesis Mining Celebrates 2 Years of Service With 5% Discount http://ift.tt/1YjQHY5 #Ethereum,0,0,0,False
92,AltcoinLive bot@AltcoinLiveBot,updated $ETH buywall 13.7btc @ 0.02285805 http://altcoinlive.com/bittrex-eth-btc #altcoinlive (change 0.00005804),0,0,0,False
93,AltcoinLive bot@AltcoinLiveBot,updated $ETH buywall 13.7btc @ 0.02280001 http://altcoinlive.com/bittrex-eth-btc #altcoinlive (change 0.00005709),0,0,0,False
94,AltcoinLive bot@AltcoinLiveBot,updated $ETH buywall 13.6btc @ 0.02274292 http://altcoinlive.com/bittrex-eth-btc #altcoinlive (change -0.00005715),0,0,0,False
95,AltcoinLive bot@AltcoinLiveBot,updated $ETH buywall 13.7btc @ 0.02280007 http://altcoinlive.com/bittrex-eth-btc #altcoinlive (change 0.00005722),0,0,0,False
96,Thiago Ribeiro@thiagoribeirorj,Free Ethereum every 5 minutes http://eth-faucet.com/?r=0x62d36317b8f11f60f54420c89699fd7eac6c55ea… #ethereum via @FreeCryptoCo,0,0,0,False
97,Thiago Ribeiro@thiagoribeirorj,Free Ethereum every 5 minutes http://etherfaucet.net/?r=0x62d36317b8f11f60f54420c89699fd7eac6c55ea… #ethereum via @FreeCryptoCo,0,0,0,False
98,AltcoinLive bot@AltcoinLiveBot,updated $ETH buywall 13.9btc @ 0.02308723 http://altcoinlive.com/bittrex-eth-btc #altcoinlive (change 0.00000248),0,0,0,False
99,AltcoinLive bot@AltcoinLiveBot,updated $ETH buywall 13.9btc @ 0.02308475 http://altcoinlive.com/bittrex-eth-btc #altcoinlive (change 0.00000256),0,0,0,False
100,AltcoinLive bot@AltcoinLiveBot,updated $ETH buywall 13.8btc @ 0.02308219 http://altcoinlive.com/bittrex-eth-btc #altcoinlive (change 0.00000215),0,0,0,False
101,AltcoinLive bot@AltcoinLiveBot,updated $ETH buywall 17.4btc @ 0.02308004 http://altcoinlive.com/bittrex-eth-btc #altcoinlive (change 0.00178004),0,0,0,False
117,★ Casey P. O’Neill ★@cponeill,It is nice to be able to access this #ether from the #genesis sale a couple of years ago.,0,0,0,False
118,AltcoinLive bot@AltcoinLiveBot,updated $ETH buywall 12.2btc @ 0.02130000 http://altcoinlive.com/bittrex-eth-btc #altcoinlive (change -0.00177765),0,0,0,False
119,AltcoinLive bot@AltcoinLiveBot,updated $ETH buywall 17.1btc @ 0.02307765 http://altcoinlive.com/bittrex-eth-btc #altcoinlive (change 0.00177765),0,0,0,False
120,AltcoinLive bot@AltcoinLiveBot,updated $ETH buywall 12.2btc @ 0.02130000 http://altcoinlive.com/bittrex-eth-btc #altcoinlive (change -0.00177601),0,0,0,False
121,AltcoinLive bot@AltcoinLiveBot,updated $ETH buywall 13.8btc @ 0.02307601 http://altcoinlive.com/bittrex-eth-btc #altcoinlive (change 0.00000196),0,0,0,False
122,AltcoinLive bot@AltcoinLiveBot,updated $ETH buywall 13.9btc @ 0.02307405 http://altcoinlive.com/bittrex-eth-btc #altcoinlive (change 0.00017402),0,0,0,False
123,AltcoinLive bot@AltcoinLiveBot,updated $ETH buywall 13.7btc @ 0.02290003 http://altcoinlive.com/bittrex-eth-btc #altcoinlive (change 0.00006257),0,0,0,False
125,kiaracxo_@Ki_Cherelle,Fuck with ya soul like #Ether,1,0,0,False
126,AltcoinLive bot@AltcoinLiveBot,updated $ETH buywall 13.7btc @ 0.02283746 http://altcoinlive.com/bittrex-eth-btc #altcoinlive (change 0.00005766),0,0,0,False
127,AltcoinLive bot@AltcoinLiveBot,updated $ETH buywall 13.7btc @ 0.02277980 http://altcoinlive.com/bittrex-eth-btc #altcoinlive (change 0.00006648),0,0,0,False
128,AltcoinLive bot@AltcoinLiveBot,updated $ETH buywall 13.6btc @ 0.02271332 http://altcoinlive.com/bittrex-eth-btc #altcoinlive (change -0.00007384),0,0,0,False
129,AltcoinLive bot@AltcoinLiveBot,updated $ETH buywall 13.7btc @ 0.02278716 http://altcoinlive.com/bittrex-eth-btc #altcoinlive (change -0.00006362),0,0,0,False
130,AltcoinLive bot@AltcoinLiveBot,updated $ETH buywall 13.7btc @ 0.02285078 http://altcoinlive.com/bittrex-eth-btc #altcoinlive (change -0.00001021),0,0,0,False
131,AltcoinLive bot@AltcoinLiveBot,updated $ETH buywall 13.7btc @ 0.02286099 http://altcoinlive.com/bittrex-eth-btc #altcoinlive (change -0.00028043),0,0,0,False
133,AltcoinLive bot@AltcoinLiveBot,updated $ETH buywall 13.9btc @ 0.02314142 http://altcoinlive.com/bittrex-eth-btc #altcoinlive (change 0.00010321),0,0,0,False
134,AltcoinLive bot@AltcoinLiveBot,updated $ETH buywall 13.8btc @ 0.02303821 http://altcoinlive.com/bittrex-eth-btc #altcoinlive (change -0.00011405),0,0,0,False
135,AltcoinLive bot@AltcoinLiveBot,updated $ETH buywall 13.9btc @ 0.02315226 http://altcoinlive.com/bittrex-eth-btc #altcoinlive (change -0.00006122),0,0,0,False
150,AltcoinLive bot@AltcoinLiveBot,updated $ETH buywall 13.9btc @ 0.02321348 http://altcoinlive.com/bittrex-eth-btc #altcoinlive (change 0.00005404),0,0,0,False
151,AltcoinLive bot@AltcoinLiveBot,updated $ETH buywall 13.9btc @ 0.02315944 http://altcoinlive.com/bittrex-eth-btc #altcoinlive (change -0.00005985),0,0,0,False
152,AltcoinLive bot@AltcoinLiveBot,updated $ETH buywall 13.9btc @ 0.02321929 http://altcoinlive.com/bittrex-eth-btc #altcoinlive (change 0.00007278),0,0,0,False
153,AltcoinLive bot@AltcoinLiveBot,updated $ETH buywall 13.9btc @ 0.02314651 http://altcoinlive.com/bittrex-eth-btc #altcoinlive (change -0.00006996),0,0,0,False
154,AltcoinLive bot@AltcoinLiveBot,updated $ETH buywall 13.9btc @ 0.02321647 http://altcoinlive.com/bittrex-eth-btc #altcoinlive (change -0.00005912),0,0,0,False
155,AltcoinLive bot@AltcoinLiveBot,updated $ETH buywall 14.0btc @ 0.02327559 http://altcoinlive.com/bittrex-eth-btc #altcoinlive (change -0.00007661),0,0,0,False
156,AltcoinLive bot@AltcoinLiveBot,updated $ETH buywall 14.0btc @ 0.02335220 http://altcoinlive.com/bittrex-eth-btc #altcoinlive (change 0.0006522),0,0,0,False
157,AltcoinLive bot@AltcoinLiveBot,updated $ETH buywall 11.2btc @ 0.02270000 http://altcoinlive.com/bittrex-eth-btc #altcoinlive (change -0.00090975),0,0,0,False
158,AltcoinLive bot@AltcoinLiveBot,updated $ETH buywall 14.2btc @ 0.02360975 http://altcoinlive.com/bittrex-eth-btc #altcoinlive (change 0.00000071),0,0,0,False
159,AltcoinLive bot@AltcoinLiveBot,updated $ETH buywall 14.2btc @ 0.02360904 http://altcoinlive.com/bittrex-eth-btc #altcoinlive (change 0.00000106),0,0,0,False
160,AltcoinLive bot@AltcoinLiveBot,updated $ETH buywall 14.2btc @ 0.02360798 http://altcoinlive.com/bittrex-eth-btc #altcoinlive (change 0.00090798),0,0,0,False
161,AltcoinLive bot@AltcoinLiveBot,updated $ETH buywall 11.2btc @ 0.02270000 http://altcoinlive.com/bittrex-eth-btc #altcoinlive (change -0.0009062),0,0,0,False
162,AltcoinLive bot@AltcoinLiveBot,updated $ETH buywall 14.2btc @ 0.02360620 http://altcoinlive.com/bittrex-eth-btc #altcoinlive (change 0.00008613),0,0,0,False
163,AltcoinLive bot@AltcoinLiveBot,updated $ETH buywall 14.1btc @ 0.02352007 http://altcoinlive.com/bittrex-eth-btc #altcoinlive (change 0.00016787),0,0,0,False
164,AltcoinLive bot@AltcoinLiveBot,updated $ETH buywall 14.0btc @ 0.02335220 http://altcoinlive.com/bittrex-eth-btc #altcoinlive (change -0.00015402),0,0,0,False
165,AltcoinLive bot@AltcoinLiveBot,updated $ETH buywall 14.1btc @ 0.02350622 http://altcoinlive.com/bittrex-eth-btc #altcoinlive (change 0.00000236),0,0,0,False
166,AltcoinLive bot@AltcoinLiveBot,updated $ETH buywall 14.2btc @ 0.02350386 http://altcoinlive.com/bittrex-eth-btc #altcoinlive (change 0.00000147),0,0,0,False
167,AltcoinLive bot@AltcoinLiveBot,updated $ETH buywall 14.1btc @ 0.02350239 http://altcoinlive.com/bittrex-eth-btc #altcoinlive (change 0.00003306),0,0,0,False
168,AltcoinLive bot@AltcoinLiveBot,updated $ETH buywall 14.1btc @ 0.02346933 http://altcoinlive.com/bittrex-eth-btc #altcoinlive (change 0.00000363),0,0,0,False
182,AltcoinLive bot@AltcoinLiveBot,updated $ETH buywall 14.1btc @ 0.02346570 http://altcoinlive.com/bittrex-eth-btc #altcoinlive (change 0.00013844),0,0,0,False
183,AltcoinLive bot@AltcoinLiveBot,updated $ETH buywall 14.0btc @ 0.02332726 http://altcoinlive.com/bittrex-eth-btc #altcoinlive (change 0.00006226),0,0,0,False
184,AltcoinLive bot@AltcoinLiveBot,updated $ETH buywall 14.0btc @ 0.02326500 http://altcoinlive.com/bittrex-eth-btc #altcoinlive (change 0.00008658),0,0,0,False
185,AltcoinLive bot@AltcoinLiveBot,updated $ETH buywall 13.9btc @ 0.02317842 http://altcoinlive.com/bittrex-eth-btc #altcoinlive (change 0.00008662),0,0,0,False
187,AltcoinLive bot@AltcoinLiveBot,updated $ETH buywall 13.9btc @ 0.02309180 http://altcoinlive.com/bittrex-eth-btc #altcoinlive (change -0.00000023),0,0,0,False
190,#SmartEthereum@SmartEthereum,"#Ethereum vs Mossack Fonseca: The IBC and it’s #blockchain alternatives #ethereum #panamapapersQuote TweetPelle Brændgaard (we are hiring)@PelleB · Apr 6, 2016Ethereum vs Mossack Fonseca: The IBC and it’s blockchain alternatives http://buff.ly/1SdeJPQ #ethereum #panamapapers",0,0,0,False
192,AltcoinLive bot@AltcoinLiveBot,updated $ETH buywall 13.9btc @ 0.02309203 http://altcoinlive.com/bittrex-eth-btc #altcoinlive (change -0.00010863),0,0,0,False
193,#SmartEthereum@SmartEthereum,"Real #transparency in #financial services. First option expiration on #ethereum #blockchain.Quote TweetPelle Brændgaard (we are hiring)@PelleB · Apr 8, 2016Real transparency in financial services. First option expiration on #ethereum blockchain. Full details here: https://live.ether.camp/transaction/106aeaaea61732…",0,0,0,False
194,AltcoinLive bot@AltcoinLiveBot,updated $ETH buywall 13.9btc @ 0.02320066 http://altcoinlive.com/bittrex-eth-btc #altcoinlive (change 0.00010886),0,0,0,False
195,AltcoinLive bot@AltcoinLiveBot,updated $ETH buywall 13.9btc @ 0.02309180 http://altcoinlive.com/bittrex-eth-btc #altcoinlive (change -0.00013933),0,0,0,False
196,AltcoinLive bot@AltcoinLiveBot,updated $ETH buywall 13.9btc @ 0.02323113 http://altcoinlive.com/bittrex-eth-btc #altcoinlive (change 0.00007224),0,0,0,False
202,AltcoinLive bot@AltcoinLiveBot,updated $ETH buywall 13.9btc @ 0.02315889 http://altcoinlive.com/bittrex-eth-btc #altcoinlive (change 0.00006709),0,0,0,False
203,AltcoinLive bot@AltcoinLiveBot,updated $ETH buywall 13.9btc @ 0.02309180 http://altcoinlive.com/bittrex-eth-btc #altcoinlive (change 0.00009057),0,0,0,False
204,Timo Ξberhard@ZhuBajie72,"And, You Shall Not Forget About The Hammer... #Ethereum $ETH $ETHXBT @krakenfx  >>> https://tradingview.com/chart/ETHXBT/lmkMEe8P-You-Shall-Not-Forget-About-The-Hammer/…",0,0,0,False
205,AltcoinLive bot@AltcoinLiveBot,updated $ETH buywall 13.8btc @ 0.02300123 http://altcoinlive.com/bittrex-eth-btc #altcoinlive (change -0.00009057),0,0,0,False
206,AltcoinLive bot@AltcoinLiveBot,updated $ETH buywall 13.9btc @ 0.02309180 http://altcoinlive.com/bittrex-eth-btc #altcoinlive (change 0.00008915),0,0,0,False
207,Pelle Brændgaard (we are hiring)@PelleB,Real transparency in financial services. First option expiration on #ethereum blockchain. Full details here: https://live.ether.camp/transaction/106aeaaea61732…,2,0,0,False
208,AltcoinLive bot@AltcoinLiveBot,updated $ETH buywall 13.8btc @ 0.02300265 http://altcoinlive.com/bittrex-eth-btc #altcoinlive (change 0.00000022),0,0,0,False
209,AltcoinLive bot@AltcoinLiveBot,updated $ETH buywall 16.1btc @ 0.02300243 http://altcoinlive.com/bittrex-eth-btc #altcoinlive (change 0.00000109),0,0,0,False
210,AltcoinLive bot@AltcoinLiveBot,updated $ETH buywall 13.8btc @ 0.02300134 http://altcoinlive.com/bittrex-eth-btc #altcoinlive (change 0.00000011),0,0,0,False
211,pipermerriam@pipermerriam,What to do with my newly acquired Unicorn Meat Grinder Association DAO.  Moooohahahahahahaha. https://live.ether.camp/transaction/1e00934847b71f… @avsa #ethereum,2,1,0,False
212,AltcoinLive bot@AltcoinLiveBot,updated $ETH buywall 13.8btc @ 0.02300123 http://altcoinlive.com/bittrex-eth-btc #altcoinlive (change -0.00014552),0,0,0,False
213,AltcoinLive bot@AltcoinLiveBot,updated $ETH buywall 13.9btc @ 0.02314675 http://altcoinlive.com/bittrex-eth-btc #altcoinlive (change -0.00015326),0,0,0,False
214,#SmartEthereum@SmartEthereum,"Report suggests #IoE market could be worth $23.97 Trillion by #2020. Do you agree with this? #blockchain #ethereumQuote TweetBlockTrΞnd@BlockTrend · Apr 8, 2016Report suggests #IoE market could be worth $23.97 Trillion by 2020. Do you agree with this? #blockchain #ethereumShow this poll",1,2,0,False
215,#SmartEthereum@SmartEthereum,"When I read this Wired article I thought of decentralized orgs via #ethereumQuote TweetChris@ChristianPeel · Apr 8, 2016When I read this Wired article I thought of decentralized orgs via #ethereum https://twitter.com/dgtlnmd/status/717644799822675968…",0,0,0,False
216,#SmartEthereum@SmartEthereum,"Aeron Buchanan of Ethcore discussing the #blockchain bubble & unilateral pseudo-sovereign monopolies.
#Ethereum https://twitter.com/n173553719/status/718535593962156032…This Tweet is unavailable.",0,0,0,False
218,Ethereum SE@StackEthereum,What can I do for free (like in free beer)? http://ethereum.stackexchange.com/questions/2794/what-can-i-do-for-free-like-in-free-beer… #ethereum #contractdevelopment #gasprice,0,0,0,False
219,AltcoinLive bot@AltcoinLiveBot,updated $ETH buywall 14.0btc @ 0.02330001 http://altcoinlive.com/bittrex-eth-btc #altcoinlive (change -0.00008271),0,0,0,False
220,AltcoinLive bot@AltcoinLiveBot,updated $ETH buywall 14.0btc @ 0.02338272 http://altcoinlive.com/bittrex-eth-btc #altcoinlive (change -0.00003908),0,0,0,False
221,AltcoinLive bot@AltcoinLiveBot,updated $ETH buywall 14.1btc @ 0.02342180 http://altcoinlive.com/bittrex-eth-btc #altcoinlive (change 0.00012168),0,0,0,False
222,#SmartEthereum@SmartEthereum,"Come talk to us at #InnovateUK Finance Global Summit 2016, #London April 11th #fintech2016 #ifgs2016 #Bitcoin #ethereum",1,0,0,False
223,AltcoinLive bot@AltcoinLiveBot,updated $ETH buywall 14.0btc @ 0.02330012 http://altcoinlive.com/bittrex-eth-btc #altcoinlive (change 0.00000011),0,0,0,False
233,AltcoinLive bot@AltcoinLiveBot,updated $ETH buywall 14.0btc @ 0.02330001 http://altcoinlive.com/bittrex-eth-btc #altcoinlive (change -0.00023870),0,0,0,False
234,AltcoinLive bot@AltcoinLiveBot,updated $ETH buywall 14.1btc @ 0.02353871 http://altcoinlive.com/bittrex-eth-btc #altcoinlive (change 0.00000055),0,0,0,False
235,AltcoinLive bot@AltcoinLiveBot,updated $ETH buywall 14.1btc @ 0.02353816 http://altcoinlive.com/bittrex-eth-btc #altcoinlive (change 0.00000044),0,0,0,False
236,AltcoinLive bot@AltcoinLiveBot,updated $ETH buywall 14.1btc @ 0.02353772 http://altcoinlive.com/bittrex-eth-btc #altcoinlive (change 0.00000044),0,0,0,False
237,AltcoinLive bot@AltcoinLiveBot,updated $ETH buywall 14.1btc @ 0.02353728 http://altcoinlive.com/bittrex-eth-btc #altcoinlive (change 0.00000042),0,0,0,False
238,AltcoinLive bot@AltcoinLiveBot,updated $ETH buywall 14.1btc @ 0.02353686 http://altcoinlive.com/bittrex-eth-btc #altcoinlive (change 0.00000032),0,0,0,False
239,CoinGecko@coingecko,The latest Ethereum price is USD 9.96. For historical #Ethereum price charts - http://buff.ly/1Y3h6Jz,0,0,0,False
240,Cloud Mining Monitor@cmmonitorcom,#Ethereum #Cloudmining': 08.04.2016 Payment received. 6 MHs - 0.09901523 ETH. From Genesis Mining.Genesis Mining (Ethereum Mining)cmmonitor.com,0,0,0,False
241,AltcoinLive bot@AltcoinLiveBot,updated $ETH buywall 14.1btc @ 0.02353654 http://altcoinlive.com/bittrex-eth-btc #altcoinlive (change 0.00000229),0,0,0,False
242,AltcoinWeekly@altcoinweekly,The latest Ethereum price is USD 9.96. For historical #Ethereum price charts - http://buff.ly/1Y3h6Jz,0,0,0,False
243,AltcoinLive bot@AltcoinLiveBot,updated $ETH buywall 14.1btc @ 0.02353425 http://altcoinlive.com/bittrex-eth-btc #altcoinlive (change 0.00083425),0,0,0,False
244,AltcoinLive bot@AltcoinLiveBot,updated $ETH buywall 11.2btc @ 0.02270000 http://altcoinlive.com/bittrex-eth-btc #altcoinlive (change -0.00060103),0,0,0,False
245,AltcoinLive bot@AltcoinLiveBot,updated $ETH buywall 14.0btc @ 0.02330103 http://altcoinlive.com/bittrex-eth-btc #altcoinlive (change 0.00000022),0,0,0,False
246,AltcoinLive bot@AltcoinLiveBot,updated $ETH buywall 14.0btc @ 0.02330081 http://altcoinlive.com/bittrex-eth-btc #altcoinlive (change 0.00000012),0,0,0,False
248,AltcoinLive bot@AltcoinLiveBot,updated $ETH buywall 14.0btc @ 0.02330069 http://altcoinlive.com/bittrex-eth-btc #altcoinlive (change 0.00000044),0,0,0,False
249,AltcoinLive bot@AltcoinLiveBot,updated $ETH buywall 14.0btc @ 0.02330025 http://altcoinlive.com/bittrex-eth-btc #altcoinlive (change 0.00006912),0,0,0,False
250,AltcoinLive bot@AltcoinLiveBot,updated $ETH buywall 13.9btc @ 0.02323113 http://altcoinlive.com/bittrex-eth-btc #altcoinlive (change -0.00006888),0,0,0,False
251,AltcoinLive bot@AltcoinLiveBot,updated $ETH buywall 14.0btc @ 0.02330001 http://altcoinlive.com/bittrex-eth-btc #altcoinlive (change -0.00010949),0,0,0,False
260,AltcoinLive bot@AltcoinLiveBot,updated $ETH buywall 14.0btc @ 0.02340950 http://altcoinlive.com/bittrex-eth-btc #altcoinlive (change 0.00010949),0,0,0,False
261,AltcoinLive bot@AltcoinLiveBot,updated $ETH buywall 14.0btc @ 0.02330001 http://altcoinlive.com/bittrex-eth-btc #altcoinlive (change -0.00022066),0,0,0,False
262,AltcoinLive bot@AltcoinLiveBot,updated $ETH buywall 14.2btc @ 0.02352067 http://altcoinlive.com/bittrex-eth-btc #altcoinlive (change 0.00000264),0,0,0,False
263,AltcoinLive bot@AltcoinLiveBot,updated $ETH buywall 14.8btc @ 0.02351803 http://altcoinlive.com/bittrex-eth-btc #altcoinlive (change 0.00021802),0,0,0,False
265,#SmartEthereum@SmartEthereum,"Great news for Ethereum #devs. http://Ether.Camp now supports 3 different Ethereum #blockchains #ethereumQuote TweetPelle Brændgaard (we are hiring)@PelleB · Apr 8, 2016Great news for Ethereum devs. http://Ether.Camp now supports 3 different Ethereum blockchains  http://blog.ether.camp/post/142457676953/liveethercamp-supports-them-all… #ethereum",0,0,0,False
266,#SmartEthereum@SmartEthereum,"#ethereum Gives #bitcoin A Run for Its Money http://bit.ly/1VEWrwrQuote TweetBitcoinAgile@bitcoinagile · Apr 8, 2016#ethereum Gives #bitcoin A Run for Its Money http://bit.ly/1VEWrwr",0,0,0,False
267,#SmartEthereum@SmartEthereum,"Here is @PanteraCapital's newsletter with a focus on #Ethereum and public/private #blockchain. #Bitcoin #FinTechQuote TweetSeed Founders@SeedFounders · Apr 8, 2016Here is @PanteraCapital's newsletter with a focus on #Ethereum and public/private #blockchain. #Bitcoin #FinTech http://buff.ly/1o9cu8o",0,0,0,False
268,#SmartEthereum@SmartEthereum,"Love that #NYC is fostering so much #Ethereum!Quote TweetHARTΞJ SAWNΞY@hartejsawney · Apr 8, 2016Love that NYC is fostering so much #Ethereum!  https://twitter.com/awrelllRo/status/718454130893856769…",0,0,0,False
269,#SmartEthereum@SmartEthereum,"This is very, very cool, @juanfranblanco!
Check it out, world :-)
Bring on the #XBOX One version!
#ethereum #xamarinQuote TweetBob Summerwill@BobSummerwill · Apr 8, 2016This is very, very cool, @juanfranblanco!
Check it out, world :-)
Bring on the XBOX One version!
#ethereum #xamarin
https://twitter.com/juanfranblanco/status/718453992343400448…",1,0,0,False
270,SkyzaLimit@SkyzaLimitPro,If I won the lotto tomorrow..Id dump it on #ETH #NLG @ethereumproject and @Gulden,0,0,0,False
271,David Liam@crazydaveorama,#Ethereum (ETH) Price Trends: 4/08/2016Ethereum (ETH) Price Trends: 4/08/2016Ethereum’s price has carried out one of the trend development scenarios. The downward trend continues.cointelegraph.com,0,0,0,False
273,tr໐lē 3000@CryptoGoblin,Replying to @ibankbitcoins@ibankbitcoins too bad the dump screwed up the $ETH short for us!,1,0,0,False
274,AltcoinLive bot@AltcoinLiveBot,updated $ETH buywall 14.1btc @ 0.02348289 http://altcoinlive.com/bittrex-eth-btc #altcoinlive (change 0.00021722),0,0,0,False
275,AltcoinLive bot@AltcoinLiveBot,updated $ETH buywall 14.0btc @ 0.02326567 http://altcoinlive.com/bittrex-eth-btc #altcoinlive (change 0.00196567),0,0,0,False
276,AltcoinLive bot@AltcoinLiveBot,updated $ETH buywall 12.2btc @ 0.02130000 http://altcoinlive.com/bittrex-eth-btc #altcoinlive (change -0.00205168),0,0,0,False
282,BitcoinAgile@bitcoinagile,#ethereum Gives #bitcoin A Run for Its Money http://bit.ly/1VEWrwr,0,0,0,False
283,AltcoinLive bot@AltcoinLiveBot,updated $ETH buywall 14.0btc @ 0.02335168 http://altcoinlive.com/bittrex-eth-btc #altcoinlive (change 0.00000032),0,0,0,False
284,Sinz @Sinzfeldt,"Cut my 0.0264 #Ethereum short at 0.0231, looks like i timed that well... A whiskey is in order",0,0,0,False
285,AltcoinLive bot@AltcoinLiveBot,updated $ETH buywall 14.0btc @ 0.02335136 http://altcoinlive.com/bittrex-eth-btc #altcoinlive (change 0.00000044),0,0,0,False
286,Roland@metamatterNL,"#Bitcoin is failing https://imgur.com/QS72Ovn
Hijacked by the happy few, call them Blockstream ....
#ethereum is your way out!Bitcoin Blockchainblocks are fullEven in times of congestion some Blocks are very small, or even empty. This is usually done because the mining node has a poor connectivity. These Blocks give a wrong sense of space left in the...imgur.com",0,0,0,False
287,AltcoinLive bot@AltcoinLiveBot,updated $ETH buywall 14.0btc @ 0.02335092 http://altcoinlive.com/bittrex-eth-btc #altcoinlive (change 0.00011979),0,0,0,False
288,AltcoinLive bot@AltcoinLiveBot,updated $ETH buywall 13.9btc @ 0.02323113 http://altcoinlive.com/bittrex-eth-btc #altcoinlive (change 0.00004434),0,0,0,False
289,AltcoinLive bot@AltcoinLiveBot,updated $ETH buywall 13.9btc @ 0.02318679 http://altcoinlive.com/bittrex-eth-btc #altcoinlive (change 0.00012995),0,0,0,False
290,AltcoinLive bot@AltcoinLiveBot,updated $ETH buywall 13.8btc @ 0.02305684 http://altcoinlive.com/bittrex-eth-btc #altcoinlive (change 0.00009282),0,0,0,False
291,AltcoinLive bot@AltcoinLiveBot,updated $ETH buywall 13.8btc @ 0.02296402 http://altcoinlive.com/bittrex-eth-btc #altcoinlive (change 0.00006391),0,0,0,False
292,AltcoinLive bot@AltcoinLiveBot,updated $ETH buywall 13.7btc @ 0.02290011 http://altcoinlive.com/bittrex-eth-btc #altcoinlive (change 0.00005924),0,0,0,False
293,AltcoinWeekly@altcoinweekly,The latest Ethereum price is USD 9.71. For historical #Ethereum price charts - http://buff.ly/1Y3h6Jz,0,0,0,False
295,AltcoinLive bot@AltcoinLiveBot,updated $ETH buywall 13.7btc @ 0.02284087 http://altcoinlive.com/bittrex-eth-btc #altcoinlive (change 0.00005728),0,0,0,False
297,AltcoinLive bot@AltcoinLiveBot,updated $ETH buywall 13.7btc @ 0.02278359 http://altcoinlive.com/bittrex-eth-btc #altcoinlive (change 0.00005717),0,0,0,False
302,The Crypto World@TheCryptoWorld,Still trying to #compile @ethereumproject on #Ubuntu? http://tcwld.me/1RUKlwF #Ethereum #ETH $ETH #Altcoin,0,0,0,False
305,Tin Zaw Shane@tinzawshane,"'Last Days Of Beethoven' perform at 'Exit To Hohour' tour
Hellyeah!!! 
\m/
#ETH #LastDaysOfBeethoven #LiveInYangon",7,0,0,False
306,AltcoinLive bot@AltcoinLiveBot,updated $ETH buywall 13.6btc @ 0.02272642 http://altcoinlive.com/bittrex-eth-btc #altcoinlive (change 0.00005723),0,0,0,False
308,AltcoinLive bot@AltcoinLiveBot,updated $ETH buywall 13.6btc @ 0.02266919 http://altcoinlive.com/bittrex-eth-btc #altcoinlive (change -0.00006485),0,0,0,False
309,Seed Founders@SeedFounders,"Here is @PanteraCapital's newsletter with a focus on #Ethereum and public/private #blockchain. #Bitcoin #FinTechEthereum Emerges, Bitcoin vs. “Bankchains” :: Blockchain Letter, March 2016If you would like to receive our periodic research and special updates, subscribe at www.panteracapital.com/subscribe.panteracapital.medium.com",2,1,0,False
310,AltcoinLive bot@AltcoinLiveBot,updated $ETH buywall 13.6btc @ 0.02273404 http://altcoinlive.com/bittrex-eth-btc #altcoinlive (change -0.00002801),0,0,0,False
311,HARTΞJ SAWNΞY@hartejsawney,"Love that NYC is fostering so much #Ethereum!Quote Tweetaurel ∞@awrelllRo · Apr 8, 2016#NYC #ethereum meetup ! http://youtu.be/Kbu-Xbr3fdQ",0,0,0,False
312,AltcoinLive bot@AltcoinLiveBot,updated $ETH buywall 13.7btc @ 0.02276205 http://altcoinlive.com/bittrex-eth-btc #altcoinlive (change 0.00006002),0,0,0,False
314,AltcoinLive bot@AltcoinLiveBot,updated $ETH buywall 13.6btc @ 0.02270203 http://altcoinlive.com/bittrex-eth-btc #altcoinlive (change 0.00005752),0,0,0,False
317,Bryan Kitahara@agentkato,Decentralizing giants (ie #Amazon #Google) #Ethereum restores the internet to the individual. #IoT http://futurism.com/videos/heres-ethereum-restore-online-freedom-transform-internet/… via @Futurism,0,0,0,False
322,AltcoinLive bot@AltcoinLiveBot,updated $ETH buywall 13.6btc @ 0.02264451 http://altcoinlive.com/bittrex-eth-btc #altcoinlive (change -0.00005730),0,0,0,False
323,AltcoinLive bot@AltcoinLiveBot,updated $ETH buywall 13.6btc @ 0.02270181 http://altcoinlive.com/bittrex-eth-btc #altcoinlive (change 0.00005726),0,0,0,False
324,Le Coin Coin@LCCNFR,"#Ethereum - Analyse de #marché  #1
#Bitcoin #ETH/BTC https://le-coin-coin.fr/?p=4210",0,0,0,False
325,Kelly Spaulding@kellyspaulding,And how @eris_ltd is planning to contribute to #Solidity.  We are adding #marmounts:  http://ow.ly/10rwWf #cryptocurrency #Ethereum,0,0,0,False
326,CoinGecko@coingecko,The latest Ethereum price is USD 9.74. For historical #Ethereum price charts - http://buff.ly/1Y3h6Jz,0,0,0,False
327,AltcoinWeekly@altcoinweekly,The latest Ethereum price is USD 9.74. For historical #Ethereum price charts - http://buff.ly/1Y3h6Jz,0,0,0,False
328,Rodrigo Paulo Gomes []@bgcoin,"Reading the Tea Leaves in Bitcoin Blockchain Market
http://ofnumbers.com/2016/04/08/reading-the-tea-leaves/…
#blockchain #bitcoin #ethereum >@ofnumbers",0,0,0,False
329,AltcoinLive bot@AltcoinLiveBot,updated $ETH buywall 13.6btc @ 0.02264455 http://altcoinlive.com/bittrex-eth-btc #altcoinlive (change -0.00012199),0,0,0,False
331,BullBear Analytics@BullBearAnalyst,Replying to @BigBoyBitcoin@BigBoiBitcoin what do you think? #ethereum,0,0,0,False
332,AltcoinLive bot@AltcoinLiveBot,updated $ETH buywall 13.7btc @ 0.02276654 http://altcoinlive.com/bittrex-eth-btc #altcoinlive (change 0.00005721),0,0,0,False
333,AltcoinLive bot@AltcoinLiveBot,updated $ETH buywall 13.6btc @ 0.02270933 http://altcoinlive.com/bittrex-eth-btc #altcoinlive (change 0.00005738),0,0,0,False
334,#SmartEthereum@SmartEthereum,"Would be awesome if this happened! What does everyone think? Is this possible?  #blockchain #ethereum #dapps #IoEQuote TweetBlockTrΞnd@BlockTrend · Apr 8, 2016Would be awesome if this happened! What does everyone think? Is this possible?  http://newsbtc.com/2016/04/05/mysterious-report-estimates-ioe-market-23-97-trillion-2020/… #blockchain #ethereum #dapps #IoE",1,0,0,False
335,AltcoinLive bot@AltcoinLiveBot,updated $ETH buywall 13.6btc @ 0.02265195 http://altcoinlive.com/bittrex-eth-btc #altcoinlive (change 0.00005675),0,0,0,False
336,#SmartEthereum@SmartEthereum,"#Ethereum based Proof Of Individuality Prevents #SybilAttacs
http://newsbtc.com/2016/04/05/pro…
#blockchain #cybersecurityQuote TweetBACKFEED@Backfeed_cc · Apr 8, 2016#Ethereum based Proof Of Individuality Prevents #SybilAttacs
http://newsbtc.com/2016/04/05/proof-of-individuality-blockchain-security/…
#blockchain #cybersecurity",3,3,0,False
337,The Financial Revolutionist@Fin_Revolution,#Ethereum is all the rage. See The Financial Revolutionist. @Microsoft https://cards.twitter.com/cards/18ce548jczu/1m9tt…,1,2,0,False
339,Muslim Hackathon@muslimHackathon,Ethereum could it be the next Bitcoin FREE #TechTalks #hackathon #app Apr 10 at IACC http://MuslimHackathon.com #mHack3DFW #bitcoin #Ethereum,0,0,0,False
340,Snxwgxd@stfugetmoney,Listen to SUN PROD. $NOW & $ETH by $eth #np on #SoundCloud https://soundcloud.com/seth027/sun-prod-now-eth…,1,0,0,False
341,Snxwgxd@stfugetmoney,Listen to MATERIALISTIC PROD. $NOW by $eth #np on #SoundCloudMATERIALISTIC PROD. $NOWTRIPULATION 2016soundcloud.com,0,0,0,False
342,Ethereum UAE@Ethereum_UAE,Money20/20: Blockchain Technicalities and Potential http://ift.tt/1S7IDuR #Ethereum,1,2,0,False
343,BlockTrΞnd@BlockTrend,"Ten #dapps #DAOs to look out for in 2016 http://sebfor.com/ten-dapps-daos-and-projects-to-watch-out-for-in-2016/… #blockchain #ethereumTen Dapps, DAOs, and projects to watch out for in 2016What sort of Ethereum projects currently exists, and which deserve our attention?  Listed below are ten Dapps, DAOs, and ventures to watch out for in the upcoming year. Augur Augur is a prediction...sebfor.com",3,1,0,False
345,AltcoinLive bot@AltcoinLiveBot,updated $ETH buywall 13.6btc @ 0.02259520 http://altcoinlive.com/bittrex-eth-btc #altcoinlive (change -0.00013015),0,0,0,False
346,AltcoinLive bot@AltcoinLiveBot,updated $ETH buywall 13.6btc @ 0.02272535 http://altcoinlive.com/bittrex-eth-btc #altcoinlive (change 0.00005764),0,0,0,False
347,AltcoinLive bot@AltcoinLiveBot,updated $ETH buywall 13.6btc @ 0.02266771 http://altcoinlive.com/bittrex-eth-btc #altcoinlive (change 0.00005677),0,0,0,False
348,BlockTrΞnd@BlockTrend,Would be awesome if this happened! What does everyone think? Is this possible?  http://newsbtc.com/2016/04/05/mysterious-report-estimates-ioe-market-23-97-trillion-2020/… #blockchain #ethereum #dapps #IoEReport Estimates IoE Market at $23.97 Trillion by 2020A report by Infoholic Research LLP estimates the global Internet of Everything (IoE) market at almost $24 trillion within the next four years.newsbtc.com,3,0,0,False
350,AltcoinLive bot@AltcoinLiveBot,updated $ETH buywall 13.6btc @ 0.02261094 http://altcoinlive.com/bittrex-eth-btc #altcoinlive (change -0.00006174),0,0,0,False
351,AltcoinLive bot@AltcoinLiveBot,updated $ETH buywall 13.6btc @ 0.02267268 http://altcoinlive.com/bittrex-eth-btc #altcoinlive (change -0.00005695),0,0,0,False
352,AltcoinLive bot@AltcoinLiveBot,updated $ETH buywall 13.6btc @ 0.02272963 http://altcoinlive.com/bittrex-eth-btc #altcoinlive (change 0.00005695),0,0,0,False
354,AltcoinLive bot@AltcoinLiveBot,updated $ETH buywall 14.7btc @ 0.02267268 http://altcoinlive.com/bittrex-eth-btc #altcoinlive (change -0.00005613),0,0,0,False
355,AltcoinLive bot@AltcoinLiveBot,updated $ETH buywall 13.6btc @ 0.02272881 http://altcoinlive.com/bittrex-eth-btc #altcoinlive (change 0.00005711),0,0,0,False
356,AltcoinLive bot@AltcoinLiveBot,updated $ETH buywall 13.6btc @ 0.02267170 http://altcoinlive.com/bittrex-eth-btc #altcoinlive (change -0.00016329),0,0,0,False
357,FaFa (Fiya Blaze)@FiyaBlaze,Talk my . #IgOtThatFeva ...I Was Born With the #Ether #Windy… https://instagram.com/p/3bnLnQk0h3kqc1rJBd_hM67WkoKvtPN-vNYs00/…,0,0,0,False
358,MellowMoney@MellowMoneyTeam,"Faucets updated! 2 new #ethereum and 3 new #Dogecoin faucets added! Enjoy claiming! http://bit.ly/1SSjfpU
#Bitcoin #DOGE #MellowMoneyTeamBitcoin, Dogecoin, Litecoin & Ethereum Faucets ListsWe have updated our Bitcoin, Dogecoin, Litecoin and Ethereum faucets lists. Click on the links below to get Bitcoins, Dogecoins, Litecoins and Ethereum FOR FREE now! Get free Bitcoins! Get free Dog…mellowmoney.wordpress.com",0,0,0,False
359,AltcoinLive bot@AltcoinLiveBot,updated $ETH buywall 13.7btc @ 0.02277789 http://altcoinlive.com/bittrex-eth-btc #altcoinlive (change -0.00006341),0,0,0,False
360,Adam Meister@TechBalt,"Save at least 1 #Bitcoin for 2020 https://youtube.com/watch?v=NOoKGhG5Pro… #fintech #bitcoininvestors #blockchain #BTC #cryptocurrency #satoshi #ethereumSave at least one Bitcoin for 2020It may not sound glamorous, but saving at least one Bitcoin for 2020 could pay off in numerous ways if you just have some patience. Support the cause if you ...youtube.com",0,0,0,False
361,AltcoinLive bot@AltcoinLiveBot,updated $ETH buywall 13.7btc @ 0.02284130 http://altcoinlive.com/bittrex-eth-btc #altcoinlive (change -0.00016784),0,0,0,False
363,AltcoinLive bot@AltcoinLiveBot,updated $ETH buywall 13.9btc @ 0.02300914 http://altcoinlive.com/bittrex-eth-btc #altcoinlive (change 0.00000489),0,0,0,False
364,BTCVLC@BitcoinVLC,"#BitcoinPrice $423,56
#Ethereum $9,78
#coinbase #Bitcoin
#Venezuela #BTCVLC
#BuenViernes
WhatsApp 0426-2408251",0,0,0,False
365,AltcoinLive bot@AltcoinLiveBot,updated $ETH buywall 13.8btc @ 0.02300425 http://altcoinlive.com/bittrex-eth-btc #altcoinlive (change 0.00000083),0,0,0,False
366,AltcoinLive bot@AltcoinLiveBot,updated $ETH buywall 13.8btc @ 0.02300342 http://altcoinlive.com/bittrex-eth-btc #altcoinlive (change 0.00000060),0,0,0,False
367,AltcoinLive bot@AltcoinLiveBot,updated $ETH buywall 13.9btc @ 0.02300282 http://altcoinlive.com/bittrex-eth-btc #altcoinlive (change 0.00007262),0,0,0,False
368,AltcoinLive bot@AltcoinLiveBot,updated $ETH buywall 13.8btc @ 0.02293020 http://altcoinlive.com/bittrex-eth-btc #altcoinlive (change 0.00006205),0,0,0,False
369,AltcoinLive bot@AltcoinLiveBot,updated $ETH buywall 13.7btc @ 0.02286815 http://altcoinlive.com/bittrex-eth-btc #altcoinlive (change 0.00012590),0,0,0,False
370,AltcoinLive bot@AltcoinLiveBot,updated $ETH buywall 13.6btc @ 0.02274225 http://altcoinlive.com/bittrex-eth-btc #altcoinlive (change -0.00000958),0,0,0,False
371,AltcoinLive bot@AltcoinLiveBot,updated $ETH buywall 13.7btc @ 0.02275183 http://altcoinlive.com/bittrex-eth-btc #altcoinlive (change 0.00012206),0,0,0,False
373,CryptoTradeADay@CryptoTradeADay,"#Ethereum Has reached bottom, It is a good time again to buy! Safest place to get your #Ethereum is @Poloniex #LongtermInvesting #Crypto",0,0,0,False
374,AltcoinLive bot@AltcoinLiveBot,updated $ETH buywall 13.6btc @ 0.02262977 http://altcoinlive.com/bittrex-eth-btc #altcoinlive (change 0.00005711),0,0,0,False
376,AltcoinLive bot@AltcoinLiveBot,updated $ETH buywall 13.5btc @ 0.02257266 http://altcoinlive.com/bittrex-eth-btc #altcoinlive (change -0.00007309),0,0,0,False
377,Ethereum Price@EthereumPrice_,"#Ethereum: Ether Price Index
1 ETH =0.022977Ƀ XBT = $9.779850 USD
Today: -3.80%⬇︎ Last 24h: -6.84%⬇︎
https://ethereum-price.com",0,0,0,False
378,ΞTHΞROll@etheroll,7 Wall Street Firms Test Blockchain for Credit Default Swaps #ethereum #blockchain http://coinde.sk/1qw2R5k via @CoinDesk,0,0,0,False
379,paulsdaniels@shkiperrr55,Free Ethereum every 5 minutes http://etherfaucet.net/?r=0xa872126143fC134f7d3915cF1628554584eb7A9D… #ethereum via @FreeCryptoCo,0,0,0,False
380,paulsdaniels@shkiperrr55,Free Ethereum every 5 minutes http://eth-faucet.com/?r=0xa872126143fC134f7d3915cF1628554584eb7A9D… #ethereum via @FreeCryptoCo,0,0,0,False
381,TBM NEWS@TBMGPT_News,"@BitBay Announces Support For #Ethereum Trading - EconoTimesBitBay Announces Support For Ether Trading - EconoTimesBitBay, a Poland-based Bitcoin and Litecoin trading platform, has announced that it has enabled Ethereum trading against fiat currencies (EUR, USD and PLN) as well as digital currency Bitcoin, on its...econotimes.com",0,0,0,False
382,CloudPay@Nadia_Griffiths,#Ethereum (ETH) Price Trends: 4/08/2016 http://bit.ly/1V22jkG,0,0,0,False
383,AltcoinLive bot@AltcoinLiveBot,updated $ETH buywall 13.6btc @ 0.02264575 http://altcoinlive.com/bittrex-eth-btc #altcoinlive (change 0.00005667),0,0,0,False
391,Alunaut   @onemanatatime,"Replying to @onemanatatime.@onemanatatime one more week... https://twitter.com/onemanatatime/status/706383827770302464… $ETHQuote TweetAlunaut   @onemanatatime · Mar 6, 2016Gg. This the top for now boys. We buy back when this guy decides to sell his $ETH at 0.014 later this month. https://twitter.com/CryptoCryptics/status/706381522002124800…",0,0,0,False
392,Julia Edling@bitcointonic,Latest #Ethereum (ETH) Price Trends: Ethereum’s price has carried out one of the trend… http://dlvr.it/L0nG1f,0,0,0,False
395,AltcoinLive bot@AltcoinLiveBot,updated $ETH buywall 13.6btc @ 0.02258908 http://altcoinlive.com/bittrex-eth-btc #altcoinlive (change -0.00005722),0,0,0,False
396,AltcoinLive bot@AltcoinLiveBot,updated $ETH buywall 13.6btc @ 0.02264630 http://altcoinlive.com/bittrex-eth-btc #altcoinlive (change 0.00011334),0,0,0,False
397,How To Get Bitcoins  #KBF@htgbitcoins,#Ethereum Mist Wallet 0.6.2 (Beta 13) additional Chinese lang support + a presale file import hotfix https://github.com/ethereum/mist/releases… #blockchain,0,0,0,False
399,AltcoinLive bot@AltcoinLiveBot,updated $ETH buywall 13.5btc @ 0.02253296 http://altcoinlive.com/bittrex-eth-btc #altcoinlive (change 0.00005686),0,0,0,False
400,BlockTrΞnd@BlockTrend,"Final Release of Homestead. Great work @ethereumproject developers. #ethereumQuote TweetGeneral-Beck@general_beck · Apr 8, 2016Release: 1.2.0 Homestead Final Release - Ethereum J http://ethereumj.io/blog/2016/04/05/release-1-dot-2-0-homestead-final-release/…",1,0,0,False
401,BlockTrΞnd@BlockTrend,"Decentralised App Competition! Get involved! #ETH #ethereum #RunCPAQuote Tweet#SmartEthereum@SmartEthereum · Apr 8, 2016RunCPA Announces #Decentralized #Ethereum App Competition With $250,000/Year Job 

#ETH #altcoin #cryptocurrency https://twitter.com/ecoinland/status/718415649521999872…",5,3,0,False
402,AltcoinLive bot@AltcoinLiveBot,updated $ETH buywall 13.5btc @ 0.02247610 http://altcoinlive.com/bittrex-eth-btc #altcoinlive (change -0.00013623),0,0,0,False
403,AltcoinLive bot@AltcoinLiveBot,updated $ETH buywall 13.6btc @ 0.02261233 http://altcoinlive.com/bittrex-eth-btc #altcoinlive (change 0.00005693),0,0,0,False
404,AltcoinLive bot@AltcoinLiveBot,updated $ETH buywall 13.5btc @ 0.02255540 http://altcoinlive.com/bittrex-eth-btc #altcoinlive (change 0.00006864),0,0,0,False
405,wome@peterpank123,Mine #bitcoin #ether #dash or other coins on the cloud! Use Genesis-Mining! 3% discount code: 41PR3T http://genesis-mining.com/a/237836 #ethereum,0,0,0,False
406,AltcoinLive bot@AltcoinLiveBot,updated $ETH buywall 13.5btc @ 0.02248676 http://altcoinlive.com/bittrex-eth-btc #altcoinlive (change -0.00006093),0,0,0,False
409,𝕸𝖊𝖗𝖑𝖎𝖓𝖘 𝕸𝖆𝖙𝖗𝖎𝖝@Merlinsmatrix,#Ethereum (ETH) Price Trends: 4/08/2016 http://coint.co/2ws3,0,0,0,False
410,Corner Coin@Corner_Coin,"BitBay Offers #Ethereum Trading Against #Fiat And #Bitcoin http://bit.ly/1V1paNe via @jdebunt #fintechBitBay Offers Ethereum Trading Against Fiat And BitcoinBitBay offers Ethereum trading markets for Bitcoin, EUR, PLN, and USD, which should attract traders from all over the world.newsbtc.com",1,0,0,False
412,AltcoinLive bot@AltcoinLiveBot,updated $ETH buywall 13.5btc @ 0.02254769 http://altcoinlive.com/bittrex-eth-btc #altcoinlive (change -0.00014155),0,0,0,False
413,#SmartEthereum@SmartEthereum,Contact @ethereumSS for help with your #security needs http://ethereumsecurityservices.com/contact/ http://fb.me/11QwczVlZ #Ethereum #Blockchain #cybersecurity,0,0,0,False
414,#SmartEthereum@SmartEthereum,"Here's a good simple overview of #Ethereum project. Touches on what #Blockchain is good for. http://fb.me/9jTK1a925Quote TweetBradley C Hughes@AngelsInTheAI · Apr 8, 2016Here's a good simple overview of #Ethereum project. Touches on what #Blockchain is good for. http://fb.me/9jTK1a925",0,0,0,False
415,#SmartEthereum@SmartEthereum,Can #Bitcoin be used for good? Maybe #Ethereum would be even better (for titles & contracts) https://twitter.com/cashvert/status/718378286859055104…This Tweet is unavailable.,0,0,0,False
416,#SmartEthereum@SmartEthereum,"New Study Explores Competition Among #Bitcoin, #Ethereum And Other Privately Issued Money - EconoTimesQuote TweetTBM NEWS@TBMGPT_News · Apr 8, 2016New Study Explores Competition Among #Bitcoin, #Ethereum And Other Privately Issued Money - EconoTimes http://econotimes.com/New-Study-Explores-Competition-Among-Bitcoin-Ethereum-And-Other-Privately-Issued-Money-191729#…",0,0,0,False
417,#SmartEthereum@SmartEthereum,#Ethereum coverage continued: @DigixGlobal will allow artists to turn music into gold - http://goo.gl/inWQTN. https://twitter.com/theongaku/status/718408693847429121…This Tweet is unavailable.,0,0,0,False
418,#SmartEthereum@SmartEthereum,"RunCPA Announces #Decentralized #Ethereum App Competition With $250,000/Year Job 

#ETH #altcoin #cryptocurrencyQuote TweetCrypto ― logen@cryptologen · Apr 8, 2016RunCPA Announces Decentralized #Ethereum App Competition With $250,000/Year Job P... http://coint.co/2wrq
#ETH #altcoin #cryptocurrency",1,1,0,False
419,#SmartEthereum@SmartEthereum,"Watching for changes in web3.isConnected() http://ethereum.stackexchange.com/questions/2783… #ethereum #web3jsQuote TweetEthereum SE@StackEthereum · Apr 8, 2016Watching for changes in web3.isConnected() http://ethereum.stackexchange.com/questions/2783/watching-for-changes-in-web3-isconnected… #ethereum #web3js",0,0,0,False
420,#SmartEthereum@SmartEthereum,"Wow, an #R package for #Ethereum, super strong #blockchain data analysis! https://twitter.com/5chdn/status/718424957135560704…This Tweet is unavailable.",0,0,0,False
421,#SmartEthereum@SmartEthereum,"NEW CHANNEL - http://gitter.im/ethereum/cpp-e…
http://reddit.com/r/ethereum/com…
#ethereum #cplusplusQuote TweetBob Summerwill@BobSummerwill · Apr 8, 2016NEW CHANNEL - https://gitter.im/ethereum/cpp-ethereum-development…
https://reddit.com/r/ethereum/comments/4dvnwq/new_channel/…
#ethereum #cplusplus",1,0,0,False
422,#SmartEthereum@SmartEthereum,"#Money20/20: #Bitcoin industry Leaders Discuss Block Size Debate http://ift.tt/1Xld3Ir #EthereumQuote TweetEthereum UAE@Ethereum_UAE · Apr 8, 2016Money 20/20: Bitcoin industry Leaders Discuss Block Size Debate http://ift.tt/1Xld3Ir #Ethereum",2,1,0,False
425,AltcoinLive bot@AltcoinLiveBot,updated $ETH buywall 13.6btc @ 0.02268924 http://altcoinlive.com/bittrex-eth-btc #altcoinlive (change 0.00005672),0,0,0,False
427,AltcoinLive bot@AltcoinLiveBot,updated $ETH buywall 13.6btc @ 0.02263252 http://altcoinlive.com/bittrex-eth-btc #altcoinlive (change -0.00007262),0,0,0,False
428,AltcoinLive bot@AltcoinLiveBot,updated $ETH buywall 13.6btc @ 0.02270514 http://altcoinlive.com/bittrex-eth-btc #altcoinlive (change 0.00005736),0,0,0,False
430,AltcoinLive bot@AltcoinLiveBot,updated $ETH buywall 13.6btc @ 0.02264778 http://altcoinlive.com/bittrex-eth-btc #altcoinlive (change 0.00005693),0,0,0,False
431,AltcoinLive bot@AltcoinLiveBot,updated $ETH buywall 13.6btc @ 0.02259085 http://altcoinlive.com/bittrex-eth-btc #altcoinlive (change 0.00005660),0,0,0,False
432,crypto Nepal@977crypto,Panic sell guys. #eth,0,0,0,False
433,Ethereum SE@StackEthereum,Watching for changes in web3.isConnected() http://ethereum.stackexchange.com/questions/2783/watching-for-changes-in-web3-isconnected… #ethereum #web3js,1,0,0,False
435,AltcoinLive bot@AltcoinLiveBot,updated $ETH buywall 13.5btc @ 0.02253425 http://altcoinlive.com/bittrex-eth-btc #altcoinlive (change 0.00005666),0,0,0,False
436,ChicagoRuby@ChicagoRuby,"Replying to @JohnLilic@JohnLilic @ConsenSysLLC Congrats to all! Time to update @davehoover ‘s bio :-) http://meetup.com/ChicagoRuby/events/224923432/… #EthereumFriday walk on the Highline in Greenwood Village.Fri, Jul 13, 2018, 9:00 AM: The description of the event, Friday walk on the Highline in Greenwood Village. , is available only to members.meetup.com",2,0,0,False
437,BitBay@BitBay,"BitBay Announces Support For #Ether #ETH #Trading - EconoTimes http://econotimes.com/BitBay-Announces-Support-For-Ether-Trading-191905… via @econodailyBitBay Announces Support For Ether Trading - EconoTimesBitBay, a Poland-based Bitcoin and Litecoin trading platform, has announced that it has enabled Ethereum trading against fiat currencies (EUR, USD and PLN) as well as digital currency Bitcoin, on its...econotimes.com",0,0,0,False
438,Раб Божий@Diener_Gottes,#Ethereum (#ETH) #Price Trends: 4/08/2016: <![CDATA[ Ethereum's price has carried out one of… http://goo.gl/fb/w60ZgA,0,0,0,False
440,Ethereum SE@StackEthereum,"multi-step game, would the contract stop for a while for another transaction to come http://ethereum.stackexchange.com/questions/2782/multi-step-game-would-the-contract-stop-for-a-while-for-another-transaction-to… #ethereum #contractdesign",0,0,0,False
441,𝖬𝖨𝖢𝖧𝖠𝖤𝖫 𝖱𝖤𝖴𝖳𝖤𝖱@michaelreuter,The unstoppable machine #ethereum http://svds.com/ethereum-the-rise-of-the-world-computer/#.Vs3MJboMMl0.facebook…,1,0,0,False
443,Julia Vaingurt@julia_vaingurt,"You want to Sell  150 #bitcoin
 I pay You $463.25/ #Btc
 profit $5,738 (+9%)
 you Get $69,488
 #OTC #ETH http://cur.lv/x839f",0,0,0,False
444,AltcoinLive bot@AltcoinLiveBot,updated $ETH buywall 13.5btc @ 0.02247759 http://altcoinlive.com/bittrex-eth-btc #altcoinlive (change -0.00006445),0,0,0,False
445,Gavin Wood@gavofyork,#ethereum Parity on RasPi 2B after 16 hours of block processing: #590622  15 blk/s | 14 tx/s | 616433 gas/s,25,12,1,False
447,YOᗪI ᕼEᖇᗰᗩᗯᗩᑎ@YodiHermawan,#Ethereum (#ETH) #Price Trends: 4/08/2016: <![CDATA[ Ethereum's price has carried out… http://goo.gl/fb/Xpbt6i #vk,0,0,0,False
448,Makoto Inoue ( matoken.eth )@makoto_inoue,"#ethldn one spot left for  London  #ethereum codeup next Tuesday !The first codeup (pilot)Tue, Apr 12, 2016, 6:30 PM: I am organising a study group for around 10 people who teach each other about Ethereum coding related stuff over a few beers.• Since this is the first trial, it's entirelymeetup.com",1,1,0,False
449,Widget 4 Bitcoin@widget4bc,##ETHereum (ETH) #Price #Trends: 4/08/2016: Ethereum's price has carried out one of the… http://short.4bc.co/agV,0,0,0,False
450,4BC@aff4bc,##ETHereum (ETH) #Price #Trends: 4/08/2016: Ethereum's price has carried out one of the… http://short.4bc.co/agV,0,0,0,False
451,Bitcoin Directory@dir4bc,##ETHereum (ETH) #Price #Trends: 4/08/2016: Ethereum's price has carried out one of the… http://short.4bc.co/agV,0,0,0,False
452,Ethereum Price@EthereumPrice_,"#Ethereum: Ether Price Index
1 ETH =0.023129Ƀ XBT = $9.767800 USD
Today: -3.16%⬇︎ Last 24h: -6.87%⬇︎
https://ethereum-price.com",0,0,0,False
455,AltcoinLive bot@AltcoinLiveBot,updated $ETH buywall 13.6btc @ 0.02269065 http://altcoinlive.com/bittrex-eth-btc #altcoinlive (change 0.00007237),0,0,0,False
456,Michael van Breda@Michaelvb30,Ether mining from@home. Fun fun money money. Coins #coins #cryptocurrency #ethereum,2,0,0,False
457,AltcoinLive bot@AltcoinLiveBot,updated $ETH buywall 13.6btc @ 0.02261828 http://altcoinlive.com/bittrex-eth-btc #altcoinlive (change 0.00005694),0,0,0,False
458,AltcoinLive bot@AltcoinLiveBot,updated $ETH buywall 13.5btc @ 0.02256134 http://altcoinlive.com/bittrex-eth-btc #altcoinlive (change 0.00001130),0,0,0,False
459,Ethereum SE@StackEthereum,Is it possible to run the Ethereum Wallet with a remote Blockchain? http://ethereum.stackexchange.com/questions/2780/is-it-possible-to-run-the-ethereum-wallet-with-a-remote-blockchain… #ethereum #wallets #nodes #lightclients,0,0,0,False
460,AltcoinLive bot@AltcoinLiveBot,updated $ETH buywall 13.5btc @ 0.02255004 http://altcoinlive.com/bittrex-eth-btc #altcoinlive (change -0.00005711),0,0,0,False
461,AltcoinLive bot@AltcoinLiveBot,updated $ETH buywall 13.6btc @ 0.02260715 http://altcoinlive.com/bittrex-eth-btc #altcoinlive (change -0.00001166),0,0,0,False
462,AltcoinLive bot@AltcoinLiveBot,updated $ETH buywall 13.6btc @ 0.02261881 http://altcoinlive.com/bittrex-eth-btc #altcoinlive (change 0.00005747),0,0,0,False
463,Cloud Mining Monitor@cmmonitorcom,#Ethereum #Cloudmining': 08.04.2016 Payment received. 5 MHs - 0.06610714 ETH. From MyCoinCloud.MyCoinCloud (Ethereum Mining)cmmonitor.com,0,0,0,False
464,AltcoinLive bot@AltcoinLiveBot,updated $ETH buywall 13.5btc @ 0.02256134 http://altcoinlive.com/bittrex-eth-btc #altcoinlive (change -0.00006559),0,0,0,False
465,Ali Güçlü@aliguclu,"CoinTelegraph : #Ethereum (#ETH) Price Trends: 4/08/2016 http://cointelegraph.com/news/ethereum-eth-price-trends-4082016… … https://twitter.com/CoinTelegraph/status/718402693417607168…)Quote TweetCointelegraph@Cointelegraph · Apr 8, 2016#Ethereum (#ETH) Price Trends: 4/08/2016 http://cointelegraph.com/news/ethereum-eth-price-trends-4082016…",0,0,0,False
467,AltcoinLive bot@AltcoinLiveBot,updated $ETH buywall 13.6btc @ 0.02262693 http://altcoinlive.com/bittrex-eth-btc #altcoinlive (change 0.00005666),0,0,0,False
468,Cointelegraph@Cointelegraph,#Ethereum (#ETH) Price Trends: 4/08/2016 http://cointelegraph.com/news/ethereum-eth-price-trends-4082016…,1,0,0,False
469,AltcoinLive bot@AltcoinLiveBot,updated $ETH buywall 13.5btc @ 0.02257027 http://altcoinlive.com/bittrex-eth-btc #altcoinlive (change -0.00011040),0,0,0,False
471,AltcoinLive bot@AltcoinLiveBot,updated $ETH buywall 13.6btc @ 0.02268067 http://altcoinlive.com/bittrex-eth-btc #altcoinlive (change -0.00019327),0,0,0,False
472,Franck Besnard@besn0847,#ethereum #docker #blockchain #tutorials Tutorial 2 : Create your first HelloWorld contractbesn0847/ethereum-appA simple Etheruem app to get started on Blockchains - besn0847/ethereum-appgithub.com,0,0,0,False
473,฿it @nalyst@BitAnalyst,"Evil people struggle and manipulate to get what they want. But Blockchains will remain indifferent. Just math
#ethereum #Bitcoin #dash",0,0,0,False
474,AltcoinLive bot@AltcoinLiveBot,updated $ETH buywall 13.7btc @ 0.02287394 http://altcoinlive.com/bittrex-eth-btc #altcoinlive (change -0.00006476),0,0,0,False
475,AltcoinLive bot@AltcoinLiveBot,updated $ETH buywall 13.8btc @ 0.02293870 http://altcoinlive.com/bittrex-eth-btc #altcoinlive (change 0.00006476),0,0,0,False
476,AltcoinLive bot@AltcoinLiveBot,updated $ETH buywall 13.7btc @ 0.02287394 http://altcoinlive.com/bittrex-eth-btc #altcoinlive (change 0.00001238),0,0,0,False
477,CryptoCryptics@CryptoCryptics,"Big $ETH fish:Quote TweetChris Dunn@ChrisDunnTV · Apr 6, 2016Just finished an incredible fishing trip for sailfish and tuna. And looking to snag another big #Ethereum fish soon!",1,0,0,False
478,AltcoinLive bot@AltcoinLiveBot,updated $ETH buywall 13.7btc @ 0.02286156 http://altcoinlive.com/bittrex-eth-btc #altcoinlive (change 0.00006143),0,0,0,False
479,AltcoinLive bot@AltcoinLiveBot,updated $ETH buywall 13.7btc @ 0.02280013 http://altcoinlive.com/bittrex-eth-btc #altcoinlive (change 0.00006007),0,0,0,False
480,AltcoinLive bot@AltcoinLiveBot,updated $ETH buywall 13.6btc @ 0.02274006 http://altcoinlive.com/bittrex-eth-btc #altcoinlive (change -0.00013388),0,0,0,False
481,AltcoinLive bot@AltcoinLiveBot,updated $ETH buywall 13.7btc @ 0.02287394 http://altcoinlive.com/bittrex-eth-btc #altcoinlive (change 0.00000579),0,0,0,False
482,AltcoinLive bot@AltcoinLiveBot,updated $ETH buywall 13.7btc @ 0.02286815 http://altcoinlive.com/bittrex-eth-btc #altcoinlive (change 0.00015785),0,0,0,False
483,AltcoinLive bot@AltcoinLiveBot,updated $ETH buywall 13.6btc @ 0.02271030 http://altcoinlive.com/bittrex-eth-btc #altcoinlive (change 0.00011795),0,0,0,False
484,AltcoinLive bot@AltcoinLiveBot,updated $ETH buywall 13.6btc @ 0.02259235 http://altcoinlive.com/bittrex-eth-btc #altcoinlive (change -0.00010237),0,0,0,False
485,AltcoinLive bot@AltcoinLiveBot,updated $ETH buywall 13.6btc @ 0.02269472 http://altcoinlive.com/bittrex-eth-btc #altcoinlive (change 0.00005765),0,0,0,False
486,CRYPTOCOINTALK@cryptocointalk,Ethereum $ETH be like.  https://youtube.com/watch?v=z1myBGV27xc…,1,0,0,False
492,AltcoinLive bot@AltcoinLiveBot,updated $ETH buywall 13.6btc @ 0.02263707 http://altcoinlive.com/bittrex-eth-btc #altcoinlive (change 0.00007614),0,0,0,False
493,AltcoinLive bot@AltcoinLiveBot,updated $ETH buywall 13.5btc @ 0.02256093 http://altcoinlive.com/bittrex-eth-btc #altcoinlive (change 0.00006970),0,0,0,False
494,AltcoinLive bot@AltcoinLiveBot,updated $ETH buywall 13.5btc @ 0.02249123 http://altcoinlive.com/bittrex-eth-btc #altcoinlive (change 0.00005669),0,0,0,False
495,AltcoinLive bot@AltcoinLiveBot,updated $ETH buywall 13.5btc @ 0.02243454 http://altcoinlive.com/bittrex-eth-btc #altcoinlive (change 0.00005630),0,0,0,False
496,AltcoinLive bot@AltcoinLiveBot,updated $ETH buywall 13.4btc @ 0.02237824 http://altcoinlive.com/bittrex-eth-btc #altcoinlive (change -0.00007480),0,0,0,False
497,AltcoinLive bot@AltcoinLiveBot,updated $ETH buywall 13.5btc @ 0.02245304 http://altcoinlive.com/bittrex-eth-btc #altcoinlive (change -0.00008266),0,0,0,False
498,AltcoinLive bot@AltcoinLiveBot,updated $ETH buywall 13.5btc @ 0.02253570 http://altcoinlive.com/bittrex-eth-btc #altcoinlive (change 0.00000197),0,0,0,False
499,AltcoinLive bot@AltcoinLiveBot,updated $ETH buywall 13.5btc @ 0.02253373 http://altcoinlive.com/bittrex-eth-btc #altcoinlive (change -0.00007478),0,0,0,False
500,PCIM Europe@pcimeurope,Greetings from the @pcimeurope team visiting @ETH Zurich and Prof Kolar. #ETH #powerelectronics #pcim16,0,0,0,False
502,jahjasiswandi@jahjasiswandi,Free Ethereum every 5 minutes http://eth-faucet.com/?r=0x2edB14fAfDB0D88D3677cab876f71FdD54e3fbEE… #ethereum via @FreeCryptoCo,0,0,0,False
503,ACIndex@10e7_Fund,"$ETH is heading down to 0.015, if it breaks that, we will see $ETH < 0.01 BTC again @Coinigy $BTCETH #Ethereum $BTC",0,0,0,False
504,AltcoinLive bot@AltcoinLiveBot,updated $ETH buywall 13.6btc @ 0.02260851 http://altcoinlive.com/bittrex-eth-btc #altcoinlive (change 0.00006162),0,0,0,False
505,AltcoinLive bot@AltcoinLiveBot,updated $ETH buywall 13.5btc @ 0.02254689 http://altcoinlive.com/bittrex-eth-btc #altcoinlive (change -0.00009646),0,0,0,False
506,AltcoinLive bot@AltcoinLiveBot,updated $ETH buywall 13.6btc @ 0.02264335 http://altcoinlive.com/bittrex-eth-btc #altcoinlive (change 0.00008242),0,0,0,False
507,AltcoinLive bot@AltcoinLiveBot,updated $ETH buywall 13.5btc @ 0.02256093 http://altcoinlive.com/bittrex-eth-btc #altcoinlive (change 0.00008099),0,0,0,False
508,Bitcoin Garden (Not Giving Away ETH)@BitcoinGarden,BitBay Offers Ethereum Trading Against Fiat And Bitcoin: http://bitcoingarden.tk/forum/index.php?topic=4580.msg110436#msg110436… tnx @BitBayPL @newsbtc | #Ethereum #News,5,9,0,False
510,AltcoinLive bot@AltcoinLiveBot,updated $ETH buywall 13.5btc @ 0.02247994 http://altcoinlive.com/bittrex-eth-btc #altcoinlive (change 0.00011286),0,0,0,False
511,AltcoinLive bot@AltcoinLiveBot,updated $ETH buywall 13.4btc @ 0.02236708 http://altcoinlive.com/bittrex-eth-btc #altcoinlive (change -0.00001489),0,0,0,False
512,AltcoinLive bot@AltcoinLiveBot,updated $ETH buywall 13.4btc @ 0.02238197 http://altcoinlive.com/bittrex-eth-btc #altcoinlive (change 0.00005723),0,0,0,False
523,Ethereum SE@StackEthereum,Syntax highlighting for Solidity VS Code extension not working on linux http://ethereum.stackexchange.com/questions/2776/syntax-highlighting-for-solidity-vs-code-extension-not-working-on-linux… #ethereum #solidity #visualstudiocode,0,0,0,False
524,M A T T H U N T Ξ R@matthunter,"Ten Dapps, DAOs, and projects to watch out for in 2016 http://sebfor.com/ten-dapps-daos-and-projects-to-watch-out-for-in-2016/… #Ethereum",0,0,0,False
525,AltcoinLive bot@AltcoinLiveBot,updated $ETH buywall 13.4btc @ 0.02232474 http://altcoinlive.com/bittrex-eth-btc #altcoinlive (change -0.00006265),0,0,0,False
526,AltcoinLive bot@AltcoinLiveBot,updated $ETH buywall 13.4btc @ 0.02238739 http://altcoinlive.com/bittrex-eth-btc #altcoinlive (change 0.00009709),0,0,0,False
527,AltcoinLive bot@AltcoinLiveBot,updated $ETH buywall 13.4btc @ 0.02229030 http://altcoinlive.com/bittrex-eth-btc #altcoinlive (change -0.00001318),0,0,0,False
528,AltcoinLive bot@AltcoinLiveBot,updated $ETH buywall 13.4btc @ 0.02230348 http://altcoinlive.com/bittrex-eth-btc #altcoinlive (change 0.00005696),0,0,0,False
529,BlockchainLUX@blockchainLUX,"@krakenfx stop limit take profit orders #wow such complexity #eth #ftw!!!Quote TweetKraken Exchange@krakenfx · Apr 7, 2016Follow & retweet to #WIN before #competition ends! Tell us what u like bout Kraken 4 an even better chance 2 win :)",0,0,0,False
530,sam spaces@sam_spaces,I dreamt #Eth crashed under 0.01 #BTC,0,0,0,False
531,Bob Summerwill@BobSummerwill,"NEW CHANNEL - https://gitter.im/ethereum/cpp-ethereum-development…
https://reddit.com/r/ethereum/comments/4dvnwq/new_channel/…
#ethereum #cplusplusNEW CHANNEL - https://gitter.im/ethereum/cpp-ethereum-developmentWe have just created a new public channel for the day-to-day communication between the developers on the Ethereum C++ projects. This channel...reddit.com",4,2,0,False
533,BitcoinAgile@bitcoinagile,Nice volume on exchange #ethereum #altcoin #rimbit #cryptocurrency http://rimbit.com/threads/nice-volume-on-exchange.4093…,0,0,0,False
534,Bob Bobert@Bob_Helensburgh,@Rimbits doing well on exchanges - volume up!  http://goo.gl/IQzP3C #altcoin #rimbit #cryptocurrency #ethereum,0,0,0,False
541,BitcoinAgile@bitcoinagile,"#ethereum: Links, News And Resources (3)Ethereum: Links, News And Resources (3)Previous Post LE12: Sergio Lerner – RootStock and Smart Contract Platforms – Liberty Entrepreneurs Podcast ConsenSys (@ConsenSysLLC) | Twitter Christian Lundkvist (@ChrisLundkvist) | Twitter Slock.…ajlopez.wordpress.com",1,0,0,False
542,crypt0biwan@crypt0biwan,Closed $ETH short at 0.0228,0,0,0,False
543,fintechfolk@fintechfolk,Thanks @soqadiri for registering for FinTechFolk - http://zpr.io/Mnfj #fintech #ethereum #bitcoin #blockchain,2,0,0,False
544,Red Panda Music@RedPandaMU,OfeliaDorme – Jupiter – Single Review #eth-rock #newvideo http://ow.ly/10qZwA,0,0,0,False
545,Ethereum SE@StackEthereum,Where are contracts actually running? [duplicate] http://ethereum.stackexchange.com/questions/2773/where-are-contracts-actually-running… #ethereum #introducingethereum #smartcontracts,1,0,0,False
546,Ethereum SE@StackEthereum,How do I access a contract by its address (within Mix) http://ethereum.stackexchange.com/questions/2775/how-do-i-access-a-contract-by-its-address-within-mix… #ethereum #contractdevelopment #contractdebugging #mix #ide,0,0,0,False
549,Bitcoin@bitcoinpoet,Intel Unveils 'Sawtooth Lake' Proposal at Hyperledger Meeting:       submitted by    /u/ryoumh  [lin... http://bit.ly/1SiySnq #ethereumIntel Unveils 'Sawtooth Lake' Proposal at Hyperledger MeetingPosted in r/ethereum by u/ryoumh • 4 points and 0 commentsreddit.com,1,0,0,False
550,Bitcoin@bitcoinpoet,R3's Corda:       submitted by    /u/flamingnorman  [link]   [comments]  http://bit.ly/1qz7egd #ethereum,1,0,0,False
551,Ethereum Price@EthereumPrice_,"#Ethereum: Ether Price Index
1 ETH =0.022924Ƀ XBT = $9.690050 USD
Today: -4.02%⬇︎ Last 24h: -9.23%⬇︎
https://ethereum-price.com",0,0,0,False
552,Ethereum SE@StackEthereum,Where are contracts actually running? http://ethereum.stackexchange.com/questions/2773/where-are-contracts-actually-running… #ethereum #smartcontracts,1,0,0,False
554,Digiconomist@DigiEconomist,#Ethereum diving below $10 http://coincap.io Now trading at around $9.70 per #ETH,1,0,0,False
555,AltcoinLive bot@AltcoinLiveBot,updated $ETH buywall 13.4btc @ 0.02241554 http://altcoinlive.com/bittrex-eth-btc #altcoinlive (change 0.00007117),0,0,0,False
556,Philippe Meyer@phameyer,"""Blockchain technology for the daily life"" by @phameyer on @LinkedIn #EthereumBlockchain technology for the daily lifeLooking for Blockchain use cases in our daily life, we came across the idea of using Blockchain for parking tickets. To move this idea further we are presenting it to the GTEC Blockchain contest ta...linkedin.com",0,0,0,False
566,Marco ฿TC@Marco_BTC,"Replying to @BTCBean@BTCBean Not much support for $ETH before 0.018 - 0.02.
Soon...!",1,0,0,False
567,AltcoinLive bot@AltcoinLiveBot,updated $ETH buywall 13.4btc @ 0.02234437 http://altcoinlive.com/bittrex-eth-btc #altcoinlive (change 0.00014544),0,0,0,False
568,AltcoinLive bot@AltcoinLiveBot,updated $ETH buywall 13.3btc @ 0.02219893 http://altcoinlive.com/bittrex-eth-btc #altcoinlive (change -0.00019821),0,0,0,False
569,#SmartEthereum@SmartEthereum,"#Estonia e-residency using the #blockchain #technology. Could #NewZealand do the same! #ethereum #EthereumNZQuote TweetEthereumNZ@EthereumNZ · Apr 7, 2016#Estonia e-residency using the #blockchain technology. Could #NewZealand do the same! http://nasdaq.com/press-release/nasdaqs-blockchain-technology-to-transform-the-republic-of-estonias-eresidency-shareholder-20160212-00058… #ethereum #EthereumNZ",0,0,0,False
570,AltcoinLive bot@AltcoinLiveBot,updated $ETH buywall 13.4btc @ 0.02239714 http://altcoinlive.com/bittrex-eth-btc #altcoinlive (change -0.00005640),0,0,0,False
572,AltcoinLive bot@AltcoinLiveBot,updated $ETH buywall 13.5btc @ 0.02245354 http://altcoinlive.com/bittrex-eth-btc #altcoinlive (change 0.00005634),0,0,0,False
573,AltcoinLive bot@AltcoinLiveBot,updated $ETH buywall 13.4btc @ 0.02239720 http://altcoinlive.com/bittrex-eth-btc #altcoinlive (change -0.0000619),0,0,0,False
574,Drake moves Fan@Steak_Shirt,Interested in mining cryptocurrency? Use promo-code: r8UBTu for 3% discount at http://ift.tt/1mvVNC1 #ethereum #bitcoin #invest #eth #btc,0,0,0,False
575,AltcoinLive bot@AltcoinLiveBot,updated $ETH buywall 13.5btc @ 0.02245910 http://altcoinlive.com/bittrex-eth-btc #altcoinlive (change -0.00010821),0,0,0,False
576,AltcoinLive bot@AltcoinLiveBot,updated $ETH buywall 13.5btc @ 0.02256731 http://altcoinlive.com/bittrex-eth-btc #altcoinlive (change -0.00005998),0,0,0,False
577,Philsabang Bull Bull Bull@Philsabang,Huge dumps on #ETH. Big boys doing panic exits. That's a sign.,1,0,0,False
578,AltcoinLive bot@AltcoinLiveBot,updated $ETH buywall 13.6btc @ 0.02262729 http://altcoinlive.com/bittrex-eth-btc #altcoinlive (change -0.00001963),0,0,0,False
579,AltcoinLive bot@AltcoinLiveBot,updated $ETH buywall 13.6btc @ 0.02264692 http://altcoinlive.com/bittrex-eth-btc #altcoinlive (change -0.00029650),0,0,0,False
580,Ethereum SE@StackEthereum,Feedback on function [on hold] http://ethereum.stackexchange.com/questions/2771/feedback-on-function… #ethereum #contractdesign,0,0,0,False
581,AltcoinLive bot@AltcoinLiveBot,updated $ETH buywall 13.8btc @ 0.02294342 http://altcoinlive.com/bittrex-eth-btc #altcoinlive (change -0.00007325),0,0,0,False
582,Julia Vaingurt@julia_vaingurt,#Ethereum breaking through the USD 10 support is a bad sign. #Bitcoin #Altcoin #Ether http://cur.lv/x7vpw,0,0,0,False
584,AltcoinLive bot@AltcoinLiveBot,updated $ETH buywall 13.8btc @ 0.02301667 http://altcoinlive.com/bittrex-eth-btc #altcoinlive (change -0.00006212),0,0,0,False
585,Ethereum SE@StackEthereum,Feedback on function http://ethereum.stackexchange.com/questions/2771/feedback-on-function… #ethereum #contractdesign,0,0,0,False
597,AltcoinLive bot@AltcoinLiveBot,updated $ETH buywall 13.8btc @ 0.02307879 http://altcoinlive.com/bittrex-eth-btc #altcoinlive (change 0.00005914),0,0,0,False
598,AltcoinLive bot@AltcoinLiveBot,updated $ETH buywall 13.8btc @ 0.02301965 http://altcoinlive.com/bittrex-eth-btc #altcoinlive (change 0.00005779),0,0,0,False
599,jahjasiswandi@jahjasiswandi,Free Ethereum every 5 minutes http://etherfaucet.net/?r=0x2edB14fAfDB0D88D3677cab876f71FdD54e3fbEE… #ethereum via @FreeCryptoCo,0,0,0,False
602,AltcoinLive bot@AltcoinLiveBot,updated $ETH buywall 13.8btc @ 0.02296186 http://altcoinlive.com/bittrex-eth-btc #altcoinlive (change -0.00014834),0,0,0,False
604,AltcoinLive bot@AltcoinLiveBot,updated $ETH buywall 13.9btc @ 0.02311020 http://altcoinlive.com/bittrex-eth-btc #altcoinlive (change 0.00006883),0,0,0,False
605,AltcoinLive bot@AltcoinLiveBot,updated $ETH buywall 13.8btc @ 0.02304137 http://altcoinlive.com/bittrex-eth-btc #altcoinlive (change -0.00017025),0,0,0,False
606,AltcoinLive bot@AltcoinLiveBot,updated $ETH buywall 13.9btc @ 0.02321162 http://altcoinlive.com/bittrex-eth-btc #altcoinlive (change -0.00008437),0,0,0,False
607,AltcoinLive bot@AltcoinLiveBot,updated $ETH buywall 14.0btc @ 0.02329599 http://altcoinlive.com/bittrex-eth-btc #altcoinlive (change -0.00009383),0,0,0,False
608,Julia Vaingurt@julia_vaingurt,"New Study Explores Competition Among Bitcoin, Ethereum And Other Privately Issued Money: The a... http://cur.lv/x7uru
#btc #eth #news",0,0,0,False
609,AltcoinLive bot@AltcoinLiveBot,updated $ETH buywall 14.0btc @ 0.02338982 http://altcoinlive.com/bittrex-eth-btc #altcoinlive (change -0.00008371),0,0,0,False
610,AltcoinLive bot@AltcoinLiveBot,updated $ETH buywall 14.1btc @ 0.02347353 http://altcoinlive.com/bittrex-eth-btc #altcoinlive (change -0.00002649),0,0,0,False
615,AltcoinWeekly@altcoinweekly,The latest Ethereum price is USD 10.0. For historical #Ethereum price charts - http://buff.ly/1Y3h6Jz,0,0,0,False
616,CoinGecko@coingecko,The latest Ethereum price is USD 10.0. For historical #Ethereum price charts - http://buff.ly/1Y3h6Jz,2,0,0,False
617,Cryptogeeks boop/bop/beep@Cryptogeeks,"""The very first decentralized options expiration just ran successfully. #etheropt #ethereum #blockchain"" - http://cryptogeeks.com/very-first-decentralized-options-expiration-just-ran-successfully-etheropt-ethereum-blockchain…",0,0,0,False
618,AltcoinLive bot@AltcoinLiveBot,updated $ETH buywall 14.1btc @ 0.02350002 http://altcoinlive.com/bittrex-eth-btc #altcoinlive (change 0.00006966),0,0,0,False
619,AltcoinLive bot@AltcoinLiveBot,updated $ETH buywall 14.1btc @ 0.02343036 http://altcoinlive.com/bittrex-eth-btc #altcoinlive (change 0.00014294),0,0,0,False
620,indxio@indxio,#China Market Close || #Bitcoin: $420.69 | 366.44 EUR||  #Litecoin: 0.0077 BTC  || #Ethereum: 0.0237 BTC   || $BTC $LTC $ETH $RMB,0,0,0,False
621,AdzCoin Newsstories@GetFreeAdz,"Replying to @moigottweets@mcrsqr @1cyrilblanc1 @Inc @brave I don´t think it can compete with Bitcoin, but it can get one of the Big Currencies like #Eth or #Dash!",0,0,0,False
622,BitcoinAgile@bitcoinagile,"New Study Explores Competition Among #bitcoin, #ethereum And Other Privately Issued Money http://1bitcoindaily.com/blog/new-study-explores-competition-among-bitcoin-ethereum-and-other-privately-issued-money…",1,0,0,False
623,BitcoinAgile@bitcoinagile,"New Study Explores Competition Among #bitcoin, #ethereum And Other Privately Issued Money - http://bit.ly/1SE5N6y",2,0,0,False
624,Moises C.@moigottweets,@1cyrilblanc1 @GetFreeAdz @Inc @googlechrome:Brave should do a DAO!It would be a perfect fit since @brave is 100% digital product #ethereum,0,0,0,False
625,AltcoinLive bot@AltcoinLiveBot,updated $ETH buywall 14.0btc @ 0.02328742 http://altcoinlive.com/bittrex-eth-btc #altcoinlive (change -0.00006016),0,0,0,False
626,AltcoinLive bot@AltcoinLiveBot,updated $ETH buywall 14.0btc @ 0.02334758 http://altcoinlive.com/bittrex-eth-btc #altcoinlive (change -0.00006785),0,0,0,False
628,AltcoinLive bot@AltcoinLiveBot,updated $ETH buywall 14.0btc @ 0.02341543 http://altcoinlive.com/bittrex-eth-btc #altcoinlive (change -0.00006794),0,0,0,False
629,AltcoinLive bot@AltcoinLiveBot,updated $ETH buywall 14.1btc @ 0.02348337 http://altcoinlive.com/bittrex-eth-btc #altcoinlive (change -0.00007845),0,0,0,False
630,John Lilic ₿ Ξ ∞@JohnLilic,"If you're interested dm me #blockapps #ethereumQuote TweetBlockApps@blockapps · Apr 6, 2016BlockApps is hiring https://linkedin.com/pulse/blockapps-hiring-kieren-james-lubin… and https://reddit.com/r/haskell/comments/4douwk/haskell_jobs_at_blockapps_build_next_generation/…",1,2,0,False
632,DigitalTechObserver@digitaltecheye,#Ethereum Dapps Showcase: Peer to Peer Insurance Applications http://goo.gl/HjOXJG,0,0,0,False
633,AltcoinLive bot@AltcoinLiveBot,updated $ETH buywall 14.1btc @ 0.02356182 http://altcoinlive.com/bittrex-eth-btc #altcoinlive (change 0.00006180),0,0,0,False
634,AltcoinLive bot@AltcoinLiveBot,updated $ETH buywall 14.1btc @ 0.02350002 http://altcoinlive.com/bittrex-eth-btc #altcoinlive (change 0.00006647),0,0,0,False
635,AltcoinLive bot@AltcoinLiveBot,updated $ETH buywall 14.1btc @ 0.02343355 http://altcoinlive.com/bittrex-eth-btc #altcoinlive (change -0.00001990),0,0,0,False
638,AltcoinLive bot@AltcoinLiveBot,updated $ETH buywall 14.1btc @ 0.02345345 http://altcoinlive.com/bittrex-eth-btc #altcoinlive (change -0.00010839),0,0,0,False
639,Ξ Kuba Kucharski @83TB,Leading indicator is already out there. Technology that will disrupt the way we live. Black swan incoming #ethereum,4,2,0,False
640,AltcoinLive bot@AltcoinLiveBot,updated $ETH buywall 14.1btc @ 0.02356184 http://altcoinlive.com/bittrex-eth-btc #altcoinlive (change -0.00006502),0,0,0,False
641,AltcoinLive bot@AltcoinLiveBot,updated $ETH buywall 14.2btc @ 0.02362686 http://altcoinlive.com/bittrex-eth-btc #altcoinlive (change 0.00006504),0,0,0,False
644,AltcoinLive bot@AltcoinLiveBot,updated $ETH buywall 14.1btc @ 0.02356182 http://altcoinlive.com/bittrex-eth-btc #altcoinlive (change -0.00003819),0,0,0,False
645,AltcoinLive bot@AltcoinLiveBot,updated $ETH buywall 14.2btc @ 0.02360001 http://altcoinlive.com/bittrex-eth-btc #altcoinlive (change -0.00009148),0,0,0,False
646,Ethereum Price@EthereumPrice_,"#Ethereum: Ether Price Index
1 ETH =0.024174Ƀ XBT = $10.210000 USD
Today: +1.21%⬆︎ Last 24h: -5.16%⬇︎
https://ethereum-price.com",0,0,0,False
647,Kayrus Fenix@KayrusFenix,Free Ethereum every 5 minutes http://etherfaucet.net/?r=0x99258c63a22730f4d3d01aa725dd8d33e9c22926… #ethereum via @FreeCryptoCo,0,0,0,False
648,AltcoinLive bot@AltcoinLiveBot,updated $ETH buywall 14.2btc @ 0.02369149 http://altcoinlive.com/bittrex-eth-btc #altcoinlive (change -0.00014281),0,0,0,False
649,AltcoinLive bot@AltcoinLiveBot,updated $ETH buywall 14.3btc @ 0.02383430 http://altcoinlive.com/bittrex-eth-btc #altcoinlive (change -0.00000002),0,0,0,False
650,AltcoinLive bot@AltcoinLiveBot,updated $ETH buywall 14.3btc @ 0.02383432 http://altcoinlive.com/bittrex-eth-btc #altcoinlive (change 0.00000002),0,0,0,False
651,Crypto Trader Pro @CryptoTraderPro,#Ethereum Price Technical Analysis 04/08/2016 – Perfect Sell; Downside Move by… http://dlvr.it/L0Zr41 #Ethereum,0,0,0,False
653,NEWSBTC@newsbtc,#Ethereum Price Technical Analysis 04/08/2016 – Perfect Sell; Downside Move http://ow.ly/10qGmi by @AayushJs,3,5,0,False
659,Ethereum SE@StackEthereum,does the smart contract have something similar to the locktime in bitcoin? http://ethereum.stackexchange.com/questions/2767/does-the-smart-contract-have-something-similar-to-the-locktime-in-bitcoin… #ethereum #contractdesign,0,0,0,False
660,Rodrigo Paulo Gomes []@bgcoin,"@KrakenTrader yeap, it seems to be a good moment to buy ETH
#ethereum",0,0,0,False
