,user,text,likes,retweets,replies,is_thread
0,Lightrains Tech@lightrainstech,Common useful JavaScript snippets for geth #goethereum #ethereumCommon useful JavaScript snippets for gethThis is a collection of common useful scripts that are handy when you do any kind of developemt on the Ethereum Virtual Machine aka EVM.lightrains.com,1,0,0,False
1,DI Dynamics@DiDynamics,#Ripple #effect of recent #DAO #hack & #Ethereum #hardfork #SEC #hesitant to use #ether as #investment #vehicle http://goo.gl/1zx37W #ETF,1,0,0,False
2,On The Blockchain @OnTheBlockChain,"A Painful Lesson For The #Ethereum Community

http://forbes.com/sites/francescoppola/2016/07/21/a-painful-lesson-for-the-ethereum-community/#4f6a60465714… @forbes",2,1,1,False
3,kingscrown@kingscrownBTC,so longing or shorting $ETH #ethereum @ http://fuk.io/bitfinex now? $DAO #theDAO #cryptocurrency,1,0,0,False
4,Rodrigo Paulo Gomes []@bgcoin,"Blockchain will drive demand for decentralized apps
http://cio.com/article/3096994/outsourcing/blockchain-will-drive-demand-for-decentralized-apps.html…
#blockchain #ethereum #bitcoin #DecentralizationBlockchain will drive demand for decentralized appsBlockchain is a shared ledger that stores the complete transaction history of both cryptocurrency and almost any other data you can imagine. It’s transparent and secure, and it eliminates the need...cio.com",2,0,0,False
5,Wojciech Pawlikowski@wpawlikowski,"""Code is law"", except when it isn't: http://coindesk.com/ethereum-executes-blockchain-hard-fork-return-dao-investor-funds… #bitcoin #dao #ethereumEthereum Executes Blockchain Hard Fork to Return DAO Funds - CoinDeskEthereum has executed a hard fork of its blockchain, returning funds lost in The DAO collapse to investors.coindesk.com",3,2,0,False
6,Andrew Quentson@Aquentson,"Full Steam Ahead Now #Ethereum, #Blockchain, #IoT.Quote TweetCCN - Capital & Celeb News@CapitalAndCeleb · Jul 23, 2016HackETHon to Bring Data Analytics to Smart Contracts https://cryptocoinsnews.com/hackethon-bring-data-analytics-smart-contracts/…",2,1,0,False
7,creme.ai@creme_ai,Why #Ethereum Succeeded Where #Bitcoin Failed http://motherboard.vice.com/read/why-ethereum-succeeded-where-bitcoin-failed-hard-fork-DAO…,1,4,0,False
8,Francisco Gordillo@FGordillo,#bitcoin #blockchain Bitcoin: The Trust Anchor in a Sea of Blockchains: Bitcoin software eng... http://bit.ly/2a8d83R #ethereum #ether,2,0,0,False
9,Shermin Voshmgir@sherminvo,ppl referring to #ethereum as #cryptocurrency or #digitalcurrency dont understand what it is: #worldcomputer #blockchain,13,7,2,False
10,Levans@levansfr,"Now, maybe we should make an #ethereum smart contract implementing a #blockchain using the EVM.

#Blockception",3,1,0,False
11,DMAFinTech@DMAFinTech,#Ether withdrawals slow as millions in #DAO funds remain unclaimed. http://coindesk.com/ether-withdrawals-millions-dao-funds-remain/… #Ethereum #blockchain,1,1,0,False
12,Stéphane Bortzmeyer@bortzmeyer,"Why do I have #IPv6 peers with #Bitcoin and not with #Ethereum? http://ethereum.stackexchange.com/questions/5803/are-there-actual-peers-with-ipv6-addresses… #blockchain #P2PAre there actual peers with IPv6 addresses?geth has IPv6 support and listens on IPv6 as well. But I find, on my geth node, no IPv6 traffic. I tested both with lsof -n -i | grep geth (shows no IPv6 address) and tcpdump -n ip6. IPv6 works fin...ethereum.stackexchange.com",2,2,2,False
13,Francisco Gordillo@FGordillo,A Painful Lesson For The Ethereum Community via @forbes http://forbes.com/sites/francescoppola/2016/07/21/a-painful-lesson-for-the-ethereum-community/#12612b105714… #blockchain #ethereum #dao #bitcoin #fintech,1,0,0,False
14,Peter Smith@OneMorePeter,"One thing is certain: for better or worse, team #ethereum has proven it's possible to successfully hard fork a major public block chain",61,30,8,False
15,Randy Hilarski@RandyHilarski,Vitalik Buterin Interview #1 - What Is Ethereum (ETH)?... http://slninja.com/Nehv #Bitcoin #Ethereum #CryptoCurrency,11,2,0,False
16,Cointelegraph@Cointelegraph,#Ethereum Shoots Up As #Bitcoin Drops Below 80% Market Dominance https://cointelegraph.com/news/ethereum-shoots-up-as-bitcoin-drops-below-80-market-dominance…,19,31,2,False
17,DMAFinTech@DMAFinTech,#Ethereum #blockchain forks to return stolen funds. http://spectrum.ieee.org/tech-talk/telecom/internet/ethereum-blockchain-forks-to-return-stolen-funds… #cybersecurity,2,3,0,False
18,Marc Jarvis@visiongiveslife,"South Africa's Banks Are Going DIY to Test Ethereum's Blockchain http://bit.ly/29RNtK8 via @CoinDesk #Ethereum #Blockchain #SouthAfricaSouth Africa's Banks Are Going DIY to Test Ethereum's Blockchain - CoinDeskBarclays subsidiary, Absa, organized six South African banks to build ethereum's blockchain by using creating a WhatsApp group and inviting them to join.coindesk.com",3,1,0,False
19,Eduardo Abeliuk@eabeliuk,"Probably useful to have two blockchains - #bitcoin representing immutability and #ethereum representing adaptability
http://avc.com/2016/07/hard-forks/…",1,0,0,False
20,Verium Reserve@VeriumReserve,*Phase 2 ICO in 8 days - http://vericoin.info/ico.html - Think of $VRC + $VRM as a P2P financial foundation to build upon. #Bitcoin #Ethereum $DAO,9,9,0,False
21,Matt Meek @mattmeek_,"Dash, Considered Alternative to Bitcoin, Integrates into Mycelium http://coint.co/3tL1 #Dash #Bitcoin #Ethereum #Litecoin",4,1,0,False
22,Jana Moser@data_mos,How vulnerable is the Blockchain?  #ethereum #bitcoin via @CoinDeskBitcoin Developers Warn Ethereum Fork Sets Unsettling Precedent - CoinDeskThe ethereum ecosystem is returning to normalcy following a high-profile hack last month that resulted in nearly $60m worth of investor funds ending up under the control of an unknown group or …flip.it,2,4,0,False
23,Alok Bhargava@akbhargava,Many thanks to @el33th4xor @VitalikButerin & many others for tireless efforts to bring clarity to #blockchain #ethereum & its evolution,3,3,0,False
24,Quentin Bourelle@qbourelle,The Ethereum Hardfork Advances Blockchain Governance and Technology   http://bit.ly/2a0lckz #Blockchain #Ethereum #governance #hardfork,2,2,0,False
25,Adam Meister@TechBalt,Check out @scheare interviewing me about #Bitcoin #Steemit #Steem https://steemit.com/steemit/@piedpiper/why-steemsters-and-bitcoiniacs-are-really-on-the-same-side-piedpiper-s-video-chat-with-bitcoinmeister… #Ethereum #Fintech #Blockchain #cryptocurrencyWhy Steemsters and Bitcoiniacs are Really on the Same Side - PiedPiper's video chat with BitcoinM...Steem and Bitcoin are working in unison to undermine the state's monopoly on currency creation. Can you imagine a… by piedpipersteemit.com,8,3,0,False
26,Poloniex Exchange@Poloniex,The $DAO to $ETH conversion tool is now available. https://poloniex.com/dao,23,19,5,False
27,Vindyne8@Vindyne8,How to acces #YOCoin on new mist wallet log :http://goo.gl/M1w6p5 #bitcoin #ethereum #cryptocurrency #altcoin,15,16,0,False
28,§AlexisOhanian @alexisohanian,#Ethereum now on @Coinbase https://coinbase.com/join/alexis?src=twitter…,7,5,0,False
29,Ansel Lindner@AnselLindner,"It's telling, the immediate reaction during the #DAOhack was to hard fork.
#ethereum #bitcoin
http://pastebin.com/aMKwQcHR",2,2,1,False
30,Joe@Joe08939236,Mining #ethereum http://Ethereum.org with CPU/GPU graphics card R9 390. Gets 35 Mh/s on free solar energy,2,3,0,False
31,David Liam@crazydaveorama,#Ethereum Shoots Up As #Bitcoin Drops Below 80% Market Dominance http://coint.co/3tW5 #cryptocurrency #altcoin #Ether,1,1,0,False
32,Randy Hilarski@RandyHilarski,"LIVE Chat w/ Ethereum creator, Bitcoin Magazine co-fou... http://slninja.com/xghv #Bitcoin #Ethereum #CryptoCurrency",10,2,0,False
33,Randy Hilarski@RandyHilarski,LE24: Hannah Braime - Journaling to Freedom http://slninja.com/Lfhv #Bitcoin #Ethereum #CryptoCurrency,9,1,0,False
34,The Financial Revolutionist@Fin_Revolution,Put a #Fork in it: What’s Happening with the #DAO? #fintech #ethereum http://buff.ly/2a29DY0,3,2,0,False
35,Hashing247.com@hashing247com,Why Big Bank Consultants Were Watching Ether's Hard Fork? #Ether #bitcoin #dash #BigBank #creditcard http://fb.me/3Pr8hMmgJ,16,15,0,False
36,Marisa Estevez@marisastvz,#Blockchain is like the internet before the browser -  http://thefinanser.com/2016/07/blockchain-like-internet-browser.html/… @Chris_Skinner #bitcoin #ethereum @LuisLepe,4,2,0,False
37,FinTech Summary@FinTechSummary,Nearly Half of All #DAO Funds Withdrawn After #Ethereum Hard Fork - CoinDesk http://buff.ly/2a2u0HO #FinTech,2,2,0,False
38,Bitch Bitch U Know Itz $wajjuriffic! (KBzo) K.O.D@TheRealKBzo,*Attention* (All Producers) looking for immediate exposure send beats to (originalnationempire214@gmail.com) asap #LetsWorkProducers #Ether,2,5,0,False
39,Denis Roio@jaromil,"Community rejects #Ethereum #HardFork, no favors to banksters https://bitcoinmagazine.com/articles/rejecting-today-s-hard-fork-the-ethereum-classic-project-continues-on-the-original-chain-here-s-why-1469038808… ideals count more than money https://ethereumclassic.github.io",3,4,1,False
40,Romain Rouphael@romain_rouphael,#ethereum #blockchain as a service with @ConsenSysLLC and @Microsoft http://cio.com/article/3097444/innovation/microsofts-ethereum-blockchain-as-a-service-accelerates-mobile-development.html…,2,3,0,False
41,Charles Foveau@cefoveau,Ethereum Is A Big Part of Future VC Funding in Blockchain Startups http://goo.gl/LeZjYK #Ethereum #bitcoin,1,0,0,False
42,Oscar A Jofre Jr.@oscarjofre,. @Trust2Pay have fun at the #ethereum #hackathon #fintech tweets results use #kcxcrowd :),1,5,1,False
43,Nick Ayton@NickAyton,"Latest Results #Bitcoin down #Ethereum Up https://cointelegraph.com/news/ethereum-shoots-up-as-bitcoin-drops-below-80-market-dominance?utm_content=buffer9e16c&utm_medium=social&utm_source=twitter.com&utm_campaign=buffer… @BlockchainX1 @Stevewal63 @thomaspower @cloudnthings @johnpcorrEthereum Shoots Up As Bitcoin Drops Below 80% Market DominanceIn a recovery after the DAO attack, Ethereum’s price spiked post-hard fork, causing Bitcoin’s share of cryptocurrency’s total value to drop below 80%.cointelegraph.com",5,1,0,False
44,Adam Meister@TechBalt,"#EthereumClassic The free market's answer to the hard fork? 
https://steemit.com/ethereum/@bitcoinmeister/the-ethereum-classic-coin-the-free-market-s-answer-to-the-hard-fork… @ShapeShift_io @EthereumClassic @arvicco #Ethereum $ETHThe Ethereum Classic coin- The free market's answer to the hard fork? — SteemitThe Ethereum hard fork situation has created a unique experiment called ""Ethereum Classic"" (please watch my video… by bitcoinmeistersteemit.com",2,3,0,False
45,Vortex@theonevortex,"Ahh @lopp killed it AGAIN! Amazing article guys, a must read.  
http://coindesk.com/bitcoin-the-trust-anchor-in-a-sea-of-blockchains/…
#bitcoin #blockchain #ethereum #cryptocurrency",10,7,3,False
46,AntMwah@AntMwah,#ETHEREUM showing a clean set of heels vs. #BITCOIN & one of the few things showing strength vs. US$.,2,2,0,False
47,Michael Parsons@BitcoinByte,"#Bitcoin Developers Warn #Ethereum Fork Sets Unsettling Precedent 
#DAO #ether http://coindesk.com/bitcoin-core-ethereum-hard-fork-unsettling-precedent/…",1,3,0,False
48,(┌ﾟдﾟ)┌ [HODL]@j32804,"EtherCamp global Dapp #hackathon is coming again! This time prize is $50k equivalent in any crypto. #ethereum #DAppsQuote Tweetether-camp@CampEther · Jul 19, 2016The registration is open, 
you have chance to win 
$50,000 of any crypto

https://hack.ether.camp
@ethereumproject #hackethercamp",4,7,1,False
49,SingularDTV@SingularDTV,DaveVandervort on #ethics & the modern #robot http://bit.ly/29I7PsY #cyberpunk #blockchain #ethereum @ConsenSysLLC,6,4,0,False
50,Necio@Necio_news,The Ethereum Hardfork Advances Blockchain Governance and Technology https://goo.gl/h4CC9E #ethereum #blockchain,3,2,0,False
51,Laird Jeff Garzik@jgarzik,"Because it's a new contract, reclaim is technically complicated or simply not supported by many #ethereum wallets.Quote TweetCoinDesk@CoinDesk · Jul 23, 2016After an initial burst of ether withdrawals from the new DAO account, millions of dollars remain unclaimed: http://coindesk.com/ether-withdrawals-millions-dao-funds-remain…",6,3,1,False
52,Spiros Margaris@SpirosMargaris,"#Ethereum Shoots Up As Bitcoin Drops Below 80% Market Dominance 

http://bit.ly/29VHZ0a #fintech @CoinTelegraph",11,16,0,False
53,Bitcoin@bitcoinpoet,I haven't got a problem!:       submitted by    /u/booyah2  [link]   [comments]  http://bit.ly/2a594O8 #ethereum,1,0,0,False
54,Cryptopatterns@Cryptopatterns,I don't trust weekend patterns but $ETH volume is good today.I'll cautiously assume this can be an exception. #Ethereum #Bitcoin $BTC $Steem,1,1,0,False
55,𝙲𝚊𝚝𝚊𝚕𝚕𝚊𝚡𝚎𝚛@catallaxer,"The #Ethereum community has agreed to make it less trustworthy than a conventional financial system. Not clever.Quote TweetCoinDesk@CoinDesk · Jul 23, 2016Forbes – A Painful Lesson For The Ethereum Community http://forbes.com/sites/francescoppola/2016/07/21/a-painful-lesson-for-the-ethereum-community/#283cd5975714… by @Frances_Coppola",0,0,0,False
56,Bitcoin@bitcoinpoet,"Are ethereum public keys hidden by a hash in the same way bitcoin keys are?: My understanding with ... http://bit.ly/2a7H7Ig #ethereumAre ethereum public keys hidden by a hash in the same way bitcoin...My understanding with bitcoin is that my coins are safe even if ECDSA is broken, as long as I have never sent coins from my address. Is it the...reddit.com",1,1,0,False
57,Ethereum UAE@Ethereum_UAE,Ethereum Shoots Up As Bitcoin Drops Below 80% Market Dominance http://ift.tt/29S2LBr #Ethereum,1,2,0,False
58,Kyle Torpey@kyletorpey,"1/2 At this point, @VitalikButerin has extremely strong influence on #Ethereum consensus. Don't think that should be called control.",5,7,1,False
59,BitcoinAgile@bitcoinagile,5 Reasons Why the DAO Bailout Was Bad for #ethereum - Crypto Hustle #bitcoin #blockchain http://cryptohustle.com/5-reasons-why-the-dao-bailout-was-bad-for-ethereum…,1,8,0,False
60,Crypto₿ull@CryptoBull,~0.0217 probably a good spot to short $ETH,6,1,2,False
61,Timo Ξberhard@ZhuBajie72,#Ether Rocket Phase II Ignition... #Ethereum $ETH $ETHXBT @krakenfx >>> https://tradingview.com/chart/ETHXBT/AklXQOpV-ETH-Rocket-Phase-II-Ignition/…,1,1,0,False
62,Anondran@AnondranCrypto,"As $ETH starts to dip, I feel DAO-->ETH conversion tool on @Poloniex  is nearing",1,1,0,False
63,Ansel Lindner@AnselLindner,"This is why new whales will avoid $ETH and devs will look at layer 2 $BTC.Quote TweetBeautyon@Beautyon_ · Jul 23, 2016The cost of being an Etherium user, miner, developer has just gone up dramatically, as has the threat of being sued by any ranom user.",2,1,0,False
71,Ethereum Monkey@EthMonkey,Ethereum Shoots Up As Bitcoin Drops Below 80% Market Dominance #ethereum https://cointelegraph.com/news/ethereum-shoots-up-as-bitcoin-drops-below-80-market-dominance…,1,1,0,False
72,ronfriedmann@ronfriedmann,"Bitcoin Developers Warn #Ethereum Fork Sets Unsettling Precedent. @coindesk http://j.mp/2ahTJPa
Immutability now in question",1,2,0,False
80,Rimbit @rimbit,Backup Function For New Wallet Version http://rimbit.com/posts/11828 #bitcoin #ethereum,0,0,0,False
81,/r/Ethereum@r_Ethereum,Continue to have problems with computer crashing when Ethereum Wallet is attempting to sync http://bit.ly/2a8Jomj #Ethereum,1,0,0,False
85,Bijon Mehta@bijonmehta,Hard Forks http://avc.com/2016/07/hard-forks/… #ethereum #hardfork #avc,1,0,0,False
86,Bitcoin@crypto_bitcoins,A Post Hard Fork Landscape: The #ethereum Communitys Divided Response #news #channel #BTC http://bitcoinschannel.com/a-post-hard-fork-landscape-the-ethereum-communitys-divided-response…,0,0,0,False
87,Cointon@CointonDotCom,A Post Hard Fork Landscape: The #ethereum Communitys Divided Response #news #channel #BTC http://bitcoinschannel.com/a-post-hard-fork-landscape-the-ethereum-communitys-divided-response…,0,0,0,False
88,TEAMKRAKENWOOD Börje Melin@BorjeMelin,#Ethereum Shoots Up As #Bitcoin Drops Below 80% Market Dominance http://bit.ly/2am60yw #Blockchain,0,0,0,False
89,Coinstats@coinstats,"Ethereum - ETH
Price: $14.3069
Change in 1h: -0.48%
Market cap: $1177137796.0
Ranking: 2
#Ethereum #ETH",0,0,0,False
91,BitcoinBuzz vega9@BitcoinBuzzV9,http://bitcoinbuzz.vega9.com - Hot topics: #bitcoin #blockchain #btc #crypto #anonymous #ethereum,0,0,0,False
92,Ethereum SE@StackEthereum,"Function Declaration ""Returns"" http://ethereum.stackexchange.com/questions/7384/function-declaration-returns… #ethereum #solidity",0,0,0,False
93,Kevin Osterling@kevin_osterling,"#ethereum classic still rolling, 15 MM cap. mmmmmm told you so. Be carefull, they are same as you BUT..",1,0,0,False
94,David Liam@crazydaveorama,"A #Decentralized Escape Hatch for #DAOs via @el33th4x0r
http://hackingdistributed.com/2016/07/11/decentralized-escape-hatches-for-smart-contracts/… #Ethereum",2,0,0,False
96,JK Joker@_JayJoker,I added a video to a @YouTube playlist http://youtu.be/f23DuQrtiTU?a Need For Speed (Be Fast V2) #BH #RS #ETH,0,0,0,False
97,/r/Ethereum@r_Ethereum,Colored lightning would allow us to move a greater variety of computation off-chain into the state ... http://bit.ly/2a8EINi #Ethereum,0,0,0,False
98,/r/Ethereum@r_Ethereum,Ethereum not sending in coinomi http://bit.ly/2a8EohC #Ethereum,0,0,0,False
99,/r/Ethereum@r_Ethereum,How to Hide/Block Specific User http://bit.ly/2a8DZM7 #Ethereum,0,0,0,False
100,/r/Ethereum@r_Ethereum,Blockchain Canada's Ethereum Summer Hackathon in Toronto is happening now http://bit.ly/2a8E0j8 #Ethereum,0,0,0,False
101,Master Mining@MasterminingNet,"And we found next #Ethereum Block. Wow what for a speed, we found the #ETH  in 64% of normal Time. http://mastermining.net",1,0,0,False
102,Tone Vays (#EndLockdowns)@ToneVays,"The Official Definition of a ""#Bitcoin #Troll"" can now be added to the Dictionary. Big thanks to #Ethereum community",17,6,1,False
105,David Liam@crazydaveorama,"#Ethereum Enthusiasts Determine Their #DAO After A Successful #HardFork https://coinidol.com/ethereum-enthusiasts-determine-dao-after-successful-hard-fork/… #cryptocurrency #altcoin #EtherEthereum Enthusiasts Determine Their DAO After A Successful Hard ForkAs of 12:00pm GMT yesterday, a majority of Ethereum Network miners agreed to fork the Ethereum blockchain in order to refund Ether that was hacked from the DAO (Decentralized Autonomous Organizatio...coinidol.com",0,0,0,False
106,David Liam@crazydaveorama,"#Plutus Tap & Pay Raises Over $1m in 9 Days of #Crowdfunding for #Contactless #Bitcoin & #Ethereum #PaymentsPlutus Tap & Pay Raises Over $1m in 9 Days of Crowdfunding for Contactless Bitcoin & Ethereum...Plutus Tap & Pay has been dubbed ""one of the most anticipated Bitcoin projects in 2016"" by cryptocurrency news outlets, and plans to make contactless payments with Bitcoin and Ethereum easy and...coinidol.com",1,1,0,False
107,Coinstats@coinstats,"Ethereum - ETH
Price: $14.3948
Change in 1h: +0.18%
Market cap: $1184351860.0
Ranking: 2
#Ethereum #ETH",0,0,0,False
108,Cibo@AcidRampage,Replying to @VladZamfir#Ethereum Such irony :-D and a lot of tweeps are running to it ;-),0,0,0,False
110,Ethereum SE@StackEthereum,Rationale behind 256-bit words in EVM http://ethereum.stackexchange.com/questions/7382/rationale-behind-256-bit-words-in-evm… #ethereum #evm,0,0,0,False
111,Apostolos Dim@ApostolosDim,"Great Talk! Listen to LTB #302 - Civic, Ethereum's Hardfork and Market Based Evolution by LTB #ethereum #bitcoinLTB #302 - Civic, Ethereum's Hardfork and Market Based Evolution##On Episode 301 On this special Live episode of Let's Talk Bitcoin!, Adam and Andreas sit down with Vinny Lingham (with Special Guest Pamela Morgan) at the D10E.org Conference on July 20th, 2016 tsoundcloud.com",0,0,0,False
112,Joni@garena100111,Free Ethereum every 5 minutes http://eth-faucet.com/?r=0x2e898150635b43b20c2202021bf56ce2008d82e8… #ethereum via @FreeCryptoCo,0,0,0,False
114,Bob King@subbob,The latest Visionaries & Innovators! http://ln.is/paper.li/subbob/4ip2P… #ethereum #teamcoco,0,0,0,False
115,Alberto Jauregui | esoteRICK.eth @DisruptBanksy,"http://ift.tt/2a4I8jS Ethereum Shoots Up As Bitcoin Drops Below 80% Market Dominance - CoinTelegraph #ethereum #etherEthereum Shoots Up As Bitcoin Drops Below 80% Market DominanceIn a recovery after the DAO attack, Ethereum’s price spiked post-hard fork, causing Bitcoin’s share of cryptocurrency’s total value to drop below 80%.cointelegraph.com",0,0,0,False
118,Coinstats@coinstats,"Ethereum - ETH
Price: $14.4134
Change in 1h: -0.17%
Market cap: $1185869055.0
Ranking: 2
#Ethereum #ETH",0,0,0,False
119,Ethereum Price@EthereumPrice_,"#Ethereum: Ether Price Index
1 ETH =0.021938Ƀ XBT = $14.435590 USD
Today: -2.75%⬇︎ Last 24h: +1.97%⬆︎
https://ethereum-price.com",0,0,0,False
120,Čhriš R (Qolf of Quant Street)@finteched,Coinbase is adding support for #Ethereum http://klou.tt/18ssted4y19jv,0,0,0,False
121,Bart Keybergh@BartKeybergh,"Replying to @NickAytonMassive read! Ignoring #blockchain is corporate suicide @blockchainx1 #AI #ethereum #botcoin #fintech https://channels.theinnovationenterprise.com/articles/ignoring-blockchain-is-corporate-suicide… @NickAytonIgnoring Blockchain Is Corporate Suicide | Articles | Big DataNick Ayton discusses blockchain, arguing that it is the biggest development for business since the internet and CEOs have to have a strategy to deal with itchannels.theinnovationenterprise.com",2,1,0,False
122,Rimbit @rimbit,Industry Report: Charlie Shrem Is A Free Man http://rimbit.com/posts/11805 #bitcoin #ethereum,0,0,0,False
123,Sir Dank Sloth@Fap_Sloth,"It's funny how a lot people is hyping how solid $ETH is, but a week ago, they were all doom and fud #ethereum",1,0,0,False
124,/r/Augur@AugurFeed,#reddit Ok to use the same myetherwallet wallet for mutliple augur accounts? http://bit.ly/29W5GEM #ethereum #augur,0,0,0,False
125,Crypto Press@CryptoPressNews,"Poloniex ""The $DAO to $ETH conversion tool is now available. https://poloniex.com/dao""The following media includes potentially sensitive content. Change settingsView",1,4,0,False
127,ConALTist@ConALTist,Sunday is a moon day for $eth #ethereum =D,1,0,0,False
129,Krunox@krunox123,"Peter Smith on Twitter: One thing is certain: for better or worse, team #ethereum has proven it's possible to successfully hard fork a majo…",0,0,0,False
130,SpraYzii@DerMitSwag,mining #ETH is the best 25 cent a hour ....easy money when you leave it on in the night haha  #easy money #mining https://minergate.com/a/d17adb3aeb16a7c898bbf685…,0,0,0,False
131,Coinstats@coinstats,"Ethereum - ETH
Price: $14.4602
Change in 1h: +1.34%
Market cap: $1189698995.0
Ranking: 2
#Ethereum #ETH",0,0,0,False
132,Blockchain times@crypto_days,"The #Xaurum crowdfunding still ongoing , 6 days left , invest now , accepts #ethereum #lisk .
#RICO",1,0,0,False
140,Kenneth A. Grady@LeanLawStrategy,The latest Daily Lean Gazette! http://ln.is/paper.li/LeanLawStra/3lTjW… Thanks to @davidcurle #clientchoiceawards #ethereum,0,0,0,False
142,/r/Ethereum@r_Ethereum,"Problem with ""Account 1"" http://bit.ly/29Vt5XB #Ethereum",0,0,0,False
143,/r/Ethereum@r_Ethereum,Feedbase - Simple feed-oriented Ethereum data access pattern! http://bit.ly/29Vt1an #Ethereum,0,0,0,False
144,Chris@insanity54,"Taking advantage of the low price, I bought into both #DAO and #ETH after the DAO exploits. ETH Hardfork means now I have nothing? #dumb",1,1,0,False
145,David Deputy@DeputyDavid,#blockchain #ethereum #DAO token holders get money back after upgrade (aka fork).  Big lessons learned on governance http://bit.ly/2aCTuKC,2,2,0,False
147,฿TF%$Brrrrrr!@CryptoHustle,#ethereum $ETH #blockchain #FinTech #bitcoin $BTC #altcoins5 Reasons Why the DAO Bailout Was Bad for Ethereum - Crypto HustleRecently DAO investors were bailed out by hard forking the Ethereum blockchain.…cryptohustle.com,6,2,0,False
149,Abhijeet Jaswal@abhijeetjaswal,#Ethereum #Blockchain Forks to Return #StolenFunds http://spectrum.ieee.org/tech-talk/telecom/internet/ethereum-blockchain-forks-to-return-stolen-funds…,2,0,0,False
151,Kevin Osterling@kevin_osterling,"#augur is taking so long, think they have received a big brother warn #ethereum #bitcoin",1,1,0,False
152,Coinstats@coinstats,"Ethereum - ETH
Price: $14.2625
Change in 1h: -0.44%
Market cap: $1173414335.0
Ranking: 2
#Ethereum #ETH",0,0,0,False
153,Ethereum SE@StackEthereum,when is the best time to trade between bitcoin and ethereum? http://ethereum.stackexchange.com/questions/7381/when-is-the-best-time-to-trade-between-bitcoin-and-ethereum… #ethereum #exchanges,0,0,0,False
154,⛧ God of Gaming ⛧@TheGodofGamez,The noblest worship is to make yourself as good and as just as you can. $ETH,0,0,0,False
156,Emilio Mann@traderminer,"Hey @VitalikButerin, I saw a picture that cant be unview. Can you hardfork my brain for a instant before? #eth #fork",2,3,1,False
157,Ansel Lindner@AnselLindner,"Replying to @AnselLindnerThe #ethereum foundation leaped into action, getting exchanges to freeze eth trading, w/ guarantee to cover losses.
$eth #bitcoin",1,1,0,False
158,Numerati. Twetch#: @1033@MirakhorHassan,Replying to @Frances_Coppola and @phildaian#bitcoin and #ethereum both live in ideological bubbles. That's what makes them fun. Ha!,1,0,0,False
160,Coinstats@coinstats,"Ethereum - ETH
Price: $14.3303
Change in 1h: +0.96%
Market cap: $1178972991.0
Ranking: 2
#Ethereum #ETH",0,0,0,False
161,Ethereum Price@EthereumPrice_,"#Ethereum: Ether Price Index
1 ETH =0.021805Ƀ XBT = $14.370970 USD
Today: -3.34%⬇︎ Last 24h: +1.18%⬆︎
https://ethereum-price.com",1,0,0,False
164,Rimbit @rimbit,Is Ethereum Wounding The Bitcoin Price’s Ascent? http://rimbit.com/posts/11811 #bitcoin #ethereum,0,0,0,False
165,Crypto_Krill@Crypto_Krill,Want some free $LBC? https://lbry.io/get?r=AyC99 | Is the #LBRY platform a YouTube killer? $steem $silk $eth $maid $iocGIF,0,0,0,False
166,The Financial Revolutionist@Fin_Revolution,#Bitcoin #Developers Warn #Ethereum Fork Sets Unsettling Precedent #fintech http://buff.ly/2afCQ4G,1,1,0,False
167,RIDHA OUHAIBI@ridouhaibi,Free Ethereum every 5 minutes http://etherfaucet.net/?r=0x0Cd88eCEFA247C04E585a2bbBb1288ca6FE29796… #ethereum via @FreeCryptoCo,2,1,0,False
168,FailCommunity@FAILCommunity,"What the #Ethereum foundation did with #TheDAO is a PURE bailout. RIP, ""D""AO! #fintech #eth #cryptocurrency",4,0,0,False
172,BitcoinAgile@bitcoinagile,#ethereum Logo Contest - Winner Selected! - http://forum.ethereum.org #Bitcoin http://linkplugapp.com/pEv60,5,0,0,False
173,ExploreTraveler@exploretravel1,RT @bitcoinagile: #ethereum Logo Contest - Winner Selected! http://lnkplg.co/pEv60,1,0,0,False
175,Coinstats@coinstats,"Ethereum - ETH
Price: $14.2018
Change in 1h: +0.15%
Market cap: $1168376583.0
Ranking: 2
#Ethereum #ETH",0,0,0,False
176,BitcoinBuzz vega9@BitcoinBuzzV9,http://bitcoinbuzz.vega9.com - Hot topics: #bitcoin #btc #blockchain #paypal #crypto #ethereum,0,0,0,False
179,/r/Ethereum@r_Ethereum,"It's an old music, but after Hard Fork I remembered of it! Now that we Got control, we're not gonna... http://bit.ly/2a89G8m #Ethereum",0,0,0,False
180,/r/Ethereum@r_Ethereum,How do I refund My DAO TOKENS?? http://bit.ly/29VN3R2 #Ethereum,0,0,0,False
181,/r/Ethereum@r_Ethereum,What's the best IDE? http://bit.ly/29VMsPz #Ethereum,0,0,0,False
182,/r/Ethereum@r_Ethereum,Ethereum is plenty secure. An ACID compliant database it is not. http://bit.ly/2a8a0UA #Ethereum,0,0,0,False
183,/r/Ethereum@r_Ethereum,Now imagine if the community could fork. http://bit.ly/2a89Hcr #Ethereum,1,0,0,False
184,Timo Ξberhard@ZhuBajie72,$ETHXBT @krakenfx approching critical support in the 2120s... #Ethereum #Ether $ETH,1,1,0,False
185,BitcoinAgile@bitcoinagile,#ethereum Logo Contest - Winner Selected! http://bitcoinagile.com/7733BE/ethereum-logo-contest-winner-selected_stream…,1,1,0,False
188,Hashing247.com@hashing247com,Ether Withdrawals Slow as Millions in DAO Funds Remain Unclaimed! #Ether #bitcoin http://fb.me/5wFfhYYeJ,0,0,0,False
189,Ξ Fly Guy Ξ (flyguy.eth)@FlyGuyInTheSky,#ethereum has risen more than 20% since the successful Hard Fork.. More to go in my humble opinion. Hold on.,1,0,0,False
190,Coinstats@coinstats,"Ethereum - ETH
Price: $14.2271
Change in 1h: -0.93%
Market cap: $1170437177.0
Ranking: 2
#Ethereum #ETH",0,0,0,False
191,Metaballo@Metaballo,People like @brian_armstrong @ErikVoorhees & @rogerkver should be removed from the #Bitcoin brand as they promote #Ethereum & @Microsoft,1,4,0,False
194,WKRB News@WKRBNews,Ethan Allen Interiors Inc. $ETH Shares Bought by Goldman Sachs Group Inc. http://ift.tt/2algcYc,0,0,0,False
195,Scorpio_J@Scorpio__J,#Ethereum Price Skyrockets after Hardfork and #Coinbase Integration,2,1,0,False
196,Widget 4 Bitcoin@widget4bc,#Ethereum Shoots Up As #Bitcoin Drops Below 80% Market Dominance: In a recovery after the… http://dlvr.it/LsVBFT,0,0,0,False
197,4BC@aff4bc,#Ethereum Shoots Up As #Bitcoin Drops Below 80% Market Dominance: In a recovery after the… http://dlvr.it/LsVBFm,0,0,0,False
198,Constantin Fischer@Digi_Cone,#Ethereum Shoots Up As #Bitcoin Drops Below 80% Market Dominance https://cointelegraph.com/news/ethereum-shoots-up-as-bitcoin-drops-below-80-market-dominance…,0,0,0,False
199,Joshua Soloway@MrRainmakerNY,Ethereum's Price Skyrockets after #Hardfork & #Coinbase integration #ethereum #cryptocurrency https://cryptocoinsnews.com/ethereums-price-skyrockets-hardfork-coinbase-integration/…,1,0,0,False
200,BitcoinAgile@bitcoinagile,vDice.io Review - Best #bitcoin Dice #blockchain #ethereum http://bestbitcoindice.com/review/vdice-io,1,9,0,False
201,vDice@vDice_io,"New vDice.io review :

http://bestbitcoindice.com/review/vdice-io/…

Thanks to Best Bitcoin Dice for the awesome review!

#ethereum #blockchainvDice.io – A Haven for Dice Players Who Deal in EthervDice.io is a dice game site that accepts only Ether. You can learn more about this site and Ether as well as Ether Trading by checking out this review.bestbitcoindice.com",0,0,0,False
202,Blockchain Academic@blockacademic,"Six banks to connect aspects of South African banking system w. private version of ethereum blockchain! #ethereumSouth Africa's Banks Are Going DIY to Test Ethereum's Blockchain - CoinDeskBarclays subsidiary, Absa, organized six South African banks to build ethereum's blockchain by using creating a WhatsApp group and inviting them to join.coindesk.com",1,0,0,False
203,/r/Ethereum@r_Ethereum,try/except/else pattern hack for solidity http://bit.ly/2a8lvMK #Ethereum,0,0,0,False
204,/r/Ethereum@r_Ethereum,Anyone experience with bitteaser project? I wan't to get rid of my bTSR tokens but i can't find any... http://bit.ly/2a8lxUL #EthereumAnyone experience with bitteaser project? I wan't to get rid of my...reddit.com,0,0,0,False
205,Bitcoin@crypto_bitcoins,#Ethereum Shoots Up As #Bitcoin Drops Below 80% Market Dominance https://cointelegraph.com/news/ethereum-shoots-up-as-bitcoin-drops-below-80-market-dominance…,0,0,0,False
206,Cointon@CointonDotCom,#Ethereum Shoots Up As #Bitcoin Drops Below 80% Market Dominance https://cointelegraph.com/news/ethereum-shoots-up-as-bitcoin-drops-below-80-market-dominance…,1,0,0,False
207,Roberto Caravana@RobertoCaravana,Mining with your pc! http://goldminer.io/?su=Ju2h33j22J7YVdbbwGXb… #ethereum #goldminer #nvidia #amd via @GoldMiner_io,9,1,0,False
209,Ali Güçlü@aliguclu,"CoinTelegraph : #Ethereum Shoots Up As #Bitcoin Drops Below 80% Market Dominance … https://twitter.com/CoinTelegraph/status/756869662240043009…)Quote TweetCointelegraph@Cointelegraph · Jul 23, 2016#Ethereum Shoots Up As #Bitcoin Drops Below 80% Market Dominance https://cointelegraph.com/news/ethereum-shoots-up-as-bitcoin-drops-below-80-market-dominance…",1,0,0,False
211,Ethereum Price@EthereumPrice_,"#Ethereum: Ether Price Index
1 ETH =0.021930Ƀ XBT = $14.389985 USD
Today: -2.79%⬇︎ Last 24h: +5.27%⬆︎
https://ethereum-price.com",0,0,0,False
213,Tony Thijs@OpenMarketingTV,"The Painful Lesson of #Ethereum's Amazing DayEthereum's Amazing Day Is Somehow A ""Painful Lesson""?Ethereum is doing well after yesterday's vote of confidence from Coinbase: the price of Ether is up 12.6% today according to CoinMarketCap, while market ...huffpost.com",1,1,0,False
214,Francisco Gordillo@FGordillo,#bitcoin #blockchain Steem Provokes Doubt of Market Observers: While steemit has become the ... http://bit.ly/29VCGNl #ethereum #ether,0,0,0,False
215,Rimbit @rimbit,Backup Function For New Wallet Version http://rimbit.com/posts/11825 #bitcoin #ethereum,0,0,0,False
216,Pravin Bhudiya@pravin_bhudiya,"#Ethereum Faucet Claim Ethereum every 5 minutes details:http://goo.gl/RDHcso
#faucets #eth #cryptocurrency",1,1,0,False
217,Cyber Phil ₿ ₿ ₿ ¯\_(ツ)_/¯ ₿ ₿ ₿@H4ck3rPh1ll,#BitcoinFunFact $ETH miner need a price of 0.0271 to mine profitable on @GenesisMining contracts,0,0,0,False
218,cryptinsight@cryptinsight,#fintech News #34 - aboutfintech.de #ethereum #mobilepayment #Comdirect #MasterCard #MobilePayment #N26 #NFC #Visa http://aboutfintech.de/2016/07/23/fintech-news-34…,0,0,0,False
219,Aayush Jindal@AayushJs,"#Ethereum | #Ether Price Skyrockets, Bears Watch Out $ETH http://bitcoinbragger.com/ethereum-ether-price-skyrockets-bears-watch-out/…",0,0,0,False
220,BitcoinAgile@bitcoinagile,Cryptocurrency Highlights Of The Week - Digiconomist #bitcoin #ethereum #cryptocurrency http://bitcoinagile.com/77309E/cryptocurrency-highlights-of-the-week-digiconomist_stream…,4,0,0,False
221,Digiconomist@DigiEconomist,"Cryptocurrency Highlights of week 29, including: #ethereum successfully hard-forksCryptocurrency Highlights Of The Week - DigiconomistThe cryptocurrency highlights of week 29, including: Ethereum successfully hard-forkimg, and Charlie Shrem being released from prison.digiconomist.net",1,0,0,False
222,BitcoinAgile@bitcoinagile,"#ethereum  Ether Price Skyrockets, Bears Watch Out #ETH/USD #EtherPrice #EthereumPrice http://bitcoinbragger.com/ethereum-ether-price-skyrockets-bears-watch-out…",2,0,0,False
223,Matteo Giardini@GiardiniMatteo,My computer is making money for me ! http://goldminer.io/?su=J9fwXV9GbY2juJ4phebb… #ethereum #goldminer #nvidia #amd via @GoldMiner_io,0,0,0,False
224,BitcoinAgile@bitcoinagile,#ethereum Wallet with Hard Fork choice 0.8.1 http://bitcoinagile.com/77307B/ethereum-wallet-with-hard-fork-choice-081_stream…,2,3,0,False
226,Ξ Fly Guy Ξ (flyguy.eth)@FlyGuyInTheSky,Replying to @brucefentonwell it looks as if #ethereum will still survive...,0,0,0,False
228,Cryptopatterns@Cryptopatterns,"$ETH exact next 48 hour roadmap $BTC heading up $STEEM trades and more. #Ethereum #Bitcoin #fintech $usdETH exact 48 hr roadmap BTC going back upSaturday July 23, 2016  6:30 AM Since the ETH pattern I’m following is on a roll, in this post I’ll share what the probabilities say should happen over the next 24-48 hours. ETH should …cryptopatterns.wordpress.com",0,0,0,False
230,Ξ Fly Guy Ξ (flyguy.eth)@FlyGuyInTheSky,Replying to @avsa and @el33th4xorwell deserved after sorting out the mess... For critics.. It's the community that pulled together. #ethereum at $14.40,1,0,0,False
231,Coinstats@coinstats,"Ethereum - ETH
Price: $14.3102
Change in 1h: -1.1%
Market cap: $1177243551.0
Ranking: 2
#Ethereum #ETH",0,0,0,False
235,Giacomo Aliberti@giacomoali68,My computer is making money for me ! http://goldminer.io/?su=w0X2VGjbJbu8rJchoabY… #ethereum #goldminer #nvidia #amd via @GoldMiner_io,2,0,0,False
236,Cloud Mining Monitor@cmmonitorcom,#Ethereum #Cloudmining': 23.07.2016 Payment received. 6 MHs - 0.04203138 ETH. From Genesis Mining.Genesis Mining (Ethereum Mining)cmmonitor.com,0,0,0,False
237,Melus@melus,The latest Bitcoin Gazette! http://paper.li/f-1413984175?edition_id=2b059410-50d9-11e6-98ed-0cc47a0d1605… #bitcoin #ethereum,1,0,0,False
238,BitcoinAgile@bitcoinagile,A Post Hard Fork Landscape: The #ethereum Communitys Divided Response #news #channel #BTC http://bitcoinschannel.com/a-post-hard-fork-landscape-the-ethereum-communitys-divided-response…,0,0,0,False
241,MeeseeksBTC@Meeseeks100BTC,"RT Start mining $ETH or $BTC together with people from all over the world.

https://goo.gl/tYClLG",0,0,0,False
242,Coinstats@coinstats,"Ethereum - ETH
Price: $14.4827
Change in 1h: -0.48%
Market cap: $1191414100.0
Ranking: 2
#Ethereum #ETH",0,0,0,False
244,HodluntilitHz@Badbitcoinorg,"#ethereum is the latest 'must steal' currency. Please help the community by letting us know any frauds you come across, we'll do the rest",5,3,0,False
245,Benemos@benem0s,"The banter begins #ethereum #ethcQuote TweetEthereumClassic@EthereumClassic · Jul 22, 2016Crypto reaching a whole new level of shady, introducing #TheCryptoShadyBunch
#Ethereum #TheDAO @Poloniex
#Bitcoin",0,0,0,False
246,Timo Ξberhard@ZhuBajie72,"#Bertcoiners hatin´ #Ethereum DO NOT improve the the #StatusQuo of #Bitcoin, but instead worsen it by making silly claims.",0,0,0,False
249,Timo Ξberhard@ZhuBajie72,Geeez. #Bertcoiners do not even understand what #bailout means. It´s getting a bit silly imo... #Ethereum #Bitcoin #ForkOff,1,0,0,False
250,Ethereum SE@StackEthereum,Why is creating a uint8 more expensive than a uint256? http://ethereum.stackexchange.com/questions/7373/why-is-creating-a-uint8-more-expensive-than-a-uint256… #ethereum #solidity #contractdevelopment #gas,0,0,0,False
251,BitcoinAgile@bitcoinagile,Everything you need to know about the #ethereum hard fork http://amazonclues.com/everything-you-need-to-know-about-the-ethereum-hard-fork…,0,0,0,False
252,Julia Edling@bitcointonic,Digital Currency #Ethereum Receives Support From #Coinbase: Now Coinbase customers can make… http://dlvr.it/LsRY89,1,0,0,False
253,/r/Ethereum@r_Ethereum,I haven't got a problem! http://bit.ly/2a594O8 #Ethereum,0,0,0,False
254,Jan  Wildeboer@jwildeboer,"""The fact is that #Ethereum has compromised its principles in order to rescue a client."" https://twitter.com/triptananda/status/756819647316373504…This Tweet is unavailable.",1,1,0,False
255,indxio@indxio,#Russia Market Close || #Bitcoin: $655.76 | 597.36 EUR||  #Litecoin: 0.0031 BTC  || #Ethereum: 0.0221 BTC   || $BTC $LTC $ETH $RUB,0,0,0,False
256,Ameer Rosic@AmeerRosic,#Cryptocurrency: A New Economy For The Future http://dld.bz/eEbgr #bitcoin #blockchain #ethereum,1,0,0,False
257,CurrencyForward@CurrencyForward,"#bitcon as gold, and #ether as dollar? People might have forgotten the 1933-34 Gold Reserve Act in U.S. #immutability #hardfork",0,0,0,False
258,Раб Божий@Diener_Gottes,##Coinbase Adds Support for Digital Currency #Ethereum: Now Coinbase customers can make… http://goo.gl/fb/olAaaV,0,0,0,False
259,Coinstats@coinstats,"Ethereum - ETH
Price: $14.5557
Change in 1h: -0.57%
Market cap: $1197401147.0
Ranking: 2
#Ethereum #ETH",0,0,0,False
260,Ethereum Price@EthereumPrice_,"#Ethereum: Ether Price Index
1 ETH =0.022164Ƀ XBT = $14.569570 USD
Today: -1.75%⬇︎ Last 24h: +8.81%⬆︎
https://ethereum-price.com",0,0,0,False
261,Gerald de Jong@fluxe,Big brother #bitcoin a bit envious of little sister #ethereum. She heals so quickly - just out of the hospital. http://motherboard.vice.com/read/why-ethereum-succeeded-where-bitcoin-failed-hard-fork-DAO…,0,0,0,False
262,noobasaur ッ@OhGodANoob,Is this real? #ethereum #ether #asic #rocketminer https://rocket-miner.com/?ref=66,0,0,0,False
263,Timo Ξberhard@ZhuBajie72,But then refuse to debate cold hard #facts. #Ethereum #Bitcoin #newparadigm,1,0,0,False
264,Timo Ξberhard@ZhuBajie72,Dunno why some peeps act so offended when telling them the #truth. #Ethereum #Bitcoin #newparadigm,1,0,0,False
265,Rimbit @rimbit,Backup Function For New Wallet Version http://rimbit.com/posts/11813 #bitcoin #ethereum,0,0,0,False
266,Maxime Kozminski@MaxKozminski,“I see the successful #Ethereum hard fork this week as an important milestone for public blockchains.” @FredWilson,0,0,0,False
267,Chris Timuat@ChrisBizEnglish,"Via FinTechSummary: Nearly Half of All #DAO Funds Withdrawn After #Ethereum Hard Fork - CoinDesk http://buff.ly/2a2u0HO #FinTech …Nearly Half of All DAO Funds Withdrawn After Ethereum Hard Fork - CoinDeskForty-three percent, or nearly half of all funds, associated with The DAO have now been withdrawn by former project investors.coindesk.com",0,0,0,False
272,Coinstats@coinstats,"Ethereum - ETH
Price: $14.648
Change in 1h: +0.55%
Market cap: $1204972307.0
Ranking: 2
#Ethereum #ETH",0,0,0,False
273,Francisco Gordillo@FGordillo,"How blockchain will impact accountants and auditors | Economia https://shar.es/1ZXQ3q #blockchain #ethereum #bitcoin #fintechSorry, we can't find that pageThe Institute of Chartered Accountants in England and Wales with over 150,000 members.icaew.com",0,0,0,False
274,Francisco Gordillo@FGordillo,Ethereum Is A Big Part of Future VC Funding in Blockchain Startups http://themerkle.com/ethereum-is-a-big-part-of-future-vc-funding-in-blockchain-startups/… via @themerklenews #blockchain #ethereum #fintech,4,0,0,False
276,ExploreCrypto@ExploreCrypto,Profit from blockchain popularity with a mining contract...Get a 3% discount with code: qPKip8 at http://genesis-mining.com #bitcoin #ethereum,0,0,0,False
277,Alexander Ainslie@AAinslie,"I agree w/ @frances_coppola, the #Ethereum bail out of #TheDAO doesn't advance #DecentralizedLedgers. cc @el33th4xorQuote Tweet(((Frances Schadenfreude Coppola))) @Frances_Coppola · Jul 21, 2016My take on the Ethereum bailout. I'm as brutal as @izakaminska, I think.... http://forbes.com/sites/francescoppola/2016/07/21/a-painful-lesson-for-the-ethereum-community/#2bfc6ca45714… @M_C_Klein",3,2,1,False
278,/r/Ethereum@r_Ethereum,Are ethereum public keys hidden by a hash in the same way bitcoin keys are? http://bit.ly/2a7H7Ig #Ethereum,0,0,0,False
279,/r/Ethereum@r_Ethereum,Transaction reversal in cryptocurrencies - a good feature. Steemit blog post. http://bit.ly/2a7H53a #Ethereum,0,0,0,False
280,/r/Ethereum@r_Ethereum,WithdrawDao balance jumped from 4.3 million to 4.671 million overnight http://bit.ly/2a7GM8o #Ethereum,0,0,0,False
281,/r/Ethereum@r_Ethereum,"While everyone is patting themselves on the back for forking, i am wondering how do we prevent smar... http://bit.ly/29Vj4ZL #Ethereum",0,0,0,False
282,/r/Ethereum@r_Ethereum,Is The withdrawal contract working? http://bit.ly/2a7GyOD #Ethereum,0,0,0,False
283,Ameer Rosic@AmeerRosic,What is Ethereum? Step-by-Step #Ethereum Infographic http://bit.ly/22M90bd #Blockchain #Bitcoin,0,0,0,False
284,@Cryptocoin@BitcoinHackers.org@cryptocoin,Replying to @Satoshi_N_Ethererum Classic/$ETHC (now running in parallel with #Ethereum/$ETH) keeps on keeping on: http://gastracker.io @Satoshi_N_ #EtherClassic,0,0,0,False
285,Ξ Fly Guy Ξ (flyguy.eth)@FlyGuyInTheSky,#ethereum rising nicely.. Still a long way to go until past highs.. Put #DAO episode behind us.,0,0,0,False
286,nooz81.eth ⟠@nooz81_eth,"Fred Ehrsam, co-founder of Coinbase, AMA on r/ethereum $ETHQuote TweetFred Ehrsam@FEhrsam · Jul 22, 2016Starting AMA on /r/ethereum now! https://reddit.com/r/ethereum/comments/4u4t73/im_fred_ehrsam_cofounder_of_coinbase_ama/…",0,0,0,False
287,Timo Ξberhard@ZhuBajie72,New $ETHXBT #alltimehigh @krakenfx within a month... #dedseriouz  >>> https://tradingview.com/chart/ETHXBT/8uMUU3qE-Ether-Weeks/… #Ethereum #Ether $ETH,0,0,0,False
288,Necio@Necio_news,Ethereum Is A Big Part of Future VC Funding in Blockchain Startups http://goo.gl/LeZjYK #Ethereum #bitcoin,1,0,0,False
290,Anne Leslie @AnneLes1ie,#Bitcoin Developers Warn #Ethereum Fork Sets Unsettling Precedent http://bit.ly/29SqihV via @CoinDesk,1,0,0,False
291,Timo Ξberhard@ZhuBajie72,The King is dead. Long live The King! #Bitcoin #Ethereum #newparadigm,0,0,0,False
292,Coinstats@coinstats,"Ethereum - ETH
Price: $14.5562
Change in 1h: +0.18%
Market cap: $1197394668.0
Ranking: 2
#Ethereum #ETH",0,0,0,False
293,TIGER Altcoin@Tiger_Altcoin,"For the complete strategy of automated #ethereum trading, go to http://bit.ly/TigerCT",0,0,0,False
294,MakingWave$@CryptoWave3000,"sasha35625 tweeting: https://twitter.com/sasha35625/status/756785625580314624… too big (and cool) too fail! #EthereumQuote TweetTim Pastoor (timp@x0f.org)@timpastoor · Jul 21, 2016After a bailout, party like a banker.",0,0,0,False
295,TIGER Altcoin@Tiger_Altcoin,@Tiger_Altcoin just closed an #ETH trade with a 15% profit! Open: 0.01913 #BTC Closed 0.02206 #BTC #AutomatedTrading #CryptoCurrency,0,0,0,False
296,CoinGecko@coingecko,The latest Ethereum price is USD 14.39. For historical #Ethereum price charts - http://buff.ly/2afZfir,1,0,0,False
297,AltcoinWeekly@altcoinweekly,The latest Ethereum price is USD 14.39. For historical #Ethereum price charts - http://buff.ly/2afZav8,0,0,0,False
298,/r/Ethereum@r_Ethereum,Anybody know how to resolve this issue? http://bit.ly/2a4TcLv #Ethereum,1,0,0,False
300,Afolabi Owagbenga@jacaf01jacaf,"7 days to go #RICO #XAURUM ICO Gold backed crytocurrency on #ethereum Blockchain https://bitcointalk.org/index.php?topic=1546279.0…Quote TweetAfolabi Owagbenga@jacaf01jacaf · Jul 23, 20167 days to go #RICO #XAURUM ICO . Gold backed crytocurrency on #ethereum Blockchain",1,0,0,False
301,Afolabi Owagbenga@jacaf01jacaf,7 days to go #RICO #XAURUM ICO . Gold backed crytocurrency on #ethereum Blockchain,1,1,0,False
302,Rayna ¯\_(ツ)_/¯ @MaliciaRogue,RT @alexberegszaszi: First #Ethereum smart contract written in C. Potentially any language which has an #LLVM-based compiler can be used. …,2,0,0,False
303,Mexican_Taco@Mexicantaco247,Alts that I'm holding $ETH $DGB $STR #bitcoin,1,1,0,False
304,Coinstats@coinstats,"Ethereum - ETH
Price: $14.5082
Change in 1h: +0.46%
Market cap: $1193427175.0
Ranking: 2
#Ethereum #ETH",0,0,0,False
305,Ethereum Price@EthereumPrice_,"#Ethereum: Ether Price Index
1 ETH =0.022162Ƀ XBT = $14.509310 USD
Today: -1.76%⬇︎ Last 24h: +13.76%⬆︎
https://ethereum-price.com",0,0,0,False
306,Zeno Laiti@xtrzenos,My computer is making money for me ! http://goldminer.io/?su=bwYbXJwJObjui2eYdhVG… #ethereum #goldminer #nvidia #amd via @GoldMiner_io,0,0,0,False
307,/r/Augur@AugurFeed,#reddit Coinbase widget http://bit.ly/2aiTNhu #ethereum #augur,1,1,0,False
309,Bitcoin girl@FarhaMastani,"#RBI Calls on #Indian #Banks to Explore #Blockchain http://bitex.in/rbi-calls-on-indian-banks-to-explore-blockchain/…
#fintech
#startup
#PMOIndia
#ethereum
#cryptocurrency
#bitcoinRBI Calls Banks to Explore Blockchain, Bitcoin India, Bitcoin NewsReserve Bank of India Calls on Indian Banks to Explore Blockchain,Cloud-based computing, blockchain processing technologies and virtualization of IT systemsbitex.in",1,0,0,False
310,Rimbit @rimbit,Usb Mic For Youtube - Help Needed http://rimbit.com/posts/11818 #bitcoin #ethereum,0,0,0,False
311,BitcoinAgile@bitcoinagile,#ethereum Is A Big Part of Future VC Funding in #blockchain Startups  The Merkle #bitcoin http://themerkle.com/ethereum-is-a-big-part-of-future-vc-funding-in-blockchain-startups…,9,18,0,False
313,Mexican_Taco@Mexicantaco247,$ETH enter a long position here now or regret it !!!!,0,0,0,False
314,Economic Space Agency@ecospaceagency,"Replying to @jaromilWhat makes the #Ethereum ecosystem decentralised? Well, #ethereumclassic to be sure.",2,1,0,False
315,Denis Roio@jaromil,Major crypto-currency exchanges around the world approve #Ethereum classic https://medium.com/@bit_novosti/a-crypto-decentralist-manifesto-6ba1fa0b9ede#.1pb2i25go… grant 1:1 ETC course to all ETH accounts,1,1,0,False
316,iSimon@SimonEdhouse,"@kyletorpey @fredwilson the ""point"" may be to facilitate more experimentation. i.e #Ethereum as a sand box eg: #RSKQuote TweetKyle Torpey@kyletorpey · Jul 22, 2016.@fredwilson What is the point of a non-immutable blockchain? May as well remove proof-of-work and ETH token, no?",0,0,0,False
319,BlockchainLUX@blockchainLUX,Replying to @BrendanEich @ChrisLundkvist and @braveany plans to add #ethereum #ether support to your wallets and browser?,1,0,0,False
320,Constantin Fischer@Digi_Cone,"Contactless #Bitcoin startup Plutus Tap & Pay crowdfunds over $1m in digital currencies #EthereumContactless Bitcoin startup Plutus Tap & Pay crowdfunds over $1m in digital currenciesLondon-based start-up Plutus Tap & Pay has been dubbed ""one of the most anticipated Bitcoin projects in 2016"" by cryptocurrency news outlets, and plans to make contactless payments with Bitcoin and...finextra.com",1,0,0,False
321,Marie-Claire PEROUX@MCPLLM,#Bitcoin Developers Warn #Ethereum Fork Sets Unsettling Precedent http://bit.ly/29SqihV via @CoinDesk,1,0,0,False
322,/r/Ethereum@r_Ethereum,So how Do I get my Eth out of the DAO now? http://bit.ly/2ahon9s #Ethereum,0,0,0,False
323,Coinstats@coinstats,"Ethereum - ETH
Price: $14.448
Change in 1h: +1.04%
Market cap: $1188454907.0
Ranking: 2
#Ethereum #ETH",0,0,0,False
325,Naval@naval,"Does the #ethereum fork create an opportunity for a competing, but less mutable platform for smart contracts?Quote TweetChris Dixon@cdixon · Jul 22, 2016""It’s a very interesting time in the public blockchain sector right now."" http://avc.com/2016/07/hard-forks/…",11,4,2,False
326,Francisco Gordillo@FGordillo,"“Good Forking Job Metaprinciples of blockchain-based technology @iamtexture #blockchain #ethereum #bitcoin #fintechGood Forking Job: Metaprinciples of blockchain-based technology.A few weeks ago, a hacker attempted to steal approximately $50 million USD worth of ether from a contract called the DAO. Today the…medium.com",4,3,0,False
327,Francisco Gordillo@FGordillo,"“A Fork in the Road” by @varunsrin #blockchain #ethereum #dao #bitcoin #fintechA Fork in the RoadI’ve been fielding a lot of questions from people about Ethereum, the DAO, and the upcoming hard fork, so I thought I’d write this blog…blog.coinbase.com",1,0,0,False
328,Sir Jeffrey Lebowski@Sir_Lebowski,"Now we have two alt coins, #Ethereum and #EtereumClassic, both being mined with a max cap of infinity coins. 

How many is that? 2 infinity?",3,1,0,False
329,Jennifer McCormack@Jennife00693442,Bad news (#DAO hack) was good news for #ethereum . This is because any news generate awareness and the fork is seen as strength. #Showbizz,0,0,0,False
330,Francisco Gordillo@FGordillo,“How To Make “Smart Contracts” Smarter” by @palleylaw #blockchain #ethereum #dao #bitcoin #fintechHow To Make “Smart Contracts” SmarterAn expanded and updated version of this post can be found at https://www.linkedin.com/pulse/how-make-smart-contracts-smarter-stephen-palley. I’m going to start by repeating a non-controversial…medium.com,1,0,0,False
331,Mexican_Taco@Mexicantaco247,Closed $ETH long... looking to re enter position with drawback today/tomorrow,0,0,0,False
332,indxio@indxio,#China Market Close || #Bitcoin: $652.18 | 594.44 EUR||  #Litecoin: 0.0031 BTC  || #Ethereum: 0.0221 BTC   || $BTC $LTC $ETH $RMB,0,0,0,False
333,Francisco Gordillo@FGordillo,“Decline of Blockchain hype and rise of a common sense” by @kravchenkopo #blockchain #ethereum #bitcoin #fintechDecline of Blockchain hype and rise of a common senseMy dear friends who are deeply involved in blockchain tech — I want to disappoint you. Almost for 2.5 years I’ve been involved into…medium.com,2,0,0,False
335, Michael Q Todd CHO of BirdieChances.Golf@michaelqtodd,An updated vision statement for @CrowdifyTech #MLM #Ethereum #Ecommerce #SocialBiz,7,4,2,False
336,Coinstats@coinstats,"Ethereum - ETH
Price: $14.3108
Change in 1h: +1.09%
Market cap: $1177157808.0
Ranking: 2
#Ethereum #ETH",0,0,0,False
337,Vasiliy Ivanov @100000000sat,"Replying to @ToneVays and @tone_lltAnd BTW, #ethereum price dropped 1/2 after #daohack. #eth price after #hardfork is still growing. Looks like people love hardfork",0,0,0,False
338,Francisco Gordillo@FGordillo,“On Mixing and More” by @cryptoroth #blockchain #ethereum #dao #bitcoin #fintech https://decentralize.today/on-mixing-and-more-69025978ad1c?source=twitterShare-8d88b4c0ca93-1469257138…,3,1,0,False
339,Francisco Gordillo@FGordillo,"“Insecurity of split contracts” by Dmitry Khovratovich #blockchain #ethereum #dao #bitcoin #fintechInsecurity of split contractsThe just happened hard fork raised an important question of how to deal with money on private accounts and contracts, which are still valid…medium.com",3,1,0,False
340,Francisco Gordillo@FGordillo,"“Social Media is Broken, Bitcoin to the Rescue.” by Tim Sylvester #blockchain #ethereum #dao #bitcoin #fintech https://decentralize.today/social-media-is-broken-bitcoin-to-the-rescue-fdcff380ec10?source=twitterShare-8d88b4c0ca93-1469256890…",2,1,0,False
341,Francisco Gordillo@FGordillo,“A Hacker’s View of the Ethereum Fork” by John Lakness #blockchain #ethereum #dao #bitcoin #fintech https://decentralize.today/a-hackers-view-of-the-ethereum-fork-32baba938eef?source=twitterShare-8d88b4c0ca93-1469256808…,1,0,0,False
343,Vasiliy Ivanov @100000000sat,Replying to @ToneVays and @tone_lltHF took 5% of #eth back to users from one smartass guy exploiting law bug. Bailout was paid by taxpayers(users) to save smartasses,0,0,0,False
344,/r/Ethereum@r_Ethereum,Has anyone tried the ETH freewallet for IOS ? http://bit.ly/29V2Csx #Ethereum,1,0,0,False
345,/r/Ethereum@r_Ethereum,Future looking really really bright for ether... http://bit.ly/29V2wRA #Ethereum,1,1,0,False
352,Katie Daniele@TheVioletwicche,"On repeat
https://youtube.com/watch?v=BkQuqtO9ecM…
#Kashmir #Ether",1,0,0,False
354,Coinstats@coinstats,"Ethereum - ETH
Price: $14.1405
Change in 1h: -1.16%
Market cap: $1163131033.0
Ranking: 2
#Ethereum #ETH",0,0,0,False
355,Ethereum SE@StackEthereum,What is the difference between transaction and message? http://ethereum.stackexchange.com/questions/7358/what-is-the-difference-between-transaction-and-message… #ethereum #transactions #terminology #internaltransactions,0,0,0,False
356,Ethereum SE@StackEthereum,Are gas limit in transaction and block gas limit different? http://ethereum.stackexchange.com/questions/7359/are-gas-limit-in-transaction-and-block-gas-limit-different… #ethereum #transactions #gas #blocks #gaslimit,0,0,0,False
357,Ethereum SE@StackEthereum,What is the beneficiary in block header? http://ethereum.stackexchange.com/questions/7360/what-is-the-beneficiary-in-block-header… #ethereum #blockheader,0,0,0,False
358,Ethereum Price@EthereumPrice_,"#Ethereum: Ether Price Index
1 ETH =0.021546Ƀ XBT = $14.133060 USD
Today: -4.49%⬇︎ Last 24h: +12.22%⬆︎
https://ethereum-price.com",1,0,0,False
360,Rimbit @rimbit,Usb Mic For Youtube - Help Needed http://rimbit.com/posts/11817 #bitcoin #ethereum,0,0,0,False
361,Chatura M.@ChapmanMuth,"Thanks for accepting #ethereum @coinbaseQuote TweetCoinbase@coinbase · Jul 21, 2016The Coinbase ""buy ether widget"" is now available in the latest version of MetaMask (v 2.7). https://metamask.ioGIF",0,0,0,False
362,/r/Ethereum@r_Ethereum,ethereum And construction http://bit.ly/2a7aKu9 #Ethereum,0,0,0,False
364,ICOcountdown@ICOcountdown,Replying to @TrendStreamYes it is built on top of the #ethereum protocol :),1,1,0,False
365,BigTCryptoAlerts@BigCryptoAlerts,Ethereum (USD) price is moving down http://tinyurl.com/jfnrgfx $ETHUSD #Ethereum(USD),0,0,0,False
367,Crypdex@CrypdexLLC,converted 22.84 mBTC $14.92 USD to ETH #Ethereum,0,0,0,False
368,Bernard Questiaux@beque,Hack of #DAO Hard Forks for #Ethereum http://avc.com/2016/07/hard-forks/…,0,0,0,False
369,Coinstats@coinstats,"Ethereum - ETH
Price: $14.324
Change in 1h: -1.61%
Market cap: $1178204172.0
Ranking: 2
#Ethereum #ETH",0,0,0,False
371,Izzy ILIEV@IzzyShares,"I feel so ""techy"".. just shifted Bitcoin to Ether at https://shapeshift.io #InstantExchange #Bitcoin #Ether via @ShapeShift_io",2,0,0,False
372,Ethereum Monkey@EthMonkey,Weekly Briefing No. 38 #ethereum http://thefinancialrevolutionist.com/weekly-briefing/2016/7/23/blockchain-2016-doers-dust-kickers-and-crazy-haired-guys…,1,0,0,False
373,Ar Vicco@arvicco,"Original $ETH chain lives on as #EthereumClassic $ETC. Network live, hash rate stable at 29GH. OTC markets forming.Hard fork went smoothly, Ethereum Classic chain is alive and kicking!**News update** Ethereum Classic is starting to make some serious waves. With a surprise [announcement of ETC trading on...reddit.com",6,2,1,False
374,Aayush Jindal@AayushJs,"This was 100% correct. #Ether #Ethereum #Bitcoin #PriceQuote TweetAayush Jindal@AayushJs · Jul 22, 2016#Bitcoin Price Under Pressure Due to #Ethereum? $ETH $BTC #News http://bitcoinbragger.com/forums/topic/bitcoin-price-under-pressure-due-to-ethereum/…",0,0,0,False
375,⛧ God of Gaming ⛧@TheGodofGamez,"If we could see the miracle of a single flower clearly, our whole life would change. $ETH",1,0,0,False
376,Coinstats@coinstats,"Ethereum - ETH
Price: $14.5607
Change in 1h: -1.72%
Market cap: $1197652016.0
Ranking: 2
#Ethereum #ETH",0,0,0,False
