,user,text,likes,retweets,replies,is_thread
0,Chrono.tech@ChronotechNews,#RT ChronoBank in The Huffington Post. Time-based Money of Our Times. http://huffingtonpost.com/allan-smith/timebased-money-of-our-ti_b_13275276.html… #blockchain #ethereum,25,25,0,False
1,Crypto Bean@William42111948,"$XVC next $ZEC
$XMR #ethereum",4,4,0,False
2,Crypto Bean@William42111948,"#Bitmark is leaving down trend, breakout imminent.

#ethereum $XMR",1,2,0,False
3,Simon Trimborn@SimonTrimborn,"#ethereum gains again strongly, ~12% in 6h",5,1,1,False
4,Mik Michael Krist@mik_krist,"http://coinmarketcap.com/#EUR

15% go my friend #ethereum #blockchain #smartcontract #mylove",2,2,0,False
5,Vindyne8@Vindyne8,#RT Join ChronoBank on BitcoinTalk! http://bit.ly/2fYWBhS #blockchain #bitcoin #ethereum #wavesplatform,19,18,0,False
6,Chris Williams is typing...@Scampiuk,The History of Casper – Chapter 2 http://ift.tt/2gDbxlU #ethereum,1,3,0,False
7,CryptoNewswire @CryptoNewswire,"Ethereum Price Technical Analysis ETH/USD Nosedived and Recovered - http://newsbtc.com/2016/12/07/ethereum-price-technical-analysis-ethusd-nosedived-recovered/… $BTC $ETH #fintech #finance #newsEthereum Price Analysis – ETH/USD Nosedived and RecoveredEthereum price traded sharply lower yesterday against the USD and BTC, but later found support and recovered a lot to set a positive tone.newsbtc.com",4,4,0,False
8,TwoFox@twofoxteam,"#Eth and #Augur Investor Hacked, #Ethereum Price Dives Further http://ow.ly/Irby507hNQU #bitcoin #btc #hacker #bots",2,1,1,False
9,gilberto orlandi@matrixitalia,... and then Prince Charming comes and kiss Ethereum... Welcome back  #ethereum!!!! Time to wake up!!!!,3,1,1,False
10,Philsabang Bull Bull Bull@Philsabang,We should be nailing .011 within near term. $ETH #Ethereum,2,1,0,False
11,Edward Bukstel@ebukstel,"#Ethereum Meetup in #Philadelphia tonight w/ a group of #FinTech and #Blockchain innovators.

https://meetup.com/Philadelphia-Ethereum-Meetup/events/235449017/…
#Philly",5,1,1,False
12,Sinz @Sinzfeldt,"New trend lines to watch, old ones to fear. $ETC #ethereum",4,3,1,False
13,SoftSpoon.io@soft_spoon,"Developments in #ethereum: http://softspoon.io/developments-in-ethereum/…
#blockchain",2,3,1,False
14,Patrizio Stavola@halovast,"Service-Oriented #Sharding with Aspen via @el33th4xor
#bitcoin #ethereum #blockchain http://hackingdistributed.com/2016/12/06/aspen/…",2,0,0,False
15,Mangaliagram@mangaliablog,RSK shapes the future of bitcoin by introducing Smart Contracts and bridging ETH and BTC ! http://the-blockchain.com/2016/12/07/rsk-making-bitcoin-blockchain-like-ethereum-2-0… #bitcoin #blockchain #eth,1,3,0,False
16,Vindyne8@Vindyne8,#RT ChronoBank in The Huffington Post. Time-based Money of Our Times. http://huffingtonpost.com/allan-smith/timebased-money-of-our-ti_b_13275276.html… #blockchain #ethereum,17,18,0,False
17,Chrono.tech@ChronotechNews,Join Chronobank.io Signature & Avatar Campaign https://bitcointalk.org/index.php?topic=1680361.msg16872529#msg16872529… #bitcointalk #bitcoin #blockchain #ethereum,24,23,0,False
18,fuzeinfo@fuzeinfo,The BlockCDN business model explained - really well http://ln.is/wxQmv #ethereum #cryptocurrency... by #aqrisaqris via @c0nvey,1,1,0,False
19,BlockCDN@BlockCDN,5 days to price rise! Don't miss out on a ridiculous early bird offer + 40% profit share for 3 yrs!! http://blockcdn.org #BTC #ETH #ICOGIF,37,238,3,False
20,Enzyme Finance@enzymefinance,Our Novmember newsletter is out! Check it out here http://eepurl.com/crKc6D #ethereum #etc #crypto #blockchain #assetmanagement #btc,7,3,0,False
21,Pychic readings by Andre@andregirouard,Why I’m Short #Ethereum and Long #Bitcoin (The #Cryptoverse #117) http://vid.staged.com/T8vt,2,1,0,False
22,Ethereum Price@EthereumPrice_,"#Ethereum: Ether Price Index
1 ETH =0.010212Ƀ XBT = $7.844645 USD
Today: -0.28%⬇︎ Last 24h: +5.39%⬆︎
https://ethereum-price.com",2,0,0,False
23,Ξ Fly Guy Ξ (flyguy.eth)@FlyGuyInTheSky,#ethereum has now risen over 46% from its lows on the 5th at $5.86... now $8.55,6,1,1,False
24,Gflaterr on Parler & Gab @gflaterr,"Circle CEO Allaire: It’s Highly Unlikely We’ll Be Using Bitcoin in 5 or 10 Years
http://coinjournal.net/circle-ceo-allaire-highly-unlikely-well-using-bitcoin-5-10-years/…
#ethereum",1,4,1,False
25,Ian Renwood@IRenwood,#Ethereum Survives Hack But It's Still Behind #Bitcoin #blockchain http://ln.is/fortune.com/2016/11/VCXyX…,1,1,1,False
26,Ξ Fly Guy Ξ (flyguy.eth)@FlyGuyInTheSky,#ethereum extends recovery to over $8 at $8.40.. (+5.6%) #bitcoin $768 slightly higher (+0.5%),3,1,1,False
27,Stephen D Taylor@StephenD_Taylor,"Interesting read of history in the making as recounted by @VladZamfir:
The History of Casper — Chapter 1 https://blog.ethereum.org/2016/12/06/history-casper-chapter-1/…",3,1,0,False
28,Nick Ayton@NickAyton,Looking forward to Part II @StephenD_Taylor @VladZamfir #ethereum @cloudnthings @Stevewal63 @thomaspower @sbmeunier @SmartLedger @Keefey71,5,3,1,False
29,Stephen King@mStephenKing,Looking forward to @projectnebulis (amongst others) to recreate DNS using #ethereum @IPFSbot @bendee983 http://tcrn.ch/2gZpeNb,4,2,0,False
30,TokenMarket@tokenmarket,App Coin Regulation https://blog.coinbase.com/2016/12/07/blockchain-token-securities-law/… #ethereum #crowdsale #ico,1,5,1,False
31,Christian Seberino@c_seberino,Why The InterPlanetary File System & Its Ilk Are A Big Deal For Blockchains & Beyond http://buff.ly/2gU947f #etc #eth #ethereumclassic,2,1,0,False
32,Igor Kripter@IgorKripter,"Join #WINGS #crowdsale campaign!
20% bonus still waiting you http://bit.ly/2fMSy8b
$BTC $ETH #bitcoin #ethereum
#fintech #dao #blockchain",1,1,0,False
33,Etherplay@etherplay,#ethereum #esports #indiegame Less than 24 hours to beat 26670 and receive 5 ether while enjoying our fun game atEtherplay - Game Studio Building Unstoppable Games on EthereumGame Studio Building Unstoppable Games on Ethereumetherplay.io,2,8,0,False
34,Vindyne8@Vindyne8,#RT Join #ChronoBank signature campaign http://bit.ly/2gFxlhM  & get rewarded #TIME #blockchain #bitcoin #ethereum,17,17,0,False
35,Revex@RevexCo,"Vote for the next #cryptocurrency exchange to be added to RevexCo
at https://revex.co/exchange-vote/
#Bitcoin
#Monero
#Okcash
#Syscoin
#Ethereum",6,4,1,False
36,FailCommunity@FAILCommunity,A beginner's guide to #cryptocurrency-related scams: Don't be like Rick Grimes (Andrew Lincoln). #FAILjokes #Bitcoin #Litecoin #EthereumGIF,2,1,0,False
37,Dan Clark Audio@danclarkaudio,"#ETHER Flow #headphones won the Grand Prix award @FUJIYAAVIC Fall Tokyo Headphone show, thanks!",7,4,1,False
38,Christian Seberino@c_seberino,"Good YouTube channels to watch that analyze cryptocurrencies, blockchain tech, etc. http://buff.ly/2gYVcvq #etc #eth #ethereumclassicGood YouTube channels to watch that analyze cryptocurrencies,...reddit.com",0,0,0,False
39,Heidi@blockchainchick,New to crypto and need to learn the lingo? Let me help you with that ;) https://steemit.com/cryptocurrency/@heiditravels/crypto-tips-hard-fork-defined… #steemit #hardfork #ethereum,5,3,0,False
40,blockchainmedia@Ethereumlab,Would you like early access to BlockGeeks #Blockchain Community? Sign up here http://blockgeeks.com #ethereum,1,0,0,False
41,Internet of People | IoP@IoP_community,"While #Ethereum is in free fall, people start watching how #Fermat's #IoP is evolving.
@coinbase should do, too ;-)Quote TweetAlistair Milne@alistairmilne · Dec 7, 2016TIL:  Coinbase removed their ""Ethereum is the forefront of Digital Currency"" article from the web: 
https://medium.com/the-coinbase-blog/ethereum-is-the-forefront-of-digital-currency… #bitcoin",6,3,0,False
42,ethereum.network@EthereumNetw,All #Ethereum wallet syncing problems goneEthereum wallet working great todayreddit.com,2,4,0,False
43,Patrizio Stavola@halovast,Intellisys Capital is preparing to launch a private #equity #investment platform powered by #Ethereum #blockchain http://intellisys.ai/private-equity-on-the-blockchain-to-arrive-in-new-year/…,2,1,1,False
44,Dissentralized@bitcoin_machine,Day 12 EtherMiners Report.  36% Return! Join me @:http://tinyurl.com/h9btw6v #bitcoin #BTC #ETHEREUM #cloudmining #investing #forex #stocks,0,0,0,False
45,Cees Grootes@Analyticus,McKinsey Report Identifies Profit Factors in Blockchains for Capital Markets http://nasdaq.com/article/mckinsey-report-identifies-profit-factors-in-blockchains-for-capital-markets-cm717244… #blockchain #bitcoin #ethereum,1,7,0,False
46,ETH CS Department@CSatETH,"#ETH recruiting #PhD students and #postdocs for projects on program verification, static program analysis, testing http://bit.ly/1QqSdI9",2,2,0,False
47,Fred E @Fredilly,#Ethereum is going to be Zimbabwe even when Zimbabwe is no longer Zimbabwe.,3,3,0,False
48,Brave New Coin@bravenewcoin,#Ethereum Price: USD $8.48 $ETH http://ow.ly/6UKf3048WBe,1,2,0,False
49,Brave New Coin@bravenewcoin,#Ethereum Price: USD $7.64 $ETH http://ow.ly/6UKf3048WBe,1,2,0,False
50,Digiconomist@DigiEconomist,"Investment fund Mainstream Capital is coming to #EthereumQuote TweetCharlie Shrem@CharlieShrem · Nov 23, 2016Bitcoin Pioneer Charlie Shrem Launches New Blockchain Venture http://bit.ly/2gzSUD5 via @CoinDesk",3,1,0,False
51,The Dollar Vigilante@DollarVigilante,Anarchast With Jim Bell: Assassination Politics Meet the #Blockchain #Ethereum https://dollarvigilante.com/blog/2016/08/13/anarchast-jim-bell-assassination-politics-meet-blockchain.html…,12,9,1,False
52,Ameer Rosic@AmeerRosic,Great people deserve a great audience. http://blockgeeks.com #Blockchain #Ethereum #Bitcoin,1,1,0,False
53,Sasha Ivanov@sasha35625,"to what kind of POS is #ethereum going to migrate? found no sensible specification of Casper, let alone any code",5,3,1,False
54,Ameer Rosic@AmeerRosic,"#Blockchain can be confusing, but it doesn't have to be.  http://blockgeeks.com #bitcoin #Ethereum",2,3,0,False
55,Blockgeeks@Blockgks,Welcome to Fortune's 2016 40 Under 40 http://dld.bz/eWbaX #ethereum #blockchain #business,2,1,0,False
56,Olivier Chapiteau@o_chapiteau,"07Dec2016 06:00 UTC #Ether #Blockchain status - Block height @ 2,762,563 - 104,586 unconfirmed tr. - Last fork height @ 2,762,561",1,0,0,False
57,BitcoinAgile@bitcoinagile,The History of Casper - Chapter 2 - #ethereum Blog https://blog.ethereum.org/2016/12/07/history-casper-chapter-2…,3,4,0,False
58,Fred E @Fredilly,"Dear #Ethereum, I hope single swipe ICOs are in the road map.",2,1,0,False
59,ExploreTraveler@exploretravel1,RT @residualbitcoin: Austrias Erste Bank Awards #ethereum Projects in Startup Contest  Europa-News http://lnkplg.co/w5veN https://t.co/FMn…,1,1,0,False
60,Isaac Calvo@isaac_dev,The History of Casper - Chapter 2 - #ethereum Blog https://blog.ethereum.org/2016/12/07/history-casper-chapter-2…,1,3,0,False
61,Defi.Central@DefiCentral,"ETC Weekly Newsletter : The Grothendieck Team
https://goo.gl/46i6TD
@EthereumClassic #ETHEREUM #ETC #EthereumClassic #Blockchain #crypto",2,0,0,False
62,tgerring.eth@TaylorGerring,"Replying to @jp_cane and @cane_jeanThat is effectively what sidechains have been sold as, but it's a 3 year promise that hasn't come to fruition",1,1,0,False
63,JPC@jp_cane,Need to study side chains. I am grateful that #ethereum is aggressive in pushing limits! All chains will benefit long-term.,1,0,0,False
64,Bruce Pon@BrucePon,"Little known factoid: Vitalik worked on the @ascribeIO prototype #blockchain #ethereum @BigchainDBQuote TweetGreg McMullen@gmcmullen · Dec 7, 2016The secret history linking @ethereumproject and @IPDBFoundation, via @hdiedrich's book https://amazon.com/gp/aw/d/1523930470/…",4,0,0,False
65,Vortex@theonevortex,"Everybody, now even @coinbase are distancing themselves from @VitalikButerin & #ethereum.",1,0,0,False
66,“Li Min” Chase@ChaseThatCoin,$ETH lost 15% in last nights hack but has lost 42.30% of its value over the last 29 days..the hack still followed the down trend,2,0,0,False
67,Vortex@theonevortex,Replying to @desantis @coinbase and @VitalikButerinCoinbase just removed their big #ethereum article from the web. via @alistairmilne,3,0,0,False
68,Crypto₿ull@CryptoBull,Will $ETH break 0.011?To the moon!24.2%Nah man... all in short!52.8%Vitalik <39.6%ETH is the new BTC13.5%178 votes·Final results,3,2,0,False
78,Lika Nicolic@Ethereumhub,What are the best #blockchain books to read? http://dld.bz/eWaV7 #bitcoin #ethereum #startup,1,1,0,False
79,Arpit Sidana@arpit_sidana,"Regulators embracing deregulation to regulate deregulation processes. #bitcoin #ethereum #blockchainQuote TweetWorld Economic Forum@wef · Dec 7, 2016There is more to blockchain than moving money. It has the potential to transform our lives - here's how http://wef.ch/2hj697v",1,0,0,False
80,Gflaterr on Parler & Gab @gflaterr,"Vitalik Buterin Interview
@buddendorf #ethereum https://youtube.com/watch?v=8KJBs_kKg2I&feature=share…",0,0,0,False
81,Foxes Den@foxesden34,The History of Casper - Chapter 2 - Ethereum Blog http://paper.li/f-1473176678?read=https%3A%2F%2Fblog.ethereum.org%2F2016%2F12%2F07%2Fhistory%2Dcasper%2Dchapter%2D2%2F… #ethereum,1,1,0,False
82,lastbattle@GreatGrandBear,Download the app now to stay ahead of the #bitcoin market! https://play.google.com/store/apps/details?id=bitcoin.bitbot… #btc #eth #etc,2,2,0,False
85,blockchainmedia@Ethereumlab,Become a #Blockchain Guest Contributor http://dld.bz/fgnwr #writer #bitcoin #ethereum,0,0,0,False
86,Ian Beckett@ianbeckett,How to Evaluate an #Cryptocurrency #startup - #ethereum #bitcoin #blockchain http://startupmanagement.org/2016/11/24/how-to-evaluate-an-initial-cryptocurrency-offering-ico/…,1,2,1,False
91,Coinstats@coinstats,"Ethereum Classic - ETC
Price: $0.827355
Change in 1h: +-0.38%
Market cap: $71668651.0
Ranking: 6
#Ethereum Classic #ETC",0,0,0,False
92,Coinstats@coinstats,"Ethereum - ETH
Price: $8.40896
Change in 1h: +-0.18%
Market cap: $729069233.0
Ranking: 2
#Ethereum #ETH",0,0,0,False
93,Bobe'bot@Bobe_bot,"1 #BTC = 798.5669 #CHF
1 #ETH = 8.9689 #CHF
1 #DOGE = 0.000218716792 #CHF
sources: @cryptonatorcom @hellobity",0,0,0,False
94,BitcoiNapoleon@hodler_btc,how to short #ethereumHow to Short EthereumSome are guessing that a series of flaws and setbacks in the Ethereum code will drive down the price. Should you short?investopedia.com,1,1,0,False
98,/r/Ethereum@r_Ethereum,Ethereum Wallet won't sync on new PC #EthereumEthereum Wallet won't sync on new PCSo I moved my ethereum wallet to a new windows PC (in Appdata\Roaming) and installed the latest version of the wallet with Mist. When I click...reddit.com,1,0,0,False
109,blockchainmedia@Ethereumlab,"Join today! Blockgeeks is a #Blockchain innovation hub 
& marketplace http://blockgeeks.com #Bitcoin #Ethereum",0,0,0,False
110,Tech Lib@tech__lib,"#Blockchain Technology Proves Itself in Wall Street Test   #Bitcoin #Ethereum
@AmeerRosic - http://techlib.online/technology-proves-itself-in-wall-street-test-2/…",0,0,0,False
112,Coinstats@coinstats,"Ethereum Classic - ETC
Price: $0.831689
Change in 1h: +0.07%
Market cap: $72042978.0
Ranking: 6
#Ethereum Classic #ETC",0,0,0,False
113,Coinstats@coinstats,"Ethereum - ETH
Price: $8.38433
Change in 1h: +-0.26%
Market cap: $726924722.0
Ranking: 2
#Ethereum #ETH",0,0,0,False
114,BitcoinBuzz vega9@BitcoinBuzzV9,http://bitcoinbuzz.vega9.com - Hot topics: #bitcoin #blockchain #cryptocurrency #ethereum #btc #business,0,0,0,False
115,Dan Clark Audio@danclarkaudio,"#Shopping for headphones?  @headfi's Holiday Buying Guide is a massive resource!  #ETHER page 2 ""over ear"" http://bit.ly/2gccwZg",2,1,0,False
124,LunchBadger@LunchBadger,"#adtech reimagined - adChain , #ethereum Dapp ad fulfillment , a #microservices and #api case study on #blockchain -adChain Ethereum Dapps, LunchBadger Microservices and APIs Pt.2 - LunchBadgeradChain Dapps are powered by LunchBadger microservices and APIs to bridge the gap between Ethereum and web applications externalized as APIslunchbadger.com",1,1,1,False
126,Isaac Calvo@isaac_dev,A Securities Law Framework for #blockchain Tokens #Ethereum #Bitcoin https://docs.google.com/spreadsheets/d/1QxOV2dgxO3C_TyVE0-41ZwLlzPmB-EE1NNshJGuedCU/edit#gid=0…,1,1,1,False
127,blockchainmedia@Ethereumlab,What is #Blockchain Technology? Guide For Beginners http://dld.bz/eW5DU #ethereum,0,0,0,False
128,Lika Nicolic@Ethereumhub,Finally! A Simple Guide To understand Ethereum http://dld.bz/fcBTc #Ethereum #blockchain #fintech,1,1,0,False
129,David Deputy@DeputyDavid,#EUParl proposed 20 measures to tackle €170 billion #VAT gap—#Blockchain fits. Can #Ethereum #Hyperledger scale? http://ow.ly/RjAY306IKU3,1,2,1,False
130,Faith Emmanuel@residualbitcoin,A Securities Law Framework for #blockchain Tokens #Ethereum #Bitcoin https://docs.google.com/spreadsheets/d/1QxOV2dgxO3C_TyVE0-41ZwLlzPmB-EE1NNshJGuedCU/edit#gid=0…  #ResidualBitcoin,0,0,0,False
131,Veki@Veki551155,A Securities Law Framework for #blockchain Tokens #Ethereum #Bitcoin https://docs.google.com/spreadsheets/d/1QxOV2dgxO3C_TyVE0-41ZwLlzPmB-EE1NNshJGuedCU/edit#gid=0…,0,0,0,False
132,Ameer Rosic@AmeerRosic,6 Reasons Why #Blockchain is Worth Getting Excited http://snip.ly/7je5i #bitcoin #Ethereum,3,1,0,False
133,BitcoinAgile@bitcoinagile,A Securities Law Framework for #blockchain Tokens #Ethereum #Bitcoin https://docs.google.com/spreadsheets/d/1QxOV2dgxO3C_TyVE0-41ZwLlzPmB-EE1NNshJGuedCU/edit#gid=0…,1,2,0,False
134,Alex.eth@AlexanderFisher,A Securities Law Framework for Blockchain Tokens http://buff.ly/2h6ualF #Ethereum #Bitcoin #blockchain,2,2,0,False
135,BlockChannel@BlockChannel,"BlockChannel: Chapter 2 released. #Casper #EthereumQuote Tweetvitalik.eth@VitalikButerin · Dec 6, 2016The History of Casper https://blog.ethereum.org/2016/12/06/history-casper-chapter-1/… by @VladZamfir",1,1,0,False
136,ETHNews@ETHNews_,"Chapter 2 released. #Casper #EthereumQuote Tweetvitalik.eth@VitalikButerin · Dec 6, 2016The History of Casper https://blog.ethereum.org/2016/12/06/history-casper-chapter-1/… by @VladZamfir",2,1,0,False
137,/r/Ethereum@r_Ethereum,"Fixed Contract Execution Cost #EthereumFixed Contract Execution CostHey, i was wondering if we could implement a fixed Contract execution price within Ethereum just as Factom did with their Entry Credits? So...reddit.com",1,1,0,False
138,FreeDMCA.com@free_dmca,"#Eth and #Augur Investor Hacked, #Ethereum Price Dives Further http://ow.ly/Irby507hNQU #bitcoin #btc #hacker #bots",0,0,0,False
139,Adam S. Tracy@TracyFirm,"#Eth and #Augur Investor Hacked, #Ethereum Price Dives Further http://ow.ly/Irby507hNQU #bitcoin #btc #hacker #bots",1,1,1,False
143,Coinstats@coinstats,"Ethereum Classic - ETC
Price: $0.83115
Change in 1h: +1.21%
Market cap: $71994953.0
Ranking: 6
#Ethereum Classic #ETC",0,0,0,False
144,Coinstats@coinstats,"Ethereum - ETH
Price: $8.41468
Change in 1h: +-0.15%
Market cap: $729544355.0
Ranking: 2
#Ethereum #ETH",0,0,0,False
145,Ethereum Price@EthereumPrice_,"#Ethereum: Ether Price Index
1 ETH =0.010851Ƀ XBT = $8.373450 USD
Today: +5.96%⬆︎ Last 24h: +8.99%⬆︎
https://ethereum-price.com",1,2,0,False
146,BitcoinBuzz vega9@BitcoinBuzzV9,http://bitcoinbuzz.vega9.com - Hot topics: #bitcoin #blockchain #ethereum #cryptocurrency #btc #fintech,0,0,0,False
147,Cees Grootes@Analyticus,"Fintech Firms Attacking All Facets of Banking https://thefinancialbrand.com/62418/fintech-banking-future-collaboration-trends/… #blockchain #bitcoin #ethereum #cryptocurrencyFintech Firms Attacking All Facets of BankingAs the scope and impact of fintech grows, traditional financial institutions must adapt through partnerships and invest in digital technology.thefinancialbrand.com",1,1,1,False
148,Tone Vays (#EndLockdowns)@ToneVays,"I hear all the time, mostly from believers in #TheDAO, #Ethereum #steemit and #zcash all of which will fail",0,0,0,False
159,Ameer Rosic@AmeerRosic,#Blockchain Technology Proves Itself in Wall Street Test http://snip.ly/i6je1 #Bitcoin #Ethereum,1,3,0,False
160,/r/Ethereum@r_Ethereum,Circle CEO Allaire: It’s Highly Unlikely We’ll Be Using Bitcoin in 5 or 10 Years #EthereumCircle CEO Allaire: It’s Highly Unlikely We’ll Be Using Bitcoin in...Posted in r/ethereum by u/twigwam • 5 points and 7 commentsreddit.com,1,1,0,False
162,xxxxxxxo@XxxxxxxoWxqkhy,"#Anton Borin #Ether #playlisted
listen to CHILL ONE radio official website : http://chillone.com",0,0,0,False
164,Veki@Veki551155,How to Short #ethereum http://bit.ly/2gbPrpD,0,0,0,False
165,Isaac Calvo@isaac_dev,How to Short #ethereum http://bit.ly/2gbPrpD,1,1,0,False
166,Faith Emmanuel@residualbitcoin,How to Short #ethereum http://bit.ly/2gbPrpD  #ResidualBitcoin,0,0,0,False
167,BitcoinAgile@bitcoinagile,How to Short #ethereum http://bit.ly/2gbPrpD,1,1,0,False
168,GX-Coin@gx_coin,Austria's Erste Bank Awards #Ethereum Projects in Startup Contest http://ow.ly/drpM306Snvx,1,0,0,False
169,Adam Byrne@adamabyss,"Bitcoin Price Could Triple in 2017, Saxo Bank Says in 'Outrageous' Prediction http://bit.ly/2h5W3br via @CoinDesk #bitcoin #ethereum",1,2,0,False
170,BuriedONE@BuriedOne,"Etherem Price Skyrockets! The Possible Explanation. #EthereumEtherem Price Skyrockets! The Possible Explanation.NOTE: a remake will me made, but the actual cause of this drop and rise is that a hacker has sold all the Eth from a very wealthy person, all this sudden amo...youtube.com",1,2,0,False
171,Cliff K Jordan@CKJordan15,"Earn up to $65,610 daily! join & get the benefits http://bit.ly/coinviv2 #coinomia #ethereum #cryptoguide #Bitcoins",0,0,0,False
172,/r/Ethereum@r_Ethereum,Chain Reveals 'Ivy' Smart Contract Language in First Public Demo #EthereumChain Reveals 'Ivy' Smart Contract Language in First Public DemoPosted in r/ethereum by u/twigwam • 6 points and 0 commentsreddit.com,1,1,0,False
173,/r/Ethereum@r_Ethereum,The History of Casper [according to Vlad] - Chapter 2! #EthereumThe History of Casper [according to Vlad] - Chapter 2!Posted in r/ethereum by u/vladzamfir • 136 points and 33 commentsreddit.com,1,1,0,False
176,Dissentralized@bitcoin_machine,Day 13 EtherMiners Report.  39% Return! Join me @:http://tinyurl.com/h9btw6v #bitcoin #BTC #ETHEREUM #cloudmining #investing #forex #stocks,0,0,0,False
177,blockchainmedia@Ethereumlab,Can someone explain to me what is Ethereum in laymen's term? http://dld.bz/eWbfN #ethereum #blockchain,1,1,0,False
178,Coinstats@coinstats,"Ethereum Classic - ETC
Price: $0.819871
Change in 1h: +-0.09%
Market cap: $71017497.0
Ranking: 6
#Ethereum Classic #ETC",0,0,0,False
179,BitcoinBuzz vega9@BitcoinBuzzV9,http://bitcoinbuzz.vega9.com - Hot topics: #bitcoin #blockchain #ethereum #cryptocurrency #fintech #business,0,0,0,False
180,Alberto Jauregui | esoteRICK.eth @DisruptBanksy,http://ift.tt/2gDbxlU The History of Casper – Chapter 2 #ethereum #ether,1,1,0,False
181,Faith Emmanuel@residualbitcoin,The History of Casper - Chapter 2 - #ethereum Blog https://blog.ethereum.org/2016/12/07/history-casper-chapter-2…  #ResidualBitcoin,0,0,0,False
182,Veki@Veki551155,The History of Casper - Chapter 2 - #ethereum Blog https://blog.ethereum.org/2016/12/07/history-casper-chapter-2…,0,0,0,False
184,Ameer Rosic@AmeerRosic,How #Blockchain Helps Brooklyn Dwellers Use Neighbors' Solar Energy http://snip.ly/f3wcc #Ethereum,1,1,0,False
185,crypt0nate@seraphnate,#rekt by a fortune cs $ETH flash crashed over 20% in last 48hrs cs someone hacked 'n dumped small fortune of former #ETH whale on polo?,1,0,0,False
186,Cryptiv@Cryptiv,The History of Casper - Chapter 1 - #Ethereum Blog http://ow.ly/QnpO306U91X,1,1,1,False
187,Digiconomist@DigiEconomist,"If you bought #ETH after this you made ~30%Quote TweetDigiconomist@DigiEconomist · Dec 5, 2016Replying to @DigiEconomistIf you're looking to buy this could be a good entry point.",0,0,0,False
189,Bitsler@BitSler,Bitsler lottery for bitcointalk members ! https://bitcointalk.org/index.php?topic=1707904.0… #bitcoin #ethereum #bitcointalk #btc #gambling,1,1,1,False
191,Veki@Veki551155,"How to Short #ethereum #shortselling,bitcoin,email-ntu http://bit.ly/2gbLjGn",0,0,0,False
192,Isaac Calvo@isaac_dev,"How to Short #ethereum #shortselling,bitcoin,email-ntu http://bit.ly/2gbLjGn",1,1,0,False
194,Faith Emmanuel@residualbitcoin,"How to Short #ethereum #shortselling,bitcoin,email-ntu http://bit.ly/2gbLjGn  #ResidualBitcoin",1,1,0,False
195,BitcoinAgile@bitcoinagile,"How to Short #ethereum #shortselling,bitcoin,email-ntu http://bit.ly/2gbLjGn",3,7,0,False
196,Glenn Jimerson@glennjimerson,IBM building blockchain ecosystem http://bit.ly/2hjwpyt #fintech #eth,0,0,0,False
197,Crypto Games@Crypto_Games,155 #ethereum lottery tickets already in pot for tomorrows draw! http://crypto-games.net #lottery,2,1,1,False
198,Cryptocoin Radar@cryptocoinradar,"$eth / $btc: +7% value, +18% volume in 1 hour (http://cryptocoinradar.com/#eth)",0,0,0,False
199,/r/Ethereum@r_Ethereum,Is there a standard HD derivation path that everyone is following for Ethereum? #EthereumIs there a standard HD derivation path that everyone is following...Posted in r/ethereum by u/googleamazon • 10 points and 6 commentsreddit.com,1,1,0,False
200,Alistair Milne@alistairmilne,Ethereum $ETH has just entered the OTE zone for bears to short sell. Personally I'm going to wait to see how it behaves a little longer,10,1,0,False
202,Lika Nicolic@Ethereumhub,What is #Ethereum? A Step-by-Step Beginners Guide  http://dld.bz/fcBTc #blockchain #fintech,1,1,0,False
203,Ameer Rosic@AmeerRosic,Q&A: STEPHAN TUAL: Founder & COO Slock.it & The DAO http://dld.bz/faeQR #THEDAO #ethereum #blockchain,1,1,0,False
205,AlertCo.in@AlertCoin,"@alexkramer98
#Poloniex: $ETH / BTC

Alert price: >= 0.011
Current price: 0.01102063

http://AlertCo.in",0,0,0,False
206,ŻET Technologies@ZET_Tech,"Good day for miners. From +6% up to +17% 
#mining #eth #etc #zec #bitcoin",0,0,0,False
209,Blockgeeks@Blockgks,What is the difference between #Bitcoin and #Ethereum? http://dld.bz/eWaV7 #startup,1,1,0,False
210,SoftSpoon.io@soft_spoon,"Daily #Blockchain Reads: http://softspoon.io/daily-reads-12716/…
#ethereum #cryptocurrency",0,0,0,False
211,Coinstats@coinstats,"Ethereum Classic - ETC
Price: $0.819625
Change in 1h: +0.42%
Market cap: $70994957.0
Ranking: 6
#Ethereum Classic #ETC",0,0,0,False
212,Coinstats@coinstats,"Ethereum - ETH
Price: $8.35468
Change in 1h: +5.93%
Market cap: $724320350.0
Ranking: 2
#Ethereum #ETH",0,0,0,False
213,BitcoinBuzz vega9@BitcoinBuzzV9,http://bitcoinbuzz.vega9.com - Hot topics: #bitcoin #blockchain #ethereum #usd #business #btc,1,1,0,False
215,/r/Ethereum@r_Ethereum,GNT Trading Now Available on Maker Market (xpost r/ethtrader) #EthereumGNT Trading Now Available on Maker Market (xpost r/ethtrader)Posted in r/ethereum by u/Anodigitalog • 41 points and 2 commentsreddit.com,2,2,0,False
216,/r/Ethereum@r_Ethereum,Service-Oriented Sharding with Aspen #EthereumService-Oriented Sharding with AspenPosted in r/ethereum by u/OX3 • 19 points and 1 commentreddit.com,1,3,0,False
217,Load Debit Card@LoadDebitCard,Ethereum In Free Fall As Floor Beneath It Drops https://cointelegraph.com/news/ethereum-in-free-fall-as-floor-beneath-it-drops… via @Cointelegraph #EthereumEthereum In Free Fall As Floor Beneath It DropsEthereum has dropped 20 per cent in a day leaving investors wondering if it has had one hard fork too many. Is it the beginning of the end for Ethereum?cointelegraph.com,1,1,0,False
218,Rembrandt@Rembrandt_972,"BTC,ETH, on the way up! #bitcoin #ETHEREUM #Investment #getrichin4words",2,1,1,False
219,starttanky@starttanky,"#Ethereum Daily Chart 
good to buy #blockchain",2,1,1,False
220,Isaac Calvo@isaac_dev,How to build Dapps with the #ethereum #blockchain  ConsenSys Media https://medium.com/consensys-media/how-to-build-dapps-with-the-ethereum-blockchain-83760f0eb87b…,3,1,0,False
221,Faith Emmanuel@residualbitcoin,How to build Dapps with the #ethereum #blockchain  ConsenSys Media https://medium.com/consensys-media/how-to-build-dapps-with-the-ethereum-blockchain-83760f0eb87b…  #ResidualBitcoin,1,0,0,False
222,Veki@Veki551155,How to build Dapps with the #ethereum #blockchain  ConsenSys Media https://medium.com/consensys-media/how-to-build-dapps-with-the-ethereum-blockchain-83760f0eb87b…,1,0,0,False
223,BitcoinAgile@bitcoinagile,How to build Dapps with the #ethereum #blockchain  ConsenSys Media https://medium.com/consensys-media/how-to-build-dapps-with-the-ethereum-blockchain-83760f0eb87b…,5,3,0,False
224,Ameer Rosic@AmeerRosic,Why Latin American economies are turning to #bitcoin http://snip.ly/mtab3 #blockchain #ethereum,2,2,0,False
225,AlertCo.in@AlertCoin,"@alexkramer98
#Poloniex: $ETH / BTC

Alert price: >= .01075
Current price: 0.01079599

http://AlertCo.in",0,0,0,False
226,AlertCo.in@AlertCoin,"@alexkramer98
#Poloniex: $ETH / BTC

Alert price: >= 0.01065
Current price: 0.01070000

http://AlertCo.in",0,0,0,False
227,AlertCo.in@AlertCoin,"@alexkramer98
#Poloniex: $ETH / BTC

Alert price: >= .0105
Current price: 0.01052001

http://AlertCo.in",0,0,0,False
228,@Beastmodebattle,#Ether Updated Flyer ...,0,0,0,False
230,Mystic Coders@mysticcoders,"What is #Ethereum? A Step-by-Step Beginners Guide #blockchain
http://buff.ly/2hh6OpQ",1,1,1,False
231,Isaac Calvo@isaac_dev,#ethereum ETH and ETC Price Trends Week of December 5th - Altcoin Today #bitcoin #crypto http://altcointoday.com/ethereum-eth-etc-price-trends-week-december-5th…,1,0,0,False
232,Veki@Veki551155,#ethereum ETH and ETC Price Trends Week of December 5th - Altcoin Today #bitcoin #crypto http://altcointoday.com/ethereum-eth-etc-price-trends-week-december-5th…,0,0,0,False
234,Faith Emmanuel@residualbitcoin,#ethereum ETH and ETC Price Trends Week of December 5th - Altcoin Today #bitcoin #crypto http://altcointoday.com/ethereum-eth-etc-price-trends-week-december-5th…  …,1,0,0,False
235,BitcoinAgile@bitcoinagile,#ethereum ETH and ETC Price Trends Week of December 5th - Altcoin Today #bitcoin #crypto http://altcointoday.com/ethereum-eth-etc-price-trends-week-december-5th…,1,1,0,False
236,Coinstats@coinstats,"Ethereum Classic - ETC
Price: $0.81361
Change in 1h: +0.12%
Market cap: $70473250.0
Ranking: 6
#Ethereum Classic #ETC",0,0,0,False
237,Coinstats@coinstats,"Ethereum - ETH
Price: $7.88142
Change in 1h: +0.54%
Market cap: $683283160.0
Ranking: 2
#Ethereum #ETH",0,0,0,False
238,Olivier Chapiteau@o_chapiteau,"07Dec2016 18:00 UTC #Ether #Blockchain status - Block height @ 2,765,625 - 110,298 unconfirmed tr. - Last fork height @ 2,765,612",0,0,0,False
239,Olivier Chapiteau@o_chapiteau,07Dec2016 18:00 UTC #Ethereum live spots - #Ether @ 7.87943 $ - #EtherClassic @ 0.79896 $,1,0,0,False
241,Kent Barton@seven7hwave,"An outstanding guide to securing your digital life, by @pipermerriam https://medium.com/@pipermerriam/my-guide-to-solid-digital-security-fb76cb19c536#.eauk8kaco… #blockchain #ethereum",0,0,0,False
243,Alex.eth@AlexanderFisher,Is a blockchain token a security? http://buff.ly/2hgQmKy #ethereum,1,0,0,False
244,cryptinsight@cryptinsight,"DFD Custom APIs - Dragon Frugal Designs #ethereum #bitcoin #API #php #steemDFD Custom APIs - Dragon Frugal DesignsThis is a PHP-based RESTful API interface for connecting to multiple APIs. Currently in the works are Bitcoin / Ethereum / STEEM custom APIs, with more to come in the future. Project started Dec. 5th...dragonfrugal.com",1,0,0,False
246,blockchainmedia@Ethereumlab,Welcome to Fortune's 2016 40 Under 40 http://dld.bz/eWbaX #ethereum #blockchain #business,0,0,0,False
247,/r/Ethereum@r_Ethereum,Piper's guide to securing your digital life #EthereumPiper's guide to securing your digital lifePosted in r/ethereum by u/pipermerriam • 69 points and 24 commentsreddit.com,1,0,0,False
248,Lika Nicolic@Ethereumhub,What does #Zcash mean for #Ethereum? http://dld.bz/fhyWt #blockchain,1,0,0,False
256,Crypto Bean@William42111948,"$XVC next $ZEC
$XMR #ethereum",1,0,0,False
258,boy@boy25949262,Free #Ethereum every 5 minutes https://cryptosource.net/free-ethereum/?r=cbXz9FTEnH… #Ethereum via @CryptoSourceHQ,0,0,0,False
259,blockchainmedia@Ethereumlab,Finally! A Simple Guide To understand Ethereum http://dld.bz/fcBTc #Ethereum #blockchain #fintech,0,0,0,False
260,Blockgeeks@Blockgks,What are the best #blockchain books to read? http://dld.bz/eWaV7 #bitcoin #ethereum #startup,1,0,0,False
261,Coinstats@coinstats,"Ethereum Classic - ETC
Price: $0.812582
Change in 1h: +2.04%
Market cap: $70383028.0
Ranking: 6
#Ethereum Classic #ETC",0,0,0,False
265,Bobe'bot@Bobe_bot,"1 #BTC = 798.1583 #CHF
1 #ETH = 8.3782 #CHF
1 #DOGE = 0.00021841344 #CHF
sources: @cryptonatorcom @hellobity",0,0,0,False
266,Coinstats@coinstats,"Ethereum - ETH
Price: $7.83077
Change in 1h: +-0.21%
Market cap: $678883124.0
Ranking: 2
#Ethereum #ETH",0,0,0,False
267,/r/Ethereum@r_Ethereum,[Video] Parity Demo For The One Million Ether Page #Ethereum[Video] Parity Demo For The One Million Ether PagePosted in r/ethereum by u/eckb_wolf • 9 points and 7 commentsreddit.com,1,0,0,False
269,Ameer Rosic@AmeerRosic,How Will #Blockchain Change Banking? How Won't It? http://snip.ly/a2ci1 #Ethereum #Bitcoin,1,0,0,False
270,"Neil Richter (Beats, Brews & Points of View)@RedWings518",@Rosenbergradio the link up with joaquin phoenix and drop singles line killed me . #Ether,0,0,0,False
271,MakingWave$@CryptoWave3000,"sasha35625 tweeting: https://twitter.com/sasha35625/status/806540137874255872… to what kind of POS is #ethereum going to migrate? found no sensible specification of Casper,…Quote TweetSasha Ivanov@sasha35625 · Dec 7, 2016to what kind of POS is #ethereum going to migrate? found no sensible specification of Casper, let alone any code",1,0,0,False
272,Lika Nicolic@Ethereumhub,Could #Blockchain Technology Bankrupt Spotify? A Music Revolution http://buff.ly/2cWIfNM #ethereum #bitcoin,1,0,0,False
274,Blockgeeks@Blockgks,New Post: How Bitcoin Payments Are Taking Over & Why You Should Care http://buff.ly/2h6cDri #blockchain #bitcoin #ethereum #fintech,1,1,0,False
280,José Carlos Baquero @jbaquerot,"#Ethereum Users Need To Raise Gas Limits To Fight #Blockchain BloatEthereum Users Need To Raise Gas Limits To Fight Blockchain BloatBut there is a secondary purpose to getting rid of this blockchain bloat. By removing empty accounts,users will spend less time syncing with the blockchain. The Ethereum ecosystem is going through...bcvcsc.tumblr.com",1,1,0,False
281,Simon de la Rouviere @simondlr,"Replying to @simondlrImagine a program on Mars, trading blockchain AR Pokemon with a human on Earth? The future will be awesomely weird. #ethereum #IPFS",2,2,0,False
283,Artyom@ArtjomAminov,#ethereum #solidity contract example with #golang binding :artjoma/eth-utilsEthereum contract calling examples with golang and abigen binding usage - artjoma/eth-utilsgithub.com,0,0,0,False
284,Ameer Rosic@AmeerRosic,25 GENIUSES WHO ARE CREATING THE FUTURE OF BUSINESS http://snip.ly/avrq9 #Blockchain #Ethereum,1,1,0,False
287,Brave New Coin@bravenewcoin,#Ethereum Price: USD $7.97 $ETH http://ow.ly/6UKf3048WBe,1,1,0,False
288,Coinstats@coinstats,"Ethereum Classic - ETC
Price: $0.796436
Change in 1h: +-1.01%
Market cap: $68983443.0
Ranking: 6
#Ethereum Classic #ETC",0,0,0,False
289, Eliza Cheng @ElizaRyenne,Good paying sites for #FREE #bitcoin #dogecoin #litecoin #ethereum at http://eccryptolist.blogspot.my,1,1,0,False
290,Coinstats@coinstats,"Ethereum - ETH
Price: $7.85084
Change in 1h: +0.01%
Market cap: $680612086.0
Ranking: 2
#Ethereum #ETH",0,0,0,False
291,Cees Grootes@Analyticus,"Trust, But Verify: How Blockchain Could Disrupt Your World http://forbes.com/sites/theyec/2016/12/07/trust-but-verify-how-blockchain-could-disrupt-your-world/#4ca1540c22b9… #blockchain #bitcoin #ethereum #cryptocurrencyCouncil Post: Trust, But Verify: How Blockchain Could Disrupt Your WorldThe use of blockchain has the potential to unlock breakthroughs in academic and government technology.forbes.com",3,5,0,False
297,Ztir@El_ZTIR,"Replying to @TuurDemeester$ETH pretty much useless now, smart contracts written in SOLIDITY are obsolete nowadays",0,0,0,False
299,Cees Grootes@Analyticus,Digital Asset Says Blockchain Platform Allows Confidential Trades http://fortune.com/2016/12/07/digital-asset-blockchain/… #blockchain #bitcoin #ethereum #cryptocurrencyBlockchain Startup Digital Asset Now Allows Confidential TradesIt solves a big privacy issue.fortune.com,2,2,0,False
301,ethereum.network@EthereumNetw,Update on current #Ethereum feature developmentEthereum team: What's current priority features?Hi Ethereum team. Sorry for calling you too much these days. Currently there's many features that you're going to implement. The most highlighted...reddit.com,1,1,0,False
303, Teo Kanistras®@Teokanistras,"Bitcoin Debit Card  #bitcoin #btc #satochis #blockchain #fintech #crypto #ethereum #mining #prize #faucetBitcoin Wallet & Prepaid CardsWe are an all-in-one blockchain payment gateway providing digital currency wallets, prepaid cards and processing solutions for businesses and merchants!cryptopay.me",3,2,0,False
304,Rich Godwin@rich__godwin,"Man, this is so good I could cry. Thanks for another deeply thought piece, @Truthcoin: http://truthcoin.info/blog/against-the-hard-fork/… #Bitcoin $BTC $ETH #Ethereum",1,0,0,False
305,Faith Emmanuel@residualbitcoin,What is #ethereum? A Step-by-Step Beginners Guide #blockchain http://bit.ly/2gkolzX  #ResidualBitcoin,0,0,0,False
306,Veki@Veki551155,What is #ethereum? A Step-by-Step Beginners Guide #blockchain http://bit.ly/2gkolzX,0,0,0,False
307,BitcoinAgile@bitcoinagile,What is #ethereum? A Step-by-Step Beginners Guide #blockchain http://bit.ly/2gkolzX,2,2,0,False
309,Cees Grootes@Analyticus,"IBM building blockchain ecosystem | InfoWorld http://infoworld.com/article/3147706/technology-business/ibm-building-blockchain-ecosystem.html… #blockchain #bitcoin #ethereum #cryptocurrencyIBM building blockchain ecosystemTo help build an ecosystem around IBM Blockchain and the Linux Foundation Hyperledger Fabric, Big Blue is offering a revenue-sharing program, along with tools and expert supportinfoworld.com",2,2,0,False
310,Ankit Prakash@ankitpr89,"What is #Ethereum? A Step-by-Step Beginners Guide #blockchain
http://l.sprout24.com/2h54xPM",1,0,0,False
311,Cees Grootes@Analyticus,"How blockchain can help fight cyberattacks | TechCrunch https://techcrunch.com/2016/12/05/how-blockchain-can-help-fight-cyberattacks/… #blockchain #bitcoin #ethereum #cryptocurrencyHow blockchain can help fight cyberattacksImagine a computing platform that would have no single point of failure and would be resilient to the cyberattacks that are making the headlines these days. This is the promise behind blockchain, the...techcrunch.com",4,4,0,False
314,Cees Grootes@Analyticus,"Have We Already Found Our Blockchain Startup Winners? http://forbes.com/sites/jonathanchester/2016/12/07/as-visa-begins-to-implement-blockchain-have-we-already-found-our-blockchain-startup-winners/#42379c7554b0… #blockchain #bitcoin #ethereum #cryptocurrencyHave We Already Found Our Blockchain Startup Winners?It’s still the wild west out here in the world of blockchain, with plenty of opportunities for new startups to enter the wholesale market and build partnerships with financial institutions.forbes.com",2,2,0,False
315,Bitcoin@crypto_bitcoins,Ethereum In Free Fall As Floor Beneath It Drops https://cointelegraph.com/news/ethereum-in-free-fall-as-floor-beneath-it-drops… #crypto #ethereum #eth #fintech #btc,1,1,0,False
316,Cointon@CointonDotCom,Ethereum In Free Fall As Floor Beneath It Drops https://cointelegraph.com/news/ethereum-in-free-fall-as-floor-beneath-it-drops… #crypto #ethereum #eth #fintech #btc,1,1,0,False
317,Cees Grootes@Analyticus,IBM goes all-in on blockchain: Launches app-making ecosystem | http://venturebeat.com/2016/12/06/ibm-goes-all-in-on-blockchain-launches-app-making-ecosystem… #blockchain #bitcoin #ethereum #cryptocurrency,3,2,0,False
319,stef nieberg@sevens_heaven,"GET 10MHs mining speed for F.R.E.E , and use it for Ethereum, litecoin or bitcoin mining http://bit.ly/10MHsFree #ethereum #bitcoin
53GIF",0,0,0,False
320,stephanus Nieberg@Allinoneprofit1,"GET 10MHs mining speed for F.R.E.E , and use it for Ethereum, litecoin or bitcoin mining http://bit.ly/10MHsFree #ethereum #bitcoin
11GIF",0,0,0,False
322,/r/Ethereum@r_Ethereum,Is a blockchain token a security? by Coinbase Blog #EthereumIs a blockchain token a security? by Coinbase BlogPosted in r/ethereum by u/jmiehau • 75 points and 33 commentsreddit.com,1,1,0,False
326,Adam Meister@TechBalt,"#Bitcoin is hard to change= a strength! Still early in $BTC revolution! #Ethereum, #Gold, #Gabfam https://steemit.com/steemit/@bitcoinmeister/bitcoin-is-hard-to-change-that-is-a-strength-steemit-community-needs-to-maintain-the-steem-surge-still-early-in-btc-revolution… @DeplorityReportBitcoin is hard to change- that is a strength! Steemit community needs to maintain the Steem surge....Bitcoin is prone to indefinite stalemates- that is a great thing! There can be no denying that we are still very early… by bitcoinmeistersteemit.com",1,0,0,False
327,Lika Nicolic@Ethereumhub,"Is #Ethereum similar to #Bitcoin? Well, sort of, but not really. http://dld.bz/fcBTc #blockchain",2,2,0,False
328,blockchainmedia@Ethereumlab,What is #Ethereum? A Step-by-Step Beginners Guide  http://dld.bz/fcBTc #blockchain #fintech,0,0,0,False
329,Coinstats@coinstats,"Ethereum Classic - ETC
Price: $0.803888
Change in 1h: +-0.28%
Market cap: $69627901.0
Ranking: 6
#Ethereum Classic #ETC",0,0,0,False
330,Coinstats@coinstats,"Ethereum - ETH
Price: $7.83508
Change in 1h: +4.36%
Market cap: $679233810.0
Ranking: 2
#Ethereum #ETH",0,0,0,False
331,Ethereum Price@EthereumPrice_,"#Ethereum: Ether Price Index
1 ETH =0.010171Ƀ XBT = $7.839000 USD
Today: -0.68%⬇︎ Last 24h: +12.96%⬆︎
https://ethereum-price.com",1,2,0,False
332,BitcoinBuzz vega9@BitcoinBuzzV9,http://bitcoinbuzz.vega9.com - Hot topics: #btc #bitcoin #blockchain #wallet #ethereum #fintech,2,0,0,False
333,Ξ Fly Guy Ξ (flyguy.eth)@FlyGuyInTheSky,"#ethereum rally's as Trump is named ""Person of the Year"" by Time Magazine... Hitler was named just that person in 1938 #scary #History",2,1,0,False
334,Ξ Fly Guy Ξ (flyguy.eth)@FlyGuyInTheSky,Replying to @The_BitCoinerold news from 5 December #ignore #ethereum nice attempt to make it sound like current news. Climbed 35% since then!,0,0,0,False
335,Lika Nicolic@Ethereumhub,What are your favorite digital wallets to use and why? http://dld.bz/fevtV #blockchain #bitcoin #ethereum,1,4,0,False
336,Veki@Veki551155,Austrias Erste Bank Awards #ethereum Projects in Startup Contest  Europa-News http://bit.ly/2gaHv83,1,0,0,False
337,Faith Emmanuel@residualbitcoin,Austrias Erste Bank Awards #ethereum Projects in Startup Contest  Europa-News http://bit.ly/2gaHv83  #ResidualBi…,0,0,0,False
338,BitcoinAgile@bitcoinagile,Austrias Erste Bank Awards #ethereum Projects in Startup Contest  Europa-News http://bit.ly/2gaHv83,2,2,0,False
343,CryptoNewswire @CryptoNewswire,Coinbase Removes Promotional Ethereum Post From Medium - http://thebitcoinnews.com/coinbase-removes-promotional-ethereum-post-from-medium-2/… $ETH #crypto #investing #finance,2,1,0,False
345,/r/Ethereum@r_Ethereum,View from the top of the Galaxy #EthereumView from the top of the GalaxyI made a fool of myself once. Never again. I just have to say that I read everything on here and everywhere else because I am so captivated by the...reddit.com,1,0,0,False
346,Ilya Belov@81Belov,WINGS and @ForkLog Announce a #Contest for Best #DAO Concept http://ln.is/Gncx9 #bitcoin #ethereum…... by #petroall_4 via @c0nvey,0,0,0,False
347,Faith Emmanuel@residualbitcoin,#ethereum In Free Fall As Floor Beneath It Drops - Altcoin Today #bitcoin #cryptocurrency http://altcointoday.com/ethereum-free-fall-floor-beneath-drops… …,1,0,0,False
348,Veki@Veki551155,#ethereum In Free Fall As Floor Beneath It Drops - Altcoin Today #bitcoin #cryptocurrency http://altcointoday.com/ethereum-free-fall-floor-beneath-drops…,0,0,0,False
349,BitcoinAgile@bitcoinagile,#ethereum In Free Fall As Floor Beneath It Drops - Altcoin Today #bitcoin #cryptocurrency http://altcointoday.com/ethereum-free-fall-floor-beneath-drops…,2,0,0,False
350,Coinstats@coinstats,"Ethereum Classic - ETC
Price: $0.806857
Change in 1h: +1.63%
Market cap: $69884049.0
Ranking: 6
#Ethereum Classic #ETC",0,0,0,False
354,Jakub Rusinowski@JakubRusinowski,Lets talk about future #bitcoin #blockchain #ethereum #decentralization #NewWorldOrder,7,0,0,False
355,Coinstats@coinstats,"Ethereum - ETH
Price: $7.48418
Change in 1h: +0.19%
Market cap: $648803581.0
Ranking: 2
#Ethereum #ETH",0,0,0,False
356,BitcoinBuzz vega9@BitcoinBuzzV9,http://bitcoinbuzz.vega9.com - Hot topics: #btc #bitcoin #blockchain #ethereum #news #crypto,0,0,0,False
357,Lika Nicolic@Ethereumhub,"Top AMA's with the leaders in #Blockchain, #Bitcoin and #Ethereum http://blockgeeks.com/ama/",2,0,0,False
358,Defi.Central@DefiCentral,"Ethereum-The History of Casper — Chapter 1
https://goo.gl/oF38ox
@ethereumproject #ETHEREUM #casper #History #cryptocurrency #blockchain",2,0,0,False
359,Spartak Tomanov@bulgar1an,Haha! Nice trolling... :) #Ethereum $REP,1,1,0,False
360,Ethereum Monkey@EthMonkey,"Coinbase Removes ""Promotional"" Ethereum Post From Medium #ethereum http://newsbtc.com/2016/12/07/coinbase-removes-promotional-ethereum-post-medium/…",1,1,0,False
361,Dart Bitcoin@strana_posylok,"BTC , ETH, LISK and other cryptocurrency
100% FOLLOW BACK 
 FOLLOW 4 FOLLOW
#BTC, #ETH, #LISK #cryptocurrency #FOLLOWBACK",0,0,0,False
362,Expanse@ExpanseOfficial,#expanse $exp #tendermint #masternode $eth #ethereum https://twitter.com/CryptoCc/status/806491431976206337…This Tweet is unavailable.,10,9,2,False
363,JPC@jp_cane,Replying to @TaylorGerringNeed to study side chains. I am grateful that #ethereum is aggressive in pushing limits! All chains will benefit long-term.,1,0,0,False
364,Alberto Jauregui | esoteRICK.eth @DisruptBanksy,http://ift.tt/2ga4fds Coinbase Removes “Promotional” Ethereum Post From Medium - newsBTC #ethereum #ether,1,1,0,False
365,ainun@fatimahainun4,BlockCDN brings Sharing Economy to Bandwidth - Bitcoin Articles http://ln.is/5C6I2 #ethereum... by #strana_posylok via @c0nvey,0,0,0,False
366,Calesto Elpida@calestoel,BlockCDN brings Sharing Economy to Bandwidth - Bitcoin Articles http://ln.is/7WQXh #ethereum... by #strana_posylok via @c0nvey,0,0,0,False
374,Rakuzan@adira_fadira92,BlockCDN brings Sharing Economy to Bandwidth - Bitcoin Articles http://ln.is/LLIi9 #ethereum... by #strana_posylok via @c0nvey,0,0,0,False
375,isabella SXY@isabelahasna1,BlockCDN brings Sharing Economy to Bandwidth - Bitcoin Articles http://ln.is/tOEWw #ethereum... by #strana_posylok via @c0nvey,0,0,0,False
376,tapasha Agnia@TapashaAgnia,BlockCDN brings Sharing Economy to Bandwidth - Bitcoin Articles http://ln.is/jWpVR #ethereum... by #strana_posylok via @c0nvey,0,0,0,False
377,Abinaya Basupati@abinaya63204528,BlockCDN brings Sharing Economy to Bandwidth - Bitcoin Articles http://ln.is/AfKF0 #ethereum... by #strana_posylok via @c0nvey,0,0,0,False
378,Fariishta Elzira@fariisthael,BlockCDN brings Sharing Economy to Bandwidth - Bitcoin Articles http://ln.is/hOR0o #ethereum... by #strana_posylok via @c0nvey,0,0,0,False
379,Farica Earlene@farica_e,BlockCDN brings Sharing Economy to Bandwidth - Bitcoin Articles http://ln.is/bnoyZ #ethereum... by #strana_posylok via @c0nvey,0,0,0,False
380,Nanda Tiara Okt@nandatiaraokt,BlockCDN brings Sharing Economy to Bandwidth - Bitcoin Articles http://ln.is/HZlKE #ethereum... by #strana_posylok via @c0nvey,1,0,0,False
381,salsabila shahab@salsabilashaha1,BlockCDN brings Sharing Economy to Bandwidth - Bitcoin Articles http://ln.is/0nvDV #ethereum... by #strana_posylok via @c0nvey,0,0,0,False
382,najwa sakib@SakibNajwa,BlockCDN brings Sharing Economy to Bandwidth - Bitcoin Articles http://ln.is/OUCPS #ethereum... by #strana_posylok via @c0nvey,0,0,0,False
383,sherly anand@sherlyanand3,BlockCDN brings Sharing Economy to Bandwidth - Bitcoin Articles http://ln.is/Po1SR #ethereum... by #strana_posylok via @c0nvey,0,0,0,False
384,helda arif@heldaarif3,BlockCDN brings Sharing Economy to Bandwidth - Bitcoin Articles http://ln.is/TGF03 #ethereum... by #strana_posylok via @c0nvey,0,0,0,False
385,Shessomaru@rafansaputra2,BlockCDN brings Sharing Economy to Bandwidth - Bitcoin Articles http://ln.is/lLu9l #ethereum... by #strana_posylok via @c0nvey,0,0,0,False
386,Hissam's@AddullahHisam,BlockCDN brings Sharing Economy to Bandwidth - Bitcoin Articles http://ln.is/LXETB #ethereum... by #strana_posylok via @c0nvey,0,0,0,False
387,lely andini@LelyLelyandini,BlockCDN brings Sharing Economy to Bandwidth - Bitcoin Articles http://ln.is/DoDwJ #ethereum... by #strana_posylok via @c0nvey,0,0,0,False
388,imam syafii@Simam987Imam,BlockCDN brings Sharing Economy to Bandwidth - Bitcoin Articles http://ln.is/Mr3WA #ethereum... by #strana_posylok via @c0nvey,0,0,0,False
389,erlina ratu@erlinaratu2,BlockCDN brings Sharing Economy to Bandwidth - Bitcoin Articles http://ln.is/ZM6dd #ethereum... by #strana_posylok via @c0nvey,0,0,0,False
390,ferina akbaz@AkbazFerina,BlockCDN brings Sharing Economy to Bandwidth - Bitcoin Articles http://ln.is/V5JeN #ethereum... by #msdedkovskaya21 via @c0nvey,0,0,0,False
391,joe sandy@JoeJ63,BlockCDN brings Sharing Economy to Bandwidth - Bitcoin Articles http://ln.is/YXXBz #ethereum... by #msdedkovskaya21 via @c0nvey,0,0,0,False
392,Imroatul Husna@iimhusna99,BlockCDN brings Sharing Economy to Bandwidth - Bitcoin Articles http://ln.is/Ju5Zt #ethereum... by #msdedkovskaya21 via @c0nvey,0,0,0,False
393,kabela salsabella@kabelasalsabel1,BlockCDN brings Sharing Economy to Bandwidth - Bitcoin Articles http://ln.is/8irVP #ethereum... by #msdedkovskaya21 via @c0nvey,0,0,0,False
394,sisilia putri@sisiliaput4,BlockCDN brings Sharing Economy to Bandwidth - Bitcoin Articles http://ln.is/Hlh5G #ethereum... by #msdedkovskaya21 via @c0nvey,0,0,0,False
395,una luna@UnaUluna62,BlockCDN brings Sharing Economy to Bandwidth - Bitcoin Articles http://ln.is/QoWf7 #ethereum... by #msdedkovskaya21 via @c0nvey,0,0,0,False
396,chika jessica@jessica52116979,BlockCDN brings Sharing Economy to Bandwidth - Bitcoin Articles http://ln.is/LDucs #ethereum... by #msdedkovskaya21 via @c0nvey,0,0,0,False
410,arnold william@arnoldwilliam82,BlockCDN brings Sharing Economy to Bandwidth - Bitcoin Articles http://ln.is/rx1Og #ethereum... by #msdedkovskaya21 via @c0nvey,0,0,0,False
411,indri safira@indrisafira11,BlockCDN brings Sharing Economy to Bandwidth - Bitcoin Articles http://ln.is/vPEwI #ethereum... by #msdedkovskaya21 via @c0nvey,0,0,0,False
412,aurelL@antika_aurel,BlockCDN brings Sharing Economy to Bandwidth - Bitcoin Articles http://ln.is/J5W8F #ethereum... by #msdedkovskaya21 via @c0nvey,0,0,0,False
413,Aisyah Aila Varisha@aisyahailava,BlockCDN brings Sharing Economy to Bandwidth - Bitcoin Articles http://ln.is/pocu3 #ethereum... by #msdedkovskaya21 via @c0nvey,0,0,0,False
414,Anindita Keisha Zahra@aninditakei94,BlockCDN brings Sharing Economy to Bandwidth - Bitcoin Articles http://ln.is/edOpZ #ethereum... by #msdedkovskaya21 via @c0nvey,0,0,0,False
415,Anjani L@anjani332,BlockCDN brings Sharing Economy to Bandwidth - Bitcoin Articles http://ln.is/tGqRf #ethereum... by #msdedkovskaya21 via @c0nvey,0,0,0,False
416,halimah assa'diah@halimah411,BlockCDN brings Sharing Economy to Bandwidth - Bitcoin Articles http://ln.is/2Jg1W #ethereum... by #msdedkovskaya21 via @c0nvey,0,0,0,False
417,amanda khan@amandakhan20134,BlockCDN brings Sharing Economy to Bandwidth - Bitcoin Articles http://ln.is/Z2mnK #ethereum... by #msdedkovskaya21 via @c0nvey,0,0,0,False
418,Aleena Maharani@aleenamaharani,BlockCDN brings Sharing Economy to Bandwidth - Bitcoin Articles http://ln.is/5ltZ8 #ethereum... by #msdedkovskaya21 via @c0nvey,0,0,0,False
419,kumala dewi@KumalaD93,BlockCDN brings Sharing Economy to Bandwidth - Bitcoin Articles http://ln.is/Eoj8z #ethereum... by #msdedkovskaya21 via @c0nvey,0,0,0,False
420,Refalina@reffalinna,BlockCDN brings Sharing Economy to Bandwidth - Bitcoin Articles http://ln.is/3dV4V #ethereum... by #msdedkovskaya21 via @c0nvey,0,0,0,False
421,Nolla Oktavia@Nollaoktavia,BlockCDN brings Sharing Economy to Bandwidth - Bitcoin Articles http://ln.is/Jalja #ethereum... by #msdedkovskaya21 via @c0nvey,0,0,0,False
422,sell da@sell_daa,BlockCDN brings Sharing Economy to Bandwidth - Bitcoin Articles http://ln.is/tm630 #ethereum... by #msdedkovskaya21 via @c0nvey,0,0,0,False
423,blockchainmedia@Ethereumlab,What is the difference between #Bitcoin and #Ethereum? http://dld.bz/eWaV7 #startup,4,2,0,False
424,CryptoNewswire @CryptoNewswire,"Coinbase Removes ""Promotional"" Ethereum Post From Medium - http://newsbtc.com/2016/12/07/coinbase-removes-promotional-ethereum-post-medium/… $ETH #blockchain #investing #bitcoin",1,1,0,False
425,seven nieberg@seven_nieberg,"GET 10MHs mining speed for F.R.E.E , and use it for Ethereum, litecoin or bitcoin mining http://bit.ly/10MHsFree #ethereum #bitcoin
46GIF",0,0,0,False
426,Faith Emmanuel@residualbitcoin,Coinbase Removes Promotional #ethereum Post From Medium > Temptations News Resource http://the-temptations.com/news/crypto-news/coinbase-removes-promotional-ethereum-post-from-medium…  #Resi…,0,0,0,False
428,Veki@Veki551155,Coinbase Removes Promotional #ethereum Post From Medium > Temptations News Resource http://the-temptations.com/news/crypto-news/coinbase-removes-promotional-ethereum-post-from-medium…,0,0,0,False
429,Lika Nicolic@Ethereumhub,"Besides #Ethereum, which blockchains do you think are currently leading the pack http://dld.bz/fcNRx",1,1,0,False
430,BitcoinAgile@bitcoinagile,Coinbase Removes Promotional #ethereum Post From Medium > Temptations News Resource http://the-temptations.com/news/crypto-news/coinbase-removes-promotional-ethereum-post-from-medium…,2,2,0,False
431,Alberto Jauregui | esoteRICK.eth @DisruptBanksy,http://ift.tt/2gjVLPh Ethereum Price Technical Analysis – ETH/USD Nosedived and Recovered - newsBTC #ethereum #ether,1,1,0,False
432,/r/Ethereum@r_Ethereum,WINGS Foundation Adds Angel Investor Chandler Guo to Board of Advisors #EthereumWINGS Foundation Adds Angel Investor Chandler Guo to Board of Advisorsreddit.com,3,2,0,False
433,indxio@indxio,#Russia Market Close || #Bitcoin: $762.01 | 724.68 EUR||  #Litecoin: 0.0024 BTC  || #Ethereum: 0.0097 BTC   || $BTC $LTC $ETH $RUB,1,0,0,False
434,Faith Emmanuel@residualbitcoin,Coinbase Removes Promotional #ethereum Post From Medium #coinbase #EtheruemE #shilling #TH http://bit.ly/2gjVn3q …,0,0,0,False
435,Veki@Veki551155,Coinbase Removes Promotional #ethereum Post From Medium #coinbase #EtheruemE #shilling #TH http://bit.ly/2gjVn3q,0,0,0,False
436,BitcoinAgile@bitcoinagile,Coinbase Removes Promotional #ethereum Post From Medium #coinbase #EtheruemE #shilling #TH http://bit.ly/2gjVn3q,2,2,0,False
437,seven nieberg@seven_nieberg,"GET 10MHs mining speed for F.R.E.E , and use it for Ethereum, litecoin or bitcoin mining http://bit.ly/10MHsFree #ethereum #bitcoin
88GIF",0,0,0,False
438,/r/Ethereum@r_Ethereum,"For those thinking ETH should be used as a currency, Circle just discontinued Bitcoin #EthereumFor those thinking ETH should be used as a currency, Circle just...Even after $100's of millions of VC investment, there is simply zero demand for consumer Bitcoin payments in western countries. They are just too...reddit.com",1,1,0,False
439,Blockgeeks@Blockgks,Finally! A Simple Guide To understand Ethereum http://dld.bz/fcBTc #Ethereum #blockchain #fintech,2,1,0,False
442,CryptoCompare@CryptoCompare,"Downloading the #Ethereum #Blockchain every single time may get too much! If so, try MyEtherWallet.How to use MyEtherWalletMy Ether Wallet is not a standard Web Wallet. It does not allow you to create an account and to store your Ether on their servers, they simply allow you create a wallet, which is yours to store and...cryptocompare.com",2,2,0,False
443,Coinstats@coinstats,"Ethereum Classic - ETC
Price: $0.793309
Change in 1h: +0.04%
Market cap: $68709529.0
Ranking: 6
#Ethereum Classic #ETC",0,0,0,False
444,Coinstats@coinstats,"Ethereum - ETH
Price: $7.47074
Change in 1h: +-0.5%
Market cap: $647628526.0
Ranking: 2
#Ethereum #ETH",0,0,0,False
445,BitcoinBuzz vega9@BitcoinBuzzV9,http://bitcoinbuzz.vega9.com - Hot topics: #btc #bitcoin #blockchain #ethereum #news #cryptocurrency,0,0,0,False
446,seven nieberg@seven_nieberg,"GET 10MHs mining speed for F.R.E.E , and use it for Ethereum, litecoin or bitcoin mining http://bit.ly/10MHsFree #ethereum #bitcoin
70GIF",0,0,0,False
447,Tradenomics™@thefintechtter,#ETH paybacked by major support point.Candle face looks bull?,0,0,0,False
448,Tech Lib@tech__lib,"Is #Blockchain Technology Going To Disrupt Our Political System:    #ethereum
@Ethereumhub - http://techlib.online/istechnology-going-to-disrupt-our-political-3/…",0,0,0,False
449,Tradenomics™@thefintechtter,@Starzenn #ETHEREUM setting for a bull run,1,1,0,False
450,Parity Technologies@ParityTech,"Join Ethcore's Gav Wood (@gavofyork) at #dbh17, discussing the currents within #blockchain 2.0 at 3:15pm CET #ethereum @DutchChainQuote TweetOdyssey Hackathon@OdysseyHack · Dec 7, 2016It's lunchtime at @Exact! Camera's ready for the live-stream. Follow the event live around 15.00 at: https://blockchainhackathon.eu/p/livestream #dbh17",10,3,1,False
451,Cees Grootes@Analyticus,The blockchain will radically transform the economy https://ted.com/talks/bettina_warburg_how_the_blockchain_will_radically_transform_the_economy?utm_source=twitter.com&utm_medium=social&utm_campaign=tedspread… via @TEDTalks #blockchain #bitcoin #ethereum #cryptocurrency,1,1,0,False
452,blockchainmedia@Ethereumlab,What are the best #blockchain books to read? http://dld.bz/eWaV7 #bitcoin #ethereum #startup,0,0,0,False
453,seven nieberg@seven_nieberg,"GET 10MHs mining speed for F.R.E.E , and use it for Ethereum, litecoin or bitcoin mining http://bit.ly/10MHsFree #ethereum #bitcoin
42GIF",1,0,0,False
454,ŻET Technologies@ZET_Tech,"Qucik summary what to mine with your #mining #rig #gpu

Conclusion choose one of them:
#etc
#eth
@eth_classic @ethereumproject",1,0,0,False
457,seven nieberg@seven_nieberg,"GET 10MHs mining speed for F.R.E.E , and use it for Ethereum, litecoin or bitcoin mining http://bit.ly/10MHsFree #ethereum #bitcoin
26GIF",1,0,0,False
463,Tony Murtagh@TonyKRO,Go to #Coinbase the world’s most popular way to buy and sell #bitcoin and #ethereum. Begin using the future of money http://bit.ly/1NuLGYw,2,1,1,False
464,seven nieberg@seven_nieberg,"GET 10MHs mining speed for F.R.E.E , and use it for Ethereum, litecoin or bitcoin mining http://bit.ly/10MHsFree #ethereum #bitcoin
13GIF",1,0,0,False
466,Faith Emmanuel@residualbitcoin,ZEC Price Continues Downward Spiral to Sub-$50 Levels - CoinDesk #bitcoin #ethereum #Prices http://bit.ly/2ga9TYd …,1,0,0,False
467,Veki@Veki551155,ZEC Price Continues Downward Spiral to Sub-$50 Levels - CoinDesk #bitcoin #ethereum #Prices …,0,0,0,False
468,MeeseeksBTC@Meeseeks100BTC,"RT Start mining $ETH or $BTC together with people from all over the world.

https://goo.gl/tYClLG",0,0,0,False
469,Coinstats@coinstats,"Ethereum Classic - ETC
Price: $0.79335
Change in 1h: +-0.14%
Market cap: $68711904.0
Ranking: 6
#Ethereum Classic #ETC",0,0,0,False
470,seven nieberg@seven_nieberg,"GET 10MHs mining speed for F.R.E.E , and use it for Ethereum, litecoin or bitcoin mining http://bit.ly/10MHsFree #ethereum #bitcoin
3GIF",0,0,0,False
471,Coinstats@coinstats,"Ethereum - ETH
Price: $7.50427
Change in 1h: +0.63%
Market cap: $650524368.0
Ranking: 2
#Ethereum #ETH",0,0,0,False
472,Ethereum Price@EthereumPrice_,"#Ethereum: Ether Price Index
1 ETH =0.009736Ƀ XBT = $7.492400 USD
Today: -4.92%⬇︎ Last 24h: +19.47%⬆︎
https://ethereum-price.com",1,1,0,False
475,BitcoinBuzz vega9@BitcoinBuzzV9,http://bitcoinbuzz.vega9.com - Hot topics: #btc #bitcoin #trend #blockchain #ethereum #cryptocurrency,0,0,0,False
476,BitcoinAgile@bitcoinagile,ZEC Price Continues Downward Spiral to Sub-$50 Levels - CoinDesk #bitcoin #ethereum #Prices http://bit.ly/2ga9TYd,4,5,0,False
477,Chris Coney@ChrisConeyInt,#Hackers Steal Over $300k #Ethereum #Augur From One of #Blockchain's Biggest VCs >> http://bit.ly/2gSKN3J #security #cryptocurrency,2,1,1,False
478,/r/Ethereum@r_Ethereum,"Results are in for the first round of ENS auctions #EthereumResults are in for the first round of ENS auctions126 bids have been revealed so far, on 98 auctions. Of those, 29 are in my dictionary of preimages. As a result, we know the following domains...reddit.com",2,1,0,False
479,Faith Emmanuel@residualbitcoin,#ethereum In Free Fall As Floor Beneath It Drops - CoinTelegraph #cryptocurrency http://cryptocurrencyfaq.com/cryptocurrency-news/ethereum-free-fall-floor-beneath-it-drops-cointelegraph-0… #ResidualBitcoin,0,0,0,False
480,คгภ๏ รєɭђ๏гรՇ@ArnoSelhorst,The Daily Blockbuster has just been published! http://paper.li/ArnoSelhorst/1463655000?edition_id=5200e4b0-bc73-11e6-ac14-0cc47a0d164b… Today's contributors @olentch #ethereum #blockchain,2,4,0,False
481,Megabyte@megabyte101,Ethereum In Free Fall As Floor Beneath It Drops - http://ow.ly/kQnr306SKn3 #ethereum #cryptocurrency,1,1,1,False
482,Veki@Veki551155,#ethereum In Free Fall As Floor Beneath It Drops - CoinTelegraph #cryptocurrency http://cryptocurrencyfaq.com/cryptocurrency-news/ethereum-free-fall-floor-beneath-it-drops-cointelegraph-0…,0,0,0,False
483,BitcoinAgile@bitcoinagile,#ethereum In Free Fall As Floor Beneath It Drops - CoinTelegraph #cryptocurrency http://cryptocurrencyfaq.com/cryptocurrency-news/ethereum-free-fall-floor-beneath-it-drops-cointelegraph-0…,3,5,1,False
484,Nxt Crypto Nerd@nxtcryptonerd,Ethereum In Free Fall As Floor Beneath It Drops - http://ow.ly/kQnr306SKn3 #ethereum #cryptocurrency,1,1,0,False
485,seven nieberg@seven_nieberg,"GET 10MHs mining speed for F.R.E.E , and use it for Ethereum, litecoin or bitcoin mining http://bit.ly/10MHsFree #ethereum #bitcoin
90GIF",0,0,0,False
486,/r/Ethereum@r_Ethereum,"Really sorry to ask but im in a pickle #EthereumReally sorry to ask but im in a pickleI know this is in really poor taste and I apologise, ive been trying to hit up faucets enough to cash out, and kraken no longer has a...reddit.com",1,0,0,False
487,/r/Ethereum@r_Ethereum,[video] Pamela Morgan: Third Key Solution's Decentralized Arbitration & Mediation Network bridging law #Ethereum[video] Pamela Morgan: Third Key Solution's Decentralized...Posted in r/ethereum by u/EthereumVideo • 20 points and 0 commentsreddit.com,4,0,0,False
488,ThatRobKramer@thatrobkramer,Austria's Erste Bank Awards Ethereum Projects in Startup Contest #blockchain #ethereum #crypto http://coindesk.com/erste-bank-ethereum-projects-contest/…,1,1,0,False
489,seven nieberg@seven_nieberg,"GET 10MHs mining speed for F.R.E.E , and use it for Ethereum, litecoin or bitcoin mining http://bit.ly/10MHsFree #ethereum #bitcoin
85GIF",0,0,0,False
490,Lika Nicolic@Ethereumhub,Can This 22-year-old Coder Out-Bitcoin #Bitcoin? http://dld.bz/eWMa7 #ethereum,1,1,0,False
491,Francesco Villa@cekospiu,Donate to our project! Add funds and receive $$$ in exchange from profits lifetime! @gagpubblicita #ethereum #miner https://indiegogo.com/projects/build-ethereum-mining-farm/x/14702367#/…,0,0,0,False
492,seven nieberg@seven_nieberg,"GET 10MHs mining speed for F.R.E.E , and use it for Ethereum, litecoin or bitcoin mining http://bit.ly/10MHsFree #ethereum #bitcoin
73GIF",0,0,0,False
500,Faith Emmanuel@residualbitcoin,First #ethereum Developers Certified on the #blockchain Says B9lab http://finance.yahoo.com/news/first-ethereum-developers-certified-blockchain-070000063.html… #ResidualBitcoin,0,0,0,False
501,Veki@Veki551155,First #ethereum Developers Certified on the #blockchain Says B9lab http://finance.yahoo.com/news/first-ethereum-developers-certified-blockchain-070000063.html…,0,0,0,False
502,Volody Sk@VolodySk,DollarVigilante: Anarchast With Jim Bell: Assassination Politics Meet the #Blockchain #Ethereum …,2,2,0,False
503,Echa@amiraja12345,BlockCDN brings Sharing Economy to Bandwidth - Bitcoin Articles http://ln.is/msn7x #ethereum... by #zai4ikat via @c0nvey,0,0,0,False
504,seven nieberg@seven_nieberg,"GET 10MHs mining speed for F.R.E.E , and use it for Ethereum, litecoin or bitcoin mining http://bit.ly/10MHsFree #ethereum #bitcoin
61GIF",0,0,0,False
506,BitcoinAgile@bitcoinagile,First #ethereum Developers Certified on the #blockchain Says B9lab http://finance.yahoo.com/news/first-ethereum-developers-certified-blockchain-070000063.html…,2,3,1,False
507,Bitcoin Updater@BitcoinUpdater,First Ethereum Developers Certified on the Blockchain Says B9lab #ethereum http://soco.space/GPu7A1,1,2,0,False
509,seven nieberg@seven_nieberg,"GET 10MHs mining speed for F.R.E.E , and use it for Ethereum, litecoin or bitcoin mining http://bit.ly/10MHsFree #ethereum #bitcoin
42GIF",0,0,0,False
510,Lika Nicolic@Ethereumhub,Check it out! Beginners guide to #Blockchain http://buff.ly/2dvhaDX #bitcoin #ethereum #startup,1,1,0,False
511,Coinstats@coinstats,"Ethereum Classic - ETC
Price: $0.793834
Change in 1h: +-2.03%
Market cap: $68752871.0
Ranking: 6
#Ethereum Classic #ETC",0,0,0,False
518,Bobe'bot@Bobe_bot,"1 #BTC = 798.2118 #CHF
1 #ETH = 7.9989 #CHF
1 #DOGE = 0.000210723516 #CHF
sources: @cryptonatorcom @hellobity",0,0,0,False
519,Coinstats@coinstats,"Ethereum - ETH
Price: $7.47298
Change in 1h: +0.74%
Market cap: $647802564.0
Ranking: 2
#Ethereum #ETH",0,0,0,False
520,BitcoinBuzz vega9@BitcoinBuzzV9,http://bitcoinbuzz.vega9.com - Hot topics: #bitcoin #trend #smartcontract #blockchain #btc #ethereum,0,0,0,False
521,kerul@harisdanial0402,I just signed up to @ethstatus - an #ethereum #dapps browser for mobile: https://status.im/invite/1219-7538f323…,0,0,0,False
522,seven nieberg@seven_nieberg,"GET 10MHs mining speed for F.R.E.E , and use it for Ethereum, litecoin or bitcoin mining http://bit.ly/10MHsFree #ethereum #bitcoin
75GIF",1,0,0,False
524,/r/Ethereum@r_Ethereum,Check out what Charlie Shrem is up to lately- his innovative investment idea on Ethereum #EthereumCheck out what Charlie Shrem is up to lately- his innovative...Posted in r/ethereum by u/bitcoinchaser • 27 points and 1 commentreddit.com,1,3,0,False
525,Ethereum SE@StackEthereum,Address is undefined after deploying a smart contract http://ethereum.stackexchange.com/questions/10542/address-is-undefined-after-deploying-a-smart-contract… #ethereum #solidity #contractdeployment,1,1,0,False
526,Bitcoin Chaser@BitcoinChaser,http://bitcoinchaser.com/charlie-shrem-ethereum-investment… Wondering what @CharlieShrem is up to lately?Check out his innovative investment idea on #Ethereum @ethereumproject,0,0,0,False
528,seven nieberg@seven_nieberg,"GET 10MHs mining speed for F.R.E.E , and use it for Ethereum, litecoin or bitcoin mining http://bit.ly/10MHsFree #ethereum #bitcoin
97GIF",0,0,0,False
529,Paul Butler@PaulBTheBest,"This is good news #ICO #Ethereum #bitcoin #crowdfunding #fintech #invest #gamechangerQuote TweetBlockCDN@BlockCDN · Dec 6, 2016One week until price rise! Get BCDN today to support our growing network. https://bitcointalk.org/index.php?topic=1611265.0… #dapps #ethereum #bitcoin #investing #ICO",2,1,0,False
530,ExploreTraveler@exploretravel1,"RT @AmeerRosic: Is #Ethereum similar to #Bitcoin? Well, sort of, but not really. http://lnkplg.co/EYZkn #blockchain",0,0,0,False
533,Lika Nicolic@Ethereumhub,Is #Blockchain Technology Going To Disrupt Our Political System:  http://dld.bz/fgnWh #ethereum,0,0,0,False
534,seven nieberg@seven_nieberg,"GET 10MHs mining speed for F.R.E.E , and use it for Ethereum, litecoin or bitcoin mining http://bit.ly/10MHsFree #ethereum #bitcoin
94GIF",1,0,0,False
536,Ethereum SE@StackEthereum,How do I compile interdependent contracts separately in Mist? http://ethereum.stackexchange.com/questions/10540/how-do-i-compile-interdependent-contracts-separately-in-mist… #ethereum #solidity #contractdevelopment #mist,0,0,0,False
537,seven nieberg@seven_nieberg,"GET 10MHs mining speed for F.R.E.E , and use it for Ethereum, litecoin or bitcoin mining http://bit.ly/10MHsFree #ethereum #bitcoin
0GIF",0,0,0,False
538,/r/Ethereum@r_Ethereum,"[idea, research] Open Source Cloud Hosting - Looking for like-minded people #Ethereum[idea, research] Open Source Cloud Hosting - Looking for...Hi guys, About 3 weeks ago me and my friends came up with an idea to create a decentralized, blockchain based equivalent of Amazon AWS,...reddit.com",1,0,0,False
539,Spartak Tomanov@bulgar1an,Those who think this is a price rebound are with IQ equal to a room temperature. #Ethereum #Augur $REP,1,0,0,False
540,seven nieberg@seven_nieberg,"GET 10MHs mining speed for F.R.E.E , and use it for Ethereum, litecoin or bitcoin mining http://bit.ly/10MHsFree #ethereum #bitcoin
2GIF",1,0,0,False
541,Coinstats@coinstats,"Ethereum Classic - ETC
Price: $0.810228
Change in 1h: +-0.76%
Market cap: $70171372.0
Ranking: 6
#Ethereum Classic #ETC",0,0,0,False
542,Coinstats@coinstats,"Ethereum - ETH
Price: $7.41642
Change in 1h: +-1.13%
Market cap: $642889929.0
Ranking: 2
#Ethereum #ETH",0,0,0,False
543,Ethereum SE@StackEthereum,returns (uint256) is not implicitly convertible to expected type uint256 http://ethereum.stackexchange.com/questions/10539/returns-uint256-is-not-implicitly-convertible-to-expected-type-uint256… #ethereum #solidity #compilation,1,0,0,False
544,Ethereum SE@StackEthereum,compile interdependent contracts separately http://ethereum.stackexchange.com/questions/10540/compile-interdependent-contracts-separately… #ethereum #solidity #contractdevelopment #mist #compilation,1,0,0,False
545,BitcoinBuzz vega9@BitcoinBuzzV9,http://bitcoinbuzz.vega9.com - Hot topics: #bitcoin #blockchain #smartcontract #ethereum #btc #cryptocurrency,0,0,0,False
546,seven nieberg@seven_nieberg,"GET 10MHs mining speed for F.R.E.E , and use it for Ethereum, litecoin or bitcoin mining http://bit.ly/10MHsFree #ethereum #bitcoin
27GIF",1,0,0,False
547,Philsabang Bull Bull Bull@Philsabang,$ETH Polo buy books worth over 5000 BTC. Long time no see. #Ethereum,2,1,1,False
558,kripteka@kripteka,"#Eth and #Augur #Investor #Hacked, #Ethereum Price Dives Further https://cryptocoinsnews.com/eth-and-augur-investor-hacked-ethereum-price-dives-further/…",1,1,1,False
560,stephanus Nieberg@Allinoneprofit1,"GET 10MHs mining speed for F.R.E.E , and use it for Ethereum, litecoin or bitcoin mining http://bit.ly/10MHsFree #ethereum #bitcoin
13GIF",1,0,0,False
561,seven nieberg@seven_nieberg,"GET 10MHs mining speed for F.R.E.E , and use it for Ethereum, litecoin or bitcoin mining http://bit.ly/10MHsFree #ethereum #bitcoin
74GIF",1,0,0,False
562,Ameer Rosic@AmeerRosic,"Is #Ethereum similar to #Bitcoin? Well, sort of, but not really. http://dld.bz/fcBTc #blockchain",1,0,0,False
563,stef nieberg@sevens_heaven,"GET 10MHs mining speed for F.R.E.E , and use it for Ethereum, litecoin or bitcoin mining http://bit.ly/10MHsFree #ethereum #bitcoin
47GIF",2,0,0,False
564,stephanus Nieberg@Allinoneprofit1,"GET 10MHs mining speed for F.R.E.E , and use it for Ethereum, litecoin or bitcoin mining http://bit.ly/10MHsFree #ethereum #bitcoin
63GIF",1,0,0,False
565,seven nieberg@seven_nieberg,"GET 10MHs mining speed for F.R.E.E , and use it for Ethereum, litecoin or bitcoin mining http://bit.ly/10MHsFree #ethereum #bitcoin
19GIF",1,1,0,False
566,stephanus Nieberg@Allinoneprofit1,"GET 10MHs mining speed for F.R.E.E , and use it for Ethereum, litecoin or bitcoin mining http://bit.ly/10MHsFree #ethereum #bitcoin
72GIF",1,0,0,False
567,stef nieberg@sevens_heaven,"GET 10MHs mining speed for F.R.E.E , and use it for Ethereum, litecoin or bitcoin mining http://bit.ly/10MHsFree #ethereum #bitcoin
95GIF",1,1,0,False
575,seven nieberg@seven_nieberg,"GET 10MHs mining speed for F.R.E.E , and use it for Ethereum, litecoin or bitcoin mining http://bit.ly/10MHsFree #ethereum #bitcoin
87GIF",1,1,0,False
576,seven nieberg@seven_nieberg,"GET 10MHs mining speed for F.R.E.E , and use it for Ethereum, litecoin or bitcoin mining http://bit.ly/10MHsFree #ethereum #bitcoin
77GIF",1,1,0,False
577,stephanus Nieberg@Allinoneprofit1,"GET 10MHs mining speed for F.R.E.E , and use it for Ethereum, litecoin or bitcoin mining http://bit.ly/10MHsFree #ethereum #bitcoin
21GIF",1,1,0,False
578,blockchainmedia@Ethereumlab,Could #Blockchain Technology Bankrupt Spotify? A Music Revolution http://buff.ly/2cWIfNM #ethereum #bitcoin,0,0,0,False
579,Blockgeeks@Blockgks,What is #Ethereum? A Step-by-Step Beginners Guide  http://dld.bz/fcBTc #blockchain #fintech,1,1,0,False
580,Coinstats@coinstats,"Ethereum Classic - ETC
Price: $0.817431
Change in 1h: +1.06%
Market cap: $70794055.0
Ranking: 6
#Ethereum Classic #ETC",0,0,0,False
581,Coinstats@coinstats,"Ethereum - ETH
Price: $7.51932
Change in 1h: +0.72%
Market cap: $651799687.0
Ranking: 2
#Ethereum #ETH",0,0,0,False
582,Ethereum Price@EthereumPrice_,"#Ethereum: Ether Price Index
1 ETH =0.009787Ƀ XBT = $7.450125 USD
Today: -4.43%⬇︎ Last 24h: +15.72%⬆︎
https://ethereum-price.com",1,1,0,False
584,seven nieberg@seven_nieberg,"GET 10MHs mining speed for F.R.E.E , and use it for Ethereum, litecoin or bitcoin mining http://bit.ly/10MHsFree #ethereum #bitcoin
32GIF",2,1,0,False
585,stephanus Nieberg@Allinoneprofit1,"GET 10MHs mining speed for F.R.E.E , and use it for Ethereum, litecoin or bitcoin mining http://bit.ly/10MHsFree #ethereum #bitcoin
52GIF",1,1,0,False
587,stephanus Nieberg@Allinoneprofit1,"GET 10MHs mining speed for F.R.E.E , and use it for Ethereum, litecoin or bitcoin mining http://bit.ly/10MHsFree #ethereum #bitcoin
40GIF",1,1,0,False
588,vipharm@vipharm2003,ETHEREUM - ENGLISH - MINIMUM INVESTMENT ONLY 10$ - https://ethtrade.org/@065664 by @vipharm #ethereum http://slideshare.net/vipharm/ethereum-english… via @SlideShare,0,0,0,False
589,seven nieberg@seven_nieberg,"GET 10MHs mining speed for F.R.E.E , and use it for Ethereum, litecoin or bitcoin mining http://bit.ly/10MHsFree #ethereum #bitcoin
39GIF",2,1,0,False
590,stef nieberg@sevens_heaven,"GET 10MHs mining speed for F.R.E.E , and use it for Ethereum, litecoin or bitcoin mining http://bit.ly/10MHsFree #ethereum #bitcoin
48GIF",1,1,0,False
591,Lika Nicolic@Ethereumhub,Become a #Blockchain Guest Contributor http://dld.bz/fgnwr #writer #bitcoin #ethereum,1,1,0,False
592,stephanus Nieberg@Allinoneprofit1,"GET 10MHs mining speed for F.R.E.E , and use it for Ethereum, litecoin or bitcoin mining http://bit.ly/10MHsFree #ethereum #bitcoin
53GIF",1,1,0,False
594,seven nieberg@seven_nieberg,"GET 10MHs mining speed for F.R.E.E , and use it for Ethereum, litecoin or bitcoin mining http://bit.ly/10MHsFree #ethereum #bitcoin
15GIF",0,0,0,False
595,stef nieberg@sevens_heaven,"GET 10MHs mining speed for F.R.E.E , and use it for Ethereum, litecoin or bitcoin mining http://bit.ly/10MHsFree #ethereum #bitcoin
69GIF",0,0,0,False
596,Simon Trimborn@SimonTrimborn,"#ethereum & #xrp took #CRIX with them, all 3 outperforming #bitcoin over 24h",4,2,0,False
597,stephanus Nieberg@Allinoneprofit1,"GET 10MHs mining speed for F.R.E.E , and use it for Ethereum, litecoin or bitcoin mining http://bit.ly/10MHsFree #ethereum #bitcoin
23GIF",1,1,0,False
598,stephanus Nieberg@Allinoneprofit1,"GET 10MHs mining speed for F.R.E.E , and use it for Ethereum, litecoin or bitcoin mining http://bit.ly/10MHsFree #ethereum #bitcoin
88GIF",1,1,0,False
599,seven nieberg@seven_nieberg,"GET 10MHs mining speed for F.R.E.E , and use it for Ethereum, litecoin or bitcoin mining http://bit.ly/10MHsFree #ethereum #bitcoin
29GIF",0,0,0,False
601,Yhaqqeens@yakqin94,BlockCDN brings Sharing Economy to Bandwidth - Bitcoin Articles http://ln.is/JoJrK #ethereum... by #eugeneym via @c0nvey,1,0,0,False
602,indxio@indxio,#China Market Close || #Bitcoin: $754.31 | 713.31 EUR||  #Litecoin: 0.0023 BTC  || #Ethereum: 0.0098 BTC   || $BTC $LTC $ETH $RMB,1,1,0,False
603,stef nieberg@sevens_heaven,"GET 10MHs mining speed for F.R.E.E , and use it for Ethereum, litecoin or bitcoin mining http://bit.ly/10MHsFree #ethereum #bitcoin
17GIF",0,0,0,False
604,Brave New Coin@bravenewcoin,#Ethereum Price: USD $7.55 $ETH http://ow.ly/6UKf3048WBe,1,2,0,False
605,seven nieberg@seven_nieberg,"GET 10MHs mining speed for F.R.E.E , and use it for Ethereum, litecoin or bitcoin mining http://bit.ly/10MHsFree #ethereum #bitcoin
27GIF",0,0,0,False
606,stephanus Nieberg@Allinoneprofit1,"GET 10MHs mining speed for F.R.E.E , and use it for Ethereum, litecoin or bitcoin mining http://bit.ly/10MHsFree #ethereum #bitcoin
36GIF",1,1,0,False
607,IT & Telecoms@ITandTelecoms,"RT UCStrategies: What is #Ethereum? A Step-by-Step Beginners Guide #blockchain
http://buff.ly/2fFeBxp",1,1,1,False
608,blockchainmedia@Ethereumlab,"Is #Ethereum similar to #Bitcoin? Well, sort of, but not really. http://dld.bz/fcBTc #blockchain",0,0,0,False
609,/r/Ethereum@r_Ethereum,Ethereum team: What's current priority features? #Ethereum http://ift.tt/2gRIyhl,1,1,0,False
610,Coinstats@coinstats,"Ethereum Classic - ETC
Price: $0.808072
Change in 1h: +2.77%
Market cap: $69976848.0
Ranking: 6
#Ethereum Classic #ETC",0,0,0,False
611,Coinstats@coinstats,"Ethereum - ETH
Price: $7.48546
Change in 1h: +-0.62%
Market cap: $648851642.0
Ranking: 2
#Ethereum #ETH",0,0,0,False
612,BitcoinBuzz vega9@BitcoinBuzzV9,http://bitcoinbuzz.vega9.com - Hot topics: #bitcoin #blockchain #ethereum #cryptocurrency #stratis #privacy,0,0,0,False
613,stef nieberg@sevens_heaven,"GET 10MHs mining speed for F.R.E.E , and use it for Ethereum, litecoin or bitcoin mining http://bit.ly/10MHsFree #ethereum #bitcoin
12GIF",0,0,0,False
614,Ameer Rosic@AmeerRosic,"Besides #Ethereum, which blockchains do you think are currently leading the pack http://dld.bz/fcNRx",2,6,1,False
615,YOCoin@YOC_Crypto,"Report your issue! let us know
http://news.yocoin.org/uncategorized/report-your-issues/…
#eth #lisk #bitcoin #altcoin #etc #arkio #ark $ARK",3,6,6,False
616,seven nieberg@seven_nieberg,"GET 10MHs mining speed for F.R.E.E , and use it for Ethereum, litecoin or bitcoin mining http://bit.ly/10MHsFree #ethereum #bitcoin
87GIF",1,0,0,False
617,stef nieberg@sevens_heaven,"GET 10MHs mining speed for F.R.E.E , and use it for Ethereum, litecoin or bitcoin mining http://bit.ly/10MHsFree #ethereum #bitcoin
52GIF",0,0,0,False
618,stephanus Nieberg@Allinoneprofit1,"GET 10MHs mining speed for F.R.E.E , and use it for Ethereum, litecoin or bitcoin mining http://bit.ly/10MHsFree #ethereum #bitcoin
8GIF",1,1,0,False
619,Ethereum SE@StackEthereum,How can we trace history of transactions in smart contracts? http://ethereum.stackexchange.com/questions/10538/how-can-we-trace-history-of-transactions-in-smart-contracts… #ethereum #solidity #contractdevelopment #blockchain,1,1,0,False
620,stef nieberg@sevens_heaven,"GET 10MHs mining speed for F.R.E.E , and use it for Ethereum, litecoin or bitcoin mining http://bit.ly/10MHsFree #ethereum #bitcoin
50GIF",0,0,0,False
621,stef nieberg@sevens_heaven,"GET 10MHs mining speed for F.R.E.E , and use it for Ethereum, litecoin or bitcoin mining http://bit.ly/10MHsFree #ethereum #bitcoin
16GIF",0,0,0,False
622,stephanus Nieberg@Allinoneprofit1,"GET 10MHs mining speed for F.R.E.E , and use it for Ethereum, litecoin or bitcoin mining http://bit.ly/10MHsFree #ethereum #bitcoin
3GIF",1,1,0,False
624,Lika Nicolic@Ethereumhub,How does #blockchain work? The ultimate guide  http://buff.ly/2dvhaDX #bitcoin #ethereum #startup,1,1,0,False
625,Nolla Oktavia@Nollaoktavia,BlockCDN brings Sharing Economy to Bandwidth - Bitcoin Articles http://ln.is/gkQVN #ethereum #bitcoin…... by #TZhauna via @c0nvey,0,0,0,False
627,Ξ Fly Guy Ξ (flyguy.eth)@FlyGuyInTheSky,"Replying to @newsbitcoininfo""moved above $7...."" it was 8 cents of $8 on Kraken. But good to see #ethereum holding up at present at $7.56 $12 for Xmas!",0,0,0,False
628,Bitcoin Updater@BitcoinUpdater,Ethereum Price Technical Analysis – Another Failed Attempt #ethereum http://soco.space/ZWH4iE,1,2,0,False
629,WeTrustTeam@WeTrustPlatform,Check out our guide on how to get started with #Ethereum!  http://buff.ly/2h1iyOh #Blockchain,1,3,0,False
630,Faith Emmanuel@residualbitcoin,#ethereum Price Technical Analysis  ETH/USD Nosedived and Recovered - #bitcoin News #ETHUSD http://newsbitcoin.info/ethereum-price-technical-analysis-ethusd-nosedived-and-recovered… …,0,0,0,False
631,Veki@Veki551155,#ethereum Price Technical Analysis  ETH/USD Nosedived and Recovered - #bitcoin News #ETHUSD …,0,0,0,False
632,blockchainmedia@Ethereumlab,What does #Zcash mean for #Ethereum? http://dld.bz/fhyWt #blockchain,0,0,0,False
633,Coinstats@coinstats,"Ethereum Classic - ETC
Price: $0.785228
Change in 1h: +0.49%
Market cap: $67998619.0
Ranking: 6
#Ethereum Classic #ETC",0,0,0,False
634,Coinstats@coinstats,"Ethereum - ETH
Price: $7.5306
Change in 1h: +-0.72%
Market cap: $652754080.0
Ranking: 2
#Ethereum #ETH",0,0,0,False
635,BitcoinAgile@bitcoinagile,#ethereum Price Technical Analysis  ETH/USD Nosedived and Recovered - #bitcoin News #ETHUSD http://newsbitcoin.info/ethereum-price-technical-analysis-ethusd-nosedived-and-recovered…,3,2,0,False
636,blockchainmedia@Ethereumlab,What are your favorite digital wallets to use and why? http://dld.bz/fevtV #blockchain #bitcoin #ethereum,0,0,0,False
637,Lika Nicolic@Ethereumhub,Great people deserve a great audience. http://blockgeeks.com #Blockchain #Ethereum #Bitcoin,1,1,0,False
638,Avarice@5_Avarice,BlockCDN brings Sharing Economy to Bandwidth - Bitcoin Articles http://ln.is/V1Spe #ethereum... by #pacellidavide via @c0nvey,1,0,0,False
639,Nick Ayton@NickAyton,Replying to @StephenD_TaylorLooking forward to Part II @StephenD_Taylor @VladZamfir #ethereum @cloudnthings @Stevewal63 @thomaspower @sbmeunier @SmartLedger @Keefey71,5,3,1,False
640,Veki@Veki551155,Using #ethereum-A Beginners Guide  WeTrust Blog #bitcoin #blockchain #medium https://medium.com/wetrust-blog/using-ethereum-a-beginners-guide-5004547bfaa2…,0,0,0,False
641,Veki@Veki551155,Using #ethereum-A Beginners Guide #bitcoin #blockchain #medium https://medium.com/@penguinlegionof7/using-ethereum-a-beginners-guide-16583d14aa0f…,0,0,0,False
642,Faith Emmanuel@residualbitcoin,Using #ethereum-A Beginners Guide  WeTrust Blog #bitcoin #blockchain #medium https://medium.com/wetrust-blog/using-ethereum-a-beginners-guide-5004547bfaa2…  #ResidualBit…,0,0,0,False
643,Faith Emmanuel@residualbitcoin,Using #ethereum-A Beginners Guide #bitcoin #blockchain #medium https://medium.com/@penguinlegionof7/using-ethereum-a-beginners-guide-16583d14aa0f…  #ResidualBitcoin,0,0,0,False
644,blockchainmedia@Ethereumlab,"Top AMA's with the leaders in #Blockchain, #Bitcoin and #Ethereum http://blockgeeks.com/ama/",0,0,0,False
645,Blockgeeks@Blockgks,What does #Zcash mean for #Ethereum? http://dld.bz/fhyWt #blockchain,0,0,0,False
646,Coinstats@coinstats,"Ethereum Classic - ETC
Price: $0.781377
Change in 1h: +0.42%
Market cap: $67665133.0
Ranking: 6
#Ethereum Classic #ETC",1,1,1,False
647,Coinstats@coinstats,"Ethereum - ETH
Price: $7.59241
Change in 1h: +-1.06%
Market cap: $658102609.0
Ranking: 2
#Ethereum #ETH",1,1,0,False
649,Ethereum Price@EthereumPrice_,"#Ethereum: Ether Price Index
1 ETH =0.009940Ƀ XBT = $7.519275 USD
Today: -2.93%⬇︎ Last 24h: +13.20%⬆︎
https://ethereum-price.com",1,1,0,False
650,Olivier Chapiteau@o_chapiteau,07Dec2016 06:00 UTC #Ethereum live spots - #Ether @ 7.55378 $ - #EtherClassic @ 0.77680 $,2,0,0,False
651,BitcoinBuzz vega9@BitcoinBuzzV9,http://bitcoinbuzz.vega9.com - Hot topics: #bitcoin #usd #blockchain #ethereum #btc #cryptocurrency,0,0,0,False
654,Veki@Veki551155,#ethereum Price Technical Analysis  ETH/USD Nosedived and Recovered > Temptations News http://the-temptations.com/news/crypto-news/ethereum-price-technical-analysis-ethusd-nosedived-and-recovered…,0,0,0,False
655,blockchainmedia@Ethereumlab,"Besides #Ethereum, which blockchains do you think are currently leading the pack http://dld.bz/fcNRx",0,0,0,False
657,Mark Pivon@mpivon,"What is #Ethereum? A Step-by-Step Beginners Guide #blockchain
http://buff.ly/2fYQuy4",1,1,1,False
658,Ethereum Monkey@EthMonkey,Ethereum Price Technical Analysis - ETH/USD Nosedived and Recovered - NEWSBTC #ethereum http://newsbtc.com/2016/12/07/ethereum-price-technical-analysis-ethusd-nosedived-recovered/…,1,1,0,False
659,Faith Emmanuel@residualbitcoin,#ethereum Price Technical Analysis  ETH/USD Nosedived and Recovered > Temptations News http://the-temptations.com/news/crypto-news/ethereum-price-technical-analysis-ethusd-nosedived-and-recovered…  #R…,0,0,0,False
660,BitcoinAgile@bitcoinagile,#ethereum Price Technical Analysis  ETH/USD Nosedived and Recovered > Temptations News http://the-temptations.com/news/crypto-news/ethereum-price-technical-analysis-ethusd-nosedived-and-recovered…,2,2,0,False
661,Veki@Veki551155,#ethereum Price Technical Analysis  ETH/USD Nosedived and Recovered - NEWSBTC #ethereumusd http://bit.ly/2giL3bH,0,0,0,False
662,ExploreTraveler@exploretravel1,RT @ethoverflow: factory contracts using onchain bytecode http://lnkplg.co/B0XOM #ethereum #stackexchange,1,0,0,False
664,Faith Emmanuel@residualbitcoin,#ethereum Price Technical Analysis  ETH/USD Nosedived and Recovered - NEWSBTC #ethereumusd http://bit.ly/2giL3bH …,1,0,0,False
665,Blockgeeks@Blockgks,Could #Blockchain Technology Bankrupt Spotify? A Music Revolution http://buff.ly/2cWIfNM #ethereum #bitcoin,0,0,0,False
666,Bobe'bot@Bobe_bot,"1 #BTC = 790.3152 #CHF
1 #ETH = 8.1317 #CHF
1 #DOGE = 0.00021644334 #CHF
sources: @cryptonatorcom @hellobity",0,0,0,False
667,Coinstats@coinstats,"Ethereum - ETH
Price: $7.67343
Change in 1h: +1.25%
Market cap: $665115695.0
Ranking: 2
#Ethereum #ETH",1,1,0,False
668,BitcoinBuzz vega9@BitcoinBuzzV9,http://bitcoinbuzz.vega9.com - Hot topics: #bitcoin #blockchain #btc #ethereum #cryptocurrency #fintech,0,0,0,False
669,TheUltraAliens@TheUltraAliens,"#Ethereum

A muggles free galaxy

#openyoureyes",2,1,0,False
670,josh loyd@noturavarage,Amazing! #PhilBeaudreau #DawuanParker #ETHER  https://instagram.com/p/BNtAdbbB5zy/,0,0,0,False
671,Lika Nicolic@Ethereumhub,"Check it out! Full Q &A with Richard Olsen, CEO at #lykke http://buff.ly/2cQ2dIQ #blockchain #ethereum",1,0,0,False
672,Ethereum SE@StackEthereum,factory contracts using onchain bytecode http://ethereum.stackexchange.com/questions/10536/factory-contracts-using-onchain-bytecode… #ethereum #solidity #cloning,1,0,0,False
673,Bitcoin Updater@BitcoinUpdater,Ethereum Classic Price Technical Analysis – More Declines Likely In ETC #ethereum http://soco.space/AGlvcB,1,4,0,False
674,Ξ Fly Guy Ξ (flyguy.eth)@FlyGuyInTheSky,"Replying to @BlockCDN#BlockCDN With only 13105 #ethereum committed to BCDN there's a lot of work to do to get the necessary 150,000 #eth for a start.",0,0,0,False
675,Get Free Dogecoin@GetDogecoin,"GET FREE #DOGE
Win dogecoin every 60 minutes
http://goo.gl/hE5Bk6
#doge #dogecoin
#Ethereum
#bitcoin #litecoin #PrimeDay",0,0,0,False
676,ExploreTraveler@exploretravel1,"RT @Blockgks: Is #Ethereum similar to #Bitcoin? Well, sort of, but not really. http://lnkplg.co/27NwG #blockchain",1,0,0,False
677,Brave New Coin@bravenewcoin,#Ethereum Price: USD $7.63 $ETH http://ow.ly/6UKf3048WBe,1,2,0,False
678,Lika Nicolic@Ethereumhub,"Who is working on a blockchain powered sustainable energy solutions?
http://dld.bz/eVxaY #ethereum #blockchain",1,1,0,False
679,Coinstats@coinstats,"Ethereum Classic - ETC
Price: $0.775043
Change in 1h: +0.02%
Market cap: $67116626.0
Ranking: 6
#Ethereum Classic #ETC",0,0,0,False
680,Coinstats@coinstats,"Ethereum - ETH
Price: $7.5752
Change in 1h: +0.79%
Market cap: $656592321.0
Ranking: 2
#Ethereum #ETH",0,0,0,False
