,user,text,likes,retweets,replies,is_thread
0,Tom Hingley@tomhingley_law,"Bamboozled by #blockchain?
http://digital.freshfields.com/post/102dr3a/blockchain-in-five-minutes…
#bitcoin #fintech #ethereum #distributedledger #DLT",5,2,0,False
1,Paulão@pauloloureofern,Free #Ethereum every 5 minutes https://cryptosource.net/free-ethereum/?r=qhPsPeP7v9… #Ethereum via @CryptoSourceHQ,2,0,0,False
2,Sam Clare@SamClareLDN,Another reason why decentralised projects like #ethereum #synereo and #decent are so important: http://independent.co.uk/life-style/gadgets-and-tech/news/netflix-twitter-internet-down-not-working-broken-paypal-ebay-facebook-instagram-a7374506.html… … $amp $eth #bitcoinAn internet outage is taking out the world's biggest websitesServices like PlayStation Network were caught up in the problemsindependent.co.uk,7,9,1,False
3,Corey's Creative Co@CoreysCreativCo,"New art from #CoreysCreativeCorner
#ether #universe #Art #Iam 
'the infinite symphonic dance of spirit' 
@DeepakChopra @P3Alchemy",1,1,0,False
4,Stéphane Bortzmeyer@bortzmeyer,"Maintenant, je sais traduire ""proof of stake"" en chinois (权益证明) http://chainb.com/download/%E5%B7%A5%E4%BF%A1%E9%83%A8-%E4%B8%AD%E5%9B%BD%E5%8C%BA%E5%9D%97%E9%93%BE%E6%8A%80%E6%9C%AF%E5%92%8C%E5%BA%94%E7%94%A8%E5%8F%91%E5%B1%95%E7%99%BD%E7%9A%AE%E4%B9%A61014.pdf… #Ethereum",4,2,0,False
5,Bitcoin Free@Bitcoin_Freee,#vDice #crowdsale #ico #ethereum The vDice Crowdsale (ICO) is soon. It starts November 15th. Making secure Dapps for Ethereum is there job.,1,0,0,False
6,ZENofMKVLI@ZenOfTupac,@TheWhiteBookpg @kanyewest   released his ode to #JAYZ #BIGBrother on 9.11.07 and on 10.19.16 he reached 4 the #ether ( 911 7 or 119 7 *16 ),2,0,0,False
7,José Carlos Baquero @jbaquerot,The #Ethereum #Blockchain is Helping Create the Next Generation of #Tokens.The Ethereum Blockchain is Helping Create the Next Generation of TokensTokens have been around as long as money has. And at times it has been difficult to differentiate between the two. But what has consistently separated them is that tokens are units of value created...bcvcsc.tumblr.com,1,0,0,False
8,Ether.Fund@EtherFund,Parity 1.3.9 Released #ethereum https://github.com/ethcore/parity/releases/tag/v1.3.9…,7,1,3,False
9,ICOcountdown@ICOcountdown,https://reddit.com/r/ethereum/comments/58j1as/delisting_ethercamp_from_icocountdowncom/… #ethereum #reddit is completely #censored I did not remove this post - what a shame to #censor. #ethereumprojectDELISTING ETHER.CAMP FROM ICOCOUNTDOWN.COMreddit.com,4,1,0,False
10,Bitcoin Brasil@BitcoinBr10,What Stands In The Way Of Bitcoin Mass Adoption In Africa http://bitcoinbrasil10.blogspot.com.br/2016/10/o-que-atrapalha-adocao-em-massa-de.html… #Bitcoin #blockchain #ethereum #Africa #news #altcoin #btc,3,0,0,False
11,Bitstashers@Bitstashers,"Have you checked out our FB page? http://facebook.com/BitStashers
#bitcoin
#btc
#crypto
#ethereum
#etc
#fintech",1,1,0,False
12,Karol Jarkovsky@karoljarkovsky,How cool of #Microsoft to boost their #blockchain efforts with #Ethereum project #Bletchley http://bit.ly/2eYZHWm #Disrupt #CryptoMicrosoft boosts blockchain efforts with Ethereum-based Project Bletchley - SiliconANGLEMicrosoft boosts blockchain efforts with Ethereum-based Project Bletchley - SiliconANGLEsiliconangle.com,4,3,2,False
13,Pankaj Mohanta@thatpankaj,"#DDoS keeps challenging #ethereum!
#blockchain #cybersecurity #fintech #startup #DevOps #UX #Data #innovation #tech
https://goo.gl/PkQeHY",5,5,0,False
14,Blockchain Academy@BlockchainAcad,Next week we host #Ethereum Beginner & #Blockchain for #Developers course @alphacode_club. Enrol via our website:Home - Blockchain AcademyBlockchain Academy - Homeblockchainacademy.co.za,1,3,0,False
15,Steve Tunstall@TunstallAsc,Hunting #unicorns : which #vc can spot pink & fluffy? #tech #insurtech #fintech #blockchain #ethereum #ai #insurance https://cbinsights.com/blog/best-venture-capital-unicorn-spotters/?utm_source=CB+Insights+Newsletter&utm_campaign=f3b5a4c2fd-FridayNL_10_21_2016&utm_medium=email&utm_term=0_9dc0513989-f3b5a4c2fd-88054241…,37,46,1,False
16,Matt McKibbin@Matt_McKibbin,The #DDoS on our centralized #DNS is killing the internet.  Time for a #decentralized  version on #ethereum & #IPFS https://hack.ether.camp/idea/nebulis-an-ipfs-domain-name-system-built-on-ethereum…,11,10,2,False
17,Cees Grootes@Analyticus,"Blockchain: Facebook's biggest threat http://thedrum.com/opinion/2016/10/21/blockchain-facebooks-biggest-threat… via @thedrum #blockchain #ethereum #bitcoinBlockchain: Facebook's biggest threatRemember when you first opened a Facebook account? It was interesting, new and importantly, completely free of charge. Or so we thought. Fast-forward to the present day and our relationship with the...thedrum.com",1,0,0,False
18,/r/Augur@AugurFeed,#reddit Instead of being called reporters can we be called oracles http://bit.ly/2ePLJqr #ethereum #augurInstead of being called reporters can we be called oraclesPosted in r/Augur by u/btorres809 • 7 points and 10 commentsreddit.com,1,0,0,False
19,PolyCrypto@Polycrypto,#Borg DAO launches rre-sale to boost #Development of DApps on #Ethereum Classic https://cointelegraph.com/news/borg-dao-launches-pre-sale-to-boost-development-of-dapps-on-ethereum-classic… @Cointelegraph,3,2,0,False
20,EUROPECOIN  (.eu.org)@europecoinEUORG,"#EUROPECOIN VOLUME PASSED #ETH on #Bittrex
#crypto #fintech #SEPA #bittrex #altcoins
NO DUMPS POSSIBLE ALL COINS LOCKED IN TERM-DEPOSIT",9,8,0,False
21,Parity Technologies@ParityTech,"Parity 1.3.9 is out for Ethereum (also EIP-150 hard fork for ETC chain), check it out! https://goo.gl/AWOMtb #ethereum #blockchain",29,28,5,False
22,Volody Sk@VolodySk,DollarVigilante: RT RandyHilarski: Arcade City WhitePaper is Now Available! ArcadeCityHall #Ethereum #CryptoCurren… https://twitter.com/i/web/status/789233987935997952…,2,0,0,False
23,Nick Ayton@NickAyton,Lots of Forking going on. All part of #Blockchain maturing fast as a tech https://channels.theinnovationenterprise.com/articles/fork-off-blockchain… @Stevewal63 @SmartLedger #ethereum‘Fork Off’ Blockchain | Articles | Big DataDefinition: To fork software is to take the Source Code from an open source software program and develop an entirely new program. Nick Ayton explores.channels.theinnovationenterprise.com,2,3,0,False
24,Johan Nygren@resilience_me,"Resilience - game theory of incentive-based basic income using Taxemes and branching schemes https://steemit.com/resilience/@johan-nygren/resilience-game-theory-of-incentive-based-basic-income-using-taxemes-and-branching-schemes… #EthereumResilience - game theory of incentive-based basic income using Taxemes and branching schemes —...For interactive demos of Resilience, see the bottom of this article In the Resilience wealth sharing system, the… by johan-nygrensteemit.com",1,2,0,False
25,BlockChannel@BlockChannel,BlockChannel: ETH/USD Forecast – New Low Likely Before Recovery #Ether #Ethereum #PriceAnalysis #virtualcurrency http://ow.ly/hHoQ305pTlK,0,0,0,False
26,Bitcoin Maniac@Maniac_Bitcoin,"ICO for vDice.io is coming to town! :) 
http://crowdsale.vdice.io
#vDice #crowdsale #ico #ethereum #ether #bitcoin",1,0,0,False
27,Fred E @Fredilly,"The #Ethereum network grew several Exabytes overnight and crashed the internet. Don't worry, sharding right now!GIF",2,3,1,False
28,Ethereum Price@EthereumPrice_,"#Ethereum: Ether Price Index
1 ETH =0.019023Ƀ XBT = $12.098250 USD
Today: -0.90%⬇︎ Last 24h: -0.30%⬇︎
https://ethereum-price.com",1,1,0,False
29,Tedy MD@bitcoinjapanese,Putting the Pieces Together with Tokenly http://vid.staged.com/4Pot #btcjapan #btcchina #ethereum.co.id,2,0,0,False
30,Christian Seberino@c_seberino,CHBTC contributes additional funds to ETC development http://buff.ly/2e4hoB7 #etc #eth #ethereumclassic #ethereum,1,0,0,False
31,Augur@AugurProject,Support for Augur's REP Sees Solid Community Growth http://nasdaq.com/article/support-for-augurs-rep-sees-solid-community-growth-cm696705… via @BitcoinMagazine @Nasdaq #ethereum #augurAugur's REP Garners Solid Community Support Ahead of Platform Launchnasdaq.com,9,8,0,False
32,Alberto Jauregui | esoteRICK.eth @DisruptBanksy,http://ift.tt/2eu6jt4 Ethereum Classic To Hard Fork October 25 - CryptoCoinsNews #ethereum #ether,1,0,0,False
33,Bitcoin Maniac@Maniac_Bitcoin,"vDice.io ICO will start in Nov. 15th 2016. Save the date :D
http://crowdsale.vdice.io
#vDice #crowdsale #ico #ethereum #ether #bitcoin",1,0,0,False
34,Bekane Olana@bekansiif,"#ETH, Ambo University Professor & blogger in jail without charge --> http://ow.ly/ssRT305lHUf @AnaGomesMEP @AmbassadorPower @USEmbassyAddis",3,0,0,False
35,EUROPECOIN  (.eu.org)@europecoinEUORG,"RUNNIG HOT snice 48h still increasing passed 10000sat NO DUMP UNBELIEVABLE #crypto #fintech #SEPA #bittrex #altcoins #IoT #AMAZON 
LOVING IT",5,3,1,False
36,Augur@AugurProject,"Catch Joey Krug on Oct. 26 @money2020's ""Seeing the Future: Power of Prediction Markets"" panel: https://money2020.com/sessions/seeing-the-future-the-power-of-prediction-markets-advanced-data-analytics… #ethereum #Money2020",22,8,0,False
37,Bitcoin Updater@BitcoinUpdater,The Insanity and Brilliance at Ethereum’s Developer Conference #ethereum http://soco.space/QCinM3,1,0,0,False
38,Alex.eth@AlexanderFisher,"#Ethereum and #Bitcoin articles keep popping up in the Wallstreet Journal.Quote TweetFred Ehrsam@FEhrsam · Oct 19, 2016Blockchains will fundamentally upend most of today's business models: http://wsj.com/articles/how-the-blockchain-could-change-corporate-structure-1476887998…",1,2,0,False
39,Ƨ@stellabelle,Caution #ethereum people: Arcade City looks like a scam: https://medium.com/@CTUAgentIvan/arcade-city-is-a-scam-98c22c557f18#.mkq6irt1p…,1,1,0,False
40,Laurent Benichou@laurentbenichou,CoinDesk #Ethereum Forks But #Blockchain Attacks Keep On Coming - CoinDesk http://ow.ly/1B4C305opJH,1,1,0,False
41,GOLEM NETWORK (not doing airdrops - stay safe)@golemproject,"Golem crowdfunding whitepaper: Release candidate for community review
https://blog.golemproject.net/golem-crowdfunding-whitepaper-release-candidate-c817ebd911b… #Ethereum #truecloud",24,18,1,False
42,Bitcoin Brasil@BitcoinBr10,Global Banks Test Ripple's Digital Currency in New Blockchain Trial http://bitcoinbrasil10.blogspot.com.br/2016/10/bancos-globais-testar-moeda-digital-do.html… #Bitcoin #blockchain #ethereum #bank #ripple,2,0,0,False
43,Cryptopatterns@Cryptopatterns,"$BTC update. ""line in the sand"" pattern can use to trade but late in cycle unless confirmed by other indicators. #bitcoin $ETH $XMR $XRP",3,2,0,False
44,indxio@indxio,#China Market Close || #Bitcoin: $628.26 | 573.51 EUR||  #Litecoin: 0.003 BTC  || #Ethereum: 0.0191 BTC   || $BTC $LTC $ETH $RMB,0,0,0,False
45,Willy Woo@woonomic,Who is winning the payment coin race? My analysis using economic properties. #bitcoin #ethereum @dogecoin @Dashpay @monerocurrency @SDCoin,11,7,0,False
46,ZENofMKVLI@ZenOfTupac,#ThruTheLookingGlass #Kanye released his ode to #JAYZ #BIGBrother on 9.11.07 and on 10.19.16 he reached 4 the #ether ( 911 7 or 119 7 *16 ),1,0,0,False
47,墨汁うまい(Bokujyuumai)@bokujyuumai,wtf is happened on slack?is it a bug or attack? #Slack #Ethereum #Bitcoin #blockchain $ETH $ETC $BTC #イーサリアム　#ビットコイン　#ブロックチェーン　#フィンテック,1,0,0,False
48,Ethereum UAE@Ethereum_UAE,Support for Augur's REP Sees Solid Community Growth http://ift.tt/2dvyN38 #Ethereum,1,0,0,False
49,Bitcoin Brasil@BitcoinBr10,Bitstamp Bitcoin Exchange and Trezor Bitcoin Wallet Forge New Partnership http://bitcoinbrasil10.blogspot.com.br/2016/10/troca-de-bitstamp-bitcoin-e-cofre.html… #Bitcoin #blockchain #ethereum #Bitstamp,1,0,0,False
50,Coinbase Pro@CoinbasePro,Great presentation today from the folks at https://uport.me We're excited to see this project in action #uPort #ethereum,13,8,0,False
51,InvestorIdeas.com@InvestorIdeas,"#SocialMedia Playing a Key Role in the Future of #Retail: $RGNP $COH $RDEN $EL $ETH $RACE
http://investorideas.com/news/2016/luxury-brand/10201SocialMedia.asp…",20,0,0,False
52,Sinz @Sinzfeldt,"Didn't get a coinbase $ETC dump.. At least it's bleeding down, waiting for that sweet sub $1 #ethereum",1,0,0,False
53,Julia Edling@bitcointonic,"$760 #Bitcoin price alert from Tone Vays, subscribe to his new channel, Poloniex #Ethereum fork update: I will be… http://dlvr.it/MVdpHW",1,3,0,False
54,Dr Zac Baynham-Herd@ZacBaynhamHerd,"Why did the #blockchain pilot fail?

He didn't have 20:20 vision!

 #techjokes #tech #bitcoin #ethereum @sytaylor @VitalikButerin @coindeskQuote TweetBrave New Coin@bravenewcoin · Oct 17, 2016Drilling Down the #Blockchain: Beyond the Pilot Programs Oct 27 - New York, NY http://ow.ly/F26G304Futb",3,2,0,False
55,FirstBlood@firstbloodio,Less than 15 minutes until our live drawing for a @razer mechanical keyboard! Tune in http://twitch.tv/firstbloodio #FirstBlood #Ethereum #eSportsFirstBloodIO - TwitchFirstBlood.io is a platform that lets esports players challenge each other in the field and win rewards.twitch.tv,2,1,0,False
56,CoinGecko@coingecko,The latest Ethereum price is USD 12.03. For historical #Ethereum price charts - http://buff.ly/2etX109,0,0,0,False
57,MedosAdvert@medosadvert,Me & my team is earning daily! You can also join us! Biggest Binary #MLM prelaunch of 2016! http://bit.ly/earn-bitcoin-ethereum… #Bitcoin #ethereum,1,1,0,False
58,Jean-Philippe Lebœuf@jpleboeuf,"And it works like a charm; thanks! - #Coinbase #GDAX #Ethereum #ETH #hardfork #ETCQuote TweetCoinbase Pro@CoinbasePro · Oct 20, 2016ETC withdrawals are now enabled for all GDAX traders that received ETC as part of the hard fork on July 20th, 2016. https://coinbase.com/etc-withdraw",1,0,0,False
59,CryptoNewswire @CryptoNewswire,"Ethereum Classic Price Technical Analysis ETC Remains Supported - http://newsbtc.com/2016/10/21/ethereum-classic-price-technical-analysis-etc-remains-supported-2/… $ETC $BTC $ETH #bitcoin #investing #altcoinEthereum Classic Price Technical Analysis – ETC Remains SupportedEthereum classic price managed to remain above a key support zone against the Bitcoin, which is a good sign for the ETC buyers.newsbtc.com",0,0,0,False
60,ETHNews@ETHNews_,A Tale of Two Forks: #EthereumClassic and #Ethereum Address Security Vulnerabilities #HardFork http://ow.ly/xcHc305pSy5,1,0,0,False
61,/r/Augur@AugurFeed,#reddit Support for Augur's REP Sees Solid Community Growth http://bit.ly/2ereqHI #ethereum #augurSupport for Augur's REP Sees Solid Community GrowthPosted in r/Augur by u/Tony_Swish • 42 points and 0 commentsreddit.com,1,0,0,False
62,Nick Ayton@NickAyton,BOOM @CoinTelegraph @iykearu #ethereum #blockchain,1,2,0,False
63,BitScan@bitscanner,#Ethereum Forks But #Blockchain Attacks Keep On Coming http://ow.ly/8CBI305oh1V,1,0,0,False
64,Jeff Coleman | Jeff.eth@technocrypto,"I'm saying it flat out now: #HKG is #DAO all over again. Please do NOT support this poorly thought out, prematurely launched #ETH project",2,1,1,False
65,Brave New Coin@bravenewcoin,#Ethereum Price: USD $12.12 #ETH http://ow.ly/6UKf3048WBe,0,0,0,False
66,Digital Catapult@DigiCatapult,Read Lead Technologist @_Sam_D_'s blog post on our #blockchain #Ethereum work: http://bit.ly/2e8QCbb @ukgamesfund,1,3,0,False
67,John Cinnamond@jcinnamond,Replying to @davecheneywouldn’t I need to wait for every individual DNS user to decide to spray some on? :-) /cc @peter_szilagyi,1,0,0,False
68,Péter Szilágyi@peter_szilagyi,We're getting there ;) The #Ethereum domain system is speced and being implemented already ;) By @nicksdjohnson &co.,4,1,1,False
69,Uphold@UpholdInc,"UPDATE: #ETH deposits and withdrawals are live. Thank you for your patience during the #hardforkQuote TweetUphold@UpholdInc · Oct 15, 2016SERVICE UPDATE: Due to the upcoming #hardfork we're temporarily disabling $ETH deposits and withdrawals. Learn More: http://bit.ly/2e3namO",6,2,0,False
70,Fire Walk With Me@Kasmetsk1,#Ethereum Forks But #Blockchain Attacks Keep On Coming http://disq.us/t/2elomg0 via @coindesk @ethereumproject #cryptocurrencies,1,0,0,False
71,FinTech Software Dev@FinTech_SW_Dev,#Ethereum Forks But #Blockchain Attacks Keep On Coming http://bit.ly/2do68S8 via @CoinDesk,1,0,0,False
79,⛧ God of Gaming ⛧@TheGodofGamez,"Knowledge rests not upon truth alone, but upon error also. $ETH",0,0,0,False
82,⛧ God of Gaming ⛧@TheGodofGamez,The best place to find a helping hand is at the end of your own arm. $ETH,0,0,0,False
83,ExploreTraveler@exploretravel1,RT @TheCryptoGuild: Top 5 Revelations From The Podesta Emails http://lnkplg.co/1QzMW #Bitcoin #Ethereum #CryptoCurrency https://t.co/u8WpP…,1,0,0,False
85,StockEarnings.com@StocksEarning,"$ETH Since last ER, stock dropped 10%. Reporting Earnings on 10/25 After Close (Confirmed). http://ow.ly/V1w5305nZZw",0,0,0,False
86,/r/Ethereum@r_Ethereum,"After the HF, looks like the attacker still is raking in all the empty txn blocks. http://bit.ly/2eQ9MW1 #EthereumAfter the HF, looks like the attacker still is raking in all the...https://etherscan.io/address/0xc0ea08a2d404d3172d2add29a45be56da40e2949#mine I really feel this needs to be a solution for this for the next HF...reddit.com",0,0,0,False
87,/r/Ethereum@r_Ethereum,Miners who never mine transactions http://bit.ly/2eQ9HSk #Ethereum,0,0,0,False
88,Blockgeeks@Blockgks,Q&A: STEPHAN TUAL: Founder & COO Slock.it & The DAO http://dld.bz/faeQR #THEDAO #ethereum #blockchain,0,0,0,False
89,Coinstats@coinstats,"Ethereum Classic - ETC
Price: $1.02842
Change in 1h: +-0.26%
Market cap: $87525030.0
Ranking: 6
#Ethereum Classic #ETC",0,0,0,False
90,Coinstats@coinstats,"Ethereum - ETH
Price: $12.0943
Change in 1h: +-0.21%
Market cap: $1030493594.0
Ranking: 2
#Ethereum #ETH",0,0,0,False
92,Bitcoin NewsBoard@bitcoinewsboard,#Microsoft Adds #Ethereum #Solidity Dapp To Visual Studio http://bitcoinnewsboards.com/?p=32025 #altcoins #bitcoin #coding #consensys #developer,0,0,0,False
93,CryptoTheShit@CryptoTheShit,"Replying to @BTCarchitect and @RNR_0i bought a car with #ethereum, yeah.",1,0,0,False
94,Coinstats@coinstats,"Ethereum Classic - ETC
Price: $1.02971
Change in 1h: +0.04%
Market cap: $87633546.0
Ranking: 5
#Ethereum Classic #ETC",0,0,0,False
95,Bobe'bot@Bobe_bot,"1 #BTC = 644.0519 #CHF
1 #ETH = 12.6076 #CHF
1 #DOGE = 0.000220710925 #CHF
sources: @cryptonatorcom @hellobity",0,0,0,False
96,Coinstats@coinstats,"Ethereum - ETH
Price: $12.1338
Change in 1h: +0.59%
Market cap: $1033838329.0
Ranking: 2
#Ethereum #ETH",0,0,0,False
97,Ameer Rosic@AmeerRosic,How many unique Open #Blockchains exist are are all the rest forks of the original? http://buff.ly/2eqFl4D #bitcoin #ethereum,0,0,0,False
98,Blockgeeks@Blockgks,"If you had to invest $1mln for 5 years, would you invest into #Ethereum or #Bitcoin? http://buff.ly/2edgNi0 #investing",0,0,0,False
99,Donnie Aleshire@DonnieAles,"Hater. Nas is going to come to the Farias Farm and drop that #ether on you!!!!Quote TweetTheodore Macelroy@Teddymaciswack · Oct 21, 2016Replying to @DonnieAlesi'll believe it when i hear it",0,0,0,False
100,Terry Cheng @Bat_tery,"$BSET $ETH $HOFT  

Watch Furniture/Mattress Stocks Following La-Z-Boy's WarningWatch Furniture/Mattress Stocks Following La-Z-Boy's WarningLa-Z-Boy Incorporated (NYSE: LZB) shares are down 6.5 percent on Friday after the company’s CEO painted a bleak picture of the furniture business at a meeting with analysts...benzinga.com",0,0,0,False
102,AltcoinLive bot@AltcoinLiveBot,removed $ETH buywall 14.3btc @ 0.01864439 http://altcoinlive.com/bittrex-eth-btc #altcoinlive,0,0,0,False
103,AltcoinLive bot@AltcoinLiveBot,new $ETH buywall 14.3btc @ 0.01864439 http://altcoinlive.com/bittrex-eth-btc #altcoinlive,0,0,0,False
105,Daily Political@dailypoliticaln,Dougherty & Co Comments on Ethan Allen Interiors Inc.’s FY2017 Earnings $ETH http://dailypolitical.com/?p=750310,0,0,0,False
106,WKRB News@WKRBNews,"Ethan Allen Interiors Inc. $ETH to Post FY2017 Earnings of $2.10 Per Share, Gabelli Forecasts http://zpr.io/P62tn",0,0,0,False
110,WKRB News@WKRBNews,"Ethan Allen Interiors Inc. $ETH to Post FY2017 Earnings of $2.10 Per Share, Gabelli Forecasts http://ift.tt/2ePQy2N",0,0,0,False
111,Ξ Fly Guy Ξ (flyguy.eth)@FlyGuyInTheSky,Replying to @ReutersBizLooks like they will have to HardFork like #ethereum ... well a few times.,0,0,0,False
113,Blockgeeks@Blockgks,"Check it out! Full Q &A with Richard Olsen, CEO at #lykke http://buff.ly/2cQ2dIQ #blockchain #ethereum",0,0,0,False
114,Coinstats@coinstats,"Ethereum Classic - ETC
Price: $1.02914
Change in 1h: +-0.08%
Market cap: $87583592.0
Ranking: 6
#Ethereum Classic #ETC",0,0,0,False
115,Coinstats@coinstats,"Ethereum - ETH
Price: $12.0318
Change in 1h: +-0.38%
Market cap: $1025131779.0
Ranking: 2
#Ethereum #ETH",0,0,0,False
117,Crypto Price Ticker@TickerCrypto,"#Ethereum #ETH Rank:2 Last:฿0.01907047(-0.291%) High:Buy Instantly! on  Low:฿0.01924450 Vol:฿4,601 Market Cap:฿1,624,832 / $1,023,928,206.57",0,0,0,False
118,AltcoinLive bot@AltcoinLiveBot,removed $ETH buywall 10.1btc @ 0.01898134 http://altcoinlive.com/bittrex-eth-btc #altcoinlive,0,0,0,False
119,AltcoinLive bot@AltcoinLiveBot,new $ETH buywall 10.1btc @ 0.01898134 http://altcoinlive.com/bittrex-eth-btc #altcoinlive,0,0,0,False
122,/r/Augur@AugurFeed,#reddit Moderation Privileges based on Reputation http://bit.ly/2ePOckL #ethereum #augurModeration Privileges based on ReputationThere are some things that are hard to do automatically but are needed/beneficial to keep a system clean. This is where moderators/administrators...reddit.com,1,0,0,False
123,People Tested Media@PeopleTested,"The easiest way to invest in #bitcoin and #ethereum @LawnmowerIO Thx @Game_CreditsQuote TweetGAME CREDITS@gamecredits · Oct 21, 2016https://lawnmower.io / The investment & data hub for blockchain assets! Open an investment account in less than 2 minutes.",0,0,0,False
124,⛧ God of Gaming ⛧@TheGodofGamez,Our distrust is very expensive. $ETH,0,0,0,False
125,ICOcountdown@ICOcountdown,Everyone please comment #ethereumproject #ethereum censorship that is going on right now on #reddit is not okay https://bitcointalk.org/index.php?topic=1657370.new#new…,2,0,0,False
126,Zero Filter@zerofiltertruth,"The @RestoHardware / #RHHoliday catalogue smells like toxic chem dump - With high merch prices can't use better ink?? 

$RH @jimcramer $ETH",0,0,0,False
127,Alberto Jauregui | esoteRICK.eth @DisruptBanksy,"http://ift.tt/2ePG2bO Ethereum Price Stable Despite Attacks, Potential Fork - Investopedia #ethereum #ether",0,0,0,False
128,EUROPECOIN  (.eu.org)@europecoinEUORG,"Replying to @europecoinEUORGSELL PRESSURE going DOWN grab remaining coins  THAT's 
TERM DEPOSIT in EFFECT 
 #crypto #fintech #bittrex #altcoins #IoT Volume passed #ETH",6,8,0,False
130,BlockChannel@BlockChannel,BlockChannel: A Tale of Two Forks: #EthereumClassic and #Ethereum Address Security Vulnerabilities #HardFork… https://twitter.com/i/web/status/789549272748462080…,1,0,0,False
133,Ethereum SE@StackEthereum,Node's IP exposed http://ethereum.stackexchange.com/questions/9498/nodes-ip-exposed… #ethereum #goethereum #security #nodes #network,0,0,0,False
134,Ethereum SE@StackEthereum,ethereum stack exchange DNS problem [migrated] http://ethereum.stackexchange.com/questions/9501/ethereum-stack-exchange-dns-problem… #ethereum #exchanges,1,0,0,False
136,caadist@IamCaadist,"Just added: 3 full-time #phd #positions at ITA #ETH @ETH @ETH_en #academicjobs #architecture #computation
https://m.refline.ch/845721/4981/pub/1/index.html…",0,0,0,False
139,VeraKanera @VeraKanera,#eth trailer of prequel,1,0,0,False
141,VeraKanera @VeraKanera,#eth surfen,0,0,0,False
142,Crypto News Alerts@CryptoCoiners,"Zcash cloud mining contracts available.  Use coupon code ""FKb85A"" for a 3% discount. https://genesis-mining.com/a/535076 #bitcoin #ethereum #ico",3,0,0,False
143,VeraKanera @VeraKanera,#eth geen idee ... Flair?,1,0,0,False
144,Brave New Coin@bravenewcoin,#Ethereum Price: USD $12.1 #ETH http://ow.ly/6UKf3048WBe,0,0,0,False
145,Blockgeeks@Blockgks,"Who is working on a blockchain powered sustainable energy solutions?
http://dld.bz/eVxaY #ethereum #blockchain",0,0,0,False
148,Coinstats@coinstats,"Ethereum Classic - ETC
Price: $1.03115
Change in 1h: +0.14%
Market cap: $87753322.0
Ranking: 6
#Ethereum Classic #ETC",0,0,0,False
149,ETHNews@ETHNews_,ETH/USD Forecast – New Low Likely Before Recovery #Ether #Ethereum #PriceAnalysis #virtualcurrency http://ow.ly/hHoQ305pTlK,0,0,0,False
150,Coinstats@coinstats,"Ethereum - ETH
Price: $12.0772
Change in 1h: +-0.11%
Market cap: $1028983930.0
Ranking: 2
#Ethereum #ETH",0,0,0,False
151,Hanneke de Jong@hanneke_dejong,#eth Texel,0,0,0,False
152,VeraKanera @VeraKanera,#eth Texel,0,0,0,False
153,Hanneke de Jong@hanneke_dejong,#eth subwoofer,0,0,0,False
154,VeraKanera @VeraKanera,#eth subwoofer,0,0,0,False
155,Hanneke de Jong@hanneke_dejong,Internationale #eth,0,0,0,False
156,Blockgeeks@Blockgks,How many unique Open #Blockchains exist are are all the rest forks of the original? http://buff.ly/2eqHmxV #bitcoin #ethereum,1,0,0,False
158,VeraKanera @VeraKanera,#eth ptss,0,0,0,False
159,Ameer Rosic@AmeerRosic,Could #Blockchain Technology Disruptive The Real Estate Industry? http://dld.bz/eCvcw #ethereum,0,0,0,False
160,VeraKanera @VeraKanera,Doet @Anna_Pom  ook mee met #eth?,0,0,0,False
161,VeraKanera @VeraKanera,#eth A dusssss,0,0,0,False
163,Vijay Kumar Naik@vijayrathoda9,#BTC #BlockChain #ethereum The Art of Investing In Bitcoin in 2016 & 2017 http://bit.ly/AIMBTC,1,0,0,False
169,Blockgeeks@Blockgks,Step-by-Step Guide: What the heck is a Smart Contract? #blockchain #bitcoin #ethereum http://dld.bz/eYNat,2,1,1,False
170,Coinstats@coinstats,"Ethereum Classic - ETC
Price: $1.02918
Change in 1h: +-0.14%
Market cap: $87584270.0
Ranking: 5
#Ethereum Classic #ETC",0,0,0,False
171,Coinstats@coinstats,"Ethereum - ETH
Price: $12.1083
Change in 1h: +0.47%
Market cap: $1031615741.0
Ranking: 2
#Ethereum #ETH",0,0,0,False
172,Dmitry ButΞrin@BlockGeekDima,What are most obvious opportunities for using #Ethereum #blockchain right now? http://buff.ly/2eikULI #Startup #business,2,0,0,False
173,ExploreTraveler@exploretravel1,RT @freebitcoins4u2: Free #bitcoin #ethereum @ http://lnkplg.co/R6Llr Blockchain Set to Transform Supply Chain,0,0,0,False
178,Faith Emmanuel@residualbitcoin,London City Airport evacuated after alert #ethereum #synereo #decent #LondonCityAirport http://independent.co.uk/news/uk/home-news/london-city-airport-evacuated-fire-alert-passengers-flights-landing-departing-delayed-stopped-a7374416.html…  #…,0,0,0,False
180,BitcoinAgile@bitcoinagile,London City Airport evacuated after alert #ethereum #synereo #decent #LondonCityAirport http://independent.co.uk/news/uk/home-news/london-city-airport-evacuated-fire-alert-passengers-flights-landing-departing-delayed-stopped-a7374416.html…,0,0,0,False
181,Provable@provablethings,Come speak to us @money2020 in Las Vegas - we'll be around both during the hackathon & the conference! #blockchain #ethereum #smartcontracts,5,5,0,False
182,Blockgeeks@Blockgks,It's coming! The #Blockchain Technology That Will Replace Lawyers http://dld.bz/eYNat #ethereum,0,0,0,False
183,Coinstats@coinstats,"Ethereum Classic - ETC
Price: $1.03139
Change in 1h: +-0.72%
Market cap: $87770939.0
Ranking: 5
#Ethereum Classic #ETC",0,0,0,False
184,Coinstats@coinstats,"Ethereum - ETH
Price: $12.0333
Change in 1h: +-0.05%
Market cap: $1025209488.0
Ranking: 2
#Ethereum #ETH",0,0,0,False
186,Tommy@chasyrceo,"@GTEC #blockchain winner @ArcadeCityHall reveals #whitepaper / #ICO details! #goodbyeuber #ethereumQuote TweetBitcoin.com@BitcoinCom · Oct 21, 2016Arcade City Publicly Reveals White Paper & ICO Details https://news.bitcoin.com/arcade-city-reveals-white-paper-ico/… #bitcoin",0,0,0,False
187,How To Get Bitcoins  #KBF@htgbitcoins,"An economic comparison of payment coins, who is winning the race? http://woobull.com/an-economic-comparison-of-payment-coins-who-is-winning-the-race/… @dangermouse117 #Bitcoin #AltCoins #Liquidity $ETH",0,0,0,False
188,Bound-Oxygen|Skin Spray@Skin_Spray,RT kentico_karolj: How cool of #Microsoft to boost their #blockchain efforts with #Ethereum project #Bletchley http://bit.ly/2eYZHWm #Di…Microsoft boosts blockchain efforts with Ethereum-based Project Bletchley - SiliconANGLEMicrosoft boosts blockchain efforts with Ethereum-based Project Bletchley - SiliconANGLEsiliconangle.com,0,0,0,False
189,Jouko Salonen@JoukoSalonen,thx though it does not help those consortia who are starting their #Ethereum projects now. Us: 15 cust of which 8 banks,2,0,0,False
190,Dave Olsen@dlolsen,"@sstonehocker @zippy2102 Case for blockchain based Distributed APPlications! #dapp #ethereumQuote TweetThe Verge@verge · Oct 21, 2016A denial-of-service attack is shutting down major websites across the internet http://theverge.com/2016/10/21/13357344/ddos-attack-websites-shut-down…",0,0,0,False
192,Mining Coins@MiningCoins,"Zcash cloud mining contracts available.  Use coupon code ""FKb85A"" for a 3% discount. https://genesis-mining.com/a/535076 #bitcoin #ethereum #ico",0,0,0,False
193,Bitcoin NewsBoard@bitcoinewsboard,#Ethereum Price Technical #Analysis – Can ETH Buyers Capitalize? http://bitcoinnewsboards.com/?p=31890 #altcoins #bitcoin #ethereumnews #ethereumprice,0,0,0,False
194,Blockgeeks@Blockgks,Smart Contracts: The #Blockchain Technology That Will Replace Lawyers http://dld.bz/eYNat #ethereum,0,0,0,False
195,Péter Szilágyi@peter_szilagyi,Replying to @jcinnamond and @davecheneyWe're getting there ;) The #Ethereum domain system is speced and being implemented already ;) By @nicksdjohnson &co.,4,1,1,False
196,CoinGecko@coingecko,The latest Ethereum price is USD 12.05. For historical #Ethereum price charts - http://buff.ly/2etpbbn,1,0,0,False
197,Alex.eth@AlexanderFisher,“How to use MyEtherWallet with your Nano S” http://buff.ly/2exdZKC #Ethereum #Bitcoin,0,0,0,False
198,CryptoRTs +  = @CryptoRTs,RT 200SocialMedia: Join us at laBITconf in #Argentina and let's chat. http://laBITconf.com #Bitcoin #Ethereum … https://pic.twitter.com/E0z6Iw2QUP,0,0,0,False
202,Watchlist News@WatchlistN,FY2017 EPS Estimates for Ethan Allen Interiors Inc. $ETH Decreased by KeyCorp http://zpr.io/P6S47,0,0,0,False
203,BlockchainItalia@blockchainITA,#Ethereum Classic To Hard Fork October 25 - CryptoCoinsNews https://cryptocoinsnews.com/ethereum-classic-hard-fork-october-2016/… #etc #eth,0,0,0,False
204,Bitcoin@crypto_bitcoins,Ethereum Classic To Hard Fork October 25 https://cryptocoinsnews.com/ethereum-classic-hard-fork-october-2016… #crypto #ethereum #eth #btc #bitcoin #fintech,0,0,0,False
205,Cointon@CointonDotCom,Ethereum Classic To Hard Fork October 25 https://cryptocoinsnews.com/ethereum-classic-hard-fork-october-2016… #crypto #ethereum #eth #btc #bitcoin #fintech,0,0,0,False
207,Cloud Mining Monitor@cmmonitorcom,#Ethereum #Cloudmining': 21.10.2016 Payment received. 6 MHs - 0.05316613 ETH. From Genesis Mining.Genesis Mining (Ethereum Mining)cmmonitor.com,0,0,0,False
208,Brave New Coin@bravenewcoin,#Ethereum Price: USD $12.08 #ETH http://ow.ly/6UKf3048WBe,0,0,0,False
209,Coinstats@coinstats,"Ethereum Classic - ETC
Price: $1.03759
Change in 1h: +0.74%
Market cap: $88295832.0
Ranking: 5
#Ethereum Classic #ETC",0,0,0,False
210,Bobe'bot@Bobe_bot,"1 #BTC = 645.2546 #CHF
1 #ETH = 12.5866 #CHF
1 #DOGE = 0.0002207867 #CHF
sources: @cryptonatorcom @hellobity",0,0,0,False
211,Coinstats@coinstats,"Ethereum - ETH
Price: $12.0469
Change in 1h: +-0.03%
Market cap: $1026334565.0
Ranking: 2
#Ethereum #ETH",0,0,0,False
213,Ameer Rosic@AmeerRosic,Step-by-Step Guide: What the heck is a Smart Contract? #blockchain #bitcoin #ethereum http://dld.bz/eYNat,0,0,0,False
214,⛧ God of Gaming ⛧@TheGodofGamez,Be as you wish to seem. $ETH,0,0,0,False
215,Ameer Rosic@AmeerRosic,What are the most interesting #blockchain applications for the supply chain? http://buff.ly/2dUmE8E #ethereum #startup #business,0,0,0,False
217,Faith Emmanuel@residualbitcoin,#ethereum Classic To Hard Fork October 25 - CryptoCoinsNews #EthereumClassic #EthereumNews http://bitcoinagile.com/8D9259/ethereum-classic-to-hard-fork-october-25-cryptocoinsnews_stream… …,0,0,0,False
218,Ethereum SE@StackEthereum,Node's Ip exposed http://ethereum.stackexchange.com/questions/9498/nodes-ip-exposed… #ethereum #goethereum #nodes,0,0,0,False
219,BitcoinAgile@bitcoinagile,#ethereum Classic To Hard Fork October 25 - CryptoCoinsNews #EthereumClassic #EthereumNews http://bitcoinagile.com/8D9259/ethereum-classic-to-hard-fork-october-25-cryptocoinsnews_stream…,0,0,0,False
221,Daily Political@dailypoliticaln,FY2017 EPS Estimates for Ethan Allen Interiors Inc. $ETH Decreased by KeyCorp http://dailypolitical.com/?p=749756,0,0,0,False
223,CryptoNewswire @CryptoNewswire,Ethereum Classic To Hard Fork October 25 - https://cryptocoinsnews.com/ethereum-classic-hard-fork-october-2016/… $ETC $ETH #crypto #blockchain #finance,1,0,0,False
224,ExploreTraveler@exploretravel1,RT @BitNewsClick: #News: Does MyEtherWallet work with testnet?: #ethereum #ether http://lnkplg.co/Y62mJ,0,0,0,False
225,Ameer Rosic@AmeerRosic,It's coming! The #Blockchain Technology That Will Replace Lawyers http://dld.bz/eYNat #ethereum,1,1,0,False
226,MarketBeat@MarketBeatCom,Dougherty & Co Brokers Lower Earnings Estimates for Ethan Allen Interiors Inc. $ETH http://zpr.io/P6S8X,0,0,0,False
227,Coinstats@coinstats,"Ethereum Classic - ETC
Price: $1.03074
Change in 1h: +0.12%
Market cap: $87711422.0
Ranking: 5
#Ethereum Classic #ETC",0,0,0,False
228,Coinstats@coinstats,"Ethereum - ETH
Price: $12.0337
Change in 1h: +-0.58%
Market cap: $1025194764.0
Ranking: 2
#Ethereum #ETH",0,0,0,False
229,Ethereum Price@EthereumPrice_,"#Ethereum: Ether Price Index
1 ETH =0.019130Ƀ XBT = $12.123750 USD
Today: -0.34%⬇︎ Last 24h: -0.09%⬇︎
https://ethereum-price.com",0,0,0,False
231,Ameer Rosic@AmeerRosic,Join our chat! Who is disrupting insurance with the #blockchain? http://buff.ly/2duQdwM #bitcoin #ethereum,2,3,0,False
233,Ticker Report@TickerReport,KeyCorp Weighs in on Ethan Allen Interiors Inc.’s Q1 2017 Earnings $ETH http://zpr.io/P6SM6,0,0,0,False
234,Cloud Mining Monitor@cmmonitorcom,#Ether #Ethereum #Cloudmining': 21.10.2016 Payment received. 6 MHs - 0.27282018 ETH. From HashFlareHashFlare (Ethereum Mining)cmmonitor.com,0,0,0,False
237,indirasiri@indirasiri,#somersethouse #edgy #retro #ether @ Somerset House https://instagram.com/p/BL1BrlvhiVx/,0,0,0,False
238,/r/Ethereum@r_Ethereum,Why blockchains are unstable if coinbase rewards are reduced to zero http://bit.ly/2eB9nmH #EthereumWhy blockchains are unstable if coinbase rewards are reduced to zeroPosted in r/ethereum by u/latetot • 16 points and 17 commentsreddit.com,0,0,0,False
239,/r/Ethereum@r_Ethereum,"Why tx gas cost is fixed to 21,000? http://bit.ly/2eB89rs #EthereumWhy tx gas cost is fixed to 21,000?Why and how this exact value has been chosen?reddit.com",0,0,0,False
240,/r/Ethereum@r_Ethereum,"CoinFund Q&A with FlightDelay, a decentralized flight insurance app built on Ethereum smart contrac... http://bit.ly/2edxY2F #EthereumCoinFund Q&A with FlightDelay, a decentralized flight insurance...Starting at 11 AM EST. Google Hangouts Link: https://hangouts.google.com/call/7l5ibcy6mnetrmcr74k2i4g43mereddit.com",0,0,0,False
241,/r/Ethereum@r_Ethereum,"Golem crowdfunding whitepaper: Release candidate, for community review http://bit.ly/2eB7iaw #Ethereum",1,0,0,False
243,/r/Ethereum@r_Ethereum,[Noob question] http://bit.ly/2edztxR #Ethereum,0,0,0,False
245,Ameer Rosic@AmeerRosic,Smart Contracts: The #Blockchain Technology That Will Replace Lawyers http://dld.bz/eYNat #ethereum,0,0,0,False
246,Seeking Alpha@SeekingAlpha,Ethan Allen: What To Expect From This High-End Furniture Company http://seekingalpha.com/article/4013814-ethan-allen-expect-high-end-furniture-company?source=feed_f… $RH $WSM $ETHEthan Allen: What To Expect From This High-End Furniture Company (NYSE:ETH)An adaptive and relevant corporate strategy. Strong post-crisis results and conservative outlook.seekingalpha.com,0,0,0,False
247,Ethereum SE@StackEthereum,general mathematical description of Pow algorithms http://ethereum.stackexchange.com/questions/9492/general-mathematical-description-of-pow-algorithms… #ethereum #proofofwork #ethash,1,2,0,False
248,@LaVitaDi,Come by the house. #Yeezy #Ether #YouLostAlready #WellWisher #FriendlyActing #Envy #Snake #GayZ… https://instagram.com/p/BL0-t9QhBuT/,0,0,0,False
250,Blockgeeks@Blockgks,What are the most interesting #blockchain applications for the supply chain? http://buff.ly/2dUnXVo #ethereum #startup #business,0,0,0,False
251,Ticker Report@TickerReport,KeyCorp Weighs in on Ethan Allen Interiors Inc.’s Q1 2017 Earnings $ETH http://ift.tt/2esWATw,0,0,0,False
252,MidEast Times@midetimes,Dougherty & Co Brokers Lower Earnings Estimates for Ethan Allen Interiors Inc. $ETH http://mideasttime.com/?p=1343403,0,0,0,False
253,Blockgeeks@Blockgks,Would you like early access to BlockGeeks #Blockchain Community? Sign up here http://blockgeeks.com #ethereum,0,0,0,False
254,Coinstats@coinstats,"Ethereum Classic - ETC
Price: $1.02936
Change in 1h: +-0.09%
Market cap: $87593166.0
Ranking: 5
#Ethereum Classic #ETC",0,0,0,False
255,Coinstats@coinstats,"Ethereum - ETH
Price: $12.1083
Change in 1h: +0.25%
Market cap: $1031538658.0
Ranking: 2
#Ethereum #ETH",0,0,0,False
256,Blockgeeks@Blockgks,Join our chat! Who is disrupting insurance with the #blockchain? http://buff.ly/2duNS4X #bitcoin #ethereum,1,0,0,False
257,⛧ God of Gaming ⛧@TheGodofGamez,Most of the shadows of life are caused by standing in our own sunshine. $ETH,0,0,0,False
258,Lele Canfora@lelecanfora,"#blockchain #ethereum world here we come!!! #deckardai #developersplatformsQuote TweetAurélien Nicolas@aurelcode · Oct 21, 2016Now with Solidity support! @LefterisJP",1,2,0,False
259,Digital Dosh News@DigitalDoshNews,Find us on #crunchbase #btc #eth ok @nocroom via /r/CryptoCurrencyFind us on #crunchbase #btc #eth ok @nocroomPosted in r/CryptoCurrency by u/NocRoom • 2 points and 0 commentsreddit.com,0,0,0,False
260,Blockgeeks@Blockgks,"Join today! Blockgeeks is a #Blockchain innovation hub 
& marketplace http://blockgeeks.com #Bitcoin #Ethereum",0,0,0,False
261,Crypto Trader Pro @CryptoTraderPro,#CryptoTrading   Find us on #crunchbase #btc #eth ok @nocroom http://dlvr.it/MVWNzZ → via http://goo.gl/ifcBSF,0,0,0,False
262,Cryptodict@cryptodict,Join the ICO newsletter now at http://crowdsale.vdice.io and gets any new for the ICO @vDice_io #ether #bitcoin #vDice #ico,0,0,0,False
263,Blockgeeks@Blockgks,What is #Blockchain Technology? Guide For Beginners http://dld.bz/eW5DU #ethereum,0,0,0,False
264,Ethereum SE@StackEthereum,cpp-ethereum develop json error http://ethereum.stackexchange.com/questions/9491/cpp-ethereum-develop-json-error… #ethereum #cppethereum,2,0,0,False
266,The Time Machine @MachineBlock33,@coinbase the best for #bitcoin wallet now they have an exchange with #ETH #LTC I wish they had more  #cryptocurrency #justsayin o_O,1,0,0,False
267,Bitcoin is King@cryptoctic,#Ethereum is trading at $12.13,0,0,0,False
268,Lykke Research Hub @LykkeCity,About #lykke team meetup in Monterengro - with presentations slides http://bit.ly/2epWkG1 #blockchain #exchange #bitcoin #ethereum #fx,9,5,2,False
269,Cricut For Dummies Free SVG@CricutFor,#Free #Ethereum every 5 #minutes https://cryptosource.net/free-ethereum/?r=q2X1QyQjW9… #Ethereum via @CryptoSourceHQ,1,0,0,False
270,Francesco Villa@cekospiu,Donate to our project! Add funds and receive $$$ in exchange from profits lifetime! @gagpubblicita #ethereum #miner https://indiegogo.com/projects/build-ethereum-mining-farm/x/14702367#/…,0,0,0,False
271,Coinstats@coinstats,"Ethereum Classic - ETC
Price: $1.03061
Change in 1h: +-0.29%
Market cap: $87698023.0
Ranking: 5
#Ethereum Classic #ETC",0,0,0,False
272,Coinstats@coinstats,"Ethereum - ETH
Price: $12.097
Change in 1h: +0.08%
Market cap: $1030558905.0
Ranking: 2
#Ethereum #ETH",0,0,0,False
273,Ethereum SE@StackEthereum,Is it possible to get an address of a struct in the Library or Contract? http://ethereum.stackexchange.com/questions/9488/is-it-possible-to-get-an-address-of-a-struct-in-the-library-or-contract… #ethereum #goethereum #solidity #struct,0,0,0,False
274,Farhan Elias@farhan_elias,#Blockchain based #IoT project does drone deliveries using #Ethereum | @scoopit http://sco.lt/5PUdEH,0,0,0,False
275,InvestorIdeas.com@InvestorIdeas,"#Luxury Brand #Retail #Stocks: #SocialMedia’s Key Role in the Future of Retail $RGNP $RDEN $EL $ETH $RACE $KATE
http://investorideas.com/news/2016/luxury-brand/10201SocialMedia.asp…",0,0,0,False
276,Fire Walk With Me@Kasmetsk1,More Problems For #Ether http://disq.us/t/2emthwv via @FXOpenBroker #ethereum #cryptocurrencies @ethereumprojectMore Problems For Ether | FXOpen Forex BlogMore problems for Ether during the last two weeks as users had to undertake yet another hard fork. Prices have broken the uptrend and look set to movefxopen.blog,0,0,0,False
277,Ethereum SE@StackEthereum,Is it possible to get an address of a struct in the Library? http://ethereum.stackexchange.com/questions/9488/is-it-possible-to-get-an-address-of-a-struct-in-the-library… #ethereum #goethereum #struct #library #memory,0,0,0,False
281,Ketum Trader@G4R0U,@ethereumproject @VitalikButerin i can see bright future in #eth,0,0,0,False
282,Hadi NG@Hegie_bae,Free #Ethereum every 5 minutes https://cryptosource.net/free-ethereum/?r=bxRDEZYX2q… #Ethereum via @CryptoSourceHQ,0,0,0,False
283,GLOBAL MARKETING 786@mdreyad492,Free Ethereum every 5 minutes http://etherfaucet.net/?r=0x77eD85e2DA273a754AD05A19d9c5031f64F55540… #ethereum via @FreeCryptoCo,0,0,0,False
284,Bitcoin Brasil@BitcoinBr10,Ethereum Price Technical Analysis – 100 SMA Presents Challenge http://bitcoinbrasil10.blogspot.com.br/2016/10/ethereum-preco-analise-tecnica-100-sma.html… #Bitcoin #blockchain #ethereum #trading #altcoin #btc,2,0,0,False
286,Coinstats@coinstats,"Ethereum Classic - ETC
Price: $1.03365
Change in 1h: +-0.23%
Market cap: $87955436.0
Ranking: 5
#Ethereum Classic #ETC",0,0,0,False
287,Coinstats@coinstats,"Ethereum - ETH
Price: $12.1052
Change in 1h: +0.01%
Market cap: $1031241814.0
Ranking: 2
#Ethereum #ETH",0,0,0,False
288,Ethereum Price@EthereumPrice_,"#Ethereum: Ether Price Index
1 ETH =0.019181Ƀ XBT = $12.116000 USD
Today: -0.08%⬇︎ Last 24h: -0.38%⬇︎
https://ethereum-price.com",0,0,0,False
289,Olivier Chapiteau@o_chapiteau,"21Oct2016 12:00 UTC #Ether #Blockchain status - Block height @ 2,480,841 - 24,967 unconfirmed tr. - Last fork height @ 2,480,818",0,0,0,False
290,Olivier Chapiteau@o_chapiteau,21Oct2016 12:00 UTC #Ethereum live spots - #Ether @ 12.08906 $ - #EtherClassic @ 1.03234 $,0,0,0,False
291,EIT Alumni@EITalumni,Chance to win 15000EUR in #Bitcoin or #Ether. Check out @StartUscc and http://bit.ly/2azJVQm for more information,1,2,0,False
292,Bitcoin Brasil@BitcoinBr10,Ethereum Classic Price Technical Analysis – ETC Remains Supported 21/10/2016 http://bitcoinbrasil10.blogspot.com.br/2016/10/ethereum-classic-preco-analise-tecnica.html… #Bitcoin #blockchain #ethereum #trading,2,0,0,False
293,"Vincent Pignon, Ph.D@VincentPignon",#nipconf #blockchain #ethereum benefits #immutability #corruptionproof,1,2,0,False
296,Alberto Jauregui | esoteRICK.eth @DisruptBanksy,http://ift.tt/2eA37KK Ethereum Classic Price Technical Analysis – ETC Remains Supported - newsBTC #ethereum #ether,0,0,0,False
298,Dogs of the Season@DogsOfTheSeason,"It's time to buy #ether as part of DOTS+C strategy. Purchase price: $12.01. DOTS+C portfolio is now 85% cash, 12% #bitcoin and 3% ether.",0,0,0,False
299,ULTRLOA crypto@UltrloaCrypto,Vdice Crowdsale is Live lets gather and support their Crowdfunding! #vDice #crowdsale #ico #ethereum #ether #BitcoinUnlimited,0,0,0,False
300,Coinstats@coinstats,"Ethereum Classic - ETC
Price: $1.03682
Change in 1h: +0.04%
Market cap: $88223881.0
Ranking: 5
#Ethereum Classic #ETC",0,0,0,False
301,Coinstats@coinstats,"Ethereum - ETH
Price: $12.1281
Change in 1h: +0.34%
Market cap: $1033177050.0
Ranking: 2
#Ethereum #ETH",0,0,0,False
302,/r/Ethereum@r_Ethereum,Acronis : I've Just Notarized a presentation of Devcon2 with Ethereum blockchain http://bit.ly/2esfNVs #Ethereum,0,0,0,False
303,/r/Ethereum@r_Ethereum,Does MyEtherWallet work with testnet? http://bit.ly/2esgYnY #Ethereum,0,0,0,False
304,Ethereum Italia@ethereumita,First Enterprise Solution for Documents Notarization on (Ethereum !) blockchain #ethereum #blokchain #timestamping http://ow.ly/RUJG305oN8B,6,5,1,False
305,⟠ shakedog ⟠@shakedog,"Acronis, the first data protection co. to use data notorization on the blockchain with Ethereum http://acronis.com/en-us/pr/2016/10/20-14-39.html… #ethereum #acronis",0,0,0,False
306,AltcoinLive bot@AltcoinLiveBot,removed $ETH sellwall 12.1btc @ 0.01931066 http://altcoinlive.com/bittrex-eth-btc #altcoinlive,0,0,0,False
307,AltcoinLive bot@AltcoinLiveBot,new $ETH sellwall 12.1btc @ 0.01931066 http://altcoinlive.com/bittrex-eth-btc #altcoinlive,0,0,0,False
310,AltcoinLive bot@AltcoinLiveBot,removed $ETH buywall 10.1btc @ 0.01903056 http://altcoinlive.com/bittrex-eth-btc #altcoinlive,0,0,0,False
311,AltcoinLive bot@AltcoinLiveBot,new $ETH buywall 10.1btc @ 0.01903056 http://altcoinlive.com/bittrex-eth-btc #altcoinlive,0,0,0,False
312,AltcoinLive bot@AltcoinLiveBot,removed $ETH buywall 10.2btc @ 0.01903006 http://altcoinlive.com/bittrex-eth-btc #altcoinlive,0,0,0,False
313,AltcoinLive bot@AltcoinLiveBot,new $ETH buywall 10.1btc @ 0.01902821 http://altcoinlive.com/bittrex-eth-btc #altcoinlive,0,0,0,False
314,AltcoinLive bot@AltcoinLiveBot,removed $ETH buywall 10.2btc @ 0.01902772 http://altcoinlive.com/bittrex-eth-btc #altcoinlive,0,0,0,False
315,AltcoinLive bot@AltcoinLiveBot,updated $ETH buywall 10.1btc @ 0.01902742 http://altcoinlive.com/bittrex-eth-btc #altcoinlive (change 0.00000025),0,0,0,False
316,AltcoinLive bot@AltcoinLiveBot,new $ETH buywall 10.1btc @ 0.01902689 http://altcoinlive.com/bittrex-eth-btc #altcoinlive,0,0,0,False
317,AltcoinLive bot@AltcoinLiveBot,removed $ETH buywall 10.1btc @ 0.01902462 http://altcoinlive.com/bittrex-eth-btc #altcoinlive,0,0,0,False
318,AltcoinLive bot@AltcoinLiveBot,updated $ETH buywall 10.1btc @ 0.01902462 http://altcoinlive.com/bittrex-eth-btc #altcoinlive (change 0.00000025),0,0,0,False
319,AltcoinLive bot@AltcoinLiveBot,new $ETH buywall 12.5btc @ 0.01902437 http://altcoinlive.com/bittrex-eth-btc #altcoinlive,0,0,0,False
320,Crypto Trader Pro @CryptoTraderPro,#Ethereum Classic Price Technical Analysis – #ETC Remains Supported. #SimpleFX #fun_fact  http://dlvr.it/MVSKJ0,0,0,0,False
321,Coinstats@coinstats,"Ethereum Classic - ETC
Price: $1.03614
Change in 1h: +-0.04%
Market cap: $88164711.0
Ranking: 5
#Ethereum Classic #ETC",0,0,0,False
327,Bobe'bot@Bobe_bot,"1 #BTC = 644.2337 #CHF
1 #ETH = 12.6051 #CHF
1 #DOGE = 0.000220816496 #CHF
sources: @cryptonatorcom @hellobity",0,0,0,False
328,Coinstats@coinstats,"Ethereum - ETH
Price: $12.0559
Change in 1h: +-0.11%
Market cap: $1027010337.0
Ranking: 2
#Ethereum #ETH",0,0,0,False
329,NEWSBTC@newsbtc,#Ethereum Classic Price Technical Analysis – #ETC Remains Supported.  #SimpleFX #fun_fact https://goo.gl/LGMGx6,2,0,0,False
330,/r/Ethereum@r_Ethereum,"Vitalik:""We are delighted to work with Acronis and look forward to developing the Ethereum ecosyste... http://bit.ly/2erVGXG #Ethereum",1,0,0,False
331,/r/Ethereum@r_Ethereum,Any folks from TU Darmstadt or surrounding? http://bit.ly/2erUZgS #Ethereum,1,0,0,False
333,MedosAdvert@medosadvert,Hi @HeidiHotchkiss1 get  biggest #business of 2016 http://medosadvert.com/go/coinomia/ #Mining #BitCoins #Ethereum via https://Statusbrew.com/?r=wl,0,0,0,False
334,MedosAdvert@medosadvert,Hi @sevenatomsbuzz get  biggest #business of 2016 http://medosadvert.com/go/coinomia/ #Mining #BitCoins #Ethereum via https://Statusbrew.com/?r=wl,0,0,0,False
336,Crypto Trader Pro @CryptoTraderPro,#Endorphina Game Pays Over 150 #BTC at #mBit #Casino! #ethereum #cfd #indices #bitcoin #commodities… http://dlvr.it/MVRfj5,0,0,0,False
338,NEWSBTC@newsbtc,#Endorphina Game Pays Over 150 #BTC at #mBit #Casino! #ethereum #cfd #indices #bitcoin #commodities http://bit.ly/2epnHQp,0,0,0,False
339,Blockgeeks@Blockgks,Can someone explain to me what is Ethereum in laymen's term? http://dld.bz/eWbfN #ethereum #blockchain,2,2,1,False
340,Coinstats@coinstats,"Ethereum Classic - ETC
Price: $1.03677
Change in 1h: +-0.6%
Market cap: $88216950.0
Ranking: 5
#Ethereum Classic #ETC",0,0,0,False
341,Coinstats@coinstats,"Ethereum - ETH
Price: $12.0551
Change in 1h: +-0.11%
Market cap: $1026925598.0
Ranking: 2
#Ethereum #ETH",0,0,0,False
342,Ethereum Price@EthereumPrice_,"#Ethereum: Ether Price Index
1 ETH =0.019197Ƀ XBT = $12.119500 USD
Today: +0.01%⬆︎ Last 24h: +0.57%⬆︎
https://ethereum-price.com",0,0,0,False
344,cash Card CRYPTO ⟠@CashCardCrypto,"Replying to @joepinaire and @RaoulGMI@paul_btc ...BUY #BITCOIN (and #ethereum!)
@ethereumproject @GeorgeAHallam",0,0,0,False
345,AltcoinLive bot@AltcoinLiveBot,removed $ETH buywall 12.7btc @ 0.01900971 http://altcoinlive.com/bittrex-eth-btc #altcoinlive,0,0,0,False
346,AltcoinLive bot@AltcoinLiveBot,new $ETH buywall 12.7btc @ 0.01900971 http://altcoinlive.com/bittrex-eth-btc #altcoinlive,0,0,0,False
347,AltcoinLive bot@AltcoinLiveBot,removed $ETH buywall 13.4btc @ 0.01900871 http://altcoinlive.com/bittrex-eth-btc #altcoinlive,0,0,0,False
348,Decebal Flos@ddflos,"#Ethereum Forks But #Blockchain Attacks Keep On Coming
http://coindesk.com/ethereum-forks-blockchain-attacks-keep-coming/…",0,0,0,False
349,AltcoinLive bot@AltcoinLiveBot,updated $ETH buywall 13.4btc @ 0.01900871 http://altcoinlive.com/bittrex-eth-btc #altcoinlive (change 0.00000028),0,0,0,False
350,Digiconomist@DigiEconomist,"Not so much. #ETH has a bigger ATK surface than #BTC, but it's not infinite. ATKs are already less effective. ETH winning",0,0,0,False
351,AltcoinLive bot@AltcoinLiveBot,updated $ETH buywall 12.6btc @ 0.01900843 http://altcoinlive.com/bittrex-eth-btc #altcoinlive (change 0.00000024),0,0,0,False
352,AltcoinLive bot@AltcoinLiveBot,new $ETH buywall 12.7btc @ 0.01900819 http://altcoinlive.com/bittrex-eth-btc #altcoinlive,0,0,0,False
353,AltcoinLive bot@AltcoinLiveBot,removed $ETH buywall 12.6btc @ 0.01900711 http://altcoinlive.com/bittrex-eth-btc #altcoinlive,0,0,0,False
354,AltcoinLive bot@AltcoinLiveBot,new $ETH buywall 12.6btc @ 0.01900711 http://altcoinlive.com/bittrex-eth-btc #altcoinlive,0,0,0,False
355,Bitcoin Updater@BitcoinUpdater,Ethereum Price Weekly Analysis: Big Positive Move Correcting a Little #ethereum http://soco.space/YmAPOk,0,0,0,False
356,AltcoinLive bot@AltcoinLiveBot,removed $ETH buywall 10.8btc @ 0.01900493 http://altcoinlive.com/bittrex-eth-btc #altcoinlive,0,0,0,False
357,Vladimir Budejicky@budejicky,#CoinDesk #Ethereum #Forks But #Blockchain Attacks Keep On Coming | #VentureCanvas http://venturecanvas.com/2016/10/20/coindesk-ethereum-forks-but-blockchain-attacks-keep-on-coming/?utm_campaign=crowdfire&utm_content=crowdfire&utm_medium=social&utm_source=twitter…,0,0,0,False
358,AltcoinLive bot@AltcoinLiveBot,new $ETH buywall 10.8btc @ 0.01900493 http://altcoinlive.com/bittrex-eth-btc #altcoinlive,0,0,0,False
359,Ameer Rosic@AmeerRosic,Is #Youtube in Trouble? #Blockchain is coming! http://bit.ly/1tgKTVz #ethereum #bitcoin,0,0,0,False
360,Ethereum Monkey@EthMonkey,Ethereum Classic Price Technical Analysis - ETC Remains Supported - NEWSBTC #ethereum http://newsbtc.com/2016/10/21/ethereum-classic-price-technical-analysis-etc-remains-supported-2/…,1,0,0,False
362,Brave New Coin@bravenewcoin,#Ethereum Price: USD $12.12 #ETH http://ow.ly/6UKf3048WBe,1,0,0,False
363,Faith Emmanuel@residualbitcoin,#ethereum Classic Price Technical Analysis  ETC Remains Supported - NEWSBTC #bitcoin #ETC http://bitcoinagile.com/8D8222/ethereum-classic-price-technical-analysis-etc-remains-supported-newsbtc_stream… …,0,0,0,False
364,BitcoinAgile@bitcoinagile,#ethereum Classic Price Technical Analysis  ETC Remains Supported - NEWSBTC #bitcoin #ETC http://bitcoinagile.com/8D8222/ethereum-classic-price-technical-analysis-etc-remains-supported-newsbtc_stream…,0,0,0,False
365,Coinstats@coinstats,"Ethereum Classic - ETC
Price: $1.04311
Change in 1h: +-0.3%
Market cap: $88755056.0
Ranking: 5
#Ethereum Classic #ETC",0,0,0,False
366,Coinstats@coinstats,"Ethereum - ETH
Price: $12.053
Change in 1h: +-0.32%
Market cap: $1026731223.0
Ranking: 2
#Ethereum #ETH",0,0,0,False
367,Ethereum SE@StackEthereum,Deploy contract hangs in Mist http://ethereum.stackexchange.com/questions/9484/deploy-contract-hangs-in-mist… #ethereum #mist,0,0,0,False
368,Ethereum SE@StackEthereum,"Headers, receipts, state entries, processed and pending. Could someone please explain geth --fast output http://ethereum.stackexchange.com/questions/9485/headers-receipts-state-entries-processed-and-pending-could-someone-please-ex… #ethereum",0,0,0,False
369,AltcoinLive bot@AltcoinLiveBot,removed $ETH sellwall 20.1btc @ 0.01970100 http://altcoinlive.com/bittrex-eth-btc #altcoinlive,0,0,0,False
370,Ameer Rosic@AmeerRosic,Could #Blockchain Technology Bankrupt #Spotify? http://bit.ly/1tgKTVz #ethereum #bitcoin,0,0,0,False
371,AltcoinLive bot@AltcoinLiveBot,new $ETH sellwall 20.1btc @ 0.01970100 http://altcoinlive.com/bittrex-eth-btc #altcoinlive,0,0,0,False
372,ExploreTraveler@exploretravel1,"RT @StackEthereum: Comparing Parity, geth, cpp-ethereum, pyethapp http://lnkplg.co/R6QaX #ethereum #clients",0,0,0,False
373,/r/Ethereum@r_Ethereum,Vitalik comment regarding the reality of these recent attacks and the subsequent hardforks. http://bit.ly/2ezZKF1 #Ethereum,0,0,0,False
375,Bitcoin Updater@BitcoinUpdater,Microsoft boosts blockchain efforts with Ethereum-based Project Bletchley #ethereum http://soco.space/InZpKk,1,0,0,False
377,Ethereum SE@StackEthereum,"Comparing Parity, geth, cpp-ethereum, pyethapp http://ethereum.stackexchange.com/questions/9483/comparing-parity-geth-cpp-ethereum-pyethapp… #ethereum #clients",1,0,0,False
378,Crypto Trader Pro @CryptoTraderPro,#Ethereum Price Technical Analysis – 100 #SMA Presents #Challenge. #SimpleFX #forex #forextrading… http://dlvr.it/MVPslr,0,0,0,False
379,ExploreTraveler@exploretravel1,"RT @ethoverflow: Comparing Parity, geth, cpp-ethereum, pyethapp http://lnkplg.co/kz7jn #ethereum #stackexchange",0,0,0,False
380,MeeseeksBTC@Meeseeks100BTC,"RT Start mining $ETH or $BTC together with people from all over the world.

https://goo.gl/tYClLG",0,0,0,False
381,NEWSBTC@newsbtc,#Ethereum Price Technical Analysis – 100 #SMA Presents #Challenge. #SimpleFX #forex #forextrading http://bit.ly/2ezfV3V,0,0,0,False
382,Coinstats@coinstats,"Ethereum Classic - ETC
Price: $1.04788
Change in 1h: +-0.43%
Market cap: $89159621.0
Ranking: 5
#Ethereum Classic #ETC",0,0,0,False
383,Coinstats@coinstats,"Ethereum - ETH
Price: $12.0737
Change in 1h: +-0.2%
Market cap: $1028479170.0
Ranking: 2
#Ethereum #ETH",0,0,0,False
384,amar@amar_mca,China Pushes for Blockchain Cooperation With New Research Report http://bit.ly/2enDhyI #CoinDesk #blockchain #bitcoin #ethereum,3,0,0,False
386,Yosef (Booree) Hamba Tola@HambaJht,"Thank God for I was born, but I regret for I was born under brutal regime which is very painful for me & my Ppl. #OromoRevolution @hrw #ETH",1,0,0,False
387,/r/Augur@AugurFeed,#reddit How to send augur from jaxx? http://bit.ly/2eMWXMc #ethereum #augurHow to send augur from jaxx?So I bought some REP in jaxx through shapeshift. I was curious how jaxx handles paying for gas when I send it somewhere. It appears the augur is...reddit.com,1,0,0,False
388,CoinGecko@coingecko,The latest Ethereum price is USD 12.03. For historical #Ethereum price charts - http://buff.ly/2ezbV3v,1,0,0,False
389,Bitcoin Updater@BitcoinUpdater,Gavin Andressen: Ethereum to replace bitcoin #ethereum http://soco.space/jbvsIy,1,0,0,False
390,Ξ Fly Guy Ξ (flyguy.eth)@FlyGuyInTheSky,Replying to @cryptbuzzForget about SMA etc...what about the external factors... the continuous attacks...there's the real key to price moves #ethereum,0,0,0,False
391,Silicon Talent@silicontalent,Another #hardfork to stop #DoS attacks #ethereum #blockchain #DAO http://coindesk.com/ethereum-forks-blockchain-attacks-keep-coming/…,0,0,0,False
392,Coinstats@coinstats,"Ethereum Classic - ETC
Price: $1.05178
Change in 1h: +-0.56%
Market cap: $89490007.0
Ranking: 5
#Ethereum Classic #ETC",0,0,0,False
393,Coinstats@coinstats,"Ethereum - ETH
Price: $12.1109
Change in 1h: +0.07%
Market cap: $1031632363.0
Ranking: 2
#Ethereum #ETH",0,0,0,False
394,Ethereum Price@EthereumPrice_,"#Ethereum: Ether Price Index
1 ETH =0.019181Ƀ XBT = $12.144600 USD
Today: -0.08%⬇︎ Last 24h: +0.60%⬆︎
https://ethereum-price.com",0,0,0,False
395,Olivier Chapiteau@o_chapiteau,"21Oct2016 06:00 UTC #Ether #Blockchain status - Block height @ 2,479,356 - 22,474 unconfirmed tr. - Last fork height @ 2,479,331",2,0,0,False
396,Olivier Chapiteau@o_chapiteau,21Oct2016 06:00 UTC #Ethereum live spots - #Ether @ 12.09473 $ - #EtherClassic @ 1.04905 $,1,1,0,False
397,Lil Emin@eI33th4x0r,Replying to @Steven_McKie@LilButerin @coinbase pump monthly forked $eth what else! ,0,0,0,False
399,Ethereum SE@StackEthereum,Different return value Truffle & online compiler http://ethereum.stackexchange.com/questions/9481/different-return-value-truffle-online-compiler… #ethereum #solidity #contractinvocation #truffle #browsersolidity,0,0,0,False
402,Alberto Jauregui | esoteRICK.eth @DisruptBanksy,http://ift.tt/2ez3KUX Ethereum Price Technical Analysis – 100 SMA Presents Challenge - newsBTC #ethereum #ether,1,0,0,False
403,CryptoNewswire @CryptoNewswire,Ethereum Price Technical Analysis 100 SMA Presents Challenge - http://newsbtc.com/2016/10/21/ethereum-price-technical-analysis-100-sma-presents-challenge/… $ETH #crypto #news #fintech,0,0,0,False
404,Ethereum SE@StackEthereum,Different return value Truffle & online compiler http://ethereum.stackexchange.com/questions/9481/different-return-value-truffle-online-compiler… #ethereum #solidity #truffle,0,0,0,False
405,AltcoinLive bot@AltcoinLiveBot,removed $ETH sellwall 12.3btc @ 0.01932099 http://altcoinlive.com/bittrex-eth-btc #altcoinlive,0,0,0,False
406,AltcoinLive bot@AltcoinLiveBot,new $ETH sellwall 12.3btc @ 0.01932099 http://altcoinlive.com/bittrex-eth-btc #altcoinlive,0,0,0,False
408,Ethereum Monkey@EthMonkey,Ethereum Price Technical Analysis - 100 SMA Presents Challenge - NEWSBTC #ethereum http://newsbtc.com/2016/10/21/ethereum-price-technical-analysis-100-sma-presents-challenge/…,0,0,0,False
409,Faith Emmanuel@residualbitcoin,#ethereum Price Technical Analysis  100 SMA Presents Challenge - NEWSBTC #Bitcoin #BTCNews http://newsbtc.com/2016/10/21/ethereum-price-technical-analysis-100-sma-presents-challenge… …,0,0,0,False
410,Christian Seberino@c_seberino,"Gavin Andresen Explains the Main Roadblock to Massive Bitcoin Adoption http://buff.ly/2dCZqpQ #etc #eth #ethereumclassic #ethereumGavin Andresen Explains the Roadblocks to Bitcoin AdoptionAfter a bit of a break from the Bitcoin world, former Bitcoin Core lead…coinjournal.net",1,0,0,False
411,Blockgeeks@Blockgks,Welcome to Fortune's 2016 40 Under 40 http://dld.bz/eWbaX #ethereum #blockchain #business,0,0,0,False
412,BitcoinAgile@bitcoinagile,#ethereum Price Technical Analysis  100 SMA Presents Challenge - NEWSBTC #Bitcoin #BTCNews http://newsbtc.com/2016/10/21/ethereum-price-technical-analysis-100-sma-presents-challenge…,1,1,0,False
413,Coinstats@coinstats,"Ethereum Classic - ETC
Price: $1.0593
Change in 1h: +0.14%
Market cap: $90128516.0
Ranking: 5
#Ethereum Classic #ETC",0,0,0,False
414,Coinstats@coinstats,"Ethereum - ETH
Price: $12.1285
Change in 1h: +-0.05%
Market cap: $1033115987.0
Ranking: 2
#Ethereum #ETH",0,0,0,False
415,Ethereum SE@StackEthereum,Different return value Truffle & Online-compiler http://ethereum.stackexchange.com/questions/9481/different-return-value-truffle-online-compiler… #ethereum #solidity #truffle,1,0,0,False
416,⛧ God of Gaming ⛧@TheGodofGamez,Decision is a risk rooted in the courage of being free. $ETH,0,0,0,False
417,Richard Liriano@rliriano,"Status is an #ethereum mobile client! https://status.im/?mwr=1219-ddcb6666&mws=twitter… @ethstatus can't wait! Status - Private, Secure CommunicationStatus brings the power of Ethereum into your pocket by combining a messenger, crypto-wallet, and Web3 browser.status.im",1,0,0,False
418,Brave New Coin@bravenewcoin,#Ethereum Price: USD $12.17 #ETH http://ow.ly/6UKf3048WBe,1,0,0,False
419,Crypto Trader Pro @CryptoTraderPro,#OpenBazaar Releases its Latest Feature Rich #Update. #investing #bitcoin #bitcoins #ethereum #cfd… http://dlvr.it/MVMpZ7,0,0,0,False
420,Coinstats@coinstats,"Ethereum Classic - ETC
Price: $1.05861
Change in 1h: +0.74%
Market cap: $90068363.0
Ranking: 5
#Ethereum Classic #ETC",0,0,0,False
421,Bobe'bot@Bobe_bot,"1 #BTC = 644.7455 #CHF
1 #ETH = 12.6926 #CHF
1 #DOGE = 0.000220794792 #CHF
sources: @cryptonatorcom @hellobity",0,0,0,False
422,Coinstats@coinstats,"Ethereum - ETH
Price: $12.1485
Change in 1h: +0.28%
Market cap: $1034802811.0
Ranking: 2
#Ethereum #ETH",0,0,0,False
423,BitcoinBuzz vega9@BitcoinBuzzV9,http://bitcoinbuzz.vega9.com - Hot topics: #bitcoin #blockchain #btc #fintech #documentary #ethereum,0,0,0,False
