,user,text,likes,retweets,replies,is_thread
0,BlockCDN@BlockCDN,How to join the BlockCDN ICO in 24 hours time! https://medium.com/@BlockCDN/blockcdn-an-investors-guide-702da2c72093#.aqsoup8ia… #ethereum #distributed #trading #platform #startup #cryptocurrency,245,187,2,False
1,Blockchain Jobs@blockchainjobs_,"Who is hiring in the #blockchain sector? http://computerworlduk.com/applications/how-get-job-as-blockchain-developer-3640764/…
#bitcoin #fintech #ethereum #engineering #Techjobs
https://blockchainjobs.co",2,0,0,False
2,ANGELL@ANGELL79226514,Chances to win up to 150K ARK just for Tweeting! Hook me UP! http://bit.ly/2gkXtRM #btc #lisk #ARK $ARK #crypto #eth #bitcoin,3,4,0,False
3,BlockCDN@BlockCDN,ONE DAY TO GO - to BlockCDN ICO. Get early bird rewards http://blockcdn.org #ethereum #cryptocurrency #zcash #mining #software #startup,33,246,0,False
4,Spotlights3.0@Spotlights3_0,"Bitnation Releases Marriage App, Smart Love, on #Ethereum #Blockchain https://cointelegraph.com/news/bitnation-releases-marriage-app-smart-love-on-ethereum-blockchain… @MyBitNationBitnation Releases Marriage App, Smart Love, on Ethereum BlockchainSusanne Tarkowski Tempelhof, CEO and Founder of Bitnation, about a new application on the Ethereum Blockchain called Smart Love that allows anyone anywhere in the world to get married without the...cointelegraph.com",2,2,0,False
5,Colbert Low@sirxl,@VitalikButerin rocking #kualalumpur on 5 DEC 2016. welcome! #malaysia #blockchain #ethereum,1,0,0,False
6,Branche@DESbranche,Thanks for following us @BCMGiordani and @TheRealAndyPaz ! #fintech #blockchain #bitcoin #ethereum #DisruptiveInnovation #Entreprenuership,1,0,0,False
7,EUROPECOIN  (.eu.org)@europecoinEUORG," “Federated Internet of Coins” #IoT
#EUROPECOIN $ERC
#ethereum features 4all #ALTCOINS #fintech #crypto #bittrexEUROPECOIN  (.eu.org)@europecoinEUORGFederated Internet of Coins",15,15,2,False
8,NOT SATOSHI@cryptocointalk,#Ethereum's Latest Hard Fork Shows It Has A Very Long Way To Go via @forbes http://forbes.com/sites/francescoppola/2016/11/26/ethereums-latest-hard-fork-shows-it-has-a-very-long-way-to-go/#97e94ed275b6… $ETH #finance #fintech,2,0,0,False
9,Chrono.tech@ChronotechNews,# Frequently Asked Questions about ChronoBank https://blog.chronobank.io/chronobank-io-faq-4b920f003640#.pxuvdvwjk… #blockchain #ethereum #startup #bitcoin,30,26,1,False
10,ipfconline@ipfconline1,[video] #Blockchain Keynote at @CloudExpo | #IoT #M2M #Bitcoin #Ethereum | @ThingsExpo http://buff.ly/2dMUvDg,26,30,0,False
11,うどん@udon_crypto,"NO FORK NO ETHEREUM

#Ethereum",10,7,0,False
12,Ethereum Price@EthereumPrice_,"#Ethereum: Ether Price Index
1 ETH =0.012683Ƀ XBT = $9.313100 USD
Today: -0.16%⬇︎ Last 24h: -2.25%⬇︎
https://ethereum-price.com",2,0,0,False
13,Math Boost@MathFlashcards,ChronoBank Development Plan http://activevoice.us/article.jsp?name=chronobankdevelopmentplan&t=Math… #RT #blockchain #bitcoin #ethereum #wavesplatform #fintech #appcoin,5,4,0,False
14,Chrono.tech@ChronotechNews,#RT ChronoBank is creating a global blockchain-based labour exchange http://ibtimes.co.uk/chronobank-creating-global-blockchain-based-labour-exchange-1592019… #blockchain #ethereum,23,21,0,False
15,Tone Vays (#EndLockdowns)@ToneVays,1/3: #Ethereum ($ETH) might finally be on its way to join fellow #Altcoin future's that crossed the $1B MCap. #Bitcoin again stands alone.,52,30,3,False
16,Avarice@5_Avarice,#RT ChronoBank. Whitepaper. http://ln.is/mbnRB #blockchain #bitcoin #ethereum #fintech #startup #NEM... by #VipsTip via @c0nveyChronobankNews: whitepaper.pdfCHRONOBANK - PHASE 1: A NON-VOLATILE DIGITAL TOKEN BACKED BY LABOUR-HOURS THE CHRONOBANK TEAM CHRONOBANK.IO INFO@CHRONOBANK.IO Abstract. This whitepaper abstractly describes a system designed to t...publizr.com,1,0,0,False
17,Vindyne8@Vindyne8,Join #PassLfix #PASSDao @PassLfix on #Slack http://tranquil-dusk-65949.herokuapp.com Come join the discussion! #parcel #revolution #ethereum #smartcontracts,17,17,0,False
18,Cointelegraph@Cointelegraph,"#Ethereum Issues #Security Alert After Fork, #Transactions May Be Reverted https://cointelegraph.com/news/ethereum-issues-security-alert-after-fork-transactions-may-be-reverted… By @olusegunisraelEthereum Issues Security Alert After Fork, Transactions May Be RevertedGeth's implementation of EIP161 was flawed during the hard fork, Gavin Wood doubts that Ethereum will be switching to PoS on the prescribed schedule of Feb 2017.cointelegraph.com",19,24,0,False
19,FailCommunity@FAILCommunity,#Ethereum developers are handling a bug.  #FAILfun $eth #eth #cryptocurrency #altcoins #fintech #security #geth,9,4,1,False
20,ŻET Technologies@ZET_Tech,"I am pleased to announce our new #mining #rig. 
Like it?
Speeds
360 H/s #ZCASH @zcashco 
60 Mh/s #ETHEREUM @eth_classic @ethereumproject",2,2,0,False
21,Math Boost@MathFlashcards,ChronobankNews: whitepaper.pdf http://activevoice.us/article.jsp?name=chronobanknewswhitepaperpdf&t=Math… #RT #blockchain #bitcoin #ethereum #fintech #startup #NEM,4,1,0,False
22,Bitmarck@MARch1ll,Chances to win up to 150K ARK just for Tweeting! Hook me UP! http://bit.ly/2gkXtRM #btc #lisk #ARK $ARK #crypto #eth #bitcoin,2,0,0,False
23,Alex.eth@AlexanderFisher,"Reusable, secure smart contracts in Solidity for #Ethereum: Zeppelin v1.0.0 – Zeppelin http://buff.ly/2fC5uQN",1,2,0,False
24,Leonardo [no ProgPow]@LeonPedretti,ETC seems dead #ethereum #blockchain #itoldyou,2,1,0,False
25,Spartak Tomanov@bulgar1an,"I think that the #Ethereum price will continue to drop, despite these ~2 months of decline (both price & trade volume). #ETH $ETH #fintech",2,2,0,False
26,Antonio Selas@AntonioSelas,"#Ethereum's still too unstable to be used as a major settlement currency and payment method

#payments #blockchainEthereum's Latest Hard Fork Shows It Has A Very Long Way To GoPoor Ethereum. As if it didn’t have enough troubles already. Earlier this year, it hard forked to rescue the DAO, only to suffer the ignominy of seeing miners continue to mine the old chain in...forbes.com",6,8,0,False
27,Sinz @Sinzfeldt,"$ETC attempt #3 failed again to break the bear trend, next target sub 100k sats. #ethereum",2,1,0,False
28,(((Frances Schadenfreude Coppola))) @Frances_Coppola,"Ethereum's latest hard fork shows it has a very long way to go: http://forbes.com/sites/francescoppola/2016/11/26/ethereums-latest-hard-fork-shows-it-has-a-very-long-way-to-go/#5ddcd25e275b… #Ethereum #cryptocurrency @izakaminskaEthereum's Latest Hard Fork Shows It Has A Very Long Way To GoPoor Ethereum. As if it didn’t have enough troubles already. Earlier this year, it hard forked to rescue the DAO, only to suffer the ignominy of seeing miners continue to mine the old chain in...forbes.com",8,6,0,False
29,Fintech news@currencies111,"Ethereum Platform Receives a New Geth Update after Consensus Flaw
http://bit.ly/2grTcYG
#ethereum #altcoin #cryptocurrency #cryptoEthereum Platform Receives a New Geth Update after Consensus FlawThe Ethereum platform has released an updated version of Geth client to rectify the consensus error. Read more...newsbtc.com",1,1,0,False
30,Christian Seberino@c_seberino,Andreas Antonopuolos: The dangers of hard forks in protocol evolution http://buff.ly/2fKfm8t #etc #eth #ethereumclassic #ethereum,5,3,0,False
31,Екатерина Слюсарь@slusare061,Chances to win up to 150K ARK just for Tweeting! Hook me UP! http://bit.ly/2gkXtRM #btc #lisk #ARK $ARK #crypto #eth #bitcoin,1,2,0,False
32,Vindyne8@Vindyne8,Indian Finance Minister Tells Banks to Promote Digital Banking https://cryptocoinsnews.com/indian-finance-minister-tells-banks-promote-digital-banking/… #btc #eth #zec #crypto #blockchain @CryptoCoinsNews,15,15,0,False
33,Provable@provablethings,Join us @ the http://dapphack.org #ethereum hackathon in #Berlin today! We'll be around to spread the word ~ oracles and.. to have fun:),3,2,0,False
34,(┌ﾟдﾟ)┌ [HODL]@j32804,Streaming LIVE from #DAppHack https://youtube.com/watch?v=jluJ0NSTYZQ… #Java library to work with #smartcontracts from JVM #ethereum #blockchainJava library for smart contracts - DAppHack Berlin 2016David Roonhttps://github.com/adridadouAdjy Leak Bitcoin Address: 1Nafr1ZvFQpNPqRZaGQJfnNFaVwznDa7RWyoutube.com,3,4,1,False
35,ETHNews@ETHNews_,"#Blockchains are Changing the #Food Industry
#ethereum
http://ow.ly/5uyW306tvm7",2,3,1,False
36,Blockgeeks@Blockgks,It's coming! The #Blockchain Technology That Will Replace Lawyers http://dld.bz/eYNat #ethereum,3,6,0,False
37,CoinspaceIO@CoinspaceIO,Come this Monday to learn how to register yourname.eth on ENS #ethereum name service https://meetup.com/Coinspace-HQ/events/235460453/… @ethereumproject #blockchain,7,4,0,False
38,João Paulo Gomes (#NOFEAR)@BTCtradePt,Poor #Ethereum As if it didn’t have enough troubles already. Hard forked fix DAO miners continue to mine ETC and now http://forbes.com/sites/francescoppola/2016/11/26/ethereums-latest-hard-fork-shows-it-has-a-very-long-way-to-go/…,0,0,0,False
39,Lefteris Karapetsas@LefterisJP,Finally found some time on the train and solved it! Those who were at #ethereum #devcon2 will understand.,31,8,2,False
40,Bitcoin Updater@BitcoinUpdater,Symbiont’s Enterprise-Grade Blockchain Release; Prioritizes Flexibility #ethereum http://soco.space/Lj8p_K,1,1,0,False
41,Lefteris Karapetsas@LefterisJP,Yesterday at #raiden we made PoC-1 our first in a series of weekly releases towards the Raiden MVP. #ethereumRelease PoC-1 · raiden-network/raidenPoC - 1 This is the first of a series of weekly raiden releases leading up to our MVP release. Changes since last Release We now don't panick with repeated out-of-order messages in a channel #...github.com,19,13,1,False
42,CryptKeeper@CryptKeeperBTT,#Ethereum Platform Receives a New Geth Update after Consensus Flaw #ether $ETHEthereum Platform Receives a New Geth Update after Consensus FlawThe Ethereum platform has released an updated version of Geth client to rectify the consensus error. Read more...newsbtc.com,1,1,0,False
43,EUROPECOIN  (.eu.org)@europecoinEUORG,"NEWBIE ANSWER 

-> WHAT is @federatedchains & @InternetOfCoins TECHNOLOGY? <-
https://goo.gl/uTTWKT
#iot #eth $ERC #fintech #EUROPECOINGIF",23,21,1,False
44,ETC Australia@EthereumAU,Week after week people see that #ethereum is slowly becoming a testnet for @EthereumClassic @eth_classic $ETH $ETC,2,2,0,False
45,Bitcoin Updater@BitcoinUpdater,LEOcoin Value Increases Tenfold Amid Mobile App Release and China Trip #ethereum http://soco.space/EL9lxJ,1,0,0,False
46,Emin Gün Sirer@el33th4xor,I'm bemusedly watching the Bitcoin community discuss Rube Goldberg schemes for scaling by 2x when Bitcoin-NG can deliver 10-100x.,46,12,10,False
47,@rm0rf@rm0rf,You have some nut sack talking about Rube Goldberg machines while working on/promoting #Ethereum #Eth,5,1,0,False
48,The Dollar Vigilante@DollarVigilante,Anarchast With Jim Bell: Assassination Politics Meet the #Blockchain #Ethereum https://dollarvigilante.com/blog/2016/08/13/anarchast-jim-bell-assassination-politics-meet-blockchain.html…,12,13,1,False
49,Blockgeeks@Blockgks,Smart Contracts: The #Blockchain Technology That Will Replace Lawyers http://dld.bz/eYNat #ethereum,1,0,0,False
50,Kenny Rowe@kennyrowe,Bummed about ETH price? Yes. Does a low ETH price change the value of #ETHEREUM ? No. Is crypto a zero sum game? No. Do I love #bitcoin? Yes,5,1,1,False
51,João Paulo Gomes (#NOFEAR)@BTCtradePt,"Became ""Buggy"" #Ethereum in both main clients Parity and Geth according to Jacob Eliosoff cryptocurrency fund manager to @coindesk https://twitter.com/moneytrigz/status/802546513238859776…This Tweet is unavailable.",1,0,0,False
52,0xc1c4da@0xc1c4da,"#ethereum #swarm talks are up!!Quote TweetΞTHΞЯSPHΞЯΞ - ÐΞV@ethersphere · Nov 25, 2016the last videos missing from #DevCon2 day 1. including #swarm #raiden #truebit #evm
https://youtube.com/channel/UCNOfzGXD_C9YMYmnefmPH0g/videos…",3,1,2,False
53,Fred E @Fredilly,"In 2013 #Ethereum was a movement!

2016: Ethereum is a now a company ",1,1,1,False
54,Fred E @Fredilly,"Dear #Ethereum, stop using Twitter as stack overflow.",1,1,0,False
55,ETC FRANCE@ETC_France,Week after week people see that #ethereum is slowly becoming a testnet for @EthereumClassic @eth_classic $ETH $ETC,2,2,0,False
56,BitcoinAgile@bitcoinagile,No To #ethereum (Still) #bitcoin #blockchain #medium https://medium.com/@fintekneeks/no-to-ethereum-still-b826e7b78140…,0,0,0,False
57,STΞFAAN PONNΞT@sponnet,"Join the ARC side. Get some tokens at https://arcade.city. Reinventing sharing economy, starting with ridesharing, and more. #ethereum https://twitter.com/ArcadeCityHall/status/802271571804962816…This Tweet is unavailable.",2,2,1,False
58,Zeth Couceiro@Zeth_Plexus,"A Consensus Issue Between The Geth and Parity #Ethereum Clients Caused an Unintentional Fork - #blockchain #ETHA Consensus Issue Between The Geth and Parity Ethereum Clients Caused an Unintentional Fork of the...An issue in the Geth implementation of the Ethereum protocol, maintained by the foundation of the same name, caused an unintentional fork in the network. Nick Johnson, an ETH developer, confirmed thethemerkle.com",1,1,0,False
59,ARK.io@ArkEcosystem,"To be an #ARK delegate!
http://mf.tt/j6gBB
$ARK #delegate $LSK $BTC $ETH #LISK #bitcoin #crypto #PR #startups #success #investors #ICOBuilding a Delegation — The Path to Becoming an ARK DelegateBecoming a delegate for the ARK Ecosystem is a serious responsibility. In Delegated-Proof-of-Stake (DPoS) networks, only a select few are chosen to administer the network nodes that maintain the...ark.io",16,11,0,False
60,(┌ﾟдﾟ)┌ [HODL]@j32804,More #decentralised #p2p goodness at #DAppHack Berlin by @zeligf #Ethereum Swarm & P2P network simulation cc @cytoscapejs @ethereumproject https://twitter.com/adjyleak/status/802560610898571265…This Tweet is unavailable.,3,1,0,False
70,BlockCDN@BlockCDN,Check out step-by-step how to take part in the ICO https://medium.com/@BlockCDN/blockcdn-an-investors-guide-702da2c72093#.aqsoup8ia… #ethereum #mist #cryptocurrency #parity #MEW $waves,24,239,0,False
71,Zeth Couceiro@Zeth_Plexus,EU Commission Launches Initiative to Boost #FinTech and #Blockchain #Startups - CryptoCoinsNews - #bitcoin #ethereum https://cryptocoinsnews.com/eu-commission-launches-initiative-to-boost-fintech-and-blockchain-startups/…,3,1,0,False
72,Jermaine@jmintuck19121,"Help us bring the global Shareconomy to life. Join our ICO on Monday http://ln.is/jvLuw #ethereum... by #yeswepump via @c0nveyBlockchain Powered CDN Trading Platform, BlockCDN Provides Youku with Crowdsourced Bandwidth/PRNewswire/ -- BlockCDN, the Chinese blockchain company is in the process of creating a bank for computing resources that makes it possible to offer...prnewswire.com",1,0,0,False
74,@2knarly,Got a fix for ya nose #ether,1,0,0,False
75,gunawan bustiono@bustiono,Chances to win up to 150K ARK just for Tweeting! Hook me UP! http://bit.ly/2gkXtRM #btc #lisk #ARK $ARK #crypto #eth #bitcoin,0,0,0,False
76,Crypto Bean@William42111948,"No founders tax, no slow start, no bullshit: Our community is growing fast. Contribute on Slack! #bitcoin #ethereum #zclassic #Zcash",1,1,0,False
78,/r/Ethereum@r_Ethereum,Ethereum's Raiden (Lightning) Network Releases Proof of Concept #EthereumEthereum's Raiden (Lightning) Network Releases Proof of ConceptPosted in r/ethereum by u/meetrais • 14 points and 0 commentsreddit.com,0,0,0,False
79,/r/Ethereum@r_Ethereum,Parity 1.4.5 is released #EthereumParity 1.4.5 is releasedPosted in r/ethereum by u/sandakersmann • 65 points and 9 commentsreddit.com,1,2,0,False
80,Brownie.one@Aegon1987,"Which will you invest in? Let us know!

#bitcoin
#ethereum
#Monero
#ZcashEthereum classic20%Monero30%Zcash40%Ethereum10%10 votes·Final results",1,0,0,False
81,Blockchain Australia@BlockchainAUS,#Ethereum: how #altcoin bull markets usually die...  http://ow.ly/RcMd306ooVp,1,0,0,False
84,Coinstats@coinstats,"Ethereum Classic - ETC
Price: $0.784142
Change in 1h: +-0.62%
Market cap: $67646654.0
Ranking: 6
#Ethereum Classic #ETC",0,0,0,False
85,Bobe'bot@Bobe_bot,"1 #BTC = 765.2058 #CHF
1 #ETH = 9.9321 #CHF
1 #DOGE = 0.000224038848 #CHF
sources: @cryptonatorcom @hellobity",0,0,0,False
86,Coinstats@coinstats,"Ethereum - ETH
Price: $9.34416
Change in 1h: +-0.08%
Market cap: $806843117.0
Ranking: 2
#Ethereum #ETH",0,0,0,False
87,/r/Ethereum@r_Ethereum,"so ETH is getting a marriage contract, something EXP has had for a long time. #Ethereumso ETH is getting a marriage contract, something EXP has had for a...Posted in r/ethereum by u/abbyreedere • 0 points and 4 commentsreddit.com",1,0,0,False
88,HOUNDS@Hounds_Cvlt,"1X1X17 Montclair, we return. #houndscvlt #houndsnj #wastelands #ether #thevirginbirth #onsight… https://instagram.com/p/BNSmqVQDYsN/",0,0,0,False
89,joni coyaiba@jonicoya,Chances to win up to 150K ARK just for Tweeting! Hook me UP! http://bit.ly/2gkXtRM #btc #lisk #ARK $ARK #crypto #eth #bitcoin,1,0,0,False
90,steelerschik@steelerschik1,"so apparently ETH is getting some tech EXP had for awhile not.  Marriage contracts on a blockchain.

#exp #eth #blockchain",1,0,0,False
92,Ethereum UAE@Ethereum_UAE,"Genesis Mining Offers Black Friday, Cyber Monday Discount on Contracts http://ift.tt/2flsyoo #EthereumGenesis Mining Offers Black Friday, Cyber Monday Discount on ContractsAs a promotion for Black Friday and Cyber Monday, cloud mining provider Genesis Mining is offering a 5 percent discount on all contracts.bitcoinist.com",0,0,0,False
93,ExploreTraveler@exploretravel1,RT @r_ethereum: What Technology Life Cycle Adoption Looks Like #Ethereum http://lnkplg.co/6Qz6q,1,0,0,False
94,BlockCDN@BlockCDN,One day to ICO launch! - be a part of our distributed future https://bitcointalk.org/index.php?topic=1611265.0… #ethereum #investments #technology #crowdsourcing,31,264,3,False
95,/r/Ethereum@r_Ethereum,What Technology Life Cycle Adoption Looks Like #EthereumWhat Technology Life Cycle Adoption Looks LikePosted in r/ethereum by u/OperationNine • 12 points and 5 commentsreddit.com,1,0,0,False
96,Branche@DESbranche,Thanks for following us @BlockchainCH and @nigewillson ! #fintech #blockchain #innovation #startup #microcredit #crypto #bitcoin #ethereum,1,0,0,False
99,Christian Seberino@c_seberino,Ethereum's Blockchain Accidentally Splits http://buff.ly/2fKg4CV #etc #eth #ethereumclassic #ethereum #blockchains,1,0,0,False
100,Coinstats@coinstats,"Ethereum Classic - ETC
Price: $0.786555
Change in 1h: +-1.04%
Market cap: $67853761.0
Ranking: 6
#Ethereum Classic #ETC",0,0,0,False
101,Coinstats@coinstats,"Ethereum - ETH
Price: $9.35293
Change in 1h: +0.05%
Market cap: $807586884.0
Ranking: 2
#Ethereum #ETH",0,0,0,False
102,Menace@menace_coin,Chances to win up to 150K ARK just for Tweeting! Hook me UP! http://bit.ly/2gkXtRM #btc #lisk #ARK $ARK #crypto #eth #bitcoin,1,0,0,False
103,Bitcoin Tunisie@BitcoinTunisie,#Ethereum Cloud #Mining http://fb.me/32ZfoTQMT,1,0,0,False
105,Ameer Rosic@AmeerRosic,#Cryptocurrency: A New Economy For The Future http://dld.bz/eEbgr #bitcoin #blockchain #ethereum,1,0,0,False
107,Veki@Veki551155,"42% Discount off Cloud Mining #bitcoin, #ethereum, Zcash, DASH, and Litecoin with HashFlare …",0,0,0,False
108,Faith Emmanuel@residualbitcoin,"42% Discount off Cloud Mining #bitcoin, #ethereum, Zcash, DASH, and Litecoin with HashFlare http://bitcoinagile.com/98E28A/42-discount-off-cloud-mining-bitcoin-ethereum-zcash-dash-and-litecoin-with-hashflare_stream… …",0,0,0,False
109,BitcoinAgile@bitcoinagile,"42% Discount off Cloud Mining #bitcoin, #ethereum, Zcash, DASH, and Litecoin with HashFlare http://bitcoinagile.com/98E28A/42-discount-off-cloud-mining-bitcoin-ethereum-zcash-dash-and-litecoin-with-hashflare_stream…",1,0,0,False
110,emeka_okafor@emeka_okafor,"""A number of interesting projects exploring crypto-economic governance models will soon come online.""
http://bit.ly/2flymhp #ethereum",1,1,0,False
111,/r/Ethereum@r_Ethereum,Blockchains are Changing the Food Industry #EthereumBlockchains are Changing the Food IndustryPosted in r/ethereum by u/meetrais • 12 points and 2 commentsreddit.com,0,0,0,False
112,/r/Ethereum@r_Ethereum,"How do I know that my eth/geth/wallet/mist-browser are operating on/with the right chain? #EthereumHow do I know that my eth/geth/wallet/mist-browser are operating...With all the recent updates, forks and accidental splits, I would like to know how I can check if my * geth installation -...reddit.com",0,0,0,False
113,/r/Ethereum@r_Ethereum,"Ether trapped?! it aint wherre it should be #EthereumEther trapped?! it aint wherre it should beHello, I bought one ether to see how wverything works because I maybe wanne buy some. So I did. However It aint in my wallet while it should be...reddit.com",0,0,0,False
114,Kitaclub@kitaclub_ch,Web-Entwickler gesucht! http://marktplatz.uzh.ch/student-jobs/full-stack-web-entwickler-mfn-188607.htm… #job #teilzeitjob #studentenjob #eth #uzh #zurich,1,1,1,False
116,blockchainmedia@Ethereumlab,Could #Blockchain Technology Bankrupt Spotify? A Music Revolution http://buff.ly/2cWIfNM #ethereum #bitcoin,0,0,0,False
117,Jesus Guerrero@jeguemac,#Ethereum Founding Member Gives Up on the #DAO https://cryptocoinsnews.com/ethereum-founding-member-gives-dao… #crypto #btc #eth #bitcoin #fintech Vía crypto_bitcoins,1,0,0,False
119,Coinstats@coinstats,"Ethereum Classic - ETC
Price: $0.79445
Change in 1h: +0.04%
Market cap: $68534170.0
Ranking: 6
#Ethereum Classic #ETC",0,0,0,False
120,Coinstats@coinstats,"Ethereum - ETH
Price: $9.35306
Change in 1h: +0.21%
Market cap: $807589663.0
Ranking: 2
#Ethereum #ETH",0,0,0,False
122,Notiler@notiler,Upload your notes on #notiler. Ready for #eth and #uzh #students in #zurich https://instagram.com/p/BNSZIWqhO9O/,0,0,0,False
124,“Li Min” Chase@ChaseThatCoin,"I may have to margin trade $ETH,I don't short Crypto much but i just might have to...",1,0,0,False
126,Vindyne8@Vindyne8,#RT ChronoBank. Whitepaper. http://publizr.com/twitter/chronobanknews-whitepaper-dot-pdf#/2… #blockchain #bitcoin #ethereum #fintech #startup #NEM,22,19,0,False
128,David Clarke@1DavidClarke," “Federated Internet of Coins” #IoT
#EUROPECOIN $ERC
#ethereum features 4all #ALTCOINS... https://twitter.com/i/moments/802464907685924864… by #europecoinEUORGEUROPECOIN  (.eu.org)@europecoinEUORGFederated Internet of Coins",10,12,0,False
130,"Shadow Shaman, Aun-T@ShamanofShadow","But the structure, the very framework has been created & fashioned in #ether...it IS...ya dig?So everything else is butter,God Is the bread!",0,0,0,False
131,BitcoinAgile@bitcoinagile,"42% Discount off Cloud Mining #bitcoin, #ethereum, Zcash, DASH, and Litecoin with HashFlare http://cebigo.com/post/36266-42-discount-off-cloud-mining-bitcoin-ethereum-zcash-dash-and-litecoin-w…",1,0,0,False
133,Dissentralized@bitcoin_machine,Day 2 EtherMiners Report.  6% Return! Join me @:http://tinyurl.com/h9btw6v #bitcoin #BTC #ETHEREUM #cloudmining #investors #investing #forex,1,0,0,False
134,blockchainmedia@Ethereumlab,"Is #Ethereum similar to #Bitcoin? Well, sort of, but not really. http://dld.bz/fcBTc #blockchain",0,0,0,False
135,CryptoIndexes@CryptoIndexes,If Ethereum was sharing the same funtamentals as Bitcoin it's price should be 0.18541808 BTC $ETH | https://goo.gl/Tduc7R,0,0,0,False
137,Coinstats@coinstats,"Ethereum Classic - ETC
Price: $0.793501
Change in 1h: +-0.17%
Market cap: $68451369.0
Ranking: 6
#Ethereum Classic #ETC",0,0,0,False
138,Coinstats@coinstats,"Ethereum - ETH
Price: $9.32751
Change in 1h: +-0.28%
Market cap: $805370657.0
Ranking: 2
#Ethereum #ETH",0,0,0,False
139,Olesya@N_Pashunina,Chances to win up to 150K ARK just for Tweeting! Hook me UP! http://bit.ly/2gkXtRM #btc #lisk #ARK $ARK #crypto #eth #bitcoin,0,0,0,False
140,Tone Vays (#EndLockdowns)@ToneVays,Replying to @CryptoEye111 and @CryptoCoderlet's not agree to disagree as your fake likes/retweets are annoying as fuck...what else to expect from #ethereum,0,0,0,False
141,/r/Ethereum@r_Ethereum,Fap and mine bitcoins - http://BITSEX.ORG #EthereumFap and mine bitcoins - BITSEX.ORGreddit.com,0,0,0,False
142,Inessa Mariyushkina@Mariyushkina_I,Chances to win up to 150K ARK just for Tweeting! Hook me UP! http://bit.ly/2gkXtRM #btc #lisk #ARK $ARK #crypto #eth #bitcoin,0,0,0,False
143,Ларион Клименко@larikklimenko,Chances to win up to 150K ARK just for Tweeting! Hook me UP! http://bit.ly/2gkXtRM #btc #lisk #ARK $ARK #crypto #eth #bitcoin,0,0,0,False
144,a5ym4e@a5ym4e,"Connecting blockchains http://bit.ly/2fzqTXu @ajlopez @ethereumproject #ethereum #bitcoin #blockchain #smartcontractsConnecting Blockchains (6)Previous Post Next Post BitCoin is the best known blockchain. Ethereum is the “new kid on the block”, and it has its similarities and its difference with BitCoin. At first, Ethereum has running nod…ajlopez.wordpress.com",1,0,0,False
145,/r/Ethereum@r_Ethereum,"Looks like MEW is down #EthereumLooks like MEW is downLooks like MEW nodes are down, any ideas?reddit.com",1,0,0,False
146,a5ym4e@a5ym4e,#Ethereum Security Alert: Transactions May Be Reverted http://bit.ly/2fyr45a @Cointelegraph @ethereumproject @VitalikButerin @gavofyork,0,0,0,False
148,PakkzDappFund.io@pakkz_k,Chances to win up to 150K ARK just for Tweeting! Hook me UP! http://bit.ly/2gkXtRM #btc #lisk #ARK $ARK #crypto #eth #bitcoin,1,0,0,False
149,/r/Ethereum@r_Ethereum,Is the slate-clearing affecting MEW? #EthereumIs the slate-clearing affecting MEW?reddit.com,1,1,0,False
151,Alex Jiménez@RAlexJimenez,#Ethereum’s Latest Hard Fork Shows It Has A Very Long Way To Go via @forbes http://forbes.com/sites/francescoppola/2016/11/26/ethereums-latest-hard-fork-shows-it-has-a-very-long-way-to-go/#1b1c3d5275b6… #blockchain #fintech #in,0,0,0,False
152,Martin@martin_8_8_8,Chances to win up to 150K ARK just for Tweeting! Hook me UP! http://bit.ly/2gkXtRM #btc #lisk #ARK $ARK #crypto #eth #bitcoin,0,0,0,False
153,Inspire and Disrupt@A__Albrecht,JP Morgan #JPM builds the own #blockchain platform #quorum  based on #ethereum http://blockchainers.org/index.php/2016/11/26/kw-47-weekly-blockchainers-recap/…,1,0,0,False
154,user2213@Bl0ckCha1n,"Check out the new #crypto blog site from @OmarBham #ethereum #blockchain
http://crypt0snews.com",0,0,0,False
155,blockchainmedia@Ethereumlab,What are your favorite digital wallets to use and why? http://dld.bz/fevtV #blockchain #bitcoin #ethereum,1,0,0,False
156,Coinstats@coinstats,"Ethereum Classic - ETC
Price: $0.794684
Change in 1h: +-0.02%
Market cap: $68552044.0
Ranking: 6
#Ethereum Classic #ETC",0,0,0,False
157,Netcube93@Netcube93,Collaboration Platform #Lykke Streams: https://streams.lykke.com #bitcoin #blockchain #ethereum #etc #lisk #waves,1,0,0,False
158,Coinstats@coinstats,"Ethereum - ETH
Price: $9.35087
Change in 1h: +0.04%
Market cap: $807374635.0
Ranking: 2
#Ethereum #ETH",0,0,0,False
159,Golden Gateway@GoldenGatewayUS,Bitcoin Builds Support Above $700 But 2016 High Proves Elusive http://officialgoldengateway.blogspot.com/2016/11/bitcoin-builds-support-above-700-but_26.html… #ethereum,1,0,0,False
160,Scryptonaut@scryptomagna,Chances to win up to 150K ARK just for Tweeting! Hook me UP! http://bit.ly/2gkXtRM #btc #lisk #ARK $ARK #crypto #eth #bitcoin,0,0,0,False
161,/r/Ethereum@r_Ethereum,Ethereum Errors =>Network effect Decreases =>Price Declines #EthereumEthereum Errors =>Network effect Decreases =>Price DeclinesI use to talk about ethereum and encourage my friends to install it. Since June this is impossible. Basically there are unexpected behaviors all...reddit.com,0,0,0,False
162,Ethereum SE@StackEthereum,"Trying to get a refund from my DAO results in ""out of gas"" http://ethereum.stackexchange.com/questions/10310/trying-to-get-a-refund-from-my-dao-results-in-out-of-gas… #ethereum #parity #dao #outofgas #refund",0,0,0,False
163,Kolar Kolarov@karnalovo,Chances to win up to 150K ARK just for Tweeting! Hook me UP! http://bit.ly/2gkXtRM #btc #lisk #ARK $ARK #crypto #eth #bitcoin,0,0,0,False
164,blockchainmedia@Ethereumlab,"Top AMA's with the leaders in #Blockchain, #Bitcoin and #Ethereum http://blockgeeks.com/ama/",0,0,0,False
166,Ameer Rosic@AmeerRosic,"Join today! Blockgeeks is a #Blockchain innovation hub 
& marketplace http://blockgeeks.com #Bitcoin #Ethereum",1,0,0,False
167,Hadji Amine@amintek15,Chances to win up to 150K ARK just for Tweeting! Hook me UP! http://bit.ly/2gkXtRM #btc #lisk #ARK $ARK #crypto #eth #bitcoin,0,0,0,False
168,Faith Emmanuel@residualbitcoin,No To #ethereum (Still) #bitcoin #blockchain #medium https://medium.com/@fintekneeks/no-to-ethereum-still-b826e7b78140… #ResidualBitcoin,2,0,0,False
169,Veki@Veki551155,No To #ethereum (Still) #bitcoin #blockchain #medium https://medium.com/@fintekneeks/no-to-ethereum-still-b826e7b78140…,0,0,0,False
172,Faith Emmanuel@residualbitcoin,Business now accept #ethereum for payments at Zero Cost! [ANN][Pre-ICO coming] — Ethereum Community Forum http://bitcoinagile.com/98DB5A/business-now-accept-ethereum-for-payments-at-zero-cost-annpre-ico-coming-ethereum-community-forum_stream… #Residua…,0,0,0,False
173,Rolfe Dlugy-Hegwer@rolfedh,"How to Become a Backer in the Beyond the Void (Game) Crowdfunding ICO https://youtu.be/XeEtsc2Plo0 @BeyondVoidGame #indiegame #ethereumHow to Become a Backer in the Beyond the Void (Game) Crowdfunding ICOThis video explains how to plan and buy Nexium to become a backer of the Beyond the Void game.IMPORTANT NOTE: To ensure your transaction is completed, the Bt...youtube.com",1,2,0,False
174,ViÐal Chriqui@vidal007,"""Allocating 78% to #bitcoin and 22% to #ether provides a better (investment) balance""
Proposal on #kraken challenge

https://news.bitcoin.com/university-choose-bitcoin-ethereum/…",1,1,0,False
175,Vindyne8@Vindyne8,Bitcoin Builds Support Above $700 But 2016 High Proves Elusive http://coindesk.com/bitcoin-700-price-support-new-2016-high-elusive/… #bitcoin #btc #eth #zec @coindesk,17,15,0,False
176,Veki@Veki551155,Business now accept #ethereum for payments at Zero Cost! [ANN][Pre-ICO coming] — Ethereum Community Forum http://bitcoinagile.com/98DB5A/business-now-accept-ethereum-for-payments-at-zero-cost-annpre-ico-coming-ethereum-community-forum_stream…,0,0,0,False
177,Rolfe Dlugy-Hegwer@rolfedh,Visual quickstart: Become a backer in #crowdfunding #ICO for Beyond the Void https://youtu.be/ZqNYgHlxxIs via @YouTube @BeyondVoidGame #ethereumVisual quickstart: Become a backer in crowdfunding ICO for Beyond the...The folks at Beyond the Void have asked me to mention that some backers have experienced problems with transactions that had too little gas not being complet...youtube.com,1,1,0,False
178,/r/Ethereum@r_Ethereum,Smart contracts and fiat debit-cards. #EthereumSmart contracts and fiat debit-cards.Could ethereum smart-contracts be connected to fiat-loaded debit cards in order to buy/sell bitcoins? I'm thinking that enough of them would...reddit.com,0,0,0,False
179,BitcoinAgile@bitcoinagile,Business now accept #ethereum for payments at Zero Cost! [ANN][Pre-ICO coming] — Ethereum Community Forum http://bitcoinagile.com/98DB5A/business-now-accept-ethereum-for-payments-at-zero-cost-annpre-ico-coming-ethereum-community-forum_stream…,1,1,0,False
180,Jerome de Tychey @jdetychey,"Raiden: scaling #ethereum could happen much sooner than expected
#blockchain #fintechRelease PoC-1 · raiden-network/raidenPoC - 1 This is the first of a series of weekly raiden releases leading up to our MVP release. Changes since last Release We now don't panick with repeated out-of-order messages in a channel #...github.com",4,7,1,False
181,Get Free Dogecoin@GetDogecoin,"GET FREE #DOGE
Win dogecoin every 60 minutes
http://goo.gl/hE5Bk6
#doge #dogecoin
#Ethereum
#bitcoin #litecoin #Amazon",0,0,0,False
182,Damir@Dam2174,Chances to win up to 150K ARK just for Tweeting! Hook me UP! http://bit.ly/2gkXtRM #btc #lisk #ARK $ARK #crypto #eth #bitcoin,0,0,0,False
183,ALΞCO@a_l_e_c_o,"#WINGS - A project governance and backing platform with
incentivized forecasting 
https://goo.gl/a7ECTG
#bitcoin #DAO #RSKsmart #ethereum",1,0,0,False
184,blockchainmedia@Ethereumlab,"Besides #Ethereum, which blockchains do you think are currently leading the pack http://dld.bz/fcNRx",0,0,0,False
185,Coinstats@coinstats,"Ethereum - ETH
Price: $9.37157
Change in 1h: +0.52%
Market cap: $809145176.0
Ranking: 2
#Ethereum #ETH",0,0,0,False
186,Olivier Chapiteau@o_chapiteau,"26Nov2016 18:00 UTC #Ether #Blockchain status - Block height @ 2,698,613 - 68,675 unconfirmed tr. - Last fork height @ 2,686,646",1,0,0,False
187,Ethereum Price@EthereumPrice_,"#Ethereum: Ether Price Index
1 ETH =0.012654Ƀ XBT = $9.342745 USD
Today: -0.38%⬇︎ Last 24h: -2.17%⬇︎
https://ethereum-price.com",0,0,0,False
188,Olivier Chapiteau@o_chapiteau,26Nov2016 18:00 UTC #Ethereum live spots - #Ether @ 9.32955 $ - #EtherClassic @ 0.79510 $,1,0,0,False
189,Yarik Veliciko@IarikVeliciko,"Join now. Less than 2 days before the start of the ICO #eth #BlockCDN
http://blockcdn.org/register.jsp?id=570…",0,0,0,False
190,ARK.io@ArkEcosystem,"ARK-TEC

#Ark Token Exchange Campaign: 7. November - 11. December 2016

$ARK $LSK $BTC $ETH #LISK #bitcoin #crypto #PR #startups #success",10,10,0,False
191,Netcube93@Netcube93,.@LykkeCity Updates - @CoinInterview with Sergey Ivliev: https://youtube.com/watch?v=LFw1OgTwNnk… #bitcoin #blockchain #ethereum #fintech,1,3,0,False
192,Dissentralized@bitcoin_machine,Must See! EtherMiners 3% return per day. Link: http://tinyurl.com/h9btw6v #ETHEREUM #ETH #BTC #bitcoin #cloudmining #investor #investing #mlmGIF,1,1,1,False
193,Alex.eth@AlexanderFisher,"We’ve partnered with Synechron and BlockApps to build Financial Services Blockchain Applications http://buff.ly/2fkcP91 #EthereumWe’ve partnered with Synechron and BlockApps to build Financial Services Blockchain ApplicationsSynechron Inc. , a global consulting and technology services provider specializing in the financial services market, has announced a…media.consensys.net",1,1,0,False
194,Ameer Rosic@AmeerRosic,"#Blockchain can be confusing, but it doesn't have to be.  http://blockgeeks.com #bitcoin #Ethereum",1,0,0,False
195,GunZLinger@Leonknife,Free #Ethereum every 5 minutes https://cryptosource.net/free-ethereum/?r=zAzpiv6OSe… #Ethereum via @CryptoSourceHQ,0,0,0,False
196,len@xtreme_prot,Chances to win up to 150K ARK just for Tweeting! Hook me UP! http://bit.ly/2gkXtRM #btc #lisk #ARK $ARK #crypto #eth #bitcoin,0,0,0,False
197,TRAMP@LT38,(FULL INTERVIEW)  NAS Gets Uncomfortable When ANGIE MARTINEZ Asked To Play '#ETHER Explains Why  https://youtu.be/tAwDtqoqETU,0,0,0,False
199,alex costa@bocs12345,Chances to win up to 150K ARK just for Tweeting! Hook me UP! http://bit.ly/2gkXtRM #btc #lisk #ARK $ARK #crypto #eth #bitcoin,0,0,0,False
200,Daryl S@CoinGetterD,Chances to win up to 150K ARK just for Tweeting! Hook me UP! http://bit.ly/2gkXtRM #btc #lisk #ARK $ARK #crypto #eth #bitcoin #Money #NYC,0,0,0,False
202,CryptoHobo@CryptoHobo,Chances to win up to 150K ARK just for Tweeting! Hook me UP! http://bit.ly/2gkXtRM #btc #lisk #ARK $ARK #crypto #eth #bitcoin,1,1,0,False
203,bitcoin new's@jagga_dakku004,Want latest news about #Bitcoin #Faucets?Come here and join latest faucets https://goo.gl/TWs8QP #Altocin #ethereum #blockchain #secure,1,0,0,False
204,/r/Ethereum@r_Ethereum,Ethereum's Latest Hard Fork Shows It Has A Very Long Way To Go by Forbes #EthereumEthereum's Latest Hard Fork Shows It Has A Very Long Way To Go by...Posted in r/ethereum by u/Moneytrigz • 0 points and 12 commentsreddit.com,0,0,0,False
205,Coinstats@coinstats,"Ethereum Classic - ETC
Price: $0.796266
Change in 1h: +-0.24%
Market cap: $68686736.0
Ranking: 6
#Ethereum Classic #ETC",0,0,0,False
206,Bobe'bot@Bobe_bot,"1 #BTC = 759.2029 #CHF
1 #ETH = 9.908 #CHF
1 #DOGE = 0.00022244992 #CHF
sources: @cryptonatorcom @hellobity",0,0,0,False
207,Coinstats@coinstats,"Ethereum - ETH
Price: $9.31704
Change in 1h: +-0.67%
Market cap: $804428472.0
Ranking: 2
#Ethereum #ETH",0,0,0,False
218,TrustForums@TrustForums,Want latest news about #Bitcoin #Faucets?Come here and join latest faucets https://goo.gl/8T7iLO #Altocin #ethereum #blockchain #secure.,0,0,0,False
219,Silvio Dante@crypto_rush,Chances to win up to 150K ARK just for Tweeting! Hook me UP! http://bit.ly/2gkXtRM #btc #lisk #ARK $ARK #crypto #eth #bitcoin,0,0,0,False
220,angga@sulisituaku,"PAYING!!!PAYING!!!
double your bitcoins with listing system

https://telegram.me/bethenext_bot?start=183…
#bitcoin #onecoin #mining #crypto #ethereum #coince",2,0,0,False
221,Ethereum UAE@Ethereum_UAE,Electronic Government as a Service Enters Beta Phase for Decentralized Gov’t http://ift.tt/2gsc2io #EthereumElectronic Government as a Service Enters Beta PhaseeGaaS claims that its smart contract platform can provide decentralized replacements for almost every government functionbitcoinist.com,1,0,0,False
222,Aleksandr Kolesin@Kolesin1,Chances to win up to 150K ARK just for Tweeting! Hook me UP! http://bit.ly/2gkXtRM #btc #lisk #ARK $ARK #crypto #eth #bitcoin,0,0,0,False
223,SOFIA TEN@SOFIATEN0406,Chances to win up to 150K ARK just for Tweeting! Hook me UP! http://bit.ly/2gkXtRM #btc #lisk #ARK $ARK #crypto #eth #bitcoin,1,0,0,False
224,Bitcoin Traders@b1tcoin_traders,#Ethereum's Latest Hard Fork Shows It Has A Very Long Way To Go via @forbes $eth #Forbes http://forbes.com/sites/francescoppola/2016/11/26/ethereums-latest-hard-fork-shows-it-has-a-very-long-way-to-go/#6e7f6cc5275b…,1,0,0,False
225,len@xtreme_prot,gambling at #vdice #ico #ethereum #bitcoin https://twitter.com/vDice_io/status/802268177539305472…This Tweet is unavailable.,1,0,0,False
226,Blockgeeks@Blockgks,New Post: Are You Worried About Donald Trump? Then Start Your Own Country http://buff.ly/2fkdabS #blockchain #bitcoin #ethereum #fintech,3,0,0,False
227,xujian@XujianYayitex,Chances to win up to 150K ARK just for Tweeting! Hook me UP! http://bit.ly/2gkXtRM #btc #lisk #ARK $ARK #crypto #eth #bitcoin,1,1,0,False
229,KASKOVIAY@KASKOVIAY415,Chances to win up to 150K ARK just for Tweeting! Hook me UP! http://bit.ly/2gkXtRM #btc #lisk #ARK $ARK #crypto #eth #bitcoin,0,0,0,False
230,blockchainmedia@Ethereumlab,Can This 22-year-old Coder Out-Bitcoin #Bitcoin? http://dld.bz/eWMa7 #ethereum,0,0,0,False
234,Chokri AlGhanmi@GhanmiChokri,Chances to win up to 150K ARK just for Tweeting! Hook me UP! http://bit.ly/2gkXtRM #btc #lisk #ARK $ARK #crypto #eth #bitcoin,0,0,0,False
237,Yura Voitenko@forksearsher,Chances to win up to 150K ARK just for Tweeting! Hook me UP! http://bit.ly/2gkXtRM #btc #lisk #ARK $ARK #crypto #eth #bitcoin,0,0,0,False
238,grubles@notgrubles,#ethereum doesn't have killer apps. it has apps that kill ethereum. #bitcoin,1,1,0,False
239,Brownie.one@Aegon1987,"I want to cloud mine bitcoin but is it worth it anymore? 

#bitcoin
#ethereum",1,0,0,False
241,Shored@wings_hanter,Chances to win up to 150K ARK just for Tweeting! Hook me UP! http://bit.ly/2gkXtRM #btc #lisk #ARK $ARK #crypto #eth #bitcoin,0,0,0,False
242,Empty Bucket@teamemptybucket,Want to invest in Ethereum but don't know how? Here's what we did. #ethereum #emptybucket... http://fb.me/1G0dotf4z,0,0,0,False
243,nasi goceng@nasigocengud,Chances to win up to 150K ARK just for Tweeting! Hook me UP! http://bit.ly/2gkXtRM #btc #lisk #ARK $ARK #crypto #eth #bitcoin,0,0,0,False
244,/r/Ethereum@r_Ethereum,Charlie Shrem Unveils New Venture Intellisys Capital #EthereumCharlie Shrem Unveils New Venture Intellisys CapitalPosted in r/ethereum by u/_CapR_ • 42 points and 38 commentsreddit.com,1,0,0,False
245,Ameer Rosic@AmeerRosic,Great people deserve a great audience. http://blockgeeks.com #Blockchain #Ethereum #Bitcoin,1,0,0,False
246,AtomION@_Atom_ION,Chances to win up to 150K ARK just for Tweeting! Hook me UP! http://bit.ly/2gkXtRM #btc #lisk #ARK $ARK #crypto #eth #bitcoin,1,1,0,False
247,/r/Ethereum@r_Ethereum,Vitalik now ending missives with an investment disclaimer. Time to rethink your investment? #EthereumVitalik now ending missives with an investment disclaimer. Time to...Posted in r/ethereum by u/the_bob • 0 points and 14 commentsreddit.com,0,0,0,False
248,Joseph Catricala@josephcat,".@AmeerRosic nice read thanks for sharing #blockchain #bitcoin #ethereumQuote TweetAmeer Rosic@AmeerRosic · Nov 26, 20166 Reasons Why #Blockchain is Worth Getting Excited http://snip.ly/7je5i #bitcoin #Ethereum",2,0,0,False
249,Blockgeeks@Blockgks,Would you like early access to BlockGeeks #Blockchain Community? Sign up here http://blockgeeks.com #ethereum,1,0,0,False
250,blockchainmedia@Ethereumlab,Check it out! Beginners guide to #Blockchain http://buff.ly/2dvhaDX #bitcoin #ethereum #startup,0,0,0,False
251,Faith Emmanuel@residualbitcoin,ChronoBank Development Plan #fintech #ethereum #bitcoin #blockchain #RT #wavesplatform http://activevoice.us/article.jsp?name=chronobankdevelopmentplan&t=Math…  #R…,0,0,0,False
252,Ethereum UAE@Ethereum_UAE,Ethereum's Latest Hard Fork Shows It Has A Very Long Way To Go http://ift.tt/2fC7cBm #Ethereum,2,0,0,False
253,Veki@Veki551155,ChronoBank Development Plan #fintech #ethereum #bitcoin #blockchain #RT #wavesplatform http://activevoice.us/article.jsp?name=chronobankdevelopmentplan&t=Math…,0,0,0,False
254,BitcoinAgile@bitcoinagile,ChronoBank Development Plan #fintech #ethereum #bitcoin #blockchain #RT #wavesplatform http://activevoice.us/article.jsp?name=chronobankdevelopmentplan&t=Math…,5,5,0,False
255,Vindyne8@Vindyne8,# Frequently Asked Questions about ChronoBank https://blog.chronobank.io/chronobank-io-faq-4b920f003640#.66oc3xdby… #blockchain #ethereum #startup #bitcoin,18,16,0,False
256,Vindyne8@Vindyne8,Download the PassLfix proposal to work for PassDAO from http://pacifics.org #Ethereum #blockchain #innovative #smartcontracts #RT,15,14,0,False
257,Akhdanfahru@gmail.co@akhdanfahru,Chances to win up to 150K ARK just for Tweeting! Hook me UP! http://bit.ly/2gkXtRM #btc #lisk #ARK $ARK #crypto #eth #bitcoin,0,0,0,False
258,user2213@Bl0ckCha1n,After the banning of its most valuable currency India launches #blockchain summit starring @VitalikButerin #ethereumIndia hosts its first ever Blockchain Summit on 6 Dec 2016 with...Bit more in depth article than the recent condensed PR's. IMO this is a big...reddit.com,1,0,0,False
259,CoinFollower@CoinFollowerCom,Bitcoin Builds Support Above $700 But 2016 High Proves Elusive: #ethereum http://coinfollower.com/16997/Bitcoin%20Builds%20Support%20Above%20$700%20But%202016%20High%20Proves%20Elusive…,1,1,1,False
260,GRAND EX@grand_ex,Chances to win up to 150K ARK just for Tweeting! Hook me UP! http://bit.ly/2gkXtRM #btc #lisk #ARK $ARK #crypto #eth #bitcoin,1,1,0,False
261,Contractize@contractize,Ledger Launches Hardware Wallet for the Smart Contract Era http://coindesk.com/ledger-blue-hardware-wallet-blockchain-smart-contracts/… via @CoinDesk #smartcontract #ethereum,2,1,0,False
262,Ameer Rosic@AmeerRosic,6 Reasons Why #Blockchain is Worth Getting Excited http://snip.ly/7je5i #bitcoin #Ethereum,1,2,0,False
264,Bitcoin Warrior@betget1,Chances to win up to 150K ARK just for Tweeting! Hook me UP! http://bit.ly/2gkXtRM #btc #lisk #ARK $ARK #crypto #eth #bitcoin,0,0,0,False
265,Zonafide@ZonafideWallet,Replying to @ChrJentzschHope you told 'em...what doesn't break you..#DAO '..makes you stronger..#ethereum,1,0,0,False
266,Alberto Jauregui | esoteRICK.eth @DisruptBanksy,http://ift.tt/2gwXCyA Ethereum's Latest Hard Fork Shows It Has A Very Long Way To Go - Forbes #ethereum #ether,1,0,0,False
269,enricotalin@enricotalin,JP Morgan released its implementation of a permissioned version of #Ethereum http://buff.ly/2gkElTk,1,2,0,False
270,Ethereum SE@StackEthereum,How to get curl response from remote geth through ssh? http://ethereum.stackexchange.com/questions/10308/how-to-get-curl-response-from-remote-geth-through-ssh… #ethereum #goethereum,1,0,0,False
271,Crypto Dood@BitcoinDood,"Gemini halts #ethereum $ETH deposits and withdrawals for the next few days due to issues with latest ""hard fork"".",4,4,0,False
272,Ильдар Абдалов@ildarclickprime,Chances to win up to 150K ARK just for Tweeting! Hook me UP! http://bit.ly/2gkXtRM #btc #lisk #ARK $ARK #crypto #eth #bitcoin,1,1,0,False
273,Ethereum UAE@Ethereum_UAE,Bitcoin Reaches For New Annual High http://ift.tt/2gJPxJQ #Ethereum,2,1,0,False
274,Blockgeeks@Blockgks,New Post: 5 Amazing Benefits of Cryptocurrency: A New Digital Future http://buff.ly/2gsfgpL #blockchain #bitcoin #ethereum #fintech,5,2,0,False
275,Mantas Vaiciunas@MantasVaiciunas,Chances to win up to 150K ARK just for Tweeting! Hook me UP! http://bit.ly/2gkXtRM #btc #lisk #ARK $ARK #crypto #eth #bitcoin,0,0,0,False
276,Светлана Прудова@svetaprud7,Chances to win up to 150K ARK just for Tweeting! Hook me UP! http://bit.ly/2gkXtRM #btc #lisk #ARK $ARK #crypto #eth #bitcoin,0,0,0,False
277,CrowdEmprende@Crowdemprende,#Ethereum Founding Member Gives Up on the #DAO https://cryptocoinsnews.com/ethereum-founding-member-gives-dao… #crypto #btc #eth #bitcoin #fintech Vía crypto_bitcoins,2,3,0,False
279,Blockgeeks@Blockgks,"Join today! Blockgeeks is a #Blockchain innovation hub 
& marketplace http://blockgeeks.com #Bitcoin #Ethereum",0,0,0,False
280,Coinstats@coinstats,"Ethereum Classic - ETC
Price: $0.784303
Change in 1h: +-0.59%
Market cap: $67652496.0
Ranking: 6
#Ethereum Classic #ETC",0,0,0,False
281,Coinstats@coinstats,"Ethereum - ETH
Price: $9.36454
Change in 1h: +0.34%
Market cap: $808502290.0
Ranking: 2
#Ethereum #ETH",0,0,0,False
282,Ethereum Price@EthereumPrice_,"#Ethereum: Ether Price Index
1 ETH =0.012712Ƀ XBT = $9.310200 USD
Today: +0.07%⬆︎ Last 24h: -1.93%⬇︎
https://ethereum-price.com",0,0,0,False
283,Wye #Growth #Bitcoin  CFA BA.Liberal studies@onlinetraderbiz,#Ethereum Latest Hard Fork Shows It #shitcoin #cryptocurrency http://ow.ly/VlVZ306xEba,1,0,0,False
284,Bitcoin@crypto_bitcoins,#Ethereum Founding Member Gives Up on the #DAO https://cryptocoinsnews.com/ethereum-founding-member-gives-dao… #crypto #btc #eth #bitcoin #fintech,0,0,0,False
285,Cointon@CointonDotCom,#Ethereum Founding Member Gives Up on the #DAO https://cryptocoinsnews.com/ethereum-founding-member-gives-dao… #crypto #btc #eth #bitcoin #fintech,0,0,0,False
286,BlockCDN@BlockCDN,"Help us bring the global Shareconomy to life. Join our ICO on Monday http://prnewswire.com/news-releases/blockchain-powered-cdn-trading-platform-blockcdn-provides-youku-with-crowdsourced-bandwidth-300368635.html… #ethereum #altcoins #cryptocurrency $waves #ICOBlockchain Powered CDN Trading Platform, BlockCDN Provides Youku with Crowdsourced Bandwidth/PRNewswire/ -- BlockCDN, the Chinese blockchain company is in the process of creating a bank for computing resources that makes it possible to offer...prnewswire.com",36,268,0,False
287,Scott McWilliams@macengr,"Ethereum Issues Security Alert After Fork, Transactions May Be Reverted https://cointelegraph.com/news/ethereum-issues-security-alert-after-fork-transactions-may-be-reverted… #ethereum #fintech",1,0,0,False
288,@rm0rf@rm0rf,Replying to @el33th4xorYou have some nut sack talking about Rube Goldberg machines while working on/promoting #Ethereum #Eth,5,1,0,False
289,Ameer Rosic@AmeerRosic,#Blockchain Technology Proves Itself in Wall Street Test http://snip.ly/i6je1 #Bitcoin #Ethereum,2,0,0,False
291,ChainGame@bchain2014,Young BTC is out! http://paper.li/e-1435048282?edition_id=acab29c0-b3e5-11e6-8835-0cc47a0d1605… Feeds Selected by: Amin Harhara #bitcoin #ethereum,0,0,0,False
292,blockchainmedia@Ethereumlab,How does #blockchain work? The ultimate guide  http://buff.ly/2dvhaDX #bitcoin #ethereum #startup,1,0,0,False
293,The Economist@EconWhichMBA,If you had $1M where would you put your money: #Bitcoin or #Ethereum? Students presented their case. http://econgm.at/13d5mF #BestCaseStudy,0,0,0,False
294,Ethereum SE@StackEthereum,How to get curl response from remote geth through ssh? http://ethereum.stackexchange.com/questions/10308/how-to-get-curl-response-from-remote-geth-through-ssh… #ethereum #goethereum,0,0,0,False
295,/r/Ethereum@r_Ethereum,Released Raiden Network PoC 1 #EthereumReleased Raiden Network PoC 1Posted in r/ethereum by u/Tralx • 129 points and 29 commentsreddit.com,0,0,0,False
296,Andy Waar@ndwr,"#ethereum with @BrenntL #blockchain #hwzdigitalfinance
@schoenpa @eric_salzmann @ninigo @chez_moerlis @andrea_roner @nico_spycher",7,5,0,False
297,Cliff K Jordan@CKJordan15,"Earn up to $65,610 daily! join & get the benefits http://bit.ly/coinviv2 #coinomia #ethereum #cryptoguide #Bitcoins",0,0,0,False
298,Julia Edling@bitcointonic,"Transactions may be reverted after #Ethereum issues security alert: Following a consensus flaw in #Geth, the lead… http://dlvr.it/MlRv1n",1,0,0,False
299,/r/Ethereum@r_Ethereum,Can't publish a link of Raiden Network on GitHub #EthereumCan't publish a link of Raiden Network on GitHubreddit.com,1,0,0,False
300,Aayush Jindal@AayushJs,#Ethereum - Can $ETH/USD Buyers Keep The Rally Going? #Cryptocurrency http://ethnews.com/analysis/11-26-2016-can-ethusd-buyers-keep-the-rally-going…,1,0,0,False
302,blockchainmedia@Ethereumlab,Great people deserve a great audience. http://blockgeeks.com #Blockchain #Ethereum #Bitcoin,0,0,0,False
303,ZotSell@ZotSell,JP Morgan released its implementation of a permissioned version of #Ethereum http://buff.ly/2gkt71o,0,0,0,False
304,/r/Ethereum@r_Ethereum,Difficulty Bomb and POS #EthereumDifficulty Bomb and POSAccross q1-q2 2017 mining difficulty/blocktime will grow very very fast for the Difficulty Bomb activation. How do you intend to manage this...reddit.com,0,0,0,False
305,Кастенич Давид@DavidKa3002,Chances to win up to 150K ARK just for Tweeting! Hook me UP! http://bit.ly/2gkXtRM #btc #lisk #ARK $ARK #crypto #eth #bitcoin,0,0,0,False
306,indxio@indxio,#Russia Market Close || #Bitcoin: $735 | 698.06 EUR||  #Litecoin: 0.0026 BTC  || #Ethereum: 0.0127 BTC   || $BTC $LTC $ETH $RUB,1,0,0,False
307,Ameer Rosic@AmeerRosic,Q&A: STEPHAN TUAL: Founder & COO Slock.it & The DAO http://dld.bz/faeQR #THEDAO #ethereum #blockchain,2,2,0,False
309,blockchainmedia@Ethereumlab,Q&A: STEPHAN TUAL: Founder & COO Slock.it & The DAO http://dld.bz/faeQR #THEDAO #ethereum #blockchain,0,0,0,False
310,Sophant Travel News@SophantTravel,The latest The Sophant Travel News Daily! http://paper.li/SophantTravel/1317473891?edition_id=977369d0-b3d8-11e6-8835-0cc47a0d1605… #travel #ethereum,1,0,0,False
311,Coinstats@coinstats,"Ethereum Classic - ETC
Price: $0.800431
Change in 1h: +-1.23%
Market cap: $69042041.0
Ranking: 6
#Ethereum Classic #ETC",0,0,0,False
312,Coinstats@coinstats,"Ethereum - ETH
Price: $9.35185
Change in 1h: +0.05%
Market cap: $807386154.0
Ranking: 2
#Ethereum #ETH",0,0,0,False
314,ion cristian@ioncristian15,Chances to win up to 150K ARK just for Tweeting! Hook me UP! http://bit.ly/2gkXtRM #btc #lisk #ARK $ARK #crypto #eth #bitcoin,0,0,0,False
315,Devin Nash@Dvnnsh,Chances to win up to 150K ARK just for Tweeting! Hook me UP! http://bit.ly/2gkXtRM #btc #lisk #ARK $ARK #crypto #eth #bitcoin,1,1,0,False
316,Bitsler@BitSler,1st anniversary and 3 billion bet at the same time ! It will be a blast #bitcoin #ethereum #gambling,2,1,0,False
317,Vili Lehdonvirta@ViliLe,Cryptocurrency like radical left: countless factions engaged in bitter feuds that outsiders neither understand nor care about #btc #eth #etc,7,1,0,False
318,Раб Божий@Diener_Gottes,"#Ethereum Issues Security Alert After Fork, #Transactions May Be Reverted: <![CDATA[ Geth's… https://goo.gl/fb/i9X1B2",1,0,0,False
320,/r/Ethereum@r_Ethereum,"Parity very slow to sync at 2,424,811/2,697,907 #EthereumParity very slow to sync at 2,424,811/2,697,907Parity//v1.4.4-beta-a68d52c-20161118/x86_64-windows-msvc/rustc1.13.0 Is there something wrong here? I've left this on overnight and it pretty...reddit.com",1,0,0,False
321,Zaducis-voron@vvoroncov3,Chances to win up to 150K ARK just for Tweeting! Hook me UP! http://bit.ly/2gkXtRM #btc #lisk #ARK $ARK #crypto #eth #bitcoin,0,0,0,False
322,Bolenath@wirmola,Chances to win up to 150K ARK just for Tweeting! Hook me UP! http://bit.ly/2gkXtRM #btc #lisk #ARK $ARK #crypto #eth #bitcoin,0,0,0,False
323,ALΞCO@a_l_e_c_o,"#ICO #wingsplatform Easily launch & fund projects with #WINGS
https://goo.gl/a7ECTG
@wingsplatform #bitcoin #ETHEREUM #RSKsmart #fintech",1,0,0,False
324,Ameer Rosic@AmeerRosic,Why Latin American economies are turning to #bitcoin http://snip.ly/mtab3 #blockchain #ethereum,1,3,0,False
325,Cloud Mining Monitor@cmmonitorcom,#Ethereum #Cloudmining': 26.11.2016 Payment received. 6 MHs - 0.06817272 ETH. From Genesis Mining.Genesis Mining (Ethereum Mining)cmmonitor.com,1,0,0,False
326,Alberto Jauregui | esoteRICK.eth @DisruptBanksy,"http://ift.tt/2fPAb2p Ethereum Issues Security Alert After Fork, Transactions May Be Reverted - CoinTelegraph #ethereum #ether",0,0,0,False
327,Ethereum SE@StackEthereum,Double checking about the TheDAO hard fork http://ethereum.stackexchange.com/questions/10302/double-checking-about-the-thedao-hard-fork… #ethereum #thedao #hardforks,0,0,0,False
328,FailCommunity@FAILCommunity,#Ethereum developers are handling a bug.  #FAILfun $eth #eth #cryptocurrency #altcoins #fintech #security #geth0:02175 views,9,4,1,False
329,CoinFollower@CoinFollowerCom,"Ethereum Issues Security Alert After Fork, Transactions May Be Reverted: #ethereum http://coinfollower.com/16977/Ethereum%20Issues%20Security%20Alert%20After%20Fork,%20Transactions%20May%20Be%20Reverted…",0,0,0,False
332,Marc Kenigsberg @marckenigsberg,Despite reassurance by @VitalikButerin will security warning on #ethereum geth fork cause concern https://cointelegraph.com/news/ethereum-issues-security-alert-after-fork-transactions-may-be-reverted… via @Cointelegraph,0,0,0,False
333,Ethereum Monkey@EthMonkey,"Ethereum Issues Security Alert After Fork, Transactions May Be Reverted #ethereum https://cointelegraph.com/news/ethereum-issues-security-alert-after-fork-transactions-may-be-reverted…",1,0,0,False
334,CrowdEmprende@Crowdemprende,"Your Gold Our Technology
The Future Is Now

#Cryptocurrency #Bitcoin #ethereum #Dinarcoin #dinardirham #fintech…   Vía mynameisajudin",2,1,0,False
335,WangXiang@WangXiang,@BeyondVoidGame is a real time strategy game using the #ethereum #blockchain https://youtube.com/watch?v=5rtPaF2RFfs…,0,0,0,False
336,Coinstats@coinstats,"Ethereum Classic - ETC
Price: $0.809322
Change in 1h: +0.46%
Market cap: $69807838.0
Ranking: 6
#Ethereum Classic #ETC",0,0,0,False
337,Coinstats@coinstats,"Ethereum - ETH
Price: $9.34836
Change in 1h: +0.31%
Market cap: $807071985.0
Ranking: 2
#Ethereum #ETH",0,0,0,False
338,Ethereum Price@EthereumPrice_,"#Ethereum: Ether Price Index
1 ETH =0.012693Ƀ XBT = $9.334345 USD
Today: -0.08%⬇︎ Last 24h: +0.45%⬆︎
https://ethereum-price.com",0,0,0,False
340,aJuDiN@mynameisajudin,"Your Gold Our Technology
The Future Is Now

#dinardirham #dinarcoin #bitcoin #ethereum #cryptocurrency #fintech #blockchain #ubw #gsc",2,0,0,False
341,CryptoNewswire @CryptoNewswire,"Ethereum Issues Security Alert After Fork, Transactions May Be Reverted - https://cointelegraph.com/news/ethereum-issues-security-alert-after-fork-transactions-may-be-reverted… $ETH #cryptocurrency #bitcoin #markets",0,0,0,False
342,Ethereum UAE@Ethereum_UAE,"Ethereum Issues Security Alert After Fork, Transactions May Be Reverted http://ift.tt/2fBL7CV #Ethereum",1,0,0,False
343,LAPITH@bhumharit,"#Ethereum Issues #Security Alert After Fork, #Transactions May Be Reverted https://cointelegraph.com/news/ethereum-issues-security-alert-after-fork-transactions-may-be-reverted… By olusegunisrael",2,0,0,False
344,Ali Güçlü@aliguclu,"CoinTelegraph : #Ethereum Issues #Security Alert After Fork, #Transactions May Be Reverted… https://twitter.com/CoinTelegraph/status/802478765490241536…)Quote TweetCointelegraph@Cointelegraph · Nov 26, 2016#Ethereum Issues #Security Alert After Fork, #Transactions May Be Reverted https://cointelegraph.com/news/ethereum-issues-security-alert-after-fork-transactions-may-be-reverted… By @olusegunisrael",0,0,0,False
345,LAPITH@bhumharit,"RT: #Ethereum Issues #Security Alert After Fork, #Transactions May Be Reverted https://cointelegraph.com/news/ethereum-issues-security-alert-after-fork-transactions-may-be-reverted… By olusegunisrael",1,0,0,False
346,Анатолий Матросов@amatrosov164,Chances to win up to 150K ARK just for Tweeting! Hook me UP! http://bit.ly/2gkXtRM #btc #lisk #ARK $ARK #crypto #eth #bitcoin,0,0,0,False
347,BlackBullTradingPost ₿   @BlackBullTradn,"CoinTelegraph: #Ethereum Issues #Security Alert After Fork, #Transactions May Be Reverted https://cointelegraph.com/news/ethereum-issues-security-alert-after-fork-transactions-may-be-reverted… By olusegunisrael",0,0,0,False
349,Ethereum SE@StackEthereum,Double checking about the DAO hard fork http://ethereum.stackexchange.com/questions/10302/double-checking-about-the-dao-hard-fork… #ethereum #thedao #hardforks,1,0,0,False
350,starttanky@starttanky,"#Ethereum Daily Chart in Euro
watching for longs #ethusd",2,1,1,False
351,BitcoinMan@eugeneym,Chances to win up to 150K ARK just for Tweeting! Hook me UP! http://bit.ly/2gkXtRM #btc #lisk #ARK $ARK #crypto #eth #bitcoin,0,0,0,False
352,Eg0rPetr0v@epetrov007,Chances to win up to 150K ARK just for Tweeting! Hook me UP! http://bit.ly/2gkXtRM #btc #lisk #ARK $ARK #crypto #eth #bitcoin,0,0,0,False
355,Volody Sk@VolodySk,DollarVigilante: Anarchast With Jim Bell: Assassination Politics Meet the #Blockchain #Ethereum …,1,0,0,False
357,Paulo Markes@Paul0Markes,Chances to win up to 150K ARK just for Tweeting! Hook me UP! http://bit.ly/2gkXtRM #btc #lisk #ARK $ARK #crypto #eth #bitcoin,0,0,0,False
358,Игорь Мартынов@Igorjok215,Chances to win up to 150K ARK just for Tweeting! Hook me UP! http://bit.ly/2gkXtRM #btc #lisk #ARK $ARK #crypto #eth #bitcoin,0,0,0,False
359,Cortes@Cortes_Cripto,Chances to win up to 150K ARK just for Tweeting! Hook me UP! http://bit.ly/2gkXtRM #btc #lisk #ARK $ARK #crypto #eth #bitcoin,1,1,0,False
360,blockchainmedia@Ethereumlab,"Who is working on a blockchain powered sustainable energy solutions?
http://dld.bz/eVxaY #ethereum #blockchain",0,0,0,False
361,Coinstats@coinstats,"Ethereum Classic - ETC
Price: $0.802407
Change in 1h: +0.75%
Market cap: $69209930.0
Ranking: 6
#Ethereum Classic #ETC",0,0,0,False
362,Bobe'bot@Bobe_bot,"1 #BTC = 763.1305 #CHF
1 #ETH = 9.9106 #CHF
1 #DOGE = 0.000223587936 #CHF
sources: @cryptonatorcom @hellobity",0,0,0,False
363,Coinstats@coinstats,"Ethereum - ETH
Price: $9.32715
Change in 1h: +-0.08%
Market cap: $805224019.0
Ranking: 2
#Ethereum #ETH",0,0,0,False
364,Ameer Rosic@AmeerRosic,How Will #Blockchain Change Banking? How Won't It? http://snip.ly/a2ci1 #Ethereum #Bitcoin,1,0,0,False
365,digitron@nortigid,Chances to win up to 150K ARK just for Tweeting! Hook me UP! http://bit.ly/2gkXtRM #btc #lisk #ARK $ARK #crypto #eth #bitcoin,0,0,0,False
369,CRΞATIVΞLIFΞ₿@CREATIVE818,Chances to win up to 150K ARK just for Tweeting! Hook me UP! http://bit.ly/2gkXtRM #btc #lisk #ARK $ARK #crypto #eth #bitcoin,1,0,0,False
370,Алексей Круглов@kruglv007,Chances to win up to 150K ARK just for Tweeting! Hook me UP! http://bit.ly/2gkXtRM #btc #lisk #ARK $ARK #crypto #eth #bitcoin,0,0,0,False
371,blockchainmedia@Ethereumlab,Step-by-Step Guide: What the heck is a Smart Contract? #blockchain #bitcoin #ethereum http://dld.bz/eYNat,0,0,0,False
372,Crypto Bean@William42111948,You can help #Zclassic by submitting a coin request to Poloniex here: https://goo.gl/31InBe $XMR $REP #ethereum,1,0,0,False
373,Ameer Rosic@AmeerRosic,25 GENIUSES WHO ARE CREATING THE FUTURE OF BUSINESS http://snip.ly/avrq9 #Blockchain #Ethereum,1,0,0,False
375,Валера Толочко@valeratolock,Chances to win up to 150K ARK just for Tweeting! Hook me UP! http://bit.ly/2gkXtRM #btc #lisk #ARK $ARK #crypto #eth #bitcoin,0,0,0,False
377,blockchainmedia@Ethereumlab,It's coming! The #Blockchain Technology That Will Replace Lawyers http://dld.bz/eYNat #ethereum,0,0,0,False
378,Blockgeeks@Blockgks,Can someone explain to me what is Ethereum in laymen's term? http://dld.bz/eWbfN #ethereum #blockchain,2,0,0,False
379,Coinstats@coinstats,"Ethereum Classic - ETC
Price: $0.796845
Change in 1h: +-1.49%
Market cap: $68729311.0
Ranking: 6
#Ethereum Classic #ETC",0,0,0,False
380,Coinstats@coinstats,"Ethereum - ETH
Price: $9.32589
Change in 1h: +-0.24%
Market cap: $805103213.0
Ranking: 2
#Ethereum #ETH",0,0,0,False
381,Bitonator ∀@TimoBitonator,Chances to win up to 150K ARK just for Tweeting! Hook me UP! http://bit.ly/2gkXtRM #btc #lisk #ARK $ARK #crypto #eth #bitcoin,0,0,0,False
383,Zorro@Zorik_07,Chances to win up to 150K ARK just for Tweeting! Hook me UP! http://bit.ly/2gkXtRM #btc #lisk #ARK $ARK #crypto #eth #bitcoin,0,0,0,False
384,Dima Zverev@Dima_zverev85,Chances to win up to 150K ARK just for Tweeting! Hook me UP! http://bit.ly/2gkXtRM #btc #lisk #ARK $ARK #crypto #eth #bitcoin,0,0,0,False
385,Anzor Zaurbekov@Anzorro_95,Chances to win up to 150K ARK just for Tweeting! Hook me UP! http://bit.ly/2gkXtRM #btc #lisk #ARK $ARK #crypto #eth #bitcoin,0,0,0,False
386,Andrew Blagin@andrejBlagin,Chances to win up to 150K ARK just for Tweeting! Hook me UP! http://bit.ly/2gkXtRM #btc #lisk #ARK $ARK #crypto #eth #bitcoin,0,0,0,False
387,c0mrade4chan@crypto_maniacs,Chances to win up to 150K ARK just for Tweeting! Hook me UP! http://bit.ly/2gkXtRM #btc #lisk #ARK $ARK #crypto #eth #bitcoin,0,0,0,False
389,Sio34@Sio347,Chances to win up to 150K ARK just for Tweeting! Hook me UP! http://bit.ly/2gkXtRM #btc #lisk #ARK $ARK #crypto #eth #bitcoin,0,0,0,False
390,kiber0x@kiber0x,Chances to win up to 150K ARK just for Tweeting! Hook me UP! http://bit.ly/2gkXtRM #btc #lisk #ARK $ARK #crypto #eth #bitcoin,0,0,0,False
391,blockchainmedia@Ethereumlab,Is #Blockchain Technology Going To Disrupt Our Political System:  http://dld.bz/fgnWh #ethereum,1,1,0,False
393,Green@greengggggggg,Chances to win up to 150K ARK just for Tweeting! Hook me UP! http://bit.ly/2gkXtRM #btc #lisk #ARK $ARK #crypto #eth #bitcoin,0,0,0,False
394,Nikos@Nikos4691,Chances to win up to 150K ARK just for Tweeting! Hook me UP! http://bit.ly/2gkXtRM #btc #lisk #ARK $ARK #crypto #eth #bitcoin,0,0,0,False
395,Math Boost@MathFlashcards,ChronobankNews: whitepaper.pdf http://activevoice.us/article.jsp?name=chronobanknewswhitepaperpdf&t=Math… #RT #blockchain #bitcoin #ethereum #fintech #startup #NEM,1,0,0,False
396,iNattt iHearband@iNattt,The latest The iNattt Daily! http://paper.li/iNattt?edition_id=3df79950-b3b8-11e6-9f3a-0cc47a0d1609… Thanks to @sainiechi @G_GaRaReD @susheewa #guitar #ethereum,1,0,0,False
397,Felix2cat@Felixtocat,6 months stats good advice : #cloud mining $ETH returns a 20% loss !,0,0,0,False
399,Jesus Guerrero@jeguemac,Chances to win up to 150K ARK just for Tweeting! Hook me UP!  #Btc #lisk #aRK $ARK #crypto #Eth #bitcoin Vía sokololia,0,0,0,False
400,blockchainmedia@Ethereumlab,Smart Contracts: The #Blockchain Technology That Will Replace Lawyers http://dld.bz/eYNat #ethereum,0,0,0,False
401,Bitcoin NewsBoard@bitcoinewsboard,#JPMorgan is Quietly Developing a Private #Ethereum Blockchain http://bitcoinnewsboards.com/?p=33713 #banking #bitcoin #news #sibos2016,0,0,0,False
402,Coinstats@coinstats,"Ethereum Classic - ETC
Price: $0.805209
Change in 1h: +-2.53%
Market cap: $69449992.0
Ranking: 6
#Ethereum Classic #ETC",0,0,0,False
403,Coinstats@coinstats,"Ethereum - ETH
Price: $9.33768
Change in 1h: +-0.68%
Market cap: $806112268.0
Ranking: 2
#Ethereum #ETH",0,0,0,False
404,Ethereum Price@EthereumPrice_,"#Ethereum: Ether Price Index
1 ETH =0.012603Ƀ XBT = $9.340700 USD
Today: -0.78%⬇︎ Last 24h: -0.21%⬇︎
https://ethereum-price.com",2,0,0,False
405,sokololia@sokololia,Chances to win up to 150K ARK just for Tweeting! Hook me UP! http://bit.ly/2gkXtRM #btc #lisk #ARK $ARK #crypto #eth #bitcoin,0,0,0,False
407,Stan@Stan_Tkachenko,Chances to win up to 150K ARK just for Tweeting! Hook me UP! http://bit.ly/2gkXtRM #btc #lisk #ARK $ARK #crypto #eth #bitcoin,0,0,0,False
412,Mikhail Kostin@kostin_mikhail,Chances to win up to 150K ARK just for Tweeting! Hook me UP! http://bit.ly/2gkXtRM #btc #lisk #ARK $ARK #crypto #eth #bitcoin,0,0,0,False
413,Spartak Tomanov@bulgar1an,My personal #scam accusation against @YobitExchange https://bitcointalk.org/index.php?topic=1693981.0… via @bitcointalk #Bitcoin #Ethereum #exchange,1,1,0,False
414,Ethereum SE@StackEthereum,"Solidity Browser - Issue with every example => Error: Type ""address"" not supported for state variable http://ethereum.stackexchange.com/questions/10297/solidity-browser-issue-with-every-example-error-type-address-not-support… #ethereum",0,0,0,False
415,Crypto Lady@Lady_of_Crypto,Chances to win up to 150K ARK just for Tweeting! Hook me UP! http://bit.ly/2gkXtRM #btc #lisk #ARK $ARK #crypto #eth #bitcoin,0,0,0,False
416,Fred E @Fredilly,"I thought I was going to get rich with #Ethereum. I lost everything!

Don't be like me. Be smart and be a founder instead ",2,2,0,False
417,Steve Somers@steve_somers,Learn #Howto start easily mining #crypto currencies on your home computer in just couple clicks. #XMR #ETH #BTC https://minergate.com/a/8b03a821ff522ef2f8e2e431…,0,0,0,False
418,xDiiThy@xDiiThy,Chances to win up to 150K ARK just for Tweeting! Hook me UP! http://bit.ly/2gkXtRM #btc #lisk #ARK $ARK #crypto #eth #bitcoin,0,0,0,False
420,Oleg Fomin@oleg_invest1,Chances to win up to 150K ARK just for Tweeting! Hook me UP! http://bit.ly/2gkXtRM #btc #lisk #ARK $ARK #crypto #eth #bitcoin,0,0,0,False
421,indxio@indxio,#China Market Close || #Bitcoin: $740.1 | 701.74 EUR||  #Litecoin: 0.0026 BTC  || #Ethereum: 0.0127 BTC   || $BTC $LTC $ETH $RMB,0,0,0,False
423,Johnny Mnemonic@J0hnnyMnemonic,Chances to win up to 150K ARK just for Tweeting! Hook me UP! http://bit.ly/2gkXtRM #btc #lisk #ARK $ARK #crypto #eth #bitcoin,0,0,0,False
424,Moonny Dog@moonny_dog,Chances to win up to 150K ARK just for Tweeting! Hook me UP! http://bit.ly/2gkXtRM #btc #lisk #ARK $ARK #crypto #eth #bitcoin,0,0,0,False
425,Brave New Coin@bravenewcoin,#Ethereum Price: USD $9.49 $ETH http://ow.ly/6UKf3048WBe,1,0,0,False
426,Arthur@arturagasyan,Chances to win up to 150K ARK just for Tweeting! Hook me UP! http://bit.ly/2gkXtRM #btc #lisk #ARK $ARK #crypto #eth #bitcoin,0,0,0,False
427,Coinstats@coinstats,"Ethereum Classic - ETC
Price: $0.827059
Change in 1h: +-0.64%
Market cap: $71333331.0
Ranking: 6
#Ethereum Classic #ETC",0,0,0,False
428,Bitcoin Updater@BitcoinUpdater,Acronis Adds Acronis Notary™ with Blockchain and Acronis CloudRAID™ to Software-Defined Storage #ethereum http://soco.space/b0WM5o,4,0,0,False
429,Coinstats@coinstats,"Ethereum - ETH
Price: $9.40187
Change in 1h: +0.26%
Market cap: $811639994.0
Ranking: 2
#Ethereum #ETH",0,0,0,False
430,Gautam ANAND@gautam_anand25,"Replying to @uzynToo new to the concept, can you explain what #ETHEREUM in a line? I get a feeling its a mapping engine. Sorry if i am wrong",1,1,0,False
431,Trial@Trial1551,Chances to win up to 150K ARK just for Tweeting! Hook me UP! http://bit.ly/2gkXtRM #btc #lisk #ARK $ARK #crypto #eth #bitcoin,0,0,0,False
433,Gautam ANAND@gautam_anand25,"@uzyn Can #ETHEREUM as a auto load balancer for node apps? Link for presentation? 5mins too less, but good talk :-)",1,0,0,False
434,U-Zyn Chua @uzyn,"Pheww... My ""Solidity in 5 Minutes"" deck, presented at @jsconfasia lightning talk. https://speakerdeck.com/uzyn/solidity-in-5-minutes… #ethereum #blockchain #jsconfasiaSolidity in 5 MinutesCreating Decentralized Apps on Ethereum Blockchain Presented at JSConf.Asia 2016 Code snippets: https://bit.ly/SGDT-solspeakerdeck.com",4,2,0,False
438,No coNnecT@_No_CoNnecT_,Chances to win up to 150K ARK just for Tweeting! Hook me UP! http://bit.ly/2gkXtRM #btc #lisk #ARK $ARK #crypto #eth #bitcoin,0,0,0,False
439,(((Per Lind)))@pclind1,"Again @FGraillot most likely #distributedledger #DLT will do this. Not #blockchain #fintech #bitcoin #Ethereum http://iotatoken.comQuote TweetFlorian Graillot@FGraillot · Nov 26, 2016Interesting article on how #blockchain could impact all the insurance value chain. #InsurTech #FinTech http://buff.ly/2fA7ZCS",1,0,0,False
440,blockchainmedia@Ethereumlab,Become a #Blockchain Guest Contributor http://dld.bz/fgnwr #writer #bitcoin #ethereum,0,0,0,False
441,/r/Ethereum@r_Ethereum,Arcade City Dev Update #EthereumArcade City Dev UpdatePosted in r/ethereum by u/Txkllr • 2 points and 1 commentreddit.com,4,4,1,False
443,Kristina Petrovskaya@Krista_VPX,Chances to win up to 150K ARK just for Tweeting! Hook me UP! http://bit.ly/2gkXtRM #btc #lisk #ARK $ARK #crypto #eth #bitcoin,0,0,0,False
444,PapillonV@PapillonV5,Chances to win up to 150K ARK just for Tweeting! Hook me UP! http://bit.ly/2gkXtRM #btc #lisk #ARK $ARK #crypto #eth #bitcoin,2,0,0,False
445,Bitcoin Updater@BitcoinUpdater,Ethereum Classic Price Technical Analysis – ETC Remains Supported #ethereum http://soco.space/.6LBvt,1,0,0,False
446,/r/Ethereum@r_Ethereum,Ohmygodholyfuckwearesoscrewed PANIC PANIC PANIC #EthereumOhmygodholyfuckwearesoscrewed PANIC PANIC PANICPosted in r/ethereum by u/theTBTFdao • 0 points and 1 commentreddit.com,2,1,0,False
447,Coinstats@coinstats,"Ethereum Classic - ETC
Price: $0.832306
Change in 1h: +-0.31%
Market cap: $71784457.0
Ranking: 6
#Ethereum Classic #ETC",0,0,0,False
448,MeeseeksBTC@Meeseeks100BTC,"RT Start mining $ETH or $BTC together with people from all over the world.

https://goo.gl/tYClLG",0,0,0,False
449,Coinstats@coinstats,"Ethereum - ETH
Price: $9.38952
Change in 1h: +-0.33%
Market cap: $810560955.0
Ranking: 2
#Ethereum #ETH",0,0,0,False
450,Numerati. Twetch#: @1033@MirakhorHassan,Replying to @MirakhorHassan @CollinCrypto and @MAbtcClaims $eth proves others could over take $btc but $eth currently a colossal failure in terms of implementation. 7/,1,0,0,False
451,_Lucky_@ll_lucky_ll,Chances to win up to 150K ARK just for Tweeting! Hook me UP! http://bit.ly/2gkXtRM #btc #lisk #ARK $ARK #crypto #eth #bitcoin,0,0,0,False
452,dotglum@dotglum,The Looming War for Blockchain Patents http://bit.ly/2drBHKn #Blockchain #fintech #bitcoin #patent #ETHEREUM #cryptocurrencyThe Looming War for Blockchain Patents - CoinDeskThere’s a patent land grab developing that could potentially make doing business more challenging for blockchain startups.coindesk.com,1,2,0,False
453,Daryl S@CoinGetterD,Chances to win up to 150K ARK just for Tweeting! Hook me UP! http://bit.ly/2gkXtRM #btc #lisk #ARK $ARK #crypto #eth #bitcoin,0,0,0,False
454,Ξ Fly Guy Ξ (flyguy.eth)@FlyGuyInTheSky,"Replying to @FlyGuyInTheSkyHere's a poll i did at the end of September..still over a month to go. ""Below $10..0%"" admittedly only 9 voted..  #ethereum",0,0,0,False
455,wanda@wandahamz,Chances to win up to 150K ARK just for Tweeting! Hook me UP! http://bit.ly/2gkXtRM #btc #lisk #ARK $ARK #crypto #eth #bitcoin,0,0,0,False
456,Colombina@Colombina_2,Chances to win up to 150K ARK just for Tweeting! Hook me UP! http://bit.ly/2gkXtRM #btc #lisk #ARK $ARK #crypto #eth #bitcoin,0,0,0,False
457,Ξ Fly Guy Ξ (flyguy.eth)@FlyGuyInTheSky,Replying to @FlyGuyInTheSky@CouplesRate2 #ethereum what is it? Younger and sexier than #bitcoin and definitely experimental and bold.,0,0,0,False
458,Ξ Fly Guy Ξ (flyguy.eth)@FlyGuyInTheSky,"#ethereum has stabilised after Unintentional ""Fork"". My bet? we are due a significant rise as ""it's business as usual"". Been a bad 6 months.",1,2,0,False
459,blockchainmedia@Ethereumlab,Would you like early access to BlockGeeks #Blockchain Community? Sign up here http://blockgeeks.com #ethereum,0,0,0,False
460,Ethereum SE@StackEthereum,What is an empty account if the state root is not empty? http://ethereum.stackexchange.com/questions/10296/what-is-an-empty-account-if-the-state-root-is-not-empty… #ethereum #security #accounts #attacks #statetrie,0,0,0,False
461,Ethereum UAE@Ethereum_UAE,Charlie Shrem Joins ICO Craze With Investment Platform Intellisys http://ift.tt/2gvIbXi #Ethereum,1,0,0,False
462,xibot  Aavegotchi@xavieriturralde,Replying to @etherscan and @EthereumProjectI did a basic TX donation to #Ethereum #FoundationTipJar n it failed even w/withdraw done w/correct address code,1,0,0,False
464,blockchainmedia@Ethereumlab,"Join today! Blockgeeks is a #Blockchain innovation hub 
& marketplace http://blockgeeks.com #Bitcoin #Ethereum",0,0,0,False
465,EUROPECOIN  (.eu.org)@europecoinEUORG,"$ERC $BSD $DMD welcoming #OKcash to the @federatedchains alpha testnet team https://bitcointalk.org/index.php?topic=1692720.new#new…
#crypto #fintech #eth #smartcontracts",21,16,0,False
466,Coinstats@coinstats,"Ethereum Classic - ETC
Price: $0.832584
Change in 1h: +-0.42%
Market cap: $71807187.0
Ranking: 6
#Ethereum Classic #ETC",0,0,0,False
467,Coinstats@coinstats,"Ethereum - ETH
Price: $9.41319
Change in 1h: +0.38%
Market cap: $812590756.0
Ranking: 2
#Ethereum #ETH",0,0,0,False
468,Ethereum Price@EthereumPrice_,"#Ethereum: Ether Price Index
1 ETH =0.012724Ƀ XBT = $9.378795 USD
Today: +0.17%⬆︎ Last 24h: +1.58%⬆︎
https://ethereum-price.com",0,0,0,False
470,Olivier Chapiteau@o_chapiteau,"26Nov2016 06:00 UTC #Ether #Blockchain status - Block height @ 2,690,249 - 68,713 unconfirmed tr. - Last fork height @ 2,686,646",1,0,0,False
471,Olivier Chapiteau@o_chapiteau,26Nov2016 06:00 UTC #Ethereum live spots - #Ether @ 9.40378 $ - #EtherClassic @ 0.83455 $,0,0,0,False
472,Christian Seberino@c_seberino,"The Skinny On Smart Contracts: An Introduction & Why You Should Care http://buff.ly/2fGCIMs #etc #eth #ethereumclassic #ethereumThe Skinny On Smart Contracts: An Introduction & Why You Should Care — SteemitIntroduction Smart contracts, as defined by Nick Szabo, are computer systems that manage assets. Assets include… by cseberinosteemit.com",0,0,0,False
473,ExploreTraveler@exploretravel1,RT @AL77_blockchain: 1.9 - Ethereum Account 0x3730117F77ac04Eec364BF72a656010FA4703D76 Info #dao #ethereum http://lnkplg.co/d66aa,1,0,0,False
474,blockchainmedia@Ethereumlab,What is #Blockchain Technology? Guide For Beginners http://dld.bz/eW5DU #ethereum,0,0,0,False
476,Spotlights3.0@Spotlights3_0,Has #Ethereum Just Forked by Accident? Some Transactions May Disappear https://cointelegraph.com/news/has-ethereum-just-forked-by-accident-some-transactions-may-disappear…,0,0,0,False
477,Spotlights3.0@Spotlights3_0,"Hardware Wallet KeepKey Integrates #Ethereum, Adding It To #Bitcoin, #Altcoins https://cointelegraph.com/news/hardware-wallet-keepkey-integrates-ethereum-adding-it-to-bitcoin-altcoins… @bitcoinkeepkey - By @iamjosephyoung",1,3,0,False
478,Branche@DESbranche,Thanks for adding us @digintent ! #fintech #blockchain #innovation #brandstrategy #crypto #ethereum #bitcoin #microcredit,2,2,0,False
479,EUROPECOIN  (.eu.org)@europecoinEUORG,"#FEDERATION in MIND made $ERC CORE an #IoT and #fintech SUPERSTAR. 

#crypto #altcoins #internetofcoins #eth #bittrex #bitcoin #blockchain",21,27,0,False
480,Branche@DESbranche,number 31 in the top 40 under 40! Vitalik Buterin @FortuneMagazine http://for.tn/2cKK8zw #ethereum #fintech #blockchain #innovation,2,4,0,False
481,windchamp1872@windchamp1872,Chances to win up to 150K ARK just for Tweeting! Hook me UP! http://bit.ly/2gkXtRM #btc #lisk #ARK $ARK #crypto #eth #bitcoin,0,0,0,False
482,Blockgeeks@Blockgks,Welcome to Fortune's 2016 40 Under 40 http://dld.bz/eWbaX #ethereum #blockchain #business,0,0,0,False
483,Coinstats@coinstats,"Ethereum Classic - ETC
Price: $0.83472
Change in 1h: +-0.01%
Market cap: $71990413.0
Ranking: 6
#Ethereum Classic #ETC",0,0,0,False
484,Bobe'bot@Bobe_bot,"1 #BTC = 769.5463 #CHF
1 #ETH = 9.9715 #CHF
1 #DOGE = 0.000217908592 #CHF
sources: @cryptonatorcom @hellobity",0,0,0,False
485,Coinstats@coinstats,"Ethereum - ETH
Price: $9.38769
Change in 1h: +-0.29%
Market cap: $810372662.0
Ranking: 2
#Ethereum #ETH",0,0,0,False
486,Michael Wuehler@wuehler,Spreading the #INFURA word in Canada #Ethereum #hackathon #RegHackTO,9,0,0,False
487,Churilov Ruslan@rus23kav,Chances to win up to 150K ARK just for Tweeting! Hook me UP! http://bit.ly/2gkXtRM #btc #lisk #ARK $ARK #crypto #eth #bitcoin,0,0,0,False
488,Aayush Jindal@AayushJs,#Ethereum - $ETH $USD: Consensus Bug Ignites Downside Break #Ether #cryptocurrency http://ethnews.com/analysis/11-25-2016-ethusd-consensus-bug-ignites-downside-break…,1,0,0,False
489,Vindyne8@Vindyne8,#RT Join ChronoBank on BitcoinTalk! http://bitcointalk.org/index.php?topi… #blockchain #bitcoin #ethereum #wavesplatform,14,13,0,False
490,Ashley Jabalera@Jaba2060,"Hardware Wallet KeepKey Integrates #Ethereum, Adding It To #Bitcoin, #Altcoins - https://cointelegraph.com/news/hardware-wallet-keepkey-integrates-ethereum-adding-it-to-bitcoin-altcoins…",1,1,1,False
491,Vindyne8@Vindyne8,#PassLfix The Pass #DAO smart contract is now deployed on #Ethereum #ETH #blockchain #smartcontracts #Parcels https://etherscan.io/address/0x3730117F77ac04Eec364BF72a656010FA4703D76#code… #RT,13,13,0,False
492,Brownie.one@Aegon1987,"Everytime I read about #ethereum fork! Just matter of time 
#bitcoinGIF",0,0,0,False
494,Ameer Rosic@AmeerRosic,"Is #Ethereum similar to #Bitcoin? Well, sort of, but not really. http://dld.bz/fcBTc #blockchain",1,0,0,False
495,Brave New Coin@bravenewcoin,#Ethereum Price: USD $9.54 $ETH http://ow.ly/6UKf3048WBe,0,0,0,False
496,blockchainmedia@Ethereumlab,Can someone explain to me what is Ethereum in laymen's term? http://dld.bz/eWbfN #ethereum #blockchain,0,0,0,False
497,Coinstats@coinstats,"Ethereum Classic - ETC
Price: $0.834981
Change in 1h: +-0.02%
Market cap: $72011550.0
Ranking: 6
#Ethereum Classic #ETC",0,0,0,False
498,Coinstats@coinstats,"Ethereum - ETH
Price: $9.41017
Change in 1h: +-0.39%
Market cap: $812300440.0
Ranking: 2
#Ethereum #ETH",0,0,0,False
