,user,text,likes,retweets,replies,is_thread
0,Cryptonaire@imcryptonaire,Almost there! Help us supercharge development! #gulden #cryptocurrency #investement #money #btc #ether,2,4,0,False
1,Netcube93@Netcube93,#Lisk Rating: https://invesd.org/review1lisk/ #blockchain #ethereum #dao,3,0,0,False
2,Pranay@pranay_soni0211,#top20 #opensource provider in India.A Proud moment.#Liferay #Mobile #web #bigdata #d3js #ethereum #blockchain #port…https://lnkd.in/b9-aBii,5,3,0,False
3,Zumbudda@Zumbudda,#ethereum is designed to facilitate a wide variety of transactions including healthcare but is different to #bitcoin http://wsj.com/articles/bitcoin-rival-ether-gains-traction-1466461279…,1,0,0,False
4,Trading Surfer@TradingSurfer_,#ethereum #ETH looks steady. I am long from 10. More potential than #bitcoin #btc,1,0,0,False
5,fav@btsfav,#Ethereum in a Nutshell.,2,2,0,False
6,ZARKrypto@ZARKrypto,"#bitcoin copying ideas created by @john_a_connor UDP/Encryption.
#vcash $XVC #fintech $ETH #coindesk @HeyTaiZen",6,0,0,False
7,DanielDettwiler@DanielDettwiler,"Looks like #DAOWars related soft-fork of #ethereum #blockchain will happen: https://etherchain.org/statistics/dao
more Info at: 
https://blog.ethereum.org/2016/06/24/dao-wars-youre-voice-soft-fork-dilemma/…",1,1,0,False
8,Pete@petegarvin,"Glad to be part of cohort 1! @b9lab #blockchain #ethereumQuote TweetCoinDesk@CoinDesk · Jun 27, 2016Press Release: High Demand for Blockchain Developer Training after First Cohort Starts http://zpr.io/uaMc",4,2,1,False
9,Trust Stamp@truststamp,OMG @ArcadeCityHall you're #ethereum nerds?! Us too! #blockchain #RideShare #sharingeconomy,5,0,0,False
10,0xc1c4da@0xc1c4da,Excellent article on Condition-Orientated Programming by @gavofyork #ethereum https://medium.com/@gavofyork/condition-orientated-programming-969f6ba0161a#.rntse7xr1…,3,2,0,False
11,Blockchain Academy@BlockchainAcad,Heard of #Ethereum & #smartcontracts but not sure what it is & how to works? Enrol 4 new Ethereum Beginner course: http://bitcoinacademy.co.za/#ethereum,2,1,0,False
12,Johnny Smirk@BTCJohnny,"http://bit.ly/ethtrades
Profitable investment that rich people...

#Bitcoin
#Eth
#Ethereum
#ETH
#BTC
#Cryptocurrency",2,0,0,False
13,Collin Crypto@CollinCrypto,"ItBit explores adding #ethereum to its digital currency exchange. $eth
http://coindesk.com/itbit-ether-bitcoin-exchange/…",1,0,0,False
14,ΞTHΞROll@etheroll,"Our story of being in the middle of an #ethereum crowdsale when the DAO hack happened https://etheroll.wordpress.com/2016/06/18/crowdsale-now-closed-eth-has-been-refunded/… #bitcoin #dogecoinDue to the DAO hack our crowdsale is now closed, all Ether has been refunded.June 18th, 2016 To all, In light of the recent events surrounding the hacking of 3,641,694ETH from The DAO we have the following announcement to make: Upon learning of The DAO hack we immediately u…etheroll.wordpress.com",3,0,0,False
15,Fintech Pinas@FintechPinas,#Ethereum for the Overwhelmed Layman http://bit.ly/28TC9LC via @CoinDesk #Philippines #Blockchain,2,1,0,False
16,(((Per Lind)))@pclind1,"Asian #Fintech Investment Surges http://ln.is/www.finews.asia/fina/m94iU… #banks #blockchain #payment #DAO #payment #bitcoin #EthereumAsian Fintech Investment SurgesAfter a drop off in the last quarter of 2015, Asia has broken new funding highs in the first quarter of 2016, suggesting that substantial financial technology investment in the region is expected for...finews.asia",4,0,0,False
17,Joerg Resch@joergresch,"Interesting: ""#Blockchain in Telecom - a Possible Application using #Ethereum "" https://lnkd.in/ebbsKdR on @LinkedInBlockchain in Telecom - a Possible Application using Ethereum(The following is a thought experiment of a possible application of blockchain technology in telecom, especially relating to billing systems. It assumes a basic level of understanding of blockchain...linkedin.com",4,4,0,False
18,Francisco Gordillo@FGordillo,MUST READ!! Ethereum launches voting on The DAO soft fork fix #coinfox http://coinfox.info/news/5791-ethereum-launches-voting-on-the-dao-soft-fork-fix… #blockchain #ethereum #dao #bitcoin #fintechEthereum launches voting on The DAO soft fork fixA new update to the Geth client appropriately codenamed “DAO wars” allows the community to vote whether to freeze all child DAO accounts to prevent withdrawal of money stolen during of the 17 June attcoinfox.info,3,1,0,False
19,Patrizio Stavola@halovast,"read @gavofyork's take on writing #safe,#secure #smartcontracts:“Condition-Orientated Programming” https://medium.com/@gavofyork/condition-orientated-programming-969f6ba0161a#.dpuf65dbr… #ethereum #thedao",4,2,0,False
20,Patrizio Stavola@halovast,"great explanation of #Ethereum: Gas, Fuel, and Fees https://media.consensys.net/2016/06/23/ethereum-gas-fuel-and-fees/… via @ConsenSysLLC #blockchain #bitcoinEthereum, Gas, Fuel, & FeesRead on to learn what powers the Ethereum Virtual Machine, a world computer that supports Dapps running on a global,peer-to-peer networkmedia.consensys.net",5,5,1,False
21,PolyCrypto@Polycrypto,The #Ethereum Soft Fork Has Been Adopted by Major Mining Pools. – The Merkle @themerklenews http://themerkle.com/the-ethereum-soft-fork-has-been-adopted-by-major-mining-pools/…,2,1,0,False
22,EtherBlockchain.io@etherblockchain,"“Where Can I Join The Ethereum Community?” by @BlockChannel https://medium.com/@BlockChannel/where-can-i-join-the-ethereum-community-3aa5c795b1e5#.p9c278ysd… #ether #blockchain #ethereumWhere Can I Join The Ethereum Community?Cryptocurrencies such as Bitcoin and Ethereum attract a lot of attention from people all over the world. But, for some individuals, it can…medium.com",2,1,0,False
23,ZEST Malta 2019@ZESTMalta19,Ready to hack the funding structure? @KaidiRuu gives you the key to do it legally ! #ZESTMalta16 #BreakingBorders,8,3,1,False
24,vik ⟠@vikpkb, the real #disruptive company @funderbeam #smartcontracts #blockchain #ethereum @ZESTMalta16 @KaidiRuu,4,1,1,False
25,Steve Tunstall@TunstallAsc,"Could Attacker Use ""Clean Hands"" on #Dao Codes Based on #Ethereum Platform? http://coint.co/3jL2# #fintech #tech",7,6,0,False
26,Steve Tunstall@TunstallAsc,#Ethereum for the overwhelmed layman http://coindesk.com/ethereum-overwhelmed-layman/… #dao #blockchain #tech #fintech,4,6,0,False
27,Cryptiv@Cryptiv,"Price Surge, #DAO Hack Analysis - #ethereum - #Bitcoin Letter, June 2016 — MediumPrice Surge, DAO Hack Analysis :: Bitcoin Letter, June 2016Dear Community,panteracapital.medium.com",3,0,0,False
28,Plutus@plutus,A simple guide for the Pluton crowdsale. #Bitcoin #Ethereum http://ow.ly/1nkP301G4R0,2,3,0,False
29,The DAO@The_DAO_Project,"Please do not Split with #SoftFork implemented
#Ethereum #EthereumCommunity #KeepCalmAndCarryOn #TheDAO",14,12,2,False
30,String Labs@String_Lab,4 Days before first batch of Open Chain Grants Program close. Keep those applications coming!  #openchain #ethereum http://bit.ly/1TLNpZU,4,4,1,False
31,ConsenSys@Consensys,"In case you missed last week's newsletter on the #DAOhack & #Ethereum #gas, read it today: 
http://buff.ly/2985HHM",10,9,2,False
32,RajeevGM@rajeevgm,".@sammaule,@sytaylor,@compleatang & @JohnLilic discuss #DAO #hack & #Ethereum
https://soundcloud.com/breakingbanks/fintech-brexit-dao-final-and-fintech5…",3,2,0,False
33,fav@btsfav,Win 1 #Ethereum – June Edition  http://favd.xyz/28WwqpA #favspw,1,2,0,False
34,ᵀʳᵃˢʰᴮᵃᵗ@WrathofGoth,#Counterparty #XCP should be worth more than #Ethereum #ETH - people will realize this soon enough.,3,0,0,False
35,Marc@_marcdnd,About the recent vcash bitcoin copying of UDP/encryption: https://v.cash/forum/threads/how-to-help.472/page-2#post-6828… @CoinTelegraph $dgb $ltc $btc $eth @HeyTaiZen,3,3,0,False
36,Tyler Florez @qualiabyte,"Agree, especially for an early stage like Homestead. Underestimating this need was our fundamental collective error.Quote TweetOlivier Janssens@olivierjanss · Jun 26, 2016Regarding Ethereum: Hard forking to fix a bug that affects more than 10% of the userbase is a huge difference vs hard forking for reason x.",1,1,0,False
37,Tyler Florez @qualiabyte,"In retrospect, we clearly need time to discover pitfalls and develop best practices at the level of the smart contract layer. #Ethereum",4,2,1,False
38,ΞTHΞROll@etheroll,Such #Ether! 2326 ETH raised 5 days into our 14 day #ethereum crowdsale. We refunded all 2326 ETH during the DAO hack. Stay tuned. #bitcoin,1,0,0,False
39,Nina's Auntie Verena@Woof4Nina,Never Forget Jeff is still missing..He's out there somewhere..Give him back #Ether he's not yours to keep #FindJeff,3,15,0,False
40,EvilDave@EvilDave_NXT,"#Ooops ........
#TheDAO
#ethereum
#NXT works without giving all your investment away to hackers.Quote TweetThe Economist@TheEconomist · Jun 27, 2016At the DAO, an online investment fund, the underlying code is supreme—and flawed http://econ.st/294I9lQ",4,3,0,False
41,proussakis@proussakis,"#Ethereum: Gas, Fuel, and Fees » Brave New Coin http://ow.ly/PxKp301FzxA",1,2,0,False
42,Randy Hilarski@RandyHilarski,Gold's Big Year: Billionaires Including GEORGE SOROS P... http://slninja.com/wagv #Bitcoin #Ethereum #CryptoCurrency,8,2,0,False
43,Colony@joincolony,"The Ethereum soft fork has been adopted by major mining pools 
http://ow.ly/CNQz301FhCQ #ethereum #fork #hack",5,2,0,False
44,sh3lko@sh3lko,The #Ethereum Soft Fork Has Been Adopted by Major Mining Pools – http://themerkle.com/the-ethereum-soft-fork-has-been-adopted-by-major-mining-pools/… #blockchain #dao #daowarsThe Ethereum Soft Fork Has Been Adopted by Major Mining Pools.The proposed Ethereum Soft fork to prevent the DAO hacker from moving the stolen funds has been adopted by all the major mining pools. The latest update released by the Ethereum foundation included ththemerkle.com,3,1,0,False
45,CloudEXPO ®@CloudExpo,Encore Presentation of Andrew Keys  #Blockchain Keynote coming up! #IoT #M2M #API #ML #BigData #Bitcoin #Ethereum,6,14,1,False
46,Michael Parsons@BitcoinByte,"MT @jakedienelt Comprehensive report on #ethereum, authored by yours truly!  
#eth#theDAO #btc #bitcoin
@mrmainelli
http://coindesk.com/ethereum-blockchain-research-report/…",1,3,0,False
47,DAObase@DAObase_org,"Please do refrain from calling the Split function with #SoftFork in place
#Ethereum #theDAOQuote TweetThe DAO@The_DAO_Project · Jun 27, 2016Please do not Split with #SoftFork implemented
#Ethereum #EthereumCommunity #KeepCalmAndCarryOn #TheDAO",1,1,0,False
48,Kelly@kaoudis,Can somebody explain to me why Blockchain-based things are superior to current digital banking pls? Wrt #DAO & #ethereum issues especially.,2,1,3,False
49,JuanGalt.com@JuanSGalt,#Ethereum and what #thedao hack means. What this means for the future of smart contracts and security. #bitcoin https://youtube.com/watch?v=NAPDCotK7lg…,4,6,0,False
50,Amber D. Scott@OutlierCanada,"""You don't need 160M for an experiment.' We don't need #TheDAO we need many DAOs."" @wmougayar #bitcoin #blockchain #ethereum",5,2,0,False
51,BitShares@bitshares,Tutorial: What is a Decentralized Exchange? #DEX http://ow.ly/nspX301DOr9 #Blockchain #BitShares #Bitcoin #Ethereum #FinTechWhat is a Decentralized Exchange? — SteemitFollowing my four-part essay on decentralization I want here to go more into the notion of a decentralized… by clainssteemit.com,3,0,0,False
52,Vortex@theonevortex,"Counterparty's EVM Port Moves Forward: http://counterparty.io/news/counterpartys-evm-port-moves-forward/…
#bitcoin #blockchain #ethereum #counterparty #xrp",1,0,0,False
53,Actual Advice Bitcoin@ActualAdviceBTC,"Pls retweet for meme reasons.
dank you. #DAO #BTC #ETH",14,8,2,False
54,TechTarget Business Technology@TTBusinessTech,"Three questions for IBM #blockchain expert @ArvindKrishna: http://bit.ly/28XoyVq via @SueTroy @IBM #bitcoin #ethereumThree questions for IBM blockchain expert Arvind KrishnaIBM blockchain expert Arvind Krishna takes on three blockchain issues: scalability, consensus and data ownership.searchcio.techtarget.com",3,4,0,False
55,Iliana Oris Valiente@IlianaOV,"""10M Java developers vs. 5-6,000 #blockchain developers"" - @wmougayar ... Yes, opportunities ... we're hiring! @RubixByDeloitte #ethereum",17,10,0,False
56,Martin Köppelmann@koeppelmann,On #Ethereum we should build platforms that create value instead of extracting value. User and stakeholders=shareholders and #0marginalcosts,15,12,0,False
57,BlockTribune@BlockTribune,The #Ethereum Soft Fork Has Been Adopted by Major Mining Pools http://goo.gl/NF5JAf via @themerklenews #fintech #bitcoinThe Ethereum Soft Fork Has Been Adopted by Major Mining Pools.The proposed Ethereum Soft fork to prevent the DAO hacker from moving the stolen funds has been adopted by all the major mining pools. The latest update released by the Ethereum foundation included ththemerkle.com,2,1,0,False
58,The Dollar Vigilante@DollarVigilante,"Juan Galt: What is Going on With the #DAO and #Ethereum #CryptoCurrency
https://dollarvigilante.com/blog/2016/06/26/juan-galt-going-dao-ethereum.html…",10,4,0,False
59,rubit_coin@rubit_coin,"#BoyDevs of @The_DAO_Project @slockitproject #TheDAO #ethereum taking upper hand in #theDaoWars 1st installment.Quote TweetThe DAO@The_DAO_Project · Jun 27, 2016#SoftFork @ Block #1800000
GasLimit of <= 4000000
https://etherscan.io/blocks?p=1
https://github.com/ethereum/go-ethereum/releases/tag/v1.4.8…
#Ethereum #TheDAO",2,1,0,False
60,ETH Zurich@ETH_en,#ETH launches world’s first Field Phenotyping Platform: http://ow.ly/MLRu301FoTy,3,9,0,False
61,Bitcoin@bitcoinpoet,Why I think Max Keiser Is theDao Hacker: He is an an accomplished programmer with a patented comput... http://bit.ly/29hoXkH #ethereumWhy I think Max Keiser Is theDao HackerHe is an an accomplished programmer with a patented computerized trading platform. He regularly discuses bitcoin and other crypto on his show. HE...reddit.com,1,2,0,False
62,Coin Center@coincenter,How does regulation apply to DAOs? https://coincenter.org/2016/06/daos-internet-weird-regulatory-issues/… #ethereum #thedao,2,2,0,False
63,Adam Meister@TechBalt,Million #MGTOW march to #Bitcoin wealth https://youtube.com/watch?v=v4UAb-4pMOg… #fintech #ethereum #Blockchain $BTC #contentgoals @YTCreators @VidConMillion MGTOW march to Bitcoin wealthCould 1million Americans each purchase 1 Bitcoin during the next few years? Could 1million Chinese each purchase 1 Bitcoin during the next few years? 1milli...youtube.com,4,1,0,False
64,vessenes@vessenes,Is there VIX trading for #ethereum? It's unnaturally stable this week.,5,1,0,False
65,Patrizio Stavola@halovast,"I enjoyed this talk by @balajis about @21 and ""The Machine Payable Web"". #Ethereum also mentioned. https://youtu.be/Kp7hkmSUOoY #bitcoin",2,2,0,False
66,Finance Magnates@financemagnates,"Rules are made to be broken, #code to be hacked http://buff.ly/28X1qVb #DAO #Ethereum",1,3,0,False
67,Greg Slepak (@taoeffect@mstdn.io)@taoeffect,"In #TheDAO, a malicious actor had the potential to have ~5% of $ETH.

In #Zcash, a malicious actor has potential to control 99.99%.",5,3,2,False
68,CryptoCompare@CryptoCompare,"#ethereum community rally round soft fork 
@everledgerio joins mastercard incubator
Chinese #Blockchain consortiumDaily market update: 17 June 2019 | CryptoCompare.comWe bring you all the data in the world of crypto currencies and Bitcoin in an easily digestible value added format and we give you the tools you need to make that decision. Join the discussion on our...cryptocompare.com",4,1,0,False
69,crypto aping 24/7@xemcoin,$xem with second highest volume on @Poloniex behind $eth,3,1,1,False
70,Bitcoin Sportsbook @SportsbookBTC,#DollarVigilante ― Juan Galt: What is Going on With the #DAO and #Ethereum… http://dlvr.it/Lg3sjp #DAO #Ethereum,1,2,0,False
71,BlockChannel@BlockChannel,"BCN News: coincenter ""How does regulation apply to DAOs? https://coincenter.org/2016/06/daos-internet-weird-regulatory-issues/… #ethereum #thedao """,1,0,0,False
81,Mitsu@Mitsu_0818,Juan Galt: What is Going on With the #Dao and #Ethereum? - The Dollar Vigilante https://dollarvigilante.com/blog/2016/06/26/juan-galt-going-dao-ethereum.html…,2,0,0,False
83,Barry@Barry_McComber,#DAO Hacker exclusive interview https://youtu.be/_O5fdMFKEC0 #ethereum,1,0,0,False
85,Jesse James@btce4,Grab yourself a 25% discount on all Anonymous  #Bitcoin Debit cards. $btc https://cryptopay.me/join/6b41ffbf $eth $dao #lisk #waves #ethereum,1,0,0,False
86,Jesse James@btce4,$btc Grab yourself a 25% discount on all Anonymous  #Bitcoin Debit cards. https://cryptopay.me/join/6b41ffbf $eth $dao #lisk #waves #ethereum,1,0,0,False
87,Jesse James@btce4,https://cryptopay.me/join/6b41ffbf Grab yourself a 25% discount on all Anonymous  #Bitcoin Debit cards. $btc $eth $dao #lisk #waves #ethereum,1,0,0,False
88,Maria Juana@Mariaj_Hyip,Grab yourself a 25% discount on all Anonymous  #Bitcoin Debit cards. $btc https://cryptopay.me/join/6b41ffbf $eth $dao #lisk #waves #ethereum,1,0,0,False
89,Maria Juana@Mariaj_Hyip,$btc Grab yourself a 25% discount on all Anonymous  #Bitcoin Debit cards. https://cryptopay.me/join/6b41ffbf $eth $dao #lisk #waves #ethereum,1,0,0,False
90,Maria Juana@Mariaj_Hyip,https://cryptopay.me/join/6b41ffbf Grab yourself a 25% discount on all Anonymous  #Bitcoin Debit cards. $btc $eth $dao #lisk #waves #ethereum,1,0,0,False
91,Bitcoin Press@BitcoinPressX,https://cryptopay.me/join/6b41ffbf Grab yourself a 25% discount on all Anonymous  #Bitcoin Debit cards. $btc $eth $dao #lisk #waves #ethereum,0,0,0,False
92,Bitcoin Press@BitcoinPressX,Grab yourself a 25% discount on all Anonymous  #Bitcoin Debit cards. $btc https://cryptopay.me/join/6b41ffbf $eth $dao #lisk #waves #ethereum,0,0,0,False
93,Julia Vaingurt@julia_vaingurt,"$btc Grab yourself a 25% discount on all Anonymous  #Bitcoin Debit cards. http://cur.lv/zzaae
$eth $dao #lisk #waves #ethereum",1,0,0,False
94,Bitcoin Press@BitcoinPressX,$btc Grab yourself a 25% discount on all Anonymous  #Bitcoin Debit cards. https://cryptopay.me/join/6b41ffbf $eth $dao #lisk #waves #ethereum,0,0,0,False
96,Rimbit @rimbit,Bitcoin Exchange manipulation http://rimbit.com/threads/bitcoin-exchange-manipulation.5475/… #bitcoin #ethereum,0,0,0,False
100,kingscrown@kingscrownBTC,so who wants to meet #bishares and trade on #bitcoin on 100% decentralized market? http://bit.ly/295DLXx is the place. $LISK $ETH $DAO,0,0,0,False
101,OmuraVPN@omuravpn,"Looks like the #Ethereum soft fork will occur. $150M at stake. This is what decentralized self-interest looks like.Quote TweetMartin Köppelmann@koeppelmann · Jun 26, 2016Update from the #Ethereum soft fork voting. Now miner support at 59% #theDAO",1,0,0,False
102,Myles Gilsenan@mylesgilsenan,Bid to Blacklist The DAO Attacker Moves Ahead With Ethereum Soft Fork Vote http://bit.ly/28XW7Fd via @CoinDesk #ethereum,1,0,0,False
103,Jeffrey Evans@Ev4nsBilly,"#ETH except there was no majority, since 88% of people didn't vote.",0,0,0,False
104,YOᗪI ᕼEᖇᗰᗩᗯᗩᑎ@YodiHermawan,##ItBit Explores Adding #Ether to Bitcoin Exchange: ItBit is evaluating whether to add… http://goo.gl/fb/dYMX6t #vk,0,0,0,False
106,Раб Божий@Diener_Gottes,##ItBit Explores Adding #Ether to Bitcoin Exchange: ItBit is evaluating whether to add… http://goo.gl/fb/a7lXPk,0,0,0,False
107,JT Bonner aka Mr. J.T. Maker@jtbonner2035,"Eminem murdered you on your own shit. #Renegade #EtherQuote TweetP. Capone@PanacheCapone · Jun 27, 2016Jay Z slander will never Be tolerated on my TL. Ever.",0,0,0,False
108,Coinstats@coinstats,"Ethereum - ETH
Price: $13.9042
Change in 1h: +0.59%
Market cap: $1132418451.0
Ranking: 2
#Ethereum #ETH",0,0,0,False
110,/r/Ethereum@r_Ethereum,Quick-Fix for the potential Dao Soft-Fork Ddos http://bit.ly/29i7qce #EthereumQuick-Fix for the potential Dao Soft-Fork DdosI read some concerned posts by people who believe the softfork introduces a way for an attacker to drain the CPU resources of the miner censoring...reddit.com,0,0,0,False
111,/r/Ethereum@r_Ethereum,Calling the EU Smart Contract Startup Community: Throw your support behind the EEA Option http://bit.ly/29i7pVM #Ethereum,0,0,0,False
112,#BookOfLyrikz@LyRIKZ410,"Listen to King Lyrikz - Im Back At It (Ether Remix) by King Lyrikz #np on #SoundCloud
https://soundcloud.com/king-lyrikz/king-lyrikz-im-back-at-it… #Ether",0,0,0,False
113,David Liam@crazydaveorama,The #Ethereum Soft Fork Has Been Adopted by Major Mining Pools. http://disq.us/t/29psb54,0,0,0,False
114,securiteoff@securiteoff,RT razormind: are #TheDAO and #ethereum under new management? #bitcoin #blockchain #iot #cybersecurity #nigerianpr… https://pic.twitter.com/W2EyjhkY47,2,0,0,False
117,BTCVLC@BitcoinVLC,"#Bitcoin $653,97 #Ethereum $14,04
#Banksy #Graffiti #StreetArt
#BitcoinPrice #BTCVLC
WhatsApp 0426-2408251",1,0,0,False
119,David Liam@crazydaveorama,"#R3 and The #DAO Danger: How the Attack Can Impact the #Blockchain Consortium http://cointelegraph.com/news/r3-and-the-dao-danger-how-the-attack-can-impact-the-blockchain-consortium… #EthereumR3 and The DAO Danger: How the Attack Can Impact the Blockchain ConsortiumСonsidering the rising reputation of the Blockchain as something truly secure, the impact of the DAO attack might be disastrous not only for The DAO and Ethereum themselves but for R3 consortium and...cointelegraph.com",0,0,0,False
120,Liz Hermawan@LizHermawan,##ItBit Explores Adding #Ether to Bitcoin Exchange: ItBit is evaluating whether to add… http://goo.gl/fb/IH3nDs #vk,0,0,0,False
121,Christine Sukasih@Christine_S025,##ItBit Explores Adding #Ether to Bitcoin Exchange: ItBit is evaluating whether to add… http://goo.gl/fb/JFjj69,0,0,0,False
122,=|CA$HCAT |Music|=@cashcat_band,Free Ethereum every 5 minutes http://eth-faucet.com/?r=0x623b17c13b28b2b05425a251c0569cd2805577d9… #ethereum via @FreeCryptoCo,1,0,0,False
123,Bitcoin News@scryptsy,#Scryptsy.com #BTC ##ItBit Explores Adding #Ether to Bitcoin Exchange: ItBit is evaluating… http://goo.gl/fb/5HNkAX,0,0,0,False
124,Christine Soekasih@Christine_S02,##ItBit Explores Adding #Ether to Bitcoin Exchange: ItBit is evaluating whether to add… http://goo.gl/fb/uFvDcM #vk,0,0,0,False
125,CloudEXPO ®@CloudExpo,Replying to @CloudExpoEncore Presentation of #Blockchain Opening Keynote ▸ http://bit.ly/28NNsZ9 #BigData #IoT #M2M #Ethereum #Bitcoin #DigitalTransformation,10,18,0,False
126,Jeffrey Evans@Ev4nsBilly,If no one who invested #ETH into theDAO agreed with the terms why was not a word said before they lost their money?,0,0,0,False
127,CloudEXPO ®@CloudExpo,Replying to @CloudExpoEncore Presentation of Andrew Keys  #Blockchain Keynote coming up! #IoT #M2M #API #ML #BigData #Bitcoin #Ethereum,6,14,1,False
129,Coinstats@coinstats,"Ethereum - ETH
Price: $13.8239
Change in 1h: -0.16%
Market cap: $1125861158.0
Ranking: 2
#Ethereum #ETH",0,0,0,False
130,Golden Gateway@GoldenGatewayUS,ItBit Explores Adding Ether to Bitcoin Exchange http://officialgoldengateway.blogspot.com/2016/06/itbit-explores-adding-ether-to-bitcoin_31.html… #ethereum,0,0,0,False
131,Golden Gateway@GoldenGatewayUS,Bid to Blacklist The DAO Attacker Moves Ahead With Ethereum Soft Fork Vote http://officialgoldengateway.blogspot.com/2016/06/bid-to-blacklist-dao-attacker-moves_27.html… #ethereum,0,0,0,False
132,Ethereum UAE@Ethereum_UAE,ItBit Explores Adding Ether to Bitcoin Exchange http://ift.tt/295ZNJK #Ethereum,0,0,0,False
133,Jeffrey Evans@Ev4nsBilly,#Ethereum where memes and quotes from Iron man are seen as legitimate arguments against immutability and censorship resistence,1,1,0,False
134,Jeffrey Evans@Ev4nsBilly,#Ethereum community is now devolved into just posting inspiration quotes from Iron Man the movie to support their shitty arguments,1,0,0,False
136,⛧ God of Gaming ⛧@TheGodofGamez,It is better to travel well than to arrive. #gamedev #gamers $ETH,1,0,0,False
139,Widget 4 Bitcoin@widget4bc,#ItBit Explores Adding #Ether to Bitcoin Exchange: #ItBit is evaluating whether to add… http://ci.4bc.co,0,0,0,False
140,4BC@aff4bc,#ItBit Explores Adding #Ether to Bitcoin Exchange: #ItBit is evaluating whether to add… http://ci.4bc.co,0,0,0,False
141,Bitcoin Directory@dir4bc,#ItBit Explores Adding #Ether to Bitcoin Exchange: #ItBit is evaluating whether to add… http://ci.4bc.co,0,0,0,False
142,Francisco Gordillo@FGordillo,#bitcoin #blockchain ItBit Explores Adding Ether to Bitcoin Exchange: ItBit is evaluating wh... http://bit.ly/2932HNv #ethereum #ether,1,0,0,False
143,CiviliXation Distributed Digital Economies@CiviliXation,#ethereum #smartcontracts be the #solutions for #refugees #digital #identity https://c-cex.com/?p=draco-btc http://goo.gl/PwrraV,0,0,0,False
144,Rômulo@Rommulof,Not this time (the #Bitcoin obituaries song) #crypto #ethereum http://youtube.com/watch?v=-hlN2nel5HI&feature=youtube_gdata_player…,1,1,0,False
146,BitcoinAgile@bitcoinagile,ItBit Explores Adding Ether to #bitcoin Exchange - CoinDesk #Ether #Ethereum #itBit http://coindesk.com/itbit-ether-bitcoin-exchange…,0,0,0,False
147,BitcoinAgile@bitcoinagile,Bid to Blacklist The DAO Attacker Moves Ahead With #ethereum Soft Fork Vote - Find trending http://bittabi.com/bid-to-blacklist-the-dao-attacker-moves-ahead-with-ethereum-soft-fork-vote…,0,0,0,False
148,Coinstats@coinstats,"Ethereum - ETH
Price: $13.8487
Change in 1h: -0.57%
Market cap: $1127862139.0
Ranking: 2
#Ethereum #ETH",0,0,0,False
149,Ethereum Price@EthereumPrice_,"#Ethereum: Ether Price Index
1 ETH =0.021521Ƀ XBT = $13.860000 USD
Today: -1.87%⬇︎ Last 24h: -1.30%⬇︎
https://ethereum-price.com",1,0,0,False
150,Romano@RNR_0,New video incomingggggg !!!!!! $DAO $ETH,0,0,0,False
151,Christine Soekasih@Christine_S02,Bid to Blacklist The DAO Attacker Moves Ahead With #Ethereum Soft Fork Vote: Mining… http://goo.gl/fb/2CAVD8 #vk,1,0,0,False
152,Ansel Lindner@AnselLindner,How #ethereum views itself.GIF,2,1,0,False
153,Crypto Polish Guru@CryptoPLGuru,Replying to @CryptoBull and @Crypto_Godyes but now i'm trading #btc #eth . #alts left for some time.,0,0,0,False
154,⛧ God of Gaming ⛧@TheGodofGamez,"Life is a succession of lessons, which must be lived to be understood. #gamedev #gamers $ETH",0,0,0,False
156,de n8wachT @n8wachT,Free Ethereum every 5 minutes http://etherfaucet.net/?r=0x50e99fbd7ee58498cddedc0805e3c57ca461c82d… #ethereum via @FreeCryptoCo,1,0,0,False
157,/r/Ethereum@r_Ethereum,"pitching smart contracts and ""immutability"" http://bit.ly/28YUkB3 #Ethereum",0,0,0,False
158,/r/Ethereum@r_Ethereum,Coinotron instroduces new port (3391) for miners not supporting soft fork http://bit.ly/28YUrwc #Ethereum,0,0,0,False
159,/r/Ethereum@r_Ethereum,"Hmm. “Don’t forget: In this case, it is the code which rules…"" http://bit.ly/292KJdM #EthereumHmm. “Don’t forget: In this case, it is the code which rules…""Posted in r/ethereum by u/tropser • 3 points and 7 commentsreddit.com",0,0,0,False
160,Crypdex@CrypdexLLC,converted 21.95 mBTC $14.15 USD to ETH #Ethereum,0,0,0,False
161,CoinPayments@CoinPaymentsNET,"Grew by 5,000 new vendors in June. New #milestone of 45,000 Vendors in 183 Countries #Bitcoin #litecoin #ethereum :)",9,8,1,False
162,BlockTribune@BlockTribune,#Ethereum Soft fork to prevent the DAO hacker from moving the stolen funds has been adopted by major mining poolsThe Ethereum Soft Fork Has Been Adopted by Major Mining Pools.The proposed Ethereum Soft fork to prevent the DAO hacker from moving the stolen funds has been adopted by all the major mining pools. The latest update released by the Ethereum foundation included ththemerkle.com,0,0,0,False
163,Kryptonews.live official account@Starfaucet,"Soft fork a certainty,code being screened This time next year your investment in #ethereum and #Dao will be 10 fold.",1,1,0,False
164,BitcoinAgile@bitcoinagile,Russian Policymakers Set To Deal Another Blow To Encryption #ethereum #bitcoin http://rimbit.com/threads/russian-policymakers-set-to-deal-another-blow-to-encryption.5479…,1,1,0,False
165,Rimbit @rimbit,Russian Policymakers Set To Deal Another Blow To Encryption http://rimbit.com/threads/russian-policymakers-set-to-deal-another-blow-to-encryption.5479/… #bitcoin #ethereum,0,0,0,False
166,BitcoinAgile@bitcoinagile,Bid to Blacklist The DAO Attacker Moves Ahead With #ethereum Soft Fork Vote  ValuBit http://bitcoinagile.com/72709D/bid-to-blacklist-the-dao-attacker-moves-ahead-with-ethereum-soft-fork-vote-valubit_stream…,0,0,0,False
167,Jeffrey Evans@Ev4nsBilly,Replying to @The_DAO_ProjectBad code written by the theDAO hurt fungibility in #Ethereum & the tarnished the distributed governance concept,1,0,0,False
169,Jeffrey Evans@Ev4nsBilly,#Ethereum - Because Democracy is best done suddenly and without warning so 88% of the people don't have a chance to vote before polls close,1,0,0,False
170,Corner Coin@Corner_Coin,"#Bitcoin does not offer the development capabilities of #Ethereum, it has demonstrated better reliability https://goo.gl/zonlbe #fintech",1,0,0,False
171,Jeffrey Evans@Ev4nsBilly,Replying to @StarfaucetCongratulations on censoring #ethereum and allowing 2 mining pool operators to make coins no longer fungible,1,0,0,False
172,⛧ God of Gaming ⛧@TheGodofGamez,"Anything you really want, you can attain, if you really go after it. #gamedev #gamers $ETH",1,0,0,False
173,Jeffrey Evans@Ev4nsBilly,"Replying to @Diener_GottesIt was not so much a vote for #ETH, they made a sudden decision to take a vote, most people did not vote about 88%.",0,0,0,False
174,Julia Vaingurt@julia_vaingurt,"MUST READ!! Ethereum launches voting on The DAO soft fork fix #coinfox http://cur.lv/zz510
#blockchain #ethereum #dao #bitcoin #fintech",2,0,0,False
176,Alberto Jauregui | esoteRICK.eth @DisruptBanksy,http://ift.tt/28WvNKy Bid to Blacklist The DAO Attacker Moves Ahead With Ethereum Soft Fork Vote - CoinDesk #ethereum #ether,0,0,0,False
178,YOᗪI ᕼEᖇᗰᗩᗯᗩᑎ@YodiHermawan,Bid to Blacklist The DAO Attacker Moves Ahead With #Ethereum Soft Fork Vote: Mining… http://goo.gl/fb/4FV85G #vk,0,0,0,False
179,I AM ETHER@YOUNGETHER,"#ETHER #POPOFF 
# VIDEO #ON DA WAY!!!! https://instagram.com/p/BHK7nM_BLTQ/",0,0,0,False
180,Timo Ξberhard@ZhuBajie72,Replying to @ZhuBajie72$ETH Breakdown confirmed... 2160-2180 MUST-short. #Ethereum #Ether $ETHXBT @krakenfx,0,0,0,False
181,Раб Божий@Diener_Gottes,Bid to Blacklist The DAO Attacker Moves Ahead With #Ethereum Soft Fork Vote: Mining pools… http://goo.gl/fb/xedAup,1,0,0,False
182,CryptoIndexes@CryptoIndexes,Ethereum was the least volatile coin over the last 12h $ETH #Poloniex | http://goo.gl/v4AeSX,0,0,0,False
184,Coinstats@coinstats,"Ethereum - ETH
Price: $13.9099
Change in 1h: +0.85%
Market cap: $1132828596.0
Ranking: 2
#Ethereum #ETH",0,0,0,False
185,Kryptonews.live official account@Starfaucet,"THE DAO SOFT FORK IS NOW A CERTAINTY.WELL DONE MINERS
#DAO #Ethereum",1,0,0,False
187,BitcoinAgile@bitcoinagile,What Does #ethereum's Massive Hack Mean For #bitcoin? http://snip.ly/qe3e9,1,2,0,False
188,Bitcoin News@scryptsy,#Scryptsy.com #BTC Bid to Blacklist The DAO Attacker Moves Ahead With #Ethereum Soft Fork… http://goo.gl/fb/XruR1c,0,0,0,False
189,100 Gigas Digitalisation Cloud NTIC ADS Erp SaaS@webmasterfree,[video] Opening Keynote at @ThingsExpo | #IoT #Bitcoin #Ethereum #Blockchain: In his keynote… http://goo.gl/fb/21tfrA,0,0,0,False
190,Carlo van Wyk@thecarlo,Bid to Blacklist The DAO Attacker Moves Ahead With Ethereum Soft Fork Vote - CoinDesk http://coindesk.com/miner-voting-points-to-success-of-ethereum-soft-fork-to-blacklist-the-dao/… #ethereum #fintech,1,0,0,False
191,Ethereum UAE@Ethereum_UAE,Bid to Blacklist The DAO Attacker Moves Ahead With Ethereum Soft Fork Vote http://ift.tt/28Ynxij #Ethereum,0,0,0,False
194,Ameer Rosic@AmeerRosic,Is #Youtube in Trouble? #Blockchain is coming! http://bit.ly/1tgKTVz #ethereum #bitcoin,0,0,0,False
195,rssbtc.com@rssbtc,"Bitcoin, Ether, Sterling - BitGold CEO Darrel MacMullin Talks the Future of Money - http://bit.ly/295LXWb
#tech #currency #ethereumBitcoin, Ether, Sterling - BitGold CEO Darrell MacMullin Talks the Future of MoneyCointelegraph landed at MoneyConf in Madrid to have insightful chats with key players from the world of fintech.cointelegraph.com",1,1,0,False
196,BitcoinAgile@bitcoinagile,Bid to Blacklist The DAO Attacker Moves Ahead With #ethereum Soft Fork Vote - Blockalerts http://blockalerts.com/all/bid-to-blacklist-the-dao-attacker-moves-ahead-with-ethereum-soft-fork-vote…,0,0,0,False
197,4BC@aff4bc,Bid to Blacklist #TheDAO Attacker Moves Ahead With #Ethereum Soft Fork Vote: Mining pools… http://ci.4bc.co,1,0,0,False
198,Bitcoin Directory@dir4bc,Bid to Blacklist #TheDAO Attacker Moves Ahead With #Ethereum Soft Fork Vote: Mining pools… http://ci.4bc.co,0,0,0,False
199,Widget 4 Bitcoin@widget4bc,Bid to Blacklist #TheDAO Attacker Moves Ahead With #Ethereum Soft Fork Vote: Mining pools… http://ci.4bc.co,0,0,0,False
200,Francisco Gordillo@FGordillo,#bitcoin #blockchain Bid to Blacklist The DAO Attacker Moves Ahead With Ethereum Soft Fork V... http://bit.ly/292NITS #ethereum #ether,0,0,0,False
201,BitcoinAgile@bitcoinagile,Bid to Blacklist The DAO Attacker Moves Ahead With #ethereum Soft Fork Vote - CoinDesk http://coindesk.com/miner-voting-points-to-success-of-ethereum-soft-fork-to-blacklist-the-dao…,1,0,0,False
202,MA Evergreener@MAEvergreener,Fourth withdraw in pending https://ethtrade.org/@612954 #Ethereum #eth #ether #bitcoin #btc #hyip #investor #investiment,2,0,0,False
203,MA Evergreener@MAEvergreener,"Second withdraw is arrive. #Ethtrade https://ethtrade.org/@612954
#Ethereum #eth #ether #Bitcoin #btc #hyip #forex #trade",1,0,0,False
205,MA Evergreener@MAEvergreener,Continue my experience with #Ethtrade. 2 withdraw arrived regularly as planned and 2 others in pending. https://ethtrade.org/@612954 #eth #btc,0,0,0,False
206,Marcus Pleines@MarcusPleines,#BasicIncome on the #Blockchain http://altcoinmarkt.de/?p=6722 #Bitcoin #Ethereum #Circles #Grantcoin #UBI,1,1,0,False
207,Bitcoin@bitcoinpoet,"Hmm. “Don’t forget: In this case, it is the code which rules…"":       submitted by    /u/tropser  [... http://bit.ly/292KJdM #ethereum",0,0,0,False
209,Coinstats@coinstats,"Ethereum - ETH
Price: $13.8012
Change in 1h: -0.41%
Market cap: $1123959162.0
Ranking: 2
#Ethereum #ETH",0,0,0,False
210,Glenn van der Graacht  :D@IfranStallet,"Shit hits the fan, everything's red. #Crypto-rally's up ahead.  

#btc #eth $btcusd #bitcoin #ethereum #coinmarketcap $btccny",0,0,0,False
211,Ameer Rosic@AmeerRosic,Could #Blockchain Technology Bankrupt #Spotify? http://bit.ly/1tgKTVz #ethereum #bitcoin,1,0,0,False
212,⛧ God of Gaming ⛧@TheGodofGamez,"Courage is the discovery that you may not win, and trying when you know you can lose. #gamedev #gamers $ETH",1,0,0,False
213,Ethereum SE@StackEthereum,Token Tutorial: How to provide an address correctly to the `mintToken` function? http://ethereum.stackexchange.com/questions/6580/token-tutorial-how-to-provide-an-address-correctly-to-the-minttoken-function… #ethereum #goethereum #tokens,1,0,0,False
214,OriginalMy@OriginalMyCom,Ethereum: The Dao soft-fork voting assists the attacker http://coinfox.info/news/5791-ethereum-launches-voting-on-the-dao-soft-fork-fix… #ethereum #softfork #dao #thedao,0,0,0,False
216,/r/Ethereum@r_Ethereum,What's going on with Swarm? http://bit.ly/28XPouP #Ethereum,0,0,0,False
217,/r/Ethereum@r_Ethereum,"Due to the Failure Of TheDAO, Is the idea of a General Purpose VC Type Smart Contract pretty much d... http://bit.ly/291p3jm #Ethereum",0,0,0,False
218,/r/Ethereum@r_Ethereum,Soft Fork Has Been Adopted by Major Mining Pools http://bit.ly/28XP2o4 #Ethereum,0,0,0,False
219,(((Per Lind)))@pclind1,These are the 5 Hottest Companies in #Fintech - Fortune http://ln.is/fortune.com/2016/06/3XnAT… #blockchain #payment #banks #Ethereum #DAO,0,0,0,False
221,BitcoinAgile@bitcoinagile,#ethereum Mining Pools To Accept Soft Fork #Mining #SoftFork #DAOhack http://bitcoinagile.com/726AB0/ethereum-mining-pools-to-accept-soft-fork_stream…,1,0,0,False
222,ETHNews@ETHNews_,#Ethereum #Mining Pools To Accept #SoftFork #DAOhack http://ow.ly/sc5h301GzVH,0,0,0,False
224,Drake moves Fan@Steak_Shirt,Interested in mining cryptocurrency? Use promo-code: r8UBTu for 3% discount at http://ift.tt/1mvVNC1 #ethereum #bitcoin #invest #eth #btc,1,0,0,False
225,Crypdex@CrypdexLLC,converted 14.74 mBTC $9.41 USD to ETH #Ethereum,0,0,0,False
227,Coinstats@coinstats,"Ethereum - ETH
Price: $13.8567
Change in 1h: -0.34%
Market cap: $1128460621.0
Ranking: 2
#Ethereum #ETH",0,0,0,False
228,Ethereum Price@EthereumPrice_,"#Ethereum: Ether Price Index
1 ETH =0.021622Ƀ XBT = $13.847510 USD
Today: -1.40%⬇︎ Last 24h: -0.70%⬇︎
https://ethereum-price.com",1,0,0,False
229,Jason@grn_conspiracy,"Ex-JPMorgan Strategist: Euro Collapse Will Fuel #Bitcoin 's Growth http://bit.ly/28Xiiv5 via @CoinDesk $btc #cryptocurrencies #ethereumEx-JPMorgan Strategist: Euro Collapse Will Fuel Bitcoin's Growth - CoinDeskThe owner of a bitcoin investment fund is arguing investors should begin preparing for the ""death of the euro"" following last week's 'Brexit'.coindesk.com",1,0,0,False
230,Francisco Gordillo@FGordillo,#bitcoin #blockchain How the 'Brexit' Could Impact the UK's Blockchain Influence: Momentum a... http://bit.ly/29h9jG7 #ethereum #ether,5,6,0,False
233,BitcoinAgile@bitcoinagile,Mac Wallet keep crashing #ethereum #bitcoin http://rimbit.com/threads/mac-wallet-keep-crashing.5476…,0,0,0,False
234,Rimbit @rimbit,Mac Wallet keep crashing http://rimbit.com/threads/mac-wallet-keep-crashing.5476/… #bitcoin #ethereum,0,0,0,False
235,Ethereum SE@StackEthereum,IPS blocks Malware & CNC Trojans on Mist 0.7.5 http://ethereum.stackexchange.com/questions/6579/ips-blocks-malware-cnc-trojans-on-mist-0-7-5… #ethereum #mist #security,1,0,0,False
236,Pravin Bhudiya@pravin_bhudiya,"R3 andThe DAO Danger:How the Attack Can Impact the Blockchain Consortium http://goo.gl/sFF5o6
#dao #ethereum #eth",0,0,0,False
237,Vasiliy Ivanov @100000000sat,"Maybe this is the reason of #NEM #tothemoon. Currently NEM is 6th largest market after #BTC, #ETH, #XRP, #LTC & #DAOQuote TweetNEM@NEMofficial · Jun 21, 2016NEM Technology used for remittance from Malaysia with @dragonflypay Fintech.  

https://goo.gl/HiERW4",0,0,0,False
238,FK@FedKassad,$RISE withdrawals live in less than 50 minutes. #rise #lisk #ethereum #bitcoin #altcoins,1,0,0,False
239,Gavin Knight@creationlayer,"If $BTC can hold steady for a bit, and find a nice range, then we might see a revamp in $ETH market, it's not dead yet folks.",0,0,0,False
240,Gavin Knight@creationlayer,"Flatline on major ALT coins. Just accumulating. #ETH still doesn't know what it wants to do, but a lot of positions being taken.",0,0,0,False
241,/r/Ethereum@r_Ethereum,Ethereum's Rarity Explained http://bit.ly/291gTY3 #Ethereum,0,0,0,False
242,/r/Ethereum@r_Ethereum,"Seeking Definitive Timeline of Retrieving DAO/ETH http://bit.ly/291h05U #EthereumSeeking Definitive Timeline of Retrieving DAO/ETHI've been following the hard fork/soft fork debate, and I thought I had the ramifications of both scenarios down pat, but I've seen comments on...reddit.com",0,0,0,False
243,/r/Ethereum@r_Ethereum,Counterparty's EVM Port Moves Forward http://bit.ly/28XGSMg #Ethereum,0,0,0,False
244,/r/Ethereum@r_Ethereum,Emin fully expects DoS Attacks After Soft Fork Activates http://bit.ly/28XH661 #Ethereum,0,0,0,False
245,Darrell MacMullin@DMACmullin,Good chat w/ .@CoinTelegraph in #Madrid .@MoneyConfHQ to talk #Gold #Btc #Ether #Brexit & Future of Money @Goldmoney http://coint.co/3kLL,6,6,0,False
246,Coinstats@coinstats,"Ethereum - ETH
Price: $13.8916
Change in 1h: +0.43%
Market cap: $1131282559.0
Ranking: 2
#Ethereum #ETH",0,0,0,False
248,AltcoinWeekly@altcoinweekly,The latest Ethereum price is USD 13.84. For historical #Ethereum price charts - http://buff.ly/1Y3h6Jz,0,0,0,False
249,CoinGecko@coingecko,The latest Ethereum price is USD 13.84. For historical #Ethereum price charts - http://buff.ly/1Y3h6Jz,0,0,0,False
250,⛧ God of Gaming ⛧@TheGodofGamez,It is on our failures that we base a new and different and better success. #gamedev #gamers $ETH,0,0,0,False
252,Ethereum SE@StackEthereum,How to send transactions to a private network? http://ethereum.stackexchange.com/questions/6577/how-to-send-transactions-to-a-private-network… #ethereum #goethereum #transactions #mining #privateblockchain,1,0,0,False
253,Goldmatters@Goldmatters_,I'm certain you are entitled to some credit here in expanding everyone's knowledge of #ethereum :) Mine for sure.,0,0,0,False
254,Ethereum UAE@Ethereum_UAE,R3 and The DAO Danger: How the Attack Can Impact the Blockchain Consortium http://ift.tt/28YdG9j #Ethereum,2,0,0,False
255,Ethereum Monkey@EthMonkey,R3 and The DAO Danger: How the Attack Can Impact the Blockchain Consortium #ethereum http://cointelegraph.com/news/r3-and-the-dao-danger-how-the-attack-can-impact-the-blockchain-consortium…,0,0,0,False
257,/r/Augur@AugurFeed,#reddit Can Augur be an oracle for other non related contracts ? http://bit.ly/295jnnR #ethereum #augur,1,0,0,False
258,BitcoinAgile@bitcoinagile,The Huge #ethereum Hack May Kill the Potential Next #bitcoin http://1bitcoindaily.com/blog/the-huge-ethereum-hack-may-kill-the-potential-next-bitcoin…,1,0,0,False
259,Bailey Reutzel@BLR13,Coded Voting: Are tokens a good indicator of reputation? Are all voters informed? http://bit.ly/28WB2dW #DAOhack #blockchain #ethereumThe DAO Shows Blockchain Can't Code Away Social Problems - CoinDeskCoinDesk columnist Bailey Reutzel takes aim at what she believes are the social misconceptions that led to the debacle at The DAO.coindesk.com,4,8,0,False
260,Coinstats@coinstats,"Ethereum - ETH
Price: $13.8337
Change in 1h: -0.21%
Market cap: $1126542685.0
Ranking: 2
#Ethereum #ETH",0,0,0,False
261,Ethereum SE@StackEthereum,How to send transactions to the network? http://ethereum.stackexchange.com/questions/6577/how-to-send-transactions-to-the-network… #ethereum #goethereum #transactions #mining #privateblockchain,1,0,0,False
262,BIT.AC@bit_ac,Replying to @bit_ac#DAO will be started before Thursday along with #ethereum blockchain recalculation. We will announce #maintenance window later.,1,0,0,False
263,Koinster@koinster,Why does #ETH need to rollback its blockchain? Aren’t the plans already to print unlimited tokens? New currency stuck in a legacy system…,1,0,0,False
264,Ameer Rosic@AmeerRosic,5 Blockchain Applications That will Revolutionize The world http://bit.ly/1U4aha8 #Blockchain #Bitcoin #ethereum,1,1,0,False
265,David E. Orzel@David_E_Orzel,#Ethereum ’s Woes Haven’t Hurt #Bitcoin: Wonder Why? http://flip.it/Tmu39 #dao #dlt #cryptocurrency #blockchainUntitledShared via Flipboardflip.it,1,0,0,False
266,Cris Carrascosa @CarrascosaCris_,Movements of the stolen Ethers from the attack to THE DAO #EthereumAccount 0x304a554a310c7e546dfe434669c62820b7d83490 - etherchain.org - 2021etherchain.org makes the Ethereum block chain accessible to non-technical end usersetherchain.org,1,0,0,False
267,BitcoinAgile@bitcoinagile,Basic Income on the #blockchain - Altcoinmarkt #BasicIncome #Bitcoin #Ethereum #Circles http://bitcoinagile.com/72635C/basic-income-on-the-blockchain-altcoinmarkt_stream…,1,0,0,False
268,Marcus Pleines@MarcusPleines,#BasicIncome on the #Blockchain http://altcoinmarkt.de/?p=6722 #Bitcoin #Ethereum #Circles #Grundeinkommen,0,0,0,False
269,cryptinsight@cryptinsight,"Is #ethereum on a Bear Trend? - Crypto Hustle #blockchain #cryptocurrency #DAO #markets $ETHIs Ethereum on a Bear Trend? - Crypto HustleAfter several months of bullishness and 2000% gains, the Ethereum markets are…cryptohustle.com",1,0,0,False
270,Francisco Gordillo@FGordillo,Amuse read. Tao vs DAO  #blockchain #ethereum #dao #bitcoin #fintechhttps://ryepdx.github.io/the-tao/,0,0,0,False
272,ShuttleCloud@ShuttleCloud,"Tomorrow at 19:30h. At @ShuttleCloud Madrid Office: ""THE DAO EXPLICADO"". @EthereumEspana MeetUp http://buff.ly/28Mftji #JoinUs #Ethereum",1,0,0,False
273,Shawn Leary@shawnleary,"and oldie, but goodie #ethereum #theDAO #bitcoinEthereum Launches; But Leaked Chat Says Project Needs ‘Years More’The first live release of the Ethereum project called “Ethereum Frontier” was released this week, but leaked communications between developers suggest that the project’s future may be under question.cointelegraph.com",1,0,0,False
274,Bitcoin Sportsbook @SportsbookBTC,#DollarVigilante ― Juan Galt: What is Going on With Ethereum? Video #DAO… http://dlvr.it/Lg62Jf #DAO #Ethereum,1,0,0,False
275,Timo Ξberhard@ZhuBajie72,Still hodling dem shorts... #Ethereum #Ether $ETH $ETHXBT @krakenfx,1,1,0,False
276,Ameer Rosic@AmeerRosic,5 Blockchain Applications That Will Transform Society http://bit.ly/1U4aha8 #Blockchain #Bitcoin #ethereum,0,0,0,False
277,Crypto Trader Pro @CryptoTraderPro,#DollarVigilante ― Juan Galt: What is Going on With Ethereum? Video #DAO… http://dlvr.it/Lg5zYp #DAO #Ethereum,0,0,0,False
278,ETHNews@ETHNews_,#Ethereum Price Relatively Muted; Support Estimated Near $12.80 #ETH #ether http://ow.ly/mMUb301G67C,1,2,0,False
279,The Dollar Vigilante@DollarVigilante,"Juan Galt: What is Going on With Ethereum? 
Video
http://ow.ly/8QAe301FF46
#DAO #Ethereum #BitcoinGIF",14,9,1,False
280,Kelly Spaulding@kellyspaulding,"""I am convinced of the viability of the #Ethereum concept,...for real human relationships."" @NinaKilbride http://bit.ly/28ZvaV9 #legaltech",0,0,0,False
282,Coinstats@coinstats,"Ethereum - ETH
Price: $13.845
Change in 1h: -0.45%
Market cap: $1127450732.0
Ranking: 2
#Ethereum #ETH",0,0,0,False
283,Ethereum SE@StackEthereum,Can a contract read the address of past miners? http://ethereum.stackexchange.com/questions/6575/can-a-contract-read-the-address-of-past-miners… #ethereum #solidity #blockchain #addresses,1,0,0,False
284,vik ⟠@vikpkb,Replying to @ZESTMalta19 the real #disruptive company @funderbeam #smartcontracts #blockchain #ethereum @ZESTMalta16 @KaidiRuu,4,1,1,False
285,Corner Coin@Corner_Coin,#Ethereum’s Woes Haven’t Hurt #Bitcoin: Wonder Why? https://goo.gl/zonlbe via @CryptoCoinsNews #fintech,1,0,0,False
286,heyrobok@heyrobok,great time to buy $TRI right now.. also TRI birthday is july 16th! buy and stake it today! earn 33% a year https://cryptopia.co.nz/Exchange?market=TRI_BTC… #BTC #ETH,0,0,0,False
287,Christopher Lee@Creeefs,Inherit problem with fiat currencies #cryptocurrency #bitcoin #ether,0,0,0,False
288,BACKFEED@Backfeed_cc,"#TheDAO Shows #Blockchain Can't Code Away Social Problems
http://coindesk.com/system-problems-social-issues-daos-structure/…
#ethereum",17,19,0,False
289,CryptoCompare@CryptoCompare,"If you are in London, we'd love to see you for a pint and some #ethereum discussion. http://meetu.ps/2YxMhP",0,0,0,False
290,/r/Ethereum@r_Ethereum,"""Good Business"" and Ethereum http://bit.ly/29gkIpN #Ethereum""Good Business"" and EthereumI watched VB do videos a year or so before Ethereum ever started. He is a developers' developer. I was fortunate enough to take advantage of the...reddit.com",1,0,0,False
291,/r/Ethereum@r_Ethereum,Ethereum launches voting on The DAO soft fork fix http://bit.ly/2925kiJ #Ethereum,0,0,0,False
292,BitcoinAgile@bitcoinagile,#bitcoin and Brexit: Did the Great UK Debate Move the Price? #ethereum http://rimbit.com/threads/bitcoin-and-brexit-did-the-great-uk-debate-move-the-price.5463…,1,2,0,False
293,Rimbit @rimbit,Bitcoin and Brexit: Did the Great UK Debate Move the Price? http://rimbit.com/threads/bitcoin-and-brexit-did-the-great-uk-debate-move-the-price.5463/… #bitcoin #ethereum,0,0,0,False
294,Stacey Seronick@esteeayceeeewhy,All of it? Not even kidding. #ethereum #scraper https://medium.com/@tjayrush/downloading-the-dao-a004258c9b5f#.do26lkkix… #blockchain,2,0,0,False
295,Cryptopatterns@Cryptopatterns,"Effect of 24/7 Trading on #BTC #ETH https://cryptopatterns.wordpress.com/2016/06/27/the-effect-of-247-weekend-trading-on-btc-eth/… #Bitcoin #Ethereum $USDThe Effect of 24/7 Weekend Trading on BTC ETHMonday June 27, 2016  7:00 AM Weekend trading for both BTC and ETH did not confirm more downside and continued to show low volume trading. I think it’s worth noting that 24/7 trading is not c…cryptopatterns.wordpress.com",1,0,0,False
296,TechHelpKB.com@techhelpkb,#Ethereum for the Overwhelmed Layman http://tchlp.com/28WUnQB via @CoinDesk,0,0,0,False
297,Coinstats@coinstats,"Ethereum - ETH
Price: $13.9269
Change in 1h: +0.02%
Market cap: $1134101277.0
Ranking: 2
#Ethereum #ETH",0,0,0,False
298,Ethereum SE@StackEthereum,getStorageAt: What if two transactions in the same block? http://ethereum.stackexchange.com/questions/6573/getstorageat-what-if-two-transactions-in-the-same-block… #ethereum #web3js,0,0,0,False
300,Born Pitcoin@PornBitcoin,Grab yourself a 25% discount on all Anonymous  #Bitcoin Debit cards. https://cryptopay.me/join/6b41ffbf $eth #ethereum $dao #lisk #waves,0,0,0,False
301,Francisco Gordillo@FGordillo,#bitcoin #blockchain Ex-JPMorgan Strategist: Euro Collapse Will Fuel Bitcoin's Growth: The o... http://bit.ly/294W7qk #ethereum #ether,0,0,0,False
302,Jesse James@btce4,Grab yourself a 25% discount on all Anonymous  #Bitcoin Debit cards. https://cryptopay.me/join/6b41ffbf $eth #ethereum $dao #lisk #waves,2,0,0,False
304,Maria Juana@Mariaj_Hyip,Grab yourself a 25% discount on all Anonymous  #Bitcoin Debit cards. https://cryptopay.me/join/6b41ffbf $eth #ethereum $dao #lisk #waves,0,0,0,False
305,Bitcoin Press@BitcoinPressX,Grab yourself a 25% discount on all Anonymous  #Bitcoin Debit cards. https://cryptopay.me/join/6b41ffbf $eth #ethereum $dao #lisk #waves,1,1,0,False
306,Randy Hilarski@RandyHilarski,LE33: Marie McGrath – The Joy of Entrepreneurship http://slninja.com/nZfv #Bitcoin #Ethereum #CryptoCurrency,5,1,0,False
308,Ethereum SE@StackEthereum,Open Source v. Proprietary Code http://ethereum.stackexchange.com/questions/6572/open-source-v-proprietary-code… #ethereum #dappdevelopment #dapps #code,1,0,0,False
310,cryptinsight@cryptinsight,"#ethereum Foundation and Wanxiang #blockchain Labs announce a blockbuster event combining Devcon2 and…Ethereum Foundation and Wanxiang Blockchain Labs announce a blockbuster event combining Devcon2 and…The Ethereum Foundation and Wanxiang Blockchain Labs are excited to jointly announce the International Blockchain Week in Shanghai, which…medium.com",0,0,0,False
311,Leonardo Moura@leorxd,$XVC Vcash release 0.4.7 ~confirmed in only 1 confirmation in poloniex~ https://bitcointalk.org/index.php?topic=1504342.0… $ETH $LTC $FCT $NXT $XEM $DAO $BTC $LSK $SC,1,1,1,False
313,Ethereum SE@StackEthereum,Clarification on web3.getStorageAt() API usage http://ethereum.stackexchange.com/questions/6571/clarification-on-web3-getstorageat-api-usage… #ethereum #goethereum #solidity #ethereumj,1,0,0,False
314,Crypto Bean@William42111948,"$XVC what are the main features of interest at your coin ???

#btc #ltc #eth #dao",0,0,0,False
315,Crypto Trader Pro @CryptoTraderPro,#DollarVigilante ― Juan Galt: What is Going on With the #DAO and #Ethereum… http://dlvr.it/Lg3lTz #DAO #Ethereum,0,0,0,False
316,BitcoinAgile@bitcoinagile,How To Help? $dgb $ltc $btc $eth https://v.cash/forum/threads/how-to-help.472/page-2#post-6828…,0,0,0,False
318,Cloud Mining Monitor@cmmonitorcom,#Ethereum #Cloudmining': 27.06.2016 Payment received. 3 MHs - 0.35548400 ETH. From BitcoinCloud Online.BitcoinCloud Online (Ethereum)cmmonitor.com,0,0,0,False
319,fintechfolk@fintechfolk,Thanks @derekbrown for registering for FinTechFolk - http://zpr.io/Mnfj #fintech #ethereum #bitcoin #blockchain,2,0,0,False
320,vDice@vDice_io,"The Future of #ethereum Gambling Dapps.

https://blog.vdice.io/ethereum-gambling-dapps…
#ethereum #dao #daoattacker #bitcoin #blockchainEthereum Gambling Dapps and Smart ContractsEthereum Gambling Dapps - The Promise of vDice vDice.io provides a intuitive UI/UX for different development teams building great Ethereum Gambling Dapps. Bitcoin is the first blockchain. Bitcoin has...blog.vdice.io",2,0,0,False
321,Coinstats@coinstats,"Ethereum - ETH
Price: $13.9258
Change in 1h: -0.04%
Market cap: $1133991944.0
Ranking: 2
#Ethereum #ETH",0,0,0,False
324,Maria Juana@Mariaj_Hyip,"$btc Grab yourself a 25% discount on all Anonymous  #Bitcoin Debit cards. https://cryptopay.me/join/6b41ffbf
$eth #ethereum $dao #lisk #waves",0,0,0,False
326,(W.A.M)@YooHaze28,How you aint kill em if you run up on em close up @4fljugg #Ether,1,0,0,False
327,BitcoinAgile@bitcoinagile,The #ethereum Foundation Releases The Soft Fork Update #bitcoin #Blockchain #Merkle http://scooblrinc.com/ethereum-foundation-releases-soft-fork-update…,2,1,0,False
328,Bitcoin Press@BitcoinPressX,$btc Grab yourself a 25% discount on all Anonymous  #Bitcoin Debit cards. https://cryptopay.me/join/6b41ffbf $eth #ethereum $dao #lisk #waves,2,0,0,False
329,Eleonor Domingo@eleonordomingo,#hashocean is really down or not #ether #cryptominer #bitcoin https://instagram.com/p/BHKICE6geRN/,2,0,0,False
331,Olivier Salomon@SalomonOli,The #Ethereum #SoftFork Has Been Adopted by Major Mining Pools http://themerkle.com/the-ethereum-soft-fork-has-been-adopted-by-major-mining-pools/…,0,0,0,False
332,Francisco Gordillo@FGordillo,#bitcoin #blockchain Bitcoin Exchange Raises $16 Million in Ongoing Series A: A bitcoin exch... http://bit.ly/291Na0m #ethereum #ether,1,0,0,False
335,Marc@_marcdnd,"Replying to @Dennahz$DGB have adaptatve block size #zerotime #chainblender? Oh! 
 I think not!! $XVC $btc $ltc $eth $dao $xmr",0,0,0,False
336,indxio@indxio,#Russia Market Close || #Bitcoin: $638.26 | 573.09 EUR||  #Litecoin: 0.0077 BTC  || #Ethereum: 0.0273 BTC   || $BTC $LTC $ETH $RUB,0,0,0,False
339,Coinstats@coinstats,"Ethereum - ETH
Price: $13.9334
Change in 1h: +0.1%
Market cap: $1134584375.0
Ranking: 2
#Ethereum #ETH",0,0,0,False
340,Ethereum Price@EthereumPrice_,"#Ethereum: Ether Price Index
1 ETH =0.021931Ƀ XBT = $14.007310 USD
Today: +0.00%⬆︎ Last 24h: +1.96%⬆︎
https://ethereum-price.com",1,0,0,False
341,Ali Güçlü@aliguclu,"CoinTelegraph : #Bitcoin, #Ether, #Sterling - BitGold CEO Talks the Future of Money … https://twitter.com/CoinTelegraph/status/747396442126434304…)Quote TweetCointelegraph@Cointelegraph · Jun 27, 2016#Bitcoin, #Ether, #Sterling - BitGold CEO Talks the Future of Money http://cointelegraph.com/news/bitcoin-ether-sterling-bitgold-ceo-darrel-macmullin-talks-the-future-of-money… @bitgoldinc",0,0,0,False
343,Cointelegraph@Cointelegraph,"#Bitcoin, #Ether, #Sterling - BitGold CEO Talks the Future of Money http://cointelegraph.com/news/bitcoin-ether-sterling-bitgold-ceo-darrel-macmullin-talks-the-future-of-money… @bitgoldinc",6,15,0,False
344,Blaze@BlazeK_AMDRT,6 x 480's being used for #Ethereum mining days before release and I just need 1 to game on  #BetterRed #RX480,2,1,0,False
345,BitcoinAgile@bitcoinagile,#ethereum & Other News #DAO #DAOtokens http://bitcoinagile.com/7255BF/ethereum-other-news_stream…,1,0,0,False
347,FK@FedKassad,How long before we see BrexitCoin? #bitcoin #altcoins #ethereum,1,0,0,False
348,Rimbit @rimbit,Blockchain Democracy Party on Ballot in Australian Election http://rimbit.com/threads/blockchain-democracy-party-on-ballot-in-australian-election.5462/… #bitcoin #ethereum,0,0,0,False
349,/r/Ethereum@r_Ethereum,Hands on to improve smart contract security http://bit.ly/291C8bo #Ethereum,0,0,0,False
350,/r/Ethereum@r_Ethereum,When will it be possible to change the main currency in my wallet for example MKR? http://bit.ly/29fAcKJ #Ethereum,0,0,0,False
351,Global QYResearch@GQYResearch,"Global #Methyl #Tert-#Butyl #Ether(#MTBE) Industry 2016 - Production, Sales, Market Share,#GlobalQYResearch
http://globalqyresearch.com/global-methyl-tert-butyl-ether-mtbe-industry-2016…",0,0,0,False
352,BitShares Hub@bitshareshub,"#Blockchain Insights and the future of #Bitcoin, #Ethereum and #BitShares! http://ow.ly/26FH301Fhtg tomorrow 7pm!! @munich_startup @MeetupBlockchain Insights and the future of Bitcoin, Ethereum and BitShares!Di., 28. Juni 2016, 19:00: Dear Munich Blockchain Community,I am inviting you all for the next Blockchain / BitShares Munich Meetup. A lot has happened over the last couple of weeks in the Blockchainmeetup.com",3,0,0,False
353,Coinstats@coinstats,"Ethereum - ETH
Price: $13.9067
Change in 1h: -1.03%
Market cap: $1132398408.0
Ranking: 2
#Ethereum #ETH",0,0,0,False
354,BitcoinBuzz vega9@BitcoinBuzzV9,http://bitcoinbuzz.vega9.com - Hot topics: #stratis #ethereum #bitcoin #blockchain #btc #fintech,2,0,0,False
355,Ethereum SE@StackEthereum,Creating add transaction and seal block from mix localhost on button click [on hold] http://ethereum.stackexchange.com/questions/6564/creating-add-transaction-and-seal-block-from-mix-localhost-on-button-click… #ethereum #mix,1,0,0,False
356,forklog.media@forklogmedia,"#Ethereum #SoftFork Voting Commences
http://forklog.net/ethereum-soft-fork-voting-commences-2/…",4,3,0,False
357,BitcoinAgile@bitcoinagile,"#ethereum: Gas, Fuel, and Fees #BitRss #BitcoinEthereum: Gas, Fuel, and FeesEthereum is a platform for decentralized and truthful applications that run on a global, peer-to-peer network without any administrators or a single point of failure. These applications have zero...bitrss.com",1,2,0,False
358,André Kamps@Andre_Kamps,Soft Fork Adoption is now approx 60% #ethereum #blockchain: https://etherscan.io/blocks,0,0,0,False
359,Rodrigo Paulo Gomes []@bgcoin,"The future of blockchain in 8 charts
http://rcnt.eu/o74
#blockchain #bitcoin #future #ethereum",0,0,0,False
362,MME@MME_Switzerland,"""#DAO - challenges from a legal and tax perspective"" - concept of guard function. MME #Ethereum Meetup ZurichEvent: Rechtliche Herausforderungen für DAOs - InventxSeien Sie per Livestream dabei, wenn am 23. Juni 2016 um 20 Uhr Experten die rechtlichen und steuerlichen Herausforderungen von DAOs (Decentralized Autonomous Organizations) diskutieren. Wir freuen...inventx.ch",0,0,0,False
363,BitcoinAgile@bitcoinagile,#ethereum launches voting on The DAO soft fork fix http://bitcoinagile.com/7252C5/ethereum-launches-voting-on-the-dao-soft-fork-fix_stream…,1,0,0,False
364,Friendly Spiderman@FriendSpiderman,"#Ethereum Price Technical Analysis – ETH About To Break Higher?

#Blockchain #BitcoinEthereum Price Technical Analysis – ETH About To Break Higher?Ethereum price after finding buyers below $14.00 started to move higher, and currently looks set to break a major resistance.newsbtc.com",0,0,0,False
366,/r/Ethereum@r_Ethereum,the Community not the Code ... yet http://bit.ly/29fn7Rz #Ethereum,0,0,0,False
367,/r/Ethereum@r_Ethereum,The Bank of England is using a multi-node scalable distributed ledger environment [built] on the Et... http://bit.ly/291uNIW #EthereumThe Bank of England is using a multi-node scalable distributed...Posted in r/ethereum by u/thehighfiveghost • 75 points and 21 commentsreddit.com,0,0,0,False
368,/r/Ethereum@r_Ethereum,Logical Fallacy http://bit.ly/291uJJ8 #Ethereum,0,0,0,False
369,Coinstats@coinstats,"Ethereum - ETH
Price: $14.0479
Change in 1h: +0.2%
Market cap: $1143875445.0
Ranking: 2
#Ethereum #ETH",0,0,0,False
370,BitcoinBuzz vega9@BitcoinBuzzV9,http://bitcoinbuzz.vega9.com - Hot topics: #stratis #ethereum #bitcoin #blockchain #btc #crypto,0,0,0,False
372,Hibryda@Hibryda,Fork hard and prosper https://reddit.com/r/ethereum/comments/4px0fr/fork_hard_and_prosper/?ref=share&ref_source=twitter… via @reddit #ethereum #DAOFork hard and prosperPosted in r/ethereum by u/Hibryda • 38 points and 36 commentsreddit.com,4,5,0,False
373,Leo@gmleopoldnd,"Looking for #Ethereum documentation, client information, FAQs and more? Head over to https://crd.ht/8wVTNVY #blockchain",0,0,0,False
374,Coinstats@coinstats,"Ethereum - ETH
Price: $14.0123
Change in 1h: -0.28%
Market cap: $1140959427.0
Ranking: 2
#Ethereum #ETH",0,0,0,False
375,Ethereum Price@EthereumPrice_,"#Ethereum: Ether Price Index
1 ETH =0.021605Ƀ XBT = $14.110000 USD
Today: -1.48%⬇︎ Last 24h: +1.00%⬆︎
https://ethereum-price.com",1,0,0,False
376,/r/Ethereum@r_Ethereum,"Just like Pied Piper...Ethereum feels ""over engineered"" http://bit.ly/291nFw6 #Ethereum",1,0,0,False
377,/r/Ethereum@r_Ethereum,Mizuho bank partners IBM to test blockchain payments system http://bit.ly/29fb06Y #Ethereum,1,1,0,False
378,/r/Ethereum@r_Ethereum,"Question from a DTH who split after the Attack, but before the whitehat drain http://bit.ly/291nRLK #Ethereum",0,0,0,False
379,PS_PC-Parts@PS_PC_Parts,RiteAV - Cat6 Network Ethernet Cable - B http://amzn.to/1NeFFft #RiteAV #- #Cat6 #Network #Eth,0,0,0,False
381,Ethereum SE@StackEthereum,How do exchanges work with Ethereum? http://ethereum.stackexchange.com/questions/6306/how-do-exchanges-work-with-ethereum… #ethereum #transactions #exchanges #coldstorage,0,0,0,False
382,wome@peterpank123,Want to mine #bitcoin #ether or other coins on the cloud? Use Genesis-Mining! 2.5% discount code: 41PR3T http://genesis-mining.com #ethereum,0,0,0,False
385,Ethereum SE@StackEthereum,web3 methods not implemented http://ethereum.stackexchange.com/questions/1225/web3-methods-not-implemented… #ethereum #goethereum #web3js #javascript,0,0,0,False
386,Ethereum SE@StackEthereum,Does my wallet software need to be running to get Ether payments? http://ethereum.stackexchange.com/questions/6558/does-my-wallet-software-need-to-be-running-to-get-ether-payments… #ethereum #mist #wallets,1,0,0,False
387,Ethereum SE@StackEthereum,Error working on the tutorial at http://ethereum.org/dao http://ethereum.stackexchange.com/questions/6562/error-working-on-the-tutorial-at-www-ethereum-org-dao… #ethereum #dao,1,0,0,False
388,Ethereum SE@StackEthereum,Creating add transaction and seal block from mist localhost on button click http://ethereum.stackexchange.com/questions/6564/creating-add-transaction-and-seal-block-from-mist-localhost-on-button-click… #ethereum #mix #ethereumwalletdapp,0,0,0,False
389,Ethereum SE@StackEthereum,Is Gas Model really sustainable? http://ethereum.stackexchange.com/questions/6565/is-gas-model-really-sustainable… #ethereum #gas,0,0,0,False
391,petras@petras_004,Free Ethereum every 5 minutes http://etherfaucet.net/?r=0x22a480a6cef36fbbb2ee669737c4d90bfbe54abf… #ethereum via @FreeCryptoCo,0,0,0,False
395,Alfred Jordan@SovereignFive,Replying to @a3456gf#Bitcoin has never been given a better chance than the #Brexit. Either it scales or fades away.#Ethereum can scale.,1,1,0,False
396,Rimbit @rimbit,Industry Report: Bitcoin ‘Hooking Up’ With Traditional Finance http://rimbit.com/threads/industry-report-bitcoin-%E2%80%98hooking-up%E2%80%99-with-traditional-finance.5461/… #bitcoin #ethereum,0,0,0,False
397,BitcoinAgile@bitcoinagile,#ethereum’s Woes Haven’t Hurt #bitcoin: Wonder Why? - TekyBoy's Chronicles #tekypromo #TP http://uberstuff.xyz/?p=2974,0,0,0,False
399,/r/Ethereum@r_Ethereum,Progress in decentralised exchanges: Marker-OTC relaunches after bug fix and rebrands To Maker Markets http://bit.ly/291hAjj #EthereumProgress in decentralised exchanges: Marker-OTC relaunches after...Posted in r/ethereum by u/cryptopascal • 14 points and 1 commentreddit.com,0,0,0,False
400,/r/Ethereum@r_Ethereum,The overwhelming tone here since the attack. http://bit.ly/291hqIP #Ethereum,0,0,0,False
402,Coinstats@coinstats,"Ethereum - ETH
Price: $14.0734
Change in 1h: +0.33%
Market cap: $1145914849.0
Ranking: 2
#Ethereum #ETH",0,0,0,False
403,Ethereum SE@StackEthereum,Is Gas Model really sustainable? http://ethereum.stackexchange.com/questions/6565/is-gas-model-really-sustainable… #ethereum #gas,1,0,0,False
404,Tyler Florez @qualiabyte,"Replying to @qualiabyteIn retrospect, we clearly need time to discover pitfalls and develop best practices at the level of the smart contract layer. #Ethereum",4,2,1,False
406,DAObase@DAObase_org,"@HERMICITY_DAO section @ http://Daohub.org
#theRoadAhead #DAOfuture #DAOhub #Ethereum
https://forum.daohub.org/c/hermicity",2,2,0,False
407,Jean-Philippe Lebœuf@jpleboeuf,"I was explaining the same thing a few days ago; and we will call them ""lawkers"" - #smartcontracts #DAO #EthereumQuote TweetCharlie Lee [LTC]@SatoshiLite · Jun 26, 2016In the future, we are going to hire hackers to look over a smart contract just like we hire lawyers to look over a contract today.",1,0,0,False
408,Alfred Jordan@SovereignFive,"EU finds its SOL as Greece, Italy, Spain, Ireland & Portugal file to exit the EZ. #Bitcoin & #Ethereum will step in as banks collapse.",0,0,0,False
409,BitcoinAgile@bitcoinagile,What Does #ethereum's Massive Hack Mean For #bitcoin? http://bitcoinagile.com/724D1B/what-does-ethereums-massive-hack-mean-for-bitcoin_stream…,1,0,0,False
410,indxio@indxio,#China Market Close || #Bitcoin: $653.26 | 580.31 EUR||  #Litecoin: 0.0076 BTC  || #Ethereum: 0.0272 BTC   || $BTC $LTC $ETH $RMB,0,0,0,False
411,Ethereum SE@StackEthereum,Creating add transaction and seal block from mist localhost on button click http://ethereum.stackexchange.com/questions/6564/creating-add-transaction-and-seal-block-from-mist-localhost-on-button-click… #ethereum #mix #ethereumwalletdapp,1,0,0,False
412,Netavanza@netavanza,The DAO as a lesson in decentralized governance http://ow.ly/GqnM100cyjk #ether #bitcoin,0,0,0,False
413,AltCoinExpert@alt_expert,"""Bitcoin Price Technical Analysis for 06/27/2016 – Bulls Ready to Charge Again?"" #ethereum #feedlyBitcoin Price Analysis for 06/27/2016 – Bulls Ready to Charge Again?Bitcoin price appears to be pulling up from its post-Brexit surge but the short-term uptrend could remain intact.newsbtc.com",0,0,0,False
414,LiTMAS@LiTMASme,Security Alert – Smart Contract Wallets created in frontier are vulnerable to phishing attacks - #Ethereum Blog http://ow.ly/v9Pr301EYfp,0,0,0,False
415,AltCoinExpert@alt_expert,Ethereum Price Technical Analysis – ETH About To Break #bitcoin #ethereum http://newsbtc.com/2016/06/27/ethereum-price-technical-analysis-eth-break-higher/…,0,0,0,False
418,/r/Ethereum@r_Ethereum,Will The DAO Fly after the ETH soft fork? http://bit.ly/291b10l #EthereumWill The DAO Fly after the ETH soft fork?Posted in r/ethereum by u/CryptoPhil • 0 points and 3 commentsreddit.com,0,0,0,False
419,/r/Ethereum@r_Ethereum,"Will Ethereum be promoted as a payment system by itself? http://bit.ly/29eLtKW #EthereumWill Ethereum be promoted as a payment system by itself?As Bitcoin becomes more expensive and unreliable as it hits the blocksize-limit, it will be less useful as a payment system. Is this an area which...reddit.com",0,0,0,False
420,/r/Ethereum@r_Ethereum,Would it be possible to implement an x^2 type difficulty scaling to prevent pools and large miners? http://bit.ly/29eLA9w #EthereumWould it be possible to implement an x^2 type difficulty scaling...As long as the scaling was high enough the cost benefits would be lowered and increase the community to solo minereddit.com,0,0,0,False
421,Coinstats@coinstats,"Ethereum - ETH
Price: $14.0201
Change in 1h: +0.45%
Market cap: $1141556668.0
Ranking: 2
#Ethereum #ETH",0,0,0,False
422,AltCoinExpert@alt_expert,The Ethereum Soft Fork Has Been Adopted by Major Mining Pools. #ethereum http://themerkle.com/the-ethereum-soft-fork-has-been-adopted-by-major-mining-pools/…,0,0,0,False
424,(((Per Lind)))@pclind1,UK #Fintech's Will be a Net Winner vs. Incumbents Over #Brexit http://ln.is/com/EfwAn #banks #payment #bitcoin #Ethereum #DAO,1,0,0,False
425,Bitcoin@bitcoinpoet,"Will Ethereum be promoted as a payment system by itself?: As Bitcoin becomes more expensive and unr... http://bit.ly/29eLtKW #ethereumWill Ethereum be promoted as a payment system by itself?As Bitcoin becomes more expensive and unreliable as it hits the blocksize-limit, it will be less useful as a payment system. Is this an area which...reddit.com",3,2,0,False
426,Bitcoin@bitcoinpoet,Would it be possible to implement an x^2 type difficulty scaling to prevent pools and large miners?... http://bit.ly/29eLA9w #ethereumWould it be possible to implement an x^2 type difficulty scaling...As long as the scaling was high enough the cost benefits would be lowered and increase the community to solo minereddit.com,0,0,0,False
427,woolsim@woolsim,"$xcp $eth $dao
Ethereum for the Overwhelmed Layman http://bit.ly/28TC9LC via @CoinDesk",0,0,0,False
428,Ethereum Monkey@EthMonkey,Ethereum Price Technical Analysis - ETH About To Break Higher? #ethereum http://newsbtc.com/2016/06/27/ethereum-price-technical-analysis-eth-break-higher/…,1,0,0,False
431,Alberto Jauregui | esoteRICK.eth @DisruptBanksy,http://ift.tt/28WBpXd Ethereum Price Technical Analysis – ETH About To Break Higher? - newsBTC #ethereum #ether,0,0,0,False
432,Coinstats@coinstats,"Ethereum - ETH
Price: $13.9753
Change in 1h: +0.39%
Market cap: $1137891466.0
Ranking: 2
#Ethereum #ETH",0,0,0,False
433,Ethereum Price@EthereumPrice_,"#Ethereum: Ether Price Index
1 ETH =0.021657Ƀ XBT = $14.057000 USD
Today: -1.24%⬇︎ Last 24h: +0.12%⬆︎
https://ethereum-price.com",1,0,0,False
434,BitcoinBuzz vega9@BitcoinBuzzV9,http://bitcoinbuzz.vega9.com - Hot topics: #bitcoin #usd #btc #business #ethereum #cryptocurrency,0,0,0,False
435,greenami & da silva@greenami1,Brexit? #DAO? I'm too old for that shit ;-) | #Ethereum for the overwhelmed laywoman | http://bit.ly/28XJQCc,1,0,0,False
436,Gibz@Gibsongibbz,I wonder what impact the #Brexit  will have on #bitcoin #ethereum,2,0,0,False
438,Tobias Pfab@tobiaspfab,"Really nice visualization of the ongoing voting for #TheDAO and the future of #ethereum, thxQuote TweetMartin Köppelmann@koeppelmann · Jun 26, 2016Percentage of miners voting for the #Ethereum soft fork over the last 40h.",0,0,0,False
439,BitcoinAgile@bitcoinagile,Rimbit wallet query? #ethereum #bitcoin http://rimbit.com/threads/rimbit-wallet-query.5460…,1,2,0,False
440,Rimbit @rimbit,Rimbit wallet query? http://rimbit.com/threads/rimbit-wallet-query.5460/… #bitcoin #ethereum,0,0,0,False
441,TheCrowbill@TheCrowbill,Sweet! Free Ethereum every 5 minutes http://eth-faucet.com/?r=0xe7398c0ab36309dc6c20f4eb442d7210f7c4633f… #ethereum via @FreeCryptoCo,2,0,0,False
442,0xc1c4da@0xc1c4da,Replying to @jbaylinajust like #thedao the #ethereum community votes in yet another thing they don't understand #softfork,1,0,0,False
443,⛧ God of Gaming ⛧@TheGodofGamez,There is no great genius without some touch of madness. #gamedev #gamers #indiedev #eth,3,0,0,False
444,BitcoinAgile@bitcoinagile,102 What is #blockchain by WEF #decentralizedledger #Ethereum https://vimeo.com/172355663,2,2,0,False
445,BitcoinAgile@bitcoinagile,#ethereum Price Technical Analysis  ETH About To Break Higher? - NEWSBTC #BTC #ethereumusd http://bitcoinagile.com/724940/ethereum-price-technical-analysis-eth-about-to-break-higher-newsbtc_stream…,1,4,0,False
446,Coinstats@coinstats,"Ethereum - ETH
Price: $13.9364
Change in 1h: -0.12%
Market cap: $1134705199.0
Ranking: 2
#Ethereum #ETH",0,0,0,False
447,BitcoinBuzz vega9@BitcoinBuzzV9,http://bitcoinbuzz.vega9.com - Hot topics: #bitcoin #usd #btc #business #ethereum #blockchain,1,0,0,False
448,Anne Tramut@Annan26,"Thx for adding me to your #list
#Ethereum from @msapinedo
https://twitter.com/msapinedo/lists/ethereum?s=03…
^^",1,0,0,False
450,rssbtc.com@rssbtc,"Ethereum’s Woes Haven’t Hurt Bitcoin: Wonder Why? - http://bit.ly/28XsdjO
#tech #digital #ethereum",1,0,0,False
451,Andreas Staub@andi_staub,"#Bitcoin's #UX Problem

#fintech #blockchain #payments #ethereum http://bit.ly/293kS68",8,3,1,False
461,Coinstats@coinstats,"Ethereum - ETH
Price: $13.9534
Change in 1h: -0.45%
Market cap: $1136071531.0
Ranking: 2
#Ethereum #ETH",0,0,0,False
462,BitcoinBuzz vega9@BitcoinBuzzV9,http://bitcoinbuzz.vega9.com - Hot topics: #bitcoin #blockchain #btc #crypto #opreturn #ethereum,0,0,0,False
