,user,text,likes,retweets,replies,is_thread
0,Matthew Wu @matthewwu,The blockchain future is here. And it needs a few good names. http://recode.net/2016/8/3/12346758/dao-ethereum-blockchain-naming?utm_campaign=www.recode.net&utm_content=entry&utm_medium=social&utm_source=twitter… via @Recode #ethereum #blockchain #bitcoin #fintech,0,0,0,False
1,ether-camp@CampEther,Seen on #hackethercamp https://hack.ether.camp/idea/the-first-ethereum-based-movie… #ethereum #blockchain #movie,4,0,0,False
2,Blindu Sergiu-Ovidiu@s3rj3,This is your chance to be part of a smart contract if you missed the old ones #Yocoin #ETH,1,0,0,False
3,AI & ML@ImpactfulTech,Great talk by Alice team on #blockchain #ethereum #bitcoin #techforgood #charities @skillsmatter,2,1,0,False
4,GeeXstar - Tech M&A@GeeXstar,#Blockchain entities to watch in 2016: #infographic https://goo.gl/P6m46w  /via @e27co #ripple #Litecoin #ethereum #Dogecoin #banxshares,2,2,0,False
5,Coin Pope@CoinPope,"@michaelterpin Thank your for your support. I shall name the Ethereum 7.0 release ""Terpinity"". Spread the gospel. #bitcoin #ethereum #POTUS",2,0,0,False
6,Sonya Rahmani@SonyaRahmani,"Good read! #Blockchain changing the digital world as we know it. 
#ethereum vs #blockchain
http://bit.ly/2aH3KVL #Fintech @valuewalk",3,0,0,False
7,Fisseha Tegegn@Fisseha_Tegegn,The timing of this piece is a bit dodgy ... whatever happened to mainstream journalism?! http://irishtimes.com/news/world/africa/tension-high-between-ethiopia-and-eritrea-1.2742951#.V6Gd_StzhmA.twitter… #ETHTension high between Ethiopia and Eritrea despite harmony in regionAddis Ababa Letter: concern their fraught history may once again lead to full-scale waririshtimes.com,13,1,1,False
8,Frank Bolten@BoFrank01,“The Truth about the Fork” by @avsa https://medium.com/@avsa/the-truth-about-the-fork-fd040c7ca955#.3l9147t20… #Ethereum #TheDAO #ETH #ETC,1,0,0,False
9,Lefteris Karapetsas@LefterisJP,"A voice of sanity about the situation surrounding the #ethereum fork. https://medium.com/@avsa/fd040c7ca955#.aisqx87gm… by @avsaThe Truth about the ForkI respect Ethereum’s Classic philosophical position, in fact I was among the first to be publically against the hard fork, and helped in…avsa.medium.com",17,6,1,False
10,Patrizio Stavola@halovast,Credit Suisse Report Explores #Blockchain Impact on 14 Public Stocks http://bit.ly/2aOQPAk #Ethereum #bitcoinCredit Suisse Report Explores Blockchain Impact on 14 Public Stocks - CoinDeskResearch from financial services giant Credit Suisse examines how the stock performance of incumbent financial firms could be impacted by blockchain.coindesk.com,3,5,0,False
11,BitBay@BitBay,Last #ether price 31.10 PLN #Ethereum #cryptocurrency,1,2,0,False
12,Peter Todd@peterktodd,"Does @VitalikButerin care more about mutability and/or control than he does the decentralised world computer dream?Quote Tweetvitalik.eth@VitalikButerin · Aug 3, 2016Replying to @kristopherives and @BanderovetzI still won't support ETC.",45,23,13,False
13,Paul Szczesny@paulszczesny0,Does @petertoddbtc care more about dogma than he does about development? #ethereum exists primarily because of a lack of vision in BTC,9,7,4,False
14,Ethereum Canada@EthereumCanada,The rise of the #ETC: http://ow.ly/80KT302SAg9 @CoinTelegraph #ethereum #blockchain,2,0,0,False
15,BigchainDB@BigchainDB,Read this. “Programmable blockchains in context” http://buff.ly/2aQlT49 @leashless @ConsenSysLLC #smartcontracts #worldcomputer #ethereum,13,11,2,False
16,DecentralizedCapital@Decen_Capital,Fair Money for All: Basic Income on the Blockchain: http://bit.ly/2auwPP1 via @ConsenSysLLC #ethereum #blockchain #bitcoin,1,2,0,False
17,The DAO@The_DAO_Project,"#ethereum #hardfork 
“The truth about the fork” @avsaThe Truth about the ForkI respect Ethereum’s Classic philosophical position, in fact I was among the first to be publically against the hard fork, and helped in…avsa.medium.com",8,9,0,False
18,tgerring.eth@TaylorGerring,"""Yesterday, the illusion of progress was shattered."" #bitcoin #ethereum #blockchain http://forums.prohashing.com/viewtopic.php?f=11&t=916…",4,4,0,False
19,CryptKeeper@CryptKeeperBTT,"Casper POS (proof of stake) will reduce #ethereum blocktimes down to 3 secondsA note on how the latest Casper PoC accomplishes its fast block...Many people are wondering how it is the a 3 second block time can possibly be safe, especially in a context where (i) we are also interested in...reddit.com",1,2,0,False
20,Ethereum UAE@Ethereum_UAE,"Bitcoin Slump Factors: EU Regulation, Halving, ETC, Scaling Issue http://ift.tt/2aznJ4a #EthereumBitcoin Slump Factors: EU Regulation, Halving, ETC, Scaling IssueWhat led to the recent drop in Bitcoin’s price? Some unresolved issues may have been at playcointelegraph.com",1,2,0,False
21,Referentie@referentie,The latest The Referentie Daily! http://paper.li/referentie?edition_id=0c235070-599c-11e6-a0e8-0cc47a0d15fd… Thanks to @Marskap_ICT @sodaflux @wmellaart #ecommerce #ethereum,1,2,0,False
22,Fintech Canada@Fintech_Canada,"Canada Bitcoin Blockchain Event on Monday, August 8th, at Mars [Toronto]:
http://meetup.com/CanadaBitcoin/ #bitcoin #blockchain #ethereumBitcoin Builders (Toronto, ON)Let's get together and talk about bitcoin and blockchain technology. Over the past few years, Canada has led the way with respect to bitcoin innovation, now it's time we push it to the next level. Youmeetup.com",3,3,0,False
23,Randy Hilarski@RandyHilarski,Bitcoin And Gold Better NOT Come In; Student Loans Are... http://slninja.com/jGhv #Bitcoin #Ethereum #CryptoCurrency,8,0,0,False
24,Cointelegraph@Cointelegraph,"Rootstock’s Merge-Mining to Strengthen #Bitcoin Network, Miners https://cointelegraph.com/news/rootstocks-merge-mining-to-strengthen-bitcoin-network-miners… #Ethereum",19,51,1,False
25,Patrizio Stavola@halovast,"an example of #Ethereum Vault implemented in 20 minutes of time and one page of code
http://blunderingcode.com/ether-vaults/ #blockchain #bitcoinEther VaultsI still see people occasionally asking what smart contracts are good for. All the attention goes to really ambitious projects, but people underestimate the usefulness of a page of code. For example...blunderingcode.com",2,2,0,False
26,Fabian Vogelsteller@feindura,I’m working 100% on #ETH!,20,7,1,False
27,Anthony Di Iorio@diiorioanthony,"I find degre of  ""us vs. them"" mentally to be unfortunate. Would love more cooperation & understanding #bitcoin #ethereum #etc #blockchain",40,18,5,False
28,Null TX@nulltxnews,Where's my popcorn? #bitcoin #ethereum #thedao,9,13,1,False
29,ShapeShift @ShapeShift_io,"Come one, come all! Get your clean ETH and ETC here with the new ShapeShift #Ethereum Splitter: https://split.shapeshift.io",23,24,0,False
30,Crypto₿ull@CryptoBull,Problem?? Just fork it... #Ethereum,13,7,1,False
31,Laird Jeff Garzik@jgarzik,"Steve is often #WorthReading even if we disagree:
""Cryptocurrency's darkest day"" http://forums.prohashing.com/viewtopic.php?f=11&t=916… #bitcoin #ethereum $ETC #blockchain",9,5,3,False
32,Jordi Baylina@jbaylina,Great article from @avsa about #ethereum #thedao #hardfork https://medium.com/@avsa/fd040c7ca955#.oo51wztjx…,4,2,0,False
33,bitcoinking.de@CoinkingDe,"Retweeted CryptKeeper (@CryptKeeperBTT):

Casper POS (proof of stake) will reduce #ethereum blocktimes down to 3...A note on how the latest Casper PoC accomplishes its fast block...Many people are wondering how it is the a 3 second block time can possibly be safe, especially in a context where (i) we are also interested in...reddit.com",2,0,0,False
34,BlockChannel@BlockChannel,BCN News: themerklenews: Where's my popcorn? #bitcoin #ethereum #thedao,3,4,1,False
35,MightyEther@mightybitcoin,“The Truth about the Fork” by @avsa https://medium.com/@avsa/the-truth-about-the-fork-fd040c7ca955#.4snj0ntyn… #ethereum,4,6,0,False
36,Randy Hilarski@RandyHilarski,LE43: Building a Vending Machine Empire w/ Matt Miller http://slninja.com/jFhv #Bitcoin #Ethereum #CryptoCurrency,7,3,0,False
37,Vignesh Sundaresan@vigsun,"I am working 100% on ETH and own 0 ETC 

@velocitymarkets #ethereum",13,5,0,False
38,EthereumWisdom@ethereumwisdom,Try now the new alert system that allows prices tracking with desktop notifications #ethereum #trading #ETC #ETH,2,3,0,False
39,Alex Lielacher@AlexLielacher,#Ethereum Classic and #LISK Surge on Continuing Chasm in Ethereum’s Blockchain https://btcmanager.com/news/ethereum-classic-and-lisk-surge-on-continuing-chasm-in-ethereums-blockchain/…,1,2,0,False
40,Ξ Fly Guy Ξ (flyguy.eth)@FlyGuyInTheSky,#ethereum The tables turn in #ETC again...,2,0,0,False
41,tgerring.eth@TaylorGerring,"Anthony gets it. We gotta we together! #bitcoin #ethereum #blockchainQuote TweetAnthony Di Iorio@diiorioanthony · Aug 3, 2016I find degre of  ""us vs. them"" mentally to be unfortunate. Would love more cooperation & understanding #bitcoin #ethereum #etc #blockchain",14,4,0,False
42,Joshua J. Bouw@JoshuaJBouw,"Hey guys I have an idea, let's hard fork Bitcoin to get the money back! Man, I am so smart. #sarcasm #bitcoin #ethereum",2,1,0,False
43,On The Blockchain @OnTheBlockChain,"If the #Bitcoin devs could do an #Ethereum style #HardFork to roll back the Bitfinex hack, would you support it?Yes29.2%No33.3%What?!  HELL NO!!37.5%24 votes·Final results",2,2,0,False
44,ፍሬህይወት ነጋሽ Frehiwot Negash@FrehiwotNG,"Prof Jumoke  Let's leave ethnicity , religion behind. #MINDSDialogue2016 @MINDSAfrica #ETH",7,7,0,False
45,pipermerriam@pipermerriam,I am working 100% on ETH #ethereum,20,1,1,False
46,Ansel Lindner@AnselLindner,"If people wanted this, they'd build a centralized system. $ETH is dead. #EthereumQuote Tweetvitalik.eth@VitalikButerin · Aug 3, 2016No, it's about values. ETH = reasonableness, pragmatism and compromise.",2,3,0,False
47,CRYPTOCOINTALK@cryptocointalk,#Bitcoin and #Ethereum Bounce Back After Volatile Trends https://cryptocointalk.com/topic/48992-fintechist-bitcoin-and-ethereum-bounce-back-after-volatile-trends/… #BTC $XBT $ETH #finance #cryptocurrency,4,0,0,False
48,John@_real_john,Don't Try Ethereum Cloud Mining Until You've Read This! #ETH #ETHEREUM http://howigrowmywealth.com/ethereum-cloud-mining/?utm_campaign=crowdfire&utm_content=crowdfire&utm_medium=social&utm_source=twitter…,2,0,0,False
49,MyEtherWallet | MEW@myetherwallet,"Dear Twitter, 
#eth is NOT talking about #Ethiopia. It's a cryptocurrency, not a country, nor part of the Olympics. Get yo flag outta here ",37,28,4,False
50,Omar Bham (Crypt0)@crypt0snews,"https://youtu.be/TpCMTt7DYrk Check Out Alex Van de Sande's new Medium Post on Negativity Surrounding Hard-Fork #ethereum #ether #blockchain #forkEp. #53- Ethereum News: NEW Medium Post, Community Positivity, Ready... 𝙏𝙝𝙖𝙣𝙠 𝙔𝙤𝙪 𝙁𝙤𝙧 𝙒𝙖𝙩𝙘𝙝𝙞𝙣𝙜!  Remember to subscribe and hit the bell """" icon, so you don't miss your daily cryptocurrency news!-~-~~-~~~...youtube.com",1,0,0,False
51,Muju 5.5@mujunaeem,Did #Bitcoin #BTC fall 20% because the money was stolen or because the exchange was breached in #hack? What is the cause? 1/2,1,0,0,False
52,Muju 5.5@mujunaeem,Is #cryptocurrency going 2 fall/collapse everytime someone steals some money from somewhere? (I am referring to #DAO #hack #ethereum eg) 2/2,2,2,1,False
53,Đaniel McClure@danielmcclure,"“The Truth about the Fork” by @avsa #Ethereum #TheDAOThe Truth about the ForkI respect Ethereum’s Classic philosophical position, in fact I was among the first to be publically against the hard fork, and helped in…avsa.medium.com",1,2,1,False
54,Stephan Tual@stephantual,The definitive Summary of the fork by #ethereum's @avsa https://medium.com/@avsa/the-truth-about-the-fork-fd040c7ca955#.s553xvjoz…,26,8,1,False
55,Laird Jeff Garzik@jgarzik,"Business 101: Move fast and solve user pain points (...that the #ethereum wallet community is slow to solve)Quote TweetShapeShift @ShapeShift_io · Aug 3, 2016Come one, come all! Get your clean ETH and ETC here with the new ShapeShift #Ethereum Splitter: https://split.shapeshift.io",5,5,1,False
56,Sarah (Hody) Shtylman@SHodyEsq,How @coinbase / @GDAX thinks about securing digital assets like #bitcoin and #ether. https://blog.coinbase.com/2016/08/03/how-we-secure-digital-assets/…,2,1,0,False
57,davidrubin@davidrubin,Inks of #ETHER issue#4 FINISHED!! Let's rock to the color!! @mattkindt @NotTooChaby @DarkHorseComics,42,11,2,False
58,Abeba Birhane@Abebab,Replying to @Lolchu.@Lolchu It depresses me to think many Ethiopian men think (and do) they can shame women & disctate what they can and can't wear. #ETH,8,3,2,False
59,Bob Summerwill@BobSummerwill,"So @golemproject have announced their next stage!   Congrats!
Reddit:
https://reddit.com/r/ethereum/comments/4vsauh/golem_network_token_gnt_sale_this_september/…
#ethereum #compute https://twitter.com/golemproject/status/760459614450135041…This Tweet is unavailable.",6,1,0,False
60,AminCad@AminCad,“The Truth about the Fork” by @avsa https://medium.com/@avsa/the-truth-about-the-fork-fd040c7ca955#.4snj0ntyn… #ethereum,1,3,0,False
61,Mihai Alisie@MihaiAlisie,"Replying to @DennisonBertram.@DennisonBertram 1/ @AkashaProject's content censorship immunity is given by the @IPFSbot layer, even if the #ethereum chain is altered",2,0,0,False
62,owl'ded ⎛πϣΞ⎠ @knowLED,"...as its a #currency we should use $ETH and hope @twitter will spend us #symbols somewhen as well. =]Quote TweetMyEtherWallet | MEW@myetherwallet · Aug 3, 2016Dear Twitter, 
#eth is NOT talking about #Ethiopia. It's a cryptocurrency, not a country, nor part of the Olympics. Get yo flag outta here ",2,0,0,False
63,Mihai Alisie@MihaiAlisie,Replying to @DennisonBertram.@DennisonBertram 2/ But I don't see how an #ethereum fork would be supported by the community when it comes to content published in a dapp,2,1,0,False
64,DecentralizedCapital@Decen_Capital,"""I am working 100% on #ETH.” says @ConsenSysLLC’s Founder @ethereumJoseph. https://twitter.com/ethereumJoseph/status/760601142032211968… #ethereum #altcoinQuote TweetJoseph Lubin@ethereumJoseph · Aug 2, 2016I am working 100% on ETH. @ethereumproject @ConsenSysLLC https://twitter.com/VitalikButerin/status/760232885483806720…",1,0,0,False
65,cryptoNaut @_hightek,9k BTC buy support on $ETC vs 6k on $ETH @ @Poloniex,4,2,0,False
66,Mihai Alisie@MihaiAlisie,Replying to @DennisonBertram.@DennisonBertram 3/ After all @AkashaProject is a entirely different creature from #TheDAO + the way we use #ethereum is different,3,1,0,False
67,akhavr@akhavr,"BTW $DASH price is chasing $ETH.  But $DASH is uptrend, $ETH is downtrend.",2,1,0,False
68,Omar Bham (Crypt0)@crypt0snews,Ether's price = $10.46 and climbing. It lives. #frankenstein #ether #ethereum #eth #blockchain #cryptocurrency #money #market #finance,3,0,0,False
69,ant@ThisIsNuse,"Replying to @ThisIsNuse.@halovast a blockchain that is free from bailouts and ""survives"" through concensus of what is actually logical, yea, I dig that shit.",1,0,0,False
70,ant@ThisIsNuse,.@halovast $ETH fork was emotionally driven and therefore the current chain is an abomination.,4,0,0,False
71,Jack@jackfru1t,"I guess $ETH has moved on from ignoring and laughing at $ETC.Quote TweetFabian Vogelsteller@feindura · Aug 3, 2016#ETC Chain of thiefs…
Thats an interesting perspective :)
http://forums.prohashing.com/viewtopic.php?f=11&t=916…",6,1,0,False
72,Jebus@jebus911,"I can see it now. The $Eth guys crash $Etc in their final attack, it recovers, @barrysilbert stands over their dead bodies shilling $etc",6,1,2,False
73,Λce@AceOfWallStreet,Everyone should just leave @VitalikButerin alone and let him focus on development. Politics is obviously not his forte. $ETH $ETC,8,2,1,False
86,ETHNews@ETHNews_,@ShapeShift_io announces an #Ethereum Splitter for #ETH & #ETC https://split.shapeshift.io,3,0,0,False
87,/r/Ethereum@r_Ethereum,We Colony are 100% on ETH http://bit.ly/2aT9psc #Ethereum,1,0,0,False
88,/r/Ethereum@r_Ethereum,I'm working 100% on Ethereum (MakerDAO & cPay) http://bit.ly/2aV6j3H #EthereumI'm working 100% on Ethereum (MakerDAO & cPay)I'm a software developer with [Nexus Development](https://nexusdev.us/) working on [MakerDAO](https://makerdao.com/) and (more often these days)...reddit.com,1,0,0,False
89,/r/Ethereum@r_Ethereum,Still very proud to say that I am also 100% working on Ethereum (ETH) http://bit.ly/2aT9OuY #Ethereum,1,0,0,False
90,Alex.eth@AlexanderFisher,Putting the past couple weeks in perspective #ethereum • /r/ethtrader http://buff.ly/2aiYiYI,2,2,0,False
91,Vortex@theonevortex,Replying to @paulszczesny0 and @petertoddbtcYou'll need a pretty big mirror to hold the reflection of all the BS going on in #ethereum.,2,1,0,False
92,BitCoinBarry@BitCoinBarry,even a pubic hair on a toilet seat gets pissed off. ETC down 15% ETH up 25. #bitcoin #ethereum #dropandbuyonthedips,0,0,0,False
93,Rimbit @rimbit,We Finally Launched Our Rimbit Space Wallet http://rimbit.com/posts/12269 #bitcoin #ethereum,0,0,0,False
94,MyEtherWallet | MEW@myetherwallet,Replying to @TsedayI can't find a single tweet where #eth is regarding Ethiopia. Neither in top tweets or all tweets. ,2,0,0,False
95,Verium Reserve@VeriumReserve,#Verium @coindesk #PR is live! http://coindesk.com/press-releases/verium-crypto-gold-standard-currency-reserve/… #bitcoin #litecoin #DashDC $ETC $ETH $STEEM $VRC,13,16,0,False
96,Vortex@theonevortex,"Replying to @paulszczesny0 and @petertoddbtcIf you want to sugar coat #ethereum fork disaster as ""diversity & competition"", be my guest, no one else will.",1,0,0,False
100,ETHNews@ETHNews_,#VCAP #Crowdsale Aims To Produce First Ever #Cryptocurrency Funded Film #Ethereum http://ow.ly/Hsrj302TXXb,1,0,0,False
101,Vortex@theonevortex,"Replying to @paulszczesny0 and @petertoddbtcOh also, 3 years later, WE STILL ONLY HAVE 1 CHAIN, unlike #ethereum.",2,1,0,False
102,Binary Miner@Binary_Miner,I'm really not trying to shill but something about $ETH just says to me one day it will be another #PayCoin . I hope I'm wrong but my gut ..,0,0,0,False
103,Vortex@theonevortex,Replying to @paulszczesny0 and @petertoddbtcIf that's true than #ethereum exhibited a complete lack of vision for not foreseeing scaling solutions in btc.,1,1,0,False
104,Vortex@theonevortex,"Replying to @paulszczesny0 and @petertoddbtcFalse Paul, #ethereum exists to fulfill completely different use case scenario than #bitcoin.",2,1,0,False
105,Coinstats@coinstats,"Ethereum Classic - ETC
Price: $2.6454
Change in 1h: +9.79%
Market cap: $217999631.0
Ranking: 4
#Ethereum Classic #ETC",0,0,0,False
106,฿banzai@koinsmart,"Sell $ETC buy $ETH, sell $ETH buy $ETC. Repeat.",0,0,0,False
107,Coinstats@coinstats,"Ethereum - ETH
Price: $10.1288
Change in 1h: -1.85%
Market cap: $836919429.0
Ranking: 2
#Ethereum #ETH",0,0,0,False
108,Paul Szczesny@paulszczesny0,Replying to @peterktoddDoes @petertoddbtc care more about dogma than he does about development? #ethereum exists primarily because of a lack of vision in BTC,9,7,4,False
109,Chevdor@chevdor,Replying to @BarrySilbert#Ethereum is a tech before being a market. Dev keep working on #ETH. Investors have the choice between tech or (des)illusion.,1,0,0,False
111,Best dog ever@SchalkDormehl,Replying to @Robonova01where is your github?Your holdings? Your papers? Your support of any kind for #Ethereum before this?,1,0,0,False
112,Chevdor@chevdor,"Great article from @ConsenSysLLC mentioning #ETH #NXT and #ProofOfStake. The real Ethereum supporters are on ETH.Quote TweetConsenSys@Consensys · Aug 3, 2016#ConsenSysWeekly: Supporting ETH, Mortal Hazards of Technology, Blockchain Board Meetings 
http://buff.ly/2b3tqbv",0,0,0,False
113,kingscrown@kingscrownBTC,what if #theDAO #hackers = #bitfinex one ? $BTCUSD $BTCETH #bitcoin #ethereum #justsaying,1,0,0,False
114,Lexi@sfinfosecgirl,Everyone should come together now and stay strong $ETC $ETH $XBT $BTC #ethereum #ethereumclassic #bitcoin #Bitfinex #BitfinexHack #bitgo,0,0,0,False
115,/r/Ethereum@r_Ethereum,vDICE.IO 100% on ETH - Checking in :) http://bit.ly/2aPaqR7 #Ethereum,0,0,0,False
116,/r/Ethereum@r_Ethereum,Official statement from consenSys: fully committed to supporting ETH http://bit.ly/2aCWu9e #Ethereum,1,0,0,False
117,ant@ThisIsNuse,Replying to @Steven_McKie and @halovastthere is nothing to accept. Math failed for $ETH.,0,0,0,False
118,BitcoinPari@Bitcoinpari_,#Rio2016  starts in 3 days!! Use your #bitcoin #ethereum #doge #ltc for some fun bets.  https://goo.gl/MXjoNg,0,0,0,False
119,⛧ God of Gaming ⛧@TheGodofGamez,"Never do things others can do and will do, if there are things others cannot do or will not do. $ETH",0,0,0,False
121,ant@ThisIsNuse,Replying to @ThisIsNuse.@halovast $ETH fork was emotionally driven and therefore the current chain is an abomination.,4,0,0,False
122,Jebus@jebus911,"Never underestimate the power of a jilted lover.

$ETH",0,0,0,False
123,Visions@visions_app,Happy birthday to #Ethereum. @ethereumproject turns one year old. We look back at last years ÐΞVCON ONE conference http://v.sions.tv/2affLfQ,1,0,0,False
124,Etheregen@etheregen,Our testnet without the difficulty bomb is live. See the instructions in /r/etheregen. #Ethereum #Bitcoin #Etheregen #Hardfork,0,0,0,False
125,Cryptopatterns@Cryptopatterns,"Tks 4 sharing +congrats! Wut r other's doing? Don't need all details just good 2 share ideas/info $ETC $ETH $BTCQuote Tweet฿it[ÇØÏŃ]฿oy  (BTC #Bitcoin $USDT)@onefix · Aug 3, 2016Replying to @CryptopatternsI've got my re buy setup for around 0.00314ish...  Held on a little long and sold around 0.005.. Happy with few days profits",2,0,0,False
126,Coinstats@coinstats,"Ethereum Classic - ETC
Price: $2.43959
Change in 1h: -4.87%
Market cap: $201039435.0
Ranking: 5
#Ethereum Classic #ETC",0,0,0,False
127,Coinstats@coinstats,"Ethereum - ETH
Price: $10.3159
Change in 1h: -0.15%
Market cap: $852369381.0
Ranking: 2
#Ethereum #ETH",0,0,0,False
128,@NeoTrades@bitcoinhackers.org@RedPillTrading,Re-longed $ETC @ 415 - Let's see if she's got more push in her. #Bitcoin #Ethereum,1,1,0,False
130,Newb@newbiumcoin,#Ethereum is Pumping $ETH $ETC https://coins.newbium.com/post/235-ethereum-is-pumping-now-inverse-with-ethereum-cl… viaEthereum is Pumping - Now Inverse With Ethereum Classic • NewbiumEthereum is up almost 30% over the last 24 hours and now looks to be moving inversely with Ethereum Classic. This fresh pump seems to have begun after a handfucoins.newbium.com,1,0,0,False
133,LaShawnB@lashawnb,"Replying to @danjacksonusDon't you feel the wrath with the #eth?? Yeah. That's the point, bro. #itcometh",0,0,0,False
134,Dan Jackson@danjacksonus,Replying to @lashawnbI like how you tweet in KJV when you're vengeful. #eth,2,0,0,False
135,supr nova pools@SuprnovaPools,Get your $ETC #EthereumClassic for 0%fee at http://etc.suprnova.cc now ! All Stratum Variants and also private ports available ! $ETH,0,0,0,False
136,Crypto Price Ticker@TickerCrypto,"#Ethereum #ETH Rank:2 Last:฿0.01704947(0.804%) High:Buy Instantly! on  Low:฿0.01791111 Vol:฿128,744 Market Cap:฿1,408,638 / $791,480,350.29",0,0,0,False
138,cryptinsight@cryptinsight,#ethereum Classic Needs More Wallet Support http://bit.ly/2aP16fS,0,0,0,False
139,Etheres@Etheres_Pool,"Congratulations, Blocks 2,004,706/2,004,706 found. Payments processed and sent.
#ETH #Ethereum $ETH @ethereumproject",0,0,0,False
140,Cryptopatterns@Cryptopatterns,"$BTC laughs at @Cryptopatterns silly ""probabilities"".Confirm close. Avenge yesterday's loss? Ha #bitcoin $ETH $ETC",0,0,0,False
142,Tyler Smith@FreeMyVunk,#FreeMyVunk is working 100% on ETH. We support the #Ethereum Foundation and applaud their balanced response to the ETC drama.,9,4,0,False
143,Nana Smoke@Nanasmokeshop,IF you were wondering what happened with the #ethereum #foundation. https://youtube.com/watch?v=QsJXX2OpuB0… http://fb.me/5MkfiOWFx,0,0,0,False
144,Eamon Walsh@eamonkwalsh,"This $ETC vs $ETH up and down is fun to watch...and trade. One goes up, one goes down",0,0,0,False
145,Avtar Singh Sehra@avtarsehra,"Philosophical thoughts on #ethereum, the hardfork and #ethereumclassic, from the @IOHK_Charles
https://steemit.com/dao/@charleshosk/hoskus-parvum-opus-a-brief-sojourn-back-to-ethereum…",1,1,0,False
146,How To Get Bitcoins  #KBF@htgbitcoins,Golem network token (GNT) sale: this September https://blog.golemproject.net/golem-network-token-gnt-sale-220c2a732f9… @golemproject #Ethereum #Blockchain #Golem $GNT,1,1,0,False
147,Ameer Rosic@AmeerRosic,Could #Blockchain Technology Disruptive The Real Estate Industry? http://dld.bz/eCvcw #ethereum,0,0,0,False
148,Kurt Kumar@KurtKumar,"Replying to @KurtKumarNeedless to say security will play a major part in evolution and adoption curve of #smartcontracts
#Ethereum #Bitcoin",0,0,0,False
149,Francisco Gordillo@FGordillo,#bitcoin #blockchain Elliptic Partners With LexisNexis on Bitcoin Analysis: Blockchain analy... http://bit.ly/2ayAI9d #ethereum #ether,2,3,0,False
150,Texture@iamtexture,Working 100% on ETH. #Ethereum. #DAS #DECENT,2,0,0,False
153,Patrizio Stavola@halovast,"""#Cryptocurrency 's darkest day""
http://forums.prohashing.com/viewtopic.php?f=11&t=916… #Ethereum #bitcoin #ethereumclassic #blockchain",1,0,0,False
154,Coinstats@coinstats,"Ethereum Classic - ETC
Price: $2.58209
Change in 1h: -5.57%
Market cap: $212782440.0
Ranking: 4
#Ethereum Classic #ETC",0,0,0,False
155,Coinstats@coinstats,"Ethereum - ETH
Price: $10.375
Change in 1h: +3.18%
Market cap: $857239076.0
Ranking: 2
#Ethereum #ETH",0,0,0,False
156,Ethereum Price@EthereumPrice_,"#Ethereum: Ether Price Index
1 ETH =0.018187Ƀ XBT = $10.350000 USD
Today: +12.10%⬆︎ Last 24h: +19.35%⬆︎
https://ethereum-price.com",1,1,0,False
157,Liza Avramenko@avrliza,The future is scripted #Ethereum http://redbubble.com/people/mimosariot/works/22336534-ethereum-transparency?asc=u&p=t-shirt&rel=carousel&style=mens…,0,0,0,False
158,David Liam@crazydaveorama,#ETC Funds From The #DAO Breach is On The Move http://newsbtc.com/2016/08/02/etc-funds-dao-breach-move/… #hacked #EthereumETC Funds From The DAO Breach is On The MoveSome people in the Ethereum community feel the attacker should sell the ETC as soon as possible to crash the market price.newsbtc.com,1,0,0,False
159,David Liam@crazydaveorama,#TAO Network Announces the Crowdsale of its #Cryptocurrency and the TAO of #Music Project http://newsbtc.com/2016/08/02/tao-network-announces-crowdsale-cryptocurrency-tao-music-project/… #cryptocurrency #Ethereum,0,0,0,False
160,Cryptopatterns@Cryptopatterns,"And don't assume $ETH $10.20 is good support either.All think that, Bots know it too. $ETC $BTC #etherum #Bitcoin",2,1,0,False
161,How To Get Bitcoins  #KBF@htgbitcoins,Beyond the Void: an upcoming real time strategy game based on the #Ethereum #Blockchain http://beyond-the-void.net @BeyondVoidGame #Nexium $NxC,1,0,0,False
162,David Liam@crazydaveorama,#Ethereum Analysis: #ETH vs #ETC potential parityEthereum Analysis: ETH vs ETC potential parity » Brave New CoinWith Ethereum splitting into 'Ethereum' (ETH) & 'Ethereum-Classic' (ETC): We take a day-trader's look into what the markets are telling us and ask will we see parity?bravenewcoin.com,0,0,0,False
163,Cryptopatterns@Cryptopatterns,"$ETH 3rd Tgt $12.40-65.Now things get interesting. Don't get caught leaning too far....$ETC $BTC #Ethereim #BitcoinQuote TweetCryptopatterns@Cryptopatterns · Aug 3, 2016Hi so far 10.20. Trouble reaching tgts bearish, but need more indicators to incr odds.  $ETH $ETC #ethereum #bitcoin https://twitter.com/Cryptopatterns/status/760631425884225537…",1,0,0,False
164,Binary Miner@Binary_Miner,Holy shit. All I did was mention $eth or $etc or whatever you fellas are calling it these days and I got added to all sorts of list. Weirdos,1,0,0,False
165,ant@ThisIsNuse,"Wasn't sold on the H+S for $ETC, but $ETH inverted H+S was clear as day. Rekt.",0,0,0,False
166,Etheregen@etheregen,@Frances_Coppola Would you be interested in discussing with us? We're launching a new chain based on #Ethereum soon. Would like your input.,1,0,0,False
169,Pietro Speroni di Fenizio Ph.D (English account)@pietrosperoni,"#PublicDisclosure:

I changed all my #ETH in #ETC
and then I sold some #BTC to buy more ETC.
All within limits: if ETC goes to 0 I survive.",0,0,0,False
170,Rimbit @rimbit,Thursday Mornings Video http://rimbit.com/posts/12270 #bitcoin #ethereum,0,0,0,False
171,David Liam@crazydaveorama,"Exchanges To Launch On #Ethereum, #Lisk And Others https://cointelegraph.com/news/exchanges-to-launch-on-ethereum-lisk-and-others… #blockchain",1,1,0,False
173,3esmit.stateofus.eth@3esmit,"@hongcoins BTW, I will invest in ETH only projects. I don't want to deal with the deprecated chain and I want it to be abandoned. #ethereum",1,0,0,False
175,Francisco Gordillo@FGordillo,#bitcoin #blockchain Swedish Bank Joins Bitcoin Processor's $4 Million Series A: Swedish ban... http://bit.ly/2ayu4Qf #ethereum #ether,1,0,0,False
176,Francisco Gordillo@FGordillo,#bitcoin #blockchain Credit Suisse Report Explores Blockchain Impact on 14 Public Stocks: Re... http://bit.ly/2aSv18n #ethereum #ether,1,0,0,False
179,StefanH@personalnexus,"As my #bitcoin #blockchain download still hasn't completed, I've started looking at #ethereum as well.",1,0,0,False
180,Coinstats@coinstats,"Ethereum Classic - ETC
Price: $2.70493
Change in 1h: -5.39%
Market cap: $222905323.0
Ranking: 4
#Ethereum Classic #ETC",0,0,0,False
182,Coinstats@coinstats,"Ethereum - ETH
Price: $10.024
Change in 1h: +2.4%
Market cap: $828225052.0
Ranking: 2
#Ethereum #ETH",0,0,0,False
183,Matthew Gardiner@matwg,"8/3/16: Cryptocurrency's darkest day. Yet. #FinTech #Ethereum #Bitcoin #Blockchain 
http://buff.ly/2am6DGu",0,0,0,False
184,tgerring.eth@TaylorGerring,"Yesterday was a rough day for everyone in crypto. Today, we can show solidarity by working together for greater security #bitcoin #ethereum",17,7,0,False
186, Mikko Ohtamaa@moo9000,Hard facts about #Ethereum Classic fork and motivation behind the actors https://medium.com/@avsa/the-truth-about-the-fork-fd040c7ca955#.7a80q7n6p…,1,0,0,False
187,Ethereum SE@StackEthereum,Ethereum Mist wallet 0.8.0 won't receive any payments anymore http://ethereum.stackexchange.com/questions/7715/ethereum-mist-wallet-0-8-0-wont-receive-any-payments-anymore… #ethereum #mist #wallets #ether #ethereumwalletdapp,0,0,0,False
191,Kevin Loaec @KLoaec,"DAO hack: Panic for 1+ month. Bitfinex hack: 24h, everything back to normal. 2 very different communities. #Ethereum #bitcoin",0,0,0,False
192,Laird Jeff Garzik@jgarzik,"Replying to @jgarzik#ethereum takes a page from #bitcoin on pledging loyalty:
Exhibit B: https://github.com/bitcoin-dot-org/bitcoin.org/pull/1165…
Exhibit C: https://bitcoinxt.software/onboard.htmlAdd ""Capacity increases"" page with initial signatures by harding · Pull Request #1165 · bitcoin-d...Link: Capacity increases for the Bitcoin system If you're a known contributor and want to add your signature, please make a comment saying ""ACK statement"" and I will add y...github.com",2,2,2,False
193,Dappsters@DappstersLLC,"Hi everyone! Just checking in. We're Dappsters, and we're going to bring decentralized blockchain technology to the entire world! #ethereum",2,0,0,False
194,hubskihose@hubskihose,$72 Million In Bitcoins Stolen From Hong #bitcoin #ethereum http://dlvr.it/LxyjPP,0,0,0,False
195,⟠ ΞTHeREAL  ⟠@x_ETHeREAL_x,"According to my twitter feed, everyone is working 100% for Ethiopia... weird. Oh well, #ETH all the way!",1,0,0,False
196,Cryptopatterns@Cryptopatterns,#ETH move up real or headfake? Mixed signals but here's some keys to pattern to watch #ETC #BTC #ethereum #bitcoin,2,0,0,False
198,Olivier Chapiteau@o_chapiteau,03Aug16 19:16:52 UTC #Ethereum live spots - #Ether @ 10.03001$ - #EtherClassic @ 2.69755$,0,0,0,False
199,Adam Mustafa@amustafa11,"Thanks @VitalikButerin, @avsa, & #ethereum community members/projects for helping maintain confidence. For me it's made all the difference",0,0,0,False
200,BlockTribune@BlockTribune,"SmartContract connects existing financial infrastructure with smart contract networks #Ethereum and #BitcoinSmart Oracles Connects Financial Infrastructure With Ethereum, Bitcoin | Coin JournalSmartContract, an American startup developing blockchain-based applications, has announced the launch of a new…coinjournal.net",0,0,0,False
202,/r/Ethereum@r_Ethereum,"Sergey Nazarov (http://SmartContract.com cofounder), I am working 100% on ETH http://bit.ly/2aAtgHJ #Ethereum",0,0,0,False
206,/r/Ethereum@r_Ethereum,ConsenSys Continues Our Support for Ethereum http://bit.ly/2aNOQMs #EthereumConsenSys Continues Our Support for EthereumPosted in r/ethereum by u/treeposes • 216 points and 5 commentsreddit.com,0,0,0,False
207,/r/Ethereum@r_Ethereum,Ownage: 100% on eth http://bit.ly/2aAsRF3 #Ethereum,0,0,0,False
208,/r/Ethereum@r_Ethereum,Cryptocurrency's darkest day http://bit.ly/2aAsw5C #Ethereum,0,0,0,False
209,/r/Ethereum@r_Ethereum,Devs! Is Microsoft 100% working on ETH? http://bit.ly/2aAsUky #Ethereum,1,1,0,False
210,ምንተስኖት ፍቅሬ(Mintila)@MintesinotF,"Only gain of Oromiya from d/nt #Eth revolution in z last 150yrs is 'land to the tiller'.Quote TweetMenelik III@GurageFirst · Aug 3, 2016ዶክተር መረራ ጉዲና እውነት ይናገራሉ። አድምጧቸው። እንብቧቸው። አክብሯቸው። http://opride.com/2016/08/03/merera-gudina-oromo-protests-and-the-future-of-oromo-struggle/…",0,0,0,False
211,Michael 134636@Michael134636,"BIG ETH news #ethereum !!Quote TweetEthereum@ethereum · Aug 3, 2016Swarm status update from Ethereum's @zeligf ""Sworm"" PoC 0.2 RC3 https://github.com/ethersphere/go-ethereum/wiki/swarm-status-update-@-sworm-poc-0.2-rc3… #blockchain #filesystem #web3",0,0,0,False
212,Levans@levansfr,"Current status on #ethereum reddit: https://cdn.meme.am/instances/500x/53360813.jpg…

Seriously, we could make a TV show out of this. It never stops. ",0,0,0,False
213,Coin Pope@CoinPope,"@TuurDemeester Should #Ethereum adopt a 1MB block size? Well who cares, 'cause #blockchain 3.0 is coming. Duh. #bitcoin #ethereum",2,0,0,False
214,Vitalik@YoloForks,Conbase front running the shit out of $ETH. 50 cents above every other exchange ever since they got dumped on.  Gotta make back lost $ETC,0,0,0,False
215,Mr. Gzov@btc_dance,"$eth show timePoloniex BTC/ETH Chart - Published on Coinigy.com on August 3rd, 2016 at 7:02 PM.Poloniex BTC/ETH Chart - Indicators used: Volume (true, 20) - Interval: 60. Published on Coinigy.com on August 3rd, 2016 at 7:02 PM.coinigy.com",1,1,1,False
216,FusionIQ@myFusionIQ,#FusionIQ Top Consumr Cyc Stocks by Master Score Today $CPS 85 $ETH 85 $DW 83 $LOW 83 $SKY 83 http://bit.ly/1KnthyK Please Retweet,0,0,0,False
217,Coinstats@coinstats,"Ethereum Classic - ETC
Price: $2.81915
Change in 1h: -9.58%
Market cap: $232317858.0
Ranking: 3
#Ethereum Classic #ETC",0,0,0,False
218,Coinstats@coinstats,"Ethereum - ETH
Price: $9.76629
Change in 1h: +1.94%
Market cap: $806915169.0
Ranking: 2
#Ethereum #ETH",0,0,0,False
219,xyzether@xyzether,Replying to @eth_classicPerhaps #ETH Foundation is waiting for $ETC to reach parity before selling ,0,0,0,False
221,nnbofficial # @nnbofficial786,Free Ethereum every 5 minutes http://etherfaucet.net/?r=0x440dad889667772add303d590387d82901571ffc… #ethereum via @FreeCryptoCo,0,0,0,False
222,crypt0nate@seraphnate,"good investing involves ignoring a lot of ""noise"" and day to day fluctuations #ethereum long & strong",0,0,0,False
223,EtherBlockchain.io@etherblockchain,@Goldmoney any future plans to offer #Ether to #Gold and then redeem back to Ether?,0,0,0,False
224,Ethereum UAE@Ethereum_UAE,"Rootstock's Merge-Mining to Strengthen Bitcoin Network, Miners http://ift.tt/2b3aUjC #EthereumRootstock’s Merge-Mining to Strengthen Bitcoin Network, MinersRootstock hopes to bring better Ethereum-like capabilities to the Bitcoin network, strengthen the network and benefit Bitcoin miners.cointelegraph.com",0,0,0,False
225,Accept Bitcoin India@infonetenergy,"Canada Bitcoin Blockchain Event on Monday, August 8th, at Mars [Toronto]:
http://meetup.com/CanadaBitcoin/ #bitcoin #blockchain #ethereumBitcoin Builders (Toronto, ON)Let's get together and talk about bitcoin and blockchain technology. Over the past few years, Canada has led the way with respect to bitcoin innovation, now it's time we push it to the next level. Youmeetup.com",1,0,0,False
227,Constantin Fischer@Digi_Cone,"Rootstock’s Merge-Mining to Strengthen #Bitcoin Network, Miners https://cointelegraph.com/news/rootstocks-merge-mining-to-strengthen-bitcoin-network-miners… #Ethereum",1,0,0,False
230,AltcoinWeekly@altcoinweekly,The latest Ethereum price is USD 9.62. For historical #Ethereum price charts - http://buff.ly/2aOuAe1,0,0,0,False
231,CoinGecko@coingecko,The latest Ethereum price is USD 9.62. For historical #Ethereum price charts - http://buff.ly/2aOuUJF,0,0,0,False
232,Ethereum SE@StackEthereum,Ethereum Mist wallet wont receive any payments anymore http://ethereum.stackexchange.com/questions/7715/ethereum-mist-wallet-wont-receive-any-payments-anymore… #ethereum #goethereum,0,0,0,False
233,martin ➬@martinkrafft,"Here is why the #Ethereum fork was right, and #ETC is just for gamblers, by
@avsa https://medium.com/@avsa/the-truth-about-the-fork-fd040c7ca955…",1,0,0,False
234,Christof Claessens@xstof,"If you're in IT in some way shape or form and did not look into BlockChains yet - pls pretty pls read this #ethereumQuote TweetBigchainDB@BigchainDB · Aug 3, 2016Read this. “Programmable blockchains in context” http://buff.ly/2aQlT49 @leashless @ConsenSysLLC #smartcontracts #worldcomputer #ethereum",2,2,0,False
235,Georgia Rae Laidlaw Brown @GeorgiaRaeBrown,Such a #good #day  #progress #hardwork #love #business #change #innovative #ether ,1,0,0,False
236,Alberto Jauregui | esoteRICK.eth @DisruptBanksy,"http://ift.tt/2b34QaW Exchanges To Launch On Ethereum, Lisk And Others - CoinTelegraph #ethereum #ether",0,0,0,False
238,ምንተስኖት ፍቅሬ(Mintila)@MintesinotF,"Flag bearer at #RioOlympics
#AndyMurray for UK 
#MichaelPhelps for USA etc...
Who is for #Eth?",0,0,0,False
239,Ethereum SE@StackEthereum,How does mapping work? http://ethereum.stackexchange.com/questions/7713/how-does-mapping-work… #ethereum #solidity #contractdevelopment #mapping,1,0,0,False
241,Best dog ever@SchalkDormehl,Replying to @VitalikButerinwere working on ETH! #Ethereum,4,1,0,False
242,BitcoinAgile@bitcoinagile,The #ethereum Conspiracy #EthereumConspiracy http://bit.ly/2aOpgat,0,0,0,False
243,englishinvancouver@engvancouver,"The Ethereum Conspiracy! http://bitcoin-daytrading.com/the-ethereum-conspiracy/…
#ethereum #eth",0,0,0,False
245,Coinstats@coinstats,"Ethereum Classic - ETC
Price: $3.12522
Change in 1h: +2.63%
Market cap: $257540186.0
Ranking: 3
#Ethereum Classic #ETC",0,0,0,False
246,Coinstats@coinstats,"Ethereum - ETH
Price: $9.57681
Change in 1h: +0.79%
Market cap: $791241902.0
Ranking: 2
#Ethereum #ETH",0,0,0,False
247,Ethereum Price@EthereumPrice_,"#Ethereum: Ether Price Index
1 ETH =0.017085Ƀ XBT = $9.550000 USD
Today: +5.30%⬆︎ Last 24h: +0.97%⬆︎
https://ethereum-price.com",0,0,0,False
248,Adam Mustafa@amustafa11,"#Ethereum community leader @avsa discusses the hard forkQuote TweetAlex Van de Sande (avsa.eth)@avsa · Aug 3, 2016Just published ""The Truth about the Fork"" to dispel some myths on the Ethereum narrative  https://medium.com/@avsa/the-truth-about-the-fork-fd040c7ca955#.rhu11ogj3…",1,0,0,False
249,xdurerus 6'4''  Koordizid ist am Kommen@durerus,Warm wishes to the #ethereum people from the #Nxt and #Ardor community https://goo.gl/dFDHnX @MihaiAlisie @VitalikButerin,3,0,0,False
250,dennusd@dennusd,"Just dump your $ETH, buy some $ETC and gimme profit ",1,0,0,False
251,Mr. Brrrrr@305_Jesus,"The Securities Law Implications of the #DAOHack and #Ethereum #HardFork
http://buff.ly/2aFZQKe",1,1,0,False
254,/r/Ethereum@r_Ethereum,Crowd fund the largest gPU mine using smart contracts http://bit.ly/2aRZ8MZ #Ethereum,0,0,0,False
255,/r/Ethereum@r_Ethereum,4 US Firms control the world's cloud infrastructure http://bit.ly/2aRYS0l #Ethereum,0,0,0,False
256,/r/Ethereum@r_Ethereum,Putting the past couple weeks in perspective http://bit.ly/2aRYL5d #Ethereum,0,0,0,False
257,/r/Ethereum@r_Ethereum,Donbass to host first blockchain conference http://bit.ly/2aRZAep #Ethereum,0,0,0,False
258,/r/Ethereum@r_Ethereum,WhySoS3rious : 100% on ETH too ! http://bit.ly/2aTRFdi #Ethereum,0,0,0,False
259,Nimiq Rocks @NimCrypto,The truth about the fork https://medium.com/@avsa/the-truth-about-the-fork-fd040c7ca955#.tb4zhxca0… #ethereum,0,0,0,False
260,cryptoNaut @_hightek,Watch @VitalikButerin and the rest of the devs give support to $ETC when most of the miners and the price swapped with $ETH.,0,0,0,False
261,Ethereum SE@StackEthereum,How does mapping work? http://ethereum.stackexchange.com/questions/7713/how-does-mapping-work… #ethereum #mapping,0,0,0,False
269,ether-camp@CampEther,Seen on #hackethercamp https://hack.ether.camp/idea/public-epic---outbid-others--be-immortalized-in-crowd-sourced-poem… #ethereum #blockchain #poetry #epicpoem,1,0,0,False
270,Cryptiv@Cryptiv,"#Ethereum, #Bitcoin, and radical uncertainty — Cryptiv Blog http://ow.ly/Hx3H302T45E",3,0,0,False
273,/r/Augur@AugurFeed,#reddit Maybe Augur could commit to ETH? http://bit.ly/2ay3yGM #ethereum #augur,0,0,0,False
274,Rayna ¯\_(ツ)_/¯ @MaliciaRogue,"RT @TaylorGerring: 2,000,000 blocks in 1 year! #Ethereum http://bit.ly/2aBiTnp via @ethereumproject",1,1,0,False
276,Uphold@UpholdInc,Questions regarding #Ethereum Classic? Funds will be delivered to members within the next few weeks. Learn more: http://bit.ly/2aN3h0M,2,0,0,False
277,Wally ∞ @Wally_WST,"How #BitfinexHack heist could have been avoided.
Great read! #Ethereum #Bitcoin #Blockchain #BitfinexHow the Bitfinex Heist Could Have Been AvoidedThe Bitfinex attack, and similar heists from Bitcoin exchanges, are preventable with a small extension to Bitcoin.hackingdistributed.com",1,0,0,False
278,Coinstats@coinstats,"Ethereum Classic - ETC
Price: $3.01895
Change in 1h: -2.51%
Market cap: $248782788.0
Ranking: 3
#Ethereum Classic #ETC",0,0,0,False
279,Coinstats@coinstats,"Ethereum - ETH
Price: $9.49522
Change in 1h: +0.2%
Market cap: $784497394.0
Ranking: 2
#Ethereum #ETH",0,0,0,False
280,Peter Borah@PeterBorah,I am working 100% on the future of social and economic coordination. #ethereum #ethereumclassic #counterparty #rootstock.,1,2,0,False
281,Tom Pain | tompain.eth @TheTomPain,Time to move on to bigger and better things...“The Truth about the Fork” https://medium.com/@avsa/the-truth-about-the-fork-fd040c7ca955#.2b7dh4bvo… by @avsa #ethereum #hardfork,2,1,0,False
282,John Slazas@JSservices,#ethereum $ETH PLAYING DEFENSE BELOW 12.00. Anticipate MKT to keep an edge under 10.50 targeting 9.05 @ConsenSysLLC @ethereumproject,1,0,0,False
283,temesgen@temesgen77,Replying to @GerberKawasakihard forks are apparently the new black #ethereum #nevertrump,2,0,0,False
284,Alex.eth@AlexanderFisher,READ THIS: The Truth about the Fork — Medium http://buff.ly/2asxpyI #Ethereum #etc,1,0,0,False
285,@Cryptocoin@BitcoinHackers.org@cryptocoin,.@ItSmEGoLdMaXx $ETC rising to 1/3rd the value of $ETH is not surprising at all. That $ETH is still a ~$10 coin at this point is surprising!,0,0,0,False
286,Meneer de Uil@Mhr_de_Uil,Replying to @onemanatatime$ETC cycle = $ETH cycle on speed,2,1,0,False
287,Greg Tomaselli@GregTomaselli,Let's get some insight into the future Tonight! Excited! #TechTalkCPT @BitX @22seven #Bitcoin #ether #cryptocurrency,2,0,0,False
288,ETHNews@ETHNews_,Here Are Reasons Why #Ether Price May Continue To Sink #Ethereum #ETH $ETH http://ow.ly/Hn2e302T9zY,0,0,0,False
292,Crypto Trader Pro @CryptoTraderPro,#BitcoinMining ― #Ethereum #DAO What's the situation &amp; will… via → http://goo.gl/uMPxaM for #Crypto Cashflow,0,0,0,False
293,Bitcoin Sportsbook @SportsbookBTC,#BitcoinMining ― #Ethereum #DAO What's the situation &amp; will… via → http://goo.gl/uMPxaM for #Crypto Cashflow,1,0,0,False
294,Brianne Rivlin@BrianneRivlin,I am 100% Following the ETH/ETC Story #Ether #ETC #ethereum,0,0,0,False
295,Genesis Mining@GenesisMining,#Ethereum #DAO What's the situation & will GM support #ETC? All answered by our CFO @mkrohn5 http://blog.genesis-mining.com/quo-vadis-ethereum…,5,4,1,False
296,Colin Platt@colingplatt,"#DAO holders who were bailed out by $ETH HF and are upset they didn't get $ETC, might have not understood the HF.",1,1,0,False
297,ant@ThisIsNuse,"Replying to @WhalePanda.@WhalePanda @VitalikButerin @kristopherives @Banderovetz Unless $ETH becomes closed-source, his ""support"" is just a pull away anyway.",8,0,0,False
298,Bitflikz@bitflikz1,https://bitflikz.com/blogs/news/nyse-backed-gdax-coinbase-hacked-users-still-cannot-access-funds… more on the #gdax #coinbase saga $ETC #ethereum,1,0,0,False
299,om ryan@gotomryan,"""#ethereum hard fork shows that blockchains are only immutable when consensus wants them to be.""Quote TweetCS Research@csresearch · Aug 3, 2016#Blockchain: Is blockchain the Internet of our time? We are less sanguine, and note 8 key challenges",0,0,0,False
300,Ethereum Monkey@EthMonkey,"Exchanges To Launch On Ethereum, Lisk And Others #ethereum https://cointelegraph.com/news/exchanges-to-launch-on-ethereum-lisk-and-others…",0,0,0,False
302,Diginomics@diginomics,Would you be in favour of a foundation whose purpose is funding development of the original #Ethereum codebase?Yes56.5%No43.5%69 votes·Final results,1,1,0,False
303,tgerring.eth@TaylorGerring,"#Bitcoin #Ethereum #Dash #Steem #Doge #Maid #Storj

We all work on important things, let's be in this together #blockchaingang",7,5,0,False
304,Ana@neptox,@EtherEx_Crypto when will you launch? We need decentralized exchanges now. #Bitfinex #ethereum,1,1,0,False
305,Abel Wabella ~ አቤል ዋበላ@Abelpoly,Now it is #OPDO's turn to stop the killings and to keep the Internet alive as #ANDM did last week. #OromoProtests #EthiopiaProtests #Eth,4,2,1,False
306,Coinstats@coinstats,"Ethereum Classic - ETC
Price: $3.08952
Change in 1h: +0.54%
Market cap: $254598254.0
Ranking: 3
#Ethereum Classic #ETC",0,0,0,False
307,Coinstats@coinstats,"Ethereum - ETH
Price: $9.52481
Change in 1h: +0.12%
Market cap: $786929767.0
Ranking: 2
#Ethereum #ETH",0,0,0,False
308,3esmit.stateofus.eth@3esmit,"Hope #ethereum prices keep low until my salary comes, so I can buy to later use with @PlutusIT <3.  Bye bye banks! Hello Multisig wallet!",1,0,0,False
309,Double Tops@2xtops,"BitMex vs Poloniex for trading: 
#BTC
#ETH
#ETC

Which one?",0,0,0,False
310,P-ACS@pacs_IT,New release of secure proxy now available including parity support with tracing API https://goo.gl/ACzs77 #parity #ethereum,0,0,0,False
311,tgerring.eth@TaylorGerring,"The blame game is for people who don't care enough to act

Lets build the right tools and educate the world

#Bitcoin #Ethereum #Blockchain",6,2,1,False
312,tgerring.eth@TaylorGerring,"The #blockchain industry is too fledgling to compete viciously. We must first cooperate and then compete

#Bitcoin #Ethereum",6,4,3,False
313,tgerring.eth@TaylorGerring,"The blockchain industry needs to work together to improve security for the sake of all #Bitcoin #EthereumQuote TweetVICE News@VICENews · Aug 3, 2016Bitcoin value drops after hackers steal $65 million worth of it http://bit.ly/2ai9chk",2,3,0,False
314,Cryptopatterns@Cryptopatterns,Good prob $BTC sees $515 before going up. Then $485 then new lows 4 this move. may be tradeable #Bitcoin $ETH $ETC #Ethereum #Cryptocurrency,1,0,0,False
315,xtester@xtester7,"Perhaps one of our most remarkable achievement: https://steemit.com/life/@xtester/perhaps-one-of-our-most-remarkable-achievements… #progress #poverty #innovation #steem #steemit #bitcoin #ethereumPerhaps One Of Our Most Remarkable Achievements — SteemitWhenever you feel like the world is going under, there's no hope and progress is more of a dream than a reality, take… by xtestersteemit.com",2,0,0,False
316,Quetzalcoalt@LLbajacrypto,Bitcoin And #Ethereum Are Plummeting: Why? http://huffingtonpost.com/david-seaman/bitcoin-and-ethereum-are_b_11308876.html… #markets #bitcoin,0,0,0,False
317,starttanky@starttanky,"#ethereum
#ETH
Last price $ 9.4709812",1,0,0,False
318,⛧ God of Gaming ⛧@TheGodofGamez,A wise man can learn more from a foolish question than a fool can learn from a wise answer. $ETH,0,0,0,False
319,Bitcoin@bitcoinpoet,With all the projects being built on Ethereum; I am sure today this page will fully be covered with... http://bit.ly/2aBDMik #ethereum,1,0,0,False
320,Bitcoin@bitcoinpoet,swarm status update:       submitted by    /u/decypha  [link]   [comments]  http://bit.ly/2aNRySz #ethereumswarm status updatePosted in r/ethereum by u/decypha • 79 points and 12 commentsreddit.com,1,0,0,False
321,Andrew Quentson@Aquentson,"#Bitcoin Vaults May Make Bitcoin and #Ethereum Thefts as Good as ImpossibleQuote TweetCCN - Capital & Celeb News@CapitalAndCeleb · Aug 3, 2016How to Make Bitcoin Thefts Impossible https://cryptocoinsnews.com/how-to-make-bitcoin-thefts-impossible/…",0,0,0,False
322,Mihai Alisie@MihaiAlisie,"Progress update: #SWARM #ethereum #web3. Kudos to the team for all the great work!

https://github.com/ethersphere/go-ethereum/wiki/swarm-status-update-@-sworm-poc-0.2-rc3…",20,14,1,False
324,#HeartBeatsFoundation@HeartSelfies, Understanding #Ethereum http://bit.ly/ETHER101 ,1,0,0,False
325,Julia Edling@bitcointonic,How #Bitcoin and #Ethereum fans should handle the rise of #Steem in 2016: So the Steem… http://dlvr.it/Lxtfy0,1,0,0,False
327,PerfectlyFlawed1@prfctlyflwd,Replying to @wm_ricks and @Nasgotcha...but I'm a Jay girl myself but #ether is still my favorite and on the playlist. He shall be added.,0,0,0,False
328,PC Expressions@pcexpressions,[video] Opening Keynote at @ThingsExpo | #IoT #Bitcoin #Ethereum #Blockchain http://ow.ly/6kOo501TzjI,1,0,0,False
329,Jᴀᴋᴇ Vᴀʀᴛᴀɴɪᴀɴ@jakevartanian,"@exploretravel The #singulardtv platform has the potential to radically change the structure of a lot of things!
#Decentralization #ethereum",2,1,0,False
330,Crypdex@CrypdexLLC,converted 20.56 mBTC $11.33 USD to ETH #Ethereum,0,0,0,False
331,Coinstats@coinstats,"Ethereum Classic - ETC
Price: $3.06513
Change in 1h: +1.08%
Market cap: $252588346.0
Ranking: 3
#Ethereum Classic #ETC",0,0,0,False
332,Coinstats@coinstats,"Ethereum - ETH
Price: $9.52587
Change in 1h: -4.05%
Market cap: $787003337.0
Ranking: 2
#Ethereum #ETH",1,0,0,False
333,Ethereum Price@EthereumPrice_,"#Ethereum: Ether Price Index
1 ETH =0.016964Ƀ XBT = $9.456090 USD
Today: +4.56%⬆︎ Last 24h: -2.74%⬇︎
https://ethereum-price.com",1,0,0,False
334,laserdario@cryptodario,#ethereumclassic at 1/3 of #ethereum and climbing.,0,0,0,False
335,Gebeya Talent@GebeyaTalent,"Learn more about Gebeya's world class IT training program: https://eventbrite.com/e/gebeya-it-academy-consultative-forum-tickets-26840839674…
#ETH #AddisAbaba #GebeyaTalent #Ethiopia",2,0,0,False
337,Manuél Ramos@immutableetc,Well i guess #ethereum got what it deserved...,1,0,0,False
338,Rimbit @rimbit,Whatever It Takes.. Lets Just Do It http://rimbit.com/posts/12249 #bitcoin #ethereum,0,0,0,False
339,BTC-LTC-ETC-JWL@Crypto_Rider,@LetItRide_Dice is getting ready for an epic pump after these bitches have been shaken to the core. Next stop will be 5k $LIR $ETC $BTC $ETH,0,0,0,False
340,Alchemist@alchemist_group,"Exchanges To Launch On Ethereum, Lisk And Others https://cointelegraph.com/news/exchanges-to-launch-on-ethereum-lisk-and-others… #bitcoin #lisk #ethereum",1,1,0,False
341,EthereumBase@ethereumbase,"In $ETH we trust. #EthereumQuote Tweetvitalik.eth@VitalikButerin · Aug 1, 2016Replying to @BanderovetzI am working 100% on ETH.",0,0,0,False
342,Steven Nerayoff@stevennerayoff,"Exchanges To Launch On Ethereum, Lisk And Others https://cointelegraph.com/news/exchanges-to-launch-on-ethereum-lisk-and-others… #bitcoin #lisk #ethereum",2,2,0,False
343,Cryptopatterns@Cryptopatterns,Maybe @HS_shampoo sponsor @Cryptopatterns?Talk about them enough:-). $BTC inverse here. Might buy #bitcoin #ethereum,1,0,0,False
344,EthereumBase@ethereumbase,"One day, we'll all look back on this fork and laugh. #ForkTheWorld #TrustTheProcess #Ethereum",1,0,0,False
345,Raúl Yépez @ryepez3,"Bitcoin $544USD-$485EUR-$10,471MXP  $BTC // #Ethereum $9.18USD-$8.21EUR-$180MXP  
ETClassic $3.05USD -$2.81   @Bitso @Capitalista1",1,0,0,False
346,ant@ThisIsNuse,If price purely in hash vs current price of $ETH $ETC floor is roughly 0.00524839,1,0,0,False
347,Cryptopatterns@Cryptopatterns,And this might interest $ETH $ETC followers as well. Anything possible- patterns give clues #ethereum #bitcoin $BTC,1,0,0,False
348,₿Lockch41n@BLockch41n,Replying to @BLockch41n and @Bl0ckchainThis was quick ... cosolidation to .0056 now $ETC $ETH $BTC,1,0,0,False
350,Cryptopatterns@Cryptopatterns,And what does $ETH have to say about things? Well for starters... #ethereum #bitcoin $ETC $BTC #cryptocurrency,1,0,0,False
351,Philipp@p_uehlinger,The Truth about the #Fork https://medium.com/@avsa/the-truth-about-the-fork-fd040c7ca955#.n5d8m0c1r… #eth #etc #cryptocurrency,0,0,0,False
352,♪ ♫ CryptoMusician ♫ ♪ @TheTranshuman,"Buy and Hold $Steem $ETH $ETC $BTC? Riskiest strategy of them all! Here's a better way. — SteemitBuy and Hold $Steem $ETH $ETC $BTC? Riskiest strategy of them all! Here's a better way. — SteemitWednesday, August 3, 2016 6:15 AM In a world as volatile as cryptocurrency , old school ""buy and hold"" is the… by lbtyfsteemit.com",0,0,0,False
353,Cryptopatterns@Cryptopatterns,Before you pop the champagne on $ETC there's this to consider. $ETH $BTC #ethereum #bitcoin,2,2,0,False
354,Julia Edling@bitcointonic,#HowTo #Buy #Bitcoin & #Ether (#Ethereum) QUICKLY!!!: How to buy Bitcoin QUICK and… http://dlvr.it/LxsQtm,0,0,0,False
355,Coinstats@coinstats,"Ethereum Classic - ETC
Price: $3.00871
Change in 1h: +7.99%
Market cap: $247938939.0
Ranking: 3
#Ethereum Classic #ETC",0,0,0,False
356,Coinstats@coinstats,"Ethereum - ETH
Price: $9.94898
Change in 1h: -0.13%
Market cap: $821946813.0
Ranking: 2
#Ethereum #ETH",0,0,0,False
357,BitcoinAgile@bitcoinagile,Buy and Hold ETH? ETC? BTC? Riskiest strategy of all  Heres a better way #ethereum #bitcoin http://bit.ly/2aNB6BG,2,0,0,False
358,Cryptopatterns@Cryptopatterns,"Buy and hold $ETH $ETC $BTC? Riskiest strategy of them all! Here's a better way. #bitcoin #ethereum #cryptocurrencyBuy and Hold ETH? ETC? BTC? Riskiest strategy of all – Here’s a better wayWednesday, August 3, 2016  6:15 AM In a world as volatile as cryptocurrency ,  old school “buy and hold”  is the highest risk investment strategy of them all. Need proof? Bitcoin from a…cryptopatterns.wordpress.com",2,0,0,False
359,Emerging Behavior@emerge_behavior,Joseph Lubin - The Basics of Blockchain and Etherum -- http://bit.ly/2autt3G #cryptocurrency #ethereum,1,1,0,False
360,BitcoinAgile@bitcoinagile,ETH-USD Surges on Bitfinex Hack; Eyeing $11.65 #ETHUSD #Ethereum #Ether #trading https://btcmanager.com/price-analysis/eth-usd-surges-on-bitfinex-hack-eyeing-11-65…,0,0,0,False
361,Francisco Gordillo@FGordillo,#bitcoin #blockchain Why Florida's Bitcoin Ruling Could Lead to Legislative Action: Legal ex... http://bit.ly/2axpe5Y #ethereum #ether,0,0,0,False
362,Francisco Gordillo@FGordillo,#bitcoin #blockchain Overstock Taps New Lead for Medici Blockchain Project: Overstock chairm... http://bit.ly/2aBi4ey #ethereum #ether,0,0,0,False
364,EtherBlockchain.io@etherblockchain,Recommended Read: “The Truth about the Fork” by @avsa https://medium.com/@avsa/the-truth-about-the-fork-fd040c7ca955#.m3xee4lz4… #ether #blockchain,1,0,0,False
365,rufuspollock@rufuspollock,"Good piece by @vessenes explaining why even post-fork post-#DAO there are plenty of issues for #EthereumDo Not Mess With ETH Classic, It Will F You UpThis is a letter sent out to my security/audit clients, but I wanted to publish it, as it is germane to a wide variety of Ethereum participants. It looks like, sadly, ETH classic is a going concern,...vessenes.com",2,0,0,False
366,ether-camp@CampEther,Seen on #hackethercamp https://hack.ether.camp/idea/decentralised-cam-porn-shows-on-the-ethereum-network… #ethereum #blockchain #porn,1,1,0,False
368,Coinstats@coinstats,"Ethereum Classic - ETC
Price: $2.78014
Change in 1h: -1.72%
Market cap: $229103158.0
Ranking: 3
#Ethereum Classic #ETC",0,0,0,False
369,Coinstats@coinstats,"Ethereum - ETH
Price: $9.97259
Change in 1h: +4.58%
Market cap: $823884520.0
Ranking: 2
#Ethereum #ETH",0,0,0,False
370,Steven@sigwo,.@SuprnovaPools Do you pay out on uncle blocks? $ETC Did you ever pay uncle blocks on your $ETH pool?,2,0,0,False
371,Chickee@Chickee,"The DAO completely disappeared from the list.  #Cryptocurrency #ethereum  I get it was hacked, did it die as of result? @VitalikButerin",1,1,0,False
372,Ameer Rosic@AmeerRosic,Could #Blockchain Technology Bankrupt #Spotify? http://bit.ly/1tgKTVz #ethereum #bitcoin,0,0,0,False
374,Ξ Fly Guy Ξ (flyguy.eth)@FlyGuyInTheSky,#ethereum back at $10,1,1,0,False
375,Colony@joincolony,"Partial-lock voting in Colony http://ow.ly/npP0302Sz2p #Ethereum #governanceTowards better Ethereum voting protocolsCollective decision making in general, and voting in particular represent a core value proposition for the Ethereum blockchain. From DAOs to liquid democracy, from Schelling games to futarchy; many...blog.colony.io",0,0,0,False
376,Ethereum SE@StackEthereum,Optimal way of waiting for transactions to be mined in geth http://ethereum.stackexchange.com/questions/7709/optimal-way-of-waiting-for-transactions-to-be-mined-in-geth… #ethereum #goethereum #transactions #web3jsOptimal way of waiting for transactions to be mined in gethI'm currently checking if a transaction has been mined using the following function (using web3.js): function waitForTx(tx_hash) { var result = null; // This is not really efficie...ethereum.stackexchange.com,0,0,0,False
377,mockracy@REmocracy,"Nov7th-Dec7th #DApp hackathon. This year not only #Ethereum but all sorts of decentralised goodness #hackethercampQuote Tweet(┌ﾟдﾟ)┌ [HODL]@j32804 · Aug 2, 2016Second #DApp hackathon is coming http://hack.ether.camp/#/home Nov 7th - Oct 7th,  location: globally #hackethercamp #ethereum cc @dgwbirch",2,1,0,False
378,3esmit.stateofus.eth@3esmit,"Replying to @avsa<3 Thanks for detailing this. I always trusted you and EF, we will build an amazing new world that is fair to everyone!  #ethereum",4,0,0,False
379,Miss Sheree@missdiorsheree,#Ethereum getting a run for its money | #Bitcoin #Blockchain #SmartContract ‘Federation’ to Launch http://bit.ly/2axJqBw @CoinDesk #tech,1,0,0,False
381,indxio@indxio,#Russia Market Close || #Bitcoin: $549.9 | 499.9 EUR||  #Litecoin: 0.0033 BTC  || #Ethereum: 0.0172 BTC   || $BTC $LTC $ETH $RUB,1,0,0,False
383,⛧ God of Gaming ⛧@TheGodofGamez,One may say the eternal mystery of the world is its comprehensibility. $ETH,0,0,0,False
385,TBM NEWS@TBMGPT_News,"#Ethereum Classic Price Technical Analysis – ETC Topping? - NEWSBTC http://newsbtc.com/2016/08/03/ethereum-classic-price-technical-analysis-etc-topping-2/… #cryptointradayEthereum Classic Price Technical Analysis – ETC Topping?Ethereum classic price traded as high as 0.0063BTC before finding offers. It is moving down, but can it bounce back in the short term?newsbtc.com",0,0,0,False
386,ፀደይ 𝕋𝕤𝕖𝕕𝕒𝕪@Tseday,"Replying to @myetherwalletDear @myetherwallet, be4 your cryptocurrency existed, the country Ethiopia existed. #eth belongs to Ethiopia not a digital currency @twitter",4,2,2,False
387,TBM NEWS@TBMGPT_News,#Ethereum Price Technical Analysis – Sellers Step Up Momentum - NEWSBTC http://newsbtc.com/2016/08/03/ethereum-price-technical-analysis-sellers-step-momentum/… #cryptointraday,0,0,0,False
388,MeeseeksBTC@Meeseeks100BTC,"RT Start mining $ETH or $BTC together with people from all over the world.

https://goo.gl/tYClLG",0,0,0,False
389,Crypto₿ull@CryptoBull,Trade 33x leveraged #ETHEREUM and 100x leveraged #Bitcoin on Bitmex: https://bitmex.com/register/pw4ld4,1,1,0,False
390,Coinstats@coinstats,"Ethereum Classic - ETC
Price: $2.82842
Change in 1h: +1.91%
Market cap: $233081771.0
Ranking: 3
#Ethereum Classic #ETC",0,0,0,False
391,Coinstats@coinstats,"Ethereum - ETH
Price: $9.5455
Change in 1h: +0.63%
Market cap: $788587624.0
Ranking: 2
#Ethereum #ETH",0,0,0,False
392,Ethereum Price@EthereumPrice_,"#Ethereum: Ether Price Index
1 ETH =0.017062Ƀ XBT = $9.370000 USD
Today: +5.16%⬆︎ Last 24h: -2.65%⬇︎
https://ethereum-price.com",1,0,0,False
393,Decentraal@DecentraalBE,Meanwhile somewhere on this planet... #bitcoin #ethereum #hardfork @LilButerin,1,1,0,False
394,Thierry Bienvenue@tmarierb,Very powerful article on the #ethereum #hardfork #blockchain https://medium.com/@avsa/the-truth-about-the-fork-fd040c7ca955#.w9rjwy7jq…,0,0,0,False
395,Julia Edling@bitcointonic,Have you got the answer for why #Bitcoin And #Ethereum Are Plummeting? – Huffington Post:… http://dlvr.it/LxpycR,1,1,0,False
396,/r/Ethereum@r_Ethereum,"Split didn't succeed, please help! http://bit.ly/2aB0yGZ #EthereumSplit didn't succeed, please help!I followed the guide on steemit. First I sent 1ETH to the splitting contract with same address for ETH and a Kraken ETC address for ETC. This...reddit.com",0,0,0,False
397,/r/Ethereum@r_Ethereum,Cold storage with extra security http://bit.ly/2aB0p6r #Ethereum,0,0,0,False
398,Tim Pastoor (timp@x0f.org)@timpastoor,"Replying to @timpastoor and @izakaminskaI'd be hypocritical of me to say shorting $BTC is bad. I'm telling people to short $ETH, and go long on $POPCORN, all the time.",1,0,0,False
399,DK Matai♛@DKMatai,"If in #FinTech #InsurTech #InsTech #Blockchain #Bitcoin #Cryptocurrency #Ethereum #Banking #Finance #AI #ML #AR #VRQuote TweetDK Matai♛@DKMatai · Aug 3, 2016Systemic Risk Amongst GSIBs Global Systemically Important Banks; Why August 2016 Is Critical http://ow.ly/Sg01302ShOP",3,12,0,False
401,Cees Grootes@Analyticus,"Could bitcoin change the game in Africa? - The Guardian https://theguardian.com/world/2016/aug/03/could-bitcoin-change-the-game-in-africa?CMP=Share_iOSApp_Other… #bitcoin #bitcoins #ethereum #blockchains #blockchainCould bitcoin change the game in Africa?Despite slow progress so far, some see digital currency as the next step in helping many Africans enter the formal economytheguardian.com",0,0,0,False
402,Cees Grootes@Analyticus,"Blockchain: the answer to life, the universe and everything?
http://theguardian.com/world/2016/jul/07/blockchain-answer-life-universe-everything-bitcoin-technology?CMP=Share_AndroidApp_Tweet… … #blockchain #ethereum #bitcoin #currencyBlockchain: the answer to life, the universe and everything?Bitcoin hasn’t lived up to the salvation rhetoric, but the digital engine behind the currency may be about to change the worldtheguardian.com",0,0,0,False
403,de-cen-tra-liz-ed@greg_not_so,for #BTC quotes i'm using http://preev.com but missing #ETH and #XRP there,0,0,0,False
404,Sir Jeffrey Lebowski@Sir_Lebowski,Too bad the @bitfinex heist was not limited to $ETH.  #Ethereum could have re-written the Ethereum blockchain for Bitfinex. cc #Bitcoin $BTC,1,0,0,False
406,Cloud Mining Monitor@cmmonitorcom,#Ethereum #Cloudmining': 03.08.2016 Payment received. 6 MHs - 0.05122204 ETH. From Genesis Mining.Genesis Mining (Ethereum Mining)cmmonitor.com,0,0,0,False
408,Zeruyu@Zeruyu,I'm a BTC whale myself and don't back ETC. Always thought #Ethereum is a show by guys who are envious of #Bitcoin early adaptors.,0,0,0,False
409,Cees Grootes@Analyticus,IBM to Launch First Commercial Blockchain in September https://news.bitcoin.com/ibm-commercial-blockchain-september/?utm_content=bufferf711f&utm_medium=social&utm_source=twitter.com&utm_campaign=buffer… #blockchain #blockchains #ethereum #bitcoin #bitcoinsIBM to Launch First Commercial Blockchain in SeptemberThe International Business Machines Corp. (IBM) plans on launching one of the largest commercial use cases of blockchain technology this September.news.bitcoin.com,0,0,0,False
410,Coinstats@coinstats,"Ethereum Classic - ETC
Price: $2.75689
Change in 1h: -3.07%
Market cap: $227187194.0
Ranking: 3
#Ethereum Classic #ETC",0,0,0,False
411,Coinstats@coinstats,"Ethereum - ETH
Price: $9.50138
Change in 1h: +1.94%
Market cap: $784931177.0
Ranking: 2
#Ethereum #ETH",0,0,0,False
412,Mihai Alisie@MihaiAlisie,"I am working 100% on ETH #ethereum @AkashaProjectQuote Tweetvitalik.eth@VitalikButerin · Aug 1, 2016Replying to @BanderovetzI am working 100% on ETH.",21,12,0,False
413,Marc@marccwr,Replying to @sajklanfunny how the symbol #ETH the @ethereumproject relates to the Ethiopian national flag ,1,0,0,False
415,Ethereum SE@StackEthereum,Is it possible to preload contracts in the genesis block? http://ethereum.stackexchange.com/questions/7707/is-it-possible-to-preload-contracts-in-the-genesis-block… #ethereum #goethereum #contractdeployment #testnets,0,0,0,False
416,Ethereum UAE@Ethereum_UAE,"Exchanges To Launch On Ethereum, Lisk And Others http://ift.tt/2av0zyi #Ethereum",0,0,0,False
417,Le La฿ TV @lelabtv,The Truth about the Fork #Ethereum #ETC --> http://j.mp/2aI0ZkB,1,0,0,False
418,Ethereum SE@StackEthereum,How to use interface in solidity http://ethereum.stackexchange.com/questions/7705/how-to-use-interface-in-solidity… #ethereum #goethereum #solidity,0,0,0,False
419,Mars@Marsmensch,"RT (via CollinCrypto)

$ETH developers ever since the $DAO came out http://bit.ly/2avX2QU

— Collin Crypto (@CollinCrypto) July 26, 2016",0,0,0,False
421,Coinstats@coinstats,"Ethereum Classic - ETC
Price: $2.84428
Change in 1h: +0.44%
Market cap: $234388747.0
Ranking: 3
#Ethereum Classic #ETC",0,0,0,False
422,Coinstats@coinstats,"Ethereum - ETH
Price: $9.29022
Change in 1h: -1.98%
Market cap: $767474868.0
Ranking: 2
#Ethereum #ETH",0,0,0,False
423,Ethereum SE@StackEthereum,Ethereum's Storage: is SSTORE updates only at the post-transaction state? http://ethereum.stackexchange.com/questions/7704/ethereums-storage-is-sstore-updates-only-at-the-post-transaction-state… #ethereum #evm #opcode,1,0,0,False
424,xJakob Fugger@Crypto_Fugger,$ETH / $ETC Parity approaching. Will Seaman?Embrace $ETC37.9%Go down with $ETH ship37.9%Write a 'Huff'po article24.1%29 votes·Final results,0,0,0,False
425,cryptoNaut @_hightek,$ETH drops while it's buy support is leaving to $ETC once again.,3,0,0,False
427,Beetcoin@Beetcoin,"Replying to @Beetcoin#Ethereum.index $ETCUSD + $ETHUSD - 

Well, that escalated quickly.

#Nailed",1,0,0,False
428,BitcoinAgile@bitcoinagile,#ethereum: Leapfrogging City Hall Legal Technologies  Libertarian http://beforeitsnews.com/libertarian/2016/08/ethereum-leapfrogging-city-hall-legal-technologies-2-2651215.html…,1,0,0,False
429,Ethereum SE@StackEthereum,How to convert byte array to bytes32 in solidity http://ethereum.stackexchange.com/questions/7702/how-to-convert-byte-array-to-bytes32-in-solidity… #ethereum #solidity,0,0,0,False
430,Alberto Jauregui | esoteRICK.eth @DisruptBanksy,http://ift.tt/2aHVYsv Ethereum Classic Price Technical Analysis – ETC Topping? - newsBTC #ethereum #ether,0,0,0,False
431,Bitcoin Sportsbook @SportsbookBTC,#Ethereum Classic #Price Technical Analysis – ETC Topping?#bitcoin #news http://dlvr.it/LxmY9N #Ethereum #Price,0,0,0,False
434,Justin Brunsting@BrunstingJustin,This needs to be shared https://medium.com/@avsa/fd040c7ca955#.15fsn648w… #ethereum,1,0,0,False
436,Olivier Chapiteau@o_chapiteau,"Micro analysis - #XBT and #ethereum taking a plunge after @bitfinex #hack, #EtherClassic holding http://bitcoinanalytix.com/trendAnalysis.php…",0,0,0,False
437,Maksim@balance_ra,"After reading this article https://medium.com/@avsa/fd040c7ca955#.rkdazu8wo… I'm happy to be fully dedicated and invested into #ethereum Guys, you are great!",1,0,0,False
439,Ξ Fly Guy Ξ (flyguy.eth)@FlyGuyInTheSky,#ethereum is down the same as #bitcoin over the last month... Will it become a haven again?,1,0,0,False
440,BitcoinAgile@bitcoinagile,#ethereum Price Technical Analysis: Downward Influence Still There http://bit.ly/2aMSDK7,0,0,0,False
441,laserdario@cryptodario,"What a week for #crypto. 

#bitcoin #ethereum #etc #blockchain",0,0,0,False
442,Olivier Salomon@SalomonOli,"#Ethereum Classic Overtakes #Ripple and #Steem @seb2point0Ethereum Classic Overtakes Ripple and Steem | Live Bitcoin NewsETC, the cryptocurrency of a network called Ethereum Classic designed to continue the original chain of the Ethereum network, has overtaken two dominant digital currencies Ripple and Steem to become...livebitcoinnews.com",1,0,0,False
443,CryptoCompare@CryptoCompare,"Bitfinex hacked losing 120k BTC
Rumours #bitcoin split following #ethereum
CryptoCompare Index Update #cryptoDaily market update: 17 June 2019 | CryptoCompare.comWe bring you all the data in the world of crypto currencies and Bitcoin in an easily digestible value added format and we give you the tools you need to make that decision. Join the discussion on our...cryptocompare.com",1,4,0,False
444,AlternativeReturn@Alt_Return,#Blockchain #Technology Changing Digital World #bitcoin #ethereum #infographic http://buff.ly/2aJ3bv0,0,0,0,False
445,Coinstats@coinstats,"Ethereum Classic - ETC
Price: $2.85057
Change in 1h: +7.06%
Market cap: $234907087.0
Ranking: 3
#Ethereum Classic #ETC",0,0,0,False
446,Coinstats@coinstats,"Ethereum - ETH
Price: $9.48547
Change in 1h: -0.87%
Market cap: $783591791.0
Ranking: 2
#Ethereum #ETH",0,0,0,False
447,Ethereum Price@EthereumPrice_,"#Ethereum: Ether Price Index
1 ETH =0.017154Ƀ XBT = $9.300000 USD
Today: +5.73%⬆︎ Last 24h: -0.39%⬇︎
https://ethereum-price.com",1,0,0,False
448,@NeoTrades@bitcoinhackers.org@RedPillTrading,Is parity coming? $ETH $ETC #Bitcoin #Ethereum,1,1,0,False
449,TyrionTrader@TheXrn,"@VitalikButerin can you help with Fork on BTC ? $ETH #ETH $ETC
#Bitcoin #BTC $BTC",2,1,0,False
450,Bitcoin girl@FarhaMastani,"#Blockchain: The #technology behind #virtual #currencies: #Distributed Ledger http://bitex.in/blockchain-the-technology-behind-virtual-currenciesdistributed-ledger/…
#bitcoin
#ethereum
#BTC
#indiabitcoinBlockchain: The technology behind virtual currencies, Bitcoin India, Bitcoin NewsBlockchain, The technology behind virtual currencies,Distributed ledger technology (DLT) is also receiving more attention as the technological basis for virtual currenciesbitex.in",1,1,0,False
451,Philsabang Bull Bull Bull@Philsabang,Take a look at those inverse curves. @IOHK_Charles preaching maths to the masses. $ETC $ETH,1,0,0,False
452,cryptinsight@cryptinsight,The truth about the fork #bitcoin #blockchain #ethereum #etc https://medium.com/@avsa/fd040c7ca955…,0,0,0,False
453,Popcorn Index@popcornindex,#Ethereum users on whether the #HardFork might have possibly been a bad idea after all https://reddit.com/r/ethereum/comments/4vt8kk/do_you_believe_that_the_hard_fork_was_a_mistake/d616mw8…,0,0,0,False
454,AltcoinWeekly@altcoinweekly,The latest Ethereum price is USD 9.4. For historical #Ethereum price charts - http://buff.ly/2aAC4ho,0,0,0,False
455,Ameer Rosic@AmeerRosic,5 Blockchain Applications That will Revolutionize The world http://bit.ly/1U4aha8 #Blockchain #Bitcoin #ethereum,0,0,0,False
456,BitcoinAgile@bitcoinagile,#ethereum Classic Price Technical Analysis  ETC Topping? - Helena #bitcoin Mining http://helenabitcoinmining.com/2016/08/03/ethereum-classic-price-technical-analysis-etc-topping-2…,0,0,0,False
457,Ξmil@emosto,Strong words by @avsa. https://medium.com/@avsa/fd040c7ca955#.jdy18ba35… The pic at the bottom of the article says it all. #eth has strong developers and #etc - not.,0,0,0,False
458,BitcoinAgile@bitcoinagile,#ethereum Classic Price Technical Analysis  ETC Topping? - NEWSBTC #ETC #ETCtoBTC #price http://newsbtc.com/2016/08/03/ethereum-classic-price-technical-analysis-etc-topping-2…,0,0,0,False
459,Rimbit @rimbit,Bitcoin Seems To Have Serious Problems Yet Again http://rimbit.com/posts/12230 #bitcoin #ethereum,0,0,0,False
460,c__@snckls,"#Bitfinex is dead, long live #bitcoin! Difference between $BTC and $ETH ..",0,0,0,False
461,Coinstats@coinstats,"Ethereum Classic - ETC
Price: $2.65692
Change in 1h: -0.47%
Market cap: $218948961.0
Ranking: 3
#Ethereum Classic #ETC",0,0,0,False
462,Coinstats@coinstats,"Ethereum - ETH
Price: $9.58521
Change in 1h: -1.02%
Market cap: $791816642.0
Ranking: 2
#Ethereum #ETH",0,0,0,False
463,Ξ Fly Guy Ξ (flyguy.eth)@FlyGuyInTheSky,Replying to @FlyGuyInTheSky#ETC well it's an exact copy of #ethereum,0,0,0,False
464,xJakob Fugger@Crypto_Fugger,"#Bitfinex hack, happened at just the right time to halt the outright collapse of $ETH & rise of $ETC - Seems kind of fishy! 1/2",2,0,0,False
465,Ξ Fly Guy Ξ (flyguy.eth)@FlyGuyInTheSky,The new #ethereum hash tag #ETH WHAT'S GOING ON!,2,0,0,False
466,Alessandro #IoMiVaccino @pelias01,"#Bitcoin And #Ethereum Are Plummeting: Why?Bitcoin And Ethereum Are Plummeting: Why?No one seems to know why the world's #1 and #2 cryptocurrency networks Bitcoin and Ethereum are both plummeting today. Well, okay, this might have someth...huffpost.com",0,0,0,False
468,Ameer Rosic@AmeerRosic,5 Blockchain Applications That Will Transform Society http://bit.ly/1U4aha8 #Blockchain #Bitcoin #ethereum,2,2,0,False
469,BitcoinAgile@bitcoinagile,#ethereum Price Technical Analysis  Sellers Step Up Momentum #bitcoin #crypto #BTC #News http://bitcoinschannel.com/ethereum-price-technical-analysis-sellers-step-up-momentum…,1,2,0,False
470,Crypto Chimp@CrypCoinsultant,Did you hold the bag or take profits today? Get ready to buy cheap #BTC on the next downswing... But keep and eye out on @coinbase #ETH #ETC,0,0,0,False
471,Ξ Fly Guy Ξ (flyguy.eth)@FlyGuyInTheSky,Replying to @diiorioanthonyyeah me too.. I thought I was the only one! Kinda cool... Having a free flag... Let's fork Twitter. #ETH #ethereum rocks.,0,0,0,False
472,BitcoinAgile@bitcoinagile,"The very hard fork of #ethereum and its consequences for #bitcoinThe very hard fork of Ethereum and its consequences for BitcoinThe hard fork of Ethereum to save the hacked funds of The DAO is an important lesson for all permissionless, global blockchains, and…medium.com",0,0,0,False
473,Svein Ølnes@sveinol,"The very hard fork of #Ethereum and its consequences for #BitcoinThe very hard fork of Ethereum and its consequences for BitcoinThe hard fork of Ethereum to save the hacked funds of The DAO is an important lesson for all permissionless, global blockchains, and…medium.com",0,0,0,False
474,Ξ Fly Guy Ξ (flyguy.eth)@FlyGuyInTheSky,Replying to @FlyGuyInTheSky#ethereum behaves more like #bitcoin as it has established itself. #ETHC behaves more like a headless chicken..,0,0,0,False
475,Ξ Fly Guy Ξ (flyguy.eth)@FlyGuyInTheSky,If you believe the fall in #ethereum has everything to do with #etc Think again. It has more to do with #bitcoin fall due to #Bitfinex hack,1,1,0,False
476,Avtar Singh Sehra@avtarsehra,Replying to @DennisonBertramnot enough room in 140 characters.Failure in upholding principles of decentralisation will lead to challenges for #ethereum,1,0,0,False
477,BitBay@BitBay,@Free_Ross @ColinTKennedy @BTC_Xeno @AltCoinTraderX @AmirRusel @T0ttong thank you all for following us! #Bitcoin #LSk #Ether #Litecoin,1,0,0,False
478,Ξ Fly Guy Ξ (flyguy.eth)@FlyGuyInTheSky,As gesture of goodwill. We could give the #Dao extra balance to #Bitfinex customers. Through a smart contract. Improve #ethereum reputation.,1,0,0,False
480,BitcoinAgile@bitcoinagile,How We Secure Digital Assets #BitCoin #Security #GDAX #Coinbase #Ethereum https://blog.coinbase.com/2016/08/03/how-we-secure-digital-assets…,1,0,0,False
481,indxio@indxio,#China Market Close || #Bitcoin: $541.1 | 485.91 EUR||  #Litecoin: 0.0033 BTC  || #Ethereum: 0.0175 BTC   || $BTC $LTC $ETH $RMB,1,0,0,False
485,Coinstats@coinstats,"Ethereum Classic - ETC
Price: $2.66727
Change in 1h: -1.93%
Market cap: $219801874.0
Ranking: 3
#Ethereum Classic #ETC",0,0,0,False
489,Coinstats@coinstats,"Ethereum - ETH
Price: $9.70486
Change in 1h: +1.52%
Market cap: $801687384.0
Ranking: 2
#Ethereum #ETH",0,0,0,False
490,/r/Augur@AugurFeed,#reddit Why this project is different http://bit.ly/2ayYv5X #ethereum #augur,1,0,0,False
491,⛧ God of Gaming ⛧@TheGodofGamez,Spring is a time for rebirth and the fulfilment of new life. $ETH,0,0,0,False
492,Numerati. Twetch#: @1033@MirakhorHassan,"Never cared about tainted funds. Same short raid as #ethereum.Quote TweetPeter Todd@peterktodd · Aug 2, 2016If the attacker can't spend their stolen coins we have a serious problem. #fungibility https://twitter.com/jedigras/status/760613629804830720…",0,0,0,False
493,Alberto Jauregui | esoteRICK.eth @DisruptBanksy,http://ift.tt/2aApj6t Ethereum Price Technical Analysis – Sellers Step Up Momentum - newsBTC #ethereum #ether,1,0,0,False
494,Cees Grootes@Analyticus,Bitcoin plunges after Hong Kong-based exchange discloses it was hacked http://bloom.bg/2aOegKV #bitcoin #ethereum #blockchain,2,2,0,False
495,Popcorn Index@popcornindex,List of companies that are going to get hosed if the $ETH bottom drops out. https://reddit.com/r/ethereum/comments/4vlk4j/consensys_digix_plutus_maker_augur_string/…,0,0,0,False
496,BitcoinAgile@bitcoinagile,The Great Digital-Currency Debate: New #ethereum Vs. Ethereum Classic http://amazonclues.com/the-great-digital-currency-debate-new-ethereum-vs-ethereum-classic…,2,0,0,False
498,Patrizio Stavola@halovast,"a nice list of all the hacks and robberies occured in #blockchain world: ""BLOCKCHAIN GRAVEYARD""
https://magoo.github.io/Blockchain-Graveyard/… #bitcoin #ethereum",2,8,0,False
499,fintechfolk@fintechfolk,Thanks @alexanderball for registering for FinTechFolk - http://zpr.io/Mnfj #fintech #ethereum #bitcoin #blockchain,0,0,0,False
500,Julia Edling@bitcointonic,Dr #Bitcoin – #Ethereum #Wallet #Setup: A brief walkthrough aimed at first time Ethereum… http://dlvr.it/LxjKp1,0,0,0,False
501,Muju 5.5@mujunaeem,Replying to @mujunaeemIs #cryptocurrency going 2 fall/collapse everytime someone steals some money from somewhere? (I am referring to #DAO #hack #ethereum eg) 2/2,2,2,1,False
502,Numerati. Twetch#: @1033@MirakhorHassan,Same type of insider short raid as #ethereum . Doubt hackers care about $btc they intend to make worthless. Off-chain TX suck.,0,0,0,False
503,Popcorn Index@popcornindex,"Although @VitalikButerin is ""100% on $ETH "" he apparently doesn't mind if you donate him some $ETC http://vitalik.ca/files/send_me_ether_160801.asc… #Ethereum",0,0,0,False
504,Philipp@p_uehlinger,"#Bitfinex $btc $ethQuote TweetJim@JimBTC · Aug 2, 2016#bitfinexGIF",0,0,0,False
506,Bιɾԋαɳυ M Lҽɳʝιʂσ@BirhanuLenjiso,#OromoProtests #End4Wayane #Oromia #ETH large and diverse people with only one enemy stand against Tyranny!,2,4,0,False
507,Svein Ølnes@sveinol,#Bitfinex confirms $60-70 mill. hack. But unlike #Ethereum there will be no hard fork in #Bitcoin to save the funds,1,0,0,False
508,Coinstats@coinstats,"Ethereum Classic - ETC
Price: $2.7363
Change in 1h: +1.81%
Market cap: $225490433.0
Ranking: 3
#Ethereum Classic #ETC",0,0,0,False
509,Coinstats@coinstats,"Ethereum - ETH
Price: $9.54782
Change in 1h: -2.02%
Market cap: $788702593.0
Ranking: 2
#Ethereum #ETH",0,0,0,False
510,Ethereum Price@EthereumPrice_,"#Ethereum: Ether Price Index
1 ETH =0.017429Ƀ XBT = $9.349980 USD
Today: +7.42%⬆︎ Last 24h: +1.19%⬆︎
https://ethereum-price.com",1,0,0,False
511,BitcoinAgile@bitcoinagile,#ethereum Price ETH Technical Analysis  Sellers Step Up Momentum #ETH/USD #EtherPrice http://bitcoinbragger.com/ethereum-price-eth-technical-analysis-sellers-step-up-momentum…,1,1,0,False
512,Cryptopatterns@Cryptopatterns,$ETH prob higher later but enuf 4 me Countertrend trade no good 4 sleep - avg 9.40 for 27% gain on big pos.Now100% Cash $ETC $BTC #ethereum,2,0,0,False
514,Animal Neotropical@aneotropical,#ETC or #ETH ? We think  both !!!,0,0,0,False
515,AltcoinWeekly@altcoinweekly,The latest Ethereum price is USD 9.35. For historical #Ethereum price charts - http://buff.ly/1Y3h6Jz,0,0,0,False
516,CoinGecko@coingecko,The latest Ethereum price is USD 9.35. For historical #Ethereum price charts - http://buff.ly/1Y3h6Jz,0,0,0,False
517,KLmoney@KLmoney8,Lesson learned from #Ethereum HF debacle: Market will pounce on dubious declarations of supermajority support. #ETC #bitcoin #crypto,0,0,0,False
518,Django BRRRRiꜩ @djangobits,Replying to @_cryptoworm_proof or it didn't happen... #etc #eth,0,0,0,False
519,BitcoinAgile@bitcoinagile,#ethereum Price Technical Analysis  Sellers Step Up Momentum - Helena #bitcoin Mining http://helenabitcoinmining.com/2016/08/02/ethereum-price-technical-analysis-sellers-step-up-momentum…,3,0,0,False
520,Ξ Fly Guy Ξ (flyguy.eth)@FlyGuyInTheSky,"#bitcoin ""Immutability can be painful at times"" Someone stole 120k #btc from #Bitfinex . $64M ring a bell? #theDAO #ETC #ethereum buy $eth !",1,0,0,False
521,Coin Pope@CoinPope,Replying to @el33th4xorThey should deal with it the #Ethereum way. A Hard Fork's never killed anybody. When do we meet to discuss the details? #bitcoin,0,0,0,False
522,BitcoinAgile@bitcoinagile,#ethereum Price Technical Analysis  Sellers Step Up Momentum - NEWSBTC #EthereumPricechart http://newsbtc.com/2016/08/03/ethereum-price-technical-analysis-sellers-step-momentum…,2,0,0,False
523,Ethereum Monkey@EthMonkey,Ethereum Price Technical Analysis - Sellers Step Up Momentum - NEWSBTC #ethereum http://newsbtc.com/2016/08/03/ethereum-price-technical-analysis-sellers-step-momentum/…,1,0,0,False
524,ExecConnect@ConnectExecs,$ETC v. $ETH stats by @tomkysar http://etc-eth.com. ETC at ~27% of ETH price & ~33% of hash rate #HolyMoly,0,0,0,False
526,Chris Behar@chrishbehar,Replying to @el33th4xorBTC is large enough to buy up $ETC and make it > $ETH and with miners following its a potential scenario. We've seen crazier,1,0,0,False
527,Tommy WorldPower @TommyWorldPower,Tired of the Ethereum reddit getting brigaded by Ethereum Classic (ETC)? Come join us at http://reddit.com/r/EthereumETH #ETHEthereum ETH • r/EthereumETHA place for discussion for Ethereum in a relaxed manner.reddit.com,2,0,0,False
528,Ξ Fly Guy Ξ (flyguy.eth)@FlyGuyInTheSky,"Replying to @FlyGuyInTheSkythe trouble is.... When it's gone it's gone... 120,000 #btc a few days ago that was $79,000,000 #ethereum could recovered it",0,0,0,False
529,Coin Pope@CoinPope,@JustinTrudeau The Bank of Canada would benefit from decentralized database ledger solutions. I suggest you tell them. #bitcoin #ethereum,0,0,0,False
530,Coinstats@coinstats,"Ethereum Classic - ETC
Price: $2.6711
Change in 1h: -5.2%
Market cap: $220117493.0
Ranking: 3
#Ethereum Classic #ETC",0,0,0,False
531,Coinstats@coinstats,"Ethereum - ETH
Price: $9.75505
Change in 1h: +1.16%
Market cap: $805807934.0
Ranking: 2
#Ethereum #ETH",0,0,0,False
532,Coin Pope@CoinPope,"@JustinTrudeau I've been around for a short, short year, forked many a man's chain to waste. #ethereum #bitcoin",0,0,0,False
533,Coin Pope@CoinPope,"@JustinTrudeau Please allow me to introduce myself, I'm a man of code and haste. #bitcoin #ethereum",0,0,0,False
534,Ξ Fly Guy Ξ (flyguy.eth)@FlyGuyInTheSky,"#ethereum #eth is rising #etc pulling back. I think #bitcoin hack at #Bitfinex points to. ""Maybe this HardFork thing ain't such a bad thing""",1,1,0,False
535,Vampire Sex Kittens - Music@VampirSexKttns,Bitcoin drops 20% after $70M worth of Bitcoin was… http://dlvr.it/LxgwTP #TC #Bitcoin #cryptocurrency #Reddit #ethereum #technology #music,0,0,0,False
536,Keywebco@rkeyserling,Bitcoin drops 20% after $70M worth of… http://dlvr.it/LxgvYz #TC #Bitcoin #cryptocurrency #Reddit #ethereum,0,0,0,False
537,Andreas Freund@AndreasFRHA,Not so pleasent scenarios for #Ethereum vs. #Ethereumclassic. Interesting though less likely.How the Great Schism Can End Well for Ethereum Classic (Part 2 of 3)In Part 2: How the great Ethereum schism can end relatively well for Ethereum Classic (but not so much for Ethereum One).bitcoinmagazine.com,1,0,0,False
538,Aayush Jindal@AayushJs,"#Bitcoin And #Ethereum Scared Investors, Its Not Going Anywhere People #BTC #Hack $ETH $BTCUSDBitcoin And Ethereum Scared Investors, Its Not Going Anywhere PeopleBitcoin and Ethereum (ETH) Price dropped heavily today. Why? Every time there is a news about some scam or hack people get scared. Is this real? Know More.bitcoinbragger.com",62,17,9,False
539,Coin Pope@CoinPope,I doubt #Bitfinex would have been hacked had they used Ethereum 3.0 Casper Serenity release to secure their #blockchain. #Ethereum #Bitcoin,1,1,0,False
540,BitcoinAgile@bitcoinagile,"#bitcoin And #ethereum Scared Investors, Its Not Going Anywhere People #BitcoinAnalysis http://bit.ly/2aAdPQ8",3,0,0,False
541,Ξ Fly Guy Ξ (flyguy.eth)@FlyGuyInTheSky,#ethereum Should we care if one chain is longer than the other? No...Corn and wheat are two different plants... It's what you can do counts.,3,0,0,False
542,Bold N Boasy Ent@boldnboasyent,Free Ethereum every 5 minutes http://etherfaucet.net/?r=0xae479cdfad3f3b68fe42a54d3945bb3c82bb7eb8… #ethereum via @FreeCryptoCo,0,0,0,False
543,Numerati. Twetch#: @1033@MirakhorHassan,Replying to @estebsOff-chain tx are killing Crypto. $eth and $btc hack are fundamentally the same problem. Short raids exploiting lack of transparency.,1,1,0,False
544,ether-camp@CampEther,Seen on #hackethercamp https://hack.ether.camp/idea/crypto-discussion-board--chat-room-based-on-crypto-holdings… #ethereum #blockchain #cryptocurrencies #reddit #bitcoin,1,1,0,False
545,⛧ God of Gaming ⛧@TheGodofGamez,In the long run we get no more than we have been willing to risk giving. $ETH,1,0,0,False
546,Ξ Fly Guy Ξ (flyguy.eth)@FlyGuyInTheSky,Replying to @AlmostThere50k#ETC  extremely volatile. -29% in 3 hours... #ethereum #bitcoin play if you like...,1,0,0,False
547,Crypdex@CrypdexLLC,converted 6.98 mBTC $3.79 USD to ETH #Ethereum,2,0,0,False
548,Kryptonews.live official account@Starfaucet,Back to to the old story.what chain will win the war with #Ethereum Why did we get into this position in the first place.,1,0,0,False
549,ant@ThisIsNuse,Replying to @ThisIsNuse.@CryptoEthan $ETH reminds me of $BTC in the sense of it was just better to wait for macro to align to initiate a short all of 2014/2015,0,0,0,False
550,ant@ThisIsNuse,"Replying to @CryptoEthanNah. I'd wait. Still looks fucky. $ETH was a good buy, but all i can think of when i think $ETH is ""wait to short it""",3,1,0,False
551,bxxa@boxxa,The $ETC and $ETH chains are less than 1600 blocks apart.,0,0,0,False
552,Coinstats@coinstats,"Ethereum Classic - ETC
Price: $2.804
Change in 1h: -1.12%
Market cap: $231069391.0
Ranking: 3
#Ethereum Classic #ETC",0,0,0,False
553,Coinstats@coinstats,"Ethereum - ETH
Price: $9.6393
Change in 1h: +3.24%
Market cap: $796233768.0
Ranking: 2
#Ethereum #ETH",0,0,0,False
554,Ethereum SE@StackEthereum,Is the DAO hardfork technically a 51% attack? http://ethereum.stackexchange.com/questions/7699/is-the-dao-hardfork-technically-a-51-attack… #ethereum #attacks #hardfork,1,0,0,False
