,user,text,likes,retweets,replies,is_thread
0,Tim M. Zagar@wwwMZ,Setting up @iconominet booth #Devcon2 #ethereum #ICO #blockchain #Shanghai,199,418,1,False
1,Btc_social@btc_social,Want latest news about #Bitcoin #Faucets?Come here and join latest faucets http://goo.gl/cbjH9h #Altocin #ethereum #blockchain,4,1,0,False
2,Jason Ramchandani@jas0nram,.@timnugent @thomsonreuters @TRFinServices Demos #blockchain use cases at #devcon2 http://bit.ly/2cnNIR6 @ethereumproject #ethereum,4,4,0,False
3,BitPython@bitpython,"Join https://tuxexchange.com community at
https://bitcointalk.org/index.php?topic=1585968.0…
https://reddit.com/r/Tuxexchange
#Bitcoin
#doge
#DASH
#LTC
#PPC
#ethereum
#altcointuxexchange.com - Cryptocurrency Exchange • r/TuxexchangeTux Exchange is a modern cryptocurrency exchange offering spot trading in many popular currencies. We strive to deliver the fatest performance of...reddit.com",4,3,0,False
4,/r/Augur@AugurFeed,#reddit Thanks to the Augur Team! http://bit.ly/2cKSlpE #ethereum #augurThanks to the Augur Team!I just want to say thanks for all the work you guys have done. I ran in to a few issues with my accounts and I hope they are resolved. I'm not a...reddit.com,2,1,0,False
5,ΞTHΞЯΞUM ÐΞV NΞWS ⟠@Eth_Dev_News,"Zcash content in Russian, Spanish, Brazilian and Portuguese. https://z.cash/blog/expanding-zcash-content.html… #ethereum #devcon2 #ethdev #gamedev #fintech #redditExpanding Zcash Content: Russian, Spanish, Brazilian Portuguese - Electric Coin CompanyToday we have published the Zcash website content in three new languages: Russian, Spanish and Brazilian Portuguese. It is the […]electriccoin.co",3,3,0,False
6,tgerring.eth@TaylorGerring,How will identity work on the blockchain? @uport_me has some great answers! #Ethereum #devcon2,50,28,0,False
7,Péter Szilágyi@peter_szilagyi,Holy shit! #ipfs is deploying #filecoin on top of #Ethereum!!!!!!!,41,24,3,False
8,Gibz@Gibsongibbz,#Bitcoin from a #developer perspective looks like state in a box #ethereum #blockchain,4,1,0,False
9,Gibz@Gibsongibbz,#Germany gave #bitcoin a nod by calling it Private #money #fintech #ethereum,6,1,0,False
10,Stephen King@mStephenKing,#devcon2 - a massive success! Thanks @VitalikButerin @avsa @TaylorGerring @mingchan88 and the rest of the #Ethereum foundation!,43,16,0,False
11,Bill Tsai@BillTsaiTechGuy,Bletchley on #Azure: cuts #Ethereum setup from 3-week to “8 questions and 5-8 mins”!! #BlockChain #DistributedLedger http://geekwire.com/2016/microsoft-sees-staggering-potential-blockchain-technology-releases-new-bletchley-template/…,5,1,0,False
12,Beyond the void #blockchaingame@BeyondVoidGame,New skill coming up ! How should we call it ? #gamedev #indiegame #ethereumGIF,11,18,1,False
13,Philsabang Bull Bull Bull@Philsabang,Despite the recent Devcon hype I still believe $ETH is in a bear market. We're still in complacency. Anxiety to come. Let's see.,40,22,4,False
14,Carolyn Reckhow@CReckhow,Crowd favorite! @ChrisLundkvist and @rh7 dazzling #devcon2 with @uport_me #Ethereum #blockchain #selfsovereignidentity,27,16,0,False
15,Provenance Tech@ProvenanceTech,"Status, an #ethereum node (and more) on mobile! #devcon2",9,2,0,False
16,BlockchainSecurities.io@Available4Sale,All domain names available! #btc $BTC #bitcoin #ltc #litecoin #eth #ether #ethereum #blockchain #fintech #cryptocurrency #coins #bitcoinnews,1,0,0,False
17,EtherBlockchain.io@etherblockchain,Ethereum Devs Applaud the Audience at Devcon’s Closing by @Aquentson https://cryptocoinsnews.com/ethereum-devs-applaud-audience-devcons-closing/… #ether #blockchain #ethereum #devcon2,1,3,0,False
18,Ian DeMartino@IanDeMartino,.@Wirexapp Combines With @Shapeshift_io to Bring Altcoins To Debit Cards - Coinjournal http://coinjournal.net/wirex-combines-shapeshift-bring-altcoins-debit-cards/… via @coinjournal #ETH #LTC,2,3,0,False
19,Kenny Rowe@kennyrowe,".@ArthurFalls is my hero. I learn so much from the @etherreview ! Latest episode all about the #ethereum EVMThe Ether Review #41 - Martin Lundfall, Rage Against the MachineWhat is the Ethereum Virtual Machine, what design trends and decisions influence its operation and what does that mean for Ethereum the platform? Today we dive deep. There is a debate around whethersoundcloud.com",10,6,2,False
20,John Lilic ₿ Ξ ∞@JohnLilic,Baby bro #devcon2 #ConsenSys #Ethereum @ililic0:02138 views,7,0,0,False
21,Pascal Van Hecke@PascalVanHecke,#devcon2 @dominic_williams has a new job for all of the redundant bank employees: become a PHI validator! #ethereum #UberForBankers,3,3,0,False
22,CryptoCompare@CryptoCompare,"JPMorgan in #Blockchain Trials
State Street Tests Blockchain
Nasdaq Veteran Joins #Ethereum FoundationDaily market update: 17 June 2019 | CryptoCompare.comWe bring you all the data in the world of crypto currencies and Bitcoin in an easily digestible value added format and we give you the tools you need to make that decision. Join the discussion on our...cryptocompare.com",3,3,0,False
23,Indie Scanner@IndieScanner,New skill coming up ! How should we call it ? #gamedev #indiegame #ethereum http://buff.ly/2d9FBEB,3,4,0,False
24,Anthony Di Iorio@diiorioanthony,Thomson Reuters Demos New #ethereum #blockchain Use CasesThomson Reuters Demos New Ethereum Blockchain Use Cases - CoinDeskThomson Reuters scientist Dr Tim Nugent detailed the company's ethereum research efforts at Devcon2 today.coindesk.com,10,1,0,False
25,Jaxx Liberty@jaxx_io,We're thrilled to announce that @litecoin will soon be a part of the Jaxx family! http://decentral.ca/jaxx-blockchain-wallet-to-add-app-store-approved-litecoin-to-all-9-platforms/… … #bitcoin #ethereum #dash,46,39,9,False
26,slock.it@slockitproject,Blockchain Energy P2P sharing project Share&Charge entering live Beta in Germany - https://blog.slock.it/blockchain-energy-p2p-sharing-project-share-charge-going-into-live-beta-ad4e069e79d#.b92cyv74d… #ethereum #blockchain,28,39,1,False
27,JuanGalt.com@JuanSGalt,".@VladZamfir on #Ethereum #Blockchain #Governance trends. Exclusive interview with @coinolympics #ethVlad Zamfir on Ethereum Governance TrendsPost DAO fork, the value of a blockchain governance strategy is more obvious and pressing then ever. Vlad Zamfir discusses how the Ethereum community is thin...youtube.com",3,0,0,False
28,Blockchain Academy@BlockchainAcad,Great to see Thomson Reuters demo #Ethereum Blockchain Use Cases @ #Devcon2 http://coindesk.com/thomson-reuters-blockchain-ethereum-devcon2/…. Enrol for our Ethereum Beginner Course.,5,0,0,False
29,Malte Lantin@MalteLantin,Just found this new Resource Manager template to deploy your #ethereum based #blockchain service on MS #Azure http://j.mp/2d9vlfu,2,1,1,False
30,Thorsten Heller@ThoHeller,#Ethereum: A Second-Generation #Blockchain for the #IoT http://buff.ly/2dhlULu,6,7,0,False
31,Marcin Zientek@zientekglobal,Thomson Reuters Demos New #Ethereum #Blockchain Use Cases http://bit.ly/2cPo7j3 via @CoinDesk,2,2,0,False
32,Paul Kohlhaas@paulkhls,#ethereum meets Amazon webservices with filecoin presented by @juanbenet massive innovation and potential,3,2,0,False
33,Ðavid Ƀurela@DavidBurela,#Ethereum #DEVCON Day 3 roundup now online https://davidburela.wordpress.com/2016/09/22/devcon2-report-day-3-final-day/… @ethereumproject,2,4,0,False
34,BTCMANAGER@btc_manager,"Check our Weekly #cryptocurrency Report, Every Week Here:

https://btcmanager.com/bitcoin-price/weekly-report/…
#bitcoin #ethereum #altcoins #monero #trading",6,3,0,False
35,ALΞCO@a_l_e_c_o,BlockPay catches them #Bitcoin #Ethereum #DAO #Digix #Dash #Dogecoin #Steem #Smartcoins style! style! @BlockPay_ch https://pic.twitter.com/OHbGyb9dR1 https://twitter.com/BlockPay_ch/status/778446109194657794…This Tweet is unavailable.,7,5,0,False
36,slock.it@slockitproject,#devcon2 @ChrJentzsch talk was recorded and will be published by the #ethereum Foundation on their Youtube channel,17,4,1,False
37,FirstBlood@firstbloodio,So who's going to be my next challenger when FirstBlood is released? #Esports #Blockchain #Ethereum #Gamers,4,3,0,False
38,George Newcloud@GeorgeNewcloud,"ETHCORE showing off new Parity UI at #devcon2 @ethcoreproject #Ethereum #blockchainQuote TweetMyEtherWallet | MEW@myetherwallet · Sep 19, 2016ETHCORE showing off new Parity UI at #devcon2.  Slick stuff.  @ethcoreproject",3,0,0,False
39,Shannon Steele@digifinancegirl,Thomson Reuters demos new #Ethereum #blockchain use cases | via @coindesk http://klou.tt/17gt86hjn5qwl,4,1,0,False
40,Jaxx Liberty@jaxx_io,What currencies would you like to see added next? 15-20 more expected before the end of the year. #bitcoin #ethereum #litecoin #dash #Etc,15,14,32,False
41,BTCMANAGER@btc_manager,"The Next Steps: #Ethereum Classic Charts a Course for the Future...
https://btcmanager.com/news/the-next-steps-ethereum-classic-charts-a-course-for-the-future/…
#cryptocurrency #ETC #blockchain #news",2,4,1,False
42,Genesis Mining@GenesisMining,"Our CEO @Marco_Streng is representing us at #devcon2, the developers conference for #Ethereum. Great to see @ErikVoorhees & @joeykrug447!",9,1,0,False
43,Stephan Tual@stephantual,"Announcing Share&Charge, a blockchain app to make it easy to find and rent charging stations  - https://blog.slock.it/blockchain-energy-p2p-sharing-project-share-charge-going-into-live-beta-ad4e069e79d#.b92cyv74d… #ethereumQuote Tweetslock.it@slockitproject · Sep 21, 2016Blockchain Energy P2P sharing project Share&Charge entering live Beta in Germany - https://blog.slock.it/blockchain-energy-p2p-sharing-project-share-charge-going-into-live-beta-ad4e069e79d#.b92cyv74d… #ethereum #blockchain",24,7,2,False
44,Stephan Tual@stephantual,"UK blockchain startups! £15 million grant competition - opens on 3 October  #blockchain #ethereum - don't miss it - https://gov.uk/government/publications/funding-competition-emerging-enabling-technologies…Quote TweetToby Proctor@t0bywon · Sep 21, 2016Replying to @stephantual.@stephantual great!  Also, @innovateuk has a £15m grant competition including blockchain open.  https://gov.uk/government/publications/funding-competition-emerging-enabling-technologies… please rt #devcon2",19,13,0,False
45,Marc@_marcdnd,"Hey @winklevoss you seen this? http://v.cash $XVC #chainblender #fintech #zerotime #zeroledger @CoinTelegraph @coindesk $ETH $XMRQuote TweetCameron Winklevoss@cameron · Sep 21, 2016What's The Best Price 4 Bitcoin? Winklevoss Exchange Gemini Aims To Find Out w/ Daily Auction via @laurashin @forbes http://forbes.com/sites/laurashin/2016/09/21/whats-the-best-price-for-a-bitcoin-winklevoss-exchange-gemini-aims-to-find-out-with-daily-auction/#4da9c11c2c38…",4,2,0,False
46,₿TCKYLE@BTCKYLE,$ETH will need to revisit 240 again - have another battle before it breaks out. Still hard to tell what the MM's want to do at this point.,4,0,0,False
47,Richie Lai@richiela,All extrabalance $ETH from the $DAO saga has been paid out.  Finally closing the chapter to this book... @BittrexExchange,15,11,2,False
48,(lpp (de late))@lppdelate,"I just signed up to @ethstatus - an #ethereum #dapps browser for mobileStatus - Private, Secure CommunicationStatus brings the power of Ethereum into your pocket by combining a messenger, crypto-wallet, and Web3 browser.status.im",0,0,0,False
49,Timo Ξberhard@ZhuBajie72,"Replying to @ilBitcoinHm, dunno. Never met a paid #Ethereum troll so far...",1,0,0,False
51,Crypto Price Ticker@TickerCrypto,"#Ethereum #ETH Rank:2 Last:฿0.02287133(-2.769%) High:Buy Instantly! on  Low:฿0.02391334 Vol:฿42,235 Market Cap:฿1,925,834 / $1,147,50...",0,0,0,False
52,ETHNews@ETHNews_,"Ethereum's Devcon2 Final Ceremony #Ethereum #Devcon2 http://ow.ly/IAau304roMq Thanks to @sepehrmohamadi for the video.Ethereum Devcon2 Final CeremonyEthereum Devcon2 Final Ceremony,September 21, 2016, ShanghaiChech the High res version here: https://www.youtube.com/watch?v=Hz0bZXf3osIyoutube.com",2,1,0,False
53,ETHNews@ETHNews_,"@Reuters and @uport_me present at #Devcon2
http://ethnews.com/reuters-and-uport-present-at-devcon2… #Ethereum",2,0,0,False
54,Ameer Rosic@AmeerRosic,Great people deserve a great audience. http://blockgeeks.com #Blockchain #Ethereum #Bitcoin,1,0,0,False
55,Faith Emmanuel@residualbitcoin,Wirex Combines With Shapeshift to Bring Altcoins To Debit Cards - Coinjournal #ETH #LTC http://bitcoinagile.com/852482/wirex-combines-with-shapeshift-to-bring-altcoins-to-debit-cards-coinjournal_stream…  #…,0,0,0,False
56,Faith Emmanuel@residualbitcoin,A Crypto Von Neuman architecture #ethereum #hackethercamp https://hack.ether.camp/idea/a-crypto-von-neuman-architecture…  #ResidualBitcoin,0,0,0,False
57,Justin Brrrrrincoe@jpblincoe,"""Any sufficiently advanced technology is indistinguishable from magic.""  -Arthur C Clarke #alchemy #zcash #ethereum #bitcoinQuote Tweetzookoⓩ@zooko · Sep 21, 2016Announcing ""Project Alchemy"", an attempt to connect the Ethereum and Zcash blockchains: https://z.cash/blog/project-alchemy.html…",5,2,0,False
58,BitcoinAgile@bitcoinagile,A Crypto Von Neuman architecture #ethereum #hackethercamp https://hack.ether.camp/idea/a-crypto-von-neuman-architecture…,0,0,0,False
59,ether-camp@CampEther,Seen on #hackethercamp https://hack.ether.camp/idea/a-crypto-von-neuman-architecture… #ethereum,0,0,0,False
60,Faith Emmanuel@residualbitcoin,Mining #ethereum With Your Graphics Card #Bitcoin #Blockchain #DigitalCurrencies #Tech http://amwritesstuff.com/2016/09/21/mining-ethereum-with-your-graphics-card…  #R…,0,0,0,False
61,David Liam@crazydaveorama,#Ethereum Devs Applaud the Audience at Devcon’s Closing http://disq.us/t/2ddfw18 #Devcon2 #Gnosis #Golem #blockchain,1,0,0,False
62,Blockgeeks@Blockgks,Google & Apple Prefer Ripple #Blockchain Tech over Visa http://snip.ly/j7of5 #Ethereum,0,0,0,False
63,Coinstats@coinstats,"Ethereum Classic - ETC
Price: $1.22531
Change in 1h: +-0.49%
Market cap: $103119333.0
Ranking: 6
#Ethereum Classic #ETC",0,0,0,False
64,Coinstats@coinstats,"Ethereum - ETH
Price: $13.3826
Change in 1h: +0.17%
Market cap: $1126848051.0
Ranking: 2
#Ethereum #ETH",0,0,0,False
65,David Liam@crazydaveorama,#Coinbase’s Armstrong: #Ethereum Scaling Better Than #Bitcoin http://disq.us/t/2dcz45g,0,0,0,False
66,BitcoinAgile@bitcoinagile,Mining #ethereum With Your Graphics Card #Bitcoin #Blockchain #DigitalCurrencies #Tech http://amwritesstuff.com/2016/09/21/mining-ethereum-with-your-graphics-card…,0,0,0,False
67,Faith Emmanuel@residualbitcoin,Daily #bitcoin Auctions Begin #ethereum #fintech #fintechinvestor http://finteknews.com/index.php/digital-currencies-blockchain/item/575-daily-bitcoin-auctions-begin…  #ResidualBitcoin,0,0,0,False
68,BitcoinAgile@bitcoinagile,Daily #bitcoin Auctions Begin #ethereum #fintech #fintechinvestor http://finteknews.com/index.php/digital-currencies-blockchain/item/575-daily-bitcoin-auctions-begin…,0,0,0,False
69,CL Taylor@DigitWealthNews,FintekNews-Daily Bitcoin Auctions Begin http://goo.gl/594mEY #fintech #fintechinvestor #Bitcoin #ethereum #blockchain #trading #markets,1,0,0,False
70,Bitcoin Updater@BitcoinUpdater,Smash the system #ethereum http://soco.space/9q5_FP,1,2,0,False
71,Crypto Niya@cryptoniya,People seem to think we need to save the banking system. I guess the same people would have saved Nokia or Kodak. Innovate or die #BTC #ETH,6,1,1,False
72,Martin Treurnicht@martintreur,I just signed up to @ethstatus - an #ethereum #dapps browser for mobile: https://status.im/invite/1219-dac8e3bd…,2,1,0,False
73,AltcoinLive bot@AltcoinLiveBot,updated $ETH buywall 11.1btc @ 0.02212073 http://altcoinlive.com/bittrex-eth-btc #altcoinlive (change 0.00001022),0,0,0,False
75,Anthony Di Iorio@diiorioanthony,@NASDAQ Veteran Joins #ethereum Foundation as Security Lead https://google.com/url?rct=j&sa=t&url=http://www.coindesk.com/nasdaq-veteran-ethereum-foundation-security-lead/&ct=ga&cd=CAEYBCoUMTQ5MTc1NTU2NDkxNzc0MDM5NjUyGjk4YjY4ZDExNTYxOTgzZTk6Y29tOmVuOlVT&usg=AFQjCNFqWlRjsBrGARRq0WeKXjDHBH0_eA…,0,0,0,False
76,BitPython@bitpython,"http://tuxexchange.com is accepting deposits in all listed coins! Happy trading :)
#DASH
#doge
#litecoin
#Bitcoin
#PPC
#ethereum
#altcoin",2,1,0,False
78,johnK@GiannisgrK,its pump and dump you fool . nothing more than that $eth #ethereum,0,0,0,False
79,CryptoDeCrypt @CryptoDeCrypt,"Microsoft Unveils Roadmap for ‘Bletchley’ Blockchain Project https://news.bitcoin.com/microsoft-project-bletchley-roadmap/?utm_source=twitter&utm_medium=social&utm_campaign=SocialWarfare… #bitcoin #blockchain #ethereum $BTC $ETHMicrosoft Unveils Roadmap for 'Bletchley' Blockchain ProjectDuring Blockchain Week in Shanghai , the technology giant Microsoft revealed its roadmap for the Bletchley Blockchain Project. The announcement was introducnews.bitcoin.com",0,0,0,False
80,Cryptiv@Cryptiv,Microsoft's Bletchley Blockchain Project Enters Next Phase Using a Private Version of #Ethereum - http://ow.ly/6G6p304qdRQ,1,1,0,False
81,MeeseeksBTC@Meeseeks100BTC,"RT Start mining $ETH or $BTC together with people from all over the world.

https://goo.gl/tYClLG",0,0,0,False
82,Nathan Elliott@n82point0,Check the charts - Time to buy some bitcoin #Bitcoin #ethereum #blockchain #trade #weeklylow,1,4,0,False
84,Blockgeeks@Blockgks,"Join today! Blockgeeks is a #Blockchain innovation hub 
& marketplace http://blockgeeks.com #Bitcoin #Ethereum",1,0,0,False
85,Coinstats@coinstats,"Ethereum Classic - ETC
Price: $1.22704
Change in 1h: +-0.64%
Market cap: $103263859.0
Ranking: 6
#Ethereum Classic #ETC",0,0,0,False
86,Coinstats@coinstats,"Ethereum - ETH
Price: $13.3201
Change in 1h: +-0.39%
Market cap: $1121573191.0
Ranking: 2
#Ethereum #ETH",0,0,0,False
87,Ameer Rosic@AmeerRosic,6 Reasons Why #Blockchain is Worth Getting Excited http://snip.ly/7je5i #bitcoin #Ethereum,1,2,0,False
89,Raúl Yépez @ryepez3,Ethereum-Mining-Pool-guide   http://tinyurl.com/hjamqkp #ETH #Cryptocurrency @CryptOrca,2,3,0,False
96,AltcoinLive bot@AltcoinLiveBot,updated $ETH buywall 11.0btc @ 0.02200003 http://altcoinlive.com/bittrex-eth-btc #altcoinlive (change -0.00012070),0,0,0,False
97,808S&DUBPLATES @CornmealDumplin,"#LRT I am FINISHED! ""50% of your income and 100% of your girl""... I would deactivate after that #ether there.",0,0,0,False
98,Faith Emmanuel@residualbitcoin,Test post #ethereum - Altcoin Today http://altcointoday.com/test-post-ethereum…  #ResidualBitcoin,0,0,0,False
100,Timo Ξberhard@ZhuBajie72,BIG...(!) >>> Thomson Reuters Demos New #Ethereum #Blockchain Use Cases http://bit.ly/2cPo7j3 via @CoinDeskThomson Reuters Demos New Ethereum Blockchain Use Cases - CoinDeskThomson Reuters scientist Dr Tim Nugent detailed the company's ethereum research efforts at Devcon2 today.coindesk.com,0,0,0,False
101,BitcoinAgile@bitcoinagile,Test post #ethereum - Altcoin Today http://altcointoday.com/test-post-ethereum…,1,0,0,False
102,Faith Emmanuel@residualbitcoin,#ethereum Devs Applaud the Audience at Devcon’s Closing http://bitcoinagile.com/851EC6/ethereum-devs-applaud-the-audience-at-devcons-closing_stream… #ResidualBitcoin,0,0,0,False
103,Michael C. Mammo@Jirra100,Replying to @Jirra100 and @John_Primrose#Refugee flows will continue unabated as along as #EU & #US continue to enable the #Eth|n govt. Hasn't worked. Will not work.,0,0,0,False
104,BitcoinAgile@bitcoinagile,#ethereum Devs Applaud the Audience at Devcon’s Closing http://bitcoinagile.com/851EC6/ethereum-devs-applaud-the-audience-at-devcons-closing_stream…,2,0,0,False
105,DuNN0 @_DuNN0_,Easy Money! Keep your internet Browser Open and win $BURST http://burstcoin.biz/surfbar?ref=2070… #devcon2 $ETH $BTC $NXT $XMR $ETC $LSK $FCT $LTC $XRP $SC,0,0,0,False
106,Leo Bekhuis@leobekhuis,Ethereum's 'Holy Trinity' Takes Shape As Swarm Testnet Arrives  http://buff.ly/2ddxeuU #swarm #ethereum #proofofcustody,0,0,0,False
107,AltcoinLive bot@AltcoinLiveBot,new $ETH buywall 13.4btc @ 0.02226212 http://altcoinlive.com/bittrex-eth-btc #altcoinlive,0,0,0,False
108,AltcoinLive bot@AltcoinLiveBot,removed $ETH buywall 11.0btc @ 0.02200001 http://altcoinlive.com/bittrex-eth-btc #altcoinlive,0,0,0,False
116,Ameer Rosic@AmeerRosic,#Blockchain Technology Proves Itself in Wall Street Test http://snip.ly/i6je1 #Bitcoin #Ethereum,2,1,0,False
117,Timo Ξberhard@ZhuBajie72,Perfect hit here... #Ethereum #Ether $ETH $ETHEUR @krakenfx >>> https://tradingview.com/chart/ETHEUR/7W5OGYJS-The-Situation-On-The-ETHEUR-Chart/…,0,0,0,False
118,Timo Ξberhard@ZhuBajie72,Hmmmm. That bounced early. #FOMO time...(!?) #Ethereum #Ether $ETH $ETHXBT @krakenfx >>> https://tradingview.com/chart/ETHXBT/NmJBe44V-Next-Long-Opp-Incoming/…,1,0,0,False
119,ExploreTraveler@exploretravel1,"RT @Ashaegan: Commentary around Accenture's #blockchain whitepaper in ""Redactable #Bitcoin"" by @eiaine http://lnkplg.co/R6RL4 #ethereum",0,0,0,False
120,Coinstats@coinstats,"Ethereum Classic - ETC
Price: $1.23465
Change in 1h: +-2.07%
Market cap: $103902716.0
Ranking: 6
#Ethereum Classic #ETC",0,0,0,False
121,Corner Coin@Corner_Coin,"#Ethereum classic price after creating a minor new low versus #Bitcoin started to recover https://goo.gl/EA6GUU #fintechEthereum Classic Price Technical Analysis – Is This Real Break?Ethereum classic price broke a short-term resistance, but this break cannot be encouraging until ETC/BTC closes back above 0.00208BTC.newsbtc.com",0,0,0,False
122,Coinstats@coinstats,"Ethereum - ETH
Price: $13.4098
Change in 1h: +0.98%
Market cap: $1129107880.0
Ranking: 2
#Ethereum #ETH",0,0,0,False
123,Ethereum Price@EthereumPrice_,"#Ethereum: Ether Price Index
1 ETH =0.022366Ƀ XBT = $13.413450 USD
Today: -5.36%⬇︎ Last 24h: -1.64%⬇︎
https://ethereum-price.com",0,0,0,False
124,Bitcoin Updater@BitcoinUpdater,A Decentralized Ethereum Mixing Service Offers Appealing Benefits #ethereum http://soco.space/CwmhQo,0,0,0,False
125,AltcoinLive bot@AltcoinLiveBot,new $ETH buywall 11.1btc @ 0.02220288 http://altcoinlive.com/bittrex-eth-btc #altcoinlive,0,0,0,False
126,AltcoinLive bot@AltcoinLiveBot,removed $ETH buywall 11.1btc @ 0.02212071 http://altcoinlive.com/bittrex-eth-btc #altcoinlive,0,0,0,False
128,AltcoinLive bot@AltcoinLiveBot,updated $ETH buywall 11.0btc @ 0.02194693 http://altcoinlive.com/bittrex-eth-btc #altcoinlive (change 0.00006181),0,0,0,False
134,The Royal Vox Post@RoyalVoxPost,"#Fintech #Blockchain: DevCon2: Santander and EtherCamp building bridges between bank accounts and #Ethereum
https://uk.news.yahoo.com/devcon2-santander-ethercamp-building-bridges-064340647.html?soc_src=social-sh&soc_trk=tw…",1,0,0,False
135,Faith Emmanuel@residualbitcoin,[2016-09-21] BTCMANAGER Speaks to Charles Hoskinson on the Future of #ethereum Classic #bitcoin https://forum.bitcoin.com/viewtopic.php?t=10877&p=30871#p30871… #ResidualBitcoin[2016-09-21] BTCMANAGER Speaks to Charles Hoskinson on the Future of Ethereum ClassicIt has been two months since Ethereum Classic ETC struck out on its own. But what started out as a protest on some Russian language forums against the Ethereum hard fork appears...forum.bitcoin.com,0,0,0,False
136,Faith Emmanuel@residualbitcoin,Coinbase CEO Armstrong: #ethereum Scaling Better Than #bitcoin - CryptoCoinsNews - ForexTradingWire http://forextradingwire.com/feed-items/coinbase-ceo-armstrong-ethereum-scaling-better-than-bitcoin-cryptocoinsnews… #ResidualBitco…,0,0,0,False
137,Crypto₿ull@CryptoBull,"Replying to @CryptoBull and @Crypto_GodTyrion Lannister is short - on that head & shoulder ^^ 

$ETH",2,0,0,False
138,BitcoinAgile@bitcoinagile,[2016-09-21] BTCMANAGER Speaks to Charles Hoskinson on the Future of #ethereum Classic #bitcoin[2016-09-21] BTCMANAGER Speaks to Charles Hoskinson on the Future of Ethereum ClassicIt has been two months since Ethereum Classic ETC struck out on its own. But what started out as a protest on some Russian language forums against the Ethereum hard fork appears...forum.bitcoin.com,1,0,0,False
139,BitcoinAgile@bitcoinagile,Coinbase CEO Armstrong: #ethereum Scaling Better Than #bitcoin - CryptoCoinsNews - ForexTradingWire http://forextradingwire.com/feed-items/coinbase-ceo-armstrong-ethereum-scaling-better-than-bitcoin-cryptocoinsnews…,0,0,0,False
140,Kyle Stargarden@KyleSt4rgarden,“The average vehicle is used only 4% of the time and parked the other 96%.” — John Zimmer #ai #ethereum #blockchain https://goo.gl/cItQnZ,3,1,0,False
141,Ethereum Canada@EthereumCanada,#Ethereum's Creator Proves Blockchain Scaling Vision is No Joke: http://ow.ly/HXG9304r9jj #devcon2 #blockchain #cryptocurrencyEthereum's Creator Proves Blockchain Scaling Vision is No Joke - CoinDeskEthereum creator Vitalik Buterin gave a lengthy speech at Devcon2 this week focused on efforts to scale the protocol.coindesk.com,8,4,0,False
142,Ameer Rosic@AmeerRosic,How #Blockchain Helps Brooklyn Dwellers Use Neighbors' Solar Energy http://snip.ly/f3wcc #Ethereum,1,0,0,False
143,Johanna S@Mc_Nerdic,#ethereum #ether Brothers Face Jail Time for Allegedly Stealing Power to Mine Bitcoins: Two b... http://bit.ly/2dhRfO1 #SmartContracts,0,0,0,False
144,EthereumNZ@EthereumNZ,"Interested in Smart Contracts ? Join us at @BizDojo on the 28th to see them in action. #Ethereum #blockchain
http://buff.ly/2cHRW7I",3,0,0,False
145,Numerati. Twetch#: @1033@MirakhorHassan,Replying to @Philsabang$eth investors are getting the bill for the bailout.,0,0,0,False
146,Brave New Coin@bravenewcoin,#Ethereum Classic Price: USD $1.26 #ETC http://ow.ly/QXxZ303j19Q,1,3,1,False
154,Blockgeeks@Blockgks,How Will #Blockchain Change Banking? How Won't It? http://snip.ly/a2ci1 #Ethereum #Bitcoin,0,0,0,False
155,Ash Egan@AshAEgan,"Commentary around Accenture's #blockchain whitepaper in ""Redactable #Bitcoin"" by @eiaine http://buff.ly/2d4WEvz #ethereumRedactable BitcoinUpdate: I made some redactions corrections. Bitcoin people frequently criticize banks for claiming to build blockchains while discarding proof-of-work, so here comes Accenture with their own versio…elaineou.com",0,0,0,False
157,Coinstats@coinstats,"Ethereum Classic - ETC
Price: $1.26211
Change in 1h: +0.77%
Market cap: $106211706.0
Ranking: 6
#Ethereum Classic #ETC",0,0,0,False
158,Coinstats@coinstats,"Ethereum - ETH
Price: $13.2828
Change in 1h: +-1.17%
Market cap: $1118394914.0
Ranking: 2
#Ethereum #ETH",0,0,0,False
159,OpenLedger@OpenLedgerDC,Check out New #VIDEO @BeyondVoidGame of their #ICO starting on the 1st of November #gamedev #blockchain #ethereum http://buff.ly/2cvLU6C,2,2,0,False
160,Mat Smith@randsfinance,"Replying to @robustus and @masonic_tweetsSo then you should like $ETH, $XCP, $BTS, $NXT, etc?  All required to create, some required for execution?",1,0,0,False
163,Ameer Rosic@AmeerRosic,Why Latin American economies are turning to #bitcoin http://snip.ly/mtab3 #blockchain #ethereum,0,0,0,False
165,AltcoinLive bot@AltcoinLiveBot,updated $ETH buywall 11.0btc @ 0.02195935 http://altcoinlive.com/bittrex-eth-btc #altcoinlive (change -0.00006112),0,0,0,False
166,Lex@LexSokolin,What better place for biz suits and hoodies to mix and talk future than #ethereum #devcon2. Wish I were there!9 Must-Watch Talks at Ethereum's Big Developer Event - CoinDeskHeading to Devcon2 yourself or watching the livestream? Here’s our round-up of the events on our schedule.coindesk.com,0,0,0,False
167,Alberto Jauregui | esoteRICK.eth @DisruptBanksy,http://ift.tt/2curj2R Coinbase CEO Armstrong: Ethereum Scaling Better Than Bitcoin - CryptoCoinsNews #ethereum #ether,1,0,0,False
169,Sean@seandotau,#Ethereum Devs Applaud the Audience at #devcon2 Closing http://buff.ly/2cRmSQo #blockchain,0,0,0,False
170,Brian Ahier@ahier,#ethereum via @ZDNet ~ @Microsoft delivers #Bletchley 1.0 @Azure #blockchain as service middleware http://zd.net/2cS3CRa,2,0,0,False
171,BigAl@BigAl_crypto,"$ETH Looks like the devcon2 hype has ended, LOL",2,0,0,False
172,Alexander Metz@smidge,#IPFS' Filecoin to be built on #Ethereum is another example that important #blockchain projects/devs are shifting away from #Bitcoin,1,0,0,False
173,Crypto-miner@Cryptominer1,"https://reddit.com/r/ethereum/comments/53u5zk/bit_bastion_seastead_will_house_1000_libertarians/… wonder if this would be true... live in international waters near US in a ship that use #ethereum as currencyBit Bastion Seastead will house 1,000+ libertarians and...Posted in r/ethereum by u/CryptoDawn • 18 points and 9 commentsreddit.com",1,0,0,False
174,BlockchainLUX@blockchainLUX,#ethereum #devcon2 report by @DavidBurela https://davidburela.wordpress.com/2016/09/20/devcon2-report-day-1/… great reporting!DEVCON2 report: Day 1Link roundup Devcon day 0 Devcon day 1 Devcon day 2 Devcon day 3 Blockchain summit – demo day Blockchain summit – Day 1 Reddit thread  Steemit post  Photo album These are my notes from …davidburela.wordpress.com,1,0,0,False
175,3esmit.stateofus.eth@3esmit,"Going to Joinville in WeThinkSmart 1st. conference about collaborative #economy, smart & human cities to talk about #ethereum & #blockchain.",1,0,0,False
176,AltcoinLive bot@AltcoinLiveBot,updated $ETH buywall 11.2btc @ 0.02230001 http://altcoinlive.com/bittrex-eth-btc #altcoinlive (change 0.00018000),0,0,0,False
177,Ethereum UAE@Ethereum_UAE,Roger Ver on Bitcoin Scalability:  Two Bitcoins Are Better Than One http://ift.tt/2cDvAPf #Ethereum,0,0,0,False
178,AltcoinLive bot@AltcoinLiveBot,updated $ETH buywall 11.1btc @ 0.02212001 http://altcoinlive.com/bittrex-eth-btc #altcoinlive (change 0.00005673),0,0,0,False
179,AltcoinLive bot@AltcoinLiveBot,updated $ETH buywall 11.0btc @ 0.02206328 http://altcoinlive.com/bittrex-eth-btc #altcoinlive (change 0.00005607),0,0,0,False
180,Faith Emmanuel@residualbitcoin,http://Curso.Solar  Training in renewable energy based on #ethereum #hackethercamp https://hack.ether.camp/idea/cursosolar--training-in-renewable-energy-based-on-ethereum…  …,0,0,0,False
181,BitcoinAgile@bitcoinagile,http://Curso.Solar  Training in renewable energy based on #ethereum #hackethercamp https://hack.ether.camp/idea/cursosolar--training-in-renewable-energy-based-on-ethereum…,1,0,0,False
182,ether-camp@CampEther,Seen on #hackethercamp https://hack.ether.camp/idea/cursosolar--training-in-renewable-energy-based-on-ethereum… #ethereum,1,0,0,False
183,Cryptiv@Cryptiv,Thomson Reuters Demos New #Ethereum Blockchain Use Cases - http://ow.ly/G2Vk304qcSW,1,0,0,False
184,Blockgeeks@Blockgks,25 GENIUSES WHO ARE CREATING THE FUTURE OF BUSINESS http://snip.ly/avrq9 #Blockchain #Ethereum,1,0,0,False
185,SingularDTV@SingularDTV,#SingularDTV is pleased to release the summary overview for our #Korean followers! http://bit.ly/2cmIBMg #decentralize #ethereum #korea,5,6,0,False
186,Alberto Jauregui | esoteRICK.eth @DisruptBanksy,http://ift.tt/2cL9WxY Ethereum Devs Applaud the Audience at Devcon's Closing - CryptoCoinsNews #ethereum #ether,0,0,0,False
187,Coinstats@coinstats,"Ethereum Classic - ETC
Price: $1.25128
Change in 1h: +-0.65%
Market cap: $105298622.0
Ranking: 6
#Ethereum Classic #ETC",0,0,0,False
188,Coinstats@coinstats,"Ethereum - ETH
Price: $13.4465
Change in 1h: +-1.02%
Market cap: $1132158589.0
Ranking: 2
#Ethereum #ETH",0,0,0,False
189,Malte Lantin@MalteLantin,Replying to @MalteLantinYou can find a walk-through for the template here: http://j.mp/2d9xDuS #lasttweet #Ethereum #Bletchley #AzureBrowse code samplesGet started with Microsoft developer tools and technologies. Explore our samples and discover the things you can build.docs.microsoft.com,2,1,0,False
193,jack.cargox.eth@jakamele,"I wonder if #ethereum users who invested in #dao and almost got burned, will find guts to invest again. #ICONOMI will pay weekly dividends!",0,0,0,False
194,Ethereum SE@StackEthereum,"Would ""Clearing"" Blocks Diminish the Size Of The Blockchain? http://ethereum.stackexchange.com/questions/8777/would-clearing-blocks-diminish-the-size-of-the-blockchain… #ethereum #blockchain #evm #scalability #datadir",0,0,0,False
195,Crypto Games@Crypto_Games,New round of #ethereum lottery in few hours! https://crypto-games.net/lottery/ethereum… #lotto,1,0,0,False
197,Kyle Stargarden@KyleSt4rgarden,"#AI says ""Ok, I will #destroy all #humans"" #robotics @hansonrobotics @BostonDynamics #deeplearning #Machines #robot #fintech #ethereum #make",2,0,0,False
198,Hotep ntel Specialist @AgentHotep,"Replying to @UncleHotep @handymayhem and @YouTubebruh, you hear what Farrakhan said?  WOW #Ether http://dailycaller.com/2016/09/20/farrakhan-obama-favors-israel-and-gays-over-blacks-video/…",0,0,0,False
203,Ethereum Monkey@EthMonkey,Ethereum Devs Applaud the Audience at Devcon's Closing #ethereum https://cryptocoinsnews.com/ethereum-devs-applaud-audience-devcons-closing/…,0,0,0,False
204,CoinGecko@coingecko,The latest Ethereum price is USD 13.55. For historical #Ethereum price charts - http://buff.ly/2d4OiUD,0,0,0,False
205,/r/Ethereum@r_Ethereum,DEVCON2 report: Day Three - Final day http://bit.ly/2cRdZ9x #Ethereum,1,0,0,False
206,/r/Ethereum@r_Ethereum,"Bit Bastion Seastead will house 1,000+ libertarians and entrepreneurs. The first true seastead powe... http://bit.ly/2dhAYbZ #Ethereum",0,0,0,False
207,/r/Ethereum@r_Ethereum,"EtherDelta -- Decentralized Exchange for Ethereum Tokens - Chicago Ethereum Meetup (Chicago, IL) http://bit.ly/2cReWyx #EthereumEtherDelta -- Decentralized Exchange for Ethereum Tokens - Chicago...Posted in r/ethereum by u/frenchhoudini • 28 points and 1 commentreddit.com",0,0,0,False
208,/r/Ethereum@r_Ethereum,Blockchain Energy P2P sharing project Share&Charge going into live Beta http://bit.ly/2cRfq7E #EthereumBlockchain Energy P2P sharing project Share&Charge going into live...Posted in r/ethereum by u/Ursium • 24 points and 10 commentsreddit.com,0,0,0,False
209,/r/Ethereum@r_Ethereum,"ConsenSys's State Change hot from Shanghai. http://TheRudimental.com talks about using Weifund, Board... http://bit.ly/2dhBCWV #EthereumConsenSys's State Change hot from Shanghai. TheRudimental.com...Posted in r/ethereum by u/TheRudimental • 11 points and 3 commentsreddit.com",0,0,0,False
210,AltcoinWeekly@altcoinweekly,The latest Ethereum price is USD 13.55. For historical #Ethereum price charts - http://buff.ly/2d4OB1R,1,1,0,False
211,Alex Jiménez@RAlexJimenez,.@thomsonreuters Demos New #Ethereum #Blockchain Use Cases http://bit.ly/2cPo7j3 via @CoinDesk #fintech #in,1,0,0,False
213,John Galt@_J0hnGalt_,#ICONOMI = new economy! Become ICONOMI shareholder $ICN now http://ico.iconomi.net @iconominet #blockchain #cryptocurrency #ether #bitcoin,1,1,0,False
214,Faith Emmanuel@residualbitcoin,#ethereum Devs Applaud the Audience at Devcons Closing - CCN: Financial #bitcoin & #Devcon2 http://bitcoinagile.com/851808/ethereum-devs-applaud-the-audience-at-devcons-closing-ccn-financial-bitcoin-cryptocurrency-news_stream… …,0,0,0,False
215,Earn Adder@EarnAdder,"We've added more payment options for you. Get paid with #AmazonGiftCards #Bitcoin #Dogecoin #Ethereum, #EthereumClassic, #Litecoin #Peercoin",1,3,1,False
216,Ameer Rosic@AmeerRosic,How Will #Blockchain Change Banking? How Won't It? http://snip.ly/a2ci1 #Ethereum #Bitcoin,0,0,0,False
217,BitcoinAgile@bitcoinagile,#ethereum Devs Applaud the Audience at Devcons Closing - CCN: Financial #bitcoin & #Devcon2 http://bitcoinagile.com/851808/ethereum-devs-applaud-the-audience-at-devcons-closing-ccn-financial-bitcoin-cryptocurrency-news_stream…,2,0,0,False
218,TrustForums@TrustForums,Want latest news about #Bitcoin #Faucets?Come here and join latest faucets http://goo.gl/cbjH9h #Altocin #ethereum #blockchain #secure,0,0,0,False
219,Blockgeeks@Blockgks,Will #Blockchain Affect Your Practice or Firm? http://stfi.re/ojaplrp #Bitcooin #Ethereum,1,2,0,False
220,Coinstats@coinstats,"Ethereum Classic - ETC
Price: $1.26129
Change in 1h: +1.36%
Market cap: $106139432.0
Ranking: 6
#Ethereum Classic #ETC",0,0,0,False
221,Coinstats@coinstats,"Ethereum - ETH
Price: $13.586
Change in 1h: +-0.26%
Market cap: $1143886262.0
Ranking: 2
#Ethereum #ETH",0,0,0,False
222,Ethereum Price@EthereumPrice_,"#Ethereum: Ether Price Index
1 ETH =0.022739Ƀ XBT = $13.599250 USD
Today: -3.78%⬇︎ Last 24h: -0.16%⬇︎
https://ethereum-price.com",0,0,0,False
223,Olivier Chapiteau@o_chapiteau,"21Sep2016 18:00 UTC #Ether #Blockchain status - Block height @ 2,301,560 - 10,220 unconfirmed tr. - Last fork height @ 2,301,525",1,0,0,False
224,Olivier Chapiteau@o_chapiteau,21Sep2016 18:00 UTC #Ethereum live spots - #Ether @ 13.56874 $ - #EtherClassic @ 1.25795 $,0,0,0,False
225,ETHNews@ETHNews_,"#Devcon2, Day Three Finishes up with Strong Enterprise Focus: To the #Moon http://ow.ly/d1xc304qRlR #Ethereum",1,3,0,False
227,Djason Unchained@fcborca,"Banco Santander #ETH Token to digitilize cash on top of #ethereum #blockchain ,Top Nasdaq security expert left to work for @ethereumproject",1,0,0,False
228,Bitcoin@crypto_bitcoins,When a Blockchain Isn?t a Blockchain https://goo.gl/LRp1kJ #blockchain #crypto #bitcoin #eth #btc,0,0,0,False
229,Cointon@CointonDotCom,When a Blockchain Isn?t a Blockchain https://goo.gl/LRp1kJ #blockchain #crypto #bitcoin #eth #btc,0,0,0,False
230,rssbtc.com@rssbtc,"Thomson Reuters Demos New Ethereum Blockchain Use Cases - http://bit.ly/2cRNUWd
#fintech #digital #network #ethereum",1,1,0,False
231,MoneySentry@MoneySentry,#Santander Just Announced Plans to Launch a #Blockchain Token #DigitalCurrency http://futurism.com/spanish-bank-giant-santander-looks-to-blockchain-as-banking-future/… via @Futurism #Ethereum #DigitalCash,1,0,0,False
232,Btc_social@btc_social,Want latest news about #Bitcoin #Faucets?Come here and join latest faucets http://goo.gl/cbjH9h #Altocin #ethereum #blockchain #secure,1,0,0,False
233,laughncow@laugncow,Replying to @CryptoBull and @Crypto_Godbecause now we realize no other coins are needed.  All can be done on #eth,1,0,0,False
234,CoinIdol@CoinIdol,"DevCon2 Fueling ETH Rallies, ETC Remains Flat https://coinidol.com/devcon2-fueling-eth-rallies-etc-remains-flat/… #Ethereum #ETH #ETC #Devcon #Cryptocurrency #Altcoin",3,1,0,False
235,Arnold@arnold_arbtc,Mining #ethereum for great profit.,0,0,0,False
236,DecentralizedCapital@Decen_Capital,"Learn how DC is bringing the USD, EUR and JPY to #Ethereum today (9/22) at Demo Day in #Shanghai: http://bit.ly/2cufR7r #devcon2 #bitcoin",1,0,0,False
237,Crypto Price Ticker@TickerCrypto,"#Ethereum #ETH Rank:2 Last:฿0.02277891(-0.432%) High:Buy Instantly! on  Low:฿0.02391334 Vol:฿43,829 Market Cap:฿1,917,864 / $1,139,39...",0,0,0,False
238,Ameer Rosic@AmeerRosic,25 GENIUSES WHO ARE CREATING THE FUTURE OF BUSINESS http://snip.ly/avrq9 #Blockchain #Ethereum,2,0,0,False
239,Faith Emmanuel@residualbitcoin,DEVCON2 report: Day 3  Final day #Ethereum #DEVCON https://davidburela.wordpress.com/2016/09/22/devcon2-report-day-3-final-day…  #ResidualBitcoin,0,0,0,False
240,bitcoin new's@jagga_dakku004,Want latest news about #Bitcoin #Faucets?Come here and join latest faucets http://goo.gl/cbjH9h #Altocin #ethereum #blockchain #secure.,0,0,0,False
241,BitcoinAgile@bitcoinagile,DEVCON2 report: Day 3  Final day #Ethereum #DEVCON https://davidburela.wordpress.com/2016/09/22/devcon2-report-day-3-final-day…,1,0,0,False
243,bitcoin new's@jagga_dakku004,Want latest news about #Bitcoin #Faucets?Come here and join latest faucets http://goo.gl/cbjH9h #Altocin #ethereum #blockchain #secure,0,0,0,False
244,CAPSOL@CAPSOL2,to increase #democracy & #quality #WELS will be minted in a voting process rather than for #particiaption yay #decentralization #capsol #eth,1,0,0,False
246,CryptoPortfolio@EthereumRussian,"Shanghai Blockchain Summit detailed agenda. Looking at the projects attending,it will be very important for $ETH http://blockchainweek2016.org/schedule_en.pdf",0,0,0,False
247,Joseph Stuhlman@JStuhlman,"The Tatiana Show: Ryan Singer, Brian Sovryn & David Wachsman https://youtu.be/nhqzPlHEt1Y via @YouTube
#bitcoin #steemit #ethereum #poloniexThe Tatiana Show: Steemit Edition with Ned Scott, Dan Larimer, Brian...Tatiana and Josh interview Brian Sovryn, Ryan Singer and Ned Scott & Dan Larimer of SteemitToday's show is all about Steemit but specifically the definition ...youtube.com",0,0,0,False
248,RentARocker@RentARocker,"Replying to @CryptoBull and @Crypto_GodIs it too late to change my vote from soon to #rekt?  Good time to diversify imho, $eth $etc #hodl ers should check out $burst.",1,0,0,False
249,Randy Hilarski@RandyHilarski,WeAreChange NYC & LA make John D. Rockefeler IV run fo... http://slninja.com/ipkv #Bitcoin #Ethereum #CryptoCurrency,9,1,0,False
250,Liza Avramenko@avrliza,I'm delighted to see more and more people from Wallstreet coming into the #crypto space http://coindesk.com/nasdaq-veteran-ethereum-foundation-security-lead/… #ethereumNasdaq Veteran Joins Ethereum Foundation as Security Lead - CoinDeskNasdaq information security specialist Martin Holst Swende has officially joined the Ethereum Foundation as its full-time security lead.coindesk.com,1,0,0,False
251,Crypto₿ull@CryptoBull,"So #devcoin2 is over, classic H&S pattern - why hasn't $ETH dumped yet?Soon™28.3%Dump?? Moon baby28.3%Holding for devcon38.3%Rekt in T-3...2...35%60 votes·Final results",2,2,0,False
252,Blockgeeks@Blockgks,"a16z Podcast: #Ethereum, App Coins, and Beyond – http://snip.ly/honoq #Blockchain",1,0,0,False
254,Coinstats@coinstats,"Ethereum Classic - ETC
Price: $1.24515
Change in 1h: +0.06%
Market cap: $104778881.0
Ranking: 6
#Ethereum Classic #ETC",0,0,0,False
255,Coinstats@coinstats,"Ethereum - ETH
Price: $13.623
Change in 1h: +-0.12%
Market cap: $1146977840.0
Ranking: 2
#Ethereum #ETH",0,0,0,False
256,Decentral@DECENTRALca,".@jaxx_io will be adding @litecoin soon! http://ow.ly/Vlut304qJzz #blockchain #cryptocurrency #bitcoin #ethereum #dashJaxx Blockchain Wallet to Add App Store-Approved Litecoin to All Platforms | Finance MagnatesAfter Apple demanded Jaxx remove its support for Dash from the iOS app, the wallet is adding Litecoin.financemagnates.com",11,7,0,False
257,Crypto₿ull@CryptoBull,Replying to @AceOfWallStreetThe new #Ethereum chain?,1,0,0,False
258,Cryptico@_Cryptico_,Replying to @Coinigy @CRInvestor and @alex_sterk$btc $waves $eth $etc,0,0,0,False
259,Faisal Khan@babushka99,#Microsoft marches further into #Ethereum #Blockchain as a Service with 'Cryplets' and 'Enclaves' http://bit.ly/2cnVY3z,0,0,0,False
260,Ethereum SE@StackEthereum,Does A Contract Still Exist On The Blockchain After Gas Depletion? http://ethereum.stackexchange.com/questions/8774/does-a-contract-still-exist-on-the-blockchain-after-gas-depletion… #ethereum #blockchain #gas #evm #outofgas,0,0,0,False
261,Mr. ฿oh@CryptoBoh,#ETH megamoon upon us? ... check these out https://tradingview.com/x/W5Te31cx/ .. vs .. https://tradingview.com/x/CY0asQLr/  Shout out to @TheDude_BTC nice charts,1,1,0,False
262,Alan Draguilow@adraguilow,#Microsoft Offers #Cookie-Cutter #Ethereum #Blockchain Deployment http://klou.tt/1v8gle1gc0z5u,3,0,0,False
263,Ross Blankenship @RossBlankenship,@HiroMarleyG.  You are absolutely correct.  The future of #Ethereum is massive and awesome to see Microsoft leading the way.   https://twitter.com/pete_rizzo_/status/778400754394599424…This Tweet is unavailable.,0,0,0,False
264,Gerald de Jong@fluxe,"What other alt coins should move to #ethereum?Quote TweetPéter Szilágyi@peter_szilagyi · Sep 21, 2016Holy shit! #ipfs is deploying #filecoin on top of #Ethereum!!!!!!!",1,0,0,False
265,Anthony Di Iorio@diiorioanthony,#Microsoft marches further into #ethereum BaaS with 'Cryplets' and 'Enclaves' https://google.com/url?rct=j&sa=t&url=http://www.ibtimes.co.uk/microsoft-marches-further-into-ethereum-blockchain-service-cryplets-enclaves-1582440&ct=ga&cd=CAEYAyoUMTQ5MTc1NTU2NDkxNzc0MDM5NjUyGjk4YjY4ZDExNTYxOTgzZTk6Y29tOmVuOlVT&usg=AFQjCNHIlXw_jULfPSJnljjpSy09ek8AsA…,8,6,0,False
266,Brave New Coin@bravenewcoin,#Ethereum Classic Price: USD $1.24 #ETC http://ow.ly/QXxZ303j19Q,1,1,0,False
267,Blockgeeks@Blockgks,The #Blockchain is the new Google http://snip.ly/7tjfx #Ethereum #Bitcoin #Cryptocurrency,0,0,0,False
268,Coinstats@coinstats,"Ethereum Classic - ETC
Price: $1.24521
Change in 1h: +-0.4%
Market cap: $104782280.0
Ranking: 6
#Ethereum Classic #ETC",0,0,0,False
269,Corner Coin@Corner_Coin,"#Ethereum Classic Price Technical Analysis – Is This Real Break? https://goo.gl/EA6GUU via @newsbtc #fintech #BitcoinEthereum Classic Price Technical Analysis – Is This Real Break?Ethereum classic price broke a short-term resistance, but this break cannot be encouraging until ETC/BTC closes back above 0.00208BTC.newsbtc.com",0,0,0,False
271,Blockchain Technologies@blocktechs,DevCon2: Ethereum Mist and how to build apps that are truly unstoppable #ethereum #blockchain http://ibtimes.co.uk/ethereum-mist-how-build-apps-that-are-truly-unstoppable-1582450…,1,0,0,False
272,torrentDAO @torrentDAO,"ConsenSys's State Change. We talk about using @Weifund, #Boardroom, and @Gnosis. https://soundcloud.com/consensys/state-change-28-troy-murray… #Ethereum #ConsenSys",24,19,1,False
274,Hello Crypto@HelloCrypto,.@IO_Coin Hey! Any ETA on the release of Chameleon? #iocoin #crypto #eth #lsk #bitcoin,1,0,0,False
275,ETHNews@ETHNews_,#Ether Sellers Protecting $14.00-20 Vs Dollar #Ethereum #ETH http://ow.ly/HraP304qytu,1,0,0,False
276,Keesup Choe@keesupx,"My #Ethereum #devcon2 talk ""Import Geth: Ethereum from Go and beyond!"" :D http://ln.is/G4TaA #g... by @ethereumproject via @c0nvey",1,0,0,False
277,Nathan Elliott@n82point0,Discussions at #devcon2 in #Shanghai may cause the market to fluctuate just a tad. #blockchain #ethereum #bitcoin #btc #ether,1,0,0,False
279,AltcoinLive bot@AltcoinLiveBot,new $ETH buywall 11.2btc @ 0.02247745 http://altcoinlive.com/bittrex-eth-btc #altcoinlive,0,0,0,False
280,AltcoinLive bot@AltcoinLiveBot,removed $ETH buywall 11.4btc @ 0.02265086 http://altcoinlive.com/bittrex-eth-btc #altcoinlive,0,0,0,False
281,Faith Emmanuel@residualbitcoin,Join the Global #ethereum Consultant DAO #devcon2 https://docs.google.com/forms/d/e/1FAIpQLSfAbWjMgQzRtX33KBGmiQ7wKUbzg82Uq4BUoDIWXV9Xnplpxg/viewform…  #ResidualBitcoin,0,0,0,False
282,BitcoinAgile@bitcoinagile,Join the Global #ethereum Consultant DAO #devcon2 https://docs.google.com/forms/d/e/1FAIpQLSfAbWjMgQzRtX33KBGmiQ7wKUbzg82Uq4BUoDIWXV9Xnplpxg/viewform…,1,2,0,False
283,Yacine Teraï@startupyacine,https://block-chain.me/2016/09/16/apple-introduce-blockchain-in-ios-10/… #circlepay   Introduce #Blockchain #socialpayment #ethereum,1,0,0,False
284,Roland K@rolandk,Join the independent ETHEREUM CONSULTANT DAO: https://docs.google.com/forms/d/e/1FAIpQLSfAbWjMgQzRtX33KBGmiQ7wKUbzg82Uq4BUoDIWXV9Xnplpxg/viewform… #devcon2 #Ethereum @Blockgks @ETHNews_ @BitcoinMagazine @ethereumita,1,0,0,False
285,Daniele@Daniele08135824,Free #Ethereum every 5 minutes https://cryptosource.net/free-ethereum/?r=a5D7yhRxrD… #Ethereum via @CryptoSourceHQ,2,1,0,False
286,Colin McDowell@ilooklikehim,Lots of good news for #Ethereum today...,1,1,0,False
287,trevor taylor@disabledcowboy,Replying to @profits_bitcoinwith @coinbase you can convert your #bitcoin to #ethereum,1,0,0,False
288,/r/Ethereum@r_Ethereum,I am going to dump ETC for good. http://bit.ly/2cV1s1l #Ethereum,0,0,0,False
289,3esmit.stateofus.eth@3esmit,Replying to @3esmit@EthMonkey This is incredible! @Microsoft @Azure @dotnet being pionner in #blockchain #publicledger #cryptocurrency #ethereum #technology,0,0,0,False
290,David Liam@crazydaveorama,#Microsoft's #Bletchley #Blockchain Project Enters Next Phase http://bit.ly/2cOIRHN via @CoinDesk #Ethereum #Azure,0,0,0,False
300,David Liam@crazydaveorama,#ThomsonReuters Demos New #Ethereum #Blockchain Use Cases http://bit.ly/2cPo7j3 via @CoinDesk,0,0,0,False
301,Faith Emmanuel@residualbitcoin,100% REAL and authentic products guaranteed by #blockchain #ethereum #hackethercamp https://hack.ether.camp/idea/100-real-and-authentic-products-guaranteed-by-blockchain…  #Resi…,0,0,0,False
302,BitcoinAgile@bitcoinagile,100% REAL and authentic products guaranteed by #blockchain #ethereum #hackethercamp https://hack.ether.camp/idea/100-real-and-authentic-products-guaranteed-by-blockchain…,1,0,0,False
303,ether-camp@CampEther,Seen on #hackethercamp https://hack.ether.camp/idea/100-real-and-authentic-products-guaranteed-by-blockchain… #ethereum,2,0,0,False
304,/r/Ethereum@r_Ethereum,"With new Jaxx release, Ethereum is now on iOS 10. Industry compatibility issue solved. http://bit.ly/2cQI8Wp #Ethereum",0,0,0,False
305,/r/Ethereum@r_Ethereum,Where can I find videos of the Devcon 2 presentations? http://bit.ly/2cQGO5U #EthereumWhere can I find videos of the Devcon 2 presentations?Will video coverage of the event be released at some point? So far I've seen the uPort demo https://www.periscope.tv/w/1ZkJzWAwqwLxv and the...reddit.com,0,0,0,False
306,/r/Ethereum@r_Ethereum,"232 transactions, 219 registered attendees, 0.435 ether in gas costs, 1 very tired Piper. What will... http://bit.ly/2dh76fM #Ethereum",0,0,0,False
307,/r/Ethereum@r_Ethereum,From shore to plate: Tracking tuna on the blockchain http://bit.ly/2cQH6d7 #EthereumFrom shore to plate: Tracking tuna on the blockchainPosted in r/ethereum by u/Xanesghost • 21 points and 5 commentsreddit.com,0,0,0,False
308,Timo Ξberhard@ZhuBajie72,The Situation On The $ETHEUR Chart... #Ethereum #Ether $ETH @krakenfx >>> https://tradingview.com/chart/ETHEUR/7W5OGYJS-The-Situation-On-The-ETHEUR-Chart/…,0,0,0,False
309,SingularDTV@SingularDTV,"With #devcon2 in it's final stages, has #Ethereum started to develop a public image? http://clicky.me/87zo",9,5,0,False
310,⛧ God of Gaming ⛧@TheGodofGamez,"Why worry about tomorrow, when today is all we have? $ETH",1,0,0,False
311,iExec@iEx_ec,"The warmest Smart Contract literally ! Talk at the Devcon2 today, had great feedback. Follow us !  #devcon2 #iExec #ethereum",2,0,0,False
312,Cryptiv@Cryptiv,"Repost - #Ethereum, #Bitcoin, and radical uncertainty - Cryptiv Medium Blog -Ethereum, Bitcoin, and radical uncertaintyWhat a time to be alive. The blockchain dramas that have unfolded over the last year or so have never failed to amuse.blog.cryptiv.com",1,1,0,False
313,Blockgeeks@Blockgks,#Airbnb just acquired a team of bitcoin and #blockchain experts http://snip.ly/66ft0 #Ethereum,1,0,0,False
314,CREDITMAX@maximillion50,"Replying to @maximillion50 and @BillNighyActorP2P local office staff #cryptocurrency deliveryman min/wage exchange, plus smart #ethereum contracts from #atscanteen ipcctv",0,0,0,False
315,Coinstats@coinstats,"Ethereum Classic - ETC
Price: $1.24922
Change in 1h: +0.55%
Market cap: $105118087.0
Ranking: 6
#Ethereum Classic #ETC",0,0,0,False
316,Coinstats@coinstats,"Ethereum - ETH
Price: $13.6431
Change in 1h: +-0.78%
Market cap: $1148633248.0
Ranking: 2
#Ethereum #ETH",0,0,0,False
317,Ethereum Price@EthereumPrice_,"#Ethereum: Ether Price Index
1 ETH =0.022737Ƀ XBT = $13.579000 USD
Today: -3.79%⬇︎ Last 24h: +1.10%⬆︎
https://ethereum-price.com",0,0,0,False
318,Shannon Steele@digifinancegirl,#Microsoft marches further into #Ethereum #Blockchain as a Service | via @IBTimesUK http://klou.tt/qd36va5zs2c2,1,0,0,False
319,myriadcoins.tk@myriadcoins,"ideas about #Hashimoto #PoW?""think of #Bitcoin's PoW ... 64 random transact. selected from #blockchain"" https://redd.it/53rucz cc #ethereumAnyone heard of Hashimoto PoW?http://diyhpl.us/~bryan/papers2/bitcoin/meh/hashimoto.pdf Basically, think of Bitcoin's PoW, but instead of finding a hash that's less than a...reddit.com",0,0,0,False
320,Faith Emmanuel@residualbitcoin,Coinbase CEO Armstrong: #ethereum Scaling Better Than #bitcoin http://bitcoinagile.com/850744/coinbase-ceo-armstrong-ethereum-scaling-better-than-bitcoin_stream… #ResidualBitcoin,2,0,0,False
321,BitcoinAgile@bitcoinagile,Coinbase CEO Armstrong: #ethereum Scaling Better Than #bitcoin http://bitcoinagile.com/850744/coinbase-ceo-armstrong-ethereum-scaling-better-than-bitcoin_stream…,2,0,0,False
322,AltcoinLive bot@AltcoinLiveBot,updated $ETH buywall 12.1btc @ 0.02269697 http://altcoinlive.com/bittrex-eth-btc #altcoinlive (change 0.00000267),0,0,0,False
323,Timo Ξberhard@ZhuBajie72,Next #LONG Opp Incoming... #Ethereum #Ether $ETH $ETHXBT @krakenfx >>> https://tradingview.com/chart/ETHXBT/NmJBe44V-Next-Long-Opp-Incoming/…,0,0,0,False
324,Johanna S@Mc_Nerdic,#ethereum #ether Blockchain Smart Contracts Need a New Kind of Due Diligence: Two legal exper... http://bit.ly/2cUUfPa #SmartContracts,0,0,0,False
325,Zachary Larson@zacharylarson,"Replying to @PelleBBeing passionate about #Lisp   (esp. #Clojure) and #blockchain (esp. #ethereum), I'd love to know more.",1,1,0,False
326,Bitcoin@crypto_bitcoins,Top 20 Global Blockchain Technology Companies https://goo.gl/PHQJJE #bitcoin #crypto #blockchain #btc #eth,0,0,0,False
327,Cointon@CointonDotCom,Top 20 Global Blockchain Technology Companies https://goo.gl/PHQJJE #bitcoin #crypto #blockchain #btc #eth,0,0,0,False
328,ETH Zurich@ETH_en,"Study by @mpib_berlin, #ETH et al. investigates crowd behavior under stress in a virtual environment: http://ow.ly/6BBt304qmR9",2,0,0,False
334,Stanley Walker@sharingsuccess2,"Time is ticking, The #blockchain is about to strike. GET YOUR COINS UP #Bitcoin #investing #stocks #ethereum",3,0,0,False
335,M A T T H U N T Ξ R@matthunter,@Coinbase’s Armstrong: #Ethereum Scaling Better Than #Bitcoin http://disq.us/t/2dcz45g,0,0,0,False
336,3esmit.stateofus.eth@3esmit,#Ethereum with the #Descentralized #Economy and #SmartContracts empowers the upcoming #ParadigmShift of #Finance. http://adbusters.org/article/paradigm-shift/…,0,0,0,False
337,Faith Emmanuel@residualbitcoin,Nasdaq Vet Joins #ethereum Foundation #fintech #fintechinvest #Bitcoin http://finteknews.com/index.php/other-news/misc/item/566-nasdaq-vet-joins-ethereum-foundation…  #ResidualBitcoin,0,0,0,False
338,BitcoinAgile@bitcoinagile,Nasdaq Vet Joins #ethereum Foundation #fintech #fintechinvest #Bitcoin http://finteknews.com/index.php/other-news/misc/item/566-nasdaq-vet-joins-ethereum-foundation…,1,0,0,False
339,CL Taylor@DigitWealthNews,FintekNews-Nasdaq Vet Joins Ethereum Foundation http://goo.gl/7tUfy7 #fintech #fintechinvest #ethereum #Bitcoin #blockchain #DevCon2016,1,1,0,False
340,$KVM@KrimsonVnm,"Internet, why haven't you applied the #Ether instrumental to the Elizabeth Warren burning Wells Fargo video yet?",1,1,0,False
341,Coinstats@coinstats,"Ethereum Classic - ETC
Price: $1.24195
Change in 1h: +-0.37%
Market cap: $104504583.0
Ranking: 6
#Ethereum Classic #ETC",0,0,0,False
342,Coinstats@coinstats,"Ethereum - ETH
Price: $13.7667
Change in 1h: +0.41%
Market cap: $1159020080.0
Ranking: 2
#Ethereum #ETH",0,0,0,False
343,Golden Gateway@GoldenGatewayUS,Winklevoss Exchange Gemini to Launch Daily Bitcoin Auctions http://officialgoldengateway.blogspot.com/2016/09/winklevoss-exchange-gemini-to-launch_65.html… #ethereum,1,0,0,False
344,Blockgeeks@Blockgks,"Are there any examples of businesses using #blockchain well at the moment?
http://buff.ly/2d7YAPE #ethereum #startup #fintech",5,0,0,False
345,Emerging Behavior@emerge_behavior,@Bloomberg: Blockchain Company's Smart Contracts Were Dumb http://bloom.bg/2bGUule #blockchain #ethereum,0,0,0,False
354,TenaciousC@T3naciousC,"Replying to @ferdousbhaisais a fucking lot about the 'good intentions' of the banks... None, zero, zip, nada... Every crypto lover should drop $ETH",0,0,0,False
355,John Slazas@JSservices,#ethereum #trading $ETH NOW WHAT? IF #ETH is going to build on the recent strength THEN it will base above the 13.50 level and re-test 15.40,0,0,0,False
356,john shipman@JohnShipmanPwC,.@Santander using #ethereum to issue its own #cryptocurrency (?) http://coindesk.com/santander-vies-become-first-bank-issue-digital-cash-blockchain/…,3,2,0,False
357,AltcoinLive bot@AltcoinLiveBot,new $ETH buywall 11.4btc @ 0.02270198 http://altcoinlive.com/bittrex-eth-btc #altcoinlive,0,0,0,False
358,CryptoRTs +  = @CryptoRTs,"@Synereo raises over $3 million to kill @Spotify
https://ihb.io/2016-09-21/news/synereo-raises-over-3-million-to-kill-spotify-28850…
#ethereum #startup #equitycrowdfunding #currencywatch #economy",1,0,0,False
359,AltcoinLive bot@AltcoinLiveBot,removed $ETH buywall 11.3btc @ 0.02269816 http://altcoinlive.com/bittrex-eth-btc #altcoinlive,0,0,0,False
360,Faith Emmanuel@residualbitcoin,Coinbase CEO Armstrong: #ethereum Scaling Better Than #bitcoin - CCN: Financial Bitcoin & http://bitcoinagile.com/84FE1F/coinbase-ceo-armstrong-ethereum-scaling-better-than-bitcoin-ccn-financial-bitcoin-cryptocurrency-news_stream… …,1,0,0,False
361,CrypT0preneur@twit2millions,Replying to @wwwMZ and @iconominetGreat booth at #Devcon2 #ethereum #ICO #blockchain in #Shanghai good luck!,2,0,0,False
362,tradeHud@TradeHud,http://tradehud.io Global #Cryptocurrency Index Starting today!! #btc #eth #monero #bircoin #ethereum More update on this week! #GCI,1,0,0,False
363,Mike E. Mars@MikeEMars,#Microsoft 's #Bletchley #Ethereum #ETH #Blockchain Project Enters Next Phase http://bit.ly/2cOIRHN via @CoinDesk,0,0,0,False
364,AltcoinLive bot@AltcoinLiveBot,updated $ETH buywall 11.3btc @ 0.02260803 http://altcoinlive.com/bittrex-eth-btc #altcoinlive (change 0.00013545),0,0,0,False
365,AltcoinLive bot@AltcoinLiveBot,updated $ETH buywall 11.2btc @ 0.02247258 http://altcoinlive.com/bittrex-eth-btc #altcoinlive (change 0.00005720),0,0,0,False
366,AltcoinLive bot@AltcoinLiveBot,updated $ETH buywall 11.2btc @ 0.02241538 http://altcoinlive.com/bittrex-eth-btc #altcoinlive (change -0.00095825),0,0,0,False
369,STΞFAAN PONNΞT@sponnet,Need test-ether for your #blockchain experiments ? Use our #Ethereum faucet at http://faucet.ma.cx:3000 - including REST #API #devon2,3,1,0,False
370,barile roby@carmineroberto1,Free #Ethereum every 5 minutes https://cryptosource.net/free-ethereum/?r=yoyF8s4laj… #Ethereum via @CryptoSourceHQ,0,0,0,False
371,Blockgeeks@Blockgks,10 Amazing Facts About #Bitcoin http://dld.bz/eNrfW #Blockchain #Cryptocurrency #Ethereum,0,0,0,False
373,Coinstats@coinstats,"Ethereum Classic - ETC
Price: $1.24656
Change in 1h: +-0.16%
Market cap: $104890954.0
Ranking: 6
#Ethereum Classic #ETC",0,0,0,False
374,Coinstats@coinstats,"Ethereum - ETH
Price: $13.6977
Change in 1h: +1.18%
Market cap: $1153193461.0
Ranking: 2
#Ethereum #ETH",0,0,0,False
375,Ethereum UAE@Ethereum_UAE,Winklevoss Exchange Gemini to Launch Daily Bitcoin Auctions http://ift.tt/2dj4vEY #Ethereum,1,0,0,False
376,Martin Storm Larsen@MrStormLars,"I just signed up to @ethstatus - an #ethereum #dapps browser for mobileStatus - Private, Secure CommunicationStatus brings the power of Ethereum into your pocket by combining a messenger, crypto-wallet, and Web3 browser.status.im",0,0,0,False
377,Johanna S@Mc_Nerdic,"#ethereum #ether Winklevoss Exchange Gemini to Launch Daily Bitcoin Auctions: Gemini Trading,... http://bit.ly/2cJTCgC #SmartContracts",0,0,0,False
378,Blockgeeks@Blockgks,Our co-founders with @VitalikButerin at #devcon2 #blockchain #ethereum,4,2,0,False
379,kim macleod@bakerygirl9,"Get 3% off Ether Cloud Mining With Coupon Code - 8rRBkl

http://dld.bz/ePx6q
#ether #cloudmining #hashpower",0,0,0,False
380,indxio@indxio,#Russia Market Close || #Bitcoin: $595.96 | 535.89 EUR||  #Litecoin: 0.0032 BTC  || #Ethereum: 0.0228 BTC   || $BTC $LTC $ETH $RUB,0,0,0,False
381,Crypto_Krill@Crypto_Krill,"I just signed up to @ethstatus - an #ethereum #dapps browser for mobile https://status.im/?mwr=1219-bd204c29&mws=twitter… #devcon2 #DevCon2016 $eth $etcStatus - Private, Secure CommunicationStatus brings the power of Ethereum into your pocket by combining a messenger, crypto-wallet, and Web3 browser.status.im",3,0,0,False
382,Brave New Coin@bravenewcoin,#Ethereum Classic Price: USD $1.25 #ETC http://ow.ly/QXxZ303j19Q,1,0,0,False
383,Blockgeeks@Blockgks,The Death Of Charities: #Blockchain Technology To Replace Them? http://buff.ly/2cRvCVt #bitcoin #ethereum,0,0,0,False
384,Coinstats@coinstats,"Ethereum Classic - ETC
Price: $1.24971
Change in 1h: +1.9%
Market cap: $105154982.0
Ranking: 6
#Ethereum Classic #ETC",0,0,0,False
385,Coinstats@coinstats,"Ethereum - ETH
Price: $13.5431
Change in 1h: +-0.23%
Market cap: $1140167286.0
Ranking: 2
#Ethereum #ETH",0,0,0,False
386,Olivier Chapiteau@o_chapiteau,"21Sep2016 12:00 UTC #Ether #Blockchain status - Block height @ 2,300,071 - 9,763 unconfirmed tr. - Last fork height @ 2,300,066",0,0,0,False
387,Ethereum Price@EthereumPrice_,"#Ethereum: Ether Price Index
1 ETH =0.022561Ƀ XBT = $13.561270 USD
Today: -4.53%⬇︎ Last 24h: -0.32%⬇︎
https://ethereum-price.com",1,0,0,False
388,Olivier Chapiteau@o_chapiteau,21Sep2016 12:00 UTC #Ethereum live spots - #Ether @ 13.50631 $ - #EtherClassic @ 1.24916 $,1,0,0,False
389,Alejandro Sewrjugin@alesew23,"Majority of #Monero 3rd party #wallets vulnerable to theft, says #Security Advisory https://hacked.com/majority-monero-3rd-party-wallets-vulnerable-theft-says-security-advisory/… #Bitcoin #Ethereum #Digital",1,1,0,False
390,Ethereum SE@StackEthereum,How to estimate gas for a function without any input parameter? http://ethereum.stackexchange.com/questions/8768/how-to-estimate-gas-for-a-function-without-any-input-parameter… #ethereum #outofgas #gasestimate,0,0,0,False
391,Alexander Ainslie@AAinslie,"I just signed up to @ethstatus - an #ethereum #dapps browser for mobileStatus - Private, Secure CommunicationStatus brings the power of Ethereum into your pocket by combining a messenger, crypto-wallet, and Web3 browser.status.im",0,0,0,False
392,The Bitcoin Catalog@BTCcatalog,Replying to @BixinWallet @haobtc and @jcpToo bad I'm not interested in bitcoin anymore. #ethereum,0,0,0,False
393,notused@xsoarco,Thomson #Reuters Demos New #ethereum #blockchain Use Cases -  http://bit.ly/2cnNIR6 #fintech #tech,0,0,0,False
394,Scorpio_J@Scorpio__J,"#Ethereum #price surge is impressive against the #US #Dollar, but the traders need to be careful now as there is a #chance of a correction",1,0,0,False
395,Olivier Salomon@SalomonOli,Questions sur #Ethereum #devcon2 http://e-ducat.fr/2016-09-19-questions-sur-ethereum/…,0,0,0,False
396,/r/Ethereum@r_Ethereum,Vitalik: PoS is not suitable for gambling http://bit.ly/2cQ4kjD #EthereumVitalik: PoS is not suitable for gamblingUpdate: I no longer think this title is fair and I made a mistake. My sincere apologies. Please see...reddit.com,0,0,0,False
397,GX-Coin@gx_coin,What's driving up #bitcoin prices? These two big factors: http://ow.ly/EWJQ304lHQr #ethereum #cryptocurrency #blockchainTwo Big Factors Are Driving Up Bitcoin Prices - CoinDeskWhy is the price of BTC on the rise? Blame bullish market sentiment and low liquidity.coindesk.com,1,1,0,False
398,CloudPay@Nadia_Griffiths,Microsoft marches further into #Ethereum #Blockchain as a Service with 'Cryplets' and 'Enclaves'Microsoft marches further into Ethereum Blockchain as a Service with 'Cryplets' and 'Enclaves'Microsoft blockchain lead Marley Gray explains how Ethereum will reach enterprise in secure and scalable fashion.ibtimes.co.uk,0,0,0,False
399,CloudPay@Nadia_Griffiths,Thomson Reuters Demos New #Ethereum #Blockchain Use Cases http://ln.is/www.coindesk.com/7MMZj…,0,0,0,False
400,Alberto Jauregui | esoteRICK.eth @DisruptBanksy,http://ift.tt/2cQ2Qpv Microsoft Offers Cookie-Cutter Ethereum Blockchain Deployment - Finance Magnates #ethereum #ether,0,0,0,False
401,Faith Emmanuel@residualbitcoin,bitkupcom  FORECAST RESULTS EARN BITCOINS #ethereum #hackethercamp https://hack.ether.camp/idea/bitkupcom--forecast-results-earn-bitcoins…  #ResidualBitcoin,0,0,0,False
402,BitcoinAgile@bitcoinagile,bitkupcom  FORECAST RESULTS EARN BITCOINS #ethereum #hackethercamp https://hack.ether.camp/idea/bitkupcom--forecast-results-earn-bitcoins…,0,0,0,False
403,ether-camp@CampEther,Seen on #hackethercamp https://hack.ether.camp/idea/bitkupcom--forecast-results-earn-bitcoins… #ethereum,0,0,0,False
404,Blockgeeks@Blockgks,Could #Blockchain Technology Bankrupt Spotify? A Music Revolution http://buff.ly/2cWIfNM #ethereum #bitcoin,1,0,0,False
405,Young Yang@FreeNuts,"When I stopped short, both $eth and $xmr were falling down. #wtfQuote TweetYoung Yang@FreeNuts · Sep 20, 2016I shorted $ETH, $XMR and $FCT before going to sleep, and all of them were closed by an auto stop-loss when wakeup. #ThisIsPainful",1,1,1,False
406,NEWSBTC@newsbtc,#Ethereum price surge is impressive against the US #Dollar. http://bit.ly/2cQ0s1J,1,3,0,False
407,NEWSBTC@newsbtc,#Ethereum Classic Price Technical #Analysis – Is This Real Break?  http://bit.ly/2clJogn,1,2,0,False
408,Bitcoin Sportsbook @SportsbookBTC,"#Ethereum Price Technical Analysis – #ETH Overbought, Caution Ahead -… http://dlvr.it/MJWwbV #Ethereum #ETH",0,0,0,False
409,Crypto Trader Pro @CryptoTraderPro,"#Ethereum Price Technical Analysis – #ETH Overbought, Caution Ahead -… http://dlvr.it/MJWwZZ #Ethereum #ETH",0,0,0,False
410,Crypto Price Ticker@TickerCrypto,"#Ethereum #ETH Rank:2 Last:฿0.02339074(4.164%) High:Buy Instantly! on  Low:฿0.02391334 Vol:฿50,346 Market Cap:฿1,969,129 / $1,174,125,538.10",0,0,0,False
411,Yashu Gola@bitcoinwallah,"#Ethereum Price Technical Analysis – #ETH Overbought, Caution Ahead - NEWSBTC http://ow.ly/AsJv304pPjH #btc #usd",2,0,0,False
412,NEWSBTC@newsbtc,"#Ethereum Price Technical Analysis – #ETH Overbought, Caution Ahead - NEWSBTC http://ow.ly/AsJv304pPjH #btc #usd",1,0,0,False
413,Bitcoin Retweets@bitcoinbot121,"#Ethereum Price Technical Analysis – #ETH Overbought, Caution Ahead - NEWSBTC http://ow.ly/AsJv304pPjH #btc #usd",0,0,0,False
414,Ethereum SE@StackEthereum,"Not syncing due to ""unhandled trie error: missing trie node"" http://ethereum.stackexchange.com/questions/4245/not-syncing-due-to-unhandled-trie-error-missing-trie-node… #ethereum #mist #synchronization",1,0,0,False
415,ETHNews@ETHNews_,"From our CEO, ""After three days of Devcon2 I am more sure that this will change the world"". #devcon2 #ethereum",28,17,1,False
416,bitcoinking.de@CoinkingDe,"Retweeted Altcoinspekulant (@Altcoinspekulan):

Long #Ethereum again. Also because there are some interesting... http://fb.me/7FLlEIn5S",1,0,0,False
417,ETHNews@ETHNews_,"""Ethereum is [actually] winning in the enterprise space"" Victor Wong, @blockapps #devcon2 #ethereum #winning",13,7,0,False
419,Maksim@balance_ra,"Today we heard many times how corporations are looking for a way to leverage the #ethereum platform, created by these guys. #devcon2",2,0,0,False
422,Coinstats@coinstats,"Ethereum Classic - ETC
Price: $1.2342
Change in 1h: +-0.72%
Market cap: $103846440.0
Ranking: 6
#Ethereum Classic #ETC",0,0,0,False
423,Coinstats@coinstats,"Ethereum - ETH
Price: $13.8511
Change in 1h: +-1.06%
Market cap: $1166061340.0
Ranking: 2
#Ethereum #ETH",0,0,0,False
424,Bobe'bot@Bobe_bot,"1 #BTC = 599.2097 #CHF
1 #ETH = 14.2079 #CHF
1 #DOGE = 0.000229463767 #CHF
sources: @cryptonatorcom @hellobity",0,0,0,False
425,Ethereum SE@StackEthereum,Solidity events callback in nodejs http://ethereum.stackexchange.com/questions/8189/solidity-events-callback-in-nodejs… #ethereum #solidity #web3js,1,0,0,False
427,/r/Ethereum@r_Ethereum,I want to accept Ethereum on my online store. How can I do that? http://bit.ly/2cPQZYz #Ethereum,0,0,0,False
428,/r/Ethereum@r_Ethereum,Proposing the Satoshi Oath for developers http://bit.ly/2dghYe5 #EthereumProposing the Satoshi Oath for developersPosted in r/ethereum by u/b9lab-elias • 0 points and 16 commentsreddit.com,1,0,0,False
429,ETH Entrepreneur Club@ec_zurich,"Come find us at ETH main building and experience #VirtualReality ! 
#DreamitDoit #ETH #ethec @… https://instagram.com/p/BKnQ_ZqA9Lb/",2,0,0,False
430,Inspheer S.r.l.@inspheer,Last day of #devcon3 #ethereum conference,10,3,1,False
432,Jerome de Tychey @jdetychey,"""If you want to experience with #blockchain, #ethereum is the way to go""
Says Victor Wong from @blockapps
#devcon2",1,0,0,False
433,Peter Reitsma@preitsma,"I just signed up to @ethstatus - an #ethereum #dapps browser for mobileStatus - Private, Secure CommunicationStatus brings the power of Ethereum into your pocket by combining a messenger, crypto-wallet, and Web3 browser.status.im",1,1,0,False
435,EthereumNZ@EthereumNZ,"Multinational bank, @santanderuk bid to use #ethereum’s public blockchain to transform money into digital currency.
http://buff.ly/2cFBtxg",0,0,0,False
436,Coinstats@coinstats,"Ethereum Classic - ETC
Price: $1.2433
Change in 1h: +0.58%
Market cap: $104610363.0
Ranking: 6
#Ethereum Classic #ETC",0,0,0,False
437,Coinstats@coinstats,"Ethereum - ETH
Price: $13.9838
Change in 1h: +0.45%
Market cap: $1177214031.0
Ranking: 2
#Ethereum #ETH",0,0,0,False
438,Ethereum Price@EthereumPrice_,"#Ethereum: Ether Price Index
1 ETH =0.023244Ƀ XBT = $13.978575 USD
Today: -1.64%⬇︎ Last 24h: +4.48%⬆︎
https://ethereum-price.com",0,0,0,False
439,ajlopez@ajlopez,Microsoft's Bletchley #Blockchain Project Enters Next Phase http://coindesk.com/microsoft-blechley-v1-ethereum-blockchain-template/… #Ethereum,0,0,0,False
441,Bitcoin Updater@BitcoinUpdater,Ethereum Price Technical Analysis: Current Wave of Decline May Extend #ethereum http://soco.space/a2GIS8,0,0,0,False
443,krital@krital,#Nasdaq Veteran Joins #Ethereum Foundation as #Security Lead http://ln.is/www.coindesk.com/piB6A… via @CoinDesk #blockchainNasdaq Veteran Joins Ethereum Foundation as Security Lead - CoinDeskNasdaq information security specialist Martin Holst Swende has officially joined the Ethereum Foundation as its full-time security lead.coindesk.com,0,0,0,False
444,Walrusbonzo@walrusbonzo,"Replying to @walrusbonzo and @brian_armstrongThis doesn't appear to be an issue with $ETH network at all, just some other internal system issue of yours.",0,0,0,False
445,Walrusbonzo@walrusbonzo,@brian_armstrong $ETH deposits are being processed and sent to your cold wallets. So why does the balance not show on my Coinbase/GDAX acc?,1,0,0,False
446,bunda nova@bundanova11,Free #Ethereum every 5 minutes https://cryptosource.net/free-ethereum/?r=C3EkfnErft… #Ethereum lewat @CryptoSourceHQ,0,0,0,False
447,bunda nova@bundanova11,Free Ethereum every 5 minutes http://etherfaucet.net/?r=0x956ce8f51aeef14793d867ee3fa24e5b098941b8… #ethereum via @FreeCryptoCo,0,0,0,False
449,Obim Okongwu@obokongwu,#DevCon2: Santander and EtherCamp building bridges between bank accounts and #Ethereum http://ibt.uk/A6dc2?utm_source=social&utm_medium=twitter&utm_campaign=/devcon2-santander-ethercamp-building-bridges-between-bank-accounts-ethereum-1582242… via @IBTimesUK,0,0,0,False
450,Ethereum Monkey@EthMonkey,Ethereum Classic Price Technical Analysis - Is This Real Break? - NEWSBTC #ethereum http://newsbtc.com/2016/09/21/ethereum-classic-price-technical-analysis-real-break/…,0,0,0,False
451,Sergei Sergienko@svsergienko,#orientalpearl #china #shanghai #китай #шанхай #ethereum #devcon2 #bitcoin @ The Bund in… https://instagram.com/p/BKnHKdwgD8z/,0,0,0,False
452,/r/Ethereum@r_Ethereum,So.. is the Trezor pretty much useless right now for Ethereum? http://bit.ly/2cTH3Kg #EthereumSo.. is the Trezor pretty much useless right now for Ethereum?When Trezor recently announced they had upgraded their firmware to support Ethereum I bought one for exactly this purpose. Unfortunately they...reddit.com,0,0,0,False
453,Ludvig Öberg@ludvigoeberg,Some great talks for those that want to keep up with #ethereum and it's development #devcon2 http://buff.ly/2clRb2t,0,0,0,False
454,Faith Emmanuel@residualbitcoin,Thomson Reuters Demos New #ethereum #blockchain Use Cases http://xpr.me//news/thomson-reuters-demos-new-ethereum-blockchain-use-cases.html… #ResidualBitcoin,0,0,0,False
455,thecraftharritage@craftharritage,Check out Bohemian Round Beach Tapestry Roundie Mandala Yoga Mat Blue Indian Hippie Towel  #eth http://ebay.com/itm/Bohemian-Round-Beach-Tapestry-Roundie-Mandala-Yoga-Mat-Blue-Indian-Hippie-Towel-/282180801627?roken=cUgayN&soutkn=nhmcdY… via @eBay,0,0,0,False
456,BitcoinAgile@bitcoinagile,Thomson Reuters Demos New #ethereum #blockchain Use Cases http://xpr.me//news/thomson-reuters-demos-new-ethereum-blockchain-use-cases.html…,2,0,0,False
457,Ethereum SE@StackEthereum,Become your own Oracle? Can you put your own real world data into your Ethereum contracts? http://ethereum.stackexchange.com/questions/8765/become-your-own-oracle-can-you-put-your-own-real-world-data-into-your-ethereum… #ethereum #oracles,0,0,0,False
458,Ross Blankenship @RossBlankenship,"Good work @thomsonreuters and #ethereum!Quote TweetCoinDesk@CoinDesk · Sep 21, 2016Thomson Reuters Demos New Ethereum Blockchain Use Cases http://coindesk.com/thomson-reuters-blockchain-ethereum-devcon2…",1,0,0,False
459,Crypto Hassan@Cryptos_Hassan,Guy's! I want you to know ICN (ICONOMI) Will launch! check it now @ https://ico.iconomi.net Buy now and dont be late #ICN @iconominet #ether,0,0,0,False
460,Faith Emmanuel@residualbitcoin,#ethereum Classic Price Technical Analysis  Is This Real Break? - NEWSBTC #ETC #ETCtoBTC http://newsbtc.com/2016/09/21/ethereum-classic-price-technical-analysis-real-break…  …,0,0,0,False
461,Brave New Coin@bravenewcoin,#Ethereum Classic Price: USD $1.24 #ETC http://ow.ly/QXxZ303j19Q,0,0,0,False
462,Michael Milnes@MilnesLaw,"Exciting times ahead in #blockchain : @thomsonreuters presents at #devcon2 #ethereumQuote TweetCoinDesk@CoinDesk · Sep 21, 2016Thomson Reuters Demos New Ethereum Blockchain Use Cases http://coindesk.com/thomson-reuters-blockchain-ethereum-devcon2…",1,0,0,False
463,BitcoinAgile@bitcoinagile,#ethereum Classic Price Technical Analysis  Is This Real Break? - NEWSBTC #ETC #ETCtoBTC http://newsbtc.com/2016/09/21/ethereum-classic-price-technical-analysis-real-break…,0,0,0,False
464,Blockgeeks@Blockgks,Great people deserve a great audience. http://blockgeeks.com #Blockchain #Ethereum #Bitcoin,0,0,0,False
465,Grumlin Mystery@grum1in,"$ETC has a good chance to go up!
#ethereumclassic #blockchain #ethereum
https://steemit.com/ethereumclassic/@celebr1ty/usdetc-btc-graphical-analysis…",7,6,0,False
466,Coinstats@coinstats,"Ethereum Classic - ETC
Price: $1.23651
Change in 1h: +-0.58%
Market cap: $104037258.0
Ranking: 6
#Ethereum Classic #ETC",0,0,0,False
467,Algo4Crypto@Algo4Crypto,#ethereum testing the reistance at 0.024 #BTC Check open positions. Will get you a chart demonstrating possible scenarios asap,1,1,0,False
468,Ethereum Monkey@EthMonkey,Santander chases blockchain first - IBS Intelligence #ethereum https://ibsintelligence.com/ibs-journal/ibs-news/santander-chases-blockchain-first/…,0,0,0,False
470,ilycorn@cromba,"Who wants to find my education? #luvuforever #ethQuote TweetNestholma@nestholma · Sep 21, 2016MIT Fintech online certificate course: Future Commerce | GetSmarter http://ow.ly/JaxF304fMK9",0,0,0,False
471,Simon Gilchrist@sgilchrist,@ililic on challenge of proof of identity on blockchain at #devcon2 #ethereum,2,0,0,False
472,Bitcoin Updater@BitcoinUpdater,Introducing Transaction Relay: Pay For Ethereum Contracts and Transactions With #ethereum http://soco.space/yx6Rs8,0,0,0,False
474,John Lilic ₿ Ξ ∞@JohnLilic,Baby bro #devcon2 #ConsenSys #Ethereum @ililic0:04138 views,7,0,0,False
475,Cascadia Coin@cascadia_coin,@coinbase Love ya but DAMN how long does it take you to fix/update your geth. Waiting on a deposit now for 12 hours! Fix it pls. #ethereum,0,0,0,False
476,indxio@indxio,#China Market Close || #Bitcoin: $597.24 | 536.26 EUR||  #Litecoin: 0.0031 BTC  || #Ethereum: 0.0237 BTC   || $BTC $LTC $ETH $RMB,0,0,0,False
477,Faith Emmanuel@residualbitcoin,Have Things Done http://havethingsdone.online - HTD #ethereum #hackethercamp https://hack.ether.camp/idea/have-things-done-havethingsdoneonline---htd…  #ResidualBitcoin,1,0,0,False
478,Luke Sully@luke11234,"I just signed up to @ethstatus - an #ethereum #dapps browser for mobileStatus - Private, Secure CommunicationStatus brings the power of Ethereum into your pocket by combining a messenger, crypto-wallet, and Web3 browser.status.im",1,0,0,False
479,BitcoinAgile@bitcoinagile,Have Things Done http://havethingsdone.online - HTD #ethereum #hackethercamp https://hack.ether.camp/idea/have-things-done-havethingsdoneonline---htd…,0,0,0,False
480,ether-camp@CampEther,Seen on #hackethercamp https://hack.ether.camp/idea/have-things-done-havethingsdoneonline---htd… #ethereum,1,2,0,False
481,Ethereum Monkey@EthMonkey,Ethereum Mist and how to build apps that are truly unstoppable #ethereum http://ibtimes.co.uk/ethereum-mist-how-build-apps-that-are-truly-unstoppable-1582450…,1,2,0,False
482,Thibaut Schaeffer@vanderkriek,Anyone at #devcon2 wondering what we've been up to at @ProvenanceHQ? Check out http://provenance.org/tuna More stuff to come! #ethereum,2,1,0,False
483,Blockgeeks@Blockgks,#Blockchain advocates come here to discuss & share trends http://blockgeeks.com #ethereum,1,0,0,False
484,Coinstats@coinstats,"Ethereum Classic - ETC
Price: $1.24427
Change in 1h: +0.17%
Market cap: $104688533.0
Ranking: 6
#Ethereum Classic #ETC",0,0,0,False
485,Coinstats@coinstats,"Ethereum - ETH
Price: $14.2043
Change in 1h: +-0.01%
Market cap: $1195737301.0
Ranking: 2
#Ethereum #ETH",0,0,0,False
487,Ana@neptox,#status app is next gen #Ethereum mobile wallet. Get your invitation here: http://status.im/invite/1219-59…,0,0,0,False
488,Patrizio Stavola@halovast,FirstBlood is launching an #Ethereum #Dapp for #eSports enthusiasts. https://medium.com/@b_64902/blockchain-based-esports-platform-crowdsale-nearing-sept-26-start-date-fbc407e34eca#.xfatfgobd… #blockchainBlockchain-Based ESports Platform Crowdsale Nearing Sept. 26 Start-DateFirstblood Technologies is set to launch a token crowdsale featuring first ever “Power Hour”medium.com,2,1,0,False
489,Ethereum UAE@Ethereum_UAE,Thomson Reuters Demos New Ethereum Blockchain Use Cases http://ift.tt/2d9UpaA #Ethereum,1,1,1,False
490,Maksim@balance_ra,"More talks on Dapps security in #ethereum during #devcon2 Be humble, increase complexity slowly is my be the best advice.",2,0,0,False
491,Fabian Vogelsteller@feindura,#status app for #ETH is absolutely amazing! A little #Ethereum OS,30,17,2,False
492,GLU Global@gluglobal,Santander Vies to Become First Bank to Issue Cash on Blockchain http://bit.ly/2dfrZe5 via @CoinDesk #blockchain #ethereum #fintech,1,0,0,False
493,Antonio Selas@AntonioSelas,Microsoft's Bletchley #Blockchain Project Enters Next Phase - #ethereum #smartcontracts - CoinDesk http://coindesk.com/microsoft-blechley-v1-ethereum-blockchain-template/…,3,3,0,False
495,Faith Emmanuel@residualbitcoin,Thomson Reuters Presents New #ethereum #blockchain Research http://bitcoinagile.com/84E47C/thomson-reuters-presents-new-ethereum-blockchain-research_stream…  #ResidualBitcoin,0,0,0,False
497,Alex Batlin@AlexBatlin,"I just signed up to @ethstatus - an #ethereum #dapps browser for mobileStatus - Private, Secure CommunicationStatus brings the power of Ethereum into your pocket by combining a messenger, crypto-wallet, and Web3 browser.status.im",1,0,0,False
498,Maksim@balance_ra,Nice to see the the mist browser to finally become the usable one even for normal humans. Nice roadmap too. #devcon2 #ethereum,1,0,0,False
499,Plutosky@evecchione75,Replying to @evecchione75Besides TA remember that devs are working on a porting of #ethereum virtual machine on the #bitcoin blockchain. #counterparty,0,0,0,False
500,Bitcoin News@scryptsy,#Scryptsy.com #BTC Thomson Reuters Presents New #Ethereum Blockchain Research: Thomson… http://goo.gl/fb/GHxp0l,0,0,0,False
501,Cryptobros@c0inss,"Blockchain Summit this weekend. Checkout Altcoin sessions

http://blockchainweek2016.org/schedule_en.pdf
$REP $FCT $ETH #Augur, #Factom #ethereum #bitcoin",2,0,0,False
502,TAINA@TainaMarket,"GET FREE #DOGE
Win dogecoin every 60 minutes
http://goo.gl/hE5Bk6
#doge #dogecoin
#Ethereum
#bitcoin #litecoin #gold #Amazon",0,0,0,False
503,ΞTHΞЯΞUM ÐΞV NΞWS ⟠@Eth_Dev_News,uport: a platform for self-sovereign identity - draft version (9/16/16) http://bit.ly/2cPjd5t #Ethereum #ethdev #gamedev #fintech #redditUPort: A Platform for Self-Sovereign Identity - Draft Version...Posted in r/ethereum by u/Xanesghost • 78 points and 0 commentsreddit.com,1,1,0,False
504,Ethereum Monkey@EthMonkey,Thomson Reuters Demos New Ethereum Blockchain Use Cases - CoinDesk #ethereum http://coindesk.com/thomson-reuters-blockchain-ethereum-devcon2/…,0,0,0,False
505,Ethereum SE@StackEthereum,Can I transfer ETH without syncing on current pc? http://ethereum.stackexchange.com/questions/8762/can-i-transfer-eth-without-syncing-on-current-pc… #ethereum #goethereum #wallets,0,0,0,False
506,Liz Hermawan@LizHermawan,Thomson Reuters Presents New #Ethereum Blockchain Research: Thomson Reuters scientist Dr… http://goo.gl/fb/4y3gDR #vk,1,1,0,False
508,tim heath@timtast,http://ibtimes.co.uk/microsoft-marches-further-into-ethereum-blockchain-service-cryplets-enclaves-1582440… Microsoft back #Ethereum for #Blockchain  as a Service #BaaS #Cryptlet #Enclave #Microsoft #FinTech #Azure #IntelSGXMicrosoft marches further into Ethereum Blockchain as a Service with 'Cryplets' and 'Enclaves'Microsoft blockchain lead Marley Gray explains how Ethereum will reach enterprise in secure and scalable fashion.ibtimes.co.uk,1,0,0,False
509,Christine Sukasih@Christine_S025,Thomson Reuters Presents New #Ethereum Blockchain Research: Thomson Reuters scientist Dr Tim… http://goo.gl/fb/KN8dMY,1,1,1,False
510,Anthony Di Iorio@diiorioanthony,"Like with printing press, one day gov. will look back in disbelief they tried to control global movement of info / value. #bitcoin #ethereum",16,8,1,False
511,ΞTHΞЯΞUM ÐΞV NΞWS ⟠@Eth_Dev_News,"[*Today at #devcon2]
IPFS' Filecoin to be built on Ethereum! http://bit.ly/2dfK4G2 #ethereum #ethdev #gamedev #fintech #blockchain #redditIPFS' Filecoin to be built on EthereumJust announced at Devcon - IPFS' Filecoin is starting out on Ethereum, with much of the reason being the developent community a well as the evm...reddit.com",3,2,0,False
512,Fabio Scarselli@fscarselli,Microsoft marches further into #Ethereum #Blockchain as a Service with via @rightrelevance thanks @bitcoinagile http://ln.is/www.ibtimes.co.uk/XTeEX…,1,0,0,False
513,Plutosky@evecchione75,Replying to @evecchione75breakout as expected. More room to go. Next res at 25 (fib) and 26 (upper limit of the triangle) $ETH #ethereum,0,0,0,False
514,Christine Soekasih@Christine_S02,Thomson Reuters Presents New #Ethereum Blockchain Research: Thomson Reuters scientist Dr… http://goo.gl/fb/9oRCYN #vk,0,0,0,False
515,Bitcoin Directory@dir4bc,#ThomsonReuters Presents New #Ethereum Blockchain Research: Thomson Reuters scientist Dr… http://dlvr.it/MJRhGS,0,0,0,False
516,Widget 4 Bitcoin@widget4bc,#ThomsonReuters Presents New #Ethereum Blockchain Research: Thomson Reuters scientist Dr… http://dlvr.it/MJRh16,0,0,0,False
517,Bitcoin@bitcoinpoet,Join your newsletter. ICO starts in less than 2 days: http://ln.is/ruBks #ico #ethereum #blockchain... by @ehsminer via @c0nvey,1,1,0,False
518,Blockgeeks@Blockgks,"#Blockchain is confusing, but it doesn't have to be. http://blockgeeks.com #Ethereum #bitcoin",1,0,0,False
519,Johanna S@Mc_Nerdic,#ethereum #ether Thomson Reuters Presents New Ethereum Blockchain Research: Thomson Reuters s... http://bit.ly/2dfMjcy #SmartContracts,1,0,0,False
520,Coinstats@coinstats,"Ethereum Classic - ETC
Price: $1.23887
Change in 1h: +-1.18%
Market cap: $104232588.0
Ranking: 6
#Ethereum Classic #ETC",0,0,0,False
521,Coinstats@coinstats,"Ethereum - ETH
Price: $14.2074
Change in 1h: +-0.18%
Market cap: $1195979894.0
Ranking: 2
#Ethereum #ETH",0,0,0,False
522,Ethereum Price@EthereumPrice_,"#Ethereum: Ether Price Index
1 ETH =0.023688Ƀ XBT = $14.160920 USD
Today: +0.24%⬆︎ Last 24h: +7.93%⬆︎
https://ethereum-price.com",0,0,0,False
523,Olivier Chapiteau@o_chapiteau,"21Sep2016 06:00 UTC #Ether #Blockchain status - Block height @ 2,298,551 - 4,798 unconfirmed tr. - Last fork height @ 2,298,548",1,0,0,False
524,Olivier Chapiteau@o_chapiteau,21Sep2016 06:00 UTC #Ethereum live spots - #Ether @ 14.16303 $ - #EtherClassic @ 1.24995 $,0,0,0,False
525,On The Blockchain @OnTheBlockChain,"Good to see this

Nasdaq Veteran Joins #Ethereum Foundation as Security Lead 

http://bit.ly/2cN0XK3 via @CoinDesk #blockchain",1,0,0,False
526,Belay Manaye@Belay_Ma,"@EHRProj  listed 150+ people who are charged
with terrorism under the bogus Anti-
terrorism law. #humanrights #ETHQuote Tweet𝗖𝗔𝗥𝗗@CARDEthiopia · Sep 20, 2016የኢትዮጵያ ፍርድ ቤቶችን ያጨናነቀው የሽብር ‹ወንጀል› ተከሳሾች ዝርዝር በከፊል http://fb.me/348ABmaTD",0,0,0,False
527,Faith Emmanuel@residualbitcoin,Thomson Reuters Presents New #ethereum #blockchain Work - CoinDesk #Identity #Regulation http://coindesk.com/thomson-reuters-blockchain-ethereum-devcon2…  …,1,0,0,False
528,BitcoinAgile@bitcoinagile,Thomson Reuters Presents New #ethereum #blockchain Work - CoinDesk #Identity #Regulation http://coindesk.com/thomson-reuters-blockchain-ethereum-devcon2…,1,1,1,False
529,Alberto Jauregui | esoteRICK.eth @DisruptBanksy,"http://ift.tt/2cPkWHX Ethereum Price Technical Analysis – ETH Overbought, Caution Ahead - newsBTC #ethereum #ether",1,0,0,False
530,/r/Ethereum@r_Ethereum,Microsoft marches further into Ethereum Blockchain as a Service with 'Cryplets' and 'Enclaves' http://bit.ly/2dfJyI8 #Ethereum,1,0,0,False
531,/r/Ethereum@r_Ethereum,UPort: A Platform for Self-Sovereign Identity - Draft Version (2016-09-16) http://bit.ly/2cPjd5t #Ethereum,1,0,0,False
532,/r/Ethereum@r_Ethereum,Oyente is released as open source now http://bit.ly/2dfJVmg #EthereumOyente is released as open source nowPosted in r/ethereum by u/loiluu • 57 points and 5 commentsreddit.com,1,0,0,False
533,/r/Ethereum@r_Ethereum,"IPFS' Filecoin to be built on Ethereum http://bit.ly/2dfK4G2 #EthereumIPFS' Filecoin to be built on EthereumJust announced at Devcon - IPFS' Filecoin is starting out on Ethereum, with much of the reason being the developent community a well as the evm...reddit.com",1,2,0,False
534,3esmit.stateofus.eth@3esmit,Replying to @Consensys and @consensysllcI've written in portuguese about how #ethereum can fix Brazil #government with liquid #democracygoverno inteligenteGoverno inteligente (autônomo e descentralizado) A governança de recursos públicos autonomizada para: aumentar a democracia; aumentar a segurança diminuindo a burocracia; e minimizar os custos da...docs.google.com,1,0,0,False
535,Rodrigo Paulo Gomes []@bgcoin,"Microsoft's Bletchley Blockchain Project Enters Next Phase
http://bit.ly/2cOIRHN
#blockchain #bitcoin #ethereum >@Microsoft",1,0,0,False
536,3esmit.stateofus.eth@3esmit,Replying to @3esmit and @avsaI'm not sure about PoS mining reward. I've written $ETH is inflacionary only at PoW. Let me know If I've written any mistake.,0,0,0,False
537,Ethereum Monkey@EthMonkey,"Ethereum Price Technical Analysis - ETH Overbought, Caution Ahead - NEWSBTC #ethereum http://newsbtc.com/2016/09/21/ethereum-price-technical-analysis-eth-overbought-caution-ahead/…",0,0,0,False
538,Jerome de Tychey @jdetychey,"Glad to see @thomsonreuters KYC and development solutions on #ethereum
I tested and appreciated the tools
#Devcon2",1,0,0,False
539,BitcoinAgile@bitcoinagile,"#ethereum Price Technical Analysis  ETH Overbought, Caution Ahead - NEWSBTC #ethereumtrade http://bitcoinagile.com/84E044/ethereum-price-technical-analysis-eth-overbought-caution-ahead-newsbtc_stream…",0,0,0,False
540,Eric Gaubert@kalydeoo,#DevCon2: Santander and EtherCamp building bridges between bank accounts and #Ethereum http://ibt.uk/A6dc2?utm_source=social&utm_medium=twitter&utm_campaign=/devcon2-santander-ethercamp-building-bridges-between-bank-accounts-ethereum-1582242… via @IBTimesUK #blockchain,0,0,0,False
541,Coinstats@coinstats,"Ethereum Classic - ETC
Price: $1.25361
Change in 1h: +1.0%
Market cap: $105470680.0
Ranking: 6
#Ethereum Classic #ETC",0,0,0,False
542,Coinstats@coinstats,"Ethereum - ETH
Price: $14.2577
Change in 1h: +0.19%
Market cap: $1200190679.0
Ranking: 2
#Ethereum #ETH",0,0,0,False
543,ROGI#VL#@vovrg,#ICONOMI ICO still open for the next 9 days! Be where the future is #Ether #Bitcoin: https://ico.iconomi.net & @iconominet,0,0,0,False
544,EtherBlockchain.io@etherblockchain,Nasdaq Veteran Joins Ethereum Foundation as Security Lead http://bit.ly/2cN0XK3 via @CoinDesk #ether #blockchain #ethereum #devcon2,0,0,0,False
545,Faith Emmanuel@residualbitcoin,Microsoft marches further into #ethereum #blockchain as a Service with Cryplets and Enclaves http://ibtimes.co.uk/microsoft-marches-further-into-ethereum-blockchain-service-cryplets-enclaves-1582440… …,1,0,0,False
546,Ameer Rosic@AmeerRosic,Could #Blockchain Technology Disruptive The Real Estate Industry? http://dld.bz/eCvcw #ethereum,1,0,0,False
548,BitcoinAgile@bitcoinagile,Microsoft marches further into #ethereum #blockchain as a Service with Cryplets and Enclaves http://ibtimes.co.uk/microsoft-marches-further-into-ethereum-blockchain-service-cryplets-enclaves-1582440…,2,0,0,False
549,Ethereum Monkey@EthMonkey,Microsoft marches further into Ethereum Blockchain as a Service with 'Cryplets' and 'Enclaves' #ethereum http://ibtimes.co.uk/microsoft-marches-further-into-ethereum-blockchain-service-cryplets-enclaves-1582440…,1,5,1,False
550,3esmit.stateofus.eth@3esmit,@avsa I've written concepts about smart government for the event I told you before #ethereum #democracygoverno inteligenteGoverno inteligente (autônomo e descentralizado) A governança de recursos públicos autonomizada para: aumentar a democracia; aumentar a segurança diminuindo a burocracia; e minimizar os custos da...docs.google.com,1,1,0,False
551,CoinGecko@coingecko,The latest Ethereum price is USD 14.11. For historical #Ethereum price charts - http://buff.ly/2difMFv,0,0,0,False
553,AltcoinWeekly@altcoinweekly,The latest Ethereum price is USD 14.11. For historical #Ethereum price charts - http://buff.ly/2difvSY,1,0,0,False
554,Ethereum Italia@ethereumita,Augur on stage #devcon2 #ethereum @AugurProject,4,2,0,False
556,Brian Ahier@ahier,Replying to @kemitchell  Earl of #Ethereum  ,1,0,0,False
558,ExploreTraveler@exploretravel1,RT @bravenewcoin: #Ethereum Classic Price: USD $1.23 #ETC http://lnkplg.co/W6KJJ,1,0,0,False
559,Conrad Johnson@ConradJohnson,Last update from #devcon2 and I'm hitting the town.  #filecoin will be on #ethereum.  Looking forward to what #ThompsonReuters announces.,2,0,0,False
560,imbrex@imbrex_io,We're excited for @juanbenet talking #ipfs at #devcon2 - IPFS + #ethereum make Rex possible!,2,1,0,False
561,Ms. Brownskin@sac_brownskin,The Game - Pest Control (Meek Mill Diss)#Gamebodiedthe#Ether#Oneofthebest# https://youtu.be/cwQ8iVczZpA,0,0,0,False
562,Rich Tella@richtella,Hash rate new high! 6004.8 GH/s #ether #ethereumHash rate new high! 6004.8 GH/sPosted in r/ethereum by u/coolfarmer • 44 points and 6 commentsreddit.com,0,0,0,False
563,Brave New Coin@bravenewcoin,#Ethereum Classic Price: USD $1.23 #ETC http://ow.ly/QXxZ303j19Q,0,0,0,False
564,Blockgeeks@Blockgks,How #Blockchain Technology Can Reinvent The Power Grid http://snip.ly/k7p0q #ethereum #Bitcoin,0,0,0,False
565,Pelle Brændgaard (we are hiring)@PelleB,I think @gnosisPM is going to be one of the really important building blocks of the new #ethereum based financial infrastructure #devcon2,23,4,1,False
566,Péter Szilágyi@peter_szilagyi,Holy shit! #ipfs just announced they will deploy #filecoin as a virtual chain on top of #Ethereum!!! :D,14,6,0,False
