,user,text,likes,retweets,replies,is_thread
0,How To Get Bitcoins  #KBF@htgbitcoins,Plutus & PlutusDEX – Complete End-To-End Decentralized Bitcoin Payments http://newsbtc.com/2016/04/16/plutus-plutusdex-complete-end-to-end-decentralized-bitcoin-payments/… @PlutusIT #Blockchain #Bitcoin #EthereumPlutus & PlutusDEX – End-To-End Decentralized Bitcoin PaymentsPlutusDEX dapp ensure complete decentralization of bitcoin-powered contactless payments through Plutus platform. Read more...newsbtc.com,2,2,0,False
1,How To Get Bitcoins  #KBF@htgbitcoins,"Progress Update 17 April 2016 @DigixGlobal https://medium.com/@Digix/progress-update-17-april-2016-d258bd608119#.bvd1wbi15… #Blockchain #Bitcoin #EthereumProgress Update 17 April 2016Dear All,medium.com",1,3,0,False
2,Grumlin Mystery@grum1in,"$ETH go down! just see!
#ethereum",1,0,0,False
3,AndyC@evopilottuner,rise my pretty rise!!!! #ethereum,1,0,0,False
4,Aiphanes@aiphanes,#ethereum is on fire on its road to .04! Get in now for the epic ride!,1,1,1,False
5,rssbtc.com@rssbtc,"Ethereum Is Making Waves Through Education and Internet of Things - http://bit.ly/1qzDLSO
#fintech #network #ethereum",2,2,0,False
6,ADG@adg82,"Nice mention of #bonds ready for #blockchain via #ethereumQuote TweetFlorian Graillot@FGraillot · Apr 17, 2016Great slide deck on the state of #Bitcoin & #blockchain technology. #FinTech #blckcn http://buff.ly/1VTwREk",0,0,0,False
7,Bitcoin Tunisie@BitcoinTunisie,My first Transaction on #Ethereum Blockchain Made By HashFlare : http://bit.ly/1RTJlKf http://fb.me/12X2IEGxW,1,0,0,False
8,Nopie BlackjinCrypto@Blackjincrypto,"Share and EARN 1 BTC - GIVEAWAY 20 april 2016 http://btckan.com/news/topic/18165?bkuserid=102096&bkfrom=appshare&bktarget=facebook…
#btc #bitcoin #blockchain #vericoin #bittrex #ethereum #altcoins",3,0,0,False
9,Victor Bucataru@devktor,#XETH #Ethereum GUI wallet with #stealth payments and @BitProfile support http://xeth.org,18,5,0,False
10,Clovis@clofamile,Free Ethereum every 5 minutes http://etherfaucet.net/?r=0x9dc618ad33d270ed68050186f5c08d7bf0b41c70… #ethereum via @FreeCryptoCo,0,0,0,False
11,Rodrigo Paulo Gomes []@bgcoin,"The bad smell hovering over the global economy
http://gu.com/p/4tcaj/stw
#HelicopterMoney #FinancialCrisis #CentralBanks #bitcoin #ethereum",1,1,0,False
12,Bill Lewis@WorkstationW,What Is Blockchain And How Does It Apply To Real Estate? #cre #cretech #blockchain #bitcoin #ethereum http://buff.ly/1RNj9B1,3,1,0,False
13,Crypto ― logen@cryptologen,"European Parliament Takes Initiative to Put #Cryptocurrency, #Blockchain on Fast Track http://cointelegraph.com/news/european-parliament-takes-initiative-to-put-cryptocurrency-blockchain-on-fast-track?ref=5281… #bitcoin #fintech #ethereumEuropean Parliament Takes Initiative to Put Cryptocurrency, Blockchain on Fast TrackThings are moving quickly in Europe at the moment in regards to cryptocurrency and the Blockchaincointelegraph.com",1,0,0,False
14,Aleksandr Zykov@jTeego,The Jaxx HD Wallet for Ethereum Gets Another Quick Upgrade https://crd.ht/HpMwEUg #ethereum,1,1,0,False
15,Roland@metamatterNL,"""However, there is a true hard fact, Bitcoin is obsolete.""
https://zapchain.com/a/l/dapp-implementations-and-cost-benefit-analysis-with-ethereum/DF592UoR2i…
#bitcoin #ethereum #ipfs",1,1,0,False
16,Louis Villard@louisvlrd,Hi @CallMeDaisee ! Good luck for @HackadayPrize ! #energy #blockchain #ethereum #hack Thanks all for your likes : https://hackaday.io/project/10879,3,1,0,False
17,fintechfolk@fintechfolk,Thanks @antonfishman for registering for FinTechFolk - http://zpr.io/Mnfj #fintech #ethereum #bitcoin #blockchain,2,2,0,False
18,OpenLedger@OpenLedgerDC,#Decentralised exchange #OpenLedger launches #Ethereum-based #DigixDAO trading http://ibt.uk/A6WaQ via @IBTimesUK #gold #asset #ETH #DGD,7,5,1,False
19,ALΞCO@a_l_e_c_o,"#altcoins Price Analysis (Week of April 17th): #ethereum , #Litecoin and #dashAltcoins Price Analysis (Week of April 17th): Ethereum, Litecoin and DASHThe current upward dynamics on Ethereum and Litecoin markets have the potential to grow into medium-term upward trends.cointelegraph.com",2,1,0,False
20,creme.ai@creme_ai,Sunday uptick #ether,2,0,0,False
21,Viktor Trón@zeligf,"blockchain 101 course on @udemy
https://udemy.com/blockchain101/?couponCode=learnblockchain…
#bitcoin #ethereumBlockchain 101: The BasicsUnderstanding the Underlying Mechanisms of Bitcoin and Ethereumudemy.com",14,13,0,False
22,Zeth Couceiro@Zeth_Plexus,#EtherEx looks beyond #cryptocurrency trading towards a #tokenised future on #Ethereum: #blockchain @EtherEx_CryptoEtherEx looks beyond cryptocurrency trading towards a tokenised future on EthereumEtherEx has floated crowd sale and ETX token idea to address gas imbalance and drive development of the project.ibtimes.co.uk,4,1,0,False
23,ethereum.network@EthereumNetw,"Who will pay for turing complete #Smart Contracts?
#Ethereum
http://coindesk.com/turing-complete-smart-contracts/…",4,5,0,False
24,Bitcoin News@BTC_Tipster7," 20 for FREE 12% MONTHLY PROFIT http://bit.ly/ECOprijem 
#bitcoin #paypal #visa #invest #profit #eco #bio #recyclix #ltc #dash #eth",1,0,0,False
25,Ethereum Price@EthereumPrice_,"#Ethereum: Ether Price Index
1 ETH =0.022194Ƀ XBT = $9.544785 USD
Today: +11.03%⬆︎ Last 24h: +14.30%⬆︎
https://ethereum-price.com",1,0,0,False
26,ethereum.network@EthereumNetw,"Worth to make a transition from a cheap centralized internet to a distributed one?
#Ethereum Cost-Benefit Analysis
https://zapchain.com/a/l/dapp-implementations-and-cost-benefit-analysis-with-ethereum/DF592UoR2i…",5,5,0,False
27,Gamebet@GamebetGG,"Big announcement coming this week from the #GameBet camp.
#Secret #Expansion $gbt $btc $hyper $maid $eth
#LoL #CSGO",9,9,0,False
28,superssc@superssc,Thoughts worth considering... #Ethereum #ETH #BTC #XBT #Blockchain http://coindesk.com/turing-complete-smart-contracts/?_utm_source=1-2-2…,0,0,0,False
29,BACKFEED@Backfeed_cc,"#Blockchain #Technology and the #FutureofWork - @yaoeo
http://magazine.backfeed.cc/primavera-de-filippi-blockchain-technology-and-the-future-of-work/…
#dao #ethereum",5,4,1,False
30,Vindyne8@Vindyne8,#BiosCrypto RoadMap Check $bios out http://bit.ly/1VwrJr5 #btc #eth #RT https://pic.twitter.com/LTgjXbzcLn,12,12,0,False
31,𝘙𝖾𝗂𝗇 𝖽𝖾 𝘝𝗋𝗂𝖾𝗌@Rein_de_Vries,"#eth
Dank @Anna_Pom en @Heldinne , het was weer leuk",2,0,0,False
32,Jean-Pierre Buntinx@jdebunt,"#ETH $ETH is far from dead, which might disappoint some people. $BTC up and ETH recovering makes me very happy",3,2,1,False
33,Ludvig Öberg@ludvigoeberg,#Ether Prices Plunge 50% as #Bitcoin Stays in Holding Pattern http://buff.ly/23Eogev #ethereum Remind me of the early days of Bitcoin,1,0,0,False
34,fav@btsfav,Enter for a Chance to win 1 #Ether ─ http://favd.xyz/1S2uhtQ #Ethereum,1,4,0,False
35,fav@btsfav,"Buy #Ethereum with FIAT (SEPA, OKpay, Skrill and more) ► http://favd.xyz/268lLj2",1,3,0,False
36,Ethereum SE@StackEthereum,"Risk of using BlockHash, other miners preventing attack. http://ethereum.stackexchange.com/questions/3140/risk-of-using-blockhash-other-miners-preventing-attack… #ethereum #contractdevelopment #mining #blockchain",1,0,0,False
37,Ethereum SE@StackEthereum,How does the system enforce correct execution of smart contracts? http://ethereum.stackexchange.com/questions/3143/how-does-the-system-enforce-correct-execution-of-smart-contracts… #ethereum #smartcontracts #cryptography #miner,1,2,0,False
38,Joan Stewart (I  Hive)@joanstewart1,Are You Digital - #FinTech is the Future! Never Miss Good Opportunities with @mqtodd New Team Adventure #Ethereum,7,11,0,False
39,Leena@whiskymami,Wanna see the difference b/w #Bitcoin + #ethereum? Check out this btc researcher's piece abt new antitheft mechanism http://hackingdistributed.com/2016/02/26/how-to-implement-secure-bitcoin-vaults…,1,1,0,False
40,Coinboard@Coinboard,Why Many Smart Contract Use Cases Are Simply Impossible http://dlvr.it/L4hqMY #News #Ethereum,2,1,0,False
41,CoinGecko@coingecko,The latest Ethereum price is USD 9.62. For historical #Ethereum price charts - http://buff.ly/1Y3h6Jz,1,2,0,False
42,Cointelegraph@Cointelegraph,"#Altcoins Price Analysis (Week of April 17th): #Ethereum, #Litecoin and #DASH http://cointelegraph.com/news/altcoins-price-analysis-week-of-april-17th-ethereum-litecoin-and-dash…",2,0,0,False
43,Bear@bearBTC,Get ready for a boom boys $Eth 0.0224 resuming downtrend https://tradingview.com/chart/ETHBTC/pXoyvBkl-Eth-rejected-by-the-downtrend-resistance-once-again/…,3,1,0,False
44,Julia Edling@bitcointonic,"Evaluation of Altcoin (#Ethereum, #Litecoin, DASH) prices for the Week of April 7: The… http://dlvr.it/L4r6Dl",0,0,0,False
45,Bitcoin@bitcoinpoet,BitProfile - a user namespace system: The main idea was to build a decentralized user namespace syst... http://bit.ly/1W9SxMh #ethereumBitProfile - a user namespace systemThe main idea was to build a decentralized user namespace system that will make easy to share same profile in multiple DAPP's and will allow to...reddit.com,3,0,0,False
46,Crypto ― logen@cryptologen,"Why Many Smart Contract Use Cases Are Simply Impossible http://bit.ly/1NvzoO3 via @CoinDesk
#blockchain #bitcoin #ethereum #cryptocurrency",1,2,0,False
47,Bitcoin@Bitcoin,Ethereum: the competitor to Bitcoin which could transform entire industries http://bit.ly/1UYO3c8,31,40,2,False
48,Terry Norton@1335Days,"@Bitcoin Don't think so. #Ethereum is still the #Banksters (R3) oligarchy system, just different tools. #Bitcoin is out of the system.",1,0,0,False
49,John Lilic ₿ Ξ ∞@JohnLilic,"#Ethereum is foundational in helping realize and execute upon this strategyQuote TweetTreasury Department@USTreasury · Apr 17, 2016Deputy Secretary Sarah Bloom Raskin: ""Our cybersecurity strategy has to be a global one."" #imfdigitaldisrupt",7,5,0,False
50,Zr1Trader@ZR1Trader,I love the smell of free markets in the morning . Biggest china exchange  to add #ethereum soon. #cryptocurrency,4,2,1,False
51,BitcoinAgile@bitcoinagile,#ethereum Is Making Waves Through Education and Internet of Things #bitcoin http://linkplugapp.com/EXLY2,2,3,0,False
52,Count My Crypto@countmycrypto,Track your #Voxels #Startcoin #Ether #Bitcoin & > 700 #altcoins against most world fiat #currency on http://countmycrypto.com #cryptocurrency,0,0,0,False
53,ICOcountdown@ICOcountdown,#Gnosis added to http://icocountdown.com http://groupgnosis.com #icocountdown #ethereum #consensysICOCOUNTDOWN.COMNever miss a crowdsale again!icocountdown.com,0,0,0,False
54,John Lilic ₿ Ξ ∞@JohnLilic,"Further alignment between #Ethereum and US policyQuote TweetTreasury Department@USTreasury · Apr 17, 2016Deputy Secretary Raskin at IMF Spring Meetings: ""Strong cyber defenses are critically important."" #imfdigitaldisrupt",3,2,0,False
55,Patrizio Stavola@halovast,"#Bitcoin #mining farm in Glarus (CH) is looking forward opening an #Ether #miningfarm and pool #Alpereum #EthereumQuote TweetMarc Badertscher@BadertscherMarc · Apr 15, 2016#Bitcoin-Mine in Glarus schürft nun auch #Ether. http://handelszeitung.ch/blogs/bits-coins/nun-wird-den-schweizer-alpen-die-bitcoin-konkurrenz-ether-geschuerft-1052158… @BitcoinSuisseAG #Handelszeitung",2,3,1,False
56,Alunaut   @onemanatatime,#Ethereum at 0.022 $ETHShort35.9%Long22.3%Watching from e sidelines41.7%206 votes·Final results,3,1,0,False
57,ethereum.network@EthereumNetw,.@EtherEx_Crypto looks beyond #cryptocurrency trading towards a tokenised future on #EthereumEtherEx looks beyond cryptocurrency trading towards a tokenised future on EthereumEtherEx has floated crowd sale and ETX token idea to address gas imbalance and drive development of the project.ibtimes.co.uk,2,3,0,False
58,"Patrick Schmid, PhD @PatrickG_Schmid",Congrats @joshuad31 and dynamis for creating the world's first DAO for P2P unemployment #insurance using #ethereum http://allcoinsnews.com/2016/04/17/dynamis-creates-ethereum-based-dao-for-distributed-p2p-insurance/…,1,1,1,False
59,CoinFund@coinfund_io,Bitcoin smart contract platform #RootStock to support #Ethereum VM as a product goal. https://m.youtube.com/watch?feature=youtu.be&v=F_0GxYU3SFc&t=2137…,1,1,0,False
60,Alfred Jordan@SovereignFive,As #Bitcoin #Ether and the digital currencies enter the monetary ecosystem will they be ready to withstand the coming debt fiat maelstrom?,1,0,0,False
61,ILbotCrypto@LbotCrypto,CoinUpdates #Edoncoin is launching its ICO on Monday. Get the word out #altcoin #eth #list #waves #bitcoin #blockchain,0,0,0,False
62,Joan Stewart (I  Hive)@joanstewart1,"""Dapp implementations and Cost-Benefit Analysis with #Ethereum"" via @ZapChain https://zapchain.com/a/DF592UoR2i",2,0,0,False
63,Bitcoin@bitcoinpoet,Collaterised trustless heads-up poker: I am trying to convince myself that trustless heads-up (1 vs ... http://bit.ly/1W9Sy2A #ethereum,1,0,0,False
64,"David """" Golumbia@dgolumbia","quick, we need new hype! major developer says ""many smart contract use cases are impossible"" http://coindesk.com/three-smart-contract-misconceptions/… #blockchain #ethereum",1,0,0,False
65,Eddy Travia@startupeddy,Thanks @KapplerKen & @crypto_jesus for a great session on #ethereum & smart contracts at #blockchain tech lab ! https://twitter.com/KapplerKen/status/719872610306232321…This Tweet is unavailable.,6,7,0,False
66,BitcoinAgile@bitcoinagile,Start Hash - The most affordable #bitcoin and #ethereum mining contractsStart Hash - The most affordable Bitcoin & Ethereum mining contractsWelcome to StartHash! We believe mining is important for Bitcoin’s future and adoption as a global financial network.forum.ethereum.org,4,0,0,False
67,notsofast@notsofast,"Ahahaha. Goodthing my $ETH short was only borrowed from my long-term long, because it's underwater now.",2,2,0,False
68,Chris Burniske@cburniske,"Another good summary of #bitcoin & #ether price movements by @CharlesLBovaird and I did my best @ARKblockchainEther Prices Plunge 50% as Bitcoin Stays in Holding Pattern - CoinDeskBitcoin prices fluctuated largely within a tight range, while the value of ether, the token on the ethereum blockchain, saw a sharp price reduction.coindesk.com",1,1,0,False
69,Transfer Dev@Transfer_dev,.@CryptoCompare Live Stats 4 #Transfercoin https://cryptocompare.com/coins/tx/overview… All Live Stats in 1 Place. Check it Out. $TX $ETH,3,1,0,False
70,Rodrigo Paulo Gomes []@bgcoin,"Open Blockchain
.@IBM OpenWorks | developerWorks
https://developer.ibm.com/open/ibm-open-blockchain/…
#bitcoin #ethereum #blockchain 
>@IBMdwOpen >@HyperLedger",3,0,0,False
71,BTCMANAGER@btc_manager,#Blockchain Companies Take Center Stage: Our Week in Review https://btcmanager.com/news/blockchain-companies-take-center-stage-week-in-review-for-april-17/… #ethereum #bitcoin #fintech,1,1,0,False
77,Kid Ding aka Green Candel@KidsDynamite,"$ETH waves looking good today, again - I´ll camp here for a while. Still not in short mode ;) I rock the other side w/out leverage and stuff",1,0,0,False
78,฿TF%$Brrrrrr!@CryptoHustle,Looks like $ETH is getting pumped on high volume!,3,1,0,False
79,₿TCKYLE@BTCKYLE,Expanse ready for a recovery? $EXP @ExpanseOfficial -- $ETH,4,2,1,False
80,creme.ai@creme_ai,dApp implementations and cost-benefit analysis with #ethereum https://zapchain.com/a/DF592UoR2i,2,0,0,False
89,MONETARY MAYHEM™@MONETARY_MAYHEM,"Out of $eth completely,set buy order at .015 needs another leg down",0,0,0,False
92,BuyaBitcoin@BuyaBitcoinAU,More and more space is being dedicated to discussing the new kid on the block- #Ethereum. http://buff.ly/1SyUpZa,0,0,0,False
94,Matthew John Ritchie@OpenECommunity,"What does a Three Dimensional Paper #BlockChain look Like?
#bitcoin #ethereum",0,0,0,False
98,Makoto Inoue ( matoken.eth )@makoto_inoue,"I just published “Ether 11: Homestead version of Dapps For Beginners” https://medium.com/@makoto_inoue/ether-11-homestead-version-of-dapps-for-beginners-93c8c3bbeee6#.tknheohx6… cc @KapplerKen #ethereumEther 11: Homestead version of Dapps For BeginnersWhile I was at the last Ethereum London codeup, a couple of people recommended me to read Dapps for beginners, Javascript API 1 section.makoto-inoue.medium.com",1,1,0,False
104,Makoto Inoue ( matoken.eth )@makoto_inoue,"I just published “Ether 10: Greeter, the best kept secret tutorial” video walkthrough https://medium.com/@makoto_inoue/ether-10-greeter-the-best-kept-secret-tutorial-363e7f31afc8#.mvct4z9dw… #ethereumEther 10: Greeter, the best kept secret tutorialIn the past blog posts, I did video walk through of Ethereum tutorials on their website, such as token and dao.makoto-inoue.medium.com",3,2,0,False
105,Ξ Fly Guy Ξ (flyguy.eth)@FlyGuyInTheSky,#ethereum making progress again,1,0,0,False
106,BitcoinAgile@bitcoinagile,"IBM, Microsoft Offer #blockchain In Their Cloud Services | #ethereum Forum http://bit.ly/1TdmCIo",1,4,0,False
107,ETHER@CHICAGOETHER,I Get High prod.by @Snapbackmoney  #ether #smokeathon #igethigh #weedstagram420 #weedstagram… https://instagram.com/p/BEUNA0ziW6Z/,0,0,0,False
109,Ethereum SE@StackEthereum,How fast should be an internet connection to mine ETH? http://ethereum.stackexchange.com/questions/3138/how-fast-should-be-an-internet-connection-to-mine-eth… #ethereum #mining #ether #network,1,0,0,False
110,Fintech news@currencies111,"CEX.io Adds Ether Trading Support to Crypto Exchange
http://bit.ly/1Wafgb2
#cryptocurrency #altcoin #ethereum",1,0,0,False
111,TBM NEWS@TBMGPT_News,"#Ethereum Is Making Waves Through Education and Internet of ThingsEthereum Is Making Waves Through Education and Internet of ThingsInternet of things, on the other hand, is a revolutionary concept which seems to lean towards using the Ethereum blockchain over Bitcoin’s offering.newsbtc.com",0,0,0,False
112,ALΞCO@a_l_e_c_o,"#Ethereum: the competitor to #Bitcoin which could transform entire industries by Barbara Speed @bspeed8
http://goo.gl/0YgQz1",0,0,0,False
113,Ethereum SE@StackEthereum,How do I host Ethereum on a server? http://ethereum.stackexchange.com/questions/3135/how-do-i-host-ethereum-on-a-server… #ethereum #clients #nodes #solc #serverside #hosting,1,0,0,False
114,Ethereum SE@StackEthereum,How does etherchain access and query Ethereum blockchain transaction data? http://ethereum.stackexchange.com/questions/3136/how-does-etherchain-access-and-query-ethereum-blockchain-transaction-data… #ethereum #blockchain #nodes #explorers,0,0,0,False
115,Ethereum SE@StackEthereum,GPU can't allocate the DAG in a single chunk. Bailing? http://ethereum.stackexchange.com/questions/3137/gpu-cant-allocate-the-dag-in-a-single-chunk-bailing… #ethereum #mining #dag #ethminer,0,0,0,False
116,Dotan Horovits@horovits,"IBM, Microsoft Offer #Blockchain In Their #Cloud https://linkedin.com/pulse/ibm-microsoft-offer-blockchain-cloud-services-dotan-horovits… #Bluemix #Azure #bitcoin #cryptocurrency #ethereum #HyperledgerIBM, Microsoft Offer Blockchain In Their Cloud ServicesRecently blockchain fans got major news, with two giants IBM and Microsoft announcing their support for Blockchain-as-a-Service (BaaS) in their cloud services. Are we going to see some cloud-based...linkedin.com",1,0,0,False
119,Julia Edling@bitcointonic,A #Bitcoin and #Ethereum thought experiment (Version 1): I recorded a video about Bitcoin and Ethereum and I… http://dlvr.it/L4pwbp,0,0,0,False
124,Anna Schermerh@Anna_Pom,#eth geo B,0,0,0,False
125,Anna Schermerh@Anna_Pom,#eth theater C,0,0,0,False
126,𝘙𝖾𝗂𝗇 𝖽𝖾 𝘝𝗋𝗂𝖾𝗌@Rein_de_Vries,"#eth
tomorrow",0,0,0,False
127,Heldinne@Heldinne,"#eth #eentegenhonderd #eentegen100 
tomorrow",0,0,0,False
128,𝘙𝖾𝗂𝗇 𝖽𝖾 𝘝𝗋𝗂𝖾𝗌@Rein_de_Vries,"#eth
another one bites the dust",1,0,0,False
129,Heldinne@Heldinne,"#eth #eentegenhonderd #eentegen100 
hoeken",0,0,0,False
130,𝘙𝖾𝗂𝗇 𝖽𝖾 𝘝𝗋𝗂𝖾𝗌@Rein_de_Vries,"#eth
hoeken",0,0,0,False
131,Heldinne@Heldinne,"#eth #eentegenhonderd #eentegen100 
ether",0,0,0,False
132,𝘙𝖾𝗂𝗇 𝖽𝖾 𝘝𝗋𝗂𝖾𝗌@Rein_de_Vries,"#eth
etherreclame",0,0,0,False
134,Heldinne@Heldinne,"#eth #eentegenhonderd #eentegen100 
betaling",1,0,0,False
135,𝘙𝖾𝗂𝗇 𝖽𝖾 𝘝𝗋𝗂𝖾𝗌@Rein_de_Vries,"#eth
betaling",0,0,0,False
136,Terry Norton@1335Days,"Replying to @Bitcoin@Bitcoin Don't think so. #Ethereum is still the #Banksters (R3) oligarchy system, just different tools. #Bitcoin is out of the system.",1,0,0,False
137,Thorsten Heller@ThoHeller,"Why Many #SmartContract #UseCases Are Simply #Impossible http://bit.ly/1NvzoO3 via @CoinDesk
#blockchain #Ethereum @ethereumproject",2,1,0,False
138,𝘙𝖾𝗂𝗇 𝖽𝖾 𝘝𝗋𝗂𝖾𝗌@Rein_de_Vries,"#eth
messing",0,0,0,False
139,Anna Schermerh@Anna_Pom,#eth films B?,0,0,0,False
140,𝘙𝖾𝗂𝗇 𝖽𝖾 𝘝𝗋𝗂𝖾𝗌@Rein_de_Vries,"#eth
self destruct",0,0,0,False
141,Anna Schermerh@Anna_Pom,#eth vaut,0,0,0,False
142,Heldinne@Heldinne,vaut #eth #eentegenhonderd #eentegen100,0,0,0,False
143,Anna Schermerh@Anna_Pom,#eth comm. A,0,0,0,False
144,Heldinne@Heldinne,"#eth #eentegenhonderd #eentegen100 
collect",0,0,0,False
145,𝘙𝖾𝗂𝗇 𝖽𝖾 𝘝𝗋𝗂𝖾𝗌@Rein_de_Vries,"#eth
collect call",0,0,0,False
147,𝘙𝖾𝗂𝗇 𝖽𝖾 𝘝𝗋𝗂𝖾𝗌@Rein_de_Vries,"#eth
vaut",0,0,0,False
148,𝘙𝖾𝗂𝗇 𝖽𝖾 𝘝𝗋𝗂𝖾𝗌@Rein_de_Vries,"#eth
philips de tweede",0,0,0,False
162,Heldinne@Heldinne,#eth #eentegenhonderd #eentegen100 Willem,1,0,0,False
163,Heldinne@Heldinne,#eth #eentegenhonderd #eentegen100 warme trui,0,0,0,False
164,Anna Schermerh@Anna_Pom,#eth sport C,0,0,0,False
165,Heldinne@Heldinne,"oh nooo! 
#eth #eentegenhonderd #eentegen100",0,0,0,False
166,Heldinne@Heldinne,"#eth #eentegenhonderd #eentegen100 
underground",0,0,0,False
167,𝘙𝖾𝗂𝗇 𝖽𝖾 𝘝𝗋𝗂𝖾𝗌@Rein_de_Vries,"#eth
underground",0,0,0,False
168,𝘙𝖾𝗂𝗇 𝖽𝖾 𝘝𝗋𝗂𝖾𝗌@Rein_de_Vries,"#eth
present",0,0,0,False
169,BitcoinAgile@bitcoinagile,#ethereum Is Making Waves Through Education and Internet of Things http://altcointoday.com/ethereum-making-waves-education-internet-things…,1,0,0,False
170,BitcoinAgile@bitcoinagile,#ethereum Is Making Waves Through Education and Internet of Things http://bit.ly/23QrAzC,0,0,0,False
171,@gasull@mastodon.social@gasull,"Proof of Physical Address https://proofofphysicaladdress.com
#Ethereum",0,0,0,False
172,Bitcause@bitcause,"Weekly automated withdraws have been sent to your Bitcoin wallets!
More hashrate? Visit https://bitcause.org       
Available: #ethereum",0,0,0,False
175,ETHER@CHICAGOETHER,Smoke a Thon Will also be available on #iTunes #supportthemovement #smokeathon #smokathon #ether… https://instagram.com/p/BET9Gm3iWw8/,0,0,0,False
176,EtherFire@TheEtherFire,Replying to @aiphanes@aiphanes I think we are going to .05 but it was touch and go there the past 3 weeks! Hold in there big rewards! #ethereum,0,0,0,False
179,BitcoinAgile@bitcoinagile,#ethereum Is Making Waves Through Education and Internet of Things http://bit.ly/1U0ft0m,0,0,0,False
180,David Liam@crazydaveorama,Who Will Pay for #Turing-Complete #SmartContracts? #blockchain #Ethereum http://bit.ly/1qOuXck via @CoinDesk,1,0,0,False
181,Issam Kadiri@IssamKadiri,EtherEx looks beyond #cryptocurrency trading towards a tokenised future on #Ethereum http://flip.it/uoASO #blockchain,0,0,0,False
182,David Liam@crazydaveorama,"#Ethereum Market Cap Moved by Greed, Reason and Escape from #Bitcoin http://coint.co/2xyt",0,0,0,False
183,BitcoinAgile@bitcoinagile,#ethereum Is Making Waves Through Education and Internet of Things #news #channel #Bitcoin http://bit.ly/1XDdoWU,1,1,0,False
184,BitcoinAgile@bitcoinagile,#ethereum Is Making Waves Through Education and Internet of Things #blockchain #bitcoin http://bit.ly/1XDciuy,2,4,0,False
186,Bear@bearBTC,Closed #eth short 0.02196,0,0,0,False
187,@goodc0re@bitcoinhackers.org@goodc0re,#Bail-Ins Are Here: Banks Have Less Than HALF A CENT For Each Dollar  https://youtu.be/vZ_-l2D9b98 #bitcoin #ethereum #cryptocurrency #dashpayBail In Here: Banks Have Less Than HALF A CENT For Each Dollar - Mike...Catch the latest breaking news at http://www.goldsilver.com Did you realize that the banking system likely holds less than half a cent for each dollar they h...youtube.com,0,0,0,False
189,Ethereum Price@EthereumPrice_,"#Ethereum: Ether Price Index
1 ETH =0.022059Ƀ XBT = $9.391240 USD
Today: +10.35%⬆︎ Last 24h: +13.31%⬆︎
https://ethereum-price.com",0,0,0,False
194,ICOcountdown@ICOcountdown,Etherex added to http://icocountdown.com https://etherex.org #etherex #ethereum #ethereumproject #exchangeICOCOUNTDOWN.COMNever miss a crowdsale again!icocountdown.com,0,0,0,False
196,Crypto ― logen@cryptologen,"#Altcoins Price Analysis (Week of April 17th): #Ethereum, #Litecoin and #DASH http://cointelegraph.com/news/altcoins-price-analysis-week-of-april-17th-ethereum-litecoin-and-dash?ref=5281…
#cryptocurrency #exchange #ethusdAltcoins Price Analysis (Week of April 17th): Ethereum, Litecoin and DASHThe current upward dynamics on Ethereum and Litecoin markets have the potential to grow into medium-term upward trends.cointelegraph.com",1,1,0,False
199,amar@amar_mca,"Ether Prices Plunge 50% as Bitcoin Stays in Holding Pattern http://bit.ly/2664Ei1 via @CoinDesk #ether #BitcoinEther Prices Plunge 50% as Bitcoin Stays in Holding Pattern - CoinDeskBitcoin prices fluctuated largely within a tight range, while the value of ether, the token on the ethereum blockchain, saw a sharp price reduction.coindesk.com",0,0,0,False
201,ETHER@CHICAGOETHER,Coming #420  #datpiff #mixtape #indy #ether #smokathon #smokeathon https://instagram.com/p/BETuHeECW4I/,0,0,0,False
202,AltcoinLive bot@AltcoinLiveBot,updated $ETH sellwall 18.7btc @ 0.02350000 http://altcoinlive.com/bittrex-eth-btc #altcoinlive (change 0.00050001),0,0,0,False
203,Maikel Steur@kleinevis,Ellie for president! Top shirt! #ether #disipline https://instagram.com/p/BETsBy6wOLO/,0,0,0,False
204,Altsheets Dev@altsheets,"ETH trading higher than BTC trading volume24
$ETH trading (23mio$)
$BTC trading (22mio$)
http://coinmarketcap.com/currencies/volume/24-hour/…",0,0,0,False
205,EtherFire@TheEtherFire,#ethereum is on fire!,0,0,0,False
209,crypto_hunter@cryptos07,Bitcoinkan 1BTC giveaway share and earn this article : http://ln.is/btckan.com/news/topi/eeEDO… #bitcoin #giveaway #cryptocurrency #ethereum,0,0,0,False
211,BitcoinAgile@bitcoinagile,Homomorphic Encryption and Smart Contracts for Privacy and Transparency - NEWSBTC #ethereum http://newsbtc.com/2016/04/17/homomorphic-encryption-and-smart-contracts-for-privacy-and-transparency…,3,5,0,False
214,Ethereum UAE@Ethereum_UAE,"Altcoins Price Analysis (Week of April 17th): Ethereum, Litecoin and DASH http://ift.tt/1NgB3fB #EthereumAltcoins Price Analysis (Week of April 17th): Ethereum, Litecoin and DASHThe current upward dynamics on Ethereum and Litecoin markets have the potential to grow into medium-term upward trends.cointelegraph.com",0,0,0,False
215,YOᗪI ᕼEᖇᗰᗩᗯᗩᑎ@YodiHermawan,"Altcoins #Price Analysis (Week of April 17th): #Ethereum, #Litecoin and #DASH: <![CDATA… http://goo.gl/fb/hVLrRE #vk",0,0,0,False
217,CoinFollower@CoinFollowerCom,"Altcoins Price Analysis (Week of April 17th): Ethereum, Litecoin and DASH: #ethereum http://coinfollower.com/620/Altcoins%20Price%20Analysis%20(Week%20of%20April%2017th):%20Ethereum,%20Litecoin%20and%20DASH…",0,0,0,False
218,Michael Yuhn@mikeyuhn,#Blockchain for Grown Ups: Cutting Through the Hype @wesleyyuhn1 @ThoughtWorks http://wesleyyuhnfintech.com/?edition_id=bcfeebb0-041b-11e6-8295-002590a5ba2d… #HBaaS #BaaS #EBaaS #Ethereum #CIO,2,3,0,False
219,Josh Finer@finer9,$ETH to @OKCoinBTC ?,0,0,0,False
220,Victor Bucataru@devktor,@BitProfile decentralized user namespace system has been released http://bitprofile.org #Ethereum #Stealth #beta,2,0,0,False
221,Ethereum Price@EthereumPrice_,"#Ethereum: Ether Price Index
1 ETH =0.022359Ƀ XBT = $9.633000 USD
Today: +11.86%⬆︎ Last 24h: +16.03%⬆︎
https://ethereum-price.com",0,0,0,False
222,Ethereum SE@StackEthereum,Is it possible to establish a conditional gas limit in a transaction? http://ethereum.stackexchange.com/questions/3124/is-it-possible-to-establish-a-conditional-gas-limit-in-a-transaction… #ethereum #solidity #gas #evm #gaslimit,1,0,0,False
223,Ethereum SE@StackEthereum,Smart contracts and IoT: how will they call the physical world? http://ethereum.stackexchange.com/questions/3126/smart-contracts-and-iot-how-will-they-call-the-physical-world… #ethereum #introducingethereum,1,0,0,False
224,4BC@aff4bc,"#Altcoins #Price Analysis (Week of April 17th): #Ethereum, #Litecoin and #DASH: The current… http://short.4bc.co/ttasks",0,0,0,False
225,Widget 4 Bitcoin@widget4bc,"#Altcoins #Price Analysis (Week of April 17th): #Ethereum, #Litecoin and #DASH: The current… http://short.4bc.co/ttasks",0,0,0,False
226,Bitcoin Directory@dir4bc,"#Altcoins #Price Analysis (Week of April 17th): #Ethereum, #Litecoin and #DASH: The current… http://short.4bc.co/ttasks",0,0,0,False
227,Julia Vaingurt@julia_vaingurt,"#OTC #Broker buys 300 #bitcoin for $468.70 each
 =MarketPrice $430 + 9%
 How does it work?Respond!
 #P2P #ETH http://cur.lv/xidu1",0,0,0,False
228,ALΞCO@a_l_e_c_o,"#Altcoins Price Analysis (Week of April 17th): #Ethereum, #Litecoin and #DASH http://coint.co/2y9L",0,0,0,False
229,Crypto_Lobbyist@CryptoLobbyist,#ethereum #eth $ETHER,0,0,0,False
230,𝕸𝖊𝖗𝖑𝖎𝖓𝖘 𝕸𝖆𝖙𝖗𝖎𝖝@Merlinsmatrix,"Altcoins Price Analysis (Week of April 17th): #Ethereum, #Litecoin and #dash http://cointelegraph.com/news/altcoins-price-analysis-week-of-april-17th-ethereum-litecoin-and-dash?ref=5991…",0,0,0,False
231,Ali Güçlü@aliguclu,"CoinTelegraph : #Altcoins Price Analysis (Week of April 17th): #Ethereum, #Litecoin and #D… https://twitter.com/CoinTelegraph/status/721708885866901506…)Quote TweetCointelegraph@Cointelegraph · Apr 17, 2016#Altcoins Price Analysis (Week of April 17th): #Ethereum, #Litecoin and #DASH http://cointelegraph.com/news/altcoins-price-analysis-week-of-april-17th-ethereum-litecoin-and-dash…",0,0,0,False
234,Bitcoin Association@bitcoinassoc,"Ethereum’s Price Drop Reverses

The price of #Ethereum has taken a significant dive over the past few weeks... http://fb.me/3KUhteLox",0,0,0,False
238,Altcoinix[KLKS]@Yavuzcetinkaya3,"Get your free Billary Coins Per Hours

http://altcoinix.com/billary-coin-faucet/…
@BillaryCoin #bitcoin #blockchain #btc #ethereum #Altcoin",1,0,0,False
239,John Reno@jsreno,Some pragmatic thoughts on Smart Contracts. #Ethereum #blockchain http://coindesk.com/three-smart-contract-misconceptions/?utm_source=CoinDesk+subscribers&utm_campaign=805b819216-EMAIL_RSS_CAMPAIGNT2&utm_medium=email&utm_term=0_74abb9e6ab-805b819216-79016069…,1,0,0,False
241,ALΞCO@a_l_e_c_o,#China Forum actively discussing for testing trading #ethereum #ether #OKCoin @OKCoinBTC http://goo.gl/eHUncV https://twitter.com/OKCoinBTC/status/721402694016102404…This Tweet is unavailable.,1,0,0,False
242,Christine Sukasih@Christine_S025,#Ethereum’s #Price Drop Reverses: The price of Ethereum has taken a significant dive over… http://goo.gl/fb/6jSney,1,0,0,False
243,YOᗪI ᕼEᖇᗰᗩᗯᗩᑎ@YodiHermawan,#Ethereum’s #Price Drop Reverses: The price of Ethereum has taken a significant dive… http://goo.gl/fb/Gm2On5 #vk,0,0,0,False
244,Liz Hermawan@LizHermawan,#Ethereum’s #Price Drop Reverses: The price of Ethereum has taken a significant dive… http://goo.gl/fb/A8iFD4 #vk,0,0,0,False
245,cryptinsight@cryptinsight,Trade #ethereum-Based DigixDAO On OpenLedger Come April 28 #news #channel #Bitcoin #BTC #bAgile #wallstreet http://bit.ly/1TcHQ9f,0,0,0,False
246,Safwan Zaheer@safwanzaheer,"#Ethereum rocks after proving smart contract linked energy trades
#blockchain #cryptocurrency #fintech #bitcoin https://lnkd.in/e8Jd2YT",0,0,0,False
248,AltcoinLive bot@AltcoinLiveBot,updated $ETH sellwall 11.5btc @ 0.02299999 http://altcoinlive.com/bittrex-eth-btc #altcoinlive (change -0.00000001),0,0,0,False
249,BitcoinAgile@bitcoinagile,EtherEx looks beyond cryptocurrency trading towards a tokenised future on #ethereum  Guide http://bit.ly/1TcGwmA,1,0,0,False
250,Julia Edling@bitcointonic,"#Ethereum #Bitcoin and the future of #CryptoCurrency 2016: The four ways to invest in crypto Currency, a clear… http://dlvr.it/L4jZVR",2,0,0,False
251,BitcoinAgile@bitcoinagile,#ethereum Price Weekly Analysis: Consolidation Before Further Gains? http://bit.ly/1TcEBi1,1,1,0,False
252,BitcoinAgile@bitcoinagile,#ethereum Price Weekly Analysis: Consolidation Before Further Gains? http://altcointoday.com/ethereum-price-weekly-analysis-consolidation-indecision…,0,0,0,False
254,BitcoinAgile@bitcoinagile,EtherEx looks beyond cryptocurrency trading towards a tokenised future on #ethereum https://ethereumblockchainreport.wordpress.com/2016/04/17/etherex-looks-beyond-cryptocurrency-trading-towards-a-tokenised-future-on-ethereum…,1,0,0,False
257,Ethereum UAE@Ethereum_UAE,Why Many Smart Contract Use Cases Are Simply Impossible http://ift.tt/1QfFCkQ #Ethereum,0,0,0,False
258,cryptinsight@cryptinsight,Trade #ethereum-Based DigixDAO On OpenLedger Come April 28 #blockchain #Digix #DigixDAO #exchange #gold #openledger http://bit.ly/1TcDvCM,1,1,0,False
259,BitcoinAgile@bitcoinagile,Why Many Smart Contract Use Cases Are Simply Impossible - CoinDesk #Ethereum #Featured http://coindesk.com/three-smart-contract-misconceptions…,1,1,0,False
260,Bear@bearBTC,Short $Eth 0.02220800 get ready to go back to sub .018,0,0,0,False
262,Marko Sakal@markosakal,Decentralised exchange #OpenLedger  launches #Ethereum -based DigixDAO trading http://ibt.uk/A6WaQ via @IBTimesUK,2,2,0,False
263,Cloud Mining Monitor@cmmonitorcom,#Ethereum #Cloudmining': 17.04.2016 Payment received. 5 MHs - 0.05996989 ETH. From MyCoinCloud. http://cmmonitor.com/59-mycoincloud-ethereum-mining.html…,0,0,0,False
265,Sicarious@Sicarious_,Longed $eth @ 95 yesterday. Closed @ 96 on the OKC rejection tweeted. #regrets,0,0,0,False
266,Cloud Mining Monitor@cmmonitorcom,#Ethereum #Cloudmining': 17.04.2016 Payment received. 6 MHs - 0.09315470 ETH. From Genesis Mining.Genesis Mining (Ethereum Mining)cmmonitor.com,0,0,0,False
269,Bean@BTCBean,"OMG BTCbean breakout pump!!! - One more follower to 200 follower ATH. 

$btcbean 

Follow @btcbean now to the moon!!!!

$btc $ltc $eth",0,0,0,False
273,indxio@indxio,#Russia Market Close || #Bitcoin: $427.99 | 378.51 EUR||  #Litecoin: 0.0076 BTC  || #Ethereum: 0.0217 BTC   || $BTC $LTC $ETH $RUB,0,0,0,False
276,Bogdan STRB@BogdanSTRB,Amazing photo : Y #bitcoin #blockchain #cryptos #24cryptonews #litecoin #ethereum via @24cryptonews,0,0,0,False
277,Ethereum Price@EthereumPrice_,"#Ethereum: Ether Price Index
1 ETH =0.021715Ƀ XBT = $9.336250 USD
Today: +8.63%⬆︎ Last 24h: +14.74%⬆︎
https://ethereum-price.com",1,0,0,False
279,ILbotCrypto@LbotCrypto,RT Edoncoin: What is #Edoncoin? (v1) https://youtu.be/xg-KgWu58To via YouTube #altcoin #bitcoin #crypto #lisk #eth #ico,0,0,0,False
285,Aleksandr Zykov@jTeego,Wow wow wow! Jaxx 0.0.18 can show negative balance in some cases :) WTB fix #ethereum @jaxx_io,1,0,0,False
291,cryptoNaut @_hightek,"Bought some $ETH, let's see if it does a rally.",0,0,0,False
293,OpenLedger@OpenLedgerDC,#DigixDAO’s main purpose and vision is to build a digital #gold payments system on #Ethereum http://ibtimes.co.uk/decentralised-exchange-openledger-launches-ethereum-based-digixdao-trading-1555234… #Openledger #ETH #DGD,1,2,0,False
294,Tomasz K-G@tkorwin,Decentralised exchange OpenLedger launches #Ethereum based DigixDAO tradingDecentralised exchange OpenLedger launches Ethereum-based DigixDAO tradingThe Digix DGD asset will trade on OpenLedger from 28 April.ibtimes.co.uk,0,0,0,False
295,AltcoinLive bot@AltcoinLiveBot,updated $ETH sellwall 26.8btc @ 0.02300000 http://altcoinlive.com/bittrex-eth-btc #altcoinlive (change 0.00000001),0,0,0,False
297,AndyC@evopilottuner,#ethereum rising nicely $10 peak during the night now at $9.14,0,0,0,False
298,Ethereum SE@StackEthereum,How does mining software choose transactions? http://ethereum.stackexchange.com/questions/3115/how-does-mining-software-choose-transactions… #ethereum #transactions #mining #blocks #mempool,1,0,0,False
299,Ethereum SE@StackEthereum,How does mining software choose transactions? http://ethereum.stackexchange.com/questions/3115/how-does-mining-software-choose-transactions… #ethereum #mining,0,0,0,False
300,AltcoinLive bot@AltcoinLiveBot,new $ETH sellwall 11.5btc @ 0.02299999 http://altcoinlive.com/bittrex-eth-btc #altcoinlive,0,0,0,False
301,Ethereum Price@EthereumPrice_,"#Ethereum: Ether Price Index
1 ETH =0.020946Ƀ XBT = $8.987835 USD
Today: +4.79%⬆︎ Last 24h: +10.11%⬆︎
https://ethereum-price.com",0,0,0,False
302,rufus666@fumanchu6666,shorting $ETH at 0.0213. cloud res & downtrend line. maybe it works,1,0,0,False
305,Julia Vaingurt@julia_vaingurt,"Interested in mining cryptocurrency? Use promo-code: r8UBTu for 3% discount at http://cur.lv/xi3m7
#ethereum #bitcoin #invest #eth #btc",1,1,0,False
306,Drake moves Fan@Steak_Shirt,Interested in mining cryptocurrency? Use promo-code: r8UBTu for 3% discount at http://ift.tt/1mvVNC1 #ethereum #bitcoin #invest #eth #btc,1,1,0,False
307,Ethereum SE@StackEthereum,Calling public array of structs using web3 http://ethereum.stackexchange.com/questions/3114/calling-public-array-of-structs-using-web3… #ethereum #web3js #arrays,0,0,0,False
308,Ether@etherfaucet,Enter for a Chance to Win 1 #Ether #Ethereum https://wn.nr/jELVF6,0,0,0,False
309,BitcoinAgile@bitcoinagile,Help discuss #ethereum on Bitcointalk http://rimbit.com/threads/help-discuss-ethereum-on-bitcointalk.4305…,2,0,0,False
310,fav@btsfav,How To Trade #Ethereum Based MKR and DGD ► http://favd.xyz/1S2uj4W #favs,2,0,0,False
311,AltCoinExpert@alt_expert,"""Explain it like I’m Five – Bitcoin Mining Difficulty Level"" #ethereum http://newsbtc.com/2016/04/17/bitcoin-difficulty-level/…",1,0,0,False
317,Dappstore@Dappstore,Replying to @OKCoin@OKCoinBTC Don't miss out on the action of #ethereum,0,0,0,False
318,indxio@indxio,#China Market Close || #Bitcoin: $429.31 | 380.45 EUR||  #Litecoin: 0.0076 BTC  || #Ethereum: 0.0208 BTC   || $BTC $LTC $ETH $RMB,0,0,0,False
319,ethereum.network@EthereumNetw,"#blockchain as next step of evolution in storing and processing data
#Ethereum
https://medium.com/@ConsenSys/you-can-t-do-it-without-a-blockchain-here-s-why-f1b00ffa7e40#.iww9nxdzq… by @JesseGrushack @ConsenSysLLCYou Can’t Do It Without a Blockchain, Here’s WhyWhat comes to mind when you think about the word data? Digital documents? Filing cabinets? Hard drives and memory sticks? Data is…medium.com",4,5,0,False
320,ethereum.network@EthereumNetw,"#Blockchain will usher in the era of decentralised computing
#Ethereum #Bitcoin #IPFS @BigchainDBBlockchain will usher in the era of decentralised computingBy now, you’ve heard of blockchain, the technology that underlies Bitcoin. Blockchains are a type of decentralisation technology that will…blog.bigchaindb.com",21,23,1,False
321,Rodrigo Paulo Gomes []@bgcoin,"Brooklyn microgrid goes live w blockchain-powered transaction
http://bizjournals.com/newyork/news/2016/04/11/brooklyn-microgrid-goes-live-with-blockchain.html?ana=twt…
#ethereum #blockchain >@TransActiveGrd >@ConsenSysLLCBrooklyn microgrid goes live with blockchain-powered transactionTransActive Grid, made up of a team of engineers and developers, went live with the first completed payment was made using blockchain software via PayPal.bizjournals.com",1,0,0,False
322,AltcoinLive bot@AltcoinLiveBot,updated $ETH buywall 12.2btc @ 0.02033920 http://altcoinlive.com/bittrex-eth-btc #altcoinlive (change -0.00006079),0,0,0,False
323,AltcoinLive bot@AltcoinLiveBot,updated $ETH buywall 12.2btc @ 0.02039999 http://altcoinlive.com/bittrex-eth-btc #altcoinlive (change -0.00007567),0,0,0,False
324,AltcoinLive bot@AltcoinLiveBot,updated $ETH buywall 12.3btc @ 0.02047566 http://altcoinlive.com/bittrex-eth-btc #altcoinlive (change -0.00008543),0,0,0,False
325,AltcoinLive bot@AltcoinLiveBot,updated $ETH buywall 12.3btc @ 0.02056109 http://altcoinlive.com/bittrex-eth-btc #altcoinlive (change 0.00000228),0,0,0,False
326,AltcoinLive bot@AltcoinLiveBot,updated $ETH buywall 12.3btc @ 0.02055881 http://altcoinlive.com/bittrex-eth-btc #altcoinlive (change 0.00000048),0,0,0,False
327,AltcoinLive bot@AltcoinLiveBot,updated $ETH buywall 12.3btc @ 0.02055833 http://altcoinlive.com/bittrex-eth-btc #altcoinlive (change 0.00000120),0,0,0,False
328,AltcoinLive bot@AltcoinLiveBot,updated $ETH buywall 12.5btc @ 0.02055713 http://altcoinlive.com/bittrex-eth-btc #altcoinlive (change 0.00004059),0,0,0,False
329,AltcoinLive bot@AltcoinLiveBot,updated $ETH buywall 12.3btc @ 0.02051654 http://altcoinlive.com/bittrex-eth-btc #altcoinlive (change 0.00000149),0,0,0,False
330,AltcoinLive bot@AltcoinLiveBot,updated $ETH buywall 12.3btc @ 0.02051505 http://altcoinlive.com/bittrex-eth-btc #altcoinlive (change 0.00001249),0,0,0,False
332,AltcoinLive bot@AltcoinLiveBot,updated $ETH buywall 12.4btc @ 0.02050256 http://altcoinlive.com/bittrex-eth-btc #altcoinlive (change 0.00010257),0,0,0,False
333,AltcoinLive bot@AltcoinLiveBot,updated $ETH buywall 12.2btc @ 0.02039999 http://altcoinlive.com/bittrex-eth-btc #altcoinlive (change 0.00010582),0,0,0,False
334,AltcoinLive bot@AltcoinLiveBot,updated $ETH buywall 12.2btc @ 0.02029417 http://altcoinlive.com/bittrex-eth-btc #altcoinlive (change 0.00006479),0,0,0,False
335,AltcoinLive bot@AltcoinLiveBot,updated $ETH buywall 12.1btc @ 0.02022938 http://altcoinlive.com/bittrex-eth-btc #altcoinlive (change 0.00005077),0,0,0,False
336,AltcoinLive bot@AltcoinLiveBot,updated $ETH buywall 12.1btc @ 0.02017861 http://altcoinlive.com/bittrex-eth-btc #altcoinlive (change -0.00043442),0,0,0,False
347,AltcoinLive bot@AltcoinLiveBot,updated $ETH buywall 12.4btc @ 0.02061303 http://altcoinlive.com/bittrex-eth-btc #altcoinlive (change -0.00008812),0,0,0,False
349,AltcoinLive bot@AltcoinLiveBot,updated $ETH buywall 12.4btc @ 0.02070115 http://altcoinlive.com/bittrex-eth-btc #altcoinlive (change 0.00000028),0,0,0,False
350,AltcoinLive bot@AltcoinLiveBot,updated $ETH buywall 12.4btc @ 0.02070087 http://altcoinlive.com/bittrex-eth-btc #altcoinlive (change 0.00000045),0,0,0,False
351,AltcoinLive bot@AltcoinLiveBot,updated $ETH buywall 12.4btc @ 0.02070042 http://altcoinlive.com/bittrex-eth-btc #altcoinlive (change 0.00000011),0,0,0,False
352,AltcoinLive bot@AltcoinLiveBot,updated $ETH buywall 12.4btc @ 0.02070031 http://altcoinlive.com/bittrex-eth-btc #altcoinlive (change 0.00000029),0,0,0,False
353,Ethereum Price@EthereumPrice_,"#Ethereum: Ether Price Index
1 ETH =0.020931Ƀ XBT = $8.926050 USD
Today: +4.71%⬆︎ Last 24h: +8.80%⬆︎
https://ethereum-price.com",1,0,0,False
354,AltcoinLive bot@AltcoinLiveBot,updated $ETH buywall 12.4btc @ 0.02070002 http://altcoinlive.com/bittrex-eth-btc #altcoinlive (change -0.00008360),0,0,0,False
355,AltcoinLive bot@AltcoinLiveBot,updated $ETH buywall 12.5btc @ 0.02078362 http://altcoinlive.com/bittrex-eth-btc #altcoinlive (change 0.00008347),0,0,0,False
356,AltcoinLive bot@AltcoinLiveBot,updated $ETH buywall 12.4btc @ 0.02070015 http://altcoinlive.com/bittrex-eth-btc #altcoinlive (change -0.00000220),0,0,0,False
357,AltcoinLive bot@AltcoinLiveBot,updated $ETH buywall 12.4btc @ 0.02070235 http://altcoinlive.com/bittrex-eth-btc #altcoinlive (change 0.00000023),0,0,0,False
358,AltcoinLive bot@AltcoinLiveBot,updated $ETH buywall 12.4btc @ 0.02070212 http://altcoinlive.com/bittrex-eth-btc #altcoinlive (change 0.00000022),0,0,0,False
359,AltcoinLive bot@AltcoinLiveBot,updated $ETH buywall 12.4btc @ 0.02070190 http://altcoinlive.com/bittrex-eth-btc #altcoinlive (change -0.00009657),0,0,0,False
360,AltcoinLive bot@AltcoinLiveBot,updated $ETH buywall 12.5btc @ 0.02079847 http://altcoinlive.com/bittrex-eth-btc #altcoinlive (change 0.00004609),0,0,0,False
361,AltcoinWeekly@altcoinweekly,The latest Ethereum price is USD 9.08. For historical #Ethereum price charts - http://buff.ly/1Y3h6Jz,0,0,0,False
362,CoinGecko@coingecko,The latest Ethereum price is USD 9.08. For historical #Ethereum price charts - http://buff.ly/1Y3h6Jz,2,1,0,False
363,Ξ Fly Guy Ξ (flyguy.eth)@FlyGuyInTheSky,#ethereum managed to break above 0.021500 to 0.022300 on #kraken showing uptrend 4 hr chart. Playing catch up #btc,0,0,0,False
367,AltcoinLive bot@AltcoinLiveBot,updated $ETH buywall 12.5btc @ 0.02075238 http://altcoinlive.com/bittrex-eth-btc #altcoinlive (change -0.00007632),0,0,0,False
368,AltcoinLive bot@AltcoinLiveBot,updated $ETH buywall 12.5btc @ 0.02082870 http://altcoinlive.com/bittrex-eth-btc #altcoinlive (change -0.00006745),0,0,0,False
369,AltcoinLive bot@AltcoinLiveBot,updated $ETH buywall 12.5btc @ 0.02089615 http://altcoinlive.com/bittrex-eth-btc #altcoinlive (change 0.00000044),0,0,0,False
370,ILbotCrypto@LbotCrypto,What is #Edoncoin? (v1) https://youtu.be/xg-KgWu58To via YouTube #altcoin #bitcoin #crypto #lisk #eth #ico,0,0,0,False
371,AltcoinLive bot@AltcoinLiveBot,updated $ETH buywall 12.5btc @ 0.02089571 http://altcoinlive.com/bittrex-eth-btc #altcoinlive (change 0.00000044),0,0,0,False
372,AltcoinLive bot@AltcoinLiveBot,updated $ETH buywall 12.5btc @ 0.02089527 http://altcoinlive.com/bittrex-eth-btc #altcoinlive (change 0.00000066),0,0,0,False
373,AltcoinLive bot@AltcoinLiveBot,updated $ETH buywall 12.5btc @ 0.02089461 http://altcoinlive.com/bittrex-eth-btc #altcoinlive (change 0.00000055),0,0,0,False
374,AltcoinLive bot@AltcoinLiveBot,updated $ETH buywall 12.5btc @ 0.02089406 http://altcoinlive.com/bittrex-eth-btc #altcoinlive (change 0.00000055),0,0,0,False
375,Bitcoin@bitcoinpoet,Dapp implementations and Cost-Benefit Analysis with Ethereum:       submitted by    /u/codiox  [link... http://bit.ly/20Mv5FE #ethereum,2,1,0,False
376,Bitcoin@bitcoinpoet,Pre-sale wallet questions: I have one of those exacting type personalities which has limited my abil... http://bit.ly/1VadqYJ #ethereumPre-sale wallet questionsI have one of those exacting type personalities which has limited my ability to horse around with my pre-sale wallet; really dont want to screw it...reddit.com,0,0,0,False
377,AltcoinLive bot@AltcoinLiveBot,updated $ETH buywall 12.5btc @ 0.02089351 http://altcoinlive.com/bittrex-eth-btc #altcoinlive (change 0.00000054),0,0,0,False
378,AltcoinLive bot@AltcoinLiveBot,updated $ETH buywall 12.5btc @ 0.02089297 http://altcoinlive.com/bittrex-eth-btc #altcoinlive (change -0.00005678),0,0,0,False
379,AltcoinLive bot@AltcoinLiveBot,updated $ETH buywall 12.6btc @ 0.02094975 http://altcoinlive.com/bittrex-eth-btc #altcoinlive (change 0.00000030),0,0,0,False
380,AltcoinLive bot@AltcoinLiveBot,updated $ETH buywall 12.6btc @ 0.02094945 http://altcoinlive.com/bittrex-eth-btc #altcoinlive (change 0.00005689),0,0,0,False
381,Crypto Crooks@cryptocrooks,Nice little bump in #ether happening note. Good thing I bought low,0,0,0,False
382,Rodrigo Movendo@rodrigodorje,Free Ethereum every 5 minutes http://etherfaucet.net/?r=0x089C5A675BB02951cb86d10c5CDC060E7D5216De… #ethereum via @FreeCryptoCo  #passatempo #dinheiro,1,1,0,False
384,AltcoinLive bot@AltcoinLiveBot,updated $ETH buywall 12.8btc @ 0.02127261 http://altcoinlive.com/bittrex-eth-btc #altcoinlive (change 0.00008658),0,0,0,False
385,AltcoinLive bot@AltcoinLiveBot,updated $ETH buywall 12.7btc @ 0.02118603 http://altcoinlive.com/bittrex-eth-btc #altcoinlive (change 0.00000011),0,0,0,False
386,AltcoinLive bot@AltcoinLiveBot,updated $ETH buywall 12.7btc @ 0.02118592 http://altcoinlive.com/bittrex-eth-btc #altcoinlive (change 0.00001082),0,0,0,False
387,AltcoinLive bot@AltcoinLiveBot,updated $ETH buywall 12.7btc @ 0.02117510 http://altcoinlive.com/bittrex-eth-btc #altcoinlive (change 0.00009949),0,0,0,False
388,AltcoinLive bot@AltcoinLiveBot,updated $ETH buywall 12.6btc @ 0.02107561 http://altcoinlive.com/bittrex-eth-btc #altcoinlive (change 0.00005474),0,0,0,False
389,AltcoinLive bot@AltcoinLiveBot,updated $ETH buywall 12.6btc @ 0.02102087 http://altcoinlive.com/bittrex-eth-btc #altcoinlive (change -0.00005397),0,0,0,False
390,AltcoinLive bot@AltcoinLiveBot,updated $ETH buywall 12.6btc @ 0.02107484 http://altcoinlive.com/bittrex-eth-btc #altcoinlive (change 0.00000031),0,0,0,False
391,AltcoinLive bot@AltcoinLiveBot,updated $ETH buywall 12.7btc @ 0.02107453 http://altcoinlive.com/bittrex-eth-btc #altcoinlive (change 0.00000029),0,0,0,False
407,AltcoinLive bot@AltcoinLiveBot,updated $ETH buywall 12.6btc @ 0.02107291 http://altcoinlive.com/bittrex-eth-btc #altcoinlive (change 0.00019320),0,0,0,False
408,BitcoinAgile@bitcoinagile,Decentralised exchange OpenLedger launches #ethereum-based DigixDAO trading  Forex Maxims http://forexmaxims.com/home2/decentralised-exchange-openledger-launches-ethereum-based-digixdao-trading…,2,3,0,False
409,Ethereum SE@StackEthereum,Specifying gas cost in solidity function call from JavaScript http://ethereum.stackexchange.com/questions/3106/specifying-gas-cost-in-solidity-function-call-from-javascript… #ethereum #solidity #web3js #gas #contractdebugging,1,2,0,False
