,user,text,likes,retweets,replies,is_thread
0,DECENT@DECENTplatform,$ETC vs. $ETH and a Community Consensus #ethereum #ethereumclassic #blockchain #cryptocurrency #crypto https://decent.ch/etc-vs-eth-community-consensus/…,67,100,0,False
1,ETH TRUTH@ethtruth,"HOLD
#ethereum #CryptoCurrency #ETH",0,0,0,False
2,Topicly VC@topiclyvc,"Now tracking: BlockApps expands #ethereum Blockchain-as-a-Service cloud offering to #china, raises pre-series-A ... http://topicly.io/topic/venture-capital?57e4e419be57452d00ddff3e…",6,1,0,False
3,BitPython@bitpython,"Join https://tuxexchange.com community at
https://bitcointalk.org/index.php?topic=1585968.0…
https://reddit.com/r/Tuxexchange
#Bitcoin
#doge
#DASH
#LTC
#PPC
#ethereum
#altcointuxexchange.com - Cryptocurrency Exchange • r/TuxexchangeTux Exchange is a modern cryptocurrency exchange offering spot trading in many popular currencies. We strive to deliver the fatest performance of...reddit.com",3,4,0,False
4,Kyckr@kyckr_official,"Ethereum Devs Applaud the Audience at Devcon’s Closing #ethereum #blockchain #devcon #fintech #tech #microsoft
http://ow.ly/tsEa304ulhE",2,0,0,False
5,MinerGate@MinerGate,"#Ethereum withdrawals are back up, #ETH is fully functional now",8,1,2,False
6,DonCorleone@BTCOIN_SCARFACE,"Buy #ICONOMI now . 5 days to go !! 
https://ico.iconomi.net
 5,412,917.78 USD  invested by now !! 
#ICN #BITCOIN #ethereum #crypto",5,5,0,False
7,Özlem Imil@HEADtoINSPIRE,Wirex users can now fund Mastercard debit cards with Ethereum! https://news.bitcoin.com/mastercard-wirex-altcoins-payments/… #ethereum #blockchain #fintech #tech #bankingMonero Mastercard? Wirex Bridges Altcoins with Legacy PaymentsWirex users can now fund Mastercard debit cards with Ethereum as well as two dozen other cryptocurrencies including Monero and Dash.news.bitcoin.com,2,0,0,False
9,E.G.Nadhan@NadhanEG,What be happenin' on Day One of #Blockchain summit #Shanghai? #FinTech #BitCoin #Ethereum https://lnkd.in/ezfPxpM,2,0,0,False
10,/r/Augur@AugurFeed,"#reddit [This post lacks merit] but... http://bit.ly/2d3Dr8w #ethereum #augur[This post lacks merit] but...I'm enjoying this calm before the storm. This sub is SO quiet now, but I'm almost certain this sub is going to be absolutely LIT in (a few weeks?)...reddit.com",2,3,0,False
11,Dr BitcoiN { #BTC }  BlockchaiN RevolutioN@Crypto_Odyssey,BlockApps Expands #Ethereum 's Presence in #China ; Announces New Funding and Key Partnerships https://bitcoinmagazine.com/articles/blockapps-expands-ethereum-s-presence-in-china-announces-new-funding-and-key-partnerships-1474649431… #blockchain #fintechBlockApps Expands Ethereum's Presence in China; Announces New...Ethereum is gaining ground in China as innovators have announced key developments and partnerships during International Blockchain Week in Shanghai.bitcoinmagazine.com,3,1,0,False
12,Ethereum UAE@Ethereum_UAE,"Synereo Reveals Storage Protocol, ‘Reflective’ Programming Language http://ift.tt/2cJJCPc #Ethereum",1,2,0,False
13,Christopher M. Bartley@CMBartley,"Who will be the first to support @ripple, @BitcoinTrezor or @LedgerHQ? Looking for a solution for #btc, #ethereum , and #xrp",3,2,1,False
14,Samson Waithaka@samson_huki,#ethereum biggedt competitor to #bitcoin #diversification for the industry #blockchainrevolution https://twitter.com/iconominet/status/779257522536509440…This Tweet is unavailable.,0,0,0,False
15,Phronesis™ Partners@Phronesis_inc,"As both #Ripple & #ethereum  gain momentum in the #blockchain #cryptocurrency space, which one is more likely to succeed? #fintech #bitcoin",6,6,0,False
16,ETHNews@ETHNews_,#RoyalBankofScotland Tests #Ethereum For Domestic Payments #smartcontracts #RBS http://ow.ly/ZBtn304vKI6,3,1,0,False
17,greenami & da silva@greenami1,Welcome to the first Church of Ethereology ;-) | #Devcon2 #ethereum #blockchain | http://bit.ly/2cHAM4N |Frank Zappa-A token of my extremeSong from the Frank Zappa Album Joe's Garage.youtube.com,3,1,0,False
18,Agorise@Agorise_world,"Here's the 6 reasons how we all win with CryptoRespect https://steemit.com/beyondbitcoin/@intelliguy/crypto-respect-all-of-us-need-to-stop-trying-to-drown-each-other-in-public-we-re-hurting-ourselves-here… #Bitcoin #ethereum #bitsharesCryptoRESPECT. All of us need to stop trying to drown each other in public. We're hurting ourselves...If the cryptocurrency space was a swimming pool, you'd see people trying to drown each other. This isn't good. As… by intelliguysteemit.com",2,2,0,False
19,BBW London Mistress@BBW_Mistresses,Join your newsletter. ICO starts in less than 2 days: http://ln.is/cIB0k #ico #ethereum... by @StartUpRealTime via @c0nvey,1,1,0,False
20,Gary Nuttall@gpn01,Charles Hoskinson @IOHK_Charles talking at #EthereumClassic about #cryptocurrency #Ethereum #Blockchain,1,0,0,False
21,Conor Svensson@conors10,Great post http://goo.gl/poUzB9 by @jugffm on integrating #Java apps with the #Ethereum #blockchain using #web3j https://goo.gl/7cOuWl,2,0,0,False
22,EtherBlockchain.io@etherblockchain,RBS tests demonstrate ability of #Ethereum to support a national domestic payments system https://finextra.com/newsarticle/29486/rbs-tests-demonstrate-ability-of-ethereum-to-support-a-national-domestic-payments-system… via @Finextra #blockchain,1,1,0,False
23,RK@mayarom101,Microsoft marches further into #Ethereum #Blockchain as a Service with 'Cryplets' and 'Enclaves' http://ibt.uk/A6dfE?utm_source=social&utm_medium=twitter&utm_campaign=/microsoft-marches-further-into-ethereum-blockchain-service-cryplets-enclaves-1582440… via @IBTimesUK,2,0,0,False
24,Bitcoin Magazine@BitcoinMagazine,BlockApps Expands #Ethereum's Presence in #China; Announces New Funding and Key Partnerships http://btcm.ag/blkapps @blockapps #blockchain,25,16,0,False
25,Muhammad Butt@muhammadbutt,Rob Smyth with that #ETHER: http://eurosport.co.uk/football/premier-league/2016-2017/too-powerful-distracting-and-negative-manchester-united-need-a-clean-slate-wayne-rooney-must-go_sto5870130/story.shtml…,4,3,0,False
26,Ludvig Öberg@ludvigoeberg,"I am sceptical to only PoS, however a PoW+PoS hybrid could be intersting, such as BTC+ Lightning network #ethereum http://buff.ly/2dbsZNk",2,2,2,False
27,Will Wheeler@willin140,Check our my long contract! Smart-contracts on @velocitymarkets #Ethereum #Devcon2  https://demo.velocity.technology,4,2,0,False
28,JuanGalt.com@JuanSGalt,".@VladZamfir on #Casper, Formal Verification, Collab with #Synereo and more. #ethereum #blockchain #fintechVlad Zamfir: Casper & Formal Verification of Smart ContractsVlad Zamfir, one of Ethereum's lead researchers talks about Casper, its future proof of stake protocol, as well as formal verification of smart contracts and...youtube.com",4,0,0,False
29,Igor Lilic ∞@ililic,Big bro @JohnLilic talking about energy and the #blockchain via #ethereum,15,3,0,False
30,SingularDTV@SingularDTV,Use the #SingularDTV #lightwallet to prepare for our upcoming token launch http://clicky.me/8817 #ethereum,10,9,1,False
31,Catalin Cimpanu@campuscodi,Ethereum Network Under Computational DDoS Attack http://buff.ly/2doOJZq #ETH #cryptocurrency #DDoS,3,4,0,False
32,CoinIdol@CoinIdol,Ethereum Network Deals With New DoS Attack https://coinidol.com/ethereum-network-deals-with-dos-attack/… #Ethereum #DDoS #dosattack,4,2,0,False
33,Randy Hilarski@RandyHilarski,Chuck D of Public Enemy on 9/11 http://slninja.com/Fvkv #Bitcoin #Ethereum #CryptoCurrency,9,1,0,False
34,Kris Stinson@StinsonKris,Artists have been screwed by complex contracts for decades. Turing-complete crypto contracts invite more of the same. #ethereum vs #tauchain,1,2,0,False
35,Francesco Roda@francescoroda,0x05b sends the first fund order on an #ethereum #blockchain. Not just another proof of concept  http://linkedin.com/hp/update/6184790906089070594… …,4,0,0,False
36,Nilan  නිලාන්@nilanp,Pretty awesome #lunchwise with @OneMorePeter and @kaarmann @TransferWise on #bitcoin #ethereum and the future of money,12,2,0,False
37,Nick Addison@naddison,BHP announces in Shanghai that they are using #Ethereum to manage core samples,3,1,0,False
38,SingularDTV@SingularDTV,The #SingularDTV #BitcoinTalk signature campaign is live! Join by reading this: http://clicky.me/881B #ethereum,4,7,1,False
39,Bitcoin Magazine@BitcoinMagazine,Blockchain Summit Day One: Highlights From Shanghai http://btcm.ag/bs1ibwsh #BlockchainSummit #fintech #bitcoin #blockchain #ethereum,6,13,0,False
40,3esmit.stateofus.eth@3esmit,So @google @adwords keep accepting @myetherwallet phishing sites. Everyone in #ethereum please start using adblockers like uBlock Origin.,3,8,0,False
41,Softpedia@Softpedia,Ethereum Network Under Computational DDoS Attack http://buff.ly/2d5AVAJ #ETH #cryptocurrency #DDoS,2,2,0,False
42,Jordan Leigh@AlwaysBCoding," New Blog Post. Doing my best to break down the insanity and brilliance at #Ethereum #DevCon
https://medium.com/@alwaysbcoding/the-insanity-and-brilliance-at-ethereums-developer-conference-baa89880d1ce#.arrapguej…",10,5,3,False
43,Reuben Godfrey@ReubenGodfrey,"Great speaking to @DanConway650 about missing #devcon2, the growing need for PR in crypto and web 3.0. https://soundcloud.com/reubeng/episode-2-dan-conway-zealot-communications… #ethereumEpisode 2 - Dan Conway, Zealot CommunicationsThis week I spoke with Dan Conway, an individual who has taken a leap of faith into the world of crypto-currency and formed a PR firm, Zealot communications, that focuses on helping blockchain start-usoundcloud.com",5,3,1,False
44,Maciej Jedrzejczyk (archived)@mjedrze,Two recent DDoS attacks on #ethereum and swift response of core devs to these show an exemplary governance in a decentralized community.,1,0,0,False
45,Vortex@theonevortex,"This comment by Dinofelis sums up $eth right now
""Doing new stuff still seems to be the engine, and security an afterthought.""
#ethereum",7,2,2,False
46,CryptoCompare@CryptoCompare,"We have a great offer from https://conference.bitcoin.com. 
25 free tickets if you are in London (6th - 7th Nov)
https://cryptocompare.com/coins/eth/post/p_15030… #ETH #BTC",6,5,0,False
47,BTCMANAGER@btc_manager,"#blockchain Start-Up's Are Reshaping the #Music Industry...
https://btcmanager.com/news/blockchain-start-ups-are-reshaping-the-music-industry/…
#tech #ethereum #decentralization #crypto",4,4,0,False
48,BTCMANAGER@btc_manager,"Stay On Top of the #crypto Markets with our Weekly Report:

https://btcmanager.com/bitcoin-price/weekly-report/…
#bitcoin #litecoin #ether #monero
#BTC #LTC #ETH #XMR",5,3,0,False
49,Digiconomist@DigiEconomist,"#Ethereum is undergoing some serious challenges this year; making it an increasingly battle-tested alternative to #Bitcoin. Very exciting!Quote TweetLefteris Karapetsas@LefterisJP · Sep 22, 2016The #ethereum network has had another DDOS attempt but everyone is on it. Have patience. https://blog.ethereum.org/2016/09/22/ethereum-network-currently-undergoing-dos-attack/…",5,5,0,False
50,Fenbushi Capital@fenbushi,"Welcome to the latest addition to the @fenbushi family @blockapps #blockchain #ethereum #BaaS #BlockchainSummitBlockApps expands Ethereum Blockchain-as-a-Service cloud offering to China, raises pre-series-A...BlockApps, a leading Ethereum enterprise blockchain developers platform, has announced that it is expanding its global access of Blockchain-as-a-Service to China. In order to achieve this, it is...econotimes.com",4,1,0,False
51,Howard Smith@smithh,This is interesting ... @ConsenSysLLC are envisaging and building a new generation of #dApps #distributedcomputing on #blockchain #ethereum,3,1,0,False
52,Softpedia@Softpedia,Someone is spamming the Ethereum cryptocurrency network http://buff.ly/2cR3mG3 #ETH #Ether #DDoS,1,2,0,False
53,Je-Meng@jemenger,My confidence in the platform and community is at an all-time high. #ethereum #devcon2,2,1,0,False
54,Shannon Steele@digifinancegirl,RBS demonstrates ability of #Ethereum to support a national domestic #payments system | http://buff.ly/2cRW9Wb via @Finextra | #blockchain,2,3,0,False
55,Decentral@DECENTRALca,.@jaxx_io is adding @litecoin early October: http://ow.ly/U7Ed304uJqc via @ThePaypers #blockchain #cryptocurrency #btc #eth #dash,3,2,0,False
57,Alex.eth@AlexanderFisher,@SoundCloud Enjoying a break from the crowd in Shanghai while listening to you guys talk about #Ethereum!,4,3,0,False
58,Sillytuna (hiring devs) @sillytuna,A lot of excitement around blockchain projects here but honestly they all feel years from mainstream use #ethereum #bitcoin,3,1,0,False
59,ETH Zurich@ETH_en,Six #ETH scientists receive @ERC_Research Starting Grants – congratulations! Their research covers various areas: http://ow.ly/TvhI304ugZC,4,4,1,False
60,BitcoinAgile@bitcoinagile,BlockApps Expands #ethereum's Presence in China; Announces New Funding and Key Partnerships - #bitcoin Wiki http://bitcoinwiki.co/blockapps-expands-ethereums-presence-in-china-announces-new-funding-and-key-partnerships…,5,2,0,False
65,आँ OM आँ@ALevyCohen,"Yahoo hit in worst hack ever, 500 million accounts swiped https://lnkd.in/dHEPedh",2,1,0,False
66,John Lilic ₿ Ξ ∞@JohnLilic,@CNET my sense is #yahoo may want to listen to #arietheoracle on this. I bet he has a few ideas how to fix this mess #Ethereum,2,1,0,False
67,Digiconomist@DigiEconomist,Replying to @TuurDemeester and @cryptorushMaybe saying that it's logical orphan rates go up at low block times? That's why #Ethereum has uncles not orphans,1,1,0,False
68,Acid Burn@sebs303,"Replying to @WayneVaughan and @kanndalfNot saying ethereum is THE shit, but the information about the attack is there. Mitigation can be over and reviewed",1,0,0,False
69,Wayne Vaughan@WayneVaughan,"Over time, attacks against #Ethereum and the corresponding countermeasures should harden the platform's security.",3,0,0,False
72,/r/Ethereum@r_Ethereum,Is there a way to store the chain data in some other folder? http://bit.ly/2cNUEFb #Ethereum,0,0,0,False
73,/r/Ethereum@r_Ethereum,The Insanity and Brilliance at Ethereum’s Developer Conference http://bit.ly/2dbjaTg #EthereumThe Insanity and Brilliance at Ethereum’s Developer ConferencePosted in r/ethereum by u/hermanmaas • 175 points and 44 commentsreddit.com,0,0,0,False
74,/r/Ethereum@r_Ethereum,"Vlad Zamfir On Casper, Formal Verification of Smart Contracts & Collab with Synereo Devs http://bit.ly/2dbgsxn #EthereumVlad Zamfir On Casper, Formal Verification of Smart Contracts &...Posted in r/ethereum by u/juansgalt • 29 points and 2 commentsreddit.com",1,0,0,False
75,Get Free Dogecoin@GetDogecoin,"GET FREE #DOGE
Win dogecoin every 60 minutes
http://goo.gl/hE5Bk6
#doge #dogecoin
#Ethereum
#bitcoin #litecoin #PrimeDay",0,0,0,False
76,Faith Emmanuel@residualbitcoin,Make WEBSELL with ETH payment support #ethereum #hackethercamp https://hack.ether.camp/idea/make-websell-with-eth-payment-support…  #ResidualBitcoin,0,0,0,False
77,Ethereum SE@StackEthereum,Ol' Timer Needs Help (Wallet Advice Please) http://ethereum.stackexchange.com/questions/8804/ol-timer-needs-help-wallet-advice-please… #ethereum #walletsOl' Timer Needs Help (Wallet Advice Please)I recently returned to crypto and know very little of the hard fork and what it all means. I have a wallet that has not been opened in almost 6 months. It contains 7-800 ethers. I want to install a...ethereum.stackexchange.com,1,0,0,False
78,BitcoinAgile@bitcoinagile,Make WEBSELL with ETH payment support #ethereum #hackethercamp https://hack.ether.camp/idea/make-websell-with-eth-payment-support…,0,0,0,False
79,Blockgeeks@Blockgks,Great people deserve a great audience. http://blockgeeks.com #Blockchain #Ethereum #Bitcoin,0,0,0,False
80,Coinstats@coinstats,"Ethereum Classic - ETC
Price: $1.23403
Change in 1h: +0.34%
Market cap: $103932048.0
Ranking: 6
#Ethereum Classic #ETC",0,0,0,False
81,Coinstats@coinstats,"Ethereum - ETH
Price: $13.3356
Change in 1h: +-0.36%
Market cap: $1123774626.0
Ranking: 2
#Ethereum #ETH",0,0,0,False
83,The Financial Revolutionist@Fin_Revolution,#DevCon 2: #Ethereum may pass #HoweyTest in US #securities law http://buff.ly/2cCXS1r #cybersecurity #encryption #security,2,6,0,False
84,Asesorías & Consultorías Informáticas@redlocal,@CoinInterview: live with @Omni_Layer http://bit.ly/2dfU6Xs #crypto #ethereum #bitcoin #blockchain #opensource #altcoin #cryptocurrency …,5,3,0,False
85,Eugen Boghian@eugenboghian,Free #Ethereum every 5 minutes https://cryptosource.net/free-ethereum/?r=y0bjGfOXgK… #Ethereum via @CryptoSourceHQ,1,0,0,False
86,AltcoinLive bot@AltcoinLiveBot,updated $ETH buywall 13.1btc @ 0.02100000 http://altcoinlive.com/bittrex-eth-btc #altcoinlive (change -0.00100004),0,0,0,False
87,Timo Ξberhard@ZhuBajie72,Moo Fuel.. #RBS tests demonstrate ability of #Ethereum to support a national domestic payments system https://finextra.com/newsarticle/29486/rbs-tests-demonstrate-ability-of-ethereum-to-support-a-national-domestic-payments-system… via @Finextra,1,0,0,False
89,Sapience.org@amnoneden,@RBS built a Clearing based on the #Ethereum distributed ledger and smart contract platform https://finextra.com/newsarticle/29486/rbs-tests-demonstrate-ability-of-ethereum-to-support-a-national-domestic-payments-system…,0,0,0,False
90,Ethereum Monkey@EthMonkey,Microsoft's Project Bletchley Speeds Consortium Blockchain Setups #ethereum http://eweek.com/cloud/microsofts-project-bletchley-speeds-consortium-blockchain-setups.html…,0,0,0,False
91,Coinstats@coinstats,"Ethereum Classic - ETC
Price: $1.22982
Change in 1h: +0.34%
Market cap: $103575948.0
Ranking: 6
#Ethereum Classic #ETC",0,0,0,False
92,AltcoinLive bot@AltcoinLiveBot,updated $ETH buywall 17.6btc @ 0.02200004 http://altcoinlive.com/bittrex-eth-btc #altcoinlive (change 0.00100004),0,0,0,False
93,Coinstats@coinstats,"Ethereum - ETH
Price: $13.3858
Change in 1h: +-0.04%
Market cap: $1127985725.0
Ranking: 2
#Ethereum #ETH",0,0,0,False
94,Bobe'bot@Bobe_bot,"1 #BTC = 599.2865 #CHF
1 #ETH = 13.6405 #CHF
1 #DOGE = 0.00021077232 #CHF
sources: @cryptonatorcom @hellobity",0,0,0,False
95,Chokri AlGhanmi@GhanmiChokri,"I just bought my first bitcoin on Coinbase - try it! https://coinbase.com/join/chokri29?src=twitter…
#bitcoin #Cryptocurrency #ethereum #ether #btc",0,0,0,False
97,AltcoinLive bot@AltcoinLiveBot,updated $ETH buywall 17.9btc @ 0.02200004 http://altcoinlive.com/bittrex-eth-btc #altcoinlive (change 0.00100004),0,0,0,False
98,Faith Emmanuel@residualbitcoin,BlockApps Expands #ethereum's Presence in China; Announces New Funding and Key Partnerships - #bitcoin Wiki http://bitcoinwiki.co/blockapps-expands-ethereums-presence-in-china-announces-new-funding-and-key-partnerships… #Resid…,1,0,0,False
100,LAPITH@bhumharit,RT iconominet: You still have chance to get 10% #bonus ... check https://ico.iconomi.net #ICONOMI #ico #fintech #apptokens #ethereum #inve…,0,0,0,False
106,Block_Asset@BAT_Finance,Competition between SWARM vs IPFS and distributed communities are healthy for the #Ethereum ecosystem #devcon2 @Tron http://bit.ly/2daZlM0,0,0,0,False
107,/r/Ethereum@r_Ethereum,A potential ponzi scheme alarm http://bit.ly/2d4KX3a #EthereumA potential ponzi scheme alarmPosted in r/ethereum by u/yeshe257 • 26 points and 4 commentsreddit.com,0,0,0,False
109,Alberto Jauregui | esoteRICK.eth @DisruptBanksy,"http://ift.tt/2d6RtKh Industry Report: Poloniex Ditches NH, Santander Embraces Ethereum - http://Bitcoinist.net #ethereum #ether",1,0,0,False
110,CryptoCompare@CryptoCompare,From #Bitcoin to #Ethereum. What has changed? http://ow.ly/aUDR303VWrm,1,1,0,False
111,Blockgeeks@Blockgks,"Who is working on a blockchain powered sustainable energy solutions?
http://dld.bz/eVxaY #ethereum #blockchain",1,0,0,False
112,$KVM@KrimsonVnm,Think after work I'm gonna search videos of Tomi Lahren getting #Ether'd. I'm sure there's hours of it,0,0,0,False
113,Coinstats@coinstats,"Ethereum Classic - ETC
Price: $1.22479
Change in 1h: +-0.12%
Market cap: $103150666.0
Ranking: 6
#Ethereum Classic #ETC",0,0,0,False
114,Coinstats@coinstats,"Ethereum - ETH
Price: $13.395
Change in 1h: +0.09%
Market cap: $1128742147.0
Ranking: 2
#Ethereum #ETH",0,0,0,False
115,Ethereum Price@EthereumPrice_,"#Ethereum: Ether Price Index
1 ETH =0.022206Ƀ XBT = $13.417805 USD
Today: +0.55%⬆︎ Last 24h: +2.50%⬆︎
https://ethereum-price.com",0,0,0,False
116,Alberto Jauregui | esoteRICK.eth @DisruptBanksy,http://ift.tt/2cNAefI Apple's Rules for Virtual Currencies Are Interminably Vague - Motherboard #ethereum #ether,0,0,0,False
117,Bitcoin Updater@BitcoinUpdater,Efforts increase to secure smart contracts #ethereum http://soco.space/mtg_Ib,0,0,0,False
119,ExploreTraveler@exploretravel1,"RT @Diener_Gottes: Industry Report: #Poloniex Ditches NH, #Santander Embraces #Ethereum: Poloniex exiles New… http://lnkplg.co/MMVjm",0,0,0,False
120,Faith Emmanuel@residualbitcoin,"#ethereum Price Technical Analysis – ETH Trims Gain, Recovers - #bitcoin Wiki http://bitcoinwiki.co/ethereum-price-technical-analysis-eth-trims-gain-recovers… #ResidualBitcoin",0,0,0,False
121,Faith Emmanuel@residualbitcoin,Royal Bank of Scotland Tests #ethereum For Domestic Payments #RoyalBankofScotland #RBS http://ethnews.com/royal-bank-of-scotland-tests-ethereum-for-domestic-payments…  #R…,0,0,0,False
123,GX-Coin@gx_coin,GX-Coin: a next-gen #cryptocurrency built on #ethereum http://ow.ly/qbJr30485UD,0,0,0,False
124,Ethereum Monkey@EthMonkey,"Industry Report: Poloniex Ditches NH, Santander Embraces Ethereum #ethereum http://bitcoinist.net/industry-report-poloniex-ethereum/…",0,0,0,False
125,AltcoinLive bot@AltcoinLiveBot,updated $ETH buywall 13.1btc @ 0.02100000 http://altcoinlive.com/bittrex-eth-btc #altcoinlive (change -0.00100002),0,0,0,False
126,Helmut Haslbeck@hhaslbeck_0x,"Crucial after a recent study cited 44% of 19,000 #ETH #SmartContracts examined to contain vulnerabilities | @ethereumproject | #blockchainQuote TweetETHNews@ETHNews_ · Sep 23, 2016#Security Session at #Devcon2: Building Better #SmartContracts http://ow.ly/ceFe304vwUm #Ethereum",0,0,0,False
127,BoyanBC@Boyanbc,"A potential #MMM #Ponzi alarm (hopefully false!) 
#ethereum #blockchain #bitcoin
https://medium.com/@boyanbalinov/a-potential-mmm-ponzi-scheme-835567596f28#.ilzlo5ojd…",2,0,0,False
128,AltcoinLive bot@AltcoinLiveBot,updated $ETH buywall 15.6btc @ 0.02200002 http://altcoinlive.com/bittrex-eth-btc #altcoinlive (change -0.00005399),0,0,0,False
129,AltcoinLive bot@AltcoinLiveBot,updated $ETH buywall 15.0btc @ 0.02205401 http://altcoinlive.com/bittrex-eth-btc #altcoinlive (change 0.00105401),0,0,0,False
130,Heldinne@Heldinne,"nou, het was weer leuk,  dank dames!  #eth",0,0,0,False
131,Ethereum UAE@Ethereum_UAE,Blockchain Summit Day One: Highlights From Shanghai http://ift.tt/2cJnHYo #Ethereum,0,0,0,False
132,Ethereum UAE@Ethereum_UAE,Tendermint Wins Innovation Award and Announces Cosmos at International Blockchain Week http://ift.tt/2dpSWvK #Ethereum,2,1,0,False
133,Anna Schermerh@Anna_Pom,"#eth
B oratie",0,0,0,False
134,Heldinne@Heldinne,#eth oratie,0,0,0,False
135,Anna Schermerh@Anna_Pom,"#eth
A bissectrice",0,0,0,False
136,Anna Schermerh@Anna_Pom,"#eth
A modinette",0,0,0,False
137,VeraKanera @VeraKanera,A #eth modinette,0,0,0,False
138,Anna Schermerh@Anna_Pom,"#eth
Rome",0,0,0,False
139,VeraKanera @VeraKanera,#eth jammer,0,0,0,False
140,Anna Schermerh@Anna_Pom,"#eth
A Philea",0,0,0,False
141,Brave New Coin@bravenewcoin,#Ethereum Classic Price: USD $1.23 #ETC http://ow.ly/QXxZ303j19Q,1,1,0,False
142,Coinstats@coinstats,"Ethereum Classic - ETC
Price: $1.22661
Change in 1h: +-0.18%
Market cap: $103302217.0
Ranking: 6
#Ethereum Classic #ETC",0,0,0,False
143,VeraKanera @VeraKanera,#eth plassen!,0,0,0,False
144,Coinstats@coinstats,"Ethereum - ETH
Price: $13.3803
Change in 1h: +0.15%
Market cap: $1127484553.0
Ranking: 2
#Ethereum #ETH",0,0,0,False
153,BitcoinBuzz vega9@BitcoinBuzzV9,http://bitcoinbuzz.vega9.com - Hot topics: #bitcoin #blockchain #btc #ethereum #криптовалюты #выбирайталисман,0,0,0,False
154,Anna Schermerh@Anna_Pom,"#eth
A punt overgespeeld",0,0,0,False
155,rssbtc.com@rssbtc,"Ethereum Network Comes Across Yet Another DOS Attack - http://bit.ly/2dpYy9s
#digital #network #hack #ethereum",1,1,0,False
156,Heldinne@Heldinne,San andreas #eth,0,0,0,False
157,VeraKanera @VeraKanera,#eth  andreasbreuk,0,0,0,False
158,Wattcoin@wattcoin,"Building a Scalable #Ethereum Community

http://bit.ly/2bR4zcQ",1,1,0,False
159,VeraKanera @VeraKanera,#eth mind the cap? B,0,0,0,False
160,Anna Schermerh@Anna_Pom,"#eth
Rettisch",0,0,0,False
161,VeraKanera @VeraKanera,#eth rettich,0,0,0,False
162,Heldinne@Heldinne,#eth rettich,0,0,0,False
163,Раб Божий@Diener_Gottes,"Industry Report: #Poloniex Ditches NH, #Santander Embraces #Ethereum: Poloniex exiles New… http://goo.gl/fb/BjIaSY",1,1,0,False
164,Heldinne@Heldinne,#eth dat is A,0,0,0,False
165,Heldinne@Heldinne,"#eth 
dat is B",0,0,0,False
167,Timo Ξberhard@ZhuBajie72,"Expecting something like this... #Mooon #Yooo
#Ethereum #Ether $ETH $ETHXBT @krakenfx",0,0,0,False
168,Faith Emmanuel@residualbitcoin,#ethereum Network Under Computational DDoS Attack - LET ALL KNOW http://bitcoinagile.com/85BA3D/ethereum-network-under-computational-ddos-attack-let-all-know_stream…  #ResidualBitcoin,0,0,0,False
171,AltcoinLive bot@AltcoinLiveBot,updated $ETH buywall 13.1btc @ 0.02100000 http://altcoinlive.com/bittrex-eth-btc #altcoinlive (change -0.00107104),0,0,0,False
172,AltcoinLive bot@AltcoinLiveBot,updated $ETH buywall 13.4btc @ 0.02207104 http://altcoinlive.com/bittrex-eth-btc #altcoinlive (change 0.00107104),0,0,0,False
173,BitcoinAgile@bitcoinagile,#ethereum Network Under Computational DDoS Attack - LET ALL KNOW http://bitcoinagile.com/85BA3D/ethereum-network-under-computational-ddos-attack-let-all-know_stream…,1,0,0,False
174,Topicly VC@topiclyvc,Now tracking: BlockApps Expands #ethereum's Presence in #china; Announces New Funding and Key Partnerships http://topicly.io/topic/venture-capital?57e570babe57452d00de4df2…,1,1,0,False
175,/r/Ethereum@r_Ethereum,[video] - http://hack.ether.camp - Interview With Arthur Falls [Consensys] devcon2 http://bit.ly/2d4lM0A #Ethereum[video] - hack.ether.camp - Interview With Arthur Falls...reddit.com,0,0,0,False
176,Faith Emmanuel@residualbitcoin,The Insanity and Brilliance at #ethereum’s Developer Conference #bitcoin #blockchain #medium https://medium.com/@alwaysbcoding/the-insanity-and-brilliance-at-ethereums-developer-conference-baa89880d1ce… #ResidualBitcoin,0,0,0,False
177,BitcoinAgile@bitcoinagile,The Insanity and Brilliance at #ethereum’s Developer Conference #bitcoin #blockchain #medium https://medium.com/@alwaysbcoding/the-insanity-and-brilliance-at-ethereums-developer-conference-baa89880d1ce…,1,1,0,False
178,Ethereum UAE@Ethereum_UAE,"Industry Report: Poloniex Ditches NH, Santander Embraces Ethereum http://ift.tt/2cNhVHk #Ethereum",0,0,0,False
180,Stephen King@mStephenKing,#Ethereum getting noticed - @Jason interviews @adamludwin from @chain http://thisweekinstartups.com/adam-ludwin-chain/…,0,0,0,False
181,Ξ Fly Guy Ξ (flyguy.eth)@FlyGuyInTheSky,Replying to @virtualcoinwaveA poor attempt at trying to bash #ethereum,0,0,0,False
183,Faith Emmanuel@residualbitcoin,OPEN SOURCE #ethereum #hackethercamp https://hack.ether.camp/idea/open-source…  #ResidualBitcoin,0,0,0,False
184,Faith Emmanuel@residualbitcoin,Security Session at Devcon2: Building Better Smart Contracts #Security #Devcon2 #Ethereum http://bitcoinagile.com/85B848/security-session-at-devcon2-building-better-smart-contracts_stream… …,0,0,0,False
185,BitcoinAgile@bitcoinagile,OPEN SOURCE #ethereum #hackethercamp https://hack.ether.camp/idea/open-source…,1,0,0,False
186,ether-camp@CampEther,Seen on #hackethercamp https://hack.ether.camp/idea/open-source… #ethereum,0,0,0,False
187,Jana@Nanobitcoin@NanoBitcoin,Join your newsletter. ICO starts in less than 2 days: http://ln.is/NdaFN #ico #ethereum... by @alt_bit_coins via @c0nvey,0,0,0,False
188,BitcoinAgile@bitcoinagile,Security Session at Devcon2: Building Better Smart Contracts #Security #Devcon2 #Ethereum http://bitcoinagile.com/85B848/security-session-at-devcon2-building-better-smart-contracts_stream…,1,2,0,False
189,ETHNews@ETHNews_,#Security Session at #Devcon2: Building Better #SmartContracts http://ow.ly/ceFe304vwUm #Ethereum,2,0,0,False
190,Coinstats@coinstats,"Ethereum Classic - ETC
Price: $1.22873
Change in 1h: +-0.45%
Market cap: $103479073.0
Ranking: 6
#Ethereum Classic #ETC",0,0,0,False
191,Coinstats@coinstats,"Ethereum - ETH
Price: $13.3625
Change in 1h: +-0.21%
Market cap: $1125966029.0
Ranking: 2
#Ethereum #ETH",0,0,0,False
192,Timo Ξberhard@ZhuBajie72,Cmooon yooo. Let´s #moonrocket already. Whatelse you need for #launch...(!?) :D #Ethereum #Ether $ETH,0,0,0,False
193,Jeffrey K Kosgei@JeffreyKosgei,Join your newsletter. ICO starts in less than 2 days: http://ln.is/Zsi31 #ico #ethereum... by @StartUpRealTime via @c0nvey,0,0,0,False
194,Fco. Javier Rovira (#yoteletrabajo )@fjrmeconomistas,Join your newsletter. ICO starts in less than 2 days: http://ln.is/Hw8Ep #ico #ethereum... by @StartUpRealTime via @c0nvey,0,0,0,False
195,Dave Hoover@davehoover,"Encouraged to see one of my developer heroes @WardCunningham is getting involved with #IPFS, an #Ethereum-related project.",1,1,0,False
198,Ethereum SE@StackEthereum,Automatically create an account for new customer http://ethereum.stackexchange.com/questions/8800/automatically-create-an-account-for-new-customer… #ethereum #web3js #contractdesign #dappdevelopment #eoaAutomatically create an account for new customerI would like to automatically create an account (EOA) in Ethereum for all the users of my platform as soon as they register. Is it possible? Thanks for your helpethereum.stackexchange.com,0,0,0,False
199,Gary Nuttall@gpn01,Final event of the #blockchain week. Now at #Microsoft #EthereumClassic event. #Ethereum,1,0,0,False
200,How To Get Bitcoins  #KBF@htgbitcoins,"Contract Patterns and Security by @tym4t at #Devcon2 https://youtube.com/watch?v=voGJDBygNgY… @DigixGlobal #Ethereum #Blockchain #SolidityDevcon2: Contrast Patterns & Security | Anthony C. Eufermio | DigixOur CTO, Anthony Eufemio, presented on the 3rd day of Devcon2 in Shanghai on Contract Patterns and Security.Slides: http://m.uploadedit.com/ba3s/147461176279...youtube.com",1,1,0,False
202,/r/Ethereum@r_Ethereum,Blockapps expands Ethereum's presence in China http://bit.ly/2daz7JL #EthereumBlockapps expands Ethereum's presence in ChinaPosted in r/ethereum by u/twigwam • 45 points and 2 commentsreddit.com,0,0,0,False
203,/r/Ethereum@r_Ethereum,"Blockchain summit report: Day 1 - ""Enterprise cloud"" http://bit.ly/2cNcQPu #EthereumBlockchain summit report: Day 1 - ""Enterprise cloud""* Imgur album: https://imgur.com/a/5ohhB * Blog post (MUCH better formatting):...reddit.com",0,0,0,False
204,Alberto Jauregui | esoteRICK.eth @DisruptBanksy,http://ift.tt/2d6nsdF BlockApps Expands Ethereum's Presence in China; Announces New Funding and Key Partnerships - Bitcoin Magazine #eth…,1,0,0,False
205,Crypto Price Ticker@TickerCrypto,"#Ethereum #ETH Rank:2 Last:฿0.02226174(2.882%) High:Buy Instantly! on  Low:฿0.02243352 Vol:฿19,543 Market Cap:฿1,875,804 / $1,127,577,463.66",0,0,0,False
206,Coinstats@coinstats,"Ethereum - ETH
Price: $13.3759
Change in 1h: +0.11%
Market cap: $1127077229.0
Ranking: 2
#Ethereum #ETH",0,0,0,False
207,Ethereum Price@EthereumPrice_,"#Ethereum: Ether Price Index
1 ETH =0.022127Ƀ XBT = $13.408560 USD
Today: +0.20%⬆︎ Last 24h: +2.20%⬆︎
https://ethereum-price.com",0,0,0,False
208,Olivier Chapiteau@o_chapiteau,"23Sep2016 18:00 UTC #Ether #Blockchain status - Block height @ 2,313,537 - 12,041 unconfirmed tr. - Last fork height @ 2,313,532",1,0,0,False
209,Olivier Chapiteau@o_chapiteau,23Sep2016 18:00 UTC #Ethereum live spots - #Ether @ 13.38921 $ - #EtherClassic @ 1.23547 $,1,0,0,False
211,FailCommunity@FAILCommunity,"#Ethereum's blockchain is vulnerable to attacks and it has scalability issues, but no one cares if the price is rising. #ether #fintech",1,0,0,False
213,Alberto Jauregui | esoteRICK.eth @DisruptBanksy,http://ift.tt/2czfg4n BlockApps Expands Ethereum's Presence in China; Announces New Funding and Key Partnerships - Nasdaq #ethereum #eth…,2,0,0,False
214,Timo Ξberhard@ZhuBajie72,"Ready for #LIFTOFF...

#Ethereum #NewParadigm #FTW(!)",2,0,0,False
216,Faith Emmanuel@residualbitcoin,BlockApps Expands #ethereum's Presence in China; Announces New Funding and Key Partnerships #blockchain #news http://nasdaq.com/article/blockapps-expands-ethereums-presence-in-china-announces-new-funding-and-key-partnerships-cm683923… #Res…,0,0,0,False
217,TrustForums@TrustForums,Want latest news about #Bitcoin #Faucets?Come here and join latest faucets https://goo.gl/8T7iLO #Altocin #ethereum #blockchain #secure.,0,0,0,False
218,TrustForums@TrustForums,Want latest news about #Bitcoin #Faucets?Come here and join latest faucets https://goo.gl/8T7iLO #Altocin #ethereum #blockchain #secure,0,0,0,False
219,BitcoinAgile@bitcoinagile,BlockApps Expands #ethereum's Presence in China; Announces New Funding and Key Partnerships #blockchain #newsBlockApps Expands Ethereum's Presence in China; Announces New Funding and Key Partnershipsnasdaq.com,1,0,0,False
220,AltcoinLive bot@AltcoinLiveBot,updated $ETH buywall 13.1btc @ 0.02100000 http://altcoinlive.com/bittrex-eth-btc #altcoinlive (change -0.00108008),0,0,0,False
221,AltcoinLive bot@AltcoinLiveBot,updated $ETH buywall 17.6btc @ 0.02208008 http://altcoinlive.com/bittrex-eth-btc #altcoinlive (change 0.00108008),0,0,0,False
222,AltcoinLive bot@AltcoinLiveBot,updated $ETH buywall 13.1btc @ 0.02100000 http://altcoinlive.com/bittrex-eth-btc #altcoinlive (change -0.00107756),0,0,0,False
223,AltcoinLive bot@AltcoinLiveBot,updated $ETH buywall 13.3btc @ 0.02207756 http://altcoinlive.com/bittrex-eth-btc #altcoinlive (change 0.00107756),0,0,0,False
224,Faith Emmanuel@residualbitcoin,BlockApps Expands #ethereum's Presence in China;... - Mike Edward Moras (e-sushi) https://electronic-sushi.tumblr.com/post/150824318837/blockapps-expands-ethereums-presence-in-china… #ResidualBitcoin,0,0,0,False
225,BitcoinAgile@bitcoinagile,BlockApps Expands #ethereum's Presence in China;... - Mike Edward Moras (e-sushi) https://electronic-sushi.tumblr.com/post/150824318837/blockapps-expands-ethereums-presence-in-china…,1,0,0,False
226,Timo Ξberhard@ZhuBajie72,Old but gold... “SMART CONTRACTS” by @SingularDTV https://medium.com/@SingularDTV/smart-contracts-58126b7784d8#.5z7qxzk4v… #Ethereum #Ether $ETHSMART CONTRACTSHow Much Better Will Life Be When Our Contracts Are Smarter Than Us?medium.com,3,1,0,False
227,Timo Ξberhard@ZhuBajie72,Original #Pump #Soundtrack... // Let´s #moon already >>> Maceo Plex Boiler Room Berlin DJ Set https://youtu.be/5vHRUsP20dQ via #Ethereum #Ether,1,0,0,False
228,Crypto News Alerts@CryptoCoiners,"Google searches for #ethereum up 79% in past week -  https://google.com/trends/explore?q=ethereum&geo=&utm_source=storyfinder&utm_medium=sharelink&utm_campaign=v1&utm_content=term… #googletrendsexplore #blockchain #bitcoinGoogle TrendsExplore search interest for ethereum by time, location and popularity on Google Trendstrends.google.com",1,0,0,False
229,AltcoinLive bot@AltcoinLiveBot,updated $ETH buywall 13.1btc @ 0.02100000 http://altcoinlive.com/bittrex-eth-btc #altcoinlive (change -0.00106141),0,0,0,False
234,AltcoinLive bot@AltcoinLiveBot,updated $ETH buywall 13.6btc @ 0.02206141 http://altcoinlive.com/bittrex-eth-btc #altcoinlive (change 0.00106141),0,0,0,False
235,Ethereum UAE@Ethereum_UAE,BlockApps Expands Ethereum's Presence in China; Announces New Funding and Key Partnerships http://ift.tt/2cMZXoE #Ethereum,1,0,0,False
236,eugenelee3@eugenelee3,Replying to @TaylorGerring@d_seaman @kuba_suder I'm ready for any and all $ETH based solution ,0,0,0,False
237,UGLYFACE@kevin_uglyface,"I dont really see anything but #ethereum public blockchain disrupting it.Quote TweetPantera Capital@PanteraCapital · Sep 23, 2016#Blockchain Could Be Music’s Next Disruptor - http://fortune.com/2016/09/22/blockchain-music-disruption/…",0,0,0,False
238,ETHNews@ETHNews_,#Ether Price Correction Is Likely Over #Ethereum #ETH http://ow.ly/VDzA304vlnk,0,0,0,False
239,Crypto Trader Pro @CryptoTraderPro,BlockApps Expands #Ethereum's Presence in… http://dlvr.it/MKNlzj #Ethereum #China via→ http://betbitcoin.mobi,0,0,0,False
240,Blockgeeks@Blockgks,"Join today! Blockgeeks is a #Blockchain innovation hub 
& marketplace http://blockgeeks.com #Bitcoin #Ethereum",0,0,0,False
242,Coinstats@coinstats,"Ethereum Classic - ETC
Price: $1.23772
Change in 1h: +-2.11%
Market cap: $104233223.0
Ranking: 6
#Ethereum Classic #ETC",0,0,0,False
243,Coinstats@coinstats,"Ethereum - ETH
Price: $13.3529
Change in 1h: +0.13%
Market cap: $1125119220.0
Ranking: 2
#Ethereum #ETH",0,0,0,False
244,WholisticBlessings@WBeeSerendipity,Selenite And Rose Quartz Love Wand http://etsy.me/2cN01EH #blessings #love #Angels #CrystalCastles #healing #Ether,1,0,0,False
245,BlockChannel@BlockChannel,"BCN News: BitcoinMagazine ""BlockApps Expands #Ethereum's Presence in #China; Announces New Funding and Key Partner… https://twitter.com/i/web/status/779363468977790976…""",0,0,0,False
246,Jana@Nanobitcoin@NanoBitcoin,"#News ||BlockApps Expands #Ethereum's Presence in #China; Announces New Funding and Key Partnerships… http://ln.is/ift.tt/WU3k9

BlockApps E…",1,0,0,False
249,Vortex@theonevortex,"Replying to @d57heinzOf course mistakes are allowed, the key is are we learning from them. It appears #ethereum is not learning from previous mistakes.",1,1,1,False
250,EtherBlockchain.io@etherblockchain,"DevCon2 Update: Zcash Integration, Scaling, and Adoption https://btcmanager.com/news/finance/devcon2-update-zcash-integration-scaling-and-adoption/… #ether #blockchain #devcon2",0,0,0,False
251,Tedy MD@bitcoinjapanese,Classic Equals Three compilation || Dec 2011 (part 2) http://vid.staged.com/Neht #btcjapan #btcchina #ethereum.co.id,0,0,0,False
252,Bitcoin Brasil@BitcoinBr10,"Ethereum Price Technical Analysis – ETH Trims Gain, Recovers http://bitcoinbrasil10.blogspot.com.br/2016/09/ethereum-price-technical-analysis-eth_23.html… … #Bitcoin #blockchain #ethereum #btc #CryptoCurrency",1,0,0,False
253,Bitcoin Brasil@BitcoinBr10,Ethereum Classic Price Technical Analysis – ETC Bounces Sharply http://bitcoinbrasil10.blogspot.com.br/2016/09/ethereum-classic-price-technical_23.html… #Bitcoin #blockchain #ethereum #btc #CryptoCurrency,1,0,0,False
254,Bitcoin Brasil@BitcoinBr10,"DECENT ICO Raises Over 5,176 BTC And Counting http://bitcoinbrasil10.blogspot.com.br/2016/09/decent-ico-raises-over-5176-btc-and.html… … #Bitcoin #blockchain #ethereum #litecoin #ICO #btc #CryptoCurrency",3,1,0,False
256,FailCommunity@FAILCommunity,Top #FinTech influencers in the #US. https://letstalkpayments.com/top-fintech-influencers-in-the-united-states-of-america/… #Bitcoin #Litecoin #Ethereum #USATop FinTech Influencers in the United States of AmericaThese are exciting times for financial services. Read moregomedici.com,0,0,0,False
257,Faith Emmanuel@residualbitcoin,#blockchain Start-Ups Are Reshaping the Music Industry #ethereum #Music #tech https://btcmanager.com/news/blockchain-start-ups-are-reshaping-the-music-industry…  #ResidualBi…,0,0,0,False
258,Faith Emmanuel@residualbitcoin,"#ethereum #blockchain Application Specialist - MadisonUnderwood http://madisonunderwood.com/vacature/ethereum-blockchain-application-specialist… #ResidualBitcoinDistributed Ledger Application Specialist - MadisonUnderwoodAls Blockchain specialist ben je deel van een internationaal team waarin we innovatieve projecten met klanten in Latijns Amerika, de Verenigde Staten en Europa verenigen. Wij werken met oplossingen...madisonunderwood.com",1,0,0,False
260,⛧ God of Gaming ⛧@TheGodofGamez,The best cure for the body is a quiet mind. $ETH,0,0,0,False
261,BitcoinAgile@bitcoinagile,"#ethereum #blockchain Application Specialist - MadisonUnderwoodDistributed Ledger Application Specialist - MadisonUnderwoodAls Blockchain specialist ben je deel van een internationaal team waarin we innovatieve projecten met klanten in Latijns Amerika, de Verenigde Staten en Europa verenigen. Wij werken met oplossingen...madisonunderwood.com",2,0,0,False
262,Blockgeeks@Blockgks,The Death Of Charities: #Blockchain Technology To Replace Them? http://buff.ly/2cRvCVt #bitcoin #ethereum,0,0,0,False
263,Consultant360@Consultant360,#CONtrivia #trivia #onthisday #anesthesia #Ether #Cocaine #Chloroform #conduction #regionalanesthesia Answer at http://ow.ly/JwqL304uNXq,1,0,0,False
264,Coinstats@coinstats,"Ethereum Classic - ETC
Price: $1.26275
Change in 1h: +1.28%
Market cap: $106338804.0
Ranking: 6
#Ethereum Classic #ETC",0,0,0,False
265,Coinstats@coinstats,"Ethereum - ETH
Price: $13.3357
Change in 1h: +-0.05%
Market cap: $1123652805.0
Ranking: 2
#Ethereum #ETH",0,0,0,False
266,Bobe'bot@Bobe_bot,"1 #BTC = 597.7681 #CHF
1 #ETH = 13.6012 #CHF
1 #DOGE = 0.000222105687 #CHF
sources: @cryptonatorcom @hellobity",0,0,0,False
268,/r/Ethereum@r_Ethereum,Which Ethereum wallet is best / safe (with GUI)? http://bit.ly/2dn8HRn #Ethereum,0,0,0,False
269,/r/Ethereum@r_Ethereum,"Continuously using 'bombs' as a way to enforce future hard forks http://bit.ly/2cWSYtV #EthereumContinuously using 'bombs' as a way to enforce future hard forksAlthough not very well known at first, most of you've heard of the...reddit.com",0,0,0,False
270,/r/Ethereum@r_Ethereum,"Now that major players are testing Ethereum for their use cases, lets not fuck this up http://bit.ly/2cWUk8g #Ethereum",1,0,0,False
271,/r/Ethereum@r_Ethereum,New Ethereum Wallet Setup Executable Sucks http://bit.ly/2dn8NIy #EthereumNew Ethereum Wallet Setup Executable Sucksreddit.com,1,0,0,False
272,DuNN0 @_DuNN0_,Easy Money! Keep your internet Browser Open and win $BURST http://burstcoin.biz/surfbar?ref=2070… #zcash $ETH $BTC $NXT $XMR $ETC $LSK $FCT $LTC $XRP $SC,1,0,0,False
273,tgerring.eth@TaylorGerring,"If Twitter sells, I'm ready for an #Ethereum based solution? Are you?Quote TweetKuba Suder@kuba_suder · Sep 23, 2016Noooo :( Maybe Apple could do it?... https://twitter.com/arstechnica/status/779336612199206912…",23,8,3,False
274,Blockgeeks@Blockgks,Welcome to Fortune’s 2016 40 Under 40 http://buff.ly/2dn7NEj #Ethereum #blockchain,0,0,0,False
276,Faith Emmanuel@residualbitcoin,etherfacescom - A Face Book in #ethereum in a million pixels #hackethercamp https://hack.ether.camp/idea/etherfacescom---a-face-book-in-ethereum-in-a-million-pixels…  #ResidualBitc…,0,0,0,False
277,BitcoinAgile@bitcoinagile,etherfacescom - A Face Book in #ethereum in a million pixels #hackethercamp https://hack.ether.camp/idea/etherfacescom---a-face-book-in-ethereum-in-a-million-pixels…,0,0,0,False
279,Blockgeeks@Blockgks,Could #Blockchain Technology Bankrupt Spotify? A Music Revolution http://buff.ly/2cWIfNM #ethereum #bitcoin,0,0,0,False
280,Coinstats@coinstats,"Ethereum Classic - ETC
Price: $1.24492
Change in 1h: +-0.75%
Market cap: $104835601.0
Ranking: 6
#Ethereum Classic #ETC",0,0,0,False
281,Coinstats@coinstats,"Ethereum - ETH
Price: $13.3739
Change in 1h: +-0.33%
Market cap: $1126845121.0
Ranking: 2
#Ethereum #ETH",0,0,0,False
282,Ethereum Price@EthereumPrice_,"#Ethereum: Ether Price Index
1 ETH =0.022180Ƀ XBT = $13.404895 USD
Today: +0.44%⬆︎ Last 24h: +4.44%⬆︎
https://ethereum-price.com",2,0,0,False
283,Deep Recce@DeepRecce,#ethereum Network Under Computational #DDoS AttackEthereum Network Under Computational DDoS AttackBitcoin alternative was under attack this weeknews.softpedia.com,2,0,0,False
284,WinWithBitcoin@WinWithBitcoin,#rekt #eth Bitcoin wins https://twitter.com/whalepanda/status/778957998630834178…This Tweet is unavailable.,0,0,0,False
285,Consfearacy@ConsfearacyNow,"#Ethereum network hit by computational #DDoS attack https://goo.gl/Mzwz3I #cryptocurrency #cybersecurity via @IBTimesUKEthereum network hit by computational DDoS attackEthereum's founder says attackers are laying siege to its network, causing it to slow down greatly.ibtimes.co.uk",0,0,0,False
286,/r/Ethereum@r_Ethereum,"Some blockchain analysis of the current DOS http://bit.ly/2d9XB5P #EthereumSome blockchain analysis of the current DOSHope it helps, I had great fun in Shanghai with you guys... - The contract involved...reddit.com",0,0,0,False
287,/r/Ethereum@r_Ethereum,"DevCon2 Update: Zcash Integration, Scaling and Adoption http://bit.ly/2d9XNSq #EthereumDevCon2 Update: Zcash Integration, Scaling and AdoptionPosted in r/ethereum by u/jholmes91 • 12 points and 0 commentsreddit.com",0,0,0,False
288,/r/Ethereum@r_Ethereum,"Oldie, but a Goodie ;-) December 2015, Andrew Miller: Ethereum Gas Model (explanation of how mispri... http://bit.ly/2d9Ys6u #EthereumOldie, but a Goodie ;-) December 2015, Andrew Miller: Ethereum Gas...Posted in r/ethereum by u/HodlDwon • 25 points and 5 commentsreddit.com",4,2,0,False
289,Cryptopatterns@Cryptopatterns,Replying to @mikisuke0no I have IT position. means building ST as well. Patterns at $15 (if we get there) could change outlook though. $ETH #ethereum,1,0,0,False
290,Fintech news@currencies111,"More than $5.400.000 so far , investments are increasing in the last week.
#ICONOMI #Ethereum #fintech @iconominet",1,1,0,False
291,MakingWave$@CryptoWave3000,"From coremedia_info: https://twitter.com/coremedia_info/status/779325581833990144… RT DECENTplatform: $ETC vs. $ETH and a Community Consensus #ethereum… https://decent.ch/etc-vs-eth-community-consensus/…Quote TweetDECENT@DECENTplatform · Sep 23, 2016$ETC vs. $ETH and a Community Consensus #ethereum #ethereumclassic #blockchain #cryptocurrency #crypto https://decent.ch/etc-vs-eth-community-consensus/…",0,0,0,False
292,BigTEquityAlerts@BigEquityAlerts,Ethan Allen Interiors hits a 1 month high http://tinyurl.com/jp7sbmd $ETH #EthanAllenInteriors,0,0,0,False
293,BitcoinAgile@bitcoinagile,"DevCon2 Update: Zcash Integration, Scaling and Adoption #fintech #blockchain #ethereum https://btcmanager.com/news/finance/devcon2-update-zcash-integration-scaling-and-adoption…",3,3,0,False
294,BTCMANAGER@btc_manager,"DevCon2 Update: #Zcash Integration, Scaling and Adoption...
https://btcmanager.com/news/finance/devcon2-update-zcash-integration-scaling-and-adoption/…
#ethereum #blockchain #fintech #cryptocurrency #ether",2,1,0,False
295,Faith Emmanuel@residualbitcoin,Technical Introduction to Events and Logs in #ethereum http://bitcoinagile.com/6EA292/technical-introduction-to-events-and-logs-in-ethereum_stream…  #ResidualBitcoin,0,0,0,False
296,Ethereum UAE@Ethereum_UAE,The Long History and Disputed Desirability of Alternative Bitcoin Implementations http://ift.tt/2cItopx #Ethereum,1,0,0,False
297,digit@_digit_,"#Ethereum Network attacked again, #DDoS Attack || #blockchain $ETH $ETC #Ether #TheDAO #fintech #bankingtechnology - https://crd.ht/2qsmBTH",2,0,0,False
298,Cryptopatterns@Cryptopatterns,"$ETH Remember this? Still like test of important $15 resistance so buying ST w/this explaining yesterday #ethereum $ETC $BTC #bitcoin $XMRQuote TweetCryptopatterns@Cryptopatterns · Sep 20, 2016$ETH finally past all the $DAO crap? Maybe--but patterns unclear. My trade strategy 4 now=buy on stop run. #ethereum $ETC #bitcoin $BTC $XMR",3,1,1,False
299,CryptoCompare@CryptoCompare,#Trading #Ethereum on the Gemini Exchange.How to Trade on Gemini Exchange?If you are looking to get trading Bitcoin - one of the top exchanges to start on is Gemini Exchange - the digital asset exchange started by the Winklevoss twins. The exchange is a new breed of...cryptocompare.com,1,1,0,False
301,Coinstats@coinstats,"Ethereum Classic - ETC
Price: $1.25519
Change in 1h: +-1.14%
Market cap: $105698829.0
Ranking: 6
#Ethereum Classic #ETC",0,0,0,False
302,Coinstats@coinstats,"Ethereum - ETH
Price: $13.416
Change in 1h: +0.15%
Market cap: $1130374348.0
Ranking: 2
#Ethereum #ETH",0,0,0,False
303,Martin Köppelmann@koeppelmann,Good discussion about combining consensus protocols and state channels to build a decentralized exchange. #ethereum,43,12,1,False
304,Crypto News Alerts@CryptoCoiners,ICONOMI: Fund Management 'Uber' Raises $5M USD in Crowdsale http://bitcoinist.net/iconomi-fund-uber-crowdsale/… via @bitcoinist #bitcoin #ethereum,1,0,0,False
305,Ethereum Monkey@EthMonkey,The Long History and Disputed Desirability of Alternative Bitcoin Implementations #ethereum https://bitcoinmagazine.com/articles/the-long-history-and-disputed-desirability-of-alternative-bitcoin-implementations-1474637904…,2,0,0,False
306,Cryptopatterns@Cryptopatterns,$XMR still nothing bearish in patterns. Flag pattern not proving hi prob in #cryptocurrency (#maid)  #monero $BTC #bitcoin $ETH,0,0,0,False
307,digit@_digit_,#Coinbase Switches To Weekly #UserLimits || #cryptocurrency #Ethereum #Bitcoin $ETH $BTC - https://crd.ht/FQRxwUM,0,0,0,False
308,Adam Byrne@adamabyss,Crypto users should remember that main advantage of decentralisation & peer to peer solutions is no need for 'solidarity' #ethereum #Bitcoin,1,0,0,False
309,BitPython@bitpython,"http://tuxexchange.com is accepting deposits in all listed coins! Happy trading :)
#DASH
#doge
#litecoin
#Bitcoin
#PPC
#ethereum
#altcoin",1,1,0,False
311,HealthCareCounts@HealthCare_293,$SLK is live https://goo.gl/dmv2xr Come get it! $BTC $LTC $ETC $ETH $MAID $GAME $XMR $XRP $DAO $FCT $SDC $STEEM $DASH $BBR $NXT $AMP $NAV,0,0,0,False
312,Cryptopatterns@Cryptopatterns,"$BTC daily chart unclear (as are many #cryptocurrency, here's 4 hr chart pattern status #bitcoin $ETH #Ethererum $XMR",3,0,0,False
313,Ameer Rosic@AmeerRosic,Could #Blockchain Technology Disruptive The Real Estate Industry? http://dld.bz/eCvcw #ethereum,1,0,0,False
314,Scorpio_J@Scorpio__J,"The #Ethereum #platform came under #DDOS attack yesterday, #hours before the launch of Ethereum #DevCon 2 conference in #Shanghai",1,0,0,False
315,Cryptopatterns@Cryptopatterns,$ETH Bull pattern survived yesterday's scare so far. Now holding 25% IT pos avg cost $13. #ethereum $ETC $BTC #bitcoin $XMR,2,0,0,False
316,John Lilic ₿ Ξ ∞@JohnLilic,Replying to @ALevyCohen@CNET my sense is #yahoo may want to listen to #arietheoracle on this. I bet he has a few ideas how to fix this mess #Ethereum,2,1,0,False
317,MALAY BANERJEE@MALAYBANERJEE9,Free #Ethereum every 5 minutes https://cryptosource.net/free-ethereum/?r=6Of1jhVVsP… #Ethereum via @CryptoSourceHQ,0,0,0,False
319,Tom Pain | tompain.eth @TheTomPain,"Vitalik Buterin made the @FortuneMagazine ""40 under 40"" list #Ethereum #crypto #blockchain #decentralizedfuture http://for.tn/2cKK8zw",1,0,0,False
320,/r/Ethereum@r_Ethereum,BTSR Latest news. Investing in Blockchain Advertising Network made possible http://bit.ly/2d9MnOs #EthereumBTSR Latest news. Investing in Blockchain Advertising Network made...Posted in r/ethereum by u/ccedk_pro • 6 points and 0 commentsreddit.com,0,0,0,False
321,/r/Ethereum@r_Ethereum,Royal Bank of Scotland experimenting with Ethereum. http://bit.ly/2d9ME4b #Ethereum,1,0,0,False
322,/r/Ethereum@r_Ethereum,World's Largest Mining Company to Use Blockchain for Supply Chain http://bit.ly/2cMss5w #EthereumWorld's Largest Mining Company to Use Blockchain for Supply Chainreddit.com,1,0,0,False
323,/r/Ethereum@r_Ethereum,"Possible new Ethereum issue: It seems transactions takes a long time to get included in blocks, and... http://bit.ly/2d9Mry1 #Ethereum",0,0,0,False
324,Adam Byrne@adamabyss,"I wonder what excuse Vitaly ""The Dog Ate My Homework"" Buterin will come up with next when #ethereum grinds to a halt yet again. Bullshitter.",1,0,0,False
325,ExploreCrypto@ExploreCrypto,"Looks like ""Alibaba"" is working on implementing #Ethereum...Chinese online marketplace with a volume higher than Amazon and Ebay combined",0,0,0,False
338,Ticker Report@TickerReport,First Mercantile Trust Co. Continues to Hold Stake in Ethan Allen Interiors Inc. $ETH http://ift.tt/2d2VQCo,0,0,0,False
339,US Banking News@AmericanBanking,First Mercantile Trust Co. Continues to Hold Stake in Ethan Allen Interiors Inc. $ETH http://ift.tt/2d2VQCo,0,0,0,False
340,Ethereum Canada@EthereumCanada,.@coinbase CEO believes #Ethereum scaling better than #bitcoin: http://ow.ly/B7c1304swCi #blockchain #cryptocurrency,0,0,0,False
341,Coinstats@coinstats,"Ethereum Classic - ETC
Price: $1.27095
Change in 1h: +0.56%
Market cap: $107024214.0
Ranking: 6
#Ethereum Classic #ETC",0,0,0,False
342,Coinstats@coinstats,"Ethereum - ETH
Price: $13.4165
Change in 1h: +1.03%
Market cap: $1130398634.0
Ranking: 2
#Ethereum #ETH",0,0,0,False
343,Scott McWilliams@macengr,"At Ethereum Mega-Event, the 'Church of Vitalik' Sobers Up http://coindesk.com/ethereum-mega-event-church-vitalik-sobers/… #ethereum #fintech",1,0,0,False
344,Bitcoin News@BTCNewsletter,New #founder Apple’s Rules for Virtual Currencies Are Interminably Vague https://btc.icymi.email/apples-rules-for-virtual-currencies-are-interminably-vague/… #bitcoin #ethereum,1,0,0,False
359,Kortex Consulting@KortexServices,RBS tests demonstrate ability of #Ethereum to support a national domestic payments system https://finextra.com/newsarticle/29486/rbs-tests-demonstrate-ability-of-ethereum-to-support-a-national-domestic-payments-system… via @Finextra < closer...,0,0,0,False
360,Christopher Ackerman@cackerman1,"Google Cloud Joins Amazon, IBM in Serving #Blockchain Clients http://flip.it/EeOfTf #ethereum",1,0,0,False
361,Faith Emmanuel@residualbitcoin,Royal Bank of Scotland Tests Private #ethereum #blockchain For Domestic Payments http://linkplugapp.com/A7BMj  #Residua…,1,0,0,False
362,Ethereum SE@StackEthereum,Automatically create an account for new customer http://ethereum.stackexchange.com/questions/8800/automatically-create-an-account-for-new-customer… #ethereum #web3js #contractdesign #dappdevelopment #eoa,1,0,0,False
363,BitcoinAgile@bitcoinagile,Royal Bank of Scotland Tests Private #ethereum #blockchain For Domestic Payments http://linkplugapp.com/A7BMj,3,0,0,False
364,ExploreTraveler@exploretravel1,RT @EthMonkey: Royal Bank of Scotland Tests Private Ethereum Blockchain For Domestic Payments #ethereum http://lnkplg.co/A7BMj https://t.c…,0,0,0,False
365,Ethereum Monkey@EthMonkey,Royal Bank of Scotland Tests Private Ethereum Blockchain For Domestic Payments #ethereum http://themerkle.com/royal-bank-of-scotland-tests-private-ethereum-blockchain-for-domestic-payments/…,1,0,0,False
366,GX-Coin@gx_coin,"""#Ethereum's done, let's go back to #etc."" Ethereum founder @VitalikButerin joking at #Devcon2. More from his speech http://ow.ly/DzVk304lKCG",0,0,0,False
367,CowOperate@CowOperate,My Thoughts On #ETH #Ethereum $ETH,1,3,0,False
368,Faith Emmanuel@residualbitcoin,#ethereum Price Technical Analysis: Attempting Recovery http://altcointoday.com/ethereum-price-technical-analysis-attempting-recovery…  #ResidualBitcoin,0,0,0,False
369,BitcoinAgile@bitcoinagile,#ethereum Price Technical Analysis: Attempting Recovery http://altcointoday.com/ethereum-price-technical-analysis-attempting-recovery…,0,0,0,False
370,BitcoinAgile@bitcoinagile,#ethereum network hit by computational DDoS attack #Fintech http://bitcoinagile.com/859862/ethereum-network-hit-by-computational-ddos-attack_stream…,0,0,0,False
371,AltcoinLive bot@AltcoinLiveBot,updated $ETH buywall 11.0btc @ 0.02198101 http://altcoinlive.com/bittrex-eth-btc #altcoinlive (change -0.00000100),0,0,0,False
372,Jose R. Perez@trupix,#Ethereum Update - a few exchanges including @bittrex have successfully undergone maintenance to address short term fixes to mitigate DDOS,0,0,0,False
373,AltcoinLive bot@AltcoinLiveBot,updated $ETH buywall 11.0btc @ 0.02198201 http://altcoinlive.com/bittrex-eth-btc #altcoinlive (change -0.00004799),0,0,0,False
374,AltcoinLive bot@AltcoinLiveBot,updated $ETH buywall 11.0btc @ 0.02203000 http://altcoinlive.com/bittrex-eth-btc #altcoinlive (change 0.00000008),0,0,0,False
375,indxio@indxio,#Russia Market Close || #Bitcoin: $597.85 | 535.71 EUR||  #Litecoin: 0.0032 BTC  || #Ethereum: 0.0222 BTC   || $BTC $LTC $ETH $RUB,1,0,0,False
376,AltcoinLive bot@AltcoinLiveBot,updated $ETH buywall 11.0btc @ 0.02202992 http://altcoinlive.com/bittrex-eth-btc #altcoinlive (change 0.00009181),0,0,0,False
377,S@SuzieSues_,"#RoyalBankofScotland developed clearing & settlement mechanism using #Ethereum #blockchain #fintech #smartcontract
http://themerkle.com/royal-bank-of-scotland-tests-private-ethereum-blockchain-for-domestic-payments/…",0,0,0,False
379,Brave New Coin@bravenewcoin,#Ethereum Classic Price: USD $1.26 #ETC http://ow.ly/QXxZ303j19Q,0,0,0,False
380,CryptoCompare@CryptoCompare,RELEASE THE KRAKEN! #Ethereum #Trading made easier. http://ow.ly/6F8k303VWrk,1,0,0,False
381,Blockgeeks@Blockgks,Great people deserve a great audience. http://blockgeeks.com #Blockchain #Ethereum #Bitcoin,1,0,0,False
382,AltcoinLive bot@AltcoinLiveBot,updated $ETH buywall 11.0btc @ 0.02193811 http://altcoinlive.com/bittrex-eth-btc #altcoinlive (change -0.00026189),0,0,0,False
383,Kyckr@kyckr_official,"Ethereum Devs Applaud the Audience at Devcon’s Closing #ethereum #blockchain #devcon #fintech #tech
http://ow.ly/tsEa304ulhE",1,0,0,False
387,Coinstats@coinstats,"Ethereum Classic - ETC
Price: $1.2648
Change in 1h: +1.18%
Market cap: $106504785.0
Ranking: 6
#Ethereum Classic #ETC",0,0,0,False
388,Coinstats@coinstats,"Ethereum - ETH
Price: $13.2635
Change in 1h: +-0.36%
Market cap: $1117488298.0
Ranking: 2
#Ethereum #ETH",0,0,0,False
389,Ethereum Price@EthereumPrice_,"#Ethereum: Ether Price Index
1 ETH =0.022122Ƀ XBT = $13.257805 USD
Today: +0.17%⬆︎ Last 24h: +0.68%⬆︎
https://ethereum-price.com",0,0,0,False
390,Olivier Chapiteau@o_chapiteau,"23Sep2016 12:00 UTC #Ether #Blockchain status - Block height @ 2,312,046 - 13,618 unconfirmed tr. - Last fork height @ 2,312,043",0,0,0,False
391,Olivier Chapiteau@o_chapiteau,23Sep2016 12:00 UTC #Ethereum live spots - #Ether @ 13.28535 $ - #EtherClassic @ 1.26361 $,0,0,0,False
393,Ryan@Ry_eli5,"#Bitcoin showing steady progress on 0.13.1 & segwit ... hearing little was discussed about #ethereum POS at devconQuote TweetRyan@Ry_eli5 · Aug 4, 2016I like all blockchains but listening to the ethereum debate makes me think:

#Bitcoin 
#Ethereum ",1,0,0,False
394,Sillytuna (hiring devs) @sillytuna,I just hope investors understand that this is a 5-10 year play although I suspect many don't #bitcoin #ethereum,1,1,1,False
395,Oodles Technologies@oodlestech,"#Blockchain #MobileWallet Technology and Its Advantages

VISIT : http://oodlestechnologies.com/blogs/Blockchain-Mobile-Wallet-Technology-and-Its-Advantages…
#DecentralizedBlockchainDevelopment #EthereumBlockchain Mobile Wallet Technology and Its AdvantagesAdoption of tablets, smart phones, and mobile technology is increasing at very fast pace and it will soon begin to affect how users make payments.oodlestechnologies.com",0,0,0,False
397,Timo Ξberhard@ZhuBajie72,"Replying to @ZhuBajie72#Ethereum survived it, so will #Bitcoin. Dunno, why you peeps are so freakin scared about a #hardfork...",1,1,0,False
398,Crypto Trader Pro @CryptoTraderPro,#Ethereum #Network Comes Across Yet Another #DOS Attack.… http://dlvr.it/MKHp8Z #Ethereum #Network,0,0,0,False
399,Faith Emmanuel@residualbitcoin,Royal Bank of Scotland Tests Private #ethereum #blockchain For Domestic Payments http://themerkle.com/royal-bank-of-scotland-tests-private-ethereum-blockchain-for-domestic-payments…  #Residua…,0,0,0,False
401,Cryptobros@c0inss,I like this. $ETH https://twitter.com/whaleclubco/status/779266658368184320…This Tweet is unavailable.,0,0,0,False
402,BitcoinAgile@bitcoinagile,Royal Bank of Scotland Tests Private #ethereum #blockchain For Domestic Payments http://themerkle.com/royal-bank-of-scotland-tests-private-ethereum-blockchain-for-domestic-payments…,1,2,0,False
403,BitcoinAgile@bitcoinagile,RBS tests demonstrate ability of #ethereum to support a national domestic payments system  http://instapay.today/article/rbs-tests-demonstrate-ability-ethereum-support-national-domestic-payments-system…,3,3,0,False
404,Crypto Price Ticker@TickerCrypto,"#Ethereum #ETH Rank:2 Last:฿0.02225335(0.982%) High:Buy Instantly! on  Low:฿0.02243352 Vol:฿33,758 Market Cap:฿1,874,865 / $1,119,613,371.10",0,0,0,False
405,Blockgeeks@Blockgks,#Blockchain advocates come here to discuss & share trends http://blockgeeks.com #ethereum,0,0,0,False
407,Evan Kirstel $B2B@EvanKirstel,#Ethereum Is Under Attack on @motherboard http://buff.ly/2ddUgyq #CryptoCurrency,0,0,0,False
408,Faith Emmanuel@residualbitcoin,#ethereum Network Under Computational DDoS Attack - DigEdits #SoftpediaNewsGlobal #SoftpediaNews/Global http://digedits.com/ethereum-network-under-computational-ddos-attack… #ResidualB…,0,0,0,False
409,Coinstats@coinstats,"Ethereum Classic - ETC
Price: $1.25018
Change in 1h: +-0.65%
Market cap: $105272084.0
Ranking: 6
#Ethereum Classic #ETC",0,0,0,False
410,Coinstats@coinstats,"Ethereum - ETH
Price: $13.3193
Change in 1h: +-0.73%
Market cap: $1122163102.0
Ranking: 2
#Ethereum #ETH",0,0,0,False
411,BitcoinBuzz vega9@BitcoinBuzzV9,http://bitcoinbuzz.vega9.com - Hot topics: #bitcoin #blockchain #btc #fintech #ethereum #crypto,0,0,0,False
413,Golden Gateway@GoldenGatewayUS,World's Largest Mining Company to Use Blockchain for Supply Chain http://officialgoldengateway.blogspot.com/2016/09/worlds-largest-mining-company-to-use.html… #ethereum,1,1,0,False
414,BitcoinAgile@bitcoinagile,#ethereum Network Under Computational DDoS Attack - DigEdits #SoftpediaNewsGlobal #SoftpediaNews/Global http://digedits.com/ethereum-network-under-computational-ddos-attack…,2,0,0,False
415,Santosh Kumar@msantoshkumar,#Ethereum Is Under Attack | Motherboard http://flip.it/hlGbAy #blockchain #cryptocurrency,3,0,0,False
416,Alex.eth@AlexanderFisher,Replying to @ReubenGodfrey and @DanConway650@SoundCloud Enjoying a break from the crowd in Shanghai while listening to you guys talk about #Ethereum!,4,3,0,False
417,Martin Storm Larsen@MrStormLars,World's Largest Mining Company to Use #Blockchain for Supply Chain http://coindesk.com/bhp-billiton-blockchain-mining-company-supply-chain/… via @CoinDesk #ethereum,1,0,0,False
418,Timo Ξberhard@ZhuBajie72,World's Largest Mining Company to Use [#Ethereum] (why do I always have to add this!?) #Blockchain for Supply Chain http://bit.ly/2cqgM5D,1,0,0,False
419,CoinGecko@coingecko,The latest Ethereum price is USD 13.37. For historical #Ethereum price charts - http://buff.ly/2cW6D4G,0,0,0,False
420,Faith Emmanuel@residualbitcoin,#ethereum network hit by computational DDoS attack #DDoS #CryptoCurrency #Fintech http://ibtimes.co.uk/ethereum-network-hit-by-computational-ddos-attack-1582935…  #Residu…,0,0,0,False
421,BitcoinAgile@bitcoinagile,#ethereum network hit by computational DDoS attack #DDoS #CryptoCurrency #Fintech http://ibtimes.co.uk/ethereum-network-hit-by-computational-ddos-attack-1582935…,0,0,0,False
422,Mary-Ann Russon@concertina226,#Ethereum's network has been hit by a computational #DDoS attack: http://ow.ly/817h304usjW #CryptoCurrency #cybersecurity,1,4,0,False
423,Ethereum UAE@Ethereum_UAE,World's Largest Mining Company to Use Blockchain for Supply Chain http://ift.tt/2dfDHql #Ethereum,1,0,0,False
424,Johanna S@Mc_Nerdic,#ethereum #ether World's Largest Mining Company to Use Blockchain for Supply Chain: The world... http://bit.ly/2d2s4gY #SmartContracts,0,0,0,False
425,CPC Zurich@CompPsychiatry,Rosalyn Moran at the #CPC 2016 on #activeinference and #aging. #Psychiatry #Neuroscience #modeling #eth @tnuzurich,1,0,0,False
426,Ethereum Monkey@EthMonkey,World's Largest Mining Company to Use Blockchain for Supply Chain - CoinDesk #ethereum http://coindesk.com/bhp-billiton-blockchain-mining-company-supply-chain/…,0,0,0,False
427,Matthew Field@MatthewDField,RBS has built a clearing and settlements mechanism based on #Ethereum and there's a paper! https://finextra.com/newsarticle/29486/rbs-tests-demonstrate-ability-of-ethereum-to-support-a-national-domestic-payments-system… via @Finextra #blockchain,0,0,0,False
429,GenesisBlock@GenesisBlockSE,"I am sceptical to only PoS, however a PoW+PoS hybrid could be intersting, such as BTC+ Lightning network #ethereum http://buff.ly/2dbt97p",0,0,0,False
431,CryptoCompare@CryptoCompare,Good to see most of the big #cryptos in the green again. https://cryptocompare.com #BTC #ETH #DASH #XMR,2,3,0,False
432,Blockgeeks@Blockgks,"#Blockchain is confusing, but it doesn't have to be. http://blockgeeks.com #Ethereum #bitcoin",1,0,0,False
433,Coinstats@coinstats,"Ethereum Classic - ETC
Price: $1.25829
Change in 1h: +-0.99%
Market cap: $105953430.0
Ranking: 6
#Ethereum Classic #ETC",0,0,0,False
434,Kyckr@kyckr_official,"Ethereum Devs Applaud the Audience at Devcon’s Closing #ethereum #blockchain #devcon #fintech
http://ow.ly/tsEa304ulhE",0,0,0,False
435,Coinstats@coinstats,"Ethereum - ETH
Price: $13.4194
Change in 1h: +0.71%
Market cap: $1130585121.0
Ranking: 2
#Ethereum #ETH",0,0,0,False
436,Timo Ξberhard@ZhuBajie72,"Surprise, surprise.......... [ ] 
#Ethereum #newparadigmQuote TweetAlex.eth@AlexanderFisher · Sep 23, 2016Projects based on #Ethereum have been mentioned more than other blockchain technology this week at the 2016 Shanghai #Blockchain Summit!!!",1,0,0,False
437,Bitcoin Brasil@BitcoinBr10,Ethereum Classic Price Technical Analysis – ETC Bounces Sharply http://bitcoinbrasil10.blogspot.com.br/2016/09/ethereum-classic-price-technical_23.html… #Bitcoin #blockchain #ethereum #btc #CryptoCurrency,1,1,0,False
438,bitcoin new's@jagga_dakku004,Want latest news about #Bitcoin #Faucets?Come here and join latest faucets http://goo.gl/cbjH9h #Altocin #ethereum #blockchain #secure.,0,0,0,False
439,bitcoin new's@jagga_dakku004,Want latest news about #Bitcoin #Faucets?Come here and join latest faucets http://goo.gl/cbjH9h #Altocin #ethereum #blockchain #secure,0,0,0,False
440,Bitcoin Brasil@BitcoinBr10,"Ethereum Price Technical Analysis – ETH Trims Gain, Recovers http://bitcoinbrasil10.blogspot.com.br/2016/09/ethereum-price-technical-analysis-eth_23.html… #Bitcoin #blockchain #ethereum #btc #CryptoCurrency",2,1,0,False
441,Artemporary@CarmelaTfr,"Back!  
And still feeling like a tourist... 
#Zurich #Switzerland #backhome #panorama #eth… https://instagram.com/p/BKsX-rthX8N/",0,0,0,False
442,Lu Breckenridge@LuBreckenridge,"#Ethereum is definitely heading towards trouble. The promising #blockchain-based smart contracts protocol has...Ethereum Network Comes Across to Yet Another DOS AttackThe second DOS attack on Ethereum casts serious doubts about the platform's security, may affect mainstream adoption. Read more...newsbtc.com",1,0,0,False
444,Alex.eth@AlexanderFisher,Co-tricity is building on #Ethereum to help people buy and sell their own solar power with local neighbors and markets! #Blockchain Summit,3,1,0,False
445,Planet Niche Ads@PlanetNicheAds,Free #Ethereum every 5 minutes https://cryptosource.net/free-ethereum/?r=R40XEMXhbt… #Ethereum via @CryptoSourceHQ,1,0,0,False
446,Alex.eth@AlexanderFisher,Projects based on #Ethereum have been mentioned more than other blockchain technology this week at the 2016 Shanghai #Blockchain Summit!!!,5,2,0,False
447,Mariusz Ożga@MozgaOzga,RBS tests demonstrate ability of #Ethereum to support a national #payments system #blockchain https://finextra.com/newsarticle/29486/rbs-tests-demonstrate-ability-of-ethereum-to-support-a-national-domestic-payments-system… przez @Finextra,0,0,0,False
449,Btc_social@btc_social,Want latest news about #Bitcoin #Faucets?Come here and join latest faucets http://goo.gl/cbjH9h #Altocin #ethereum #blockchain #secure.,0,0,0,False
450,Btc_social@btc_social,Want latest news about #Bitcoin #Faucets?Come here and join latest faucets http://goo.gl/cbjH9h #Altocin #ethereum #blockchain #secure,0,0,0,False
451,/r/Ethereum@r_Ethereum,"PRESS RELEASE: uPort wins International Blockchain Week, Releases Whitepaper draft v1, Open-sources... http://bit.ly/2cQMVd4 #EthereumPRESS RELEASE: uPort wins International Blockchain Week, Releases...Posted in r/ethereum by u/andrewkeys • 19 points and 1 commentreddit.com",0,0,0,False
452,/r/Ethereum@r_Ethereum,Could Opcode price be determined by compulsory benchmarking contract? http://bit.ly/2d2h8zW #EthereumCould Opcode price be determined by compulsory benchmarking contract?Much like PoW difficulty is determined by averaging out the network hash rate over a previous epoch... Could the Ethereum protocol require the...reddit.com,0,0,0,False
453,/r/Ethereum@r_Ethereum,"""The challenges that have faced Ethereum have battle-tested it"" http://bit.ly/2d2hlDx #Ethereum""The challenges that have faced Ethereum have battle-tested it""reddit.com",0,0,0,False
454,/r/Ethereum@r_Ethereum,Correction: Vitalik did not say PoS is not suitable for gambling http://bit.ly/2cQMWxE #EthereumCorrection: Vitalik did not say PoS is not suitable for gamblingI need to make an apology. The other day I created a topic about discussions on PoS entropy in the research gitter....reddit.com,0,0,0,False
455,Alex.eth@AlexanderFisher,BHP Billiton talking about how they're using #Ethereum to track very valuable mining assets around the world! #Blockchain Summit,1,2,0,False
456,Ethereum Monkey@EthMonkey,Ethereum Network Comes Across to Yet Another DOS Attack #ethereum http://newsbtc.com/2016/09/23/ethereum-dao-attack-attack-platforms-credibility/…,0,0,0,False
457,Faith Emmanuel@residualbitcoin,#ethereum Network Comes Across with Yet Another DOS Attack #bitcoin #DAO #dosattack http://bitcoinagile.com/858BCE/ethereum-network-comes-across-with-yet-another-dos-attack_stream…  #Resi…,0,0,0,False
458,BitcoinAgile@bitcoinagile,#ethereum Network Comes Across with Yet Another DOS Attack #bitcoin #DAO #dosattack http://bitcoinagile.com/858BCE/ethereum-network-comes-across-with-yet-another-dos-attack_stream…,0,0,0,False
459,Coinstats@coinstats,"Ethereum Classic - ETC
Price: $1.27115
Change in 1h: +-0.16%
Market cap: $107034727.0
Ranking: 6
#Ethereum Classic #ETC",0,0,0,False
460,Coinstats@coinstats,"Ethereum - ETH
Price: $13.3426
Change in 1h: +0.83%
Market cap: $1124102123.0
Ranking: 2
#Ethereum #ETH",0,0,0,False
461,Ethereum Price@EthereumPrice_,"#Ethereum: Ether Price Index
1 ETH =0.022207Ƀ XBT = $13.376800 USD
Today: +0.56%⬆︎ Last 24h: +0.48%⬆︎
https://ethereum-price.com",1,4,0,False
462,BigTCryptoAlerts@BigCryptoAlerts,Ethereum (USD) hits a 1 month high http://tinyurl.com/jfnrgfx $ETHUSD #Ethereum(USD),1,0,0,False
463,Romeo Demura@DemuraRomeo,Hop on board $BTC $LTC $ETH $ETC $XMR $FCT $XRP $XCP $LSK $DASH $NAUT $MAID $SDC $DOGE https://twitter.com/Silk_Network/status/779241588920811521…This Tweet is unavailable.,0,0,0,False
464,Eugene Zavarzin@ADZ4BIZ,Will #Adzcoin Skyrocket Like http://bit.ly/2d2crpR #Ethereum?,1,0,0,False
465,jb@blackswan0815,Replying to @blackswan0815#XMR - #ETH Fractal? https://tradingview.com/x/kYgtSZe6/,0,0,0,False
466,Crypto Trader Pro @CryptoTraderPro,#Ethereum Classic Price Technical Analysis – #ETC Bounces Sharply.… http://dlvr.it/MKDqkF #Ethereum #ETC,0,0,0,False
467,NEWSBTC@newsbtc,#Ethereum Classic Price Technical Analysis – #ETC Bounces Sharply. http://bit.ly/2d4YvPD,1,1,0,False
468,Richard Foley@rw227,The #Ethereum #Cryptocurrency is #Undergoing a #Massive #DDoS #Attack Right Now  @jtc_4 http://inv.rs/N6k via @inversedotcom #infosec,0,0,0,False
470,Alberto Jauregui | esoteRICK.eth @DisruptBanksy,http://ift.tt/2dm8JsG Ethereum Classic Price Technical Analysis – ETC Bounces Sharply - newsBTC #ethereum #ether,0,0,0,False
471,Ethereum Monkey@EthMonkey,Ethereum Classic Price Technical Analysis - ETC Bounces Sharply - NEWSBTC #ethereum http://newsbtc.com/2016/09/23/ethereum-classic-price-technical-analysis-etc-bounces-sharply/…,0,0,0,False
476,MME@MME_Switzerland,How to structure your ICO? The MME Crypto Team has established a kick-off package with key elements #btc #eth #ICO #cryptovalley,1,0,0,False
477,Cryptobomb@cryptobomb,#Ethereum Is Under Attack $ETH | Motherboard | http://motherboard.vice.com/read/ethereum-is-under-ddos-attack…,0,0,0,False
478,DoodBot@NewsCryptoBot,The #Ethereum network undergoes yet another attack! https://blog.ethereum.org/2016/09/22/ethereum-network-currently-undergoing-dos-attack/…,0,0,0,False
479,Faith Emmanuel@residualbitcoin,#ethereum Classic Price Technical Analysis  ETC Bounces Sharply - NEWSBTC #bitcoin #ETC http://newsbtc.com/2016/09/23/ethereum-classic-price-technical-analysis-etc-bounces-sharply…  #…,0,0,0,False
480,Brave New Coin@bravenewcoin,#Ethereum Classic Price: USD $1.27 #ETC http://ow.ly/QXxZ303j19Q,0,0,0,False
481,BitcoinAgile@bitcoinagile,#ethereum Classic Price Technical Analysis  ETC Bounces Sharply - NEWSBTC #bitcoin #ETC http://newsbtc.com/2016/09/23/ethereum-classic-price-technical-analysis-etc-bounces-sharply…,1,2,0,False
482,Blockgeeks@Blockgks,How #Blockchain Technology Can Reinvent The Power Grid http://snip.ly/k7p0q #ethereum #Bitcoin,1,0,0,False
483,Coinstats@coinstats,"Ethereum Classic - ETC
Price: $1.27199
Change in 1h: +-0.34%
Market cap: $107103780.0
Ranking: 6
#Ethereum Classic #ETC",0,0,0,False
484,Coinstats@coinstats,"Ethereum - ETH
Price: $13.2244
Change in 1h: +-0.16%
Market cap: $1114119519.0
Ranking: 2
#Ethereum #ETH",0,0,0,False
485,Faith Emmanuel@residualbitcoin,"BlockApps expands #ethereum #blockchain-as-a-Service cloud offering to China, raises pre-series-A funding - #money http://econotimes.com/BlockApps-expands-Ethereum-Blockchain-as-a-Service-cloud-offering-to-China-closes-pre-series-A-round-315392……",1,1,0,False
486,BitcoinAgile@bitcoinagile,"BlockApps expands #ethereum #blockchain-as-a-Service cloud offering to China, raises pre-series-A funding - #money http://econotimes.com/BlockApps-expands-Ethereum-Blockchain-as-a-Service-cloud-offering-to-China-closes-pre-series-A-round-315392…",2,0,0,False
487,Bitcoin Updater@BitcoinUpdater,Krypton Abandons Ethereum for Bitcoin Proof of Stake Blockchain after 51% Attack #ethereum http://soco.space/pTyAen,0,0,0,False
488,AltcoinLive bot@AltcoinLiveBot,updated $ETH buywall 11.0btc @ 0.02202463 http://altcoinlive.com/bittrex-eth-btc #altcoinlive (change 0.00000030),0,0,0,False
489,AltcoinLive bot@AltcoinLiveBot,updated $ETH buywall 11.7btc @ 0.02202433 http://altcoinlive.com/bittrex-eth-btc #altcoinlive (change 0.00000044),0,0,0,False
490,AltcoinLive bot@AltcoinLiveBot,updated $ETH buywall 11.0btc @ 0.02202389 http://altcoinlive.com/bittrex-eth-btc #altcoinlive (change 0.00000046),0,0,0,False
501,AltcoinLive bot@AltcoinLiveBot,updated $ETH buywall 11.0btc @ 0.02202343 http://altcoinlive.com/bittrex-eth-btc #altcoinlive (change 0.00000751),0,0,0,False
503,TenaciousC@T3naciousC,"Replying to @alistairmilnelet's not pull an $ETH here, take your time guys, test, test, test and test it again! Great work, these devs rock! $BTC",3,0,0,False
504,Faith Emmanuel@residualbitcoin,Transaction spam attack against #ethereum http://defango.com/transaction-spam-attack-against-ethereum… #ResidualBitcoin,0,0,0,False
505,AltcoinLive bot@AltcoinLiveBot,updated $ETH buywall 11.0btc @ 0.02201592 http://altcoinlive.com/bittrex-eth-btc #altcoinlive (change 0.00000166),0,0,0,False
506,indxio@indxio,#China Market Close || #Bitcoin: $595.15 | 528.93 EUR||  #Litecoin: 0.0032 BTC  || #Ethereum: 0.0222 BTC   || $BTC $LTC $ETH $RMB,0,0,0,False
507,BitcoinAgile@bitcoinagile,Transaction spam attack against #ethereum http://defango.com/transaction-spam-attack-against-ethereum…,0,0,0,False
510,ether-camp@CampEther,Seen on #hackethercamp https://hack.ether.camp/idea/queue #ethereum,0,0,0,False
511,Blockgeeks@Blockgks,How #blockchain technology can prevent the next financial crisis http://snip.ly/1voll #Bitcoin #Ethereum,0,0,0,False
513,MeeseeksBTC@Meeseeks100BTC,"RT Start mining $ETH or $BTC together with people from all over the world.

https://goo.gl/tYClLG",0,0,0,False
514,Coinstats@coinstats,"Ethereum Classic - ETC
Price: $1.27773
Change in 1h: +0.37%
Market cap: $107585452.0
Ranking: 6
#Ethereum Classic #ETC",0,0,0,False
515,Coinstats@coinstats,"Ethereum - ETH
Price: $13.2418
Change in 1h: +0.43%
Market cap: $1115566188.0
Ranking: 2
#Ethereum #ETH",0,0,0,False
516,Ethereum SE@StackEthereum,"Why my contract silently fails on ""throw"" or out of gas exception? http://ethereum.stackexchange.com/questions/8796/why-my-contract-silently-fails-on-throw-or-out-of-gas-exception… #ethereum #goethereum #solidity",0,0,0,False
517,Faith Emmanuel@residualbitcoin,#ethereum POOL http://findmyfreelance.com/2016/09/23/ethereum-pool… #ResidualBitcoin,1,1,0,False
518,Brian Ahier@ahier,"@BrianBehlendorf is genius! #ethereum #blockchain #OpenSource @LinuxFoundation @Hyperledger #fintech @blockchain @ethereumproject #PWN  Quote Tweetvitalik.eth@VitalikButerin · Sep 22, 2016""The challenges that have faced Ethereum have battle-tested it"" - Brian Behlendorf, @Hyperledger",2,0,0,False
519,BitcoinAgile@bitcoinagile,#ethereum POOL http://findmyfreelance.com/2016/09/23/ethereum-pool…,1,0,0,False
520,Timo Ξberhard@ZhuBajie72,Taking Shape  // Midtermish #Target: 30.00EUR... #Ethereum #Ether $ETH $ETHEUR @krakenfx >>> https://tradingview.com/chart/ETHEUR/PycERfNF-The-Only-Chart-That-Really-Matters/…,2,0,0,False
522,Crypto Trader Pro @CryptoTraderPro,"#Ethereum Price Technical Analysis – #ETH #Trims Gain, Recovers.… http://dlvr.it/MKCFzc #Ethereum #ETH",0,0,0,False
523,Ξ Fly Guy Ξ (flyguy.eth)@FlyGuyInTheSky,#ethereum how many Ether do you own?Under 50 ETH40%Between 50 - 100 ETH20%Between 100 - 500 ETH20%Over 500 ETH20%10 votes·Final results,3,0,0,False
524,Topicly Smart City@topiclysmrtcity,4 new #smartcity posts about #wanxiang #ether http://topicly.io/topic/smart-cities?57e498aabe57452d00dde197…,1,0,0,False
526,NEWSBTC@newsbtc,"#Ethereum Price Technical Analysis – #ETH #Trims Gain, Recovers. http://bit.ly/2cQo1dz",1,0,0,False
527,Ameer Rosic@AmeerRosic,Is #Youtube in Trouble? #Blockchain is coming! http://bit.ly/1tgKTVz #ethereum #bitcoin,0,0,0,False
528,Joetke@joetke,"#blockchain adoption soon #CryptoCurrency #assetsManagers #bitcoin #ethereumQuote TweetCCN - Capital & Celeb News@CapitalAndCeleb · Sep 22, 2016Asset Managers See Blockchain Adoption by 2021 https://cryptocoinsnews.com/asset-managers-see-blockchain-shift-by-2021/…",1,1,0,False
529,Alex.eth@AlexanderFisher,@ofnumbers of @R3CEV calls #Ethereum #Bitcoin and other public blockchains 'anarchic' at #BlockchainSummit,2,0,0,False
530,Alex.eth@AlexanderFisher,@CampEther party at #devcon2 #ethereum,2,1,1,False
531,Coinstats@coinstats,"Ethereum Classic - ETC
Price: $1.27276
Change in 1h: +-0.34%
Market cap: $107165497.0
Ranking: 6
#Ethereum Classic #ETC",0,0,0,False
532,Coinstats@coinstats,"Ethereum - ETH
Price: $13.1885
Change in 1h: +0.5%
Market cap: $1111057764.0
Ranking: 2
#Ethereum #ETH",0,0,0,False
533,Olivier Chapiteau@o_chapiteau,"23Sep2016 06:00 UTC #Ether #Blockchain status - Block height @ 2,310,505 - 11,827 unconfirmed tr. - Last fork height @ 2,310,484",1,2,0,False
534,Olivier Chapiteau@o_chapiteau,23Sep2016 06:00 UTC #Ethereum live spots - #Ether @ 13.19336 $ - #EtherClassic @ 1.27450 $,0,0,0,False
535,Ethereum Price@EthereumPrice_,"#Ethereum: Ether Price Index
1 ETH =0.022027Ƀ XBT = $13.177640 USD
Today: -0.26%⬇︎ Last 24h: -0.61%⬇︎
https://ethereum-price.com",1,0,0,False
536,LAPITH@bhumharit,RT iconominet: Less than a day to get your 10% #bonus! http://ico.iconomi.net #ICONOMI #ico #fintech #blockchain #apptokens #bitcoin #eth…,1,2,0,False
537,Ghazanfar Ajaz@geechoo,#howtomakemoneyonline with #Bitcoin #ethereum #urdu #hindiETHTRADE URDU HINDI हिंदीJOIN LINK https://ethtrade.org/@309736+92 334 3534577For Exchanging Bitcoin http://www.changer.com/?refid=21005Telegram : @futurenetEthtrade Channel : https:...youtube.com,1,0,0,False
538,Timo Ξberhard@ZhuBajie72,omzg.... [#Ethereum] #Blockchain to Drive #Wanxiang's $30 Billion (!!!) Smart Cities Initiative http://bit.ly/2cVQoD0 via @CoinDeskBlockchain to Drive Wanxiang's $30 Billion Smart Cities Initiative - CoinDeskAuto giant Wanxiang announced today that it will be using blockchain as part of its newly announced smart cities program.coindesk.com,1,1,0,False
539,Eureka@EurekaCertif,"This is definition of #antifragile @ethereumproject #ethereum #DLTQuote TweetEthereum@ethereum · Sep 22, 2016Transaction Spam Attack (Nuisance Attack) Update and Next Steps. https://blog.ethereum.org/2016/09/22/transaction-spam-attack-next-steps/…",1,0,0,False
540,Eric Gaubert@kalydeoo,#Ethereum DevCon2: 'One line of code changed #blockchain history' http://ibt.uk/A6dbO?utm_source=social&utm_medium=twitter&utm_campaign=/ethereum-devcon2-one-line-code-changed-blockchain-history-1582202… via @IBTimesUK,5,0,0,False
541,Timo Ξberhard@ZhuBajie72,"Replying to @VitalikButerin and @HyperledgerMaybe not quite, yet.... Further hostile #shenanigans to be expected proportional to #Ethereum´s growth. - khun",1,0,0,False
542,AltcoinWeekly@altcoinweekly,The latest Ethereum price is USD 13.07. For historical #Ethereum price charts - http://buff.ly/2cQhWNU,0,0,0,False
543,CoinGecko@coingecko,The latest Ethereum price is USD 13.07. For historical #Ethereum price charts - http://buff.ly/2cQgpaP,1,0,0,False
544,Ameer Rosic@AmeerRosic,Could #Blockchain Technology Bankrupt #Spotify? http://bit.ly/1tgKTVz #ethereum #bitcoin,1,0,0,False
545,Ethereum Monkey@EthMonkey,"Ethereum Price Technical Analysis - ETH Trims Gain, Recovers - NEWSBTC #ethereum http://newsbtc.com/2016/09/23/ethereum-price-technical-analysis-eth-trims-gain-recovers/…",0,0,0,False
546,⛧ God of Gaming ⛧@TheGodofGamez,The foolish man seeks happiness in the distance; the wise grows it under his feet. $ETH,0,0,0,False
547,Faith Emmanuel@residualbitcoin,"#ethereum Price Technical Analysis  ETH Trims Gain, Recovers - NEWSBTC #EthereumPricechart http://bitcoinagile.com/858118/ethereum-price-technical-analysis-eth-trims-gain-recovers-newsbtc_stream… …",0,0,0,False
548,/r/Ethereum@r_Ethereum,FYI for Parity Ethereum wallet users http://bit.ly/2d8JNIL #EthereumFYI for Parity Ethereum wallet usersreddit.com,0,0,0,False
549,/r/Ethereum@r_Ethereum,PRESS RELEASE: ConsenSys and BlockApps work with Minsheng Insurance on Ethereum Blockchain Loyalty System http://bit.ly/2cLrqag #EthereumPRESS RELEASE: ConsenSys and BlockApps work with Minsheng...Posted in r/ethereum by u/andrewkeys • 49 points and 7 commentsreddit.com,1,0,0,False
550,BitcoinAgile@bitcoinagile,"#ethereum Price Technical Analysis  ETH Trims Gain, Recovers - NEWSBTC #EthereumPricechart http://bitcoinagile.com/858118/ethereum-price-technical-analysis-eth-trims-gain-recovers-newsbtc_stream…",0,0,0,False
551,cryptinsight@cryptinsight,Questions sur #ethereum #blockchain http://blockchaindailynews.com/Questions-sur-Ethereum_a24485.html…,0,0,0,False
552,Blockgeeks@Blockgks,#Blockchain Powered Micropayment Browser Brave Raises $4.5m http://snip.ly/qmlif #Ethereum #bitcoin,0,0,0,False
553,Coinstats@coinstats,"Ethereum Classic - ETC
Price: $1.27632
Change in 1h: +-0.99%
Market cap: $107463710.0
Ranking: 6
#Ethereum Classic #ETC",0,0,0,False
554,Coinstats@coinstats,"Ethereum - ETH
Price: $13.1243
Change in 1h: +0.07%
Market cap: $1105629345.0
Ranking: 2
#Ethereum #ETH",0,0,0,False
555,thecraftharritage@craftharritage,Check out Bohemian Mandala Round Beach Tapestry Hippie Throw Towel Indian Roundie Yoga Mat #eth http://cgi.ebay.com/ws/eBayISAPI.dll?ViewItem&item=282180801627&roken=cUgayN&soutkn=aC4roa… via @eBay,0,0,0,False
556,Thessy Mehrain@ThessyMehrain,@ethereumJoseph on #ethereum and the world according to @ConsenSysLLC at #BlockchainSummit2016 in Shanghai,0,0,0,False
557,⛧ God of Gaming ⛧@TheGodofGamez,Never tell me the sky’s the limit when there are footprints on the moon. $ETH,0,0,0,False
558,Alex.eth@AlexanderFisher,Private and public blockchains will exist. Why not build on same technology ( #Ethereum )? @ethereumJoseph at #Blockchain Summit,0,0,0,False
559,Brave New Coin@bravenewcoin,#Ethereum Classic Price: USD $1.28 #ETC http://ow.ly/QXxZ303j19Q,0,0,0,False
