,user,text,likes,retweets,replies,is_thread
0,Ethereum SE@StackEthereum,Ethereum node stuck can't sync on Win. 8.1 http://ethereum.stackexchange.com/questions/9547/ethereum-node-stuck-cant-sync-on-win-8-1… #ethereum #wallets #ether #synchronization #nodesEthereum node stuck can't sync on Win. 8.1I've downloaded the latest version but can't make the Ethereum node sync. It just states: Ethereum node needs to sync.. Please wait . I've also turned my firewall off but still not working. Plus I...ethereum.stackexchange.com,0,0,0,False
1,Brianne Rivlin@BrianneRivlin,I'm here! @money2020 Looking forward to the tracks ahead. #ethereum #ethnews #Money2020,5,1,0,False
2,Chris P Thompson@CryptoBooksAlt,#trumpcoin #trump #litecoin #ethereum #monero this book will include the primary results and speech venues of @realDonaldTrump,3,1,0,False
3,Crypto Price Ticker@TickerCrypto,"#Ethereum #ETH Rank:2 Last:฿0.01833873(-0.654%) High:Buy Instantly! on  Low:฿0.01847515 Vol:฿4,300 Market Cap:฿1,563,698 / $1,016,141,349.60",0,0,0,False
4,Topcrypostats@topcrypostats,"Ethereum Classic - ETC
Price: $1.04759
Change in 1h: +0.1%
Market cap: $89213094.0
Ranking: 5
#Ethereum Classic #ETC",0,0,0,False
5,Topcrypostats@topcrypostats,"Ethereum - ETH
Price: $11.9999
Change in 1h: +0.0%
Market cap: $1023201772.0
Ranking: 2
#Ethereum #ETH",0,0,0,False
6,Jordan Leigh@AlwaysBCoding,"First vid from yesterdays #ethereum meetup: The Decentralized Web, IPFS and Filecoin from @juanbenet
https://youtube.com/watch?v=cU-n_m-snxQ…",8,4,0,False
7,BlockChannel@BlockChannel,"Preview: BlockChannel EP01: ""Empowering Creativity with Technology"". Special Guest:@ethereumJoseph : McKie & Dee by @faruhdey #ETH #BTC",1,0,0,False
8,/r/Ethereum@r_Ethereum,Am I right in thinking that the recent HF will not prevent DOS attacks by an attacker with a lot of... http://bit.ly/2f6EdH0 #Ethereum,0,0,0,False
9,Topcrypostats@topcrypostats,"Ethereum Classic - ETC
Price: $1.047
Change in 1h: +0.03%
Market cap: $89171449.0
Ranking: 5
#Ethereum Classic #ETC",0,0,0,False
10,Bobe'bot@Bobe_bot,"1 #BTC = 665.9048 #CHF
1 #ETH = 12.491 #CHF
1 #DOGE = 0.00022080835 #CHF
sources: @cryptonatorcom @hellobity",0,0,0,False
11,Topcrypostats@topcrypostats,"Ethereum - ETH
Price: $12.0568
Change in 1h: +0.09%
Market cap: $1028039237.0
Ranking: 2
#Ethereum #ETH",0,0,0,False
12,Ameer Rosic@AmeerRosic,Is #Youtube in Trouble? #Blockchain is coming! http://bit.ly/1tgKTVz #ethereum #bitcoin,0,0,0,False
13,BlockChannel@BlockChannel,"BlockChannel: We're here! money2020 If you're here too, we'd love to meet you. Tag ETHNews_  #Money2020 #Ethereum",3,1,0,False
14,TechPORTFOLIO@TechPORTFOLIO,"Can a #blockchain currency evolve? The scuffling over #Ethereum suggests the answer is ""No"" ► http://newsr.ms/HPu50Bn #ibmwow",1,1,0,False
15,ETHNews@ETHNews_,"We're here! @money2020 If you're here too, we'd love to meet you. Tag @ETHNews_ #Money2020 #Ethereum",3,4,0,False
16,Francisco Ribeiro@Francis69473199,Free Ethereum every 5 minutes http://etherfaucet.net/?r=0x132Da05A9A3E03cFCcb96De9c43Ef4776beBbd6D… #ethereum via @FreeCryptoCo,0,0,0,False
17,Caleb Chen@bitxbitxbitcoin,#money2020 #blockchain #ethereum @R3CEV's Jacob Farber: #smartcontracts are a #tech misnomer as they are neither #smart nor #contracts,7,4,0,False
18,Menno Pietersen@btc_feed,$waves where are we going?!?! Amazing pump happening for #waves. $BTC $ETH #BTC #ETH,0,0,0,False
19,Menno Pietersen @MennoPP,$waves where are we going?!?! Amazing pump happening for #waves. $BTC $ETH #BTC #ETH,1,0,0,False
20,Crypt0.eth@crypt0snews,http://ethereumclothing.com Head here for all of your comfortable Ethereum attire needs! #ethereum #shirt #crypt0 #bitcoin #cryptocurrency,0,0,0,False
21,Zcash News@ZcashNews,"Zooko Wilcox presents "" $ZEC + $ETH = "" at the #Ethereum Dev Conference.Zcash + Ethereum = Presentation Slides Download: https://ethereumfoundation.org/devcon/?session=zcash-private-transactions-on-a-public-blockchainDevcon2: Zcash + Ethereum = Sp...youtube.com",3,2,1,False
22,Crypt0.eth@crypt0snews,http://ethereumclothing.com Head here for all of your comfortable Ethereum attire needs! #ethereum… https://instagram.com/p/BL65-4QDpkW/,0,0,0,False
23,Ethereum UAE@Ethereum_UAE,CoinAgenda Brings Blockchain Leaders to Vegas on October 25 http://ift.tt/2eIkhqP #Ethereum,2,0,0,False
24,Antonia Jenae'@antoniajenae,"Hmmm ... but #Ether. 

#Nas http://fb.me/1jDE5sDsJ",0,0,0,False
25,Ameer Rosic@AmeerRosic,Could #Blockchain Technology Bankrupt #Spotify? http://bit.ly/1tgKTVz #ethereum #bitcoin,0,0,0,False
26,ExploreTraveler@exploretravel1,RT @DollarVigilante: Anarchast With Jim Bell: Assassination Politics Meet the #Blockchain #Ethereum http://lnkplg.co/x8nAO https://t.co/99…,1,1,0,False
27,Christian Seberino@c_seberino,CCN: Ethereum Classic To Hard Fork October 25 http://buff.ly/2esT5QY #etc #eth #ethereumclassic #ethereum,1,0,0,False
28,Topcrypostats@topcrypostats,"Ethereum Classic - ETC
Price: $1.04615
Change in 1h: +-0.23%
Market cap: $89097664.0
Ranking: 5
#Ethereum Classic #ETC",0,0,0,False
29,Topcrypostats@topcrypostats,"Ethereum - ETH
Price: $12.0675
Change in 1h: +0.33%
Market cap: $1028936713.0
Ranking: 2
#Ethereum #ETH",0,0,0,False
30,Ethereum Price@EthereumPrice_,"#Ethereum: Ether Price Index
1 ETH =0.018401Ƀ XBT = $12.045755 USD
Today: -0.47%⬇︎ Last 24h: -0.52%⬇︎
https://ethereum-price.com",1,0,0,False
31,Caleb Chen@bitxbitxbitcoin,Just got to #money2020 and already ran into @JuanLlanos and @VitalikButerin #bitcoin #ethereum #blockchain,4,2,0,False
32,Agatha Ventures@EarlyAdopter23,Bitcoin & Cryptocurrencies [$BTC] https://youtube.com/playlist?list=PLmXtVwdZjMItch5yipYSDHlImKjIq2DrE… #bitcoin #fintech #blockchain #invest #altcoins #altsareback #ethereum,0,0,0,False
33,Menno Pietersen @MennoPP,New high for $waves! 0.00045222 #WAVES / #BTC $ETH $BTC AMAZING,0,0,0,False
34,Ethereum SE@StackEthereum,Forwarding contract http://ethereum.stackexchange.com/questions/9545/forwarding-contract… #ethereum #contractdesign #contractdebugging,0,0,0,False
35,kingscrown@kingscrownBTC,https://steemit.com/bitcoin/@kingscrown/winter-is-coming-heat-homes-with-gpu-miners-and-make-money-as-a-side-effect… @MinerGate @NiceHashMining #ethereum in my #steem #steemit $STEEM postWinter is coming - heat homes with GPU miners and make money as a side effect — SteemitEvery winter when people sit in their homes feeling cold im walking like on the beach.. Why? Because while all… by kingscrownsteemit.com,1,0,0,False
36,Brave New Coin@bravenewcoin,#Ethereum Price: USD $12.2 #ETH http://ow.ly/6UKf3048WBe,1,0,0,False
37,Digiconomist@DigiEconomist,#Ethereum Classic is copying #ETH's first fork; so they'll also have to fork twice due to mispriced opcodes not addressed in ETH's 1st fork.,1,1,1,False
38,Blockgeeks@Blockgks,Could #Blockchain Technology Bankrupt Spotify? A Music Revolution http://buff.ly/2cWIfNM #ethereum #bitcoin,1,1,0,False
39,Topcrypostats@topcrypostats,"Ethereum Classic - ETC
Price: $1.04847
Change in 1h: +0.1%
Market cap: $89293913.0
Ranking: 5
#Ethereum Classic #ETC",0,0,0,False
40,Topcrypostats@topcrypostats,"Ethereum - ETH
Price: $12.0114
Change in 1h: +-0.29%
Market cap: $1024136059.0
Ranking: 2
#Ethereum #ETH",0,0,0,False
41,BlackNeonRadio@BlackNeonRadio1,Donate to our project! Add funds and receive $$$ in exchange from profits lifetime! @gagpubblicita #ethereum #miner https://indiegogo.com/projects/build-ethereum-mining-farm/x/14702367#/…,1,0,0,False
42,CoinBorse NEWS@CoinBorse,The latest CoinBorsenBote! http://paper.li/CoinBorse/1395949169?edition_id=73554a40-9958-11e6-b7a6-0cc47a0d1605… #bitcoin #ethereum,0,0,0,False
43,ThatRobKramer@thatrobkramer,Really?? #Ethereum Classic to Get a Hard Fork of Its Own - @NEWSBTC http://newsbtc.com/2016/10/22/ethereum-classic-hard-fork-soon/…,1,0,0,False
44,Volody Sk@VolodySk,DollarVigilante: Anarchast With Jim Bell: Assassination Politics Meet the #Blockchain #Ethereum …,1,2,0,False
45,The Dollar Vigilante@DollarVigilante,Anarchast With Jim Bell: Assassination Politics Meet the #Blockchain #Ethereum https://dollarvigilante.com/blog/2016/08/13/anarchast-jim-bell-assassination-politics-meet-blockchain.html…,11,8,1,False
46,Topcrypostats@topcrypostats,"Ethereum Classic - ETC
Price: $1.04791
Change in 1h: +-0.18%
Market cap: $89240346.0
Ranking: 5
#Ethereum Classic #ETC",0,0,0,False
47,Topcrypostats@topcrypostats,"Ethereum - ETH
Price: $12.0725
Change in 1h: +0.65%
Market cap: $1029328868.0
Ranking: 2
#Ethereum #ETH",0,0,0,False
48,/r/Ethereum@r_Ethereum,I went to an EDM show last night and the setup reminded me of something... http://bit.ly/2eX3sfE #Ethereum,0,0,0,False
49,/r/Ethereum@r_Ethereum,China In Need Of Blockchain Solutions To Better Record The Trust Rating Of Its Citizens http://bit.ly/2eyn9rv #Ethereum,0,0,0,False
50,AltcoinLive bot@AltcoinLiveBot,removed $ETH buywall 10.2btc @ 0.01838600 http://altcoinlive.com/bittrex-eth-btc #altcoinlive,0,0,0,False
51,Emma Love Crypto@emmacrypto,"NO accounts. NO deposits. Your sending address is your “account”. You can track all results using that. #vdice #eth
https://vdice.io",1,1,0,False
52,Ethereum SE@StackEthereum,When is it profitable for a miner to mine non-empty blocks? http://ethereum.stackexchange.com/questions/9543/when-is-it-profitable-for-a-miner-to-mine-non-empty-blocks… #ethereum #mining,1,0,0,False
53,AltcoinLive bot@AltcoinLiveBot,new $ETH buywall 10.2btc @ 0.01838600 http://altcoinlive.com/bittrex-eth-btc #altcoinlive,0,0,0,False
54,AltcoinLive bot@AltcoinLiveBot,removed $ETH buywall 12.3btc @ 0.01825629 http://altcoinlive.com/bittrex-eth-btc #altcoinlive,0,0,0,False
55,AltcoinLive bot@AltcoinLiveBot,new $ETH buywall 12.3btc @ 0.01825629 http://altcoinlive.com/bittrex-eth-btc #altcoinlive,0,0,0,False
56,AltcoinLive bot@AltcoinLiveBot,removed $ETH buywall 12.7btc @ 0.01825447 http://altcoinlive.com/bittrex-eth-btc #altcoinlive,0,0,0,False
57,AltcoinLive bot@AltcoinLiveBot,new $ETH buywall 12.7btc @ 0.01825447 http://altcoinlive.com/bittrex-eth-btc #altcoinlive,0,0,0,False
58,Wang JC@wangjuiching,"Great  now i know how i got my #ETH . Thanks @PoloniexQuote TweetPoloniex Exchange@Poloniex · Oct 23, 2016The DAO ""extraBalance"" refunds have been credited as ETH deposits for customers who paid more than 1 ETH per 100 DAO during the crowdsale.",0,0,0,False
59,CL Taylor@DigitWealthNews,FintekNews-Proprietary Blockchains http://goo.gl/pCJUAK #fintech #fintechinvest #Bitcoin #blockchain #ethereum #technews #tech #VC #PE,2,0,0,False
60,CL Taylor@DigitWealthNews,FintekNews-Election & Bitcoin Rules http://goo.gl/JWWQx8 #fintech #blockchain #Bitcoin #ethereum #technews #Election2016 #election,1,0,0,False
61,Topcrypostats@topcrypostats,"Ethereum Classic - ETC
Price: $1.04957
Change in 1h: +-0.05%
Market cap: $89385007.0
Ranking: 5
#Ethereum Classic #ETC",0,0,0,False
62,Topcrypostats@topcrypostats,"Ethereum - ETH
Price: $11.97
Change in 1h: +-0.25%
Market cap: $1020575109.0
Ranking: 2
#Ethereum #ETH",0,0,0,False
63,Ethereum Price@EthereumPrice_,"#Ethereum: Ether Price Index
1 ETH =0.018312Ƀ XBT = $12.073230 USD
Today: -0.95%⬇︎ Last 24h: -0.48%⬇︎
https://ethereum-price.com",1,0,0,False
64,Olivier Chapiteau@o_chapiteau,"23Oct2016 18:00 UTC #Ether #Blockchain status - Block height @ 2,494,475 - 25,555 unconfirmed tr. - Last fork height @ 2,494,444",0,0,0,False
65,Olivier Chapiteau@o_chapiteau,23Oct2016 18:00 UTC #Ethereum live spots - #Ether @ 12.07867 $ - #EtherClassic @ 1.05452 $,1,0,0,False
69,CL Taylor@DigitWealthNews,FintekNews-TED Talks On Blockchain http://goo.gl/M3pXhL #fintech #fintechinvest #blockchain #Bitcoin #ethereum #technews #tech #VC #PE,1,0,0,False
70,Btc_social@btc_social,Want latest news about #Bitcoin #Faucets?Come here and join latest faucets https://goo.gl/8T7iLO #Altocin #ethereum #blockchain #secure,1,2,0,False
71,bitcoin new's@jagga_dakku004,Want latest news about #Bitcoin #Faucets?Come here and join latest faucets https://goo.gl/8T7iLO #Altocin #ethereum #blockchain #secure.,3,2,0,False
72,bitcoin new's@jagga_dakku004,Want latest news about #Bitcoin #Faucets?Come here and join latest faucets https://goo.gl/8T7iLO #Altocin #ethereum #blockchain #secure,1,0,0,False
73,AltcoinLive bot@AltcoinLiveBot,removed $ETH buywall 12.1btc @ 0.01821019 http://altcoinlive.com/bittrex-eth-btc #altcoinlive,0,0,0,False
74,/r/Ethereum@r_Ethereum,"Dear Banks, How About Contributing to Ethereum & Swarm Development Instead? You'll Save a lot of Dosh. http://bit.ly/2f5XxEp #Ethereum",0,0,0,False
75,/r/Ethereum@r_Ethereum,Acronis backs blockchain with its product http://bit.ly/2eAzNVU #EthereumAcronis backs blockchain with its productPosted in r/ethereum by u/BeerBellyFatAss • 10 points and 0 commentsreddit.com,0,0,0,False
76,/r/Ethereum@r_Ethereum,WooHoo! Chain is Synced. But where have my account names and wallets gone? (Wallet 0.8.6) http://bit.ly/2f5ZNLC #Ethereum,0,0,0,False
77,/r/Ethereum@r_Ethereum,"BigchainDB: Where it Came From, Where We’re At, Where We’re Headed – The BigchainDB Blog http://bit.ly/2f5Vno7 #Ethereum",0,0,0,False
78,AltcoinLive bot@AltcoinLiveBot,new $ETH buywall 12.1btc @ 0.01821019 http://altcoinlive.com/bittrex-eth-btc #altcoinlive,0,0,0,False
79,TrustForums@TrustForums,Want latest news about #Bitcoin #Faucets?Come here and join latest faucets https://goo.gl/8T7iLO #Altocin #ethereum #blockchain #secure.,2,0,0,False
80,AltcoinLive bot@AltcoinLiveBot,removed $ETH buywall 12.2btc @ 0.01820962 http://altcoinlive.com/bittrex-eth-btc #altcoinlive,0,0,0,False
81,TrustForums@TrustForums,Want latest news about #Bitcoin #Faucets?Come here and join latest faucets https://goo.gl/8T7iLO #Altocin #ethereum #blockchain #secure,0,0,0,False
82,AltcoinLive bot@AltcoinLiveBot,new $ETH buywall 12.2btc @ 0.01820962 http://altcoinlive.com/bittrex-eth-btc #altcoinlive,0,0,0,False
83,Ethereum SE@StackEthereum,storage and memory error http://ethereum.stackexchange.com/questions/9538/storage-and-memory-error… #ethereum #solidity #browsersolidity,1,0,0,False
84,David Liam@crazydaveorama,“Why #EXSCUDO’?” by @ex_scudo https://medium.com/@ex_scudo/why-exscudo-75c12521063b… #cryptocurrency #bitcoin #blockchain #Ethereum,1,0,0,False
85,Bitcoin@Extremcrypto,"#vDice is the leading blockchain-based betting game for the #ethereum network #crowdsale start on 15Nov #bitcoin
http://crowdsale.vdice.io",0,0,0,False
86,Cloud Mining Monitor@cmmonitorcom,#Ethereum #Cloudmining': 23.10.2016 Payment received. 5 MHs - 0.12225000 ETH. From MyCoinCloud.MyCoinCloud (Ethereum Mining)cmmonitor.com,1,0,0,False
87,Joerg Resch@joergresch,#Ethereum Classic to Get a Hard Fork of Its Own - NEWSBTC - http://klou.tt/1e4x2jxh14o7j #blockchain,2,2,0,False
88,Topcrypostats@topcrypostats,"Ethereum Classic - ETC
Price: $1.0507
Change in 1h: +-0.1%
Market cap: $89479747.0
Ranking: 5
#Ethereum Classic #ETC",0,0,0,False
89,iZUHM THA iNFiNiTE@DJ_iZUHM,Orgone energy!! #chi #prana #mana #ether #lifeforce https://lnkd.in/bbp_jmE,0,0,0,False
90,Topcrypostats@topcrypostats,"Ethereum - ETH
Price: $11.9541
Change in 1h: +-0.18%
Market cap: $1019204859.0
Ranking: 2
#Ethereum #ETH",0,0,0,False
91,Mahalo Patrimoine@mahalopatrim,"A SOLITAIRE in #CRYPTO
#fintech #altcoins $ERC #IoT #bittrex #SEPA #AMAZON #ETH #monero... https://twitter.com/europecoinEUORG/status/790160483059961856… by #matthiaskleesQuote TweetEUROPECOIN  (.eu.org)@europecoinEUORG · Oct 23, 2016OPEN -> READ our RELEASE shedule & WATCH US 
http://europecoin.eu.org/news/shedule
#crypto #fintech #altcoins #blockchain #IoT #bittrex #SEPA #BANKING",0,0,0,False
93,Jaxx Liberty@jaxx_io,"Sync your Jaxx #wallet on your devices & access your @litecoin , @AugurProject's REP, #Ether, etc. anywhere, anytimeJaxx Liberty: Secure Blockchain Wallet, Exchange and PortfolioThe leading blockchain wallet with built-in Exchange, Portfolio, Crypto News, Market Data and Block Explorer. Jaxx Liberty securely supports dozens of cryptocurrencies including Bitcoin, Ethereum,...jaxx.io",4,1,0,False
94,InvestorIdeas.com@InvestorIdeas,"#Luxury #Stocks News: How #SocialMedia Plays a Key Role in the Future of Retail $RGNP $RDEN $EL $ETH $RACE $KATE
http://investorideas.com/news/2016/luxury-brand/10201SocialMedia.asp…",0,0,0,False
95,Ameer Rosic@AmeerRosic,5 Blockchain Applications That will Revolutionize The world http://bit.ly/1U4aha8 #Blockchain #Bitcoin #ethereum,1,1,0,False
96,CoinGecko@coingecko,The latest Ethereum price is USD 11.91. For historical #Ethereum price charts - http://buff.ly/2eHba8K,1,0,0,False
97,iuri matias@iurimatias,"Embark 2.1.0 to be released tomorrow, lots of improvements in regards to deployment, better gas management, bug fixes. #ethereum",11,6,0,False
98,Bitcoin NewsBoard@bitcoinewsboard,#Ethereum Is Making Waves Through Education and Internet of Thi http://bitcoinnewsboards.com/?p=31893 #altcoins #bitcoin #blockchain #distributedledgers,0,0,0,False
99,Brave New Coin@bravenewcoin,#Ethereum Price: USD $12.17 #ETH http://ow.ly/6UKf3048WBe,1,0,0,False
100,Blockgeeks@Blockgks,Can This 22-year-old Coder Out-Bitcoin #Bitcoin? http://dld.bz/eWMa7 #ethereum,0,0,0,False
101,Topcrypostats@topcrypostats,"Ethereum Classic - ETC
Price: $1.0513
Change in 1h: +0.9%
Market cap: $89529039.0
Ranking: 5
#Ethereum Classic #ETC",0,0,0,False
102,Topcrypostats@topcrypostats,"Ethereum - ETH
Price: $11.9612
Change in 1h: +-0.11%
Market cap: $1019799073.0
Ranking: 2
#Ethereum #ETH",0,0,0,False
103,Ameer Rosic@AmeerRosic,5 Blockchain Applications That Will Transform Society http://bit.ly/1U4aha8 #Blockchain #Bitcoin #ethereum,1,0,0,False
104,⛧ God of Gaming ⛧@TheGodofGamez,I think somehow we learn who we really are and then live with that decision. $ETH,0,0,0,False
105,Crypt0.eth@crypt0snews,"https://youtu.be/t0nWHmVcDAg How Much Bitcoin Does Satoshi Have? #crypto #blockchain #bitcoin #ethereum #cryptocurrency #money #finance #btc #ethEp. #145- How Much BTC Does Satoshi Have? / $5000 BTC Price Target /... 𝙏𝙝𝙖𝙣𝙠 𝙔𝙤𝙪 𝙁𝙤𝙧 𝙒𝙖𝙩𝙘𝙝𝙞𝙣𝙜!  Remember to subscribe and hit the bell """" icon, so you don't miss your daily cryptocurrency news!-~-~~-~~~...youtube.com",0,0,0,False
106,Blockgeeks@Blockgks,Check it out! Beginners guide to #Blockchain http://buff.ly/2dvhaDX #bitcoin #ethereum #startup,2,0,0,False
107,Topcrypostats@topcrypostats,"Ethereum Classic - ETC
Price: $1.04305
Change in 1h: +-0.02%
Market cap: $88825336.0
Ranking: 5
#Ethereum Classic #ETC",0,0,0,False
108,Topcrypostats@topcrypostats,"Ethereum - ETH
Price: $11.966
Change in 1h: +-0.47%
Market cap: $1020192414.0
Ranking: 2
#Ethereum #ETH",0,0,0,False
109,Ethereum Price@EthereumPrice_,"#Ethereum: Ether Price Index
1 ETH =0.018261Ƀ XBT = $12.107695 USD
Today: -1.23%⬇︎ Last 24h: -2.60%⬇︎
https://ethereum-price.com",0,0,0,False
110,memii@Meimmii,#vDice #Crowdsale will start on Nov.15 http://crowdsale.vdice.io  Ethereum Blockchain Based Gambling #ico #ethereum #ether #bitcoin,1,0,0,False
111,Ameer Rosic@AmeerRosic,What are most obvious opportunities for using #Ethereum #blockchain right now? http://buff.ly/2eDMVIw #business #fintech,0,0,0,False
112,Renan Savidan@Renan_ITek,"#ethereum #beginner 
Happy learning with @AssethFR Quote TweetEthCC - Ethereum Community Conference@EthCC · Oct 20, 2016Prochain atelier #ethereum pour les débutants toutes vos questions sur la #blockchain et votre 1er #smartcontract http://meetup.com/blockchains/events/234994577…",1,0,0,False
113,AltcoinLive bot@AltcoinLiveBot,removed $ETH buywall 10.9btc @ 0.01815050 http://altcoinlive.com/bittrex-eth-btc #altcoinlive,0,0,0,False
114,AltcoinLive bot@AltcoinLiveBot,new $ETH buywall 10.9btc @ 0.01815050 http://altcoinlive.com/bittrex-eth-btc #altcoinlive,0,0,0,False
115,CoinFollower@CoinFollowerCom,Synereo Partners Silicon Valley's NFX Guild to Accelerate Decentralised Apps: #ethereum http://coinfollower.com/14380/Synereo%20Partners%20Silicon%20Valley's%20NFX%20Guild%20to%20Accelerate%20Decentralised%20Apps…,1,0,0,False
116,Crypto Price Ticker@TickerCrypto,"#Ethereum #ETH Rank:2 Last:฿0.01834655(-2.301%) High:Buy Instantly! on  Low:฿0.01877864 Vol:฿6,921 Market Cap:฿1,564,166 / $1,015,304,239.10",0,0,0,False
117,Action Comics #1000@actioncomics,[Preview] #Ether #1 http://bit.ly/2eA2mDa #DarkHorseComics #DavidRubin #MajorSpoilers #MattKindt #SneakPeek http://fb.me/542C5acoq,6,4,0,False
118,Action Comics #1000@actioncomics,[Preview] #Ether #1 http://bit.ly/2eA2mDa #DarkHorseComics #DavidRubin #MajorSpoilers #MattKindt #SneakPeek,2,2,0,False
119,BitcoinMan@eugeneym,Join to http://crowdsale.vdice.io #vDice #crowdsale #ico #ethereum #ether #bitcoin is the right choice!,2,0,0,False
120,Bitcoin Free@Bitcoin_Freee,The Future of Internet Gambling is there vDice invest in there ICO. http://crowdsale.vdice.io #vDice #crowdsale #ico #ethereum,1,0,0,False
121,Tedy MD@bitcoinjapanese,Kobe Bryant's Investment Advice To Retired NBA Player... http://vid.staged.com/bxpt #btcjapan #btcchina #ethereum.co.id,2,0,0,False
122,Cryptopatterns@Cryptopatterns,$XRP patterns/news = bullish. But time passing w/little movement. Why? #ripple $BTC #bitcoin $ETH $XMR @KevinGuillem,2,1,0,False
123,Timo Ξberhard@ZhuBajie72,"#Bitcoin will #DOOM(!) So, screw all those #shills and make sure you chose #TRUTH when the curtain finally calls... #Ethereum #NewParadigmGIF",1,0,0,False
124,Cryptopatterns@Cryptopatterns,$BTC up 3% but $XRP others flat/up in $USD. Positive divergence for #altcoins worth watching #bitcoin $ETH $XMR $MAID,5,4,0,False
125,Júnior Diguerreiro@GUERREIRO65,Free Ethereum every 5 minutes http://ln.is/www.etherfaucet.net/1CPFH… #ethereum via @FreeCryptoCo,2,1,0,False
126,Bitcoin NewsBoard@bitcoinewsboard,#Ethereum Price Weekly #Analysis – Risk of Further Losses http://bitcoinnewsboards.com/?p=31959 #altcoins #bitcoin #ethereumnews #ethereumprice,0,0,0,False
127,Christof Claessens@xstof,"Replying to @clemensvagree - hope that proof-of-stake ""proves"" itself in future so we get a good alternative to this madness #ethereum",1,0,0,False
128,Topcrypostats@topcrypostats,"Ethereum Classic - ETC
Price: $1.04454
Change in 1h: +0.63%
Market cap: $88951190.0
Ranking: 5
#Ethereum Classic #ETC",0,0,0,False
129,Topcrypostats@topcrypostats,"Ethereum - ETH
Price: $12.0338
Change in 1h: +-0.26%
Market cap: $1025957299.0
Ranking: 2
#Ethereum #ETH",0,0,0,False
130,Павел@pavel9119,"Status is an #ethereum mobile client! https://status.im/?mwr=1219-aafd83ae&mws=twitter… @ethstatusStatus - Private, Secure CommunicationStatus brings the power of Ethereum into your pocket by combining a messenger, crypto-wallet, and Web3 browser.status.im",0,0,0,False
131,Kimcoin Jaeger@iamgrimmm,Invest now on #crowdsale #ico of #vdice and get a chance to profit on early investment using #bitcoin #ether.Go here:http://crowdsale.vdice.io,0,0,0,False
132,David Siegel@PullNews,"FRESH: Smart Data for Smart Contracts (pls RT): http://ht.ly/jvMF305kfsK #blockchain #ethereum #dataSmart Data for Smart ContractsONCE UPON A TIME, all our data was on paper. Thirty years ago, we started digitizing our data, and now that task is almost complete. The…pullnews.medium.com",1,1,0,False
133,Agatha Ventures@EarlyAdopter23,http://bitcoinfintech.com/topic/11/youtube-bitcoin-related-channels-playlists… … YouTube #Bitcoin related channels & playlists #litecoin #dogecoin #ethereum #faucet #freebitcoins,0,0,0,False
134,Francesco Villa@cekospiu,Donate to our project! Add funds and receive $$$ in exchange from profits lifetime! @gagpubblicita #ethereum #miner https://indiegogo.com/projects/build-ethereum-mining-farm/x/14702367#/…,0,0,0,False
135,Bitcoin Brasil@BitcoinBr10,Top British Banks Stock Up On Bitcoin For Cyber Ransoms http://bitcoinbrasil10.blogspot.com.br/2016/10/principais-bancos-britanicos-estocar.html… #Bitcoin #blockchain #ethereum #Banks #Hackers #news #coin,1,1,0,False
136,Get Free Dogecoin@GetDogecoin,"GET FREE #DOGE
Win dogecoin every 60 minutes
http://goo.gl/hE5Bk6
#doge #dogecoin
#Ethereum
#bitcoin #litecoin #PrimeDay",0,0,0,False
137,hoodie@hoodnymph1,Breh Jairo real live ate a fucking roach someone come get me #ether,6,1,0,False
138,Alex.eth @AlexanderFisher,"Replying to @ElectricCoinCo and @zcashcoReally interested in project, but have to admit it's a bit annoying there no official GPU miner. #Ethereum launched with one.",1,0,0,False
139,Dalindabling@Dalindabling1,Donate to our project! Add funds and receive $$$ in exchange from profits lifetime! @gagpubblicita #ethereum #miner https://indiegogo.com/projects/build-ethereum-mining-farm/x/14702367#/…,0,0,0,False
140,Steph@acebugi4,Senior night was the best time of my life. gonna miss these people the most when i leave #ETH #ThePack,16,0,0,False
141,⛧ God of Gaming ⛧@TheGodofGamez,"The future is completely open, and we are writing it moment to moment. $ETH",0,0,0,False
142,ExploreTraveler@exploretravel1,RT @kaisen2350: Ethereum analytics 1% http://lnkplg.co/raP6a #ethereum #blockchain #analytics,0,0,0,False
143,Topcrypostats@topcrypostats,"Ethereum Classic - ETC
Price: $1.03837
Change in 1h: +0.52%
Market cap: $88423981.0
Ranking: 5
#Ethereum Classic #ETC",0,0,0,False
144,Topcrypostats@topcrypostats,"Ethereum - ETH
Price: $12.0877
Change in 1h: +0.1%
Market cap: $1030535927.0
Ranking: 2
#Ethereum #ETH",0,0,0,False
145,Agatha Ventures@EarlyAdopter23,http://bitcoinfintech.com/topic/11/youtube-bitcoin-related-channels-playlists… YouTube #Bitcoin related channels & playlists #litecoin #dogecoin #ethereum #faucet #freebitcoins,1,1,0,False
146,Felix Peña@kaisen2350,Ethereum analytics 1% https://ethstats.net #ethereum #blockchain #analytics,1,2,0,False
147,Rich Godwin@rich__godwin,"Id be willing to bet that $ETH is dead before $XMR for this exact reason. #EthereumQuote TweetRiccardo Spagni@fluffypony · Oct 23, 2016""I have zero bullish outlook on XMR as the dev priority is security not usability."" - palpable irony from EthTrader
https://reddit.com/r/ethtrader/comments/58s1pv/daily_discussion_22oct2016/d935q4z/…",2,1,3,False
153,MarketBeat@MarketBeatCom,Gabelli Weighs in on Ethan Allen Interiors Inc.’s FY2017 Earnings $ETH http://zpr.io/P6JSF,0,0,0,False
154,StockEarnings.com@StocksEarning,"$ETH Since last ER, stock dropped 14%. Reporting Earnings on 10/25 After Close (Confirmed). http://ow.ly/GP6t305r7AW",0,0,0,False
155,prashantbhoj@prashantbhoj97,"Gamble with bitcoin or ethereum
https://vdice.io
#vDice #crowdsale #ico #ethereum",0,0,0,False
156,indxio@indxio,#Russia Market Close || #Bitcoin: $648.88 | 596.01 EUR||  #Litecoin: 0.003 BTC  || #Ethereum: 0.0184 BTC   || $BTC $LTC $ETH $RUB,0,0,0,False
157,Bitcoin Brasil@BitcoinBr10,Synereo Partners Silicon Valley’s NFX Guild to Accelerate Decentralised Apps http://bitcoinbrasil10.blogspot.com.br/2016/10/nfx-guild-synereo-parceiros-do-vale-do.html… #Bitcoin #blockchain #ethereum #Synereo,3,0,0,False
158,Brave New Coin@bravenewcoin,#Ethereum Price: USD $12.25 #ETH http://ow.ly/6UKf3048WBe,1,0,0,False
159,Blockgeeks@Blockgks,How does #blockchain work? The ultimate guide  http://buff.ly/2dvhaDX #bitcoin #ethereum #startup,0,0,0,False
160,Topcrypostats@topcrypostats,"Ethereum Classic - ETC
Price: $1.03317
Change in 1h: +0.13%
Market cap: $87979809.0
Ranking: 5
#Ethereum Classic #ETC",0,0,0,False
161,Topcrypostats@topcrypostats,"Ethereum - ETH
Price: $12.0538
Change in 1h: +0.13%
Market cap: $1027629087.0
Ranking: 2
#Ethereum #ETH",0,0,0,False
162,Olivier Chapiteau@o_chapiteau,"23Oct2016 12:00 UTC #Ether #Blockchain status - Block height @ 2,492,950 - 25,939 unconfirmed tr. - Last fork height @ 2,492,912",1,1,0,False
163,Olivier Chapiteau@o_chapiteau,23Oct2016 12:00 UTC #Ethereum live spots - #Ether @ 12.10806 $ - #EtherClassic @ 1.04097 $,0,0,0,False
164,Ethereum Price@EthereumPrice_,"#Ethereum: Ether Price Index
1 ETH =0.018414Ƀ XBT = $12.137650 USD
Today: -0.40%⬇︎ Last 24h: -2.90%⬇︎
https://ethereum-price.com",2,0,0,False
165,notsofast@notsofast,"Replying to @BTC_kahir and @loomdartif he weasels his way into beers with the #zcash team like he did with the #Ethereum team, look out",2,0,0,False
166,Ethereum SE@StackEthereum,storage and memory error http://ethereum.stackexchange.com/questions/9538/storage-and-memory-error… #ethereum #solidity #browsersolidity,2,0,0,False
167,Bitcoin News@BTCNewsletter,"#payment Central Banks Consider Bitcoin’s Technology, if Not Bitcoin http://btc.icymi.email/could-blockchain-technology-shake-gartner-hypecycle-and-make-it-to-enlightenment-and-productivity-without-sufferi/… #ethereum #efficiency",1,2,0,False
168,Dmitry ButΞrin@BlockGeekDima,What are some unconventional uses of #blockchains http://buff.ly/2e214Ck #ethereum #bitcoin #cryptocurrency #startup,0,0,0,False
174,Blockgeeks@Blockgks,Great people deserve a great audience. http://blockgeeks.com #Blockchain #Ethereum #Bitcoin,1,1,0,False
175,Topcrypostats@topcrypostats,"Ethereum Classic - ETC
Price: $1.03158
Change in 1h: +0.03%
Market cap: $87843111.0
Ranking: 5
#Ethereum Classic #ETC",0,0,0,False
176,Topcrypostats@topcrypostats,"Ethereum - ETH
Price: $12.0444
Change in 1h: +0.02%
Market cap: $1026807337.0
Ranking: 2
#Ethereum #ETH",0,0,0,False
177,Ethereum SE@StackEthereum,How to return dynamic sized array's original address on the memory of Solidity? http://ethereum.stackexchange.com/questions/9537/how-to-return-dynamic-sized-arrays-original-address-on-the-memory-of-solidity… #ethereum #goethereum #solidity,2,0,0,False
178,Bitcoin Updater@BitcoinUpdater,Ethereum Price Technical Analysis: $13 Level Becomes a Hurdle #ethereum http://soco.space/v.tlKU,1,1,0,False
179,Bitcoin Chaser@BitcoinChaser,Great article- An uneventful #Ethereum hard fork takes place. How will it affect the market for @EthereumClassic ? http://ethereumauthority.com/ethereum-hard-fork-not-talked-about…,2,0,0,False
180,AltcoinLive bot@AltcoinLiveBot,updated $ETH buywall 12.8btc @ 0.01820727 http://altcoinlive.com/bittrex-eth-btc #altcoinlive (change 0.00000049),0,0,0,False
181,DonCorleone@BTCOIN_SCARFACE,"Join now on the latest Ethereum's Leading, Live
Blockchain Gambling Game.@ http://crowdsale.vdice.io
#vDice #crowdsale #ico #ethereum #bitcoin",2,0,0,False
182,Blockgeeks@Blockgks,Q&A: STEPHAN TUAL: Founder & COO Slock.it & The DAO http://dld.bz/faeQR #THEDAO #ethereum #blockchain,3,0,0,False
183,Topcrypostats@topcrypostats,"Ethereum Classic - ETC
Price: $1.0309
Change in 1h: +-0.11%
Market cap: $87783901.0
Ranking: 5
#Ethereum Classic #ETC",0,0,0,False
184,Bobe'bot@Bobe_bot,"1 #BTC = 665.6113 #CHF
1 #ETH = 12.505 #CHF
1 #DOGE = 0.000221208875 #CHF
sources: @cryptonatorcom @hellobity",0,0,0,False
185,Topcrypostats@topcrypostats,"Ethereum - ETH
Price: $12.0127
Change in 1h: +-0.01%
Market cap: $1024089887.0
Ranking: 2
#Ethereum #ETH",0,0,0,False
194,InterCooler@intercooleronli,"Ethan Allen Interiors Inc. $ETH to Post FY2017 Earnings of $2.15 Per Share, Dougherty & Co Forecasts http://zpr.io/P6Jpr",0,0,0,False
195,AltcoinLive bot@AltcoinLiveBot,updated $ETH buywall 12.3btc @ 0.01821425 http://altcoinlive.com/bittrex-eth-btc #altcoinlive (change 0.00000056),0,0,0,False
196,MedosAdvert@medosadvert,Hi @tfordhomie21 get  biggest #business of 2016 http://medosadvert.com/go/coinomia/ #Mining #BitCoins #Ethereum via https://Statusbrew.com/?r=wl,0,0,0,False
197,AltcoinLive bot@AltcoinLiveBot,updated $ETH buywall 11.1btc @ 0.01820768 http://altcoinlive.com/bittrex-eth-btc #altcoinlive (change 0.00000059),0,0,0,False
198,AltcoinLive bot@AltcoinLiveBot,new $ETH buywall 10.1btc @ 0.01820709 http://altcoinlive.com/bittrex-eth-btc #altcoinlive,0,0,0,False
199,AltcoinLive bot@AltcoinLiveBot,removed $ETH buywall 12.2btc @ 0.01820364 http://altcoinlive.com/bittrex-eth-btc #altcoinlive,0,0,0,False
200,AltcoinLive bot@AltcoinLiveBot,updated $ETH buywall 12.2btc @ 0.01820364 http://altcoinlive.com/bittrex-eth-btc #altcoinlive (change 0.00000025),0,0,0,False
201,AltcoinLive bot@AltcoinLiveBot,new $ETH buywall 12.0btc @ 0.01820339 http://altcoinlive.com/bittrex-eth-btc #altcoinlive,0,0,0,False
202,Ethereum SE@StackEthereum,How does a hard fork rollback transactions? http://ethereum.stackexchange.com/questions/9535/how-does-a-hard-fork-rollback-transactions… #ethereum #hardfork,0,0,0,False
203,Jeffrey Kooy@jtkooy,"#Ethereum Price Stable Despite Attacks, Potential Fork! $ETH #blockchain
http://buff.ly/2eyFsfb",1,0,0,False
204,Topcrypostats@topcrypostats,"Ethereum Classic - ETC
Price: $1.03177
Change in 1h: +-0.37%
Market cap: $87856660.0
Ranking: 5
#Ethereum Classic #ETC",0,0,0,False
205,Topcrypostats@topcrypostats,"Ethereum - ETH
Price: $12.0233
Change in 1h: +-0.14%
Market cap: $1024976765.0
Ranking: 2
#Ethereum #ETH",0,0,0,False
206,Ethereum Price@EthereumPrice_,"#Ethereum: Ether Price Index
1 ETH =0.018325Ƀ XBT = $12.081200 USD
Today: -0.88%⬇︎ Last 24h: -3.45%⬇︎
https://ethereum-price.com",1,0,0,False
207,Crypto Price Ticker@TickerCrypto,"#Ethereum #ETH Rank:2 Last:฿0.01830138(-3.530%) High:Buy Instantly! on  Low:฿0.01900749 Vol:฿7,110 Market Cap:฿1,560,170 / $1,019,118,819.25",0,0,0,False
218,ExploreTraveler@exploretravel1,"RT @NewsJunkieJon: Mine Ethereum In The Cloud, No Hardware Needed! 3% Off With Coupon Code: 8rRBkl

http://lnkplg.co/nxOGv
#ethereum http…",0,0,0,False
219,Ethereum SE@StackEthereum,My Ethereum balance not showing up in Mist 0.8.6 or Ethereum wallet 0.8.6 http://ethereum.stackexchange.com/questions/9534/my-ethereum-balance-not-showing-up-in-mist-0-8-6-or-ethereum-wallet-0-8-6… #ethereum #wallets #backup,0,0,0,False
220,/r/Ethereum@r_Ethereum,Saving images to the blockchain -- its possible http://bit.ly/2eGxtN6 #EthereumSaving images to the blockchain -- its possiblereddit.com,0,0,0,False
221,/r/Ethereum@r_Ethereum,Feedback from attendees of Vitalik's talk today in S.F.? http://bit.ly/2eGACMN #Ethereum,1,0,0,False
222,/r/Ethereum@r_Ethereum,Are we forking again or relying on software updates? http://bit.ly/2ejfbDt #Ethereum,1,0,0,False
223,/r/Ethereum@r_Ethereum,Ethereum Current Snapshot http://bit.ly/2ejfduL #Ethereum,0,0,0,False
224,/r/Ethereum@r_Ethereum,"4 New Devcon2 Vids! Z-Cash on Ethereum, Ethereum Ruby, Legalese, & Ethereum for Resource-Limited Devices http://bit.ly/2eGA9Kv #Ethereum",2,0,0,False
225,⛧ God of Gaming ⛧@TheGodofGamez,Life is like a sewer. What you get out of it depends on what you put into it. $ETH,0,0,0,False
226,Brave New Coin@bravenewcoin,#Ethereum Price: USD $12.22 #ETH http://ow.ly/6UKf3048WBe,0,0,0,False
227,Blockgeeks@Blockgks,"Check it out! Full Q &A with Richard Olsen, CEO at #lykke http://buff.ly/2cQ2dIQ #blockchain #ethereum",0,0,0,False
228,Topcrypostats@topcrypostats,"Ethereum Classic - ETC
Price: $1.03572
Change in 1h: +-0.08%
Market cap: $88191620.0
Ranking: 5
#Ethereum Classic #ETC",0,0,0,False
231,Topcrypostats@topcrypostats,"Ethereum - ETH
Price: $12.0674
Change in 1h: +0.53%
Market cap: $1028720305.0
Ranking: 2
#Ethereum #ETH",0,0,0,False
232,"Eyal Ron (""Neiman"")@neiman30","Replying to @Suns0fKayoteespolo cancelled an old strange policy, saying they ""hold"" $ETH deposits till the amount reaches 1 eth.",1,1,0,False
233,Suns@Suns0fKayotees,"0.46 $ETH just showed up in my Poloniex account, no idea why",2,2,0,False
234,Dmitry ButΞrin@BlockGeekDima,Where to begin to build a #blockchain wallet http://buff.ly/2e21Q1Q #bitcoin #ethereum #business #startup,4,2,0,False
235,FadlyDchandres@dc_fadly,Thanks to @smithandcrown for adding us to their #ICO listing! http://ln.is/neyug #ethereum... by #BtcMassive via @c0nvey,3,2,0,False
236,indxio@indxio,#China Market Close || #Bitcoin: $654.06 | 599.91 EUR||  #Litecoin: 0.003 BTC  || #Ethereum: 0.0183 BTC   || $BTC $LTC $ETH $RMB,1,0,0,False
237,AltcoinLive bot@AltcoinLiveBot,removed $ETH buywall 10.0btc @ 0.01820420 http://altcoinlive.com/bittrex-eth-btc #altcoinlive,0,0,0,False
238,AltcoinLive bot@AltcoinLiveBot,new $ETH buywall 10.0btc @ 0.01820420 http://altcoinlive.com/bittrex-eth-btc #altcoinlive,0,0,0,False
239,Blockgeeks@Blockgks,"Who is working on a blockchain powered sustainable energy solutions?
http://dld.bz/eVxaY #ethereum #blockchain",3,0,0,False
240,Topcrypostats@topcrypostats,"Ethereum Classic - ETC
Price: $1.03591
Change in 1h: +-0.35%
Market cap: $88206860.0
Ranking: 5
#Ethereum Classic #ETC",0,0,0,False
241,Topcrypostats@topcrypostats,"Ethereum - ETH
Price: $11.9805
Change in 1h: +-0.87%
Market cap: $1021302023.0
Ranking: 2
#Ethereum #ETH",0,0,0,False
242,"Socal Crypto, Bane of Bears@Socal_crypto","BTW can I claim ""I told you so"" on #ethereum yet? Or should I wait a few more months of this death spiral?",0,0,0,False
243,Warren of Wall St@WarrenofWallSt,Who noticed the recent insider buying  at #EthanAllenInteriors? $ETH https://simplywall.st/NYSE:ETH/ethan-allen-interiors/?utm_medium=twitter&anchor=insider-trading#insider-trading…,0,0,0,False
244,"Socal Crypto, Bane of Bears@Socal_crypto",I might regret it but I'm gonna sit out #Zcash all this #Zcash hype is reminiscent of #ethereum Hype and we all see how well that worked out,0,0,0,False
245,Crypto Games@Crypto_Games,"Congratulations to player Cuma757  who made a profit of 734 Ether (~$8,880) on Dice game! #ethereum @Crypto_Games",3,1,0,False
246,Cryptodict@cryptodict,invest in #crowdsale at https://crowdsale.vdice.io is an Ethereum Smart Contract DAPP. Gambling https://vdice.io #ethereum #vDice #ico,0,0,0,False
247,Jesus Guerrero@jeguemac,Free #bitcoin #ethereum http://bit.ly/2cyx0uh Bitcoin Price Weekly Analysis – BTC/USD Buy Targets Achieved Vía freebitcoins4u2,0,0,0,False
248,Blockgeeks@Blockgks,Step-by-Step Guide: What the heck is a Smart Contract? #blockchain #bitcoin #ethereum http://dld.bz/eYNat,0,0,0,False
249,Topcrypostats@topcrypostats,"Ethereum Classic - ETC
Price: $1.03873
Change in 1h: +0.07%
Market cap: $88445600.0
Ranking: 5
#Ethereum Classic #ETC",0,0,0,False
250,Topcrypostats@topcrypostats,"Ethereum - ETH
Price: $12.0436
Change in 1h: +-0.18%
Market cap: $1026665290.0
Ranking: 2
#Ethereum #ETH",0,0,0,False
251,Ethereum Price@EthereumPrice_,"#Ethereum: Ether Price Index
1 ETH =0.018437Ƀ XBT = $12.147555 USD
Today: -0.27%⬇︎ Last 24h: -3.20%⬇︎
https://ethereum-price.com",2,0,0,False
252,Olivier Chapiteau@o_chapiteau,"23Oct2016 06:00 UTC #Ether #Blockchain status - Block height @ 2,491,444 - 25,799 unconfirmed tr. - Last fork height @ 2,491,439",3,0,0,False
257,Olivier Chapiteau@o_chapiteau,23Oct2016 06:00 UTC #Ethereum live spots - #Ether @ 12.13949 $ - #EtherClassic @ 1.04234 $,2,0,0,False
258,xxxxxxxo@XxxxxxxoWxqkhy,#Anton Borin #Ether playlist/new entries on CHILL-ONE radio:  http://chillone.com,0,0,0,False
259,MidEast Times@midetimes,Ethan Allen Interiors Inc. $ETH Scheduled to Post Quarterly Earnings on Tuesday http://mideasttime.com/?p=1345697,0,0,0,False
260,ShoutMeTech@ShoutMeTech,How To Convert #Bitcoin Into #Ethereum (or any other #Cryptocurrency) http://fb.me/2EOL91FqK,0,0,0,False
261,Ethereum SE@StackEthereum,"Getting event history takes a really long time or doesn't work at all http://ethereum.stackexchange.com/questions/9532/getting-event-history-takes-a-really-long-time-or-doesnt-work-at-all… #ethereum #dappdevelopment #contractdebuggingGetting event history takes a really long time or doesn't work at allI'm having trouble getting a history of events. I'm unsure if I am misunderstanding how events work, if I'm coding wrong, or if it has anything to do with the recent Ethereum attacks slowing down theethereum.stackexchange.com",1,0,0,False
262,Christian Seberino@c_seberino,"Future cities will run on blockchains like Ethereum, says Volvo's futurologist Aric Dromi http://buff.ly/2enYB5z #etc #eth #ethereumclassicAric Dromi - Smart Cities of The FutureSmart cities of the future: Aric Dromi, the futurologist at Volvo, talks about how VR, AI, and Blockchain will transform our cities in the coming decadefuturethinkers.org",4,3,0,False
263,Menno Pietersen @MennoPP,"Replying to @BTCKYLEstill holding (and keeping) my $waves super excited, have a lot feels like the $eth start.",2,1,0,False
264,Blockgeeks@Blockgks,It's coming! The #Blockchain Technology That Will Replace Lawyers http://dld.bz/eYNat #ethereum,5,11,0,False
265,Topcrypostats@topcrypostats,"Ethereum Classic - ETC
Price: $1.03729
Change in 1h: +-0.13%
Market cap: $88321163.0
Ranking: 5
#Ethereum Classic #ETC",0,0,0,False
266,Topcrypostats@topcrypostats,"Ethereum - ETH
Price: $12.0527
Change in 1h: +-0.35%
Market cap: $1027419354.0
Ranking: 2
#Ethereum #ETH",0,0,0,False
267,Ξ Fly Guy Ξ (flyguy.eth) @FlyGuyInTheSky,I bet they haven't got a clue or care what #ethereum is.... https://twitter.com/couplesrate2/status/780735335160479744…This Tweet is unavailable.,1,1,1,False
268,Blockgeeks@Blockgks,Smart Contracts: The #Blockchain Technology That Will Replace Lawyers http://dld.bz/eYNat #ethereum,1,0,0,False
269,mtssukamaju@mtssukamaju,"Ceal IO ,, Ready for Launch follow @CealNETofficial , visit http://ceal.io
forum : https://bitcointalk.org/index.php?topic=1644145.0…
#btc #eth #lisk #iconomi",1,0,0,False
270,Topcrypostats@topcrypostats,"Ethereum Classic - ETC
Price: $1.03838
Change in 1h: +0.47%
Market cap: $88412705.0
Ranking: 5
#Ethereum Classic #ETC",0,0,0,False
271,Bobe'bot@Bobe_bot,"1 #BTC = 669.4939 #CHF
1 #ETH = 12.5942 #CHF
1 #DOGE = 0.000215168525 #CHF
sources: @cryptonatorcom @hellobity",0,0,0,False
272,Topcrypostats@topcrypostats,"Ethereum - ETH
Price: $12.0508
Change in 1h: +-0.08%
Market cap: $1027242332.0
Ranking: 2
#Ethereum #ETH",0,0,0,False
