,user,text,likes,retweets,replies,is_thread
0,Nina's Auntie Verena@Woof4Nina,I am Rags.. I am #Missing .. I am #Lost in the #Ether #FindRags,1,6,0,False
1,Inspire and Disrupt@A__Albrecht,"How #oracle s helps #smartcontract based on #ethereum.   #blockchain
http://blockchainers.org/index.php/2016/06/12/gambling-with-oracles/…",0,0,0,False
2,Mitsu@Mitsu_0818,“No #DAO funds at risk following the #Ethereum smart contract ‘recursive call’ bug discovery” by @stephantual https://blog.slock.it/no-dao-funds-at-risk-following-the-ethereum-smart-contract-recursive-call-bug-discovery-29f482d348b#.revicy3d9…,0,0,0,False
3,Bitcoin Is The KING @EthereumPredict,07:31 am in china. It will ZigZag up and down but.. you should sell #bitcoin to buy alts like #ethereum or #lisk to make maximum profit IMO,2,1,0,False
4,Palomagg@pgGiraudo,"""Ethereum DEV Update: C++ Roadmap"" https://blog.ethereum.org/2016/02/12/ethereum-dev-update-c-roadmap/… #ethereum #fintech",1,0,0,False
5,fintechfolk@fintechfolk,Thanks  for registering for FinTechFolk - http://zpr.io/Mnfj #fintech #ethereum #bitcoin #blockchain,3,1,0,False
6,Bitcoin Is The KING @EthereumPredict,#bitcoin is about to break out down ! #ethereum will be boosted soon :) Hold on :p,3,0,0,False
7,TheKnow@readTheKnow,#Ether outperforming #bitcoin. Who's #investing? http://bit.ly/1sAUxlT,3,0,0,False
8,ERC20 ETHBULL@Ethbulls,"For those new to #Ethereumproject , here is a simple #guide on #blockchain #technology , everything about #ethereum & #bitcoin",0,0,0,False
11,BLOCKCHAINS@BLOCKCHAlNS,"get your #crypto #news at http://CRYPTOCURRENCY.CO
#ethereum #lisk #thedao #dao #bitcoin #litecoin #cryptocurrency #dogecoin #SiliconValley",4,3,0,False
12,Lisa@LisaLisaw1,Hate seeing the owners of the #missing #Ether babies never getting closure. Let try to change it for #FindRags,2,10,0,False
13,David Liam@crazydaveorama,#Peerplays - First Startup To Get Support from $150 Million #DAO Fund? http://coint.co/3b11 #Ethereum #startups,1,0,0,False
14,Labo Blockchain@LaboBlockchain,PITCH TIME !! #blockfest @BlockchainFra @42born2code #bitcoin #ethereum #blockchain #hackathon #startup,8,3,0,False
15,Pasta Fritti@PastaFritti,in the cryptoworld $ETH is silver and $BTC is gold ;) #bitcoin #ethereum #silver #gold,1,0,0,False
16,Le BlockFest@LeBlockFest,"Asseth, POC de gestion Assos avec #ethereum #DAO1901 #LeBlockFest protocole user-friendly",5,0,0,False
17,iuri matias@iurimatias,#Ethereum again reaches an ATH $15.31!,1,0,0,False
18,/r/Augur@AugurFeed,"#reddit Does this Maker Bug affect Augur? From the MAKER DAO slack: ""Today we discovered a v... http://bit.ly/1ZIMjmr #ethereum #augur",2,0,0,False
19,Essen Germany@EssenGermany,"get your #crypto #news at http://CRYPTOCURRENCY.CO 

#ethereum #lisk #thedao #dao #bitcoin #litecoin #cryptocurrency #dogecoin #SiliconValley",4,3,0,False
20,BTCVLC@BitcoinVLC,"#Bitcoin $648,24 #Ethereum $14,33
#BitcoinPrice #coinbase #BTCVLC
WhatsApp 0426-2408251",1,0,0,False
21,Santosh Kumar@msantoshkumar,#Stampery Launches New #API and Certification Service on #Ethereum #Blockchain. #Fintech http://ln.is/the-blockchain.com/8rHuj…,2,0,0,False
22,Vasco Sommer-Nunes@Vasco,"#ethereum just broke 15USD, new all time high #finance #forex #bitcoin",4,3,0,False
23,Aman Merchant@AmanMerchant,"#Blockchain to Track #Solar Power Production, #Ethereum to Utilise The Data http://cointelegraph.com/news/blockchain-to-track-solar-power-production-ethereum-to-utilise-the-data…",1,1,0,False
24,BTCVLC@BitcoinVLC,"#Bitcoin $652,86 #Ethereum $15,17
#BitcoinPrice #coinbase #BTCVLC
WhatsApp 0426-2408251",2,1,0,False
25,Michael Smolenski@mikesmolenski,"""The Problem with Oracles"" #ethereum #smartcontracts http://r3cev.com/blog/2016/2/16/the-problem-with-the-problem-with-oracles…",1,1,0,False
26,Christopher Carruthers@TaoOfSatoshi,"The Overlooked Importance Of UI/UX Designers via r/#Ethereum:
http://reddit.com/r/ethereum/comments/4nqzxj/the_often_overlooked_importance_of_uiux_designers/…
A good reminder for Dash.
#DASH #DigitalCash #BitcoinThe often overlooked importance of UI/UX designersI can't believe how overlooked the importance of UI/UX design has been in the still young evolution of cryptocurrency. There are so many brilliant...reddit.com",4,4,0,False
27,Adalidda@Adalidda,#BlockCypher Releases #Ethereum #WebServices to Build App Across Multiple #Blockchains https://adalidda.net/posts/YRXxNALkEDnqirLzQ/blockcypher-releases-ethereum-web-services-to-build…,1,0,0,False
28,Jouko Salonen@JoukoSalonen,The experiment that may change the world - #Ethereum #DAO #daovote http://etherscan.io/token/TheDAO?a=0x1b4fb4d0bcb3e80d9314b866aaf15c84eb0f1234#votes…,2,0,0,False
29,⛧ God of Gaming ⛧@TheGodofGamez,"Love all, trust a few, do wrong to none. #gamedev #gamers #indiedev #eth",2,3,0,False
30,COIN MINERS@coinminerss,Share some love on CoinMiners Ξthereum pool 0% fee https://eth.coin-miners.info #dogecoin #doge #ltc #BTC #altcoins #cryptocurrency #ethereum,0,0,0,False
31,Zeth Couceiro@Zeth_Plexus,Vitalik Buterin Sets Milestones On Ethereum’s Route to Be The ‘World Computer’ - #ethereum #blockchain #Ether https://cointelegraph.com/news/vitalik-buterin-sets-milestones-on-ethereums-route-to-be-the-world-computer…,2,0,0,False
32,tgerring.eth@TaylorGerring,Learn more about #Ethereum: The World Computer in Toronto June 20-21. TAYLORTRAINING for $100 off,2,0,0,False
33,Benny Mortensen@Benny_Mortensen,Free Ethereum every 5 minutes http://eth-faucet.com/?r=0x6ff09124Bb30dD16aF368B6B06332349C2Db1Efe… #ethereum via @FreeCryptoCo,1,0,0,False
34,robika@robyka171,Free Ethereum every 5 minutes http://etherfaucet.net/?r=0x6975d90a35ef0b218654a2aebe4b81eb3f4512f5… #ethereum via @FreeCryptoCo,0,0,0,False
35,Plutus@plutus,Updates on how the Pluton crowdsale will work and the start date will be announced very soon. #Bitcoin #Ethereum,12,8,0,False
36,Nick Ayton@NickAyton,"Should you invest in #blockchain or wait for the hype to calm down #disruption #bitcoin #ethereum #bankingBlockchain: tell me again which business problem is it solving…?The hype and excitement surrounding Blockchain and now Ethereum is in full swing with lots of forums, conferences and high profile investments in all kinds of projects, tech plays and platforms…and...linkedin.com",8,6,1,False
37,vDice@vDice_io,"Can’t believe only been 48hrs since launch...

Thanks for all the praise everyone...

#ethereum #blockchain",2,0,0,False
38,Cloud Mining Monitor@cmmonitorcom,#Ethereum #Cloudmining': 12.06.2016 Payment received. 6 MHs - 0.05174123 ETH. From Genesis Mining.Genesis Mining (Ethereum Mining)cmmonitor.com,0,0,0,False
39,Finance Magnates@financemagnates,Most read article in June (so far) was published on its first day http://buff.ly/1Yih7LV #Ethereum @UpholdInc,3,5,0,False
40,Andreas Staub@andi_staub,"Good Read!
Your life is destined for the #blockchain
#fintech #bitcoin #ethereum #payments
http://bit.ly/1tkkmr8",8,4,0,False
41,Plutus@plutus,Preview of our first #Ether to NFC payment and field test (at Apple store) with the #Putusit app. More on this soon! http://ow.ly/Xycn301b2SI,6,4,0,False
42,CoinGecko@coingecko,The latest Ethereum price is USD 15.22. For historical #Ethereum price charts - http://buff.ly/1Y3h6Jz,2,0,0,False
43,BnkToTheFuture@BankToTheFuture,80% subscribed now with #Bitcoin bonus changing at 12 Midnight GMT today. http://bit.ly/1LJjCOv #FinTech #Ethereum,3,2,0,False
44,Glyn MacLean 麦格荣@glynmaclean,The #Bitcoin price rise speaks for itself but #Ethereum and #dao deserve our strong attention,1,1,0,False
45,/r/Augur@AugurFeed,#reddit Will Augur run as native software or from browser? http://bit.ly/1XPi2oN #ethereum #augur,1,1,0,False
46,Helping2Reunite@Lisa198335,Hate seeing the owners of the #missing #Ether babies never getting closure. Let try to change it for #FindRags,1,3,0,False
47, Michael Q Todd CHO of BirdieChances.Golf@michaelqtodd,Looking forward to learning about Ethereum at @EthereumSV #SiliconValley #Ethereum tonight,8,4,0,False
48,Vindyne8@Vindyne8,#1337coin http://bit.ly/1Pevf1A #stake to buy @Steam games check it out! #btc #eth #RT,12,13,0,False
49,slock.it@slockitproject,How to Create Gorgeous Proposals - by @thegrifft  - https://blog.slock.it/how-to-create-gorgeous-proposals-81eb3f606226#.etvz3fkia… #blockchain #thedao #ethereum,23,12,0,False
50,Andreas Staub@andi_staub,"New Paper: Economics of #Blockchain
#fintech #Ethereum #governance #PublicChoice
http://bit.ly/1t6mItw",10,5,0,False
51,Strong.Svet@EthereumWiki,#ethereum just hits its ATH going past $15. Is it because of the recent surge in #bitcoin price? Or did it do it entirely on its own?,2,1,0,False
52,Brave New Coin@bravenewcoin,Stay in the #blockchain #bitcoin #ethereum loop. Get #subscriber event discounts. http://eepurl.com/b4W4Lv,2,3,0,False
53,Bitcoin@bitcoinpoet,The often overlooked importance of UI/UX designers: I can't believe how overlooked the importance o... http://bit.ly/1PUACc6 #ethereum,1,3,0,False
54,BITCOIN BRASIL@dsfnisijfasfis1," HashOcean: https://goo.gl/o5mNJt  Earn 15 KH / s to start your mining. #Bitcoin #blockchain #Ethereum #btc #eth6Quote TweetBitcoin Brasil@BitcoinBr10 · Jun 3, 2016 HashOcean: https://goo.gl/o5mNJt Earn 15 KH / s to start your mining. #Bitcoin #blockchain #Ethereum #btc #eth",2,0,0,False
55,Simon Dixon (Beware Impersonators)@SimonDixonTwitt,Both bull runs good news for @BankToTheFuture investors #EThereum #Bitcoin #Ether http://bit.ly/1LJjCOv #FinTech,6,6,1,False
56,BTCMANAGER@btc_manager,ICYMI: #iOS #Crypto Apps: An Emerging World of Options & Opportunities https://btcmanager.com/news/business/ios-crypto-apps-an-emerging-world-of-options-and-opportunities/… #bitcoin #ethereum,12,16,0,False
57,Chris Burniske@cburniske,There already exist public key schemes that are quantum resistant. #Bitcoin #Ethereum & the Internet will be safe 50 yrs from now (i think),2,1,0,False
58,fav@btsfav,Fox this Shift! ► http://favd.xyz/1UJoauh featuring @jaxx_io & @ShapeShift_io #Ethereum,2,4,0,False
59,Young Yang@FreeNuts,"$BTC / $LTC are too bullish, $ETH, $DAO / $MAID are too bearish, but things will develop in the opposite direction when they become extreme.",1,2,2,False
60,The Bitcoin Podcast Network@thebtcpodcast,The #Bitcoin Podcast #65 #Ethereum academics @bierlingm & Philip S. Got Ξther? @exosphereHQ! http://thebitcoinpodcast.com/episode-65/,8,4,0,False
61,Nopie BlackjinCrypto@Blackjincrypto,"#bitcoin how the next highest price?

$BTCCNY $BTC $BTCUSD #bitcoin #blockchain #cryptocurrency #altcoin #btc $ETH650100%6000%5 votes·Final results",2,1,0,False
62,kenny@KennyA25236894,Free Ethereum every 5 minutes http://eth-faucet.com/?r=0x1a22eefdaf9f2dd9d729c0251a7249d8fa947f3f… #ethereum 來自 @FreeCryptoCo,1,0,0,False
63,CoinFund@coinfund_io,Collective #BTC and #ETH market cap breaking $11.4B.,0,0,0,False
64,Actual Advice Bitcoin@ActualAdviceBTC,"hahahaha money #ETH Quote TweetActual Advice Bitcoin@ActualAdviceBTC · Jun 12, 2016started buying ethereum",3,0,0,False
65,Kevin Pham@_Kevin_Pham,Anyone have theories about price correlation between $BTC and $ETH? Seems like #bitcoin hodlers cashing out into #ether to me.,3,0,0,False
66,Ansel Lindner@AnselLindner,"When the value of #bitcoin goes up quickly, it drags btc denominated assets with it. 
$ETH $LTC",2,1,1,False
67,BTCMANAGER@btc_manager,ICYMI: @Airbitz 's Edge Security Ventures into #Ethereum Space with @AugurProject https://btcmanager.com/news/business/airbitzs-edge-security-ventures-into-ethereum-space-with-augur/… #fintech,4,1,0,False
68,CoinFund@coinfund_io,#ETH hitting all time highs in USD right now. Trading above $15.15 on @Poloniex.,2,1,0,False
69,Rafal Kokoszka@rafalkoko,"Is Bitcoin's Price Performance Drawing Mainstream #Traders? http://bit.ly/1tosGpN
#Bitcoin #blockchain #currency #ether",1,1,0,False
70,TenaciousC@T3naciousC,$BTC pumping like there is no tomorrow.... Meanwhile at $ETH camp,1,1,0,False
71,BTCMANAGER@btc_manager,ICYMI: BTC-ETH-DAO: @Jaxx_io “Shifts” Into High Gear w/ @ShapeShift_io https://btcmanager.com/news/business/btc-eth-dao-jaxx-shifts-into-high-gear-with-shapeshift/… #bitcoin #ethereum,1,4,0,False
75,आँ OM आँ@ALevyCohen,Replying to @CaitlinLong_ and @caitlinflongOne thing is certain to me: Fiat Cash Will Loose!,1,0,0,False
76,Caitlin Long @CaitlinLong_,Corporates will migrate to best system for global pymts. They're who really matter. #bitcoin #ether #xrp might win but lots 2 do,3,2,1,False
77,Mild Bill@OldenkampBill,Replying to @rockoutmagazineIf only you owned $btc,1,1,0,False
78,Rock Out Magazine@rockoutmagazine,Just along for the ride. Our wonderful friend in Florida is on that $ETH cruise to the moon though.GIF,2,0,0,False
79,Romano@RNR_0,Hope you guys have an $ETH hedge,3,0,0,False
80,Romano@RNR_0,Meanwhile for waiting on Bitcoin. Bought some $ETH,2,0,0,False
82,Ethereum SE@StackEthereum,Ethereum Tutorial for Beginners http://ethereum.stackexchange.com/questions/5952/ethereum-tutorial-for-beginners… #ethereum #tutorials,0,0,0,False
85,Man With No Name@bitcoindrug,FIAT is getting crushed by crypto today. We are writing history. #bitcoin #ethereum,1,0,0,False
87,Santosh Kumar@msantoshkumar,#Stampery Launches New #API and Certification Service on #Ethereum #BlockchainStampery Launches New API and Certification Service on Ethereum BlockchainStampery has launched a new API and an improved certification service called Stamp.io. The new services create immutable records of existence and integrity ofthe-blockchain.com,0,0,0,False
97,⛧ God of Gaming ⛧@TheGodofGamez,We shall never know all the good that a simple smile can do. #gamedev #gamers #indiedev #eth,1,0,0,False
99,Netcube93@Netcube93,#Lisk has arrived China: http://jubi.com/coin/lsk/ #blockchain #cryptocurrency #ethereum #bitcoin,1,0,0,False
100,Cameal@ellimacsophia,HEY $ETH,0,0,0,False
101,Anish Mohammed@anishmohammed,Vitalik Buterin Sets Milestones On Ethereum’s Route to Be The ‘World Computer’ http://coint.co/3dz6 #ethereum #blockchain,1,0,0,False
103,Trading The Bias@TheTradersBias,$ETHUSD daily #ethereum,0,0,0,False
104,BitcoinGuru@BitcoinGuruHQ,#ethereum is going up and made a new high on at $15.34 $ETHUSD . There is a possibility that whales are cashing out from #Bitcoin to #ETH,1,1,0,False
113,Cloud Mining Monitor@cmmonitorcom,#Ethereum #Cloudmining': 12.06.2016 Payment received. 3 MHs - 0.29623700 ETH. From BitcoinCloud Online.BitcoinCloud Online (Ethereum)cmmonitor.com,0,0,0,False
115,Ethereum SE@StackEthereum,Can Solidity function modifiers access function arguments? http://ethereum.stackexchange.com/questions/5946/can-solidity-function-modifiers-access-function-arguments… #ethereum #solidity #modifiers,0,0,0,False
116,Guerra@GuerraMoneta,Replying to @MalibuInvest@OphirGottlieb I would switch to twitter on #ethereum or #safenet,0,0,0,False
117,H@dxxminique,Replying to @cynicalwhore666@savvycaat that #ether,0,0,0,False
118,forklog.media@forklogmedia,"#Ethereum, #theDAO, #Bitcoin & Good news from #Russia: Cryptospace News Digest, June 5 – 12 
http://forklog.net/cryptospace-news-digest-june-5-12/…",1,0,0,False
120,Ethereum Price@EthereumPrice_,"#Ethereum: Ether Price Index
1 ETH =0.022836Ƀ XBT = $15.128150 USD
Today: -2.34%⬇︎ Last 24h: -4.27%⬇︎
https://ethereum-price.com",0,0,0,False
121,Rock Out Magazine@rockoutmagazine,Replying to @OldenkampBillJust along for the ride. Our wonderful friend in Florida is on that $ETH cruise to the moon though.GIF,2,0,0,False
122,⛧ God of Gaming ⛧@TheGodofGamez,Better be ignorant of a matter than half know it. #gamedev #gamers #indiedev #eth,1,1,0,False
124,MA Evergreener@MAEvergreener,"Want #hyip?, Want #revshare? Yes you can! Contact me!
#BTC #DOGE #LTC #ETH #faucet #ita #rus #POR #bra #arg #usa #ger #fra #eng #cro #cina",1,0,0,False
125,"Artificially Flavored Investments, LLC@hiAFIllc",Best outperformers ranked 75-80 $LM $ETH $AGM-A $DORM $HCSG,0,0,0,False
126,CoinFund@coinfund_io,#ETH and #BTC making highs faster than companies can produce business plans.,2,0,0,False
127,steven sml@sleblanc1469,#ethereum Look at this on eBay http://ebay.com/itm/322148326997…,0,0,0,False
128,Julia Edling@bitcointonic,#Bitcoin & #Ethereum #MOONed in 2016… will it continue?: Get the newsletter (discount!)-… http://dlvr.it/LXwmtQ,1,0,0,False
129,optictopic@optictopic,"A transactional meditation experience. http://etherlisten.com
#Eth #thenewchaching",0,0,0,False
134,Sarah Williams@FindOurPup,I am Rags.. I am #Missing .. I am #Lost in the #Ether #FindRags,2,20,1,False
135,⛧ God of Gaming ⛧@TheGodofGamez,"He who has health has hope, and he who has hope has everything. #gamedev #gamers #indiedev #eth",3,5,0,False
138,Cloud Mining Monitor@cmmonitorcom,#Ethereum #Cloudmining': 12.06.2016 Payment received. 5 MHs - 0.32503000 ETH. From MyCoinCloud.MyCoinCloud (Ethereum Mining)cmmonitor.com,0,0,0,False
139,Esteban Díaz Asúa@esteban27,#ethereum making things easy for the javascripters out there #solidity http://solidity.readthedocs.io/en/latest/miscellaneous.html#pitfalls…,2,0,0,False
140,Imski@Imskipadinski,Replying to @alistairmilneExactly NOW is the time to be long in $ETH,1,2,0,False
141,Brian Cohen@inthepixels,Priorities: r/Bitcoin vs. r/Ethereum : Price vs. No Price https://reddit.com/r/bitcoin vs. https://reddit.com/r/ethereum $ETH ATH vs. $XBT 2yr High,1,0,0,False
142,Paul Szurek@pabloszurek,"That #Ether... so hot right.
$14 per lb at @philzcoffee OR $15 per… https://instagram.com/p/BGkKmLLn45LXEr2AFALOvuho-rDd0_3pJvxJQo0/…",3,0,0,False
143,dailybitcoin@mihai81leu,Welcome for *Financial* Independence !: Focus on #Ethereum http://ln.is/blogspot.com/OaSJ9…,0,0,0,False
144,Bitsbetrippin@BitsBeTrippin,https://youtube.com/watch?v=KQNcAz10TKA… #eth #ethereum #cryptocurrency #bitcoin #E3 #gaming #vr 12 GPU mining rig over 30k stream processors of perf!BBT Episode 28: 12 GPU Mining Rig 6x PowerColor Devil 13 R9 390x2 16GB12 GPU's on a single mining rig frame! Presented in 4k! We are aware of minor reverb audio issues with the video too!Bone Stock 1000/1350 = 306mhCombined @ ...youtube.com,2,3,0,False
145,EtherFire@TheEtherFire,#eth is rocking to the #moon $15.17,0,0,0,False
147,Ethereum Price@EthereumPrice_,"#Ethereum: Ether Price Index
1 ETH =0.023793Ƀ XBT = $15.200000 USD
Today: +1.75%⬆︎ Last 24h: -0.92%⬇︎
https://ethereum-price.com",0,0,0,False
150,Kenneth Francis Jr@thekensultant,Okay I think you can be confident. Follow the smart money! #Bitcoin #OneCoin #Ethereum #NewCurrency http://fb.me/DDzpsYAO,0,0,0,False
151,Ranger Bitcoin@Rangerbitcoin,next a good coin WINGS https://wings.ai/?ref=rangerbitcoin… … … 19 DAYS WINGS ICO #bitcoin #giveaways #bounty #cryptocoinsnews #ethereum,0,0,0,False
152,Joseph Viscomi ∞@jjviscomi,"#Bitcoin Price Exceeds $600, Highest in Almost Two Years http://cointelegraph.com/news/bitcoin-price-exceeds-600-highest-in-almost-two-years… #btc #ethereum #cryptocurrency #blockchainBitcoin Price Exceeds $600, Highest in Almost Two YearsCointelegraph spoke to experts to investigate the reasons for such a price increase and learn their forecast for the future of Bitcoin value.cointelegraph.com",0,0,0,False
154,Millwright@sasquatch3001,Replying to @jackfru1t$ETH USD is making all time highs as fiat flows into ETH.  #ethereum,1,0,0,False
155,nayburz.eth@nayburz,#ethereum just broke past its $15 resistance its had for almost a month now.,1,1,0,False
156,Fungibility Matters@thecuspofit,#Yuan pouring into #Bitcoin and #BTC dripping into #Ethereum,1,0,0,False
159,⛧ God of Gaming ⛧@TheGodofGamez,The only limit to your impact is your imagination and commitment. #gamedev #gamers #indiedev #eth,5,1,0,False
160,Jack@jackfru1t,$ETHUSD is making all time highs as its price gets dragged upwards by #bitcoin's rally. #ethereum,10,4,1,False
166,Ethereum SE@StackEthereum,How many arguments can solidity take? http://ethereum.stackexchange.com/questions/5945/how-many-arguments-can-solidity-take… #ethereum #solidity,1,0,0,False
167,Bitcoin@bitcoinpoet,"The Beginner Guide to the Ethereum Project and Blockchain Technology: I'm a college Student , who h... http://bit.ly/1PUA7yM #ethereumThe Beginner Guide to the Ethereum Project and Blockchain TechnologyI'm a college Student , who has recently found great interest with keeping up with the cryptocurrency market. I thought i would like to share my...reddit.com",4,5,0,False
169,Urban- ɃSpot@NoirBitQueen,"Vitalik sets milestones on #Ethereum's route.....

http://cointelegraph.com/news/vitalik-buterin-sets-milestones-on-ethereums-route-to-be-the-world-computer…",0,0,0,False
172,ERC20 ETHBULL@Ethbulls,"#Bitcoin & #Ethereum Shines as people think about #GeorgeSoros outlook,  is buying gold getting old ? Time for a Decentralised Market!",1,0,0,False
174,David Liam@crazydaveorama,"#Blockchain to Track #SolarPower Production, #Ethereum to Utilise The Data http://coint.co/3fnZ",1,1,0,False
175,DEX.BOT@dex_bot_,"Place calls using Ether with bitphone, https://bitphone.net #bitphone #ethereum #ether",1,0,0,False
177,David Liam@crazydaveorama,Vitalik #Buterin Sets Milestones On #Ethereum’s Route to Be The ‘World Computer’ http://coint.co/3dz6 #worldcomputer,0,0,0,False
178,Energyblockchain@NRGBlockChain,#ethereum ether is also booming!!! #bitcoin,0,0,0,False
180,Nick Ayton@NickAyton,Replying to @thomaspowerYes TP Yes coffee Yes sharing yes #blockchain yes #ethereum @thomaspower @KDerhalli,1,0,0,False
189,Majella de Jong@JellaBoem,Andreessen Horowitz's Recent $1.5B Round Could Be Big for #Bitcoin( and #Ethereum ) #blockchainAndreessen Horowitz's Recent $1.5B Round Could Be Big for BitcoinJust recently Andreessen Horowitz has raised a whopping 1.5 billion dollars to invest in the next big technological breakthroughs.news.bitcoin.com,0,0,0,False
191,BTCVLC@BitcoinVLC,"#Bitcoin $650,00 #Ethereum $15,24
#BitcoinPrice #coinbase #BTCVLC
WhatsApp 0426-2408251",0,0,0,False
193,Eoin Carroll@EoinCarroll50,#Bitcoin back in bubble mode. #Ethereum making new all time highs. Good time to own crypto.,0,0,0,False
194,jsw@jeffscottward,#ETH is the right move. So says the Coinbase CEO even,0,0,0,False
195,Francisco Gordillo@FGordillo,#bitcoin #blockchain What is the 'Halving'? A Primer to Bitcoin's Big Mining Change: The Bit... http://bit.ly/28uOS1i #ethereum #ether,1,0,0,False
196,Meneer de Uil@Mhr_de_Uil,@CryptoSpain @RNR_0 we are just talking short term $BTC tops in correlation to $ETH,0,0,0,False
197,Ethereum SE@StackEthereum,Install geth 1.4.6 on Mac http://ethereum.stackexchange.com/questions/5942/install-geth-1-4-6-on-mac… #ethereum #goethereum #macosx,0,0,0,False
199,EtherDevOps@EtherDevops,Ethereum - Ether #IOT #EtherDevOps #Blockchain #Ethereum @iotdevops @rfikki New post: Ethereum - The Finality Cycle http://etherdevops.com/content/ethereum-finality-cycle…,0,0,0,False
204,Ethereum Price@EthereumPrice_,"#Ethereum: Ether Price Index
1 ETH =0.023028Ƀ XBT = $14.843700 USD
Today: -1.52%⬇︎ Last 24h: -2.78%⬇︎
https://ethereum-price.com",0,0,0,False
205,Imski@Imskipadinski,"#ETH is impressive these days, holding pretty steady facing such a strong #BTC bullrun. now it even may go into positive territory...",0,0,0,False
206,ETH TRUTH@ethtruth,SELL! #ethereum,1,0,0,False
207,AltcoinWeekly@altcoinweekly,The latest Ethereum price is USD 14.6. For historical #Ethereum price charts - http://buff.ly/1Y3h6Jz,0,0,0,False
208,CoinGecko@coingecko,The latest Ethereum price is USD 14.6. For historical #Ethereum price charts - http://buff.ly/1Y3h6Jz,0,0,0,False
210,Mx. Gili@MxGili,‘Singular’ To Become First Series On Ethereum Adventures http://coint.co/3fn7 #ethereum #blockchain #SciFiSunday,0,0,0,False
211,Caitlin Long @CaitlinLong_,Replying to @ALevyCohenCorporates will migrate to best system for global pymts. They're who really matter. #bitcoin #ether #xrp might win but lots 2 do,3,2,1,False
213,vDice@vDice_io,"Wow. Follow back from @SkyCorridors ! So exciting. Such a beauty. So intelligent & articulate...Huge fans...

#ethereum #freedom #Bitcoin",1,1,1,False
214,Young Yang@FreeNuts,"Replying to @FreeNutsYou hadn't touched $ETH since last lost trade, and you shouldn't touch $DAO then, either.",0,0,0,False
215,dontpanic@DontPanicBurns,Will The DAO Become Ethereum's Mt Gox? http://bit.ly/22VCza8 via @CoinDesk #ethereum #blockchain,1,1,0,False
216,BitcoinAgile@bitcoinagile,Lets Talk #bitcoin #296 #ethereum Now and a Moshfunding DAO https://letstalkbitcoin.com/blog/post/lets-talk-bitcoin-296-ethereum-now-and-a-moshfunding-dao…,3,0,0,False
217,Young Yang@FreeNuts,"When BTC is up, you can just close your eyes and short $ETH to death:

https://coinigy.com/s/i/575d6812/",1,0,0,False
221,Zeth Couceiro@Zeth_Plexus,"""Ethereum is a blockchain on steroids - #blockchain #Cryptocurrency #ethereum http://uk.archinect.com/news/article/149950552/the-rise-of-the-blockchain-beyond-cryptocurrencies?ukredirect…",2,0,0,False
222, CRN@CRNBTC,"Closed my small @OKCoinBTC weekly future trade. .7122 $BTC gain. 

Still log BTC in my @whaleclubco acct and Short $ETH @Poloniex  

Picture",1,0,0,False
225,Clovis@clofamile,Free Ethereum every 5 minutes http://etherfaucet.net/?r=0x9dc618ad33d270ed68050186f5c08d7bf0b41c70… #ethereum via @FreeCryptoCo,0,0,0,False
226,Ticker Report@TickerReport,Ethan Allen Interiors Inc. $ETH Sees Strong Trading Volume http://ift.tt/1PUakqi,0,0,0,False
227,US Banking News@AmericanBanking,Ethan Allen Interiors Inc. $ETH Sees Strong Trading Volume http://ift.tt/1PUakqi,0,0,0,False
229,Zeth Couceiro@Zeth_Plexus,Will The #DAO Become Ethereum's #MtGox? - CoinDesk - #blockchain #bitcoin #ethereumWill The DAO Become Ethereum's Mt Gox? - CoinDeskOne of the people who helped write The DAO's code speaks about what voters need to do to prevent from becoming the next Mt Gox.coindesk.com,3,4,0,False
230,Darth Maul@malimujo,Well 10 BN  #BTC MCAP is only 1/6 of UBER!  #ETH MCAP is 1/60 of UBER! Am I only one that see huge upside for crypto? Not to mention Apple!,0,0,0,False
231,Ameer Rosic@AmeerRosic,What is Ethereum? Step-by-Step #Ethereum Infographic http://bit.ly/22M90bd #Blockchain #Bitcoin,2,2,0,False
232,Péter Szilágyi@peter_szilagyi,"Having watched Goolge #io16 (specifically the #allo keynote), it's a scary world in the making. #Ethereum and #web3 can't come soon enough.",7,5,0,False
234,Android Developer@hpsaturn,Bitcoin Spikes Above $600 - 2 Year Highs - On Sudden Massive Chinese Buying http://zerohedge.com/news/2016-06-11/bitcoin-spikes-above-600-2-year-highs-sudden-massive-chinese-buying… #ethereum,0,0,0,False
235,Julia Edling@bitcointonic,"#Bitcoin Predictions: In 2018 BTC, #Ethereum, and Litecoin will all be worth more than today http://dlvr.it/LXpmHl",0,0,0,False
238,Ethereum Price@EthereumPrice_,"#Ethereum: Ether Price Index
1 ETH =0.022335Ƀ XBT = $14.348800 USD
Today: -4.48%⬇︎ Last 24h: -6.06%⬇︎
https://ethereum-price.com",0,0,0,False
239,Julia Edling@bitcointonic,"#AntminerS9 – #Bitcoin – #Ethereum – #DAO – Gold & Silver: Hi All, Just wanted to touch on… http://dlvr.it/LXpG76",1,0,0,False
241,⛧ God of Gaming ⛧@TheGodofGamez,There is no great genius without some touch of madness. #gamedev #gamers #indiedev #eth,1,1,0,False
242,BTCVLC@BitcoinVLC,"#Bitcoin $644,81 #Ethereum $14,37
#BitcoinPrice #coinbase #BTCVLC
WhatsApp 0426-2408251",1,1,0,False
243,฿€₳₹₫ @BeardDroid,"Buy $ETH when $BTC pumps, Sell when it settles. This trend may not last long..",0,0,0,False
244,Ethereum SE@StackEthereum,Why should we use different versions of Ethereum Wallet? http://ethereum.stackexchange.com/questions/5939/why-should-we-use-different-versions-of-ethereum-wallet… #ethereum #ethereumwalletdapp #voting #versioning,0,0,0,False
245,Ethereum SE@StackEthereum,How does The DAO transfers balances to another contract? http://ethereum.stackexchange.com/questions/5938/how-does-the-dao-transfers-balances-to-another-contract… #ethereum #tokens #thedao #balances,0,0,0,False
246,Ξ@toThemJoy,Enjoying the $BTC rise? Fly with #WINGS coming this summer. Newsletter signup https://wings.ai/?ref=toThemJoy $ETH $WAVES $DAO $LSK,0,0,0,False
252,fav@btsfav,Win 1 #Ethereum – June Edition ► http://favd.xyz/1tk57O6 #favspw,3,0,0,False
253,BITCOIN BRASIL@dsfnisijfasfis1," HashOcean: https://goo.gl/o5mNJt  Earn 15 KH / s to start your mining. #Bitcoin #blockchain #Ethereum #btc #ethQuote TweetBitcoin Brasil@BitcoinBr10 · Jun 3, 2016 HashOcean: https://goo.gl/o5mNJt Earn 15 KH / s to start your mining. #Bitcoin #blockchain #Ethereum #btc #eth",0,0,0,False
254,=DannyMac=@MacDannyMusic,Free Ethereum every 5 minutes http://etherfaucet.net/?r=0x7ec26f5c31a38853b0d0e81e1260f99834cd2624… #ethereum via @FreeCryptoCo,0,0,0,False
255,Ethereum SE@StackEthereum,"How are the confirmation times distributed in Homestead? http://ethereum.stackexchange.com/questions/5936/how-are-the-confirmation-times-distributed-in-homestead… #ethereum #homestead #blocktime #confirmationsHow are the confirmation times distributed in Homestead?Now that we know about the empirical distribution of block times, what would the confirmation times look like?ethereum.stackexchange.com",0,0,0,False
256,DuNN0 @_DuNN0_,Subscribe Newsletter and WIN 25 $Wings ;) https://wings.ai/?ref=JoXp $BTC $ETH $LISK $LSK $DAO $LTC,0,0,0,False
258,Lucien Sauvageaux@ElSauvageaux,Want to get started in cryptomining?https://minergate.com/a/4c7857f4da396323b121cee1… #bitcoin #bytecoin #Monero #Ether,0,0,0,False
260,Ethereum Price@EthereumPrice_,"#Ethereum: Ether Price Index
1 ETH =0.022780Ƀ XBT = $14.420000 USD
Today: -2.58%⬇︎ Last 24h: -3.47%⬇︎
https://ethereum-price.com",0,0,0,False
261,AltcoinWeekly@altcoinweekly,The latest Ethereum price is USD 14.48. For historical #Ethereum price charts - http://buff.ly/1Y3h6Jz,0,0,0,False
262,CoinGecko@coingecko,The latest Ethereum price is USD 14.48. For historical #Ethereum price charts - http://buff.ly/1Y3h6Jz,0,0,0,False
263,Ethereum SE@StackEthereum,Looking for developer assistance with http://decibel.live http://ethereum.stackexchange.com/questions/5935/looking-for-developer-assistance-with-http-www-decibel-live… #ethereum #dappdevelopment,0,0,0,False
264,Drake moves Fan@Steak_Shirt,Interested in mining cryptocurrency? Use promo-code: r8UBTu for 3% discount at http://ift.tt/1mvVNC1 #ethereum #bitcoin #invest #eth #btc,0,0,0,False
266,Majella de Jong@JellaBoem,"#Counterparty adds the strengths of the #ethereum network to #BitcoinQuote TweetCCN - Capital & Celeb News@CapitalAndCeleb · Jun 12, 2016Counterparty Brings Ethereum Smart Contracts to the Bitcoin Blockchain https://cryptocoinsnews.com/counterparty-brings-ethereum-smart-contracts-to-the-bitcoin-blockchain/… #cryptocurrency",0,0,0,False
268,Animal Neotropical@aneotropical,Your #donation also in #Ethereum - please help us to help now! - 0x0c36316598a8e6c0120f19df187e2f0fdd982579 - Thanks.,0,0,0,False
270,BitcoinAgile@bitcoinagile,#ethereum: #bitcoin Plus Everything https://medium.com/@ConsenSys/ethereum-bitcoin-plus-everything-a506dc780106#---0-27.ulzdrwi2x…,1,0,0,False
271,maxtrav@maxtrav71,Free Ethereum every 5 minutes http://etherfaucet.net/?r=0x0d174e703A46284f8Fc52E28e2Fe954BE02364a5… #ethereum via @FreeCryptoCo,0,0,0,False
272,indxio@indxio,#China Market Close || #Bitcoin: $627.63 | 543.85 EUR||  #Litecoin: 0.0087 BTC  || #Ethereum: 0.0279 BTC   || $BTC $LTC $ETH $RMB,0,0,0,False
273,Media Monitor@LocalMediaND,"Replying to @LocalMediaNDThe De-Throning of #Bitcoin: If It Happens, This Will Be Why http://coinhd.com/?ref=213532&id=M6Sf7kcbDWk… @Bitcoin @btcclicks #DASH・チサコ @Dashpay #ethereum #coin",1,0,0,False
275,vasya.vasyn@vasys174,Meet #Wings https://goo.gl/hBV0nw The #DAO Creation Platform http://livebitcoinnews.com/meet-wings-the-dao-creation-platform/… … #btc #eth #rootstockGIF,6,0,0,False
277,TyrionTrader@TheXrn,Can $ETH #Ethereum hit today 0.0215 ?Yes80%No20%25 votes·Final results,1,0,0,False
278,⛧ God of Gaming ⛧@TheGodofGamez,Formula for success: under promise and over deliver. #gamedev #gamers #indiedev #eth,1,4,0,False
280,Awesome Miner@AwesomeMinerApp,Awesome Miner v1.6.1 has been released and improves the monitoring of #ethereum #mining,0,0,0,False
282,Ethereum SE@StackEthereum,How would a miner cope with a huge block time? http://ethereum.stackexchange.com/questions/5927/how-would-a-miner-cope-with-a-huge-block-time… #ethereum #blocktime #yellowpaper #whitepaper,0,0,0,False
283,Julia Vaingurt@julia_vaingurt,"get your #crypto #news at http://cur.lv/zioc1
#ethereum #lisk #thedao #dao #bitcoin #litecoin #cryptocurrency #dogecoin #SiliconValley",2,0,0,False
286,BumBoLatteGo@BoYowshi,"$btc reversing on the 15m chart, so is $eth",0,0,0,False
287,Crypto Dood@BitcoinDood,"Couldn't resist had to sell a little $BTC, I keep waiting for an $ETH dump & it holds strong around 14 . Looking for a nice entry.",1,0,0,False
288,Bitcoin@bitcoinpoet,Jaxx Gas Price Question: Is there a way to change the gas I use in Jaxx? I notice that it always us... http://bit.ly/1UKCz6B #ethereumJaxx Gas Price QuestionIs there a way to change the gas I use in Jaxx? I notice that it always uses 0.00105 for every transaction I do. In Mist I use like 0.00042 for...reddit.com,0,0,0,False
289,Bitcoin@bitcoinpoet,Ethereum and Bitcoin blasting off as we speak!:       submitted by    /u/DarkestChaos  [link]   [co... http://bit.ly/1UKDC6N #ethereumEthereum and Bitcoin blasting off as we speak!Posted in r/ethereum by u/DarkestChaos • 0 points and 1 commentreddit.com,1,0,0,False
290,Media Monitor@LocalMediaND,7 Reasons Irina Likes #Cryptocurrency More than #Fiat #Bitcoin #ether @CoinHD @Dash http://coinhd.com/?ref=213532&id=SAWiiiisEgY…,0,0,0,False
292, CRN@CRNBTC,"Heres the $ETH Short that i got so much crap about... Not covering just yet.

Enjoy your bags.

#BITCOIN #ETHEREUM",0,0,0,False
293,Glyn MacLean 麦格荣@glynmaclean,Understand @DAO and #ethereum by tuning in to keywords like #consensus and read up on a form of #democracy called #horizontal #collectivism,0,0,0,False
