,user,text,likes,retweets,replies,is_thread
0,Blockchainfirst@blockchainfirst,as history has taught us a lot of startups started in a garage. #Blockchain(first) is no exception #ethereum #smartcities,3,1,0,False
1,คгภ๏ รєɭђ๏гรՇ@ArnoSelhorst,The Daily Blockbuster has just been published! http://paper.li/ArnoSelhorst/1463655000?edition_id=7306cf50-d986-11e6-95ce-0cc47a0d164b… #blockchain #ethereum,3,4,0,False
2,Flip @TheAssetMan,Was buying $GNT @golemproject for under 1000 Satoshi. Now 2180 Satoshi $ETH #investment $BTC #bitcoin #BCBB @Liqui_Exchange,2,2,0,False
3,Joerg Resch@joergresch,The future is a decentralized internet http://tcrn.ch/2j73jUX via @techcrunch #blockchain #Ethereum,9,14,0,False
4,Igor Artamonov@splix,"100+ blocks processed after Diehard protocol upgrade, all looks good, no issues, network is growing #Ethereum $ETC",38,24,1,False
5,Silvio Dante@crypto_rush,Increased capitalization and increased price #Golem #supercomputer #blockchain #bitcoin #ethereum,1,0,0,False
6,Roma@RRbro1,"$NXC $btc $eth #ncx #blockchain #btc 
Join @BeyondVoidGame at  upcoming events",3,3,0,False
7,Bitcoin Magazine@BitcoinMagazine,"Ethereum Classic Hard Forks; Diffuses ‘Difficulty Bomb’ http://btcm.ag/etchfdb #ethereum #blockchainEthereum Classic Hard Forks; Diffuses ‘Difficulty Bomb’If the split between Ethereum and Ethereum Classic wasn’t definitive before, it is now. Ethereum Classic, the project born out of rejection of Ethereum’sbitcoinmagazine.com",18,21,0,False
8,YbraMihan/Piry Memes@FallenHope08,"best epal of the year #Ether
#YbraMihanSincerity
#EncantadiaLinlang",13,17,0,False
9,Cointelegraph@Cointelegraph,Developers: People Will End Up Using #Ethereum Without Knowing It http://goo.gl/QFxO7Q @ethstatus - By @olusegunisrael,32,23,1,False
10,Martin de Bie@mjcdebie,Workshop #Ethereum becomes #masterclass by Christoph Jentzsch. Also guests from @ExactOnline are ready for day2 #blockchain @ebpibv @216mkb,5,3,1,False
11,Igor Artamonov@splix,#Ethereum $ETC hard fork (Diehard protocol upgrade) in just 12 hours. Please upgrade your nodes to Parity 1.4.8+ or Geth 3.2.3+,24,17,2,False
12,Nick Ayton@NickAyton,If you put an ASIC into every device #IoT can every device be a Miner? #ethereum #blockchain @Stevewal63 …  http://vitw.it/link/ondKy,2,6,0,False
13,xBenziinii@CryptoPsych,"The Golem Project-

https://youtu.be/_Q888b0VRx8
http://golemproject.net/doc/DraftGolemProjectWhitepaper.pdf…
#golem #P2P #decentralize #eth #btc #smartcontracts #GNT #progression",1,1,0,False
14,Chrono.tech@ChronotechNews,#RT Development status update #2 https://blog.chronobank.io/development-status-update-2-690e03cb177a#.bi8ymxe4i… #blockchain #fintech #crowdfunding #ethereum #ETH #BTC #bitcoinDevelopment status update #2We hired a new developerblog.chronobank.io,10,6,0,False
15,Vindyne8@Vindyne8,Developers: People Will End Up Using #Ethereum Without Knowing It http://goo.gl/QFxO7Q @ethstatus - By @olusegunisrael,16,16,0,False
16,Gastracker@gastrackerio,"#Ethereum $ETC protocol upgrade has completed, difficulty bomb has been frozen  https://gastracker.io/block/3000000",41,24,0,False
17,Chrono.tech@ChronotechNews,"#RT Problems Chronobank is solving https://blog.chronobank.io/problems-chronobank-is-solving-f97644ef30c6#.igqaugl33… #ethereum #ETH #Chronobank #blockchain #bitcoin #fintech #startupProblems Chronobank is solvingThere are a myriad of problems that ChronoBank aims to solve. Evidently, some of them are so entrenched in our society that they are not…blog.chronobank.io",5,3,0,False
18,CL Taylor@DigitWealthNews,Fintekews-Bitcoin vs Gold (1/13) http://goo.gl/uBC2Bj #fintech #bitcoin #ethereum #gold #CME #markets #trading #index #blockchain #VC #PE,6,4,0,False
19,0xc1c4da@0xc1c4da,Special thanks to our top contributors! @ethstatus #ethereum https://blog.status.im/meet-our-top-contributors-issue-1-cc3df7e9c5e9…,7,3,1,False
20,Edward Bukstel@ebukstel,"Centrelink data-matching problems show the need for a government #blockchain
http://klou.tt/1d5m7hqpdrzd9
#Ethereum",0,0,0,False
21,Ramesh Babu@rameshbabua,2017 : When #Ethereum Will Go From IT to Enterprise #blockchain http://ow.ly/xS6P307YCnm,2,2,0,False
22,JΞFF@jeffehh,This weeks #ethereum dev diaryDev diary week 2Posted in r/ethereum by u/jeffehhh • 46 points and 3 commentsreddit.com,10,11,0,False
23,Michael Wuehler@wuehler,Looking forward to #Ethereum Hackathon Tokyo in a few weeks #INFURA @infura_io http://ethereum-hackathon.tokyo/en.html,6,5,0,False
24,Blockgeeks@Blockgks,Finally! A Simple Guide To understand Ethereum http://dld.bz/fcBTc #Ethereum #blockchain #fintech,4,4,0,False
25,Alex.eth@AlexanderFisher,This week's #Ethereum development diary http://buff.ly/2j8fb9H #fintech,2,1,0,False
26,JΞFF@jeffehh,#ethereum geth nerd stats #golang #optimization,13,8,1,False
27,Christian Seberino@c_seberino,BTCC to be investigated by the People's Bank of China due to possible market manipulation http://buff.ly/2iG3NR7 #etc #eth #ethereumclassicBitcoin Exchange BTCC Will be Investigated by PBOCThings are not looking all that great for China's largest Bitcoin exchange right now. The People's Bank of China Shanghai team has announced the formation of a joint inspection team to investigate BTCthemerkle.com,2,2,0,False
28,Etherplay@etherplay,http://etherplay.io adds a new feature for his second #Competition of #indie #esports: Replay the top player! #ethereum #cryptocurrencyGIF,11,11,0,False
29,Ethereum UAE@Ethereum_UAE,Developers: People Will End Up Using Ethereum Without Knowing It http://ift.tt/2irFmco #Ethereum,2,2,0,False
30,C.Downs@Coach_CDowns,About 20 varsity & 1 Soph. in the weight room this morn. Looks like those are the only guys that want to play this year. #OEGainz #ETH,14,5,0,False
31,Christian Seberino@c_seberino,Report Estimates There are More Than 10 Million Bitcoin Holders Worldwide http://buff.ly/2iFTFIo #etc #eth #ethereumclassic #ethereum,1,0,0,False
32,/r/Ethereum@r_Ethereum,"Getting ready for enterprise ETH... #EthereumGetting ready for enterprise ETH...According to some research companies like Gartner, Blockchain is not ready for production systems and I tend to believe this as we are still...reddit.com",1,0,0,False
33,Hattori Hanzō@Oni_no_Hanzo,Wow. $DASH currently higher than #ETHEREUM. Amazeballs :D https://twitter.com/dashdetailed/status/819717233211424768…This Tweet is unavailable.,1,2,1,False
34,Aram Koukia@aramkoukia,“Create a private #Ethereum #Consortium #Blockchain in #Azure” https://koukia.ca/create-a-private-ethereum-consorium-blockchain-in-azure-3667185276b5#.razmv2tpw…,1,0,0,False
35,Arthur Falls@ArthurFalls,"All your questions about cryptography today answered by  @danboneh
#ethereum #bitcoin #blockchain @dfinity_network
http://buff.ly/2jhnEJI",9,9,0,False
36,Nick Ayton@NickAyton,Contracts are a bad term say @VitalikButerin Misleading #ethereum #blockchain More like autonomous agents 'objects' I agree! #teamblockchain,3,5,0,False
37,Dorota Zimnoch@D_Zimnoch,"Good read. #Fintech Trending: #Blockchain Building Blocks for 2017 
#R3 #IBM #Ethereum http://finovate.com/fintech-trending-blockchain-building-blocks-2017/… via @FinovateFintech Trending: Blockchain Building Blocks for 2017 - FinovateWhat blockchain trends from 2016 are worth watching for follow-through in 2017? Here are five blockchain players to keep an eye on as the new year begins. IBM: Something Old, Something New, Something...finovate.com",0,0,0,False
38,/r/Ethereum@r_Ethereum,The Vault Contract: Open Sourced by Giveth – Giveth.io #EthereumThe Vault Contract: Open Sourced by Giveth – Giveth.ioPosted in r/ethereum by u/GrifffGreeen • 53 points and 8 commentsreddit.com,1,0,0,False
39,John Lilic ₿ Ξ ∞@JohnLilic,"The @ethereumJoseph Lubin Experience #mentor #workethic #Ethereum #ConsenSys #love #respectQuote TweetStatus@ethstatus · Jan 13, 2017Our interview with @ethereumJoseph, the Founder of perhaps the most innovative company in the industry, ConsenSys: http://bit.ly/2j6JT2V",7,2,0,False
40,John Lilic ₿ Ξ ∞@JohnLilic,"If you're in #Tokyo Jan 28,29 come join us for #Ethereum Hackathon Tokyo 2017 1.28-29 http://ptix.co/2jKmBmo #ConsenSys #RecruitHoldingsEthereum Hackathon Tokyo 2017年 1月28日(土)1月29日(日)*最新情報はこちらをご参照くださいhttp://ethereum-hackathon.tokyo/2016年、世界中の銀行、政府、企業が注目した""ブロックチェーン""。日本でも数多く... powered by Peatix : More than a ticket.peatix.com",13,8,0,False
41,Lefteris Karapetsas@LefterisJP,Ahh...the beauty of #archlinux. #ethereum #solidity v0.4.8 was released just 2 hours ago and it's already part of the official repos.,10,9,0,False
42,Brian Dainty@briandainty36,"Spent a bitterly cold, but enjoyable afternoon with the @StrachanFF boys today @StGeorgesPark playing @NikeAcademy",8,3,1,False
43,Jo Flaig-Gallichan@jojosweetcheeks,Awesome photo-courtesy of the very talented @briandainty36 ...how lucky @StrachanFF @RUGBY_TOWN_JFC are to have an asset like Brian #Eth ,8,2,1,False
44,Qtum@qtum,"Thank you Technode for writing an article about #Qtum http://technode.com/2017/01/13/qtum-wants-to-unify-bitcoin-and-ethereum-blockchain-applications/…
#ETH #BTCQtum wants to unify Bitcoin and Ethereum blockchain applications · TechNodeQtum wants to unite Bitcoin and Ethereum to create blockchain technology for decentralized applications and businesses.technode.com",57,117,1,False
45,Status@ethstatus,"Come Meet our Top Contributors, Issue #1: http://bit.ly/2j6Fe0J #opensource #ethereum",3,0,0,False
46,Status@ethstatus,Singapore’s Status Wants to Bring #Ethereum to Every Mobile Device http://coinjournal.net/singapore-status-ethereum-mobile-devices/… via @Coinjournal #blockchain,19,9,0,False
47,Bitcoin Sportsbook @SportsbookBTC,#ethereum Ethereum Classic Hard Forks; Diffuses ‘Difficulty Bomb’ #ethereum… http://dlvr.it/N66P0f via→ http://betbitcoin.mobi,1,0,0,False
48,Brave New Coin@bravenewcoin,#Ethereum Price: USD $9.5 $ETH http://ow.ly/6UKf3048WBe,1,2,0,False
49,ONL@onlonlonl,Monero Mining – How to Mine Monero on Windows with CPU & GPU http://dlvr.it/N5pcTV #Mining #Monero #howto #minemonero #ethereum #miningrig,1,4,0,False
50,Actual Advice Bitcoin@ActualAdviceBTC,"credit goes to the nameless heroes at the dank telegram sticker sweatshop 
@VitalikButerin @ethereumproject #eth #ethereum",13,2,0,False
51,BlockchainDan@BlockchainDan,5 currencies being added to @Syscoin market tomorrow- are you ready?! $ETH $DASH $FCT $WAVES $XMR #fintech #blockchain,26,27,2,False
52,Nick Ayton@NickAyton,Replying to @seandotauThe best ones are missing! @cloudnthings @thomaspower @Stevewal63 @TeamBlockchain @Coinfirm_io,4,1,1,False
53,Sean@seandotau,Let me guess. #ethereum ? @NickAyton @thomaspower @Stevewal63 @TeamBlockchain @Coinfirm_io,6,2,1,False
54,Blockgeeks@Blockgks,New Post: 5 Weak Points Of Blockchain Technology http://buff.ly/2ikmPR2 #blockchain #bitcoin #ethereum #fintech,1,4,0,False
55,The Paypers@ThePaypers,.@DCGco invests in @etherscan #ethereum http://tinyurl.com/jvbn3np,2,0,0,False
56,BitcoinAgile@bitcoinagile,#ethereum Leaders and Visionaries: Dr. Aron Fischer #bitcoin #blockchain #medium https://medium.com/@status.im/ethereum-leaders-and-visionaries-dr-aron-fischer-ddc982bb2960…,1,2,0,False
57,Daniel Spiller@spiller_crypto,"$GNT, Golem Project a great investment and hold for the long run. Check the project milestones @golemproject #investment $BTC $ETH #bitcoin",3,1,0,False
58,CryptoRTs +  = @CryptoRTs,"RT splix: 100+ blocks processed after Diehard protocol upgrade, all looks good, no issues, network is growing #Ethereum $ETC",1,0,0,False
59,Bitcoin Brasil@BitcoinBr10,Blockchain's R-Word (And 3 Other Trends for 2017) https://studiobitcoin.blogspot.com.br/2017/01/blockchains-new-r-word-3-trends-2017.html… #Bitcoin #blockchain #coindesk #news #ethereum #btc #dashcoin #new,1,1,0,False
60,dontpanic@DontPanicBurns,Exclusive behind the scenes footage from ethereum classic dev team: @splix putting in work to stop the bomb. $ETC $ETH,5,0,0,False
61,Vindyne8@Vindyne8,5 currencies being added to @syscoin market tomorrow- are you ready?! $ETH $DASH $FCT $WAVES $XMR #fintech #blockchain $SYS #syscoin,22,18,0,False
62,Sean@seandotau,Developers: People Will End Up Using #Ethereum Without Knowing It http://buff.ly/2j8sVkx True @thomaspower @Stevewal63 @TeamBlockchain,1,1,0,False
63,BitcoinAgile@bitcoinagile,Markets Update: Cryptocurrency Prices Begin Rebounding - Nigeria Today #altcoin #Ethereum http://nigeriatoday.ng/2017/01/markets-update-cryptocurrency-prices-begin-rebounding…,1,3,0,False
64,Status@ethstatus,"Our interview with @ethereumJoseph, the Founder of perhaps the most innovative company in the industry, ConsenSys:Joseph Lubin // An Ethereum Interview SeriesWe sat down with Joseph Lubin, one of 8 founders of the Ethereum project and the founder of ConsenSys, to discuss building out applications on the Ethereum b...youtube.com",17,10,1,False
65,John Gerryts@phonikg,"Couldn't agree more, especially in regards to *infrastructure first* #ethereum #blockchain @ConsenSysLLC @ethereumJoseph",3,0,0,False
66,Stephan Tual@stephantual,"These dev diaries make it really easy to stay up to date with the latest #ethereum developmentsQuote TweetJΞFF@jeffehh · Jan 13, 2017This weeks #ethereum dev diary https://reddit.com/r/ethereum/comments/5nqj2j/dev_diary_week_2/…",7,3,1,False
70,CoinJournal@CoinJournal,Singapore’s @ethstatus Wants to Bring #Ethereum to Every Mobile Device http://coinjournal.net/singapore-status-ethereum-mobile-devices/…,3,0,0,False
71,Digix DGX@DigixDGX,"#reddit Friday the 13th Jan 2017 — Core Dev Update
https://reddit.com/r/digix/comments/5nobdx/friday_the_13th_jan_2017_core_dev_update/…
#digix #ethereumFriday the 13th Jan 2017 — Core Dev UpdatePosted in r/digix by u/kcchng • 16 points and 0 commentsreddit.com",1,1,0,False
72,Edward Snowden@Snowden,"Replying to @SnowdenWhen I came forward, I expected to be alone. To have you with me -- all these years later -- is the greatest honor of my life. Thank you.3792.2K10.3K",0,0,0,False
73,Crypto DAR฿Y@DarbyOGill_,Have you checked out bitmex yet Edward they are offering X100 leverage on $btc trading http://bitmex.com/register/05tQ6r $eth $crypto,2,0,0,False
74,Cointon@CointonDotCom,Developers: People Will End Up Using Ethereum Without Knowing It https://cointelegraph.com/news/developers-people-will-end-up-using-ethereum-without-knowing-it… #Ethereum #ether #crypto,1,0,0,False
75,The Royal Vox Post@RoyalVoxPost,#fintech: Singapore’s Status Wants to Bring #Ethereum to Every #Mobile Device http://coinjournal.net/singapore-status-ethereum-mobile-devices/…,1,0,0,False
76,ethereum.network@EthereumNetw,"Developers: People Will End Up Using #Ethereum Without Knowing It
https://cointelegraph.com/news/developers-people-will-end-up-using-ethereum-without-knowing-it…",2,6,0,False
82,Bitcoin News@scryptsy,#Scryptsy.com #BTC #Ethereum Classic Freezes '#Difficulty Bomb' With 'Diehard' Fork… https://goo.gl/fb/0rPLhC,0,0,0,False
83,LAPITH@bhumharit,RT Blockgks: Finally! A Simple Guide To understand Ethereum http://dld.bz/fcBTc #Ethereum #blockchain #fin…,0,0,0,False
85,Crypto Trader Pro @CryptoTraderPro,Ethereum Classic Hard Forks; Diffuses ‘Difficulty Bomb’ #ethereum #blockchain http://dlvr.it/N66Nsd via→ http://betbitcoin.mobi,2,1,0,False
87,BO@b2o101,free ethereu every 20 minute https://goo.gl/78O6jm #ethereum #bitcoin #blockchain #dogecoin #crypto #satoshi,0,0,0,False
88,Alberto Jauregui | esoteRICK.eth @DisruptBanksy,http://ift.tt/2im4UcQ Ethereum Classic Hard Forks; Diffuses 'Difficulty Bomb' - Bitcoin Magazine #ethereum #ether,0,0,0,False
89,cryptinsight@cryptinsight,#ethereum Classic Freezes 'Difficulty Bomb' With 'Diehard' Fork #暗号通貨 #仮想通貨 #デジタル通貨 #cryptocur http://bit.ly/2jG5QET,0,0,0,False
90,Christine Soekasih@Christine_S02,#Ethereum Classic Freezes '#Difficulty Bomb' With 'Diehard' Fork: Ethereum classic just… https://goo.gl/fb/NeqEc1 #vk,0,0,0,False
93,Foxes Den@foxesden34,Developers: People Will End Up Using Ethereum Without Knowing It https://cointelegraph.com/news/developers-people-will-end-up-using-ethereum-without-knowing-it… #ethereum,0,0,0,False
94,Ethereum Monkey@EthMonkey,Ethereum Classic Hard Forks; Diffuses 'Difficulty Bomb' #ethereum https://bitcoinmagazine.com/articles/ethereum-classic-hard-forks-diffuses-difficulty-bomb-1484350622…,0,0,0,False
95,John Gerryts@phonikg,"Replying to @ethstatus @ethereumJoseph and @YouTubeCouldn't agree more, especially in regards to *infrastructure first* #ethereum #blockchain @ConsenSysLLC @ethereumJoseph",3,0,0,False
96,Francesco Villa@cekospiu,Donate to our project! Add funds and receive $$$ in exchange from profits lifetime! @gagpubblicita #ethereum #miner https://indiegogo.com/projects/build-ethereum-mining-farm/x/14702367#/…,0,0,0,False
97,Sane Delay@paesean,@barrysilbert on #Ethereum; Announces #Etherscan Investment https://bitcoinmagazine.com/articles/barry-silbert-shares-digital-currency-group-s-perspective-on-ethereum-announces-etherscan-investment-1483989140… via @BitcoinMagazine #vfq # bitcoinBarry Silbert Shares Digital Currency Group’s Perspective on Ethereum; Announces Etherscan Invest...Digital Currency Group (DCG) is perhaps the most important company in the Bitcoin and blockchain ecosystem when it comes to early-stage investments. DCG hasbitcoinmagazine.com,1,0,0,False
98,need-bitcoin.com@need_bitcoin,#Ethereum Classic Freezes '#Difficulty Bomb' With 'Diehard' Fork: Ethereum classic just… https://goo.gl/fb/6A8vm7,0,0,0,False
99,BO@b2o101,free ethereum every 10 minute  https://goo.gl/owY5W3 #ethereum #bitcoin #blockchain #dogecoin #crypto #satoshi,1,0,0,False
101,Tedy MD@bitcoinjapanese,Tom Ford's Path To Success | CNBC http://vid.staged.com/k4Dt #btcjapan #btcchina #ethereum.co.id,1,0,0,False
102,WowWowCoin@myluckbitcoin,#Ethereum Classic Freezes '#Difficulty Bomb' With 'Diehard' Fork: #Ethereum_classic just forked again. Source http://dlvr.it/N65x5T,0,0,0,False
103,Ethereum Monkey@EthMonkey,Ethereum Classic Freezes 'Difficulty Bomb' With 'Diehard' Fork - CoinDesk #ethereum http://coindesk.com/ethereum-classic-diehard-fork/…,0,0,0,False
104,Alberto Jauregui | esoteRICK.eth @DisruptBanksy,http://ift.tt/2iRtNco Ethereum Classic Freezes 'Difficulty Bomb' With 'Diehard' Fork - CoinDesk #ethereum #ether,0,0,0,False
105,VAPEPENstore@VAPEPENstore,eVic VT MOD  http://vapepenSSStore.com <- #CA #Sacramento #EastLA #VapeFam #eLiquid #Vaporizer #Stress #Model #Ethereum,0,0,0,False
108,Coinstats@coinstats,"Ethereum Classic - ETC
Price: $1.21001
Change in 1h: +-1.31%
Market cap: $106275984.0
Ranking: 6
#Ethereum Classic #ETC",0,0,0,False
109,Bobe'bot@Bobe_bot,"1 #BTC = 857.9124 #CHF
1 #ETH = 10.3329 #CHF
1 #DOGE = 0.0002177784 #CHF
sources: @cryptonatorcom @hellobity",0,0,0,False
110,Ameer Rosic@AmeerRosic,Could #Blockchain Technology Disruptive The Real Estate Industry? http://dld.bz/eCvcw #ethereum,0,0,0,False
111,Blockgeeks@Blockgks,New Post: What Is The Future Of The Blockchain? A 2017 Prediction http://buff.ly/2ilixZy #blockchain #bitcoin #ethereum #fintech,0,0,0,False
114,Chico@Team_Wing1,Best diss song ever. #ether @nas #hiphop #rap https://instagram.com/p/BPOLf9IFr5Y/,1,1,0,False
115,Bitcoin Updater@BitcoinUpdater,Ethereum Price Technical Analysis – ETH/USD Downsides To Continue #ethereum http://soco.space/1C0AQI,0,0,0,False
116,CryptoRaptor@Cryptopoly,Singapore’s Status Wants to Bring #Ethereum to Every Mobile Device http://coinjournal.net/singapore-status-ethereum-mobile-devices/… via @Coinjournal #cryptocurrency #ETH,0,0,0,False
117,MeeseeksBTC@Meeseeks100BTC,"RT Start mining $ETH or $BTC together with people from all over the world.

https://goo.gl/tYClLG",0,0,0,False
118,Christian Seberino@c_seberino,"Hashes: An Introduction & Why They Are Foundational To The Internet & Blockchains http://buff.ly/2jwCcSB #etc #eth #ethereumclassicHashes: An Introduction & Why They Are Foundational To The Internet & Blockchains — Steemit""The phrase 'one-way hash function' might sound arcane and geeky, but hash functions are the workhorses of modern… by cseberinosteemit.com",0,0,0,False
120,Coinstats@coinstats,"Ethereum Classic - ETC
Price: $1.22684
Change in 1h: +1.62%
Market cap: $107752659.0
Ranking: 6
#Ethereum Classic #ETC",0,0,0,False
121,Coinstats@coinstats,"Ethereum - ETH
Price: $9.77351
Change in 1h: +0.94%
Market cap: $858808252.0
Ranking: 2
#Ethereum #ETH",0,0,0,False
123,Vindyne8@Vindyne8,#chronobank BTC correction = good TIME to get your TIME here: chronobank.io You can also use alts! #btc #eth $waves #nem #etc #ltc #emc,16,17,0,False
124,Jo Flaig-Gallichan@jojosweetcheeks,Replying to @briandainty36Awesome photo-courtesy of the very talented @briandainty36 ...how lucky @StrachanFF @RUGBY_TOWN_JFC are to have an asset like Brian #Eth ,8,2,1,False
129,Load Debit Card@LoadDebitCard,Developers: People Will End Up Using Ethereum Without Knowing It https://cointelegraph.com/news/developers-people-will-end-up-using-ethereum-without-knowing-it… via @Cointelegraph #Ethereum #Payments,0,0,0,False
131,/r/Ethereum@r_Ethereum,Bringing Ethereum to mobile phones #EthereumBringing Ethereum to mobile phonesPosted in r/ethereum by u/Plagwitz15 • 30 points and 1 commentreddit.com,2,1,0,False
132,DaMixhub@damixhub,[New Mix] Street Ether Certified (hosted by @djsteeltv). Stream and Download on the app. #Alotta #ether http://damixhub.com/q/aqY5pZbk,8,0,0,False
135, Eliza Cheng @ElizaRyenne,Good paying sites for #FREE #bitcoin #dogecoin #litecoin #ethereum at http://eccryptolist.blogspot.my,0,0,0,False
136,Chrono.tech@ChronotechNews,"#RT Why ChronoBank will use multiple blockchain? https://blog.chronobank.io/why-chronobank-will-use-multiple-blockchain-a42445f3d4e6#.y97wksdit… #blockchain #ethereum #bitcoin #wavesplatform #BTC #ETHWhy ChronoBank will use multiple blockchain?ChronoBank will use several different blockchains to issue and trade LH tokens, likely including Bitcoin, Waves, Ethereum and NEM. The…blog.chronobank.io",5,8,0,False
137,Briefing.com@Briefingcom,Co’s that have issued #guidance in the last 30 days http://bit.ly/28Lp6Al $TNAV $ETH $ASNA $CUDA $TEVA $STZ $UNF $DLR $CAG $FINL $FDS $WCG,0,0,0,False
138,Coinstats@coinstats,"Ethereum Classic - ETC
Price: $1.2059
Change in 1h: +-0.45%
Market cap: $105912084.0
Ranking: 6
#Ethereum Classic #ETC",0,0,0,False
139,Coinstats@coinstats,"Ethereum - ETH
Price: $9.61207
Change in 1h: +-0.11%
Market cap: $844609111.0
Ranking: 2
#Ethereum #ETH",0,0,0,False
140,Ethereum Price@EthereumPrice_,"#Ethereum: Ether Price Index
1 ETH =0.011660Ƀ XBT = $9.678950 USD
Today: -3.26%⬇︎ Last 24h: -2.94%⬇︎
https://ethereum-price.com",0,0,0,False
141,Blockgeeks@Blockgks,New Post: What Is Semantic Ethereum? http://buff.ly/2j4UDyF #blockchain #bitcoin #ethereum #fintech,1,0,0,False
142,/r/Ethereum@r_Ethereum,"so.. etherslots just ate my ether #Ethereumso.. etherslots just ate my etherso i decided to check out some of the dapps today and tried to use http://www.etherslots.win/, as soon as i sent a bet for 0.1 ether everything...reddit.com",1,0,0,False
143,Sean@seandotau,Replying to @NickAytonLet me guess. #ethereum ? @NickAyton @thomaspower @Stevewal63 @TeamBlockchain @Coinfirm_io,6,2,1,False
144,Ticker Report@TickerReport,Gabelli Analysts Cut Earnings Estimates for Ethan Allen Interiors Inc. $ETH http://ift.tt/2j8We6C,0,0,0,False
145,Bitcoin@crypto_bitcoins,Developers: People Will End Up Using Ethereum Without Knowing It https://cointelegraph.com/news/developers-people-will-end-up-using-ethereum-without-knowing-it… #Ethereum #ether #crypto,0,0,0,False
147,Ticker Report@TickerReport,Gabelli Analysts Cut Earnings Estimates for Ethan Allen Interiors Inc. $ETH http://zpr.io/Pzzr6,0,0,0,False
150,Cliff K Jordan@CKJordan15,"Earn up to $65,610 daily! join & get the benefits http://bit.ly/coinviv2 #coinomia #ethereum #cryptoguide #Bitcoins",0,0,0,False
153,Coinstats@coinstats,"Ethereum Classic - ETC
Price: $1.21099
Change in 1h: +-0.4%
Market cap: $106357647.0
Ranking: 6
#Ethereum Classic #ETC",0,0,0,False
154,Coinstats@coinstats,"Ethereum - ETH
Price: $9.60359
Change in 1h: +-0.86%
Market cap: $843850703.0
Ranking: 2
#Ethereum #ETH",0,0,0,False
155,ÆON@AeonGlacial,#ETH cypher pattern set up #short,0,0,0,False
157,ΞTHΞЯΞUM ÐΞV NΞWS ⟠@Eth_Dev_News,#Clojure fans! #Ethereum decentralization platform @ethstatus hiring #OSS devs core contributors. #ethdev #gamedev,1,2,0,False
165,ekoct@ekowido45304120,#Bitcoin – Government #Supervision or Free Development #eth #etc #biockchain http://ln.is/lD3mZ by #Appcointeam via @c0nvey,0,0,0,False
166,CryptoRTs +  = @CryptoRTs,"RT gastrackerio: #Ethereum $ETC protocol upgrade has completed, difficulty bomb has been frozen  … http://bit.ly/2jgBLz2",0,0,0,False
168,BlockChannel@BlockChannel,"BlockChannel: #ETH /USD: Minor Recovery Capped By Monthly Pivot #Ether #PriceAnalysis
https://ethnews.com/analysis/01-13-2017-ethusd-minor-recovery-capped-by-monthly-pivot…",0,0,0,False
169,ETHNews@ETHNews_,"#ETH /USD: Minor Recovery Capped By Monthly Pivot #Ether #PriceAnalysis
https://ethnews.com/analysis/01-13-2017-ethusd-minor-recovery-capped-by-monthly-pivot…",1,0,0,False
170,Ameer Rosic@AmeerRosic,Step-by-Step Guide: What the heck is a Smart Contract? #blockchain #bitcoin #ethereum http://dld.bz/eYNat,0,0,0,False
171,Coinstats@coinstats,"Ethereum Classic - ETC
Price: $1.21694
Change in 1h: +-0.7%
Market cap: $106878542.0
Ranking: 6
#Ethereum Classic #ETC",0,0,0,False
172,Coinstats@coinstats,"Ethereum - ETH
Price: $9.66829
Change in 1h: +-0.49%
Market cap: $849521906.0
Ranking: 2
#Ethereum #ETH",0,0,0,False
173,Ethereum SE@StackEthereum,Issue in deploying contracts through Ethereum Wallet http://ethereum.stackexchange.com/questions/11378/issue-in-deploying-contracts-through-ethereum-wallet… #ethereum #contractdeployment,1,0,0,False
174, Teo Kanistras®@Teokanistras,"Bitcoin Debit Card  #bitcoin #btc #satochis #blockchain #fintech #crypto #ethereum #mining #prize #faucetBitcoin Wallet & Prepaid CardsWe are an all-in-one blockchain payment gateway providing digital currency wallets, prepaid cards and processing solutions for businesses and merchants!cryptopay.me",0,0,0,False
175,Daniel Spiller@spiller_crypto,"Replying to @heyitsthemavyep buying $ETH this weekend, got some $SIA @SiaTechHQ, and keeping and eye on STORJ @storjproject $SJCX",1,0,0,False
177,Crypto DAR฿Y@DarbyOGill_,Replying to @SnowdenHave you checked out bitmex yet Edward they are offering X100 leverage on $btc trading http://bitmex.com/register/05tQ6r $eth $crypto,2,0,0,False
178,Sam Liban@Sam_Liban,"After crazy cryptodays #BTC seems stable around $800, #ETH around $10 & #Dash around $12.
But #Chinese #NewYear may change things...",0,0,0,False
179,Syders2pidO@syders2pido18,"My upcoming withdrawal!!
Join now and get your 5% Return Cash Bonus!!
https://ethtrade.org/lp1/985885?en
#Ethtrade #ETHEREUM #bitcoin #Blockchain #BTCC",1,0,0,False
188,Faith Emmanuel@residualbitcoin,#ethereum Leaders and Visionaries: Joseph Lubin #bitcoin #blockchain #medium https://medium.com/@status.im/ethereum-leaders-and-visionaries-joseph-lubin-308cc29d16c5… #ResidualBitcoin,0,0,0,False
189,Veki@Veki551155,#ethereum Leaders and Visionaries: Joseph Lubin #bitcoin #blockchain #medium https://medium.com/@status.im/ethereum-leaders-and-visionaries-joseph-lubin-308cc29d16c5…,0,0,0,False
190,K3ith@K3ITH_PRICE,"Nas - Ether (K3ITH Price Remix) by K3ITH Price #ether
https://soundcloud.com/keith_pro_ducer/ether-remix…",0,0,0,False
191,BitcoinAgile@bitcoinagile,#ethereum Leaders and Visionaries: Joseph Lubin #bitcoin #blockchain #medium https://medium.com/@status.im/ethereum-leaders-and-visionaries-joseph-lubin-308cc29d16c5…,1,1,0,False
192,Johan Nygren@resilience_me,"In the new Proof-of-Individuality release, proof-of-concept 3, the deposit governance has been reduced to 20 lines of code #Ethereum #POI",1,0,0,False
193,Faith Emmanuel@residualbitcoin,Markets Update: Cryptocurrency Prices Begin Rebounding - Nigeria Today #altcoin #Ethereum http://nigeriatoday.ng/2017/01/markets-update-cryptocurrency-prices-begin-rebounding… …,0,0,0,False
194,Blockgeeks@Blockgks,What is #Ethereum? A Step-by-Step Beginners Guide  http://dld.bz/fcBTc #blockchain #fintech,1,0,0,False
195,Coinstats@coinstats,"Ethereum Classic - ETC
Price: $1.2272
Change in 1h: +-0.73%
Market cap: $107778001.0
Ranking: 6
#Ethereum Classic #ETC",0,0,0,False
196,Coinstats@coinstats,"Ethereum - ETH
Price: $9.70913
Change in 1h: +-0.07%
Market cap: $853098597.0
Ranking: 2
#Ethereum #ETH",0,0,0,False
197,Ethereum Price@EthereumPrice_,"#Ethereum: Ether Price Index
1 ETH =0.011600Ƀ XBT = $9.623500 USD
Today: -3.76%⬇︎ Last 24h: -4.01%⬇︎
https://ethereum-price.com",0,0,0,False
198,Olivier Chapiteau@o_chapiteau,"13Jan2017 18:00 UTC #Ether #Blockchain status - Block height @ 2,989,815 - 197,915 unconfirmed tr. - Last fork height @ 2,989,806",0,0,0,False
199,Veki@Veki551155,Markets Update: Cryptocurrency Prices Begin Rebounding - Nigeria Today #altcoin #Ethereum http://nigeriatoday.ng/2017/01/markets-update-cryptocurrency-prices-begin-rebounding…,1,0,0,False
203,peter cresswell@pcresswell,If smart contracts are the new laws then #ethereum needs to build a distributed judge and jury system to arbitrate conflicts soon.,0,0,0,False
204,CryptoRTs +  = @CryptoRTs,RT splix: #Ethereum $ETC hard fork (Diehard protocol upgrade) in just 12 hours. Please upgrade your nodes to Parit… http://bit.ly/2jfILfT,0,0,0,False
206,CryptoRaptor@Cryptopoly,External Verification of Oblivious RAM Using Ethereum’s Smart Contracts https://deepdotweb.com/2017/01/13/external-verification-oblivious-ram-using-ethereums-smart-contracts/… #ethereum #smartcontracts #ORAM,0,0,0,False
207,bitplumber @ionlytweetlol,"Replying to @bobbyclee@JorgeStolfi 
I would RT to my friends, but my txt chats end up like this when I introduce them to bitcoin. #btc #eth #PIVX",1,0,0,False
208,AllformZ BI@AllformZ,New post: 2017 : When #Ethereum Will Go From IT to Enterprise #blockchain http://ow.ly/xS6P307YCnm http://bit.ly/2j8l1Ic,0,0,0,False
212,Faith Emmanuel@residualbitcoin,#ethereum Leaders and Visionaries: Dr. Aron Fischer #bitcoin #blockchain #medium https://medium.com/@status.im/ethereum-leaders-and-visionaries-dr-aron-fischer-ddc982bb2960… #ResidualBitcoin,0,0,0,False
213,Faith Emmanuel@residualbitcoin,Markets Update: Cryptocurrency Prices Begin Rebounding - #bitcoin News #Ethereum #litecoin https://news.bitcoin.com/markets-update-cryptocurrency-rebounding… …Markets Update: Cryptocurrency Prices Begin Rebounding – Featured Bitcoin NewsThe past week in the cryptocurrency space has been interesting to say the least. Since our last market update many of the top digital assets including bitconews.bitcoin.com,0,0,0,False
214,Veki@Veki551155,#ethereum Leaders and Visionaries: Dr. Aron Fischer #bitcoin #blockchain #medium https://medium.com/@status.im/ethereum-leaders-and-visionaries-dr-aron-fischer-ddc982bb2960…,0,0,0,False
215,Veki@Veki551155,Markets Update: Cryptocurrency Prices Begin Rebounding - #bitcoin News #Ethereum #litecoin https://news.bitcoin.com/markets-update-cryptocurrency-rebounding…,0,0,0,False
217,Naved Narayan@NavedNarayan,"#Microsoft has added #Truffle  to its developer toolkit @azure #smartcontract #soldity #ethereum https://media.consensys.net/microsoft-brings-consensys-built-developer-toolkit-truffle-to-enterprise-5725ea8d0365#.xaprn3kzf…
#smartcontractMicrosoft Brings ConsenSys Built Developer Toolkit, Truffle to EnterpriseMicrosoft is offering an even broader range of Ethereum tools in its Azure Marketplace with the addition of the Truffle development…media.consensys.net",0,0,0,False
218,BitcoinAgile@bitcoinagile,Markets Update: Cryptocurrency Prices Begin Rebounding - #bitcoin News #Ethereum #litecoin https://news.bitcoin.com/markets-update-cryptocurrency-rebounding…,1,1,0,False
220,Coinstats@coinstats,"Ethereum Classic - ETC
Price: $1.23927
Change in 1h: +1.33%
Market cap: $108836289.0
Ranking: 6
#Ethereum Classic #ETC",0,0,0,False
221,Bobe'bot@Bobe_bot,"1 #BTC = 864.616 #CHF
1 #ETH = 10.2033 #CHF
1 #DOGE = 0.000219559248 #CHF
sources: @cryptonatorcom @hellobity",0,0,0,False
222,Coinstats@coinstats,"Ethereum - ETH
Price: $9.73138
Change in 1h: +-0.01%
Market cap: $855041706.0
Ranking: 2
#Ethereum #ETH",0,0,0,False
223,/r/Ethereum@r_Ethereum,"Decentralized Capital’s exchange, IDEX, is live on the testnet for public testing #Ethereum http://ift.tt/2j8mVbN",1,0,0,False
224,Vindyne8@Vindyne8,ChronoBank: timebanking for the free market https://blog.chronobank.io/chronobank-timebanking-for-the-free-market-f7c71997c108#.d5rpyp4l2… #BTC #ETH $WAVES #ETC #NEM #EMC #LTC,15,16,0,False
225,Blockgeeks@Blockgks,#Ethereum And #Bitcoin: What's The Difference? http://buff.ly/2j4lE5i,2,2,0,False
227,☭☭S O C I A L I S M O!☭☭@J_K_Smothers,"I Like ""#Sword of #Darkness."" It has an ethereal connotation I find comforting. And I love #ether.Quote TweetBen Mankiewicz@BenMank77 · Jan 13, 2017Well, if it says ""Sword of Darkness,"" you and I will never speak again. https://twitter.com/cenkuygur/status/819819949585633281…",0,0,0,False
228,Mathijs@mathijsfietst,@github down? Time to look at Mango! https://medium.com/@alexberegszaszi/mango-git-completely-decentralised-7aef8bcbcfe6#.pj1r4eqk2… #git on #ipfs using #ethereum,24,21,1,False
229,/r/Ethereum@r_Ethereum,Reverse resolution now available on Ropsten ENS! #Ethereum http://ift.tt/2jg1J5C,0,0,0,False
230,/r/Ethereum@r_Ethereum,Joseph Lubin: Interview by Status #Ethereum http://ift.tt/2jfMQQC,1,0,0,False
231,/r/Ethereum@r_Ethereum,WhatsApp backdoor allows snooping on encrypted messages | Technology #EthereumWhatsApp backdoor allows snooping on encrypted messages | TechnologyPosted in r/ethereum by u/TonyMcCarp • 49 points and 18 commentsreddit.com,0,0,0,False
232,Faith Emmanuel@residualbitcoin,#bitcoin: This is Not the Same as 2013 - CoinDesk #ethereum #trading #news #Prices http://coindesk.com/bitcoin-not-2013…  #Resid…,0,0,0,False
233,Edward Bukstel@ebukstel,"Money transfer service SWIFT trailing #blockchain
http://klou.tt/16z9x7yqgelht
#Ethereum
#Fintech",1,3,0,False
234,Veki@Veki551155,#bitcoin: This is Not the Same as 2013 - CoinDesk #ethereum #trading #news #Prices http://coindesk.com/bitcoin-not-2013…,0,0,0,False
235,BitcoinAgile@bitcoinagile,#bitcoin: This is Not the Same as 2013 - CoinDesk #ethereum #trading #news #Prices http://coindesk.com/bitcoin-not-2013…,0,0,0,False
241,Brave New Coin@bravenewcoin,#Ethereum Price: USD $9.58 $ETH http://ow.ly/6UKf3048WBe,0,0,0,False
242,Stephan Tual@stephantual,"Super easy way to get started with the Ethereum Name Service via Mist! #ethereum #ens #dns #blockchainQuote TweetAlex Van de Sande (avsa.eth)@avsa · Jan 13, 2017Help us alpha test the ENS system by registering a .eth name on the testnet. Point Mist (or compatible app) to https://ethereum.github.io/ens-registrar-dapp/…",6,2,0,False
243,Blockgeeks@Blockgks,How Can #Blockchain Technology Help Fight Air Pollution? http://dld.bz/fnrst #Ethereum #airpollution,0,0,0,False
245,Coinstats@coinstats,"Ethereum Classic - ETC
Price: $1.22384
Change in 1h: +1.4%
Market cap: $107479413.0
Ranking: 6
#Ethereum Classic #ETC",0,0,0,False
246,Coinstats@coinstats,"Ethereum - ETH
Price: $9.74506
Change in 1h: +0.1%
Market cap: $856231763.0
Ranking: 2
#Ethereum #ETH",0,0,0,False
247,RandallBarnes@RandallBarnes,What is #Ethereum? A Beginners Guide #blockchain http://buff.ly/2ijbn6M,0,0,0,False
248,/r/Ethereum@r_Ethereum,Ethereum block 3´000´000 and SpaceX return to flight happening this weekend. Take care everyone! #EthereumEthereum block 3´000´000 and SpaceX return to flight happening...Just wanted to wish you well!reddit.com,1,0,0,False
251,Faith Emmanuel@residualbitcoin,Swarm #ethereum #swarm http://swarm-gateways.net/bzz:/theswarm.eth…  #ResidualBitcoin,0,0,0,False
252,BitcoinAgile@bitcoinagile,Swarm #ethereum #swarm http://swarm-gateways.net/bzz:/theswarm.eth…,1,0,0,False
253,WeaveChain@WeaveChain,[Must read] :A Shanghai-based blockchain company wants to unify #BTC & #ETH blockchain applications. @Qtun>> http://ow.ly/3GyC307Yttv,0,0,0,False
254,βASSΞM@bktita,[Must read] :A Shanghai-based blockchain company wants to unify #BTC & #ETH blockchain applications. @Qtun>> http://ow.ly/3GyC307Yttv,0,0,0,False
255,Richard ~ ₿@blockchainbros,I/O Coin (IOC) update: Getting into last stages before DIONS release. Check update: https://bitcointalk.org/index.php?topic=695855.msg17494383#msg17494383… #blockchain #iocoin $xmr $eth,1,0,0,False
256,/r/Ethereum@r_Ethereum,Han of Otonomos // Ethereum Thought Leaders #EthereumHan of Otonomos // Ethereum Thought LeadersPosted in r/ethereum by u/raph_alice • 9 points and 0 commentsreddit.com,0,0,0,False
257,/r/Ethereum@r_Ethereum,"Mining currencies #EthereumMining currenciesHi all, I'm a bit confused of how to mine cryptocurrencies in a profitable way. The coins I would like to mine are litecoins, or others, any...reddit.com",0,0,0,False
258,Hyperletter@hypernewsletter,Qtum wants to unify #Bitcoin and #Ethereum #Blockchain applications - TechNode https://apple.news/Ahi2XjpKNOX2YT9mlqytZow…,1,0,0,False
259,/r/Ethereum@r_Ethereum,Solidity gas golf #EthereumSolidity gas golfPosted in r/ethereum by u/chriseth • 18 points and 2 commentsreddit.com,0,0,0,False
260,/r/Ethereum@r_Ethereum,"Can a transaction send notification by SMS or email? #EthereumCan a transaction send notification by SMS or email?Can such a functionality be integrated, into say Mist, for any public address?reddit.com",0,0,0,False
261,Coinstats@coinstats,"Ethereum Classic - ETC
Price: $1.20747
Change in 1h: +0.16%
Market cap: $106039450.0
Ranking: 6
#Ethereum Classic #ETC",0,0,0,False
262,Coinstats@coinstats,"Ethereum - ETH
Price: $9.79282
Change in 1h: +0.36%
Market cap: $860410849.0
Ranking: 2
#Ethereum #ETH",0,0,0,False
263,Ethereum Price@EthereumPrice_,"#Ethereum: Ether Price Index
1 ETH =0.011874Ƀ XBT = $9.668450 USD
Today: -1.49%⬇︎ Last 24h: +15.25%⬆︎
https://ethereum-price.com",0,0,0,False
264,BO@b2o101,free ethereum every 5 minute  https://goo.gl/9vLnB8 #ethereum #bitcoin #blockchain #dogecoin #crypto #satoshi,1,0,0,False
265,Kenzo@KenzoArai,"Japanese translation of an article ""The birth of enterprise Ethereum""
http://ethereum-japan.net/ethereum/the-birth-of-enterprise-ethereum-in-2017/…
#Ethereum #EnterpriseEthereum #ConsenSys2017エンタープライズイーサリアムの誕生　Consensys公式発表 - イーサリアム・ジャパン目次企業のイーサリアムブロックチェーンブロックチェーンの新時代イーサリアムのエンタープライズ商品としての価値なぜ企業がイーサリアムを導入するのか？1.イーサリアムのソフトウェアは広く入手が可能2.イーサリアムは色々な用途...ethereum-japan.net",0,0,0,False
266,BNK Invest@bnkinvest,How The Parts Add Up: $ITB Targets $32 $ETH $NX $BECN #etfs http://dlvr.it/N5x0g1,0,0,0,False
267,Nick Zeeb@NickZeeb,"Developers: People Will End Up Using Ethereum Without Knowing It
#Ethereum
https://cointelegraph.com/news/developers-people-will-end-up-using-ethereum-without-knowing-it…",0,0,0,False
268,ethereum.network@EthereumNetw,"If any #blockchain programmers are near San Mateo this weekend:
http://draperuniversity.com/hack-city/
Let's show the world what #Ethereum can do!",2,0,0,False
270,ChainGame@bchain2014,Young BTC is out! http://paper.li/e-1435048282?edition_id=f648cab0-d99c-11e6-8c0f-0cc47a0d1605… Feeds Selected by: Amin Harhara #bitcoin #ethereum,0,0,0,False
271,Crypdex@CrypdexLLC,converted 80.59 mBTC $64.56 USD to #ETC #Ethereum,0,0,0,False
272,WHO@WHODISCO,"BIGDDL CRYPTOCURRENCY,MOVIES, SERIES, IPTV,SHARING,WEBHOSTING,MARKETPLACE
https://goo.gl/h5djxE
#bitcoin #ethereum #altcoin #movies #serie",1,0,0,False
281,Ethereum SE@StackEthereum,Is it possible to send a smart contract to an adress wallet? http://ethereum.stackexchange.com/questions/11372/is-it-possible-to-send-a-smart-contract-to-an-adress-wallet… #ethereum #solidity #blockchain #privateblockchain,0,0,0,False
283,Veki@Veki551155,How Qtum Makes #ethereum Contracts Run on the UTXO Model #bitcoin #blockchain #consensus http://blockchaindailynews.com/How-Qtum-Makes-Ethereum-Contracts-Run-on-the-UTXO-Model_a24949.html…,1,0,0,False
285,Faith Emmanuel@residualbitcoin,How Qtum Makes #ethereum Contracts Run on the UTXO Model #bitcoin #blockchain #consensus http://blockchaindailynews.com/How-Qtum-Makes-Ethereum-Contracts-Run-on-the-UTXO-Model_a24949.html…  …,0,0,0,False
286,BitcoinAgile@bitcoinagile,How Qtum Makes #ethereum Contracts Run on the UTXO Model #bitcoin #blockchain #consensus http://blockchaindailynews.com/How-Qtum-Makes-Ethereum-Contracts-Run-on-the-UTXO-Model_a24949.html…,2,1,0,False
287,Blockgeeks@Blockgks,What does #Zcash mean for #Ethereum? http://dld.bz/fhyWt #blockchain,1,1,0,False
288,Coinstats@coinstats,"Ethereum Classic - ETC
Price: $1.20591
Change in 1h: +2.18%
Market cap: $105900647.0
Ranking: 6
#Ethereum Classic #ETC",0,0,0,False
289,/r/Ethereum@r_Ethereum,Help us test the ENS by registering a name on the testnet using this app on Mist #EthereumHelp us test the ENS by registering a name on the testnet using...Posted in r/ethereum by u/avsa • 53 points and 31 commentsreddit.com,0,0,0,False
290,BO@b2o101,free ethereum every 60 minute https://goo.gl/QwsPz9 #ethereum #bitcoin #blockchain #dogecoin #crypto #satoshi,2,1,0,False
291,/r/Ethereum@r_Ethereum,Solidity Version 0.4.8 Released #Ethereum http://ift.tt/2jEdgsq,0,0,0,False
293,Julia Edling@bitcointonic,Developers: People Will End Up Using #Ethereum Without Being Aware of it: Some of the minds within the Ethereum… http://dlvr.it/N5vgf1,0,0,0,False
294,CryptoGator.co | Crypto and Forex News Aggregator@eBargainsToday,#trading #ethereum #bitcoin #news  … http://dlvr.it/N5vdzF  | Let us advertise for you! Check it out! >>> http://bit.ly/2ijmNpp <<<PatreonPatreon is empowering a new generation of creators. Support and engage with artists and creators as they live out their passions!patreon.com,0,0,0,False
295,/r/Ethereum@r_Ethereum,University of Hamburg survey - blockchain for financial services #EthereumUniversity of Hamburg survey - blockchain for financial servicesreddit.com,0,0,0,False
296,/r/Ethereum@r_Ethereum,Developers: People Will End Up Using Ethereum Without Knowing It #Ethereum http://ift.tt/2jrfcFx,0,0,0,False
298,Veki@Veki551155,Cryptocurrency Initiative ChronoBank to Launch LaborX Exchange  Finance Magnates #Ethereum http://bit.ly/2jeDdC6,0,0,0,False
299,/r/Ethereum@r_Ethereum,Dev diary week 2 #Ethereum http://ift.tt/2jeVsHL,0,0,0,False
300,Anthony Schmitt Financial Services | Trader@BourseetTrading,.@CoinTelegraph Developers: People Will End Up Using #Ethereum Without Knowing It http://goo.gl/QFxO7Q  .@ethstatus By .@olusegunisrael,2,2,0,False
301,Faith Emmanuel@residualbitcoin,Cryptocurrency Initiative ChronoBank to Launch LaborX Exchange  Finance Magnates #Ethereum http://bit.ly/2jeDdC6 …,0,0,0,False
302,BitcoinAgile@bitcoinagile,Cryptocurrency Initiative ChronoBank to Launch LaborX Exchange  Finance Magnates #Ethereum http://bit.ly/2jeDdC6,0,0,0,False
303,Раб Божий@Diener_Gottes,Developers: People Will End Up Using #Ethereum Without Knowing It: Several new projects are… https://goo.gl/fb/Cj2NzG,1,0,0,False
304,CryptoCompare@CryptoCompare,What algorithm does #Ethereum use for its Proof of Work? - Ethereum Beginner Quizz http://ow.ly/zuqf306Oi5v,0,0,0,False
305,Blockgeeks@Blockgks,Could #Blockchain Technology Bankrupt Spotify? A Music Revolution http://buff.ly/2cWIfNM #ethereum #bitcoin,0,0,0,False
306,Coinstats@coinstats,"Ethereum Classic - ETC
Price: $1.182
Change in 1h: +-0.11%
Market cap: $103799203.0
Ranking: 6
#Ethereum Classic #ETC",0,0,0,False
309,✭ Alex Gato ✭@AlexGato2,"Yeah, my trap going techno!
.
.
.
.
.
#galicia #techno #cv #varelive #cristianvarela #ether… https://instagram.com/p/BPNIkxuh04b/",0,0,0,False
310,Bitpanther@BitPanther,#Ethereum $ETC hard fork (Diehard protocol upgrade) in just 12 hours. Please upgrade your nodes to Parity 1.4.8+ or Geth 3.2.3+,1,1,0,False
311,need-bitcoin.com@need_bitcoin,Developers: People Will End Up Using #Ethereum Without Knowing It: This material was… https://goo.gl/fb/XkRp9F,1,0,0,False
313,Alberto Jauregui | esoteRICK.eth @DisruptBanksy,http://ift.tt/2jLLDBK Developers: People Will End Up Using Ethereum Without Knowing It - CoinTelegraph #ethereum #ether,0,0,0,False
314,Ethereum Monkey@EthMonkey,Developers: People Will End Up Using Ethereum Without Knowing It #ethereum https://cointelegraph.com/news/developers-people-will-end-up-using-ethereum-without-knowing-it…,0,0,0,False
315,Ξ Fly Guy Ξ (flyguy.eth)@FlyGuyInTheSky,"Replying to @FlyGuyInTheSky#ICONOMI available tokens aimed at #ethereum buy $1000 now... if it gets where #eth is now $9.60 it will be worth $28,500 ",0,0,0,False
317,BlackBullTradingPost ₿   @BlackBullTradn,CoinTelegraph: Developers: People Will End Up Using #Ethereum Without Knowing It http://goo.gl/QFxO7Q ethstatus - By olusegunisrael,0,0,0,False
318,/r/Ethereum@r_Ethereum,"Introducing Blockjack, a Blackjack implementation for Ethereum (Status, Mist & Metamask compatible) #Ethereum http://ift.tt/2iP4qb3",0,0,0,False
319,LAPITH@bhumharit,RT: Developers: People Will End Up Using #Ethereum Without Knowing It http://goo.gl/QFxO7Q ethstatus - By olusegunisrael,0,0,0,False
320,LAPITH@bhumharit,Developers: People Will End Up Using #Ethereum Without Knowing It http://goo.gl/QFxO7Q ethstatus - By olusegunisrael,0,0,0,False
323,mahesh mathpal@mahesh_mathpal,The future is a decentralized internet http://ln.is/gYAcb via @techcrunch #blockchain #Ethereum by #joergresch via @c0nvey,0,0,0,False
324,Dmitry ButΞrin@BlockGeekDima,#Ethereum And #Bitcoin: What's The Difference? http://buff.ly/2j4kmrf,1,0,0,False
325,Brave New Coin@bravenewcoin,#Ethereum Price: USD $9.64 $ETH http://ow.ly/6UKf3048WBe,0,0,0,False
331,Coinstats@coinstats,"Ethereum Classic - ETC
Price: $1.18341
Change in 1h: +-0.53%
Market cap: $103921378.0
Ranking: 6
#Ethereum Classic #ETC",0,0,0,False
332,Coinstats@coinstats,"Ethereum - ETH
Price: $9.78467
Change in 1h: +0.4%
Market cap: $859655550.0
Ranking: 2
#Ethereum #ETH",0,0,0,False
333,Ethereum Price@EthereumPrice_,"#Ethereum: Ether Price Index
1 ETH =0.011982Ƀ XBT = $9.668990 USD
Today: -0.60%⬇︎ Last 24h: -0.90%⬇︎
https://ethereum-price.com",0,0,0,False
334,Ethereum SE@StackEthereum,Storing hardcoded calldata in a Solidity contract http://ethereum.stackexchange.com/questions/11369/storing-hardcoded-calldata-in-a-solidity-contract… #ethereum #solidity #bytes #encoding,0,0,0,False
336,/r/Ethereum@r_Ethereum,Certificating what computer programs work #EthereumCertificating what computer programs workPosted in r/ethereum by u/janjko • 3 points and 1 commentreddit.com,2,0,0,False
337,/r/Ethereum@r_Ethereum,ICONOMI raising should I invest on it ? #EthereumICONOMI raising should I invest on it ?reddit.com,1,0,0,False
339,Ethereum SE@StackEthereum,Ethereum's definition of difficulty and hash rate http://ethereum.stackexchange.com/questions/11368/ethereums-definition-of-difficulty-and-hash-rate… #ethereum #goethereum #privateblockchain #difficulty,0,0,0,False
340,Vindyne8@Vindyne8,"#RT Timebanking, Ethereum, and ChronoBank’s Advancement http://news.coincap.io/2017/01/timebanking-ethereum-and-chronobanks-advancement/… #ethereum #blockchain #bitcoin #ETH",15,17,0,False
341,Foxes Den@foxesden34,External Verification of Oblivious RAM Using Ethereum’s Smart Contracts http://paper.li/f-1473176678?read=https%3A%2F%2Fwww.deepdotweb.com%2F2017%2F01%2F13%2Fexternal%2Dverification%2Doblivious%2Dram%2Dusing%2Dethereums%2Dsmart%2Dcontracts%2F… #ethereum,0,0,0,False
342,Ameer Rosic@AmeerRosic,Is #Youtube in Trouble? #Blockchain is coming! http://bit.ly/1tgKTVz #ethereum #bitcoin,0,0,0,False
343,Ethereum SE@StackEthereum,Why does this Oraclize query only works once? http://ethereum.stackexchange.com/questions/4029/why-does-this-oraclize-query-only-works-once… #ethereum #testnets #contractdeployment #oracles #externalapi,0,0,0,False
345,Info Wisata@beri451,Free Ethereum https://goo.gl/kY2WK8 #bitcoin #Panama #altcoin #eth #price #trading,0,0,0,False
346,StockEarnings.com@StocksEarning,$ETH releasing Earnings on 1/25 After Close (Confirmed). Anybody buying/selling in Earnings? http://ow.ly/wo8v307WxSe,0,0,0,False
352,Alberto Jauregui | esoteRICK.eth @DisruptBanksy,http://ift.tt/2indNxZ Ethereum Price Technical Analysis – ETH/USD Rallies From $9.00 - newsBTC #ethereum #ether,1,0,0,False
353,Stockflare US Page@StockflareUS,$ETH: The forecast EPS for Ethan Allen Interiors Inc. has decreased to $1.94 from $2.05 in the last week. (https://stockflare.com/stocks/ETH),0,0,0,False
354,Stockflare US Page@StockflareUS,$ETH: The earnings of Ethan Allen Interiors Inc. are now forecast to decline. (https://stockflare.com/stocks/ETH),0,0,0,False
356,Alan Draguilow@adraguilow,Check out Status (@ethstatus) - an open source project that will bring #Ethereum to Android and iOS! https://status.im,2,1,0,False
357,Jithendra Antonio@JANTONIO,"Retweeted Igor Artamonov (@splix):

#Ethereum $ETC hard fork (Diehard protocol upgrade) in just 12 hours. Please... http://fb.me/8whAmBjrh",1,0,0,False
358,Coinstats@coinstats,"Ethereum Classic - ETC
Price: $1.1878
Change in 1h: +0.02%
Market cap: $104305474.0
Ranking: 6
#Ethereum Classic #ETC",0,0,0,False
359,Bobe'bot@Bobe_bot,"1 #BTC = 834.9712 #CHF
1 #ETH = 10.2622 #CHF
1 #DOGE = 0.000212283404 #CHF
sources: @cryptonatorcom @hellobity",0,0,0,False
360,Coinstats@coinstats,"Ethereum - ETH
Price: $9.7397
Change in 1h: +-0.08%
Market cap: $855691395.0
Ranking: 2
#Ethereum #ETH",0,0,0,False
361,Ameer Rosic@AmeerRosic,Could #Blockchain Technology Bankrupt #Spotify? http://bit.ly/1tgKTVz #ethereum #bitcoin,0,0,0,False
362,Info Wisata@beri451,Free Bitcoin https://goo.gl/Tqlwkm #bitcoin #Panama #altcoin #eth #price #trading,0,0,0,False
364,CryptoNewswire @CryptoNewswire,Singapore's Status Wants to Bring Ethereum to Every Mobile Device - http://coinjournal.net/singapore-status-ethereum-mobile-devices/… $ETH #finance #investing #cryptocurrency,1,0,0,False
365,Ethereum SE@StackEthereum,Bad Jump Destination error http://ethereum.stackexchange.com/questions/11365/bad-jump-destination-error… #ethereum #solidity,0,0,0,False
366,Ethereum Monkey@EthMonkey,Singapore's Status Wants to Bring Ethereum to Every Mobile Device #ethereum http://coinjournal.net/singapore-status-ethereum-mobile-devices/…,0,0,0,False
367,Alberto Jauregui | esoteRICK.eth @DisruptBanksy,http://ift.tt/2jLrlYX Singapore's Status Wants to Bring Ethereum to Every Mobile Device - CoinJournal (blog) #ethereum #ether,0,0,0,False
368,BitcoinAgile@bitcoinagile,Singapores Status Wants to Bring #ethereum to Every Mobile Device #decentralizedapps(DApps) http://coinjournal.net/singapore-status-ethereum-mobile-devices…,1,0,0,False
369,Veki@Veki551155,Qtum wants to unify #bitcoin and #ethereum #blockchain applications - TechNode http://technode.com/2017/01/13/qtum-wants-to-unify-bitcoin-and-ethereum-blockchain-applications…,0,0,0,False
370,Faith Emmanuel@residualbitcoin,Qtum wants to unify #bitcoin and #ethereum #blockchain applications - TechNode http://technode.com/2017/01/13/qtum-wants-to-unify-bitcoin-and-ethereum-blockchain-applications…  #ResidualB…,0,0,0,False
371,BitcoinAgile@bitcoinagile,Qtum wants to unify #bitcoin and #ethereum #blockchain applications - TechNode http://technode.com/2017/01/13/qtum-wants-to-unify-bitcoin-and-ethereum-blockchain-applications…,5,6,0,False
372,/r/Ethereum@r_Ethereum,Watch ETH rise as people see limitations in Bitcoin #EthereumWatch ETH rise as people see limitations in BitcoinPosted in r/ethereum by u/therealgwiz • 1 point and 1 commentreddit.com,1,0,0,False
373,Ξ Fly Guy Ξ (flyguy.eth)@FlyGuyInTheSky,#ICONOMI up 17% today whilst #bitcoin and #ethereum are up only a few percentage points. #augur up 12% too. It may pay to basket Altcoins.,1,2,0,False
375,Blockgeeks@Blockgks,"Is #Ethereum similar to #Bitcoin? Well, sort of, but not really. http://dld.bz/fcBTc #blockchain",1,0,0,False
376,Coinstats@coinstats,"Ethereum Classic - ETC
Price: $1.18557
Change in 1h: +0.43%
Market cap: $104107979.0
Ranking: 6
#Ethereum Classic #ETC",0,0,0,False
377,Coinstats@coinstats,"Ethereum - ETH
Price: $9.76395
Change in 1h: +0.81%
Market cap: $857809393.0
Ranking: 2
#Ethereum #ETH",0,0,0,False
378,Info Wisata@beri451,free ethereum every 20 minute https://goo.gl/Xtyn34 #bitcoin #Panama #altcoin #eth #price #trading,0,0,0,False
380,Faith Emmanuel@residualbitcoin,Qtum wants to unify #bitcoin and #ethereum #blockchain applications #Technova https://readfulapp.com/site/technova/?tag=News&item=587894e5282838d2703a4027…  #ResidualBi…,0,0,0,False
381,Veki@Veki551155,Qtum wants to unify #bitcoin and #ethereum #blockchain applications #Technova https://readfulapp.com/site/technova/?tag=News&item=587894e5282838d2703a4027…,0,0,0,False
382,Blockgeeks@Blockgks,What are your favorite digital wallets to use and why? http://dld.bz/fevtV #blockchain #bitcoin #ethereum,1,3,1,False
383,Casino Bonus@OurOnlineGaming,Go to #Coinbase the world’s most popular way to buy and sell #bitcoin and #ethereum. Begin using the future of money http://buff.ly/2iV8Jm3,1,0,0,False
384,Coinstats@coinstats,"Ethereum Classic - ETC
Price: $1.18128
Change in 1h: +0.91%
Market cap: $103729613.0
Ranking: 6
#Ethereum Classic #ETC",0,0,0,False
385,Ethereum Price@EthereumPrice_,"#Ethereum: Ether Price Index
1 ETH =0.012092Ƀ XBT = $9.579145 USD
Today: +0.32%⬆︎ Last 24h: -1.22%⬇︎
https://ethereum-price.com",1,0,0,False
386,Coinstats@coinstats,"Ethereum - ETH
Price: $9.68893
Change in 1h: +0.2%
Market cap: $851206096.0
Ranking: 2
#Ethereum #ETH",0,0,0,False
387,BitcoinAgile@bitcoinagile,Qtum wants to unify #bitcoin and #ethereum #blockchain applications #Technova https://readfulapp.com/site/technova/?tag=News&item=587894e5282838d2703a4027…,2,0,0,False
389,CryptoRTs +  = @CryptoRTs,RT jeffehh: Released: #ethereum #golang Geth 1.5.6 - Peach http://bit.ly/2imFFlM,1,0,0,False
391,Info Wisata@beri451,free ethereum every 10 minute https://goo.gl/owY5W3 #bitcoin #Panama #altcoin #eth #price #trading,0,0,0,False
392,BO@b2o101,free ethereum every 5 minute https://goo.gl/QVAov3 #ethereum #bitcoin #blockchain #dogecoin #crypto #satoshi,2,1,0,False
394,Info Wisata@beri451,free ethereu every 20 minute https://goo.gl/78O6jm #bitcoin #Panama #altcoin #eth #price #trading,0,0,0,False
395, Eliza Cheng @ElizaRyenne,Let the bots mine #bitcoin #dogecoin #litecoin #ethereum #gold for you! JOIN NOW at https://eobot.com/user/393610 @eobot,0,0,0,False
397,Brave New Coin@bravenewcoin,#Ethereum Price: USD $9.56 $ETH http://ow.ly/6UKf3048WBe,0,0,0,False
398,Blockgeeks@Blockgks,"Top AMA's with the leaders in #Blockchain, #Bitcoin and #Ethereum http://blockgeeks.com/ama/",1,0,0,False
399,/r/Ethereum@r_Ethereum,"Mist Wallet Sync taking days? #EthereumMist Wallet Sync taking days?In an effort to get my Ether off the exchanges, I decided to try and install the Mist wallet. Unfortunately my solid state drive doesn't have...reddit.com",1,0,0,False
400,Coinstats@coinstats,"Ethereum - ETH
Price: $9.67466
Change in 1h: +-0.13%
Market cap: $849939933.0
Ranking: 2
#Ethereum #ETH",0,0,0,False
402,BO@b2o101,big free ethereum every 60 minute https://goo.gl/Mp2qOl #ethereum #bitcoin #blockchain #dogecoin #crypto #satoshi,2,1,0,False
403,Faith Emmanuel@residualbitcoin,#ethereum Price Technical Analysis  ETH/USD Rallies From $9.00 - #bitcoin News #900 #ETHUSD http://bit.ly/2jdNYVg …,0,0,0,False
404,Faith Emmanuel@residualbitcoin,#ethereum Price Technical Analysis  ETH/USD Rallies From $9.00 - NEWSBTC #Bitcoin #price http://bit.ly/2je3e4R  …,1,0,0,False
405,Veki@Veki551155,#ethereum Price Technical Analysis  ETH/USD Rallies From $9.00 - #bitcoin News #900 #ETHUSD …,2,0,0,False
406,Veki@Veki551155,#ethereum Price Technical Analysis  ETH/USD Rallies From $9.00 - NEWSBTC #Bitcoin #price http://bit.ly/2je3e4R,1,0,0,False
407,BitcoinAgile@bitcoinagile,#ethereum Price Technical Analysis  ETH/USD Rallies From $9.00 - #bitcoin News #900 #ETHUSD http://bit.ly/2jdNYVg,1,0,0,False
408,BitcoinAgile@bitcoinagile,#ethereum Price Technical Analysis  ETH/USD Rallies From $9.00 - NEWSBTC #Bitcoin #price http://bit.ly/2je3e4R,1,0,0,False
409,Alessandro Gattolin@alegatto93,"“#Truffle is now available on #Microsoft #Azure Marketplace” @ConsenSysLLC https://media.consensys.net/truffle-is-now-available-on-microsoft-azure-marketplace-12d646caef59… #Blockchain #EthereumTruffle is now available on Microsoft Azure MarketplaceTruffle, aiming to make life as an Ethereum developer easier.media.consensys.net",0,0,0,False
410,Blockgeeks@Blockgks,"Besides #Ethereum, which blockchains do you think are currently leading the pack http://dld.bz/fcNRx",0,0,0,False
411,Coinstats@coinstats,"Ethereum Classic - ETC
Price: $1.18
Change in 1h: +0.33%
Market cap: $103614101.0
Ranking: 6
#Ethereum Classic #ETC",0,0,0,False
412,Coinstats@coinstats,"Ethereum - ETH
Price: $9.69314
Change in 1h: +1.07%
Market cap: $851550260.0
Ranking: 2
#Ethereum #ETH",0,0,0,False
413,Info Wisata@beri451,free ethereum every 15 minute https://goo.gl/MljKm6 #bitcoin #Panama #altcoin #eth #price #trading,0,0,0,False
414,Vindyne8@Vindyne8,#chronobank BTC correction = good TIME to get your TIME here: chronobank.io You can also use alts! #btc #eth $waves #nem #etc #ltc #emc,17,18,0,False
415,/r/Ethereum@r_Ethereum,Ethereum + A-Frame #Ethereum http://ift.tt/2j6KCBd,1,0,0,False
416,Get Free Dogecoin@GetDogecoin,"GET FREE #DOGE
Win dogecoin every 60 minutes
http://goo.gl/hE5Bk6
#doge #dogecoin
#Ethereum
#bitcoin #litecoin #Amazon",0,0,0,False
418,Info Wisata@beri451,free ethereum every 5 minute https://goo.gl/Eu2q2z #bitcoin #Panama #altcoin #eth #price #trading,0,0,0,False
419,BO@b2o101,free ethereum every 15 minute https://goo.gl/Ssdtwl #ethereum #bitcoin #blockchain #dogecoin #crypto #satoshi,1,0,0,False
420,/r/Ethereum@r_Ethereum,"Meet our Top Contributors, Issue #1 #EthereumMeet our Top Contributors, Issue #1Posted in r/ethereum by u/wtfking • 65 points and 0 commentsreddit.com",2,0,0,False
423,Wizards of the World@tithecoin,"Don't miss our +10% bonus, limited time! Join Tithecoin at http://tithecoin.com ! #investing in #charity with #btc #eth #xcp #steem",1,4,0,False
424,Coinstats@coinstats,"Ethereum Classic - ETC
Price: $1.17815
Change in 1h: +0.35%
Market cap: $103450175.0
Ranking: 6
#Ethereum Classic #ETC",0,0,0,False
425,Coinstats@coinstats,"Ethereum - ETH
Price: $9.59594
Change in 1h: +0.07%
Market cap: $843001334.0
Ranking: 2
#Ethereum #ETH",0,0,0,False
426,Ethereum Price@EthereumPrice_,"#Ethereum: Ether Price Index
1 ETH =0.012077Ƀ XBT = $9.543000 USD
Today: +0.19%⬆︎ Last 24h: -1.05%⬇︎
https://ethereum-price.com",1,0,0,False
427,Olivier Chapiteau@o_chapiteau,"13Jan2017 06:00 UTC #Ether #Blockchain status - Block height @ 2,986,770 - 187,285 unconfirmed tr. - Last fork height @ 2,986,764",0,0,0,False
429,Info Wisata@beri451,free ethereum every 15 minute https://goo.gl/DVnBbi #bitcoin #Panama #altcoin #eth #price #trading,0,0,0,False
430,BO@b2o101,free ethereum every 15 minute  https://goo.gl/DVnBbi #ethereum #bitcoin #blockchain #dogecoin #crypto #satoshi,1,1,0,False
431,Chrono.tech@ChronotechNews,#RT Timebanking for the free market https://blog.chronobank.io/chronobank-timebanking-for-the-free-market-f7c71997c108#.aa0ndakrn… #blockchain #bitcoin #Ethereum #ETH #chronobank #wavesplatform,4,4,0,False
432,Ethereum SE@StackEthereum,where are the parity log files in daemon mode http://ethereum.stackexchange.com/questions/11363/where-are-the-parity-log-files-in-daemon-mode… #ethereum #parity,1,0,0,False
435,Info Wisata@beri451,free ethereum every 15 minute https://goo.gl/Ssdtwl #bitcoin #Panama #altcoin #eth #price #trading,0,0,0,False
436,CryptoNewswire @CryptoNewswire,Ethereum Price Technical Analysis ETH/USD Rallies From $9.00 - http://newsbtc.com/2017/01/13/ethereum-price-technical-analysis-ethusd-rallies-9-00/… $ETH #markets #crypto #cryptocurrencyEthereum Price Technical Analysis – ETH/USD Rallies From $9.00Ethereum price after yesterday’s collapse found support near $9.00 against the US Dollar. The ETH/USD is now back higher and in the bullish zone.newsbtc.com,0,0,0,False
437,Ethereum Monkey@EthMonkey,Ethereum Price Technical Analysis - ETH/USD Rallies From $9.00 - NEWSBTC #ethereum http://newsbtc.com/2017/01/13/ethereum-price-technical-analysis-ethusd-rallies-9-00/…,0,0,0,False
438,Coinstats@coinstats,"Ethereum Classic - ETC
Price: $1.17471
Change in 1h: +-0.94%
Market cap: $103146987.0
Ranking: 6
#Ethereum Classic #ETC",0,0,0,False
439,Bobe'bot@Bobe_bot,"1 #BTC = 822.8017 #CHF
1 #ETH = 10.1415 #CHF
1 #DOGE = 0.00020903932 #CHF
sources: @cryptonatorcom @hellobity",0,0,0,False
440,Coinstats@coinstats,"Ethereum - ETH
Price: $9.58407
Change in 1h: +-0.87%
Market cap: $841944568.0
Ranking: 2
#Ethereum #ETH",0,0,0,False
441,Ethereum SE@StackEthereum,Proof of Work figures http://ethereum.stackexchange.com/questions/11362/proof-of-work-figures… #ethereum #mining #proofofstake #proofofwork #difficulty #hashrate,0,0,0,False
442,Ameer Rosic@AmeerRosic,5 Blockchain Applications That will Revolutionize The world http://bit.ly/1U4aha8 #Blockchain #Bitcoin #ethereum,4,0,0,False
443,Info Wisata@beri451,free ethereum every 10 minute https://goo.gl/oHlYsc #bitcoin #Panama #altcoin #eth #price #trading,0,0,0,False
444,ΞTHΞЯΞUM ÐΞV NΞWS ⟠@Eth_Dev_News,Jaxx.io #Ethereum Smart Contract feature http://decentral.ca/jaxx-advanced-send-tab-with-smart-contract-features-released/…  #blockchain #bitcoin #ethdev #gamedev #fintech #IoTGIF,12,21,0,False
446,Ethereum SE@StackEthereum,Ethercamp. Could not start sandbox: Sandbox is not available http://ethereum.stackexchange.com/questions/10260/ethercamp-could-not-start-sandbox-sandbox-is-not-available… #ethereum #ethercamp #ethereumstudio #sandbox,0,0,0,False
447,Ethereum SE@StackEthereum,Generate contract data hex for 'confirm' function on eth multisig wallet http://ethereum.stackexchange.com/questions/10806/generate-contract-data-hex-for-confirm-function-on-eth-multisig-wallet… #ethereum #wallets #multisignature,0,0,0,False
448,Ethereum SE@StackEthereum,Unlock account permanently http://ethereum.stackexchange.com/questions/11102/unlock-account-permanently… #ethereum #accounts #dapps,0,0,0,False
449,Ethereum SE@StackEthereum,Can a contract fetch the global block gas limit? http://ethereum.stackexchange.com/questions/11261/can-a-contract-fetch-the-global-block-gas-limit… #ethereum #solidity #evm #browsersolidity #opcode #assembly,0,0,0,False
450,Ethereum SE@StackEthereum,what happens when we shut down the nodes of a private ethereum network? http://ethereum.stackexchange.com/questions/11288/what-happens-when-we-shut-down-the-nodes-of-a-private-ethereum-network… #ethereum #privateblockchain #nodes,0,0,0,False
451,Ethereum SE@StackEthereum,"web3.eth.getBlock('pending') returns latest block, not pending block, is that expected? http://ethereum.stackexchange.com/questions/11298/web3-eth-getblockpending-returns-latest-block-not-pending-block-is-that-ex… #ethereum #web3js #jsonrpc",0,0,0,False
452,Ethereum SE@StackEthereum,IPFS Integration with dapp developed using Embark Framework http://ethereum.stackexchange.com/questions/11315/ipfs-integration-with-dapp-developed-using-embark-framework… #ethereum #ipfs #embark,0,0,0,False
453,Ethereum SE@StackEthereum,Syncing ethereum testnet http://ethereum.stackexchange.com/questions/11317/syncing-ethereum-testnet… #ethereum #goethereum #synchronization #ropsten,0,0,0,False
454,Ethereum SE@StackEthereum,Get order of magnitude of an integer in solidity http://ethereum.stackexchange.com/questions/11318/get-order-of-magnitude-of-an-integer-in-solidity… #ethereum #solidity #contractdevelopment #integers,0,0,0,False
455,Ethereum SE@StackEthereum,How does solidity detect that Ether has been sent from one address to the other address? http://ethereum.stackexchange.com/questions/11319/how-does-solidity-detect-that-ether-has-been-sent-from-one-address-to-the-other… #ethereum #solidity #ether,1,0,0,False
456,Ethereum SE@StackEthereum,Wrong value returned from function http://ethereum.stackexchange.com/questions/11326/wrong-value-returned-from-function… #ethereum #contractinvocation #struct #mapping,0,0,0,False
457,Ethereum SE@StackEthereum,Cannot read property 'call' of undefined http://ethereum.stackexchange.com/questions/11328/cannot-read-property-call-of-undefined… #ethereum #solidity #truffle,0,0,0,False
458,Ethereum SE@StackEthereum,Speeding up Ethereum transactions http://ethereum.stackexchange.com/questions/11330/speeding-up-ethereum-transactions… #ethereum #goethereumSpeeding up Ethereum transactionsI am load-testing Ethereum using a private network of two nodes. The DApp is a web-service which stores and retrieves data in/from a smart-contract deployed in the private Ethereum. For load-testin...ethereum.stackexchange.com,0,0,0,False
459,Ethereum SE@StackEthereum,How to find the contract wallet JSON and ABI http://ethereum.stackexchange.com/questions/11331/how-to-find-the-contract-wallet-json-and-abi… #ethereum #wallets #jsonrpc #abi #myetherwallet #multisignature,0,0,0,False
460,Ethereum SE@StackEthereum,parity Ropsten testnet forked at block 296151? http://ethereum.stackexchange.com/questions/11334/parity-ropsten-testnet-forked-at-block-296151… #ethereum #testnets #parity #forks,0,0,0,False
461,Ethereum SE@StackEthereum,"Ways to manage disk space? (e.g., running geth/Mist in ""full,"" ""fast"" and/or ""light"") http://ethereum.stackexchange.com/questions/11342/ways-to-manage-disk-space-e-g-running-geth-mist-in-full-fast-and-or-li… #ethereum #goethereum #mist",0,0,0,False
462,Ethereum SE@StackEthereum,How to improve events watching? http://ethereum.stackexchange.com/questions/11344/how-to-improve-events-watching… #ethereum #web3js #events,1,0,0,False
463,Ethereum SE@StackEthereum,Architecture Design Dapp http://ethereum.stackexchange.com/questions/11345/architecture-design-dapp… #ethereum #blockchain #decentralization #dappdesign,1,0,0,False
464,Ethereum SE@StackEthereum,int256 range on geth command line http://ethereum.stackexchange.com/questions/11346/int256-range-on-geth-command-line… #ethereum #goethereum #console #integers,0,0,0,False
465,Ethereum SE@StackEthereum,bytes - quotes or not? http://ethereum.stackexchange.com/questions/11347/bytes-quotes-or-not… #ethereum #goethereum #solidity #contractinvocation #bytes32,0,0,0,False
466,Ethereum SE@StackEthereum,put address->int mapping values in array on geth command line http://ethereum.stackexchange.com/questions/11349/put-address-int-mapping-values-in-array-on-geth-command-line… #ethereum #goethereum #testrpc #mapping,0,0,0,False
467,Ethereum SE@StackEthereum,Where can I find Ethereum current and future milestones and what each one accomplishes? [duplicate] http://ethereum.stackexchange.com/questions/11350/where-can-i-find-ethereum-current-and-future-milestones-and-what-each-one-accomp… #ethereum #ether,1,0,0,False
468,Ethereum SE@StackEthereum,What is the best way to see Ethereum's growth adoption of users and developers? http://ethereum.stackexchange.com/questions/11351/what-is-the-best-way-to-see-ethereums-growth-adoption-of-users-and-developers… #ethereum #ether,1,0,0,False
469,Ethereum SE@StackEthereum,Error openning the Ethereum wallet win64 0-8-8 on Windows 10 http://ethereum.stackexchange.com/questions/11352/error-openning-the-ethereum-wallet-win64-0-8-8-on-windows-10… #ethereum #mist #ethereumwalletdapp #nodes #windows,1,0,0,False
470,Ethereum SE@StackEthereum,Disabling and removing parity? http://ethereum.stackexchange.com/questions/11359/disabling-and-removing-parity… #ethereum #goethereum #ethereumwalletdapp #parity,0,0,0,False
471,Ethereum SE@StackEthereum,go-ethereum nodes using docker swarm ? http://ethereum.stackexchange.com/questions/11361/go-ethereum-nodes-using-docker-swarm… #ethereum #goethereum #docker,1,0,0,False
472,InterCooler@intercooleronli,Ethan Allen Interiors Inc. $ETH Shares Bought by Old Mutual Global Investors UK Ltd. http://zpr.io/PznG3,0,0,0,False
483,Info Wisata@beri451,free ethereum every 600 minute https://goo.gl/VOo9pg #bitcoin #Panama #altcoin #eth #price #trading,0,0,0,False
484,BO@b2o101,free ethereum every 15 minute https://goo.gl/bDA2Oj #ethereum #bitcoin #blockchain #dogecoin #crypto #satoshi,0,0,0,False
485,Ethereum SE@StackEthereum,go-ethereum nodes using docker swarm ? http://ethereum.stackexchange.com/questions/11361/go-ethereum-nodes-using-docker-swarm… #ethereum #goethereum #docker,0,0,0,False
486,/r/Ethereum@r_Ethereum,Can bitcoin make ethereum obsolete? #EthereumCan bitcoin make ethereum obsolete?Could they upgrade Bitcoin so that it is capable of doing all the things that make ethereum different?reddit.com,0,0,0,False
487,/r/Ethereum@r_Ethereum,"ICONOMI 10,682,516.42 USD Raised.. should i do the same? #EthereumICONOMI 10,682,516.42 USD Raised.. should i do the same?reddit.com",0,0,0,False
488,Ameer Rosic@AmeerRosic,5 Blockchain Applications That Will Transform Society http://bit.ly/1U4aha8 #Blockchain #Bitcoin #ethereum,1,2,0,False
489,Brave New Coin@bravenewcoin,#Ethereum Price: USD $9.48 $ETH http://ow.ly/6UKf3048WBe,1,0,0,False
490,Coinstats@coinstats,"Ethereum Classic - ETC
Price: $1.18242
Change in 1h: +-1.88%
Market cap: $103822500.0
Ranking: 6
#Ethereum Classic #ETC",0,0,0,False
491,Coinstats@coinstats,"Ethereum - ETH
Price: $9.65614
Change in 1h: +-1.65%
Market cap: $848263335.0
Ranking: 2
#Ethereum #ETH",0,0,0,False
