,user,text,likes,retweets,replies,is_thread
0,EthBits@EthBits,EthBits Fundraise progress: Join the financial Revolution! Join our Crowdsale!! https://ico.ethbits.com/#bitcoin #ethereum #cryptocurrency #altcoins,107,165,0,False
1,Zvezdana Jovanovic@easymethods,OMG! THIS IS ON FIRE! #bitcoin #ethereum - Multiple Streams of Income on Total Autopilot http://bit.ly/2ljYKH6,1,0,0,False
2,BBA AltcoinPro@AltcoinPro,@ExpanseOfficial #AltcoinPro Members profits rolling in #EXP $EXP #Altcoins #Crypto $DASH $ETH $XMR,2,1,0,False
3,EthBits@EthBits,EthBits ICO has launched!! New P2P exchange with copy trading features http://ico.ethbits.com #ethereum #altcoins #cryptocurrency #bitcoin,65,129,0,False
4,EthBits@EthBits,"EthBits Telegram Chatroom : https://telegram.me/EthBitsChatroom
Join our ICO ! https://ico.ethbits.com
#bitcoin #cryptocurrency #ETHEREUM #Blockchain",66,122,1,False
5,Berbank Consultancy Services - BCS@berbankIT,#questiontime: Are #blockchain projects such as #Monero #Litecoin & #Ethereum a threat 2 global banking & finance https://cryptocoinsnews.com/r3s-denial-russias-sberbank-principles-blockchain/?utm_content=buffere0a68&utm_medium=social&utm_source=twitter.com&utm_campaign=buffer…,5,5,0,False
6,㋡Epi@Epimetheusz,$INCNT will moon with $MobileGO ICO. Active dev team is doing a great job. #incnt #mobilego #btc #eth #pivx #eth #altcoin,6,4,1,False
7,Thepo One@thepo1mbtc,"#Lunyr ICO moving towards 15k ETH, you don't want to miss this, we still have 10 days to go #ETHEREUM #Blockchain #dapps #VirtualReality",1,1,0,False
8,Chris Meyer@OnTopBln,Suddenly everything becomes clear... #personaldevelopment #WorkLifeBalance #asia #insurance #insurtech #Blockchain #ethereum #tech #fintech,5,1,0,False
9,Andreas Lenz@AndyLenz,The 1st real revolution in #venturecapital: crypto tokens  https://medium.com/@stefanobernardi/the-first-real-revolution-in-venture-capital-crypto-tokens-937f7ab53d21… #ethereum #ICOs,3,0,0,False
10,Gary Ashby@Gary_Ashby,"Impressive to see the applications of #blockchain technology coming through. 
 #Ethereum #Microsoft http://buff.ly/2oaVbnr",1,0,0,False
11,MetaGold@MetaGoldDev,PRE-ICO announcement in preparation. Going to focus our efforts on a single game. $MEG $ETH #ethereum #blockchain,53,407,1,False
12,J darwin@Jj426J,"$BCN more expensive, grab fast dude!
#poloniex $ETH $MYR $PINK $LTC $BTC $ETC $SDC $DCR",4,0,0,False
13,Aspects of #Engineering@AspectEngineers,"Good question... #blockchain #ethereum #monero #Litecoin #technology #Engineering #FutureofEurope #banking #bankingtechnologyQuote TweetBerbank Consultancy Services - BCS@berbankIT · Apr 17, 2017#questiontime: Are #blockchain projects such as #Monero #Litecoin & #Ethereum a threat 2 global banking & finance https://cryptocoinsnews.com/r3s-denial-russias-sberbank-principles-blockchain/?utm_content=buffere0a68&utm_medium=social&utm_source=twitter.com&utm_campaign=buffer…",3,1,0,False
14,SimpleFX@SimpleFXcom,"Crypto update:
#Bitcoin 1205
#Ethereum 49
#Litecoin 9.6",3,1,0,False
15,BlockApps@blockapps,Good details on some of the things you can expect out off EEA http://buff.ly/2pGcz4Y #ethereum #blockchain,2,0,0,False
16,ΞTHΞROll@etheroll,"Feeling lucky?  Try our #Ethereum dice game today at http://etheroll.com. Low 1% house edge, instant payouts, no deposits.",14,8,1,False
17,Anil Sethi@anilsethi,"#Entrepreneur in the making: My students from #ETH already recognised by #ClimateKIC. The future is bright #startupETH Technology entrepreneursThis is the class of autumn 2016. It's the first one I've taught at ETH Zurich (Federal Institute of Technology, Zurich).linkedin.com",5,1,0,False
18,CloudEXPO ®@CloudExpo,Launching FinTech June 6-8 in NYC #BigData #IoT #API #AI #DevOps #FinTech #Serverless #Bitcoin #Ethereum #BlockchainFrom Carmen Gonzalez,34,36,0,False
19,"Realtime Screener: US Premarket, Low float stock@RealScreener",#Pinkcoin #Myriadcoin  100-200% up.   Next is #Curecoin!  Buy in the beginning of run. #bitcoin #ethereum #blockchain #poloniex #btcGIF,3,3,0,False
20, Michael Trooder@cryptocurrency0,#PINKCOIN volume is 44% higher that #ETH #digital_currrency on Poloniex today - https://poloniex.com/exchange#btc_pink…,1,2,0,False
21,Colombina@Colombina_2,#VOISE is a new decentralized #music platform for the artist. #Crowdsale starts on 6th of May. @voiseit #Blockchain #Ethereum #ETH #BTC,0,0,0,False
22,ethereum.network@EthereumNetw,"Ownership of digital goods via #Ethereum
https://medium.com/impossible/lets-talk-about-ownership-6e6c82585472…",2,0,0,False
23,Dan Crane@InfoAddict,#Blockchain: The Battle To Secure Digital Identities #ethereum #ID #IBM #Deloitte #Microsoft http://buff.ly/2pog8NU,22,21,2,False
24,Leviar@leviarcoin_fdn,LeviarCoin crowdfunding statistics available! https://ico.leviarcoin.org/statistics  - Join us and invest now! Starting from 40% bonus #invest #eth #btc,12,11,0,False
25,Bitcoin_Schmitcoin@BTC_Schmitcoin,"For those interested, here is my Chart of the Day:

http://imgur.com/W4oOfZv

Bullish ETHUSD, ETHBTC.

Bearish BTCUSD.

#Ethereum #Crypto17 APR 2017imgur.com",15,7,0,False
26,Cointelegraph@Cointelegraph,"Permissible Smart Contracts Machine Moves to Hyperledger, “No Competition” With #Ethereum https://goo.gl/gm9Eqh - by @odzerPermissible Smart Contracts Machine Moves to Hyperledger, “No Competition” With EthereumBurrow, a permissible smart contract machine, has become a project under Hyperledger. will be available as an engine on a range of industrial Blockchains.cointelegraph.com",10,15,0,False
27,JUNΞ 潤@JUN_SYNQA,"Have you check the #omisego @omise_go #ICO news!? #ETHEREUMPayments Startup Omise Joins Wave of Digital-Coin FundraisingOmise, a Bangkok-based startup backed by Japan’s SBI Investment, plans to raise as much as $16 million selling digital tokens as it builds a new payment service based on blockchain technology.bloomberg.com",5,1,0,False
28,Defi.Central@DefiCentral,"Coin Interview with Bancor Network
https://goo.gl/RXUkGP
@BancorNetwork #bancor #blockchain #cryptocurrency #altcoin #crypto #ethereum",5,4,0,False
29,Vindyne8@Vindyne8,#creditibt Migration is OVER! $CRBIT #credit2.0 #eth #fintech #ethereum #bitcoin #blockchain http://creditbit.org,16,15,0,False
30,Alberto Jauregui | esoteRICK.eth @DisruptBanksy,http://ift.tt/2oDW4ak Ethereum Developers Eye Proof-of-Stake Shift with New Geth Update - CoinDesk #ethereum #ether,1,0,0,False
31,CloudEXPO ®@CloudExpo,Launching FinTech June 6-8 in NYC ▸ http://bit.ly/2eTYYRu #FinTech #AI #ML #DL #IoT #M2M #API #SDN #DevOps #Bitcoin #Ethereum #Blockchain,12,14,0,False
32,Salman Khan@SalmanK84s,Toronto needs more events like this to become a leader in #blockchain innovation  @MaRSDD @BlockchainCAN #ethereum…https://lnkd.in/egV2nVW,1,2,0,False
33,CoinIdol@CoinIdol,"Kenna James & London Keyes to Promote #Porn #Cryptocurrency on #Ethereum
https://coinidol.com/kenna-james-london-keyes-to-promote-porn-cryptocurrency/…
@LegendsRoom @kennajames21 @LondonKeyes",7,3,0,False
34,Alex Sunnarborg@alexsunnarborg,"How do you feel about both #bitcoin & #ethereum after Q1 2017? 

We want to hear from anyone & everyone! :)

http://coindesk.com/survey-bitcoin-ethereum-perform-q1/…",5,5,5,False
35,marco.chain@marc0olo,"fascinated about @aetrnty :-) ... can it be more successful than #ethereum? #blockchain with off-chain transactionsFrequently Asked Questions (FAQ): General QuestionsAnswers to some of the most common, general questions about æternity.blog.aeternity.com",1,3,0,False
36,Tezos@tezos,"We were asked on @Quora, ""How is #Tezos different from #Ethereum?"". Here's one answer by @ArthurB.How is Tezos different from Ethereum?Answer (1 of 3): Tezos is and i quote “A smart contract platform built with formally verifiable code and integrated self-governance.” It shares the same principles as Ethereum but it’s written in a...quora.com",28,13,0,False
37,ConsenSys@Consensys,"""#Ethereum could create a lot of financial applications which Philippine companies can use."" -@JohnLilic http://buff.ly/2pJlJh0",4,1,0,False
38,Token Kitchen@tokenkitchen,DeepMind is building a #blockchain style system to track healthcare records #ethereum http://buff.ly/2pmOTWB,3,1,0,False
39,Lord Snow@lordsnowolf,"Who missed the ride $MYR
It Brokeout too looks like all tiny rate coins are Racing to go ahead of eachother eyes on $DGB Now

$BTC $LTC $ETH",4,2,1,False
40,Apress@Apress,New blog post: Assets Backed by Anything – On Cryptocurrency @chrisdannen #crypotocurrency #ethereum #solidity #Bitcoin,5,6,0,False
41,Swarm City@SwarmCityDApp,April 7 Video of @kingflurkel discussing the project in-depth with @matthewcarano in Portsmouth NH: http://bit.ly/2priwG9 #ethereum,18,14,0,False
42,Samson Mow@Excellion,ECDSA is Satoshi's chosen algorithm. Core plans to deviate from His roadmap with the blasphemous Schnorr signature algorithm. /s,55,15,16,False
43,Plutosky@evecchione75,people should switch to #ethereum if they want a religion,4,0,0,False
44,Johnny Woo@j0hnnyw00,"$DGB #Segwit #Digibyte almost done. 74.25%
$LTC $PINK $ETH $FCT $MYR $XRP $DASH $XMR $AMP $ETC $STR $MAID $STEEM $STRAT $BELA $GNT $DOGE",6,0,0,False
45,Martin (mx)@Ergobug,Back to Earth: An Immersive Reality Experience http://coremedia.info/blockchain-news/item/740-back-to-earth-an-immersive-reality-experience… @backtoearthARG #Gaming #Crypto #Crowdfunding #Blockchain #Ethereum,9,9,0,False
46,Alex.eth@AlexanderFisher,#Ethereum is getting closer to finishing Proof of Stake in prep for hybrid consensus http://buff.ly/2pqJ8r7 #blockchain #fintech,1,0,0,False
47,Miss Khan@misskhan,Blockchain India Week 12-19 May17 https://youtu.be/Nxk4BgJNwg0 #Blockchain #Bitcoin #Ethereum #VitalikButerin http://europeindiaconclave.com @madversityBlockchain India Week 12-19 May 2017Zero Field Labs Presents Vitalik Buterin at Blockchain India Week 12-19 May 2017 Mumbaiyoutube.com,7,9,0,False
48,Blockgeeks@Blockgks,Great lecture about crypto economics from @VitalikButerin #entrepreneur #blockchain #ethereum #cryptocurrency,1,0,0,False
49,Donato Pasqualicchio@techlazy_msft,Launching FinTech June 6-8 in NYC ▸ http://bit.ly/2eTYYRu #FinTech #AI #ML #DL #IoT #M2M #API #SDN #DevOps #Bitcoin #Ethereum #Blockchain.,2,0,0,False
50,Vindyne8@Vindyne8,"Don't be shy, come join the discussion on the #aeternity @telegram channel http://telegram.me/aeternity #ethereum #bitcoin #fintech",14,15,0,False
51,SjaakTrekhaak@Corrax2k,"Read if the 250k #strat price tag for masternodes put you off. There will be other nodes, more affordable and also very profitable.#btc #eth https://twitter.com/MMTintoretto/status/853988214322974720…This Tweet is unavailable.",4,4,0,False
52,Veki@Veki551155,"@Lunyrinc and @Airbitz are now in partnership. Another great step forward! Keep up the great work #lunyr !!
#airbitz #ethereum #blockchain",1,0,0,False
53,SingularDTV@SingularDTV,"One of the best use cases we've seen for #Ethereum in the making!
@Monolith_web3
#adoption #ERC20 #tokencard #banking #fintech https://twitter.com/Monolith_web3/status/842488210131488771…This Tweet is unavailable.",21,10,0,False
54,Ascend Trading@Ascend_Trading,Trade Bitcoin right on our platform! $BTC FREE WEEK DEMO! https://tradezero.co/AscendTrading $SPY $QQQ $VXX $JNUG $GDX $ETH $ETC $GRC $DOGE $BPMX $MACK,3,4,0,False
55,BTCMANAGER@btc_manager,"Read Our #Cryptocurrency Market Outlook for April 17:
https://btcmanager.com/weekly-crypto-market-outlook-apr-17/…
#crypto #altcoins #bitcoin #trading $BTC $ETH $LTC $DASH $XEM",16,12,0,False
56,Bitcoinislife@bitcoinislife,Want to earn #Bitcoin #Humaniq #ZrCoin #Token https://theviralexchange.com/?ref=WeakEnVlnaEz…  Instructional video #startup #btc #ether #ICO https://youtube.com/attribution_link?a=P1_Iz0KL3Lc&u=%2Fwatch%3Fv%3DDgF8p_e3JTk%26feature%3Dshare…,1,2,0,False
57,Christian Seberino@c_seberino,"Antonopoulos: Unlike Ethereum, Bitcoin is Inherently Resistant to Contentious Hard Forks http://buff.ly/2pfttL0 #etc #eth #ethereumclassic",1,1,0,False
58,Omar Bham (Crypt0)@crypt0snews,"https://youtu.be/NyclCGhcI3I April 16th Cryptocurrency News! #cryptocurrency #news #ethereum #blockchain #google #cosmos #april #eastersundayEp. # 367- Cosmos is Epic / Google Tinkers With ETH / ETH Hits 70$... 𝙏𝙝𝙖𝙣𝙠 𝙔𝙤𝙪 𝙁𝙤𝙧 𝙒𝙖𝙩𝙘𝙝𝙞𝙣𝙜!  Remember to subscribe and hit the bell """" icon, so you don't miss your daily cryptocurrency news!-~-~~-~~~...youtube.com",6,1,1,False
59,Ameer Rosic@AmeerRosic,The Most Comprehensive Digital Wallet Guide http://dld.bz/f2Ymx #Bitcoin #Ethereum #Crypto,1,3,0,False
60,Stakenet@XSNofficial,"#PoSWallet: Using the Platform
https://youtube.com/watch?v=2ZNiH6x3YRU…
#POSW #PoSWCoin $POSW $PIVX $DASH $BTC $LTC $ETHPoSWallet Using the PlatformPoSWallet: Stake Your Claim - Official Youtube ChannelPoSWallet is an online staking wallet serving up more than 100 of the most common PoS altcoins, along w...youtube.com",14,12,2,False
61,Brave New Coin@bravenewcoin,#Ethereum Price: USD $48.21 $ETH http://ow.ly/6UKf3048WBe,2,1,0,False
62,𝕵yri 𝕹akamoto @DigiKahvi, Somebody's trying to push $DGB down. NOT gonna happen   #DigiByte #moon #trading #crypto #segwit #blockchain #daytrader $BTC $LTC $ETH,3,0,0,False
63,Imran Bashir@drequinox,"Nice infograph, only one thing missing though :) , #blockchain ! #Ethereum #hyperledger #bitcoin #masteringblockchain #ethldn #IoT #fintechQuote TweetJohn Pearce #cyber & #technology #news@techpearce2 · Apr 16, 2017[#IoT] Internet of Things. Evolution or Revolution
#Infographics
#Data #Connected #AI #Analytics #Cloud #bots",13,10,0,False
64,Chris Burniske@cburniske,"But more importantly, are they racing to incorporate #Bitcoin, #Ethereum, and other cryptoassets?Quote TweetCoinDesk@CoinDesk · Apr 17, 2017Top US Business Schools Are Racing to Incorporate Blockchain http://coindesk.com/top-us-business-schools-race-incorporate-blockchain-education/…",8,2,1,False
65,Imran Bashir@drequinox,"Indeed that is true. Anyone interested in mastering #Blockchain #ethereum #bitcoin #hyperledger #iot can start with https://amazon.co.uk/Mastering-Blockchain-Imran-Bashir-ebook/dp/B01NBBSPCD…Quote TweetMaurizio Luinetti@MauLui · Feb 8, 2017#blockchain potential has still to be leveraged. It will impact all industries: start mastering it now. http://ibm.biz/Bds3Hd",2,5,0,False
66,Anondran@AnondranCrypto,"cnLedger has been hyping $ETH lately......something must be cooking.Quote TweetcnLedger@cnLedger · Apr 17, 2017Two Ethereum & EEA meetups will be held in China this month: Beijing (April 24th) and Shanghai (April 26th)
http://mp.weixin.qq.com/s/1UgBu9H-g3ebQDAuO8msYQ…",5,4,0,False
67,John Lilic ₿ Ξ ∞@JohnLilic,"When @maurycy speaks, he has good things to say #ethereum @ConsenSysLLC @infura_ioQuote TweetMaurycy@maurycy · Apr 17, 2017INFURA supports all 3 popular test chains: https://ropsten.infura.io , https://kovan.infura.io , and now https://rinkeby.infura.io",5,0,0,False
68,BetcoinAG@BetcoinAG,Top Five (5) Reasons You Should Not Berate Players at the Poker Table #poker #etiquette #bitcoin #ethereum #litecoin https://betcoin.ag/top-five-5-reasons-you-should-not-berate-players-poker-table…,2,2,0,False
71,Ajit Kumar@Nathealings,Smart Contracts: The #Blockchain Technology That Will Replace Lawyers http://dld.bz/eYNat #ethereum,1,0,0,False
72,Blockgeeks@Blockgks,"#Blockchain Technology and the Law Are Allies, Not Enemies http://dld.bz/fkYrY #ethereum #fintech",1,0,0,False
73,Squeeze@cryptoSqueeze,"Remember, the SOLE purpose of playing alts is to get MORE $BTC.
Not bagholding mindlessly.
$BTC -> $2k by this year",121,45,10,False
74,₿itsFromHΞavΞn@BitsFromHeaven,At start of the year I wondered whether $ETH could double to $20 b4 $BTC doubled to $2000. Now I'm thinking $ETH can hit $100 b4 $BTC=$2000.,7,1,0,False
75,Dinis Guarda@dinisguarda,"#CryptoCurrencies: #Bitcoin and #Ether, Benefits And Challenges? http://intelligenthq.com.ln.is/wpQYU via @intelligenthq",5,1,0,False
77,RhinoAK@RhinoAK,"ICOtimeline: RT POSWallet: #PoSWallet: Using the Platform
https://youtube.com/watch?v=2ZNiH6x3YRU…
#POSW #PoSWCoin $POSW $PIVX $DASH $BTC $LTC $ETH",0,0,0,False
78,Bitcoin Guru@Bitradamus,Love vbuterin anwser questions on reddit. The hybrid of PoS/PoW will be interesting in the coming months before Serenity. #Ethereum #PoS,0,0,0,False
81,Delivery Web Limited@deliverywebio,$DWB #DeliveryWeb $ETH #Crowdfund has begun! Read about our Uber Style Parcel Delivery Network https://deliveryweb.io #ethereum #token #ico,1,0,0,False
82,BBA AltcoinPro@AltcoinPro,Replying to @AltcoinPro and @BullBearAnalyst@SpreadCoinTeam #AltcoinPro Members trade outstanding risk v reward $SPR #SPR $ETH $DASH $XMR,1,0,0,False
83,/r/Ethereum@r_Ethereum,Coin Interview series: Quick chat with Vitalik and Sasha (Waves) #EthereumCoin Interview series: Quick chat with Vitalik and Sasha (Waves)Posted in r/ethereum by u/cryptopascal • 8 points and 0 commentsreddit.com,0,0,0,False
84,✚Dillon@moredillon,Replying to @moredillonAlso at least 4000 sell wall on kraken. Someone wants $ETH to move down out of this triangle.,1,0,0,False
85,BBA AltcoinPro@AltcoinPro,Replying to @AltcoinPro and @BullBearAnalyst@ExpanseOfficial #AltcoinPro Members profits rolling in #EXP $EXP #Altcoins #Crypto $DASH $ETH $XMR,2,1,0,False
87,Sean@seandotau,“#Ethereum Developers Eye Proof-of-Stake Shift with New Geth Update” http://buff.ly/2prywby #blockchain,3,0,0,False
88,Crypto Live@crypto_c_radio,"#NowPlaying World Crypto Network - Bitcoin Crackdown, Thank You China, Satoshi Who & The Wall at http://cryptocurrencyradio.com #bitcoin #ethereum",0,0,0,False
89,BBA AltcoinPro@AltcoinPro,Replying to @AltcoinPro and @BullBearAnalyst@Pinkcoin_ What a great trade for #AltcoinPro Members! #PINK $PINK #cryptocurrency #altcoins #Blockchain $ETH $XMR $DASH $IOC,2,1,0,False
90,Ethereum Pricebot@ETHPriceBot,"#Eth 24hr Summary:
Last: $47.50
High: $48.30
Low: $47.50
Change: -1.10% | $-0.53
Volume: $ 54198.90
$eth #Ethereum #coinbase",0,0,0,False
91,Coinstats@coinstats,"Ethereum Classic - ETC
Price: $2.6153
Change in 1h: +-0.14%
Market cap: $237150992.0
Ranking: 7
#Ethereum Classic #ETC",0,0,0,False
92,Coinstats@coinstats,"Ethereum - ETH
Price: $48.2447
Change in 1h: +-0.98%
Market cap: $4381034269.0
Ranking: 2
#Ethereum #ETH",0,0,0,False
93,Cross Campus@CrossCampus,TONIGHT join Jason & Angello of @hellosugoi for a step-by-step guide to buying #bitcoin & #ether. http://bit.ly/2p6hRGv,0,0,0,False
94,Blonde_Shazam@blonde_shazam,I'm in the running to win a Ledger Nano S to @bitcoincafe_ch! #win #contest #ledgerwallet #bitcoin #ethereum http://bit.ly/2pv6M2P,0,0,0,False
95,WorldCoinIndex@WorldCoinIndex,Cryptocurrencies $ETH $LTC $DASH $XMR $ZCASH https://worldcoinindex.com,0,0,0,False
96,SjaakTrekhaak@Corrax2k,"go to https://stratisinvite.herokuapp.com to join #Stratis slack :) #BTC #Csharp #Microsoft #Eth #Bitcoin #Fintech #Blockchain #Dash #Pivx #Waves #DCRQuote TweetSjaakTrekhaak@Corrax2k · Apr 17, 20172 more days for #strat till Q&A and delayed announcement.Make sure to join our slack to get the latest news! #Poloniex #BTC #Blockchain #Eth",3,5,0,False
97,Crypto Live@crypto_c_radio,#NowPlaying Beyond Bitcoin Community - BeyondBitcoin SpotLight: Peerplays (03-17-17) at http://cryptocurrencyradio.com #bitcoin #ethereum,0,0,0,False
98,Ricardo Prieto@RIKITRADER,"#Bitcoin #Ethereum  DIB Funding, Inc. Announces A… http://dlvr.it/Nw3PGb #Blockchain #Cryptocurrency #DecentralizedControl #Fintech",1,0,0,False
99,ChartMill@ChartMill,$CLF is trending! Here's some analysis http://stockcharts.chartmill.com/u/SkXf64aMRx #Featured #Ethereum,0,0,0,False
100,Malwario  Valerio Vaccaro@tulipan81,New ethereum dashboard in R https://goo.gl/G0Li4b #ethereum #shiny #rstudio #DataScience #cryptocurrency,0,0,0,False
101,Crypto Live@crypto_c_radio,#NowPlaying Trevon James - DASH IS CENTRALIZED at http://cryptocurrencyradio.com #bitcoin #ethereum,0,0,0,False
102,Malwario  Valerio Vaccaro@tulipan81,Ethereum value in last 24 hours #ethereum #blockchain #criptocurrency #R #ggplot2,0,0,0,False
103,Malwario  Valerio Vaccaro@tulipan81,Ethereum value in last 30 days #ethereum #blockchain #criptocurrency #R #ggplot2,0,0,0,False
104,Malwario  Valerio Vaccaro@tulipan81,Histogram of ethereum value in last 30 days #ethereum #blockchain #criptocurrency #R #ggplot2,0,0,0,False
105,Malwario  Valerio Vaccaro@tulipan81,Histogram of ethereum value in last 24 hours #ethereum #blockchain #criptocurrency #R #ggplot2,0,0,0,False
106,/r/Ethereum@r_Ethereum,Parity question? What exactly did I just install? #EthereumParity question? What exactly did I just install?So after having non stop issues with Mist I've given up on trying to set my wallet up there. Another user recommended Parity as a wallet. So I...reddit.com,0,0,0,False
107,MeeseeksBTC@Meeseeks100BTC,"RT Start mining $ETH or $BTC together with people from all over the world.

https://goo.gl/tYClLG",0,0,0,False
108,ARKLANTA™ |@ARKLANTAent,"@ARKLANTAent Single #ETHER dropping #May2017 on #MixxMafiaFamily  ""MICROPHONE MASTERS""… https://instagram.com/p/BS32DoOhFAh/",0,0,0,False
109,ARKLANTA™ |@ARKLANTAent,"@ARKLANTAent Single #ETHER dropping #May2017 on #MixxMafiaFamily  ""MICROPHONE MASTERS""… https://instagram.com/p/BS460eBhb9n/",0,0,0,False
110,Ethereum Pricebot@ETHPriceBot,"#Eth 24hr Summary:
Last: $48.04
High: $48.30
Low: $47.61
Change: 0.23% | $0.11
Volume: $ 51786.96
$eth #Ethereum #coinbase",0,0,0,False
111,Coinstats@coinstats,"Ethereum Classic - ETC
Price: $2.61815
Change in 1h: +-0.15%
Market cap: $237409425.0
Ranking: 7
#Ethereum Classic #ETC",0,0,0,False
112,Bobe'bot@Bobe_bot,"1 #BTC = 1223.7005 #CHF
1 #ETH = 50.435 #CHF
1 #DOGE = 0.000465022662 #CHF
sources: @cryptonatorcom @hellobity",0,0,0,False
113,Coinstats@coinstats,"Ethereum - ETH
Price: $48.7454
Change in 1h: +0.53%
Market cap: $4426440714.0
Ranking: 2
#Ethereum #ETH",0,0,0,False
114,Bitbuy@bitbuy,"What a beautiful crisp spring evening. Great time to buy crypto!
Register @bitbuyCA and get access the #btc and #eth markets tonight!",0,0,0,False
116,xibot  Aavegotchi@xavieriturralde,I just shifted #Bitcoin to #Ether at https://shapeshift.io #InstantExchange #NoAccountNeeded #BTC #ETH @ShapeShift_io #Blockchain #ICO,0,0,0,False
117,TokenFunder@tokenfunder,The best startups can gain better access to global investors using the finance platform we're building at http://tokenfunder.io $ETH $BTC,0,0,0,False
122,Dan Elton@moreisdifferent,"#blockchain is at max hype - tickets for **1 day** #ethereal #Ethereum summit in #NYC are $599 & worthwhile for some
https://etherealsummit.com/tickets",2,0,0,False
123,/r/Ethereum@r_Ethereum,How do I get my wallet's encrypted private key? #EthereumHow do I get my wallet's encrypted private key?reddit.com,1,1,0,False
124,Get Free Dogecoin@GetDogecoin,"GET FREE #DOGE
Win dogecoin every 60 minutes
http://goo.gl/hE5Bk6
#doge #dogecoin
#Ethereum
#bitcoin #litecoin #Amazon",0,0,0,False
125,Billy Lilley@billyl42016,I'm in the running to win a Ledger Nano S to @bitcoincafe_ch! #win #contest #ledgerwallet #bitcoin #ethereum http://bit.ly/2oQ8duR,0,0,0,False
126,Bill Schafer@wjschafer,#Ethereum and Arizona leading the way. #blockchain http://trustnodes.com/2017/04/03/arizona-gives-legal-status-blockchain-based-smart-contracts?utm_content=buffer1f0d7&utm_medium=social&utm_source=twitter.com&utm_campaign=buffer…,0,0,0,False
127,Ricardo Prieto@RIKITRADER,#Bitcoin #Ethereum  Las Vegas Club Installs Bitcoin… http://dlvr.it/Nw2QhX #Blockchain #Cryptocurrency #DecentralizedControl #Fintech,2,1,0,False
128,Budlo@budloska,"VOISE - New Decentralized music platform for independent artists 
 @voiseit https://voise.it #Ethereum #Crowdsale #BTC #Blockchain",0,0,0,False
129,Jeroen Bartelse@JeroenBartelse,Very clear explanation about cryptocurrencies like bitcoin http://digitaltrends.com/computing/everything-you-need-to-know-cryptocurrency-bitcoin/… via @DigitalTrends #blockchain #bitcoin #ethereum,7,8,0,False
131,ConsenSys@Consensys,Understand the technology that could be used to elect the United Nations Secretary General democratically #Ethereum http://buff.ly/2prI7yT,35,25,0,False
133,Eden Dhaliwal@edendhaliwal,Vitalik Buterin in Toronto today talking about proof of stake and cryptoeconomics #ethereum #blockchain,0,0,0,False
134,Crypto Live@crypto_c_radio,#NowPlaying BitcoinMeister - Andy Hoffman talks about the future of Bitcoin at http://cryptocurrencyradio.com #bitcoin #ethereum,0,0,0,False
135,Crypto Live@crypto_c_radio,"#NowPlaying Laura Saggers - 10,000 Bitcoins at http://cryptocurrencyradio.com #bitcoin #ethereum",0,0,0,False
136,Vicki Bot - ETHBTC@Vickibotethbtc,I am going short on ETHBTC #ethereum,1,0,0,False
138,Ethereum Pricebot@ETHPriceBot,"#Eth 24hr Summary:
Last: $47.81
High: $48.30
Low: $47.61
Change: 0.00% | $0.00
Volume: $ 49776.78
$eth #Ethereum #coinbase",0,0,0,False
139,Coinstats@coinstats,"Ethereum Classic - ETC
Price: $2.63162
Change in 1h: +0.96%
Market cap: $238630862.0
Ranking: 7
#Ethereum Classic #ETC",0,0,0,False
140,Coinstats@coinstats,"Ethereum - ETH
Price: $48.4995
Change in 1h: +0.11%
Market cap: $4404049281.0
Ranking: 2
#Ethereum #ETH",0,0,0,False
141,Ethereum Price@EthereumPrice_,"#Ethereum: Ether Price Index
1 ETH =0.042053Ƀ XBT = $49.785000 USD
Today: +0.49%⬆︎ Last 24h: +1.62%⬆︎
https://ethereum-price.com",0,0,0,False
142,Tom Menner@tmenner,"@Hyperledger Approves @MonaxHQ & Smart Contract #Blockchain Platform Burrow: A 'Friendly Rival' for #Ethereum ?Hyperledger: Ethereum-derived Burrow Platform NextBurrow, Intel's Ethereum-derived smart contract blockchain platform, is under development by Hyperledger, with plans to collaborate with the Ethereum community.btcmanager.com",1,0,0,False
143,Erik Lamontagne@lamontagne_erik,"@onemanatatime @cryptoSqueeze @WhalePanda We know it, but it's nice to read it in a magazine ""from the surface"" $eth https://forbes.com/sites/rogeraitken/2017/04/12/cryptocurrency-boom-predicted-by-bitcoin-market-data-ceo-confirmed-trend-set-to-continue/#57d207bb33fa…",1,0,0,False
144,Trent Zinser@Tazman5562,I'm in the running to win a Ledger Nano S to @bitcoincafe_ch! #win #contest #ledgerwallet #bitcoin #ethereumWin a Ledger Wallet – Ledger Nano S – Cryptocurrency Hardware Wallet - 4 Winners !gleam.io,0,0,0,False
145,/r/Ethereum@r_Ethereum,Last chance to register for the Rice Blockchain Conference April 24 & 25! #Ethereum http://ift.tt/2oFnRXT,1,3,0,False
147,WingzTV@realnewsvideos,A Profit Opportunity: An #Ether Based Poker Game Accessible Non-Ether Users http://wingztv.com/video/surprise-egg-opening-opening-surprise-egg-to-find-fishing-bath-toys…,0,0,0,False
148,Evercoin: Your Keys Your Crypto@evercoin,Proof of Work vs Proof of Stake: Basic Mining Guide http://buff.ly/2poiKOD #Bitcoin #Ethereum #blockchain via @Blockgks,0,0,0,False
149,EtherialCryptoBot@EtherialCrypto,[AUTO] I am holding 0.28129730 ETC and they are currently worth around 0.00060596 BTC #Ethereum Classic,0,0,0,False
150,/r/Ethereum@r_Ethereum,Integrating the E4ROW contract into a game #Ethereum http://ift.tt/2oPGPNq,0,0,0,False
151,/r/Ethereum@r_Ethereum,Ledger Nano-S Problems (after installing Chrome Canary) #EthereumLedger Nano-S Problems (after installing Chrome Canary)I installed the Ledger Nano-S Chrome apps to access my Nano-S on Mac OS X 10.12.4. Everything was working great until I installed Chrome Canary...reddit.com,0,0,0,False
152,shiftarchives@shiftarchives,#Blockchain Wiki: The Many Colorful Faces of Blockchain  http://buff.ly/2nTIEd6 #Ethereum,0,0,0,False
155,Cliff K Jordan@CKJordan15,"Earn up to $65,610 daily! join & get the benefits http://bit.ly/coinviv2 #coinomia #ethereum #cryptoguide #Bitcoins",0,0,0,False
157,Bitcoinislife@bitcoinislife,#Ethereum Developers Eye #Proof-of-Stake #Shift with New #Geth #Update http://bit.ly/2oEwUIF via @CoinDesk,0,0,0,False
159,Ethereum Pricebot@ETHPriceBot,"#Eth 24hr Summary:
Last: $47.96
High: $48.30
Low: $47.61
Change: 0.27% | $0.13
Volume: $ 48273.12
$eth #Ethereum #coinbase",0,0,0,False
160,Coinstats@coinstats,"Ethereum Classic - ETC
Price: $2.60857
Change in 1h: +-0.07%
Market cap: $236540727.0
Ranking: 7
#Ethereum Classic #ETC",0,0,0,False
162,Coinstats@coinstats,"Ethereum - ETH
Price: $48.4421
Change in 1h: +-0.03%
Market cap: $4398773599.0
Ranking: 2
#Ethereum #ETH",0,0,0,False
163,Bitbuy@bitbuy,"Markets are closed, but not for crypto! Get your hands on some crypto assets! Signup @bitbuyCA today #bitcoin #ethereum #btc #eth #bitbuy",1,0,0,False
164,/r/Ethereum@r_Ethereum,"Blockchain: Out of the Labs #EthereumBlockchain: Out of the LabsCome check out this event on April 27th in San Mateo, CA if you're in the Bay Area. From Eventbrite: ""This is an interactive conference that...reddit.com",0,0,0,False
165,Ivan Buechi@IvanBuechi,"Storj: New Protocol, New Opportunities http://dlvr.it/Nw0s8N #CloudStorage #Blockchain #Ethereum",0,0,0,False
166,Ricardo Prieto@RIKITRADER,#Bitcoin #Ethereum  Russian Leader Boris Titov Proposes… http://dlvr.it/Nw0r9f #Blockchain #Cryptocurrency #DecentralizedControl #Fintech,1,0,0,False
167,Cloud Mining Monitor@cmmonitorcom,#Ethereum #Cloudmining': 17.04.2017 Payment received. 5 MHs - 0.04252500 ETH. From MyCoinCloud.MyCoinCloud (Ethereum Mining)cmmonitor.com,0,0,0,False
168,SjaakTrekhaak@Corrax2k,2 more days for #strat till Q&A and delayed announcement.Make sure to join our slack to get the latest news! #Poloniex #BTC #Blockchain #Eth,1,0,0,False
169,Crypto Live@crypto_c_radio,#NowPlaying TBP117 - Venturing Into the Web3 at http://cryptocurrencyradio.com #bitcoin #ethereum,0,0,0,False
170,Soundchain@getsoundchain,"Scheme of cryptoshare emission for your music tracks, which allows Pay Per Play payments, ICOs & commercial track smart licenсing #ethereum",1,0,0,False
171,CRYPTONEWS@Cryptonews_xyz,Ethbits Launches Token Crowd Sale to Build Next Gen Digital Currency Exchange - Chicago Business Journal http://bizjournals.com/prnewswire/press_releases/2017/04/07/HK56288… #ethereum,0,0,0,False
173,Bitcoinislife@bitcoinislife,#VOISE - Decentralized #Music platform for independent artists and Music. More info:https://bitcointalk.org/index.php?topic=1846376.0… @voiseit #altcoin #ETH #BTC,0,0,0,False
174,nscibetta@nscibetta,The latest The nscibetta Daily! http://paper.li/nscibetta?edition_id=e67afa30-23a3-11e7-802f-0cc47a0d1605… Thanks to @b_a_kirsch @KetchumUK @stonybrooku #ethereum #socialmedia,0,0,0,False
175,iMagico@iMagico75,"""Tell me what's in your bag and i'll tell you who you are"" #cryptocurrency #trading #altcoin
Mine: $ETC $LTC $ETH $PIVX $ARK $RADS $NAV $DCR",5,1,1,False
176,StreetsofGold@streets_of_g0ld,"Who doesnt enjoy these bubbles poppin? Raise your stops, and ride the waves! $$$
#btc #eth #cryptocoin",0,0,0,False
178,Ethereum Pricebot@ETHPriceBot,"#Eth 24hr Summary:
Last: $48.04
High: $48.30
Low: $47.61
Change: -0.08% | $-0.04
Volume: $ 47951.48
$eth #Ethereum #coinbase",0,0,0,False
179,Coinstats@coinstats,"Ethereum Classic - ETC
Price: $2.61024
Change in 1h: +0.34%
Market cap: $236692160.0
Ranking: 7
#Ethereum Classic #ETC",0,0,0,False
180,Coindera@coindera,"Top 3

 $BTC $GOLOS on @BittrexExchange +17%
 $ETH $STEEM on @Poloniex +13%
 $BTC $BYC on @BittrexExchange +10%",1,0,0,False
181,Coinstats@coinstats,"Ethereum - ETH
Price: $48.458
Change in 1h: +-0.04%
Market cap: $4400151719.0
Ranking: 2
#Ethereum #ETH",0,0,0,False
182,Mail Man@SuperFanee,http://gph.is/2oF0gWY when $pot will raise $sys $ETH $VIA,0,0,0,False
183,/r/Ethereum@r_Ethereum,Swarm City - Building Decentralized Communities #EthereumSwarm City - Building Decentralized CommunitiesPosted in r/ethereum by u/Txkllr • 7 points and 0 commentsreddit.com,1,0,0,False
184,Plutosky@evecchione75,Replying to @Excellionpeople should switch to #ethereum if they want a religion,4,0,0,False
186,X11engine@x11engine,@SatoshiLite Did LTC1BTC unpacked some new miners ? Every Hash will be necessary. #Segwit #Litecoin #Bitcoin #Ether #Dash #MoneroGIF,0,0,0,False
187,Tom Menner@tmenner,Enterprise #Ethereum Alliance Releases Vision Paper https://infoq.com/news/2017/03/Enterprise-Ethereum-Vision#.WPUNa_yHwvg.twitter… #blockchain,0,0,0,False
188,Je-Meng@jemenger,#Ethereum use-case: project owner burns part of the contract money if the contractor fails. by @coinop_loganToasted MoneyConclusions from my Burnable Open Payments stuntmedium.com,0,0,0,False
189,nooz81.eth ⟠@nooz81_eth,"Italian Wines Will Be Recorded on Blockchain, Authenticity Guaranteed
#Ethereum #provenance https://cointelegraph.com/news/italian-wines-will-be-recorded-on-blockchain-authenticity-guaranteed…",2,0,0,False
190,Bitcoin Guru@Bitradamus,"#Ethereum #Casper #PoS Some rough estimate of how many GPUs are gonna ""shut down"" for a day after PoS hits us. #Ethereum going green.",1,0,0,False
191,Matthew Lamons@mlamons1,"1990 = #RockTheVote 
2017 = #BlockTheVote ?
#Blockchain
#Ethereum #Voting Scheme That Doesn't Give Away Your Vote 
http://ow.ly/UhWk30aDeB4",0,0,0,False
192,Giancarlo Bettegazzi@Blocks_Finder,$ETH linear progress even in hy volume,0,0,0,False
193,Crypto Live@crypto_c_radio,#NowPlaying Coin Interview - Coin Interview with SPHRE at http://cryptocurrencyradio.com #bitcoin #ethereum,0,0,0,False
194,Vladimir Stantchev@vstantch,Insights on #decentralization by @VitalikButerin #ethereum #blockchain https://medium.com/@VitalikButerin/the-meaning-of-decentralization-a0c92b76a274…,0,0,0,False
195,/r/Ethereum@r_Ethereum,What is the best way to transfer pre-sale coins to cold storage wallet? #EthereumWhat is the best way to transfer pre-sale coins to cold storage...I've done quite a bit of research regarding this matter but I wanted to get other opinions. I'm not a noob but I'm not a pro either. Right now my...reddit.com,0,0,0,False
196,Lucky Sign@geminigoldsaint,Lunyr API @Lunyrinc will grow user experience in virtual or augmented reality and any apps supported by #ethereum #blockchain #technology ,0,0,0,False
198,Crypto Live@crypto_c_radio,#NowPlaying Jamie Shelly - Bitcoin Song at http://cryptocurrencyradio.com #bitcoin #ethereum,1,0,0,False
199,Julia Edling@bitcointonic,Is #Bitcoin Dead? The #BitcoinFork: #IsBitcoinDeadTheBitcoinFork http://Ameerrosic.com Buy Bitcoin & #Ethereum… http://dlvr.it/NvzLqn,0,0,0,False
200,matthew adams@matthew_adams10,"$dtb #futureofgaming #Augmentors #databits $btc $eth #PokemonGOQuote TweetSee Through@VRARConsulting · Apr 15, 2017The future of augmented reality and mobile commerce http://buff.ly/2odrL8o #AR #AugmentedReality",1,1,0,False
201,BitcoinAgile@bitcoinagile,#ethereum Developers Eye Proof-of-Stake Shift with New Geth Update - #bitcoin Magnates http://bitcoinagile.com/CD30C8/ethereum-developers-eye-proof-of-stake-shift-with-new-geth-update-bitcoin-magnates_stream…,0,0,0,False
203,/r/Ethereum@r_Ethereum,"TaaS fund will cover the entire investment process with Kepler, a Bloomberg-like analytics platform. #EthereumTaaS fund will cover the entire investment process with Kepler, a...Posted in r/ethereum by u/nanadze • 23 points and 8 commentsreddit.com",1,0,0,False
204,Ameer Rosic@AmeerRosic,Looking for Blockchain Freelance Writers. (Paid) email me Ameer@blockgeeks.com #ethereum #Blockchain #Bitcoin,2,0,0,False
205,CryptoRTs +  = @CryptoRTs,"RT PeerPlays: What would #PIVX & #PeerPlays mean? PURPLE RAIN! $$$
#cryptocurrency #blockchain #bitcoin #dash #eth… http://bit.ly/2pdxmgN",1,0,0,False
206,Follow or go missing@youngsliqe_YS,Been listening to #Ether by @YoungMAMusic. I got all @YoungMAMusic songs buh #Ether is my favourite one. Im a big fan of @YoungMAMusic .,1,0,0,False
208,/r/Ethereum@r_Ethereum,What is hashrate? #EthereumWhat is hashrate?reddit.com,0,0,0,False
209,Ethereum Pricebot@ETHPriceBot,"#Eth 24hr Summary:
Last: $48.03
High: $48.30
Low: $47.61
Change: -0.33% | $-0.16
Volume: $ 47658.74
$eth #Ethereum #coinbase",0,0,0,False
210,Coinstats@coinstats,"Ethereum Classic - ETC
Price: $2.59911
Change in 1h: +-0.31%
Market cap: $235682910.0
Ranking: 7
#Ethereum Classic #ETC",0,0,0,False
211,Ethereum Price@EthereumPrice_,"#Ethereum: Ether Price Index
1 ETH =0.041486Ƀ XBT = $49.070000 USD
Today: -0.87%⬇︎ Last 24h: -1.03%⬇︎
https://ethereum-price.com",1,0,0,False
212,Coinstats@coinstats,"Ethereum - ETH
Price: $48.4625
Change in 1h: +-0.13%
Market cap: $4400492184.0
Ranking: 2
#Ethereum #ETH",0,0,0,False
213,Olivier Chapiteau@o_chapiteau,"17Apr2017 18:00 UTC #Ether #Blockchain status - Block height @ 3,552,770 - 80,847 unconfirmed tr. - Last fork height @ 3,552,769",2,0,0,False
216,Barry Dutton | #Liberty Maximalist $BTC $CEL $ETH@BarryDutton,"Mike Tyson wishes you a Happy #ETHER everyone!  #CryptoCurrency $ETH $ETC #Ethereum #EthereumClassic #ETC #ETH #BTCMeme of the Day! It is Mike Tyson in Crypto Land wishing you a Happy Ether! - 2nd in my set! —...I wish you all a Happy Ether also! Your friend in Liberty, Barry. Steem On my friends. If you feel my… by barryduttonsteemit.com",2,1,0,False
217,Budlo@budloska,"I/O Coin (IOC) has major #blockchain upgrade in beta! decent. encrypted messaging, data storage.The new $dash $btc $xmr $eth WOW $ioc",1,0,0,False
218,X11engine@x11engine,If you are interested in X11 #Mining at #GenesisMining please subscribe to our channel. Thank you. #bitcoin #dash #litecoin #ether #moneroGIF,0,0,0,False
219,BitcoinAgile@bitcoinagile,A brief introduction to the #ethereum Network Status Monitor http://blog.webhits.io/a-brief-introduction-to-the-ethereum-network-status-monitor…,0,0,0,False
220,BitcoinAgile@bitcoinagile,How to Mine #ethereum ETH 2017 http://blog.webhits.io/how-to-mine-ethereum-eth-2017…,0,0,0,False
221,BitcoinAgile@bitcoinagile,#ethereum 2017  The World Computer http://blog.webhits.io/ethereum-2017-the-world-computer…,0,0,0,False
222,BitcoinAgile@bitcoinagile,#ethereum Burning Bright With Potential #ethereumproject #cryptocurrency http://bitcoinagile.com/CD2BB5/ethereum-burning-bright-with-potential_stream…,0,0,0,False
223,OCCULTUMNET@occultumnet,Ethereum Burning Bright With Potential http://occultum.net/ethereum-burning-bright-with-potential/… #ethereum #ethereumproject #cryptocurrency @crypto #bitcoin,4,6,0,False
225,cryptinsight@cryptinsight,"Instagram post by Zoltan Vigh • Apr 17, 2017 at 5:17pm UTC #blockchain #ethereum #bitcoin #paris #autogramtags #fit https://instagram.com/p/BS_ppdWhsu6",0,0,0,False
226,Blockgeeks@Blockgks,Become a #Blockchain Guest Contributor http://dld.bz/fgnwr #writer #bitcoin #ethereum,1,0,0,False
227,Bitbuy@bitbuy,Its a great day to buy #bitcoin and #ethereum Head on over to http://bitbuy.ca for quick access! #bitbuy #btc #eth #blockchain,1,0,0,False
228,schwan humes@blakjordanbreen,Replying to @THEE_HollywoodDamn #ether,0,0,0,False
229,BitcoinAgile@bitcoinagile,High Level Understanding Of An #ethereum Smart Contract #bitcoin #blockchain #mediumHigh Level Understanding Of An Ethereum Smart ContractEthereum contract is a program that is deployed that is to say instantiated on the blockchain with a single transaction. The blockchain…gus-tavo-guim.medium.com,0,0,0,False
230,Ethereum Pricebot@ETHPriceBot,"#Eth 24hr Summary:
Last: $48.03
High: $48.57
Low: $47.61
Change: -1.05% | $-0.51
Volume: $ 47086.79
$eth #Ethereum #coinbase",0,0,0,False
231,Coinstats@coinstats,"Ethereum Classic - ETC
Price: $2.6086
Change in 1h: +0.15%
Market cap: $236543447.0
Ranking: 7
#Ethereum Classic #ETC",0,0,0,False
233,Coinstats@coinstats,"Ethereum - ETH
Price: $48.5157
Change in 1h: +0.5%
Market cap: $4405266360.0
Ranking: 2
#Ethereum #ETH",0,0,0,False
236,Bitbuy@bitbuy,Replying to @RecoveredBrokerthis should get you started! #bitcoin https://youtube.com/watch?v=Gc2en3nHxA4… also for #ethereum https://youtube.com/watch?v=j23HnORQXvs…,1,0,0,False
237,/r/Ethereum@r_Ethereum,"Ethereum Collaborative API? #EthereumEthereum Collaborative API?I've just ""sponsored"" this: https://www.reddit.com/r/ethereum/comments/65tygw/ethlance_hire_for_reddit_to_ethaddress_community/ And now I have a...reddit.com",1,0,0,False
238,Liz Hermawan@LizHermawan,#Ethereum Developers Eye Proof-of-Stake Shift with New #Geth Update: The team behind… https://goo.gl/fb/T8JCK6 #vk,0,0,0,False
239,Veki@Veki551155,"Bitcoin Casino, Dice, #Roulette INSTANT withdrawal !!! No Minimum!!  #bitcoin #btc #eth #casino #gambling http://bit.ly/Bitcoin_Dice",0,0,0,False
240,BitcoinAgile@bitcoinagile,#ethereum Developers Eye Proof-of-Stake Shift with New Geth Update - Payments Market http://bit.ly/2oG1C5O,0,0,0,False
241,Christine Sukasih@Christine_S025,#Ethereum Developers Eye Proof-of-Stake Shift with New #Geth Update: The team behind… https://goo.gl/fb/R5ZQjq,0,0,0,False
242,Bitcoin News@scryptsy,#Scryptsy.com #BTC #Ethereum Developers Eye Proof-of-Stake Shift with New #Geth Update: The… https://goo.gl/fb/JzxDI4,0,0,0,False
243,Crypto investment's@AltinvestInfo,Replying to @AltinvestInfo$btc $ltc $eth $strat $blk $vrc $dgb $waves $lsk $ans $xrp $nxt $ardr $sjcx $dope $maid $ioc $neos $burst $qora #bitcoin #telegram #play,2,1,1,False
244, Eliza Cheng @ElizaRyenne,Mine for #bitcoin #litecoin #dogecoin #ethereum #gold here in @eobot JOIN NOW at https://eobot.com/user/393610,0,0,0,False
246,Crypto Live@crypto_c_radio,#NowPlaying Elaine Diane Taylor - Bitcoin Barbarians at http://cryptocurrencyradio.com #bitcoin #ethereum,0,0,0,False
247,Christine Soekasih@Christine_S02,#Ethereum Developers Eye Proof-of-Stake Shift with New #Geth Update: The team behind… https://goo.gl/fb/PqYF2y #vk,0,0,0,False
248,𝐂𝐄𝐎 ᵒᶠ 𝙉𝙁𝙏ˢ ⬡ NFT4SALE.COM@KennethBosak,Shout out to Melissa Hunt for the Happy Ether gift   I'm so blessed #ethereum #eth http://ift.tt/2omYuIk,0,0,0,False
249,𝐂𝐄𝐎 ᵒᶠ 𝙉𝙁𝙏ˢ ⬡ NFT4SALE.COM@KennethBosak,Shout out to Melissa Hunt for the Happy Ether gift   I'm so blessed #ethereum #eth https://instagram.com/p/BS_lHkzhDeP/,0,0,0,False
250,Ricardo Prieto@RIKITRADER,#Bitcoin #Ethereum  Bitcoin Exchange Bitfinex Stops… http://dlvr.it/NvxFFg #Blockchain #Cryptocurrency #DecentralizedControl #Fintech,0,0,0,False
251,BitcoinAgile@bitcoinagile,#ethereum Developers Eye Proof-of-Stake Shift with New Geth Update  Btcoin news #Bitcoin http://bit.ly/2oFZT0j,0,0,0,False
252,BTCoin.info@BTCoin_info,Ethereum Developers Eye Proof-of-Stake Shift with New Geth Update https://goo.gl/0rvoLS #Bitcoin #developers #ethereum,0,0,0,False
253,Aayush Jindal@AayushJs,"#Ethereum - $ETH/USD Forecast: Quiet Trading On Easter Monday
#Ether #Cryptocurrency #Dollar https://ethnews.com/analysis/04-17-2017-ethusd-forecast-quiet-trading-on-easter-monday…",2,0,0,False
254,BitcoinAgile@bitcoinagile,#ethereum Developers Eye Proof-of-Stake Shift with New Geth Update http://bit.ly/2oG5sM8,0,0,0,False
255,rbrighoff@brighoff1,I'm in the running to win a Ledger Nano S to @bitcoincafe_ch! #win #contest #ledgerwallet #bitcoin #ethereumWin a Ledger Wallet – Ledger Nano S – Cryptocurrency Hardware Wallet - 4 Winners !gleam.io,0,0,0,False
256,cryptinsight@cryptinsight,#ethereum Developers Eye Proof-of-Stake Shift with New Geth Update #暗号通貨 #仮想通貨 #デジタル通貨 #crypto http://bit.ly/2oG8ZKt,0,0,0,False
259,/r/Ethereum@r_Ethereum,Will POS require hosting a full node? #EthereumWill POS require hosting a full node?Can staking be done without a node?reddit.com,1,1,0,False
260,BitcoinAgile@bitcoinagile,#ethereum Developers Eye Proof-of-Stake Shift with New Geth Update http://bitnewsbot.com/ethereum-developers-eye-proof-of-stake-shift-with-new-geth-update…,0,0,0,False
261,BitcoinAgile@bitcoinagile,#ethereum Developers Eye Proof-of-Stake Shift with New Geth Update http://universalcointrade.com/ethereum-developers-eye-proof-of-stake-shift-with-new-geth-update…,0,0,0,False
263,Alternative Currency@alt_ccy,#Ethereum Developers Eye Proof-of-Stake Shift with New Geth Update http://coindesk.com/ethereum-proof-of-stake-new-geth-update/…,0,0,0,False
264,SCROLL TECH NEWS@scrollcom,Ethereum Developers Eye Proof-of-Stake Shift with New Geth Update http://dlvr.it/NvwZJY #Ethereum #News #bitcoin,0,0,0,False
265,/r/Ethereum@r_Ethereum,Great argument why we shouldn't support greedy Gnosis devs and their project #EthereumGreat argument why we shouldn't support greedy Gnosis devs and...Posted in r/ethereum by u/hwtu • 13 points and 28 commentsreddit.com,0,0,0,False
266,Brave New Coin@bravenewcoin,#Ethereum Price: USD $48.28 $ETH http://ow.ly/6UKf3048WBe,1,0,0,False
267,Раб Божий@Diener_Gottes,#Ethereum Developers Eye Proof-of-Stake Shift with New #Geth Update: The team behind… https://goo.gl/fb/yVylQq,0,0,0,False
268,Ethereum Pricebot@ETHPriceBot,"#Eth 24hr Summary:
Last: $47.84
High: $48.57
Low: $47.61
Change: -1.20% | $-0.58
Volume: $ 46258.25
$eth #Ethereum #coinbase",0,0,0,False
269,BitcoinAgile@bitcoinagile,#ethereum Developers Eye Proof-of-Stake Shift with New Geth Update https://news.bitcoin-babe.com/2017/04/18/ethereum-developers-eye-proof-of-stake-shift-with-new-geth-update…,0,0,0,False
270,Coinstats@coinstats,"Ethereum Classic - ETC
Price: $2.60667
Change in 1h: +-0.0%
Market cap: $236368438.0
Ranking: 7
#Ethereum Classic #ETC",0,0,0,False
271,Bobe'bot@Bobe_bot,"1 #BTC = 1228.7899 #CHF
1 #ETH = 50.7002 #CHF
1 #DOGE = 0.000480004434 #CHF
sources: @cryptonatorcom @hellobity",0,0,0,False
272,Coinstats@coinstats,"Ethereum - ETH
Price: $48.2232
Change in 1h: +-0.51%
Market cap: $4378647739.0
Ranking: 2
#Ethereum #ETH",0,0,0,False
273,Ethereum UAE@Ethereum_UAE,Ethereum Developers Eye Proof-of-Stake Shift with New Geth Update http://ift.tt/2pqCEIE #Ethereum,0,0,0,False
274,/r/Ethereum@r_Ethereum,The Dapp Daily 4/17/17 - Updates from the Ethereum ecosystem #EthereumThe Dapp Daily 4/17/17 - Updates from the Ethereum ecosystemPosted in r/ethereum by u/JoeyUrgz • 28 points and 0 commentsreddit.com,0,0,0,False
275,WowWowCoin@myluckbitcoin,#Ethereum Developers Eye Proof-of-Stake Shift with New #Geth Update: The team behind ethereum’s most popular user… http://dlvr.it/NvwMxg,0,0,0,False
276,Smokyho@smokyho,Ethereum Developers Eye Proof-of-Stake Shift with New Geth Update http://clkme.in/qUx613 #Ethereum #News #Technology #Geth #software,0,0,0,False
277,CryptoNewswire @CryptoNewswire,Ethereum Developers Eye Proof-of-Stake Shift with New Geth Update - http://coindesk.com/ethereum-proof-of-stake-new-geth-update/… $ETH #cryptocurrency #fintech #markets,1,1,0,False
278,BitcoinAgile@bitcoinagile,#ethereum Developers Eye Proof-of-Stake Shift with New Geth Update - CoinDesk #BitCoin http://coindesk.com/ethereum-proof-of-stake-new-geth-update…,0,0,0,False
279,BlockChannel@BlockChannel,"BlockChannel:RT alexsunnarborg: How do you feel about both #bitcoin & #ethereum after Q1 2017? 

We want to hear f… http://coindesk.com/survey-bitcoin-ethereum-perform-q1/…",0,0,0,False
282,₿alls of $teel@b4LSi,It's time. $ETH,0,0,0,False
283,RhinoAK@RhinoAK,"coindesk: RT alexsunnarborg: How do you feel about both #bitcoin & #ethereum after Q1 2017? 

We want to hear from anyone & everyone! :)

…",1,1,0,False
286,José Carlos Baquero @jbaquerot,"Blockgeeks Lab hosting $25,000 #blockchain #hackathon with #ethereum co-founder Vitalik ButerinBlockgeeks Lab hosting $25,000 blockchain hackathon with ethereum co-founder Vitalik ButerinBlockgeeks Lab, a company which launches and invests in blockchain startups, announced its Blockchain Hackathon with Vitalik Buterin, co-founder of ethereum, Blockgeeks Lab, an online education...bcvcsc.tumblr.com",0,0,0,False
287,starttanky@starttanky,"Setup for more upside
#ethereum #ETH",0,0,0,False
289,EtherialCryptoBot@EtherialCrypto,[AUTO] I am holding 0.28129730 ETC and they are currently worth around 0.00060573 BTC #Ethereum Classic,0,0,0,False
290,BTC/Alt Ticker@afjlsfkjadkasdk,"BTC
bitFlyer:133000JPY(+250)
BTCBOX:132712JPY(+312)
coincheck:133572JPY(+597)
ETH
bitFlyer:5379.9JPY(+10.2)
#bitcoin
#Ethereum",0,0,0,False
291,Crypto Live@crypto_c_radio,#NowPlaying CryptoCurrency Market - How To Survive The China Bitcoin Panics_By Adam Meister at http://cryptocurrencyradio.com #bitcoin #ethereum,2,0,0,False
292,BTC/Alt Ticker@afjlsfkjadkasdk,"BTC
bitFlyer:132750JPY(+399)
BTCBOX:132400JPY(+441)
coincheck:132975JPY(+475)
ETH
bitFlyer:5369.7JPY(-15.7)
#bitcoin
#Ethereum",0,0,0,False
294,TonyM@OnlneMrketing,Go to #Coinbase the world’s most popular way to buy and sell #bitcoin and #ethereum. Begin using the future of money http://buff.ly/2ppI2ZC,0,0,0,False
295,/r/Ethereum@r_Ethereum,"Week in Ethereum - April 16, 2017 #EthereumWeek in Ethereum - April 16, 2017Posted in r/ethereum by u/WurstKaseSzenario • 59 points and 2 commentsreddit.com",0,0,0,False
296,/r/Ethereum@r_Ethereum,Ari Paul - What needs to exist? #EthereumAri Paul - What needs to exist?Posted in r/ethereum by u/Souzu • 5 points and 0 commentsreddit.com,0,0,0,False
297,EtherialCryptoBot@EtherialCrypto,[AUTO] I am holding 0.28129730 ETC and they are currently worth around 0.00061604 BTC #Ethereum Classic,0,0,0,False
299,Alexej Jordanov@alexejjordanov,"@Microsoft Office now has add-in to certify docs on #blockchain #bitcoin and #ethereum
http://buff.ly/2poWeoL",0,0,0,False
300,Kxteel Dragoone (Kx)@Kxteel,"""- To protect our #independence ,..."" ^^ Thanks Jimmi
@jimmy_wales #cryptocurrency #blockchain #newmoney #bitcoin #ethereum #Ripple",1,0,0,False
301,Blockgeeks@Blockgks,Ethereum And Bitcoin: What's The Difference? http://dld.bz/fnDDq #Ethereum #bitcoin #blockchain,0,0,0,False
302,Mike Quindazzi @MikeQuindazzi,What's an Initial Coin Offering? #Cryptocurrency in exchange against cryptocurrencies like #Bitcoin or #Ethereum. http://bit.ly/2pCSRXM,16,20,0,False
303,Ethereum Pricebot@ETHPriceBot,"#Eth 24hr Summary:
Last: $48.16
High: $48.57
Low: $47.65
Change: -0.72% | $-0.35
Volume: $ 43716.61
$eth #Ethereum #coinbase",0,0,0,False
304,Coinstats@coinstats,"Ethereum Classic - ETC
Price: $2.6076
Change in 1h: +0.43%
Market cap: $236452769.0
Ranking: 7
#Ethereum Classic #ETC",0,0,0,False
305,Ethereum Price@EthereumPrice_,"#Ethereum: Ether Price Index
1 ETH =0.041797Ƀ XBT = $49.115000 USD
Today: -0.12%⬇︎ Last 24h: -1.75%⬇︎
https://ethereum-price.com",0,0,0,False
306,BTC/Alt Ticker@afjlsfkjadkasdk,"BTC
bitFlyer:132175JPY(+143)
BTCBOX:131740JPY(±0)
coincheck:132291JPY(+42)
ETH
bitFlyer:5412.6JPY(+5.9)
#bitcoin
#Ethereum",0,0,0,False
307,Coinstats@coinstats,"Ethereum - ETH
Price: $48.4781
Change in 1h: +0.09%
Market cap: $4401731462.0
Ranking: 2
#Ethereum #ETH",0,0,0,False
308,Ricardo Prieto@RIKITRADER,#Bitcoin #Ethereum  Op-ed: Is Bitcoin Exchange Bitfinex… http://dlvr.it/NvvBcH #Blockchain #Cryptocurrency #DecentralizedControl #Fintech,3,0,0,False
309,BTC/Alt Ticker@afjlsfkjadkasdk,"BTC
bitFlyer:132032JPY(-19)
BTCBOX:131740JPY(±0)
coincheck:132249JPY(+42)
ETH
bitFlyer:5406.7JPY(-0.8)
#bitcoin
#Ethereum",0,0,0,False
310,BTC/Alt Ticker@afjlsfkjadkasdk,"BTC
bitFlyer:132051JPY(±0)
BTCBOX:131740JPY(±0)
coincheck:132207JPY(-81)
ETH
bitFlyer:5407.5JPY(±0)
#bitcoin
#Ethereum",0,0,0,False
311,/r/Ethereum@r_Ethereum,"Looking for a good article about how Ethereum is Web 3.0? #EthereumLooking for a good article about how Ethereum is Web 3.0?I'm looking for an article from a legacy sources (Forbes, Economist, ect) that explains just how Ethereum is going to be the back of the Web 3.0. ...reddit.com",0,0,0,False
312,The Snake@the5nak3,INB4 @bitfinex gox's everyone. $BTC $LTC $ETH,0,0,0,False
315,BTC/Alt Ticker@afjlsfkjadkasdk,"BTC
bitFlyer:132051JPY(+1)
BTCBOX:131740JPY(-17)
coincheck:132288JPY(+191)
ETH
bitFlyer:5407.5JPY(+0.1)
#bitcoin
#Ethereum",0,0,0,False
316,Ethereum Love@everythingether,"casper repository made on github by none other than vbuterin. https://github.com/ethereum/casper #ethereum is the future. And we're watching it happenethereum/casperCasper contract, and related software and tests. Contribute to ethereum/casper development by creating an account on GitHub.github.com",1,1,0,False
317,Crypto Games@Crypto_Games,"Congratulations to ""Leonce047"" for winning an amazing 9.99000000 ETH on our Slot Jackpot. https://crypto-games.net/slot/ethereum #jackpot #ethereum #slots",1,0,0,False
319,/r/Ethereum@r_Ethereum,"$4.5 Billion USD, based off of participation of just $168 Million #Ethereum$4.5 Billion USD, based off of participation of just $168 MillionPosted in r/ethereum by u/moeadham • 2 points and 2 commentsreddit.com",1,0,0,False
320,Alberto Jauregui | esoteRICK.eth @DisruptBanksy,http://ift.tt/2oFUBSf Analysis of Ethereum and Litecoin - Hacked #ethereum #ether,0,0,0,False
321,BTC/Alt Ticker@afjlsfkjadkasdk,"BTC
bitFlyer:132080JPY(-30)
BTCBOX:131757JPY(±0)
coincheck:132083JPY(-70)
ETH
bitFlyer:5408.7JPY(-1.2)
#bitcoin
#Ethereum",0,0,0,False
322,Crypto Live@crypto_c_radio,#NowPlaying World Crypto Network - San Francisco Bitcoin Meetup (HD) (January 2017) at http://cryptocurrencyradio.com #bitcoin #ethereum,1,0,0,False
324,BTC/Alt Ticker@afjlsfkjadkasdk,"BTC
bitFlyer:132110JPY(+40)
BTCBOX:131757JPY(±0)
coincheck:132153JPY(-59)
ETH
bitFlyer:5409.9JPY(+1.6)
#bitcoin
#Ethereum",0,0,0,False
325,Crypto Live@crypto_c_radio,#NowPlaying Naomi Brockwell - Everything Has Changed Cover) at http://cryptocurrencyradio.com #bitcoin #ethereum,1,0,0,False
327,Chris Coney@ChrisConeyInt,"BitBoost To Launch Decentralised eBay On #Ethereum, And A Big Problem >> https://youtu.be/I47a663RzyE @openbazaar #ipfs",6,1,0,False
328,BTC/Alt Ticker@afjlsfkjadkasdk,"BTC
bitFlyer:132070JPY(-50)
BTCBOX:131757JPY(±0)
coincheck:132212JPY(+54)
ETH
bitFlyer:5408.3JPY(-2)
#bitcoin
#Ethereum",0,0,0,False
329,BitcoinAgile@bitcoinagile,"Exchange Paysafecard pins, #bitcoin, Litecoin, #ethereum to PayPal, Skrill, Perfect Money, https://vimeo.com/213516297?ref=tw-share…",0,0,0,False
330,Surreal Bitcoin@Surreal_Mark8ng,"Check out this #free #app from @coinbase  u securely store, trade digital currencies like #bitcoin and #ethereum http://goo.gl/cb5NZe",1,0,0,False
331,BTC/Alt Ticker@afjlsfkjadkasdk,"BTC
bitFlyer:132120JPY(+29)
BTCBOX:131757JPY(±0)
coincheck:132158JPY(-103)
ETH
bitFlyer:5410.3JPY(+1.2)
#bitcoin
#Ethereum",0,0,0,False
332,BTC/Alt Ticker@afjlsfkjadkasdk,"BTC
bitFlyer:132091JPY(+9)
BTCBOX:131757JPY(±0)
coincheck:132261JPY(+138)
ETH
bitFlyer:5409.1JPY(+0.3)
#bitcoin
#Ethereum",0,0,0,False
334,Coinstats@coinstats,"Ethereum - ETH
Price: $48.4399
Change in 1h: +-0.07%
Market cap: $4398199070.0
Ranking: 2
#Ethereum #ETH",0,0,0,False
335,BTC/Alt Ticker@afjlsfkjadkasdk,"BTC
bitFlyer:132082JPY(+22)
BTCBOX:131757JPY(±0)
coincheck:132123JPY(+23)
ETH
bitFlyer:5408.8JPY(+0.9)
#bitcoin
#Ethereum",0,0,0,False
336,iExec@iEx_ec,CoinFund Q&A session live now: https://youtube.com/watch?v=dzMISyf5Wd8… #blockchain #ethereum #bitcoin,3,1,0,False
337,Ameer Rosic@AmeerRosic,Looking for Blockchain Freelance Writers. (Paid) email me Ameer@blockgeeks.com #ethereum,0,0,0,False
338,BitcoinAgile@bitcoinagile,Analysis of #ethereum and Litecoin http://bit.ly/2oDJJCE,1,1,0,False
339,Eg0rPetr0v@epetrov007,"After the predicted markets, smart contracts will be implemented in #Byteball . @ByteballOrg #BTC #Ethereum",0,0,0,False
340,BTC/Alt Ticker@afjlsfkjadkasdk,"BTC
bitFlyer:132060JPY(-11)
BTCBOX:131757JPY(±0)
coincheck:132100JPY(-14)
ETH
bitFlyer:5407.9JPY(+59)
#bitcoin
#Ethereum",0,0,0,False
341,Ricardo Prieto@RIKITRADER,#Bitcoin #Ethereum  Jihan Wu: Chinese Government Won’t… http://dlvr.it/Nvsr2t #Blockchain #Cryptocurrency #DecentralizedControl #Fintech,9,3,0,False
342,BTC/Alt Ticker@afjlsfkjadkasdk,"BTC
bitFlyer:132071JPY(±0)
BTCBOX:131757JPY(-42)
coincheck:132114JPY(-32)
ETH
bitFlyer:5348.9JPY(±0)
#bitcoin
#Ethereum",0,0,0,False
343,/r/Ethereum@r_Ethereum,"Survey – Sentiment around Ethereum & Bitcoin after Q1 2017 – CoinDesk #EthereumSurvey – Sentiment around Ethereum & Bitcoin after Q1 2017 – CoinDeskHey r/ethereum, Alex from CoinDesk here (formerly of Lawnmower.io, which CoinDesk recently acquired). I recently created a large survey to...reddit.com",0,0,0,False
344,BitcoinAgile@bitcoinagile,+ Analysis of #ethereum and Litecoin http://bit.ly/2oDtqWL,0,0,0,False
345,BitcoinAgile@bitcoinagile,"Permissible Smart Contracts Machine Moves to Hyperledger, No Competition With #ethereum - http://bit.ly/2oDJxU9",0,0,0,False
346,Renk@RenkBTC,"We are currently looking for a JAVA/Android Dev to develop a Mobile Wallet (BitcoinJ Bip47)  

$btc $etc $xmr $via $flo $pasc $eth $vtc",2,2,0,False
347,BTC/Alt Ticker@afjlsfkjadkasdk,"BTC
bitFlyer:132071JPY(+199)
BTCBOX:131799JPY(+799)
coincheck:132146JPY(+246)
ETH
bitFlyer:5348.9JPY(+100.4)
#bitcoin
#Ethereum",0,0,0,False
350,BitcoinAgile@bitcoinagile,Analysis of #ethereum and Litecoin  Hacked: Hacking Finance #Bitcoin #uasociolog #litecoin https://hacked.com/analysis-ethereum-litecoin…,0,0,0,False
351,Crypto Live@crypto_c_radio,#NowPlaying Crackd - Bitcoin Rap _ MS Werd and Cracked at SXSW at http://cryptocurrencyradio.com #bitcoin #ethereum,0,0,0,False
352,Crypto Live@crypto_c_radio,#NowPlaying BitcoinMeister - Avoid The Toxic People In The Crypto Community at http://cryptocurrencyradio.com #bitcoin #ethereum,0,0,0,False
354,Particl@ParticlProject,"Particl on Reddit: https://reddit.com/r/Particl/ Join the discussions, propose improvements, Open to all #crypto! #btc #eth #ltc #pivx #zec #xmr",1,0,0,False
355,Crypto Live@crypto_c_radio,#NowPlaying Kryp Tina - Love You Like A Bitcoin at http://cryptocurrencyradio.com #bitcoin #ethereum,0,0,0,False
357,The Cyber Security Hub™@TheCyberSecHub,Bullion on the #Blockchain: A New Gold Standard? | http://bit.ly/2oCSjBD #bitcoin #ethereum #technology #security #fintech #bankingBullion on the Blockchain: A New Gold Standard? - CoinDeskCoinDesk's Noelle Acheson puts blockchain gold trading trials within the wider context of changes in the precious metals markets.coindesk.com,2,0,0,False
358,BitcoinAgile@bitcoinagile,"Exclusive Interview with Vitalik Buterin: #ethereum, #bitcoin, ICO & More https://bitcoincafe.ch/2017/04/17/exclusive-interview-vitalik-buterin-ethereum-bitcoin-ico…",1,1,0,False
359,/r/Ethereum@r_Ethereum,How would i go about moving the money from some of my frozen pensions into Ethereum via a SIPP? #Ethereum http://ift.tt/2oDGuLO,0,0,0,False
360,Timo Ξberhard@ZhuBajie72,Replying to @DanDarkPillIt´s just my fully objective 5cents since not even considering #Bitcoin nor #Litecoin (especially) competing with #Ethereum; #SegWit or not.,0,0,0,False
361,Blockgeeks@Blockgks,#Blockchain Car Wallet: The First Of Its Kind http://dld.bz/fyp78 #Ethereum #Bitcoin,0,0,0,False
362,Coinstats@coinstats,"Ethereum Classic - ETC
Price: $2.59411
Change in 1h: +-0.33%
Market cap: $235229519.0
Ranking: 7
#Ethereum Classic #ETC",0,0,0,False
363,Ethereum Pricebot@ETHPriceBot,"#Eth 24hr Summary:
Last: $48.23
High: $48.77
Low: $47.65
Change: -0.37% | $-0.18
Volume: $ 42494.86
$eth #Ethereum #coinbase",0,0,0,False
364,Coinstats@coinstats,"Ethereum - ETH
Price: $48.4324
Change in 1h: +0.17%
Market cap: $4397480474.0
Ranking: 2
#Ethereum #ETH",0,0,0,False
365,Timo Ξberhard@ZhuBajie72,Replying to @DanDarkPillHehe. Why would I? This ridiculous #SegWit debate has only so much to do with #Ethereum that it is a disgrace for all #Crypto.,0,0,0,False
366,Genie2018@genie2018,#ETHEREUM has security issues,0,0,0,True
367,BitcoinAgile@bitcoinagile,"Permissible Smart Contracts Machine Moves to Hyperledger, No Competition With #ethereum http://bit.ly/2oFrb70",0,0,0,False
368,BTCoin.info@BTCoin_info,"Permissible Smart Contracts Machine Moves to Hyperledger, “No Competition” With… https://goo.gl/mGK9Oi #Ethereum #competition #contracts",0,0,0,False
369,Genie2018@genie2018,#ETHEREUM over 90 mil ethereum already could go to 1 bil,0,0,0,False
370,CryptoNewswire @CryptoNewswire,"Permissible Smart Contracts Machine Moves to Hyperledger, No Competition With Ethereum - https://cointelegraph.com/news/permissible-smart-contracts-machine-moves-to-hyperledger-no-competition-with-ethereum… $ETH #blockchain #finance",0,0,0,False
371,Alberto Jauregui | esoteRICK.eth @DisruptBanksy,"http://ift.tt/2p9PCuP Permissible Smart Contracts Machine Moves to Hyperledger, “No Competition” With Ethereum - CoinTelegraph #ethereum…",1,0,0,False
372,BitcoinAgile@bitcoinagile,"Permissible Smart Contracts Machine Moves to Hyperledger, No Competition With #ethereum http://bitnewsbot.com/permissible-smart-contracts-machine-moves-to-hyperledger-no-competition-with-ethereum…",0,0,0,False
373,Bitcoin Sportsbook @SportsbookBTC,#SimpleFX ― Crypto update: #Bitcoin 1205 #Ethereum 49 #Litecoin 9.6  via http://bit.do/SimpleFX,0,0,0,False
374,"Trade Alerts, Trade Ideas and Crypto @AlertTrade",#SimpleFX ― Crypto update: #Bitcoin 1205 #Ethereum 49 #Litecoin 9.6  via http://bit.do/SimpleFX,1,0,0,False
375,Crypto Trader Pro @CryptoTraderPro,#SimpleFX ― Crypto update: #Bitcoin 1205 #Ethereum 49 #Litecoin 9.6  via http://bit.do/SimpleFX,0,0,0,False
378,Ali Güçlü@aliguclu,"Cointelegraph : Permissible Smart Contracts Machine Moves to Hyperledger, “No Competition” With #Ethereum … https://twitter.com/Cointelegraph/status/853947205996212225…)Quote TweetCointelegraph@Cointelegraph · Apr 17, 2017Permissible Smart Contracts Machine Moves to Hyperledger, “No Competition” With #Ethereum https://goo.gl/gm9Eqh - by @odzer",0,0,0,False
379,LAPITH@bhumharit,"RT: Permissible Smart Contracts Machine Moves to Hyperledger, “No Competition” With #Ethereum https://goo.gl/gm9Eqh - by odzer",0,0,0,False
380,BitcoinAgile@bitcoinagile,"Permissible Smart Contracts Machine Moves to Hyperledger, No Competition With #ethereum - http://bit.ly/2oFLzVz",0,0,0,False
382,War10ck@War10ck36,I'm in the running to win a Ledger Nano S to @bitcoincafe_ch! #win #contest #ledgerwallet #bitcoin #ethereum http://bit.ly/2oAooKw,0,0,0,False
383,Crypto Quixote@_CryptoKeeper,"#Ethereum  ROI upwards of 2,000% for crowdsale investors since the official launch on 30th July 2015 ! #blockchain #smartcontracts #ether",0,0,0,False
384,Ricardo Prieto@RIKITRADER,#Bitcoin #Ethereum  Trading 101: Trend Analysis with… http://dlvr.it/Nvqx2j #Blockchain #Cryptocurrency #DecentralizedControl #Fintech,0,0,0,False
386,Bata Matic@bata_matic,OMG! THIS IS ON FIRE! #bitcoin #ethereum - Multiple Streams of Income on Total Autopilot http://bit.ly/2ljYKH6,0,0,0,False
387,Prati Pratim@pratipratim,OMG! THIS IS ON FIRE! #bitcoin #ethereum - Multiple Streams of Income on Total Autopilot http://bit.ly/2ljYKH6,0,0,0,False
388,Ultime Notizie@twittsitalia,OMG! THIS IS ON FIRE! #bitcoin #ethereum - Multiple Streams of Income on Total Autopilot http://bit.ly/2ljYKH6,0,0,0,False
390,Brave New Coin@bravenewcoin,#Ethereum Price: USD $48.24 $ETH http://ow.ly/6UKf3048WBe,1,0,0,False
391,X11engine@x11engine,Double or Triple your #bitcoin in 24 month. X11 #mining could be the key. 3% discount for genesis https://genesis-mining.com/a/550815 - #litecoin #ether,0,0,0,False
392,BitcoinAgile@bitcoinagile,#ethereum Price Technical Analysis: Set For Next Move http://bit.ly/2oFEAMp,1,1,0,False
393,Ethereum Pricebot@ETHPriceBot,"#Eth 24hr Summary:
Last: $48.00
High: $48.77
Low: $47.65
Change: 0.29% | $0.14
Volume: $ 41985.21
$eth #Ethereum #coinbase",0,0,0,False
394,Coinstats@coinstats,"Ethereum Classic - ETC
Price: $2.60335
Change in 1h: +-0.32%
Market cap: $236067386.0
Ranking: 7
#Ethereum Classic #ETC",0,0,0,False
395,BitcoinAgile@bitcoinagile,Getting Started as an #ethereum Web Developer  Hacker Noon  Medium #blockchain https://medium.com/hacker-daily/getting-started-as-an-ethereum-web-developer-9a2a4ab47baf…,1,0,0,False
396,DISTRIBOOTED@distribooted,Getting Started as an Ethereum Web Developer by @ethereum_alex #ethereum #blockchain https://medium.com/hacker-daily/getting-started-as-an-ethereum-web-developer-9a2a4ab47baf…,1,0,0,False
397,Coinstats@coinstats,"Ethereum - ETH
Price: $48.3732
Change in 1h: +0.43%
Market cap: $4392017984.0
Ranking: 2
#Ethereum #ETH",0,0,0,False
398,Ethereum Price@EthereumPrice_,"#Ethereum: Ether Price Index
1 ETH =0.041588Ƀ XBT = $48.831990 USD
Today: -0.62%⬇︎ Last 24h: -0.16%⬇︎
https://ethereum-price.com",0,0,0,False
399,Zaducis-voron@vvoroncov3,"Need a place to trade #blackbytes , maybe @Cryptopia_NZ can add us? http://byteball.org @ByteballOrg #Eth #Ltc #Btc",0,0,0,False
400,Bitcoin Warrior@warrior_bitcoin,Replying to @warrior_bitcoinThis #wallet allows these #coins: #btc #clam #dao #dash #doge #eth #fct #lsk #ltc #nmc #nvc #ppc #vrc #vtc #xmr http://bit.ly/bit-ac-wallet,2,1,0,False
401,TokenFunder@tokenfunder,The best startups can gain better access to global investors using the finance platform we're building at http://tokenfunder.io $ETH $BTC,1,0,0,False
404,/r/Ethereum@r_Ethereum,"Testnet ethers #EthereumTestnet ethersHi guys, could anyone send me some testnet eth to 0x01c6fE6B94Ec2523986A14F5e66EBEFaf1D4d8D6 ? I'm trying to understand how contracts works but...reddit.com",0,0,0,False
405,Crypto Live@crypto_c_radio,#NowPlaying The Kozi Two - Bitcoin song: He gave us change (a dedication to Satoshi Nakamoto) at http://cryptocurrencyradio.com #bitcoin #ethereum,0,0,0,False
406,Ameer Rosic@AmeerRosic,#Cryptocurrency: A New Economy For The Future http://dld.bz/eEbgr #bitcoin #blockchain #ethereum,2,1,0,False
408,EtherialCryptoBot@EtherialCrypto,[AUTO] I am holding 0.28129730 ETC and they are currently worth around 0.00061602 BTC #Ethereum Classic,0,0,0,False
409,Ethereum Pricebot@ETHPriceBot,"#Eth 24hr Summary:
Last: $47.75
High: $48.77
Low: $47.50
Change: -0.38% | $-0.18
Volume: $ 41988.00
$eth #Ethereum #coinbase",0,0,0,False
410,Coinstats@coinstats,"Ethereum Classic - ETC
Price: $2.61291
Change in 1h: +-0.03%
Market cap: $236934271.0
Ranking: 7
#Ethereum Classic #ETC",0,0,0,False
412,Coinstats@coinstats,"Ethereum - ETH
Price: $48.155
Change in 1h: +0.07%
Market cap: $4372140295.0
Ranking: 2
#Ethereum #ETH",0,0,0,False
414,/r/Ethereum@r_Ethereum,SONM.io to partner with Chronobank to accept TIME tokens during ICO #EthereumSONM.io to partner with Chronobank to accept TIME tokens during ICOPosted in r/ethereum by u/ChronoBank • 20 points and 1 commentreddit.com,0,0,0,False
417,BitcoinAgile@bitcoinagile,#ethereum Price Technical Analysis  ETH/USD Set For Next Move - Daily #bitcoin News http://daily-bitcoin.net/2017/04/17/ethereum-price-technical-analysis-ethusd-set-next-move…,0,0,0,False
419,Robert Iancu@robert_iancu,"EthBits seeking Alpha
 http://ln.is/JD2ns #bitcoin #cryptocurrency #ETHEREUM #BitcoinUnlimited... by #StartUpRealTime via @c0nvey",2,1,0,False
420,Free BTC Directory@freebitcoindir,Buy #Bitcoin and #ETH instantly and securely at CoinMama #CryptoCurrency http://showmethebitco.in/CoinMama,1,0,0,False
421,Jack Lewin@jlewin_,"Let's see how this goes, then #ethereum",0,0,0,False
423,Chris Pont@chrispont,I'm blaming this venture into new currency on you @BelialBoy ;-) #cryptocurrency #ethereum,2,0,0,False
424,Vindyne8@Vindyne8,"#CreditBit Finalizes 1st Round of Migration to #Ethereum #Blockchain, Launches App http://bit.ly/2oGmuuQ #bitcoin $CRBIT #fintech",14,14,0,False
425,Bitsler Indonesia@Bitsler_Indo,Standings update 17/04 (pekan ke 4) #Bitsler #Bitcoingame #Bitcoingambling #Bitcoin #Bitcoincasino #Casino #ETH #Chatgame #Dicegame,1,0,0,False
426,/r/Ethereum@r_Ethereum,Ethereum.rb 2.1 released with support for signed transactions (and more) #EthereumEthereum.rb 2.1 released with support for signed transactions (and...Posted in r/ethereum by u/marekkirejczyk • 33 points and 0 commentsreddit.com,0,0,0,False
427,Alexander Ainslie@AAinslie,“Synergy in #Ethereum” by @codetractio https://medium.com/@codetractio/synergy-in-ethereum-52eb8fd6fa2e…,0,0,0,False
428,sh1tco1ner@sh1tcoiner,$LTC buy orders stacking #litecoin #cryptocurrency #altcoin $ETH $BTC $PINK,1,0,0,False
429,Cryptonews@_Crypto_channel,David Cameron about #fintech https://youtube.com/watch?time_continue=1&v=hAeON73MImA… #cryptocurrency #blockchain #bitcoin #ethereum #Litecoin #stratisDavid Cameron UK Prime Minister Closing Remarks IFGS2016David Cameron UK PM closes the Innovate Finance Global Summit 2016 highlighting the importance of FinTech to the UK economy and the role of Innovate Finance ...youtube.com,2,0,0,False
430,X11engine@x11engine,3 % Discount Link for #Genesis #Mining - Join the super high profit X11 Mining Contracts. https://genesis-mining.com/a/550815 Now #bitcoin #ether #dash,1,0,0,False
431,Ethereum Pricebot@ETHPriceBot,"#Eth 24hr Summary:
Last: $47.84
High: $48.77
Low: $47.50
Change: -1.32% | $-0.64
Volume: $ 42832.24
$eth #Ethereum #coinbase",1,0,0,False
432,Coinstats@coinstats,"Ethereum Classic - ETC
Price: $2.61669
Change in 1h: +0.33%
Market cap: $237277035.0
Ranking: 7
#Ethereum Classic #ETC",1,0,0,False
433,Bobe'bot@Bobe_bot,"1 #BTC = 1217.7383 #CHF
1 #ETH = 50.4984 #CHF
1 #DOGE = 0.000475708662 #CHF
sources: @cryptonatorcom @hellobity",0,0,0,False
434,Coinstats@coinstats,"Ethereum - ETH
Price: $48.1393
Change in 1h: +-0.06%
Market cap: $4370654218.0
Ranking: 2
#Ethereum #ETH",1,0,0,False
435,Vojislav Rodic@vojislav_rodic,"Exclusive Interview with Vitalik Buterin: #Ethereum, #Bitcoin, ICO & MoreExclusive Interview with Vitalik Buterin: Ethereum, Bitcoin, ICO & MoreCointelegraph caught up with Vitalik Buterin before his lecture in Moscow to speak about Ethereum, Bitcoin, ICOs, Blockchain, scammers, and many other things.cointelegraph.com",1,0,0,False
436,X11engine@x11engine,#Litecoin found a new support level over 12USD. What a great day. #bitcoin #dash #ether #monero,0,0,0,False
437,X11engine@x11engine,Save 3 % on all Genesis Mining Contract by Using this Link: https://genesis-mining.com/a/550815 - Join the train. #bitcoin #dash #ether #mining #genesis,0,0,0,False
438,Crypto Live@crypto_c_radio,#NowPlaying Bitcoins & Gravy - Episode #88.5: Distributed Consensus on Cannabis Genetics at http://cryptocurrencyradio.com #bitcoin #ethereum,2,0,0,False
439,Crypto Live@crypto_c_radio,#NowPlaying Naomi van der Velde - All About That Bitcoin at http://cryptocurrencyradio.com #bitcoin #ethereum,0,0,0,False
440,/r/Ethereum@r_Ethereum,A Report on Chinese Bitcoin Exchange Landscape in March #EthereumA Report on Chinese Bitcoin Exchange Landscape in MarchPosted in r/ethereum by u/8btccom • 2 points and 0 commentsreddit.com,0,0,0,False
441,Rico@notabtctrader,"Anybody watching how this plays out?? #ExtendedAltsWave or #bitcoin showing boss, what will it be?!? $ETH $BTC",0,0,0,False
443,Alexander Ainslie@AAinslie,#Hyperledger: #Ethereum-derived #Burrow Platform Next. #MarmotsRising from their burrows.  https://btcmanager.com/hyperledger-approves-ethereum-derived-burrow-platform/…,1,0,0,False
444,/r/Ethereum@r_Ethereum,"Conclusions from my money burning stunt, and introducing /r/dapplab! #EthereumConclusions from my money burning stunt, and introducing /r/dapplab!A couple weeks ago, [I wrote a post](https://www.reddit.com/r/ethereum/comments/61t5c8/i_just_burned_1_eth_on_purpose_for_my_next_trick/) where I...reddit.com",0,0,0,False
445,Romain Claret@RomainClaret,"#CreditBit Finalizes 1st Round of Migration to #Ethereum #Blockchain, Launches App http://bit.ly/2oqomGX",0,0,0,False
446,EthBits@EthBits,"EthBits on bitsonline https://ico.ethbits.com
http://bitsonline.com/ethbits-ico-blockchain-crypto-exchange/…
#bitcoin #cryptocurrency #ETHEREUM #smartcontracts #Blockchain",64,119,0,False
447,Bogdan Ceobanu @studios,"#Ethereum, this is just the Beginning by @codetractio https://medium.com/@codetractio/synergy-in-ethereum-52eb8fd6fa2e…",0,0,0,False
449,Leo De Vlaemsche@sossen3,I'm in the running to win a Ledger Nano S to @bitcoincafe_ch! #win #contest #ledgerwallet #bitcoin #ethereum http://bit.ly/2psWz6Y,0,0,0,False
450,Blockgeeks@Blockgks,How does #blockchain work? The ultimate guide  http://buff.ly/2dvhaDX #bitcoin #ethereum #startup,0,0,0,False
458,Ethereum Pricebot@ETHPriceBot,"#Eth 24hr Summary:
Last: $47.88
High: $48.77
Low: $47.50
Change: -1.52% | $-0.74
Volume: $ 42116.60
$eth #Ethereum #coinbase",0,0,0,False
459,Coinstats@coinstats,"Ethereum Classic - ETC
Price: $2.60833
Change in 1h: +-0.42%
Market cap: $236518964.0
Ranking: 7
#Ethereum Classic #ETC",0,0,0,False
460,Ethereum Price@EthereumPrice_,"#Ethereum: Ether Price Index
1 ETH =0.041471Ƀ XBT = $48.704515 USD
Today: -0.90%⬇︎ Last 24h: -2.22%⬇︎
https://ethereum-price.com",0,0,0,False
461,Coinstats@coinstats,"Ethereum - ETH
Price: $48.1628
Change in 1h: +0.14%
Market cap: $4372725274.0
Ranking: 2
#Ethereum #ETH",0,0,0,False
462,Manish Ranjan@ManishRanjan098,#Blochchain #consensus explained! #BlockChain #ProofOfStake #ProofOfWork #Ethereum #Bitcoin #CryptoCurrency! https://ethnews.com/proof-of-work-vs-proof-of-stake-explained…,0,0,0,False
463,Ricardo Prieto@RIKITRADER,#Bitcoin #Ethereum  Indian Retail Giant’s $15 Million… http://dlvr.it/NvmS2w #Blockchain #Cryptocurrency #DecentralizedControl #Fintech,5,1,0,False
464,Bill Mew #DigitalEthics #TrustinTech #BLM@BillMew,What is An Initial Coin Offering? via @Blockgks http://bit.ly/2ps8imd #ICO #Ethereum #Bitcoin,1,0,0,False
465,Roderik van der Veer@r0derik,"A new testnet for Clique PoA and Geth 1.6, Rinkeby! http://blckc.hn/2pfTIBc #Ethereum",0,0,0,False
466,Green@greengggggggg,I'm in the running to win a Ledger Nano S to @bitcoincafe_ch! #win #contest #ledgerwallet #bitcoin #ethereum http://bit.ly/2p7qPra,0,0,0,False
467,Crypto Live@crypto_c_radio,#NowPlaying Trevon James - BURST COIN IS GREAT! at http://cryptocurrencyradio.com #bitcoin #ethereum,1,0,0,False
468,JackVerr@jackverr54,"#Ethereum #Casper
Viper : New experimental programming language 
https://github.com/ethereum/viper AND https://github.com/ethereum/casper",1,0,0,False
469,CryptKeeper@CryptKeeperBTT,"#Blockchain Capital Raises $10 Million ICO for VC Startup Fund - CryptoCoinsNews http://crwd.fr/2portjR
#ethereum",1,1,0,False
471,Crypto Live@crypto_c_radio,#NowPlaying Zhou Tonged - Bitcoin's Here at http://cryptocurrencyradio.com #bitcoin #ethereum,0,0,0,False
472,Mr Bitcoin@Crypto_currenci,CreditBit Team Successfully Completes Ethereum Migration http://buff.ly/2pqE430 #CreditBit #Ethereum #Migration,0,0,0,False
473,Ameer Rosic@AmeerRosic,"Join today! Blockgeeks is a #Blockchain innovation hub 
& marketplace http://blockgeeks.com #Bitcoin #Ethereum",0,0,0,False
475,Chris Doerfler@cmdoerfler,"Are #Ethereum and #Blockchain Based Token Sales Securities? know your ICOAre Ethereum and Blockchain Based Token Sales Securities?The invention of ethereum has unleashed a boom in token sales with hundreds of millions of dollars raised so far from the general public, but…trustnodes.com",1,0,0,False
476,BitcoinBuzz vega9@BitcoinBuzzV9,"Italian Wines Will Be Recorded on Blockchain, Authenticity Guaranteed #ethereum http://j.mp/2nTTNuw",1,0,0,False
477,Brave New Coin@bravenewcoin,#Ethereum Price: USD $47.98 $ETH http://ow.ly/6UKf3048WBe,1,0,0,False
478,Ethereum Pricebot@ETHPriceBot,"#Eth 24hr Summary:
Last: $47.73
High: $48.94
Low: $47.50
Change: -2.47% | $-1.21
Volume: $ 41960.61
$eth #Ethereum #coinbase",0,0,0,False
479,Coinstats@coinstats,"Ethereum Classic - ETC
Price: $2.62045
Change in 1h: +0.2%
Market cap: $237617985.0
Ranking: 7
#Ethereum Classic #ETC",0,0,0,False
481,Coinstats@coinstats,"Ethereum - ETH
Price: $48.0926
Change in 1h: +-0.14%
Market cap: $4366292318.0
Ranking: 2
#Ethereum #ETH",1,0,0,False
482,/r/Ethereum@r_Ethereum,"Is Melonport's portal down? http://portal.melonport.com #EthereumIs Melonport's portal down? portal.melonport.comI have Metamask on Chrome and test lots of Dapps, shouldn't be a setup issue. I click on ""Create Portfolio"" and get no response. But the site...reddit.com",0,0,0,False
484,₿ryan@_bjb,The Bitcoin network costs over $2 million each day to run.   #bitcoin #dash #ETHminers-revenue?timespan=30days&daysAverageString=7Unknown chart descriptionblockchain.com,2,2,0,False
486,BTC/Alt Ticker@afjlsfkjadkasdk,"BTC
bitFlyer:131872JPY(-20)
BTCBOX:131000JPY(±0)
coincheck:131857JPY(-13)
ETH
bitFlyer:5248.5JPY(-0.8)
#bitcoin
#Ethereum",0,0,0,False
487,Ameer Rosic@AmeerRosic,"#Blockchain can be confusing, but it doesn't have to be.  http://blockgeeks.com #bitcoin #Ethereum",1,0,0,False
488,Je-Meng@jemenger,Excited to see #Ethereum Casper move from theory / PoCs to implementation. Environmental blockchain: happening! https://github.com/ethereum/research/wiki/Casper-Version-1-Implementation-Guide…,2,0,0,False
489,Fabio Carbone@FabioCarbone80,"LIMITED EDITION!
#GenesisMining #HappyEaster Special promo code 5% discount! Code: 5gJaBCQ Go now! https://goo.gl/UI2tib #BTC #LTC #ETH",0,0,0,False
490,BTC/Alt Ticker@afjlsfkjadkasdk,"BTC
bitFlyer:131892JPY(-12)
BTCBOX:131000JPY(±0)
coincheck:131870JPY(-44)
ETH
bitFlyer:5249.3JPY(-0.5)
#bitcoin
#Ethereum",0,0,0,False
491,Sascha@Enthusiastic_HW,Trading Volume in #Bitcoin on #Poloniex for today - 2017-04-17 (last 24h). Some #Altcoins going crazy again. #Crypto #Litecoin #Ether #dash,1,0,0,False
492,BTC/Alt Ticker@afjlsfkjadkasdk,"BTC
bitFlyer:131884JPY(-45)
BTCBOX:131000JPY(±0)
coincheck:131874JPY(-108)
ETH
bitFlyer:5249JPY(-1.8)
#bitcoin
#Ethereum",0,0,0,False
493,Sascha@Enthusiastic_HW,Trading Volume in USDT on #POLONIEX for today (2017-04-17). #Bitcoin #Litecoin #Ethereum #Monero #dash,0,0,0,False
494,₿itsFromHΞavΞn@BitsFromHeaven,Replying to @cryptoSqueezeAt start of the year I wondered whether $ETH could double to $20 b4 $BTC doubled to $2000. Now I'm thinking $ETH can hit $100 b4 $BTC=$2000.,7,1,0,False
497,Mr Bitcoin@Crypto_currenci,The DAO Ethereum Classic Refund Effort Has Been Extended - CoinDesk http://buff.ly/2plUFYG #DAO #Ethereum #Refund #ExtendedThe DAO Ethereum Classic Refund Effort Has Been Extended - CoinDeskMore than $4m worth of classic ether remains in a DAO refund smart contract.coindesk.com,0,0,0,False
498,BitcoinAgile@bitcoinagile,Hyperledger: #ethereum-derived Burrow Platform Next http://bit.ly/2ohjTUl,1,0,0,False
499,BTC/Alt Ticker@afjlsfkjadkasdk,"BTC
bitFlyer:131910JPY(-30)
BTCBOX:131000JPY(±0)
coincheck:131979JPY(-36)
ETH
bitFlyer:5250JPY(-1.2)
#bitcoin
#Ethereum",0,0,0,False
501,Ethereum Pricebot@ETHPriceBot,"#Eth 24hr Summary:
Last: $47.89
High: $49.00
Low: $47.50
Change: -2.17% | $-1.06
Volume: $ 41277.29
$eth #Ethereum #coinbase",0,0,0,False
502,Coinstats@coinstats,"Ethereum Classic - ETC
Price: $2.61395
Change in 1h: +0.12%
Market cap: $237028576.0
Ranking: 7
#Ethereum Classic #ETC",0,0,0,False
503,Coinstats@coinstats,"Ethereum - ETH
Price: $48.1767
Change in 1h: +-0.0%
Market cap: $4373865262.0
Ranking: 2
#Ethereum #ETH",0,0,0,False
504,BTC/Alt Ticker@afjlsfkjadkasdk,"BTC
bitFlyer:131881JPY(-30)
BTCBOX:131690JPY(±0)
coincheck:131850JPY(-50)
ETH
bitFlyer:5248.9JPY(-1.2)
#bitcoin
#Ethereum",0,0,0,False
505,BTC/Alt Ticker@afjlsfkjadkasdk,"BTC
bitFlyer:131911JPY(-89)
BTCBOX:131690JPY(±0)
coincheck:131900JPY(-260)
ETH
bitFlyer:5250.1JPY(-3.5)
#bitcoin
#Ethereum",0,0,0,False
507,Tristanbeachside@td_beachside,#ethereum I am working hardcore on a #blog for yall that is going to blow your mind. Before that anyone wanna help? #bloggerswanted #bitcoin,1,0,0,False
509,BitcoinAgile@bitcoinagile,April 2017: the Month #blockchain Gaming Hit the Big Time - NEWSBTC #ethereum #bitcoin #ICO http://bit.ly/2ohnIbZ,1,3,0,False
510,BTC/Alt Ticker@afjlsfkjadkasdk,"BTC
bitFlyer:132014JPY(-61)
BTCBOX:131690JPY(-1308)
coincheck:132127JPY(-9)
ETH
bitFlyer:5267.4JPY(+10.8)
#bitcoin
#Ethereum",0,0,0,False
511,/r/Ethereum@r_Ethereum,[ethlance] hire for Reddit to EthAddress community project #Ethereum[ethlance] hire for Reddit to EthAddress community projectPosted in r/ethereum by u/malefizer • 21 points and 22 commentsreddit.com,0,0,0,False
512,Puyin Blockchain@PYblockchain,What are the best #blockchain books to read?https://youtu.be/dAUzMTa2Mv4 #bitcoin #ethereum #startup,1,0,0,False
513,Crypto Live@crypto_c_radio,#NowPlaying BitcoinMeister - Community and leader observations at http://cryptocurrencyradio.com #bitcoin #ethereum,0,0,0,False
514,BTC/Alt Ticker@afjlsfkjadkasdk,"BTC
bitFlyer:131950JPY(-93)
BTCBOX:131507JPY(-503)
coincheck:132043JPY(-9)
ETH
bitFlyer:5251.6JPY(-3.7)
#bitcoin
#Ethereum",0,0,0,False
515,Ameer Rosic@AmeerRosic,Great people deserve a great audience. http://blockgeeks.com #Blockchain #Ethereum #Bitcoin,0,0,0,False
516,BitcoinAgile@bitcoinagile,Hey  You got your #ethereum in my Hyperledger  Hyperledger #LaMatinaleOCTO https://elcurator.net/articles/b17e4d34-hey-you-got-your-ethereum-in-my-hyperledger-hyperledger?referrer=feed…,2,0,0,False
524,Ethereum Pricebot@ETHPriceBot,"#Eth 24hr Summary:
Last: $47.93
High: $49.13
Low: $47.50
Change: -2.32% | $-1.14
Volume: $ 39677.57
$eth #Ethereum #coinbase",0,0,0,False
525,Coinstats@coinstats,"Ethereum Classic - ETC
Price: $2.61275
Change in 1h: +0.04%
Market cap: $236919762.0
Ranking: 7
#Ethereum Classic #ETC",0,0,0,False
526,Ethereum Price@EthereumPrice_,"#Ethereum: Ether Price Index
1 ETH =0.041561Ƀ XBT = $48.720895 USD
Today: -0.69%⬇︎ Last 24h: +0.25%⬆︎
https://ethereum-price.com",0,0,0,False
527,Coinstats@coinstats,"Ethereum - ETH
Price: $48.1891
Change in 1h: +-0.16%
Market cap: $4374928659.0
Ranking: 2
#Ethereum #ETH",0,0,0,False
528,BTC/Alt Ticker@afjlsfkjadkasdk,"BTC
bitFlyer:132008JPY(-27)
BTCBOX:132010JPY(-128)
coincheck:132012JPY(-71)
ETH
bitFlyer:5253.9JPY(-1.1)
#bitcoin
#Ethereum",0,0,0,False
529,Olivier Chapiteau@o_chapiteau,"17Apr2017 06:00 UTC #Ether #Blockchain status - Block height @ 3,549,825 - 78,558 unconfirmed tr. - Last fork height @ 3,549,822",3,0,0,False
530,BTC/Alt Ticker@afjlsfkjadkasdk,"BTC
bitFlyer:132035JPY(+70)
BTCBOX:132138JPY(+793)
coincheck:132083JPY(-7)
ETH
bitFlyer:5255JPY(+2.8)
#bitcoin
#Ethereum",0,0,0,False
531,Bancor@Bancor,'User-Generated Currency': #Bitcoin and the YouTube of Money: http://coindesk.com/user-generated-currency-bitcoin-youtube-money/… by #Bancor's @GaliaBenartzi for @coindesk #ethereum'User-Generated Currency': Bitcoin and the YouTube of Money - CoinDeskWhy the ability of blockchain technologies to create many currencies could create a 'long tail' of new commerce opportunities.coindesk.com,82,66,0,False
532,BTC/Alt Ticker@afjlsfkjadkasdk,"BTC
bitFlyer:131934JPY(±0)
BTCBOX:132220JPY(±0)
coincheck:131972JPY(+27)
ETH
bitFlyer:5251JPY(±0)
#bitcoin
#Ethereum",0,0,0,False
535,Ricardo Prieto@RIKITRADER,#Bitcoin #Ethereum  Live Player Games Announces the… http://dlvr.it/NvjYD7 #Blockchain #Cryptocurrency #DecentralizedControl #Fintech,0,0,0,False
536,Vindyne8@Vindyne8,Come chat about the #aeternity project on @slack: http://bit.ly/2n8ZN0S Meet the @aetrnty team & join the discussion #eth #btc #fintech,15,14,0,False
537,EtherialCryptoBot@EtherialCrypto,[AUTO] I am holding 0.28129730 ETC and they are currently worth around 0.00061757 BTC #Ethereum Classic,0,0,0,False
538,BitcoinAgile@bitcoinagile,"Live Player Games Announces the Release of Uncle Finneys Poker, the Worlds First #ethereum http://bit.ly/2oEKey0",1,0,0,False
539,JC del Castillo@JCCV2045,"#b@nkcoins highest price! 1 US in @Tidex_Exchange
@CoinMKTCap
@Bankcoin_global
$waves
#bitcoin
#altcoins
#cryptocurrency
#blockchain
#eth",1,2,0,False
540,Vindyne8@Vindyne8,Waves DEX goes live in lite client http://bit.ly/2nT0Zqx #wavesplatform $waves #DEX #blockchain #fintech #CAT #eth #btc,22,18,0,False
541,BTC/Alt Ticker@afjlsfkjadkasdk,"BTC
bitFlyer:131869JPY(±0)
BTCBOX:132220JPY(±0)
coincheck:131886JPY(-82)
ETH
bitFlyer:5224.6JPY(+1.3)
#bitcoin
#Ethereum",0,0,0,False
542,BitcoinAgile@bitcoinagile,Microsoft Office Add-in Certifies Documents on #bitcoin & #ethereum Blockchains - gettopicalcom - gettopicalcom http://gettopical.com/microsoft-office/e2f426b97005d63016a73eae6428ab35…,0,0,0,False
543,Ameer Rosic@AmeerRosic,6 Reasons Why #Blockchain is Worth Getting Excited http://snip.ly/7je5i #bitcoin #Ethereum,1,0,0,False
544,Vindyne8@Vindyne8,"#themerkle most-traded #crypto in 2017 so far: 
1. #BTC
2. #ETH  
3. #Litecoin
4. #Monero 
5. #Tether
6. #Pascal
http://bit.ly/2oz8bp5",16,15,0,False
545,Id Crypto Currency@ampuh_10000,@LunyrInc has launched!! Flat price. No early bonuses. Crowdsale instructions available here http://bit.ly/2o0uf9V #ETHEREUM,0,0,0,False
546,CryptoNewswire @CryptoNewswire,"Ethereum Price Technical Analysis ETH/USD Set For Next Move - http://newsbtc.com/2017/04/17/ethereum-price-technical-analysis-ethusd-set-next-move/… $ETH #cryptocurrency #bitcoin #cryptoEthereum Price Technical Analysis – ETH/USD Set For Next MoveEthereum price after a decline from $50.99 to $47.10 found support vs the US Dollar, and now ETH/USD is preparing for the next move.newsbtc.com",3,0,0,False
547,Christian Seberino@c_seberino,Deadline Looms on Ethereum Classic DAO Withdrawals http://buff.ly/2ofNcpf #etc #eth #ethereumclassic #ethereum #blockchain #bitcoin,0,0,0,False
548,BitcoinAgile@bitcoinagile,"Live Player Games Announces the Release of Uncle Finneys Poker, the Worlds First #ethereum http://bit.ly/2ohebll",1,0,0,False
549,BTC/Alt Ticker@afjlsfkjadkasdk,"BTC
bitFlyer:131869JPY(-9)
BTCBOX:132220JPY(+970)
coincheck:131843JPY(-32)
ETH
bitFlyer:5314.3JPY(-0.4)
#bitcoin
#Ethereum",0,0,0,False
551,BitcoinAgile@bitcoinagile,#ethereum Price Technical Analysis  ETH/USD Set For Next Move - NEWSBTC #EthereumPricechart http://newsbtc.com/2017/04/17/ethereum-price-technical-analysis-ethusd-set-next-move…,0,0,0,False
552,Ethereum Pricebot@ETHPriceBot,"#Eth 24hr Summary:
Last: $47.90
High: $49.21
Low: $47.50
Change: -2.42% | $-1.19
Volume: $ 39414.35
$eth #Ethereum #coinbase",0,0,0,False
553,BitcoinAgile@bitcoinagile,Assistance with #ethereum mining rigs https://denver.craigslist.org/cpg/6091343849.html…,0,0,0,False
554,Coinstats@coinstats,"Ethereum Classic - ETC
Price: $2.61169
Change in 1h: +-0.32%
Market cap: $236823643.0
Ranking: 7
#Ethereum Classic #ETC",1,0,0,False
556,Coinstats@coinstats,"Ethereum - ETH
Price: $48.2652
Change in 1h: +-0.06%
Market cap: $4381777842.0
Ranking: 2
#Ethereum #ETH",0,0,0,False
557,BitcoinAgile@bitcoinagile,"Live Player Games Announces the Release of Uncle Finneys Poker, the Worlds First #ethereum http://bit.ly/2ohef4r",0,0,0,False
558,BTC/Alt Ticker@afjlsfkjadkasdk,"BTC
bitFlyer:131801JPY(-49)
BTCBOX:131250JPY(±0)
coincheck:131820JPY(-56)
ETH
bitFlyer:5311.6JPY(-2)
#bitcoin
#Ethereum",0,0,0,False
559,CryptoNewswire @CryptoNewswire,"BTC/USD and ETH/USD Forecast April 17, 2017 - http://newsbtc.com/2017/04/17/btcusd-ethusd-forecast-april-17-2017/… $BTC $ETH #markets #cryptocurrency #investingBTC/USD and ETH/USD Forecast April 17, 2017BTC/USDnewsbtc.com",1,0,0,False
561,BTC/Alt Ticker@afjlsfkjadkasdk,"BTC
bitFlyer:131850JPY(±0)
BTCBOX:131250JPY(±0)
coincheck:131876JPY(-71)
ETH
bitFlyer:5313.6JPY(±0)
#bitcoin
#Ethereum",0,0,0,False
562,BitcoinAgile@bitcoinagile,"Live Player Games Announces the Release of Uncle Finneys Poker, the Worlds First #ethereum https://cryptocoinsnews.com/live-player-games-announces-release-uncle-finneys-poker-worlds-first-ethereum-poker-app-android-devices-e4row-contribution-campaign…",1,0,0,False
563,Crypto Live@crypto_c_radio,#NowPlaying Bitcoins   Gravy - John Barrett at http://cryptocurrencyradio.com #bitcoin #ethereum,0,0,0,False
564,Javed Behleem@Mohamma36601816,https://goo.gl/UxhU4f Get #FreeBits app & get free #bitcoin #Ether #Lite #doge #peer #dash #monero #prime @happygames_,0,0,0,False
565,Christian Seberino@c_seberino,Gregory Maxwell - I do not support the BIP 148 UASF  http://buff.ly/2pflWvz #etc #eth #ethereumclassic #ethereum #blockchain #bitcoin,0,0,0,False
566,Ameer Rosic@AmeerRosic,#Blockchain Technology Proves Itself in Wall Street Test http://snip.ly/i6je1 #Bitcoin #Ethereum,7,0,0,False
568,EtherialCryptoBot@EtherialCrypto,[AUTO] I am holding 0.28129730 ETC and they are currently worth around 0.00061685 BTC #Ethereum Classic,0,0,0,False
570,BTC/Alt Ticker@afjlsfkjadkasdk,"BTC
bitFlyer:131800JPY(-1)
BTCBOX:131250JPY(-647)
coincheck:131778JPY(+3)
ETH
bitFlyer:5311.5JPY(-0.1)
#bitcoin
#Ethereum",0,0,0,False
571,BTC/Alt Ticker@afjlsfkjadkasdk,"BTC
bitFlyer:131801JPY(±0)
BTCBOX:131897JPY(±0)
coincheck:131775JPY(-18)
ETH
bitFlyer:5311.6JPY(±0)
#bitcoin
#Ethereum",0,0,0,False
572,Brave New Coin@bravenewcoin,#Ethereum Price: USD $48.06 $ETH http://ow.ly/6UKf3048WBe,1,0,0,False
573,Ethereum Pricebot@ETHPriceBot,"#Eth 24hr Summary:
Last: $47.90
High: $49.25
Low: $47.50
Change: -1.78% | $-0.87
Volume: $ 40958.58
$eth #Ethereum #coinbase",0,0,0,False
574,Coinstats@coinstats,"Ethereum Classic - ETC
Price: $2.61772
Change in 1h: +-0.7%
Market cap: $237370434.0
Ranking: 7
#Ethereum Classic #ETC",0,0,0,False
575,Bobe'bot@Bobe_bot,"1 #BTC = 1213.2885 #CHF
1 #ETH = 50.4258 #CHF
1 #DOGE = 0.000451227036 #CHF
sources: @cryptonatorcom @hellobity",0,0,0,False
576,Coinstats@coinstats,"Ethereum - ETH
Price: $48.2978
Change in 1h: +-0.23%
Market cap: $4384677717.0
Ranking: 2
#Ethereum #ETH",0,0,0,False
