,user,text,likes,retweets,replies,is_thread
0,bitcoinking.de@CoinkingDe,"Retweeted Vindyne8 (@Vindyne8):

Quantum Foundation Combines #Bitcoin and #Ethereum to Create #Qtum... http://fb.me/8B9Ek4rHM",2,2,0,False
1,Anthony Schmitt Financial Services | Trader@BourseetTrading,Speaking now at #construct2017: @hudsonjameson provides an overview of @ethereumproject #ethereum #blockchain,2,4,0,False
2,Alessandro Gattolin@alegatto93,“7 #blockchain technologies to watch out for in 2017” by @gaurangtorvekar https://medium.com/@gaurangtorvekar/7-blockchain-technologies-to-watch-out-for-in-2017-4b3fc7a85707#.sry2uo97r… #bitcoin #ethereum #zcash #ripple #fabric,2,2,0,False
3,Dewi A@dewi_aries,#Qtum project Smart Contract platform with EVM functionality! @QtumOfficial #BTC #ETH #LTC #monero,2,1,0,False
4,Cris Carrascosa @CarrascosaCris_,"#Zcash on #Ethereum = #ZoE grows up!
http://coindesk.com/zcash-ethereum-how-two-major-blockchains-are-evolving-together/…",2,0,0,False
5,Дмитрий Марков@D_Markovv,"Do not miss the opportunity to participate in the ICO Qtum Project!
#Qtum #blockchain #bitcoin #ethereum",2,0,0,False
6,Zachary Hunchar@ZacharyHunchar,Matt Kindt's #Ether - Issues 1 - 3 http://hunchar.blogspot.com/2017/01/matt-kindts-ether-issues-1-3.html… #comics,2,0,0,False
7,Chrono.tech@ChronotechNews,#RT ICO ChronoBank. 15 days left. #blockchain #ICO #ethereum #bitcoin #wavesplatform #BTC #startup #crowdfunding,31,19,2,False
8,John C. Maxwell III@maxjcm,"Swiss #Blockchain Consortium Develops #Ethereum Trading Tool

#fintech
http://coindesk.com/swiss-blockchain-consortium-develops-ethereum-trading-tool/…",3,5,0,False
9,ΞTHΞЯΞUM ÐΞV NΞWS ⟠@Eth_Dev_News,Cortex #blockchain *agnostic* control panel manages distributed #bitcoin or #ethereum #dApps!b00m!  #ethdev #gamedevGIF,123,114,0,False
11,Blockchain Weekly@blockchainwkly,"Top 10 ICO Campaigns Of 2016 https://medium.com/dinardirham/top-10-ico-campaigns-of-2016-ec737d93db20… #blockchain #ethereumTop 10 ICO Campaigns Of 2016Initial Coin Offerings saw some good projects in 2016. Some with high profits, others with extreme innovation.medium.com",2,0,0,False
12,Vindyne8@Vindyne8,#Chronobank Bug Bounty Program v.2.0 https://blog.chronobank.io/chronobank-bug-bounty-program-v-2-0-f3fa78960b17#.4oa0nlpzo… #bugbounty #btc #eth $WAVES #NEM #ETC #LTC #EMC,15,19,0,False
13,Bitcoin Legend@bitcoin_legend,#Qtum Friendly platform I A great blockchain project #ICO is coming soon. Backed by innovative project https://qtum.org #Eth #BTC,2,1,0,False
14,iExec@iEx_ec,#iExec gets A rate from Jinri Bidu (Daily Coins) http://iex.ec/?p=548 #Bitcoin #blockchain #crowdsale #Ethereum #HPC #Cloud,174,102,0,False
15,BitcoinAgile@bitcoinagile,Contact us - Fintricity #ethereum #blockchain #jobs http://bitcoinagile.com/AD8005/contact-us-fintricity_stream…,2,1,0,False
16,Kan Janyza@KanJanyza,"now it's time for highcap altcoins to move
$DASH $MAID $FCT $ETC $LTC $ETH",2,1,0,False
17,Christoph Wille@WilleChristoph,"Save the date - @VitalikButerin at #Ethereum #Vienna meetup on Tue Feb 14th. Sign up now!Meet Vitalik Buterin (Ethereum)!Tue, Feb 14, 2017, 6:00 PM: In February the EventHorizon 2017 (http://eventhorizon2017.com) conference is taking place in Vienna [masked]) bringing some big names from the ethereum space including Vitmeetup.com",1,0,0,False
18,tidex.com@Tidex_Exchange,#RT [PRE-ANN] TIDEX:Bitcoin and Altcoin exchange [Public Testing] https://bitcointalk.org/index.php?topic=1769969.0… #bitcoin #ethereum #BTC #ETH #WAVES #exchange,2,2,0,False
19,Datarella@Datarella,"How #Ethereum Smart Contracts Could Replace Mining Pool ManagersHow Ethereum Smart Contracts Could Replace Mining Pool Managers - CoinDeskEthereum smart contracts might one day be used to combat 'mining centralization', if a new project called SmartPool comes to fruition.coindesk.com",3,0,0,False
20,ΞTHΞЯΞUM ÐΞV NΞWS ⟠@Eth_Dev_News,"#TokyoEthereumHackathon
DEMO: ""Tourium"" #ethereum #blockchain #dApp  #ethdev #webdev #gamedev #indiedev #devops #IoT0:42284 viewsFrom John Lilic ₿ Ξ ∞",13,19,0,False
21,Shannon Steele@digifinancegirl,Swiss #blockchain consortium develops #Ethereum trading tool | #fintech via @coindesk http://klou.tt/1bhqx843p2z6r,2,0,0,False
22,Woodstock Production@WoodstockPro,RT Eth_Dev_News: Cortex #blockchain *agnostic* control panel manages distributed #bitcoin or #ethereum #dApps!b00m! …,3,0,0,False
23,Qtum@qtum,"#Qtum co-founder, Patrick Dai, will be speaking at the European #Ethereum Development Conference Paris Feb 17-18th http://edcon.io",59,132,0,False
24,bitcoinking.de@CoinkingDe,"Retweeted Vindyne8 (@Vindyne8):

#ETH based Uber of Time #ChronoBank Can Boost Cryptocurrency Adoption... http://fb.me/3p19Xs6SJ",2,2,0,False
25,Patrick J.@xrb,#ETH (Lausanne/Zurich) launched a common Data Science initiative for Switzerland. http://ethrat.ch/sites/default/files/FactSheet_Data_Science_E.pdf…,1,0,0,False
26,Bity@bity,The Whitehat Withdrawal Contract has been extended for 2 months https://blog.bity.com/2017/01/30/the-whitehat-withdrawal-contract-has-been-extended-for-2-months/… #DAO #EthereumThe Whitehat Withdrawal Contract has been extended for 2 monthsPrevious article: Whitehat Withdrawal Contract - Final Deposit is Available It will soon be 6 months since the Whitehat Withdrawal Contract has been deployed. It was heavily used by the community....blog.bity.com,2,5,0,False
27,STEEMIT BELIEVE-IT@bitcoininvester,Join me on PayPal and we’ll get $5 each when you make your first purchase. https://paypal.com/us/invite?token=Ex4VRk02E10… #paypal #bitcoin #ethereum #cryptocoin,3,1,0,False
28,TokenMarket@tokenmarket,TokenMarket and Blockchain Partners Team up to Build Better ICOs for Startups https://tokenmarket.net/blog/tokenmarket-and-blockchain-partners-team-up-to-build-better-icos-for-startups/… #bitcoin #blockchain #ethereum,2,1,0,False
29,ethereum.network@EthereumNetw,"The Dapp Daily - decentralized app updates from the #Ethereum ecosystem
https://dappdaily.com/the-dapp-daily-january-30th-2017-ddec29ae583e…
by @sourcerersioThe Dapp Daily — January 30th, 2017Ethereum ecosystem updates from sourcerers.iodappdaily.com",3,2,0,False
30,dianka@dianka985,"How #Qtum Makes #Ethereum Contracts Run on the #UTXO Model
More information in the official blog- https://qtum.org/blog/
#bitcoin #fintech",1,0,0,False
31,Dr Hermann Rapp@ontofin,Incorporating @ZCashco anonymity into #Ethereum will make major #blockchain networks more compatible. http://bit.ly/2jOGGV5 @least_nathan,3,2,0,False
32,ethereum.network@EthereumNetw,"#Ethereum for Dummies - introducing the next great technological leap forwardEthereum for Dummies - introducing the next great technological leap forward — SteemitMany people have at least heard of Bitcoin, by far the #1 cryptocurrency by market cap. But few outside of… by cryptomancersteemit.com",5,1,0,False
33,Sean@seandotau,#Swiss #Blockchain Consortium Develops #Ethereum Trading Tool” http://buff.ly/2kk6rjn @thomaspower @Stevewal63 @NickAyton @TeamBlockchain,7,6,0,False
34,Patrizio Stavola@halovast,#λ: A community of #languagedesign enthusiasts interested in bringing functional and other paradigms to #Ethereum https://github.com/fp-ethereum/fp-ethereum…,4,0,0,False
35,Christian Seberino@c_seberino,"Monero – a cryptocurrency that focuses on privacy, decentralization, scalability http://buff.ly/2jAQGnq #etc #eth #ethereumclassic",1,0,0,False
36,Olivier Chapiteau@o_chapiteau,"30Jan2017 06:00 UTC #Ether #Blockchain status - Block height @ 3,089,596 - 28,578 unconfirmed tr. - Last fork height @ 3,089,518",2,0,0,False
37,Colombina@Colombina_2,#QTUM Value Transfer Protocol DAPP Platform. JOIN NOW! https://qtum.org @QtumOfficial More see on: https://bitcointalk.org/index.php?topic=1720632.0… #ETH #BTC,1,0,0,False
38,Cointelegraph@Cointelegraph,"More details about #Bitcoin and #Ethereum on:
https://goo.gl/gIVmjI
https://goo.gl/i8FM1N
#finance #cryptocurrency #analytics",10,6,0,False
39,YOURChain@YOURChain_Coop,"These are the idiots who are building YOURChain for YOU for FREE!  http://bit.ly/2jVlGPD #YOURChain #Ethereum #fintech #TechNews #bigdataSeattle Ethereum Meetup: Introduction to RChain, Blockchain 3.0Seattle Ethereum Meetup: Introduction to RChain, Blockchain 3.0Link to the Seattle Ethereum Meetup: http://bit.ly/2j59XNfRChain’s platform architecture is a ...youtube.com",1,0,0,False
40,Anthony Schmitt Financial Services | Trader@BourseetTrading, #Swiss #Blockchain Consortium Develops #Ethereum Trading Tool http://coindesk.com/swiss-blockchain-consortium-develops-ethereum-trading-tool/… #Trading #Bitcoin,2,2,0,False
41,Al Sherriff@CBoxxLtd,"Interesting, the future of #Ethereum in the hands of the C++ developers!  #blockchain @TeamBlockchainQuote TweetLisa Pattenden Lady of the Isle  @London_Lady · Jan 29, 2017Ethereum at a Crossroad as Corporate Interest Grows http://buff.ly/2jKGeY8 # Ethereum #teamblockchain",3,2,1,False
42,DEFI @DoughDeFi,"Difference between LMSR and Liquidity-Sensitive LMSR
https://reddit.com/r/Augur/comments/5r0s7t/difference_between_lmsr_and_liquiditysensitive/…
#augur #ethereum #redditDifference between LMSR and Liquidity-Sensitive LMSRPosted in r/Augur by u/Augureconquestion • 5 points and 4 commentsreddit.com",1,0,0,False
43,Mahalo Patrimoine@mahalopatrim,http://bitcoinsuccess.blogspot.co.id faucet collection #ethereum #bitcoin #blockchain #dogecoin #xapo #satoshi #FinTech... by #BitSuccess,1,1,0,False
44,Romain Rouphael@romain_rouphael,Very exciting ZoE (@zcashco on @ethereumproject) to bring crypto privacy to #ethereum #blockchain http://coindesk.com/zcash-ethereum-how-two-major-blockchains-are-evolving-together/…,1,0,0,False
45,TokenMarket@tokenmarket,TokenMarket is excited to announce ICO services partnership with Blockchain Partners http://ow.ly/pKG9308uwPO #ethereum #bitcoin #ICO,3,1,0,False
46,George Kimionis@kimionis,In case you missed it @CoinomiWallet now provides #dApp support for #ethereum-based coins and allows anyone to interact with smart contracts,10,3,0,False
47,Hudson Jameson@hudsonjameson,Pleasure to talk about Ethereum @coindesk #construct2017 . Here are my slides: http://hudsonjameson.com/presentations/hudson-eth-construct2017.pdf… #ethereum @ethereumproject,11,8,0,False
48,Dan Clark Audio@danclarkaudio,"Anyone think a #headphone based on #ETHER Flow technology?  $799.99, showing @CanJamGlobal New York this weekend!",26,15,2,False
49,Josh Harvey@joshmh,The MakerDAO credit system http://i.imgur.com/4LxipgQ.png #ethereum @MakerDAO,0,0,0,False
50,Collin Crypto@CollinCrypto,"$ETC FUD is pushed back two more months. #ethereum $eth
https://blog.bity.com/2017/01/30/the-whitehat-withdrawal-contract-has-been-extended-for-2-months/…Quote TweetCollin Crypto@CollinCrypto · Jan 26, 2017The anonymous ""White Hat Group"" that hacked the $DAO hackers set to get 2M $ETC (~3000 $BTC ) in 18.5 days. #bitcoin #ethereum #FUDwarning",3,4,1,False
51,Christine Sukasih@Christine_S025,Swiss Blockchain Consortium Develops #Ethereum #Trading Tool: Firms in #Switzerland working… https://goo.gl/fb/M6bNci,0,0,0,False
52,PCN@PaymentsNet,Zcash + Ethereum = : Why Two #Blockchains Are Evolving Together http://ow.ly/Y3mY308txxB #zcash #ethereum #fintech,4,2,0,False
53,CryptoNewswire @CryptoNewswire,Swiss Blockchain Consortium Develops Ethereum Trading Tool - http://coindesk.com/swiss-blockchain-consortium-develops-ethereum-trading-tool/… $ETH #finance #blockchain #cryptoSwiss Blockchain Consortium Develops Ethereum Trading Tool - CoinDeskFirms in Switzerland working on an ethereum-based OTC trading platform say they have completed work on a new privacy solution.coindesk.com,2,0,0,False
54,Josh Metnick @JoshMetnick,US Dollar $USD vs Swiss Franc $CHF in the last four hours.  #bitcoin #ether #ethereum @BitcoinORama @paulvigna @gmtweet3 @divideby0,1,0,0,False
55,andy carrol@andy_carrol1,"Update: #Qtum , The EDCON (European Ethereum Development Conference) is a conference that will take place in Paris #ETH #BTC @QtumOfficial",0,0,0,False
56,Blockgeeks@Blockgks,New Post: Bitcoin For Small Business: What You Must Know http://buff.ly/2jv9HV4 #blockchain #bitcoin #ethereum #fintech,0,0,0,False
57,RChain Cooperative@rchain_coop,"""Blockchain 3.0 - Intro to RChain"" live streaming from Seattle http://bit.ly/2jVlGPD #RChain #Ethereum #fintech #TechNews #bigdata",0,0,0,False
58,Firenze@fire_nze,"Soon to be released Crypto Exchange #TIDEX Check them out http://tidex.com ZERO FEES @Tidex_Exchange $WAVES $BTC $LTC $ETH $DOGE $DSHQuote TweetSasha Ivanov@sasha35625 · Jan 30, 2017http://tidex.com trading fees will be zero for foreseeable future, by the way. they will offer a new service model for crypto",3,4,0,False
59,BlockChannel@BlockChannel,"BlockChannel: #Ether Price Lacks Clear Direction #ETH #PriceAnalysis #Ethereum
https://ethnews.com/analysis/01-30-2017-ether-price-lacks-clearer-direction…",0,0,0,False
60,Marcin Rabenda@MarcinRabenda,"I told you 5 days ago, this was good decision $LTC #LTC #Litecoin
https://twitter.com/MarcinRabenda/status/824180548629397504…
$BTC $XMR $DASH $ETC $ETH $MAIDQuote TweetMarcin Rabenda@MarcinRabenda · Jan 25, 2017Bought a lot of $LTC #LTC before first SW vote.",1,0,0,False
61,Trezor@Trezor,"$ETH will be supported soon, with @myetherwallet integration",1,0,0,False
62,NiceHash@NiceHashMining,NiceHash Miner 1.7.4.3 => https://goo.gl/iaho9g some bug fixes and updates. #bitcoins #zcash #zclassic #ethereum #monero #cryptocurrencies,6,1,0,False
63,Tristan Winters@tristan_winters,"Amazing. With news @fiverr stop taking #bitcoin. This is sorely needed. 

#ethereum #dapp #blockchain @iravagecoinsQuote TweetM A T T H U N T Ξ R@matthunter · Jan 29, 2017“Introducing Ethlance — First job market on #blockchain is online!” by @ethlance https://medium.com/@ethlance/introducing-ethlance-first-job-market-on-blockchain-is-online-64b217a5993d#.jqwhpmhxt… #ethereum",2,0,0,False
64,John Lilic ₿ Ξ ∞@JohnLilic,Replying to @C1aranMurraynot accurate. #Ethereum Devs = 10k+ e.g. @ConsenSysLLC #Truffle dev tool 30k+ dwnlds & growng @uport_me alpha dev release too,2,0,0,False
65,Ambroid@anambroid,"$ETH still looking like a good long. Edge to edge, stop at Kijun or bottom of the cloud. Good R/RPoloniex BTC/ETH Chart - Published on Coinigy.com on January 30th, 2017 at 9:26 AM.Poloniex BTC/ETH Chart - Indicators used: BB (20, 2), EMA (200, close, 0), EMA (50, close, 0), CM_Enhanced_Ichimoku-V5 (20, 60, 120, 30, true, true, true, true, true), Volume (true, 50), MACD (15,...coinigy.com",3,1,0,False
66,Alberto Jauregui | esoteRICK.eth @DisruptBanksy,http://ift.tt/2jvfOJ1 Swiss Blockchain Consortium Develops Ethereum Trading Tool - CoinDesk #ethereum #ether,1,0,0,False
67,kiber0x@kiber0x,"#Zcash + #Ethereum = : Why Two Blockchains Are Evolving Together
http://coindesk.com/zcash-ethereum-how-two-major-blockchains-are-evolving-together/…",3,0,0,False
68,ETHNews@ETHNews_,"#Ether Price Lacks Clear Direction #ETH #PriceAnalysis #Ethereum
https://ethnews.com/analysis/01-30-2017-ether-price-lacks-clearer-direction…",1,1,1,False
69,Aslam Motala@aslammotala,Swiss Blockchain Consortium Develops Ethereum Trading Tool - CoinDesk http://buff.ly/2jLTa2n #Ethereum #decentralize #blockchain,1,0,0,False
70,Zeth Couceiro@Zeth_Plexus,Zcash + Ethereum = : Why Two #Blockchains Are Evolving Together http://coindesk.com/zcash-ethereum-how-two-major-blockchains-are-evolving-together/… @zcashco #ethereum #news,3,0,0,False
71,Johannes Tschesche@smallcapservice,"Swiss #Blockchain Consortium Develops #Ethereum #Trading Tool

http://coindesk.com/swiss-blockchain-consortium-develops-ethereum-trading-tool/…",1,0,0,False
72,Aslam Motala@aslammotala,Zcash + Ethereum = : Why Two Blockchains Are Evolving Together - CoinDesk http://buff.ly/2kHAFO3 #Ethereum #ZCash #blockchain,1,0,0,False
73,Guillaume Moyen@guillaumemoyen,Swiss #Blockchain Consortium Develops #Ethereum Trading Tool - via @coindesk http://nzzl.us/QRKaHqU,1,0,0,False
84,Francesco Villa@cekospiu,Donate to our project! Add funds and receive $$$ in exchange from profits lifetime! @gagpubblicita #ethereum #miner https://indiegogo.com/projects/build-ethereum-mining-farm/x/14702367#/…,0,0,0,False
85,Crypto Live@crypto_c_radio,#NowPlaying Coin Interview - Coin Interview with Blockchain Yield at http://cryptocurrencyradio.com #bitcoin #ethereum,0,0,0,False
87,Coinstats@coinstats,"Ethereum Classic - ETC
Price: $1.34466
Change in 1h: +0.25%
Market cap: $118826522.0
Ranking: 6
#Ethereum Classic #ETC",0,0,0,False
88,Coinstats@coinstats,"Ethereum - ETH
Price: $10.5782
Change in 1h: +-0.72%
Market cap: $935198390.0
Ranking: 2
#Ethereum #ETH",0,0,0,False
90,THOROPLATED@THOROPLATED,@kingdjkayslay tells @Powtv & @Hynaken about the 1st time he heard #Ether before he played it.… https://instagram.com/p/BP59vT0F8_L/,0,0,0,False
92,Bitcoin NewsBoard@bitcoinewsboard,#Bitcoin and #Ethereum are Driving Factors of Open Execution Ini http://bitcoinnewsboards.com/?p=31953 #altcoins #news #openexecution #opensource #trust,0,0,0,False
94,Bitcoin Updater@BitcoinUpdater,What Happened to the Financial Blockchain Revolution #ethereum http://soco.space/vSmrL7,0,0,0,False
101,MedosAdvert@medosadvert,@OstroskyMarcus earn 3% for every day with http://cryptocoins.it/go/etherminers/ #BitCoin #Ethereum #AltCoins via https://Statusbrew.com,0,0,0,False
102,MedosAdvert@medosadvert,Hi @HarterBurton #SCRYPT #MINER 1MH/s 8.80$ Christmas offers on http://cryptocoins.it/go/hashflare/ #Ethereum via https://Statusbrew.com,0,0,0,False
103,Christian Seberino@c_seberino,Bitcoin Plays An Insignificant Role In The Tax Evasion Big Picture http://buff.ly/2jAUtAZ #etc #eth #ethereumclassic #ethereum #blockchain,1,0,0,False
104,Coinstats@coinstats,"Ethereum Classic - ETC
Price: $1.34124
Change in 1h: +0.49%
Market cap: $118522495.0
Ranking: 6
#Ethereum Classic #ETC",0,0,0,False
105,Coinstats@coinstats,"Ethereum - ETH
Price: $10.6573
Change in 1h: +-0.18%
Market cap: $942177940.0
Ranking: 2
#Ethereum #ETH",0,0,0,False
106,BitcoinBuzz vega9@BitcoinBuzzV9,http://bitcoinbuzz.vega9.com - Hot topics: #usd #bitcoin #blockchain #ethereum #iexec #crowdsale,1,1,0,False
107,Crypto Live@crypto_c_radio,#NowPlaying Bitcoins   Gravy - Ode to Satoshi (The Official Bitcoin Song : ) at http://cryptocurrencyradio.com #bitcoin #ethereum,0,0,0,False
108,Salih Daglar@SalihDaglar,How to #Mine #Ethereum on a #Windows PC -- 6 Steps https://youtu.be/IKtwSH6inBs via @YouTube,2,0,0,False
109,LAPITH@bhumharit,"RT maxjcm: Swiss #Blockchain Consortium Develops #Ethereum Trading Tool

#fintech
http://coindesk.com/swiss-blockchain-consortium-develops-ethereum-trading-tool/…",0,0,0,False
110,cryptinsight@cryptinsight,"Instagram video by Mikhail Zorin • Jan 30, 2017 at 9:27pm UTC #ethereum #bitcoin #биткоин #crypto #cryptocurrency https://instagram.com/p/BP51BohjPpl",0,0,0,False
112,Vindyne8@Vindyne8,"#humaniq is going to connect over 1 billion unbanked people to the global economy https://bitcointalk.org/index.php?topic=1711764.0… #ICO live Feb 28 @ 18:00 GMT #ETHQuote TweetHumaniq@Humaniq · Jan 27, 2017We have worldwide ambitions to service the unbanked, including 9 million U.S. households. #blockchain #ethereum https://fdic.gov/householdsurvey/…",14,15,0,False
113,Agata Dreams♆@agata_dreams,Its Better Creating in #Internet at the Night. Because all humans sleep & #Prana #Ether is more clean,0,0,0,False
114,Vindyne8@Vindyne8,"#Qtum wants to unify #Bitcoin & #Ethereum blockchain applications http://technode.com/2017/01/13/qtum-wants-to-unify-bitcoin-and-ethereum-blockchain-applications/… #BTC #ETH
@technodechina @QtumOfficial",15,15,0,False
118,Crypto Live@crypto_c_radio,#NowPlaying Rob Mitchell - The #Bitcoin Game #40: 2016 Year End Special! at http://cryptocurrencyradio.com #bitcoin #ethereum,0,0,0,False
119,/r/Ethereum@r_Ethereum,Chronobank Bug Bounty Program v.2.0 #EthereumChronobank Bug Bounty Program v.2.0Posted in r/ethereum by u/bezV • 7 points and 0 commentsreddit.com,0,0,0,False
120,Briefing.com@Briefingcom,Co’s that have issued #guidance in the last 30 days http://bit.ly/28Lp6Al $AMC $HRC $INTC $BA $LMT $PF $HLF $CHKP $TGT $BGFV $TNAV $ETH,0,0,0,False
121,cryptinsight@cryptinsight,"Instagram video by Mikhail Zorin • Jan 30, 2017 at 9:02pm UTC #ethereum #bitcoin #биткоин #crypto #cryptocurrency https://instagram.com/p/BP5yJqMjn07",0,0,0,False
122,Coinstats@coinstats,"Ethereum Classic - ETC
Price: $1.33385
Change in 1h: +0.31%
Market cap: $117867760.0
Ranking: 6
#Ethereum Classic #ETC",0,0,0,False
123,Ethereum Price@EthereumPrice_,"#Ethereum: Ether Price Index
1 ETH =0.011546Ƀ XBT = $10.653335 USD
Today: +1.44%⬆︎ Last 24h: +1.60%⬆︎
https://ethereum-price.com",0,0,0,False
124,Coinstats@coinstats,"Ethereum - ETH
Price: $10.6894
Change in 1h: +1.04%
Market cap: $944996018.0
Ranking: 2
#Ethereum #ETH",0,0,0,False
126,Alberto Jauregui | esoteRICK.eth @DisruptBanksy,http://ift.tt/2kMUq2W Ethereum Market Report: ETH/BTC Up 34.47% on the Month - http://AllCoinsNews.com (blog) #ethereum #ether,0,0,0,False
128,/r/Ethereum@r_Ethereum,Startups & Enterprises Launch Blockchain IoT Protocol Initiative #EthereumStartups & Enterprises Launch Blockchain IoT Protocol InitiativePosted in r/ethereum by u/toocrypto • 3 points and 0 commentsreddit.com,0,0,0,False
130,/r/Ethereum@r_Ethereum,Company limited by Guarantee #Ethereum http://ift.tt/2jMech5,0,0,0,False
131,Datarella@Datarella,"Where's Casper? Inside #Ethereum's Race to Reinvent its BlockchainWhere's Casper? Inside Ethereum's Race to Reinvent its Blockchain - CoinDeskA dive into Casper, the forthcoming protocol that could radically change the rules of one of the largest blockchain networks.coindesk.com",1,2,0,False
133,Crypto Live@crypto_c_radio,#NowPlaying Coin Interview - Coin Interview with Consensys at http://cryptocurrencyradio.com #bitcoin #ethereum,0,0,0,False
135,/r/Ethereum@r_Ethereum,The Whitehat Withdrawal Contract has been extended for 2 months #Ethereum http://ift.tt/2jMfVDh,0,0,0,False
136,Crypto Live@crypto_c_radio,#NowPlaying Zhou Tonged - You Just Got Mt Goxed! at http://cryptocurrencyradio.com #bitcoin #ethereum,0,0,0,False
137,Ocean Side@oceansidesunset,Bitcoin price expected to go down during february due to China higher fees on exchanges. #bitcoin #litecoin #ethereum #crypto,2,1,0,False
138,Blockgeeks@Blockgks,"Certified online Blockchain, Ethereum & Bitcoin Courses https://courses.blockgeeks.com #blockchain #ethereum #bitcoin",1,5,0,False
140,Cliff K Jordan@CKJordan15,"Earn up to $65,610 daily! join & get the benefits http://bit.ly/coinviv2 #coinomia #ethereum #cryptoguide #Bitcoins",0,0,0,False
142,Greg Wilfahrt@gregwilfahrt,What is #Ethereum? A Beginners Guide #blockchain http://buff.ly/2kJY51h,1,0,0,False
143,Brave New Coin@bravenewcoin,#Ethereum Price: USD $10.64 $ETH http://ow.ly/6UKf3048WBe,0,0,0,False
144,Blockgeeks@Blockgks,"Blockchain For #Business, Should You Care? http://dld.bz/fsh5a #blockchain #startup #ethereum",1,0,0,False
145,Coinstats@coinstats,"Ethereum Classic - ETC
Price: $1.32974
Change in 1h: +0.34%
Market cap: $117502867.0
Ranking: 6
#Ethereum Classic #ETC",0,0,0,False
146,Coinstats@coinstats,"Ethereum - ETH
Price: $10.579
Change in 1h: +-0.01%
Market cap: $935221931.0
Ranking: 2
#Ethereum #ETH",0,0,0,False
147,Lex@LexSokolin,"The latest tech notes from the developers of #Ethereum, for all the #CTO out thereethereum/pmProject Management: Meeting notes and agenda items - ethereum/pmgithub.com",0,0,0,False
148,/r/Ethereum@r_Ethereum,New to etherum and cryto currency #EthereumNew to etherum and cryto currencyhello guys i lack any basic programming skills however ive read a few guides ect i just have a few quick questions i sort of get the contracts...reddit.com,0,0,0,False
150,/r/Ethereum@r_Ethereum,Using Ethereum to implement auction platform? #Ethereum http://ift.tt/2jLTvCf,1,0,0,False
152,Bitcoin Warrior@betget1,#Qtum plans to deliver a business friendly platform that can push forward #Blockchain technology. @QtumOfficial #ETH #BTC #fintech #crypto,0,0,0,False
153,Crypto Live@crypto_c_radio,#NowPlaying Elaine Diane Taylor - Bitcoin Barbarians at http://cryptocurrencyradio.com #bitcoin #ethereum,0,0,0,False
154,/r/Ethereum@r_Ethereum,"How to back up a wallet file on an Apple Mac? #EthereumHow to back up a wallet file on an Apple Mac?On my Windows pc, the ethereum wallet gives me a tool bar at the top of the window where I can click accounts> backup> accounts. The issue is...reddit.com",0,0,0,False
155,Ethereum SE@StackEthereum,How can I check an address to see what custom tokens has been generated at it? http://ethereum.stackexchange.com/questions/11792/how-can-i-check-an-address-to-see-what-custom-tokens-has-been-generated-at-it… #ethereum #tokens,0,0,0,False
160,Crypto Live@crypto_c_radio,"#NowPlaying Laura Saggers - 10,000 Bitcoins at http://cryptocurrencyradio.com #bitcoin #ethereum",0,0,0,False
161,ConsenSys@Consensys,Look out for our founder @ethereumjoseph tomorrow at #Construct2017. He will be covering the public & enterprise developments of #Ethereum,6,2,0,False
162,/r/Ethereum@r_Ethereum,"Using the ethereum blockchain for savings, credit, and insurance independence #EthereumUsing the ethereum blockchain for savings, credit, and insurance...Posted in r/ethereum by u/doodcoin • 4 points and 1 commentreddit.com",0,0,0,False
163,/r/Ethereum@r_Ethereum,Hudson Jameson Construct 2017 presentation Slides #EthereumHudson Jameson Construct 2017 presentation Slidesreddit.com,0,0,0,False
164,Aram Koukia@aramkoukia,“Build and deploy #Ethereum smart contracts using Visual Studio” https://koukia.ca/build-and-deploy-an-ethereum-smart-contracts-using-visual-studio-10218d3b8091#.rotwl2ua5…,1,0,0,False
165,Aram Koukia@aramkoukia,“Create a private #Ethereum #Consortium #Blockchain in #Azure” https://koukia.ca/create-a-private-ethereum-consorium-blockchain-in-azure-3667185276b5#.t63t3rgzf…,0,0,0,False
166,Crypto Live@crypto_c_radio,"#NowPlaying Trace Mayer, J.D. - Trace Mayer recaps #Bitcoin during 2016 at http://cryptocurrencyradio.com #bitcoin #ethereum",0,0,0,False
167,Nick Ayton@NickAyton,"Good Read: https://channels.theinnovationenterprise.com/articles/why-company-directors-must-prioritize-blockchain… #Blockchain #Director #ethereum #commerceWhy Company Directors Must Prioritize Blockchain | Articles | FinanceBlockchain will change not just finance, but the lives of everyone. Nick Ayton looks at why it's so significant and says that we better get our heads around itchannels.theinnovationenterprise.com",1,0,0,False
169,Coinstats@coinstats,"Ethereum Classic - ETC
Price: $1.32595
Change in 1h: +0.77%
Market cap: $117166360.0
Ranking: 6
#Ethereum Classic #ETC",0,0,0,False
170,Coinstats@coinstats,"Ethereum - ETH
Price: $10.5848
Change in 1h: +0.12%
Market cap: $935721120.0
Ranking: 2
#Ethereum #ETH",0,0,0,False
171,lastbattle@GreatGrandBear,Download the app now to stay ahead of the #bitcoin market! https://play.google.com/store/apps/details?id=bitcoin.bitbot… #btc #eth #etc,0,0,0,False
172,Equuleus LLC@realEquuleus,"OMG, #Ethereum Is So Hard Forked via @Blockgks http://buff.ly/2kGEymy #blockchain",1,0,0,False
174,Crypto Live@crypto_c_radio,#NowPlaying The Kozi Two - Bitcoin song: He gave us change (a dedication to Satoshi Nakamoto) at http://cryptocurrencyradio.com #bitcoin #ethereum,0,0,0,False
175,Rodrigo Paulo Gomes []@bgcoin,"Swiss Blockchain Consortium Develops Ethereum Trading Tool
#Switzerland #bitcoin #ethereum #blockchain
http://bit.ly/2kjqXAn",0,0,0,False
179,Ethereum SE@StackEthereum,How many ethereum can I mine with 6 * Radeon RX 480 GDDR5 8GB mining rig? http://ethereum.stackexchange.com/questions/11788/how-many-ethereum-can-i-mine-with-6-radeon-rx-480-gddr5-8gb-mining-rig… #ethereum #goethereum #mining #miningpools,0,0,0,False
180,Ethereum SE@StackEthereum,Whisper shh_getMessages not recieving posted messages with shh_post http://ethereum.stackexchange.com/questions/11789/whisper-shh-getmessages-not-recieving-posted-messages-with-shh-post… #ethereum #goethereum #whisper,0,0,0,False
181,RChain Cooperative@rchain_coop,Information from the “RChain Proof of Stake” stream (http://bit.ly/2jRupD9) stored at http://github.com/rchain/Casper-Proof-of-Stake… #RChain #RHOC #Ethereumrchain/Casper-Proof-of-StakeContribute to rchain/Casper-Proof-of-Stake development by creating an account on GitHub.github.com,0,0,0,False
182,The Royal Vox Post@RoyalVoxPost,"#fintech: Swiss #Blockchain Consortium Develops #Ethereum Trading Tool
http://bit.ly/2kjqXAn",0,0,0,False
183,Blockgeeks@Blockgks,"What Is The Future Of The #Blockchain? A 2017 Prediction
 http://dld.bz/fpPb5 #Ethereum #bitcoin",0,0,0,False
184,Coinstats@coinstats,"Ethereum Classic - ETC
Price: $1.31621
Change in 1h: +-0.02%
Market cap: $116303985.0
Ranking: 6
#Ethereum Classic #ETC",0,0,0,False
185,/r/Ethereum@r_Ethereum,Can I still refund my DAO into eth on http://myetherwallet.com ? #EthereumCan I still refund my DAO into eth on myetherwallet.com ?My friends aunt has sent me her laptop to try to do this for her. Was hoping I could do it easily on MEW but I don't see the option there anymore....reddit.com,2,1,0,False
186,Coinstats@coinstats,"Ethereum - ETH
Price: $10.5707
Change in 1h: +0.38%
Market cap: $934465104.0
Ranking: 2
#Ethereum #ETH",0,0,0,False
187,Ethereum Price@EthereumPrice_,"#Ethereum: Ether Price Index
1 ETH =0.011437Ƀ XBT = $10.563500 USD
Today: +0.48%⬆︎ Last 24h: +0.40%⬆︎
https://ethereum-price.com",0,0,0,False
188,Olivier Chapiteau@o_chapiteau,"30Jan2017 18:00 UTC #Ether #Blockchain status - Block height @ 3,092,625 - 39,397 unconfirmed tr. - Last fork height @ 3,092,614",0,0,0,False
189,BitcoinBuzz vega9@BitcoinBuzzV9,Don't be late to the #litecoin #segwit party! #monero #zcash #ethereum,1,0,0,False
191,Mark Ranford@ranford,"#Ethereum For Dummies :-) very nice intro for anyone wanting to know what Ethereum is & what all the fuss is aboutEthereum for Dummies - introducing the next great technological leap forward — SteemitMany people have at least heard of Bitcoin, by far the #1 cryptocurrency by market cap. But few outside of… by cryptomancersteemit.com",0,0,0,False
194,Ethereum SE@StackEthereum,Accepting Ethereum on a website http://ethereum.stackexchange.com/questions/11787/accepting-ethereum-on-a-website… #ethereum #transactions,0,0,0,False
195,Ameer Rosic@AmeerRosic,Check it out! Beginners guide to #Blockchain http://buff.ly/2dvhaDX #bitcoin #ethereum #startup,0,0,0,False
196,/r/Ethereum@r_Ethereum,What happened to the Doge-ethereum sidechain project? #EthereumWhat happened to the Doge-ethereum sidechain project?reddit.com,0,0,0,False
199,/r/Ethereum@r_Ethereum,Swiss Blockchain Consortium Develops Ethereum Trading Tool #EthereumSwiss Blockchain Consortium Develops Ethereum Trading ToolPosted in r/ethereum by u/rammsteinPL • 21 points and 4 commentsreddit.com,0,0,0,False
200,/r/Ethereum@r_Ethereum,"Decentralized Gambling: Laws, Morals, and Ethics #EthereumDecentralized Gambling: Laws, Morals, and EthicsPosted in r/ethereum by u/csilvaethnews • 7 points and 0 commentsreddit.com",0,0,0,False
201,/r/Ethereum@r_Ethereum,Today is V-Day. Wish him a happy one. #Ethereum http://ift.tt/2jn8Ryc,0,0,0,False
202,/r/Ethereum@r_Ethereum,Proof of orbit for V-Chain today #EthereumProof of orbit for V-Chain todayDear leader is 23 today I believe :) Deposit love here.reddit.com,0,0,0,False
205,Prati Pratim@pratipratim,"Earn $537 a day with NO ad clicking! 
 #ethereum #bitcoin #cryptocurrency
http://bit.ly/2jtcwqP",0,0,0,False
206,Bata Matic@bata_matic,"Earn $537 a day with NO ad clicking! 
 #ethereum #bitcoin #cryptocurrency
http://bit.ly/2jtcwqP",0,0,0,False
207,Ultime Notizie@twittsitalia,"Earn $537 a day with NO ad clicking! 
 #ethereum #bitcoin #cryptocurrency
http://bit.ly/2jtcwqP",0,0,0,False
208,Zvezdana Jovanovic@easymethods,"Earn $537 a day with NO ad clicking! 
 #ethereum #bitcoin #cryptocurrency
http://bit.ly/2jtcwqP",0,0,0,False
211,/r/Ethereum@r_Ethereum,The Ðapp Daily 1/30/17 – Updates from the Ethereum ecosystem #Ethereum http://ift.tt/2kKWc8T,1,0,0,False
212,Swiss Family Office@stefan_becker,"How #Ethereum Smart #Contracts Could #Replace #Mining Pool ManagersHow Ethereum Smart Contracts Could Replace Mining Pool Managers - CoinDeskEthereum smart contracts might one day be used to combat 'mining centralization', if a new project called SmartPool comes to fruition.coindesk.com",0,0,0,False
213,MeeseeksBTC@Meeseeks100BTC,"RT Start mining $ETH or $BTC together with people from all over the world.

https://goo.gl/tYClLG",0,0,0,False
214,/r/Ethereum@r_Ethereum,Contingency pre-sale is in a little over 24 hours! Here's what you need to know. #EthereumContingency pre-sale is in a little over 24 hours! Here's what you...reddit.com,0,0,0,False
216,Ameer Rosic@AmeerRosic,How does #blockchain work? The ultimate guide  http://buff.ly/2dvhaDX #bitcoin #ethereum #startup,0,0,0,False
217,CryptoNewswire @CryptoNewswire,"New Grants Announced for Developers Working on Ethereum-based Projects - https://bitcoinmagazine.com/articles/new-grants-announced-developers-working-ethereum-based-projects-1428699601/… $ETH #blockchain #cryptocurrency #newsNew Grants Announced for Developers Working on Ethereum-based ProjectsIf you are a developer who is currently working on an Ethereum-based project, there could now be additional funding available to you. In a recent blog post,bitcoinmagazine.com",1,0,0,False
218,/r/Ethereum@r_Ethereum,An Ethereum-based domain name system #EthereumAn Ethereum-based domain name systemreddit.com,0,0,0,False
219,Tracey Ryniec@TraceyRyniec,"For those who want some insight into the upscale furniture market, $ETH CEO will be on Mad Money with Cramer tonight. $RH $WSM",0,0,0,False
220,Tracey Ryniec@TraceyRyniec,Want to know how construction and home furnishings are doing? Tune into Mad Money tonight. Both $URI and $ETH CEOs on.,0,0,0,False
221,need-bitcoin.com@need_bitcoin,Swiss Blockchain Consortium Develops #Ethereum #Trading Tool: Businesses in #Switzerland… https://goo.gl/fb/Zqskaf,0,0,0,False
222,Vindyne8@Vindyne8,"#Creditbit to Become #Ethereum Token in Bid to Beat #Bitcoin at Speed
http://goo.gl/HCvf7l $CRBIT @creditbit @Cointelegraph",16,19,0,False
223,MarketBeat@MarketBeatCom,Brokers Offer Predictions for Ethan Allen Interiors Inc.’s Q3 2017 Earnings $ETH http://zpr.io/PNbCz,0,0,0,False
225,Crypto Live@crypto_c_radio,#NowPlaying TheKoziTwo - The proudhon song (bitcoin is a bubble) at http://cryptocurrencyradio.com #bitcoin #ethereum,0,0,0,False
226,Vindyne8@Vindyne8,#Humaniq is bringing 1 billion unbanked people into the global economy. Discover how. http://humaniq.co #discovertheunbanked #eth #btc,14,15,0,False
227,Jithendra Antonio@JANTONIO,"Retweeted Chronobank.io (@ChronobankNews):

#RT ICO ChronoBank. 15 days left. #blockchain #ICO #ethereum #bitcoin... http://fb.me/3kDQhQIy8",0,0,0,False
228,Crypto Live@crypto_c_radio,"#NowPlaying The Dollar Vigilante - Say Hello To The New Boss, Same As The Old Boss at http://cryptocurrencyradio.com #bitcoin #ethereum",0,0,0,False
229,Vindyne8@Vindyne8,Qtum: Connecting #Blockchain Technology With the Commercial World http://btcm.ag/qtumjan #ethereum #fintech @BitcoinMagazine @QtumOfficial,14,16,0,False
230,Watchlist News@WatchlistN,Dougherty & Co Downgrades Ethan Allen Interiors Inc. $ETH to Neutral http://zpr.io/PNbYj,0,0,0,False
232,Vindyne8@Vindyne8,#chronobank Now is a good TIME to get your TIME here: chronobank.io You can also use alts! #btc #eth $waves #nem #etc #ltc #emc,15,16,0,False
233,Раб Божий@Diener_Gottes,Swiss Blockchain Consortium Develops #Ethereum #Trading Tool: Firms in #Switzerland working… https://goo.gl/fb/sZGYCf,0,0,0,False
234,Tom Menner@tmenner,A Plan to Scale the World's First #Sports #Blockchain is Accelerating http://bit.ly/2k8KXUh via @CoinDesk #Taiwan #ethereum @Azure,0,0,0,False
237,Brave New Coin@bravenewcoin,#Ethereum Price: USD $10.55 $ETH http://ow.ly/6UKf3048WBe,0,0,0,False
239,×_×@an0nxiety,Swiss #BTC consortium develops #ETHEREUM  trading toolSwiss Blockchain Consortium Develops Ethereum Trading Tool - CoinDeskFirms in Switzerland working on an ethereum-based OTC trading platform say they have completed work on a new privacy solution.coindesk.com,0,0,0,False
240,Coinstats@coinstats,"Ethereum Classic - ETC
Price: $1.30691
Change in 1h: +0.33%
Market cap: $115478941.0
Ranking: 6
#Ethereum Classic #ETC",0,0,0,False
241,Coinstats@coinstats,"Ethereum - ETH
Price: $10.5107
Change in 1h: +0.08%
Market cap: $929131699.0
Ranking: 2
#Ethereum #ETH",0,0,0,False
242,Ethereum SE@StackEthereum,new array with values when call a constructor http://ethereum.stackexchange.com/questions/11785/new-array-with-values-when-call-a-constructor… #ethereum #solidity,0,0,0,False
243,Golden Gateway@GoldenGatewayUS,Swiss Blockchain Consortium Develops Ethereum Trading Tool http://officialgoldengateway.blogspot.com/2017/01/swiss-blockchain-consortium-develops_78.html… #ethereum,0,0,0,False
245,Bitcoin News@scryptsy,#Scryptsy.com #BTC Swiss Blockchain Consortium Develops #Ethereum #Trading Tool: Firms in… https://goo.gl/fb/prk5eO,1,0,0,False
247,Trial@Trial1551,"Join #QTUM on the @bitcointalk forum: https://bitcointalk.org/index.php?topic=1720632.0… ==> https://qtum.org @QtumOfficial
#cryptocurrency #bitcoin #ETH #BTC",0,0,0,False
249,Vindyne8@Vindyne8,#AlexFork of #humaniq #78 #Blockchain News Top 100 https://rise.global/blockchain-news/r/2483990… #discovertheunbanked #eth #btc #crowdfund http://humaniq.co,16,17,0,False
250,Liz Hermawan@LizHermawan,Swiss Blockchain Consortium Develops #Ethereum #Trading Tool: Firms in #Switzerland… https://goo.gl/fb/b3smKF #vk,0,0,0,False
252,Faith Emmanuel@residualbitcoin,Swiss #blockchain Consortium Develops #ethereum Trading Tool http://bitcoinagile.com/AD96A5/swiss-blockchain-consortium-develops-ethereum-trading-tool_stream…  #ResidualBitcoin,0,0,0,False
253,BitcoinAgile@bitcoinagile,Swiss #blockchain Consortium Develops #ethereum Trading Tool http://bitcoinagile.com/AD96A5/swiss-blockchain-consortium-develops-ethereum-trading-tool_stream…,0,0,0,False
254,SCROLL TECH NEWS@scrollcom,Swiss Blockchain Consortium Develops Ethereum Trading Tool http://dlvr.it/NFBhTQ #Ethereum #News #bitcoin,0,0,0,False
256,cryptinsight@cryptinsight,Swiss #blockchain Consortium Develops #ethereum Trading Tool #暗号通貨 #仮想通貨 #デジタル通貨 #cryptocurrency https://news.invest-cc.com/?p=1577,0,0,0,False
257,Ethereum Monkey@EthMonkey,Swiss Blockchain Consortium Develops Ethereum Trading Tool - CoinDesk #ethereum http://coindesk.com/swiss-blockchain-consortium-develops-ethereum-trading-tool/…,0,0,0,False
259,WowWowCoin@myluckbitcoin,Swiss Blockchain Consortium Develops #Ethereum #Trading Tool: Firms in #Switzerland working on an ethereum-based… http://dlvr.it/NFBQlN,0,0,0,False
260,Ethereum UAE@Ethereum_UAE,Swiss Blockchain Consortium Develops Ethereum Trading Tool http://ift.tt/2jvbGII #Ethereum,0,0,0,False
261,BlockchainItalia@blockchainITA,Can #Ethereum Based #Akasha Revolutionize Social Networks? - CryptoCoinsNews https://cryptocoinsnews.com/can-ethereum-based-akasha-revolutionize-social-networks/…,0,0,0,False
262,BitcoinAgile@bitcoinagile,Swiss #blockchain Consortium Develops #ethereum Trading Tool - CoinDesk #Privacy #Trading http://bitcoinagile.com/AD93DC/swiss-blockchain-consortium-develops-ethereum-trading-tool-coindesk_stream…,1,0,0,False
263,Blockgeeks@Blockgks,Finally! A Simple Guide To understand Ethereum http://dld.bz/fcBTc #Ethereum #blockchain #fintech,0,0,0,False
264,Coinstats@coinstats,"Ethereum Classic - ETC
Price: $1.30273
Change in 1h: +0.05%
Market cap: $115107808.0
Ranking: 6
#Ethereum Classic #ETC",0,0,0,False
265,Donato Pasqualicchio@techlazy_msft,"Bookmark us for #FinTech coverage 

#BigData #Blockchain #Bitcoin #Ethereum #AI #ML #DevOps #IoT #M2M #DevOps #SDN… https://twitter.com/i/web/status/824893561451667457….",0,0,0,False
266,Ethereum Price@EthereumPrice_,"#Ethereum: Ether Price Index
1 ETH =0.011351Ƀ XBT = $10.444505 USD
Today: -0.27%⬇︎ Last 24h: -0.21%⬇︎
https://ethereum-price.com",1,0,0,False
267,Coinstats@coinstats,"Ethereum - ETH
Price: $10.4987
Change in 1h: +0.03%
Market cap: $928057380.0
Ranking: 2
#Ethereum #ETH",0,0,0,False
268,Ethereum SE@StackEthereum,How should I multiply ether by a decimal? http://ethereum.stackexchange.com/questions/11782/how-should-i-multiply-ether-by-a-decimal… #ethereum #solidity,1,0,0,False
269,/r/Ethereum@r_Ethereum,Why we need an ETH Token #EthereumWhy we need an ETH TokenHi Community! We are grateful for your support for our previous work on the fork countdown. We have a few projects to be released soon but as...reddit.com,0,0,0,False
270,Tero Keski-Valkama@keskival,Open #Cybercom #TechTalk in Tampere: https://meetup.com/Cybercom-Tietoiskut/events/237311064/… #blockchain #hyperledger #chaincode #bitcoin #ethereum,1,0,0,False
271,/r/Ethereum@r_Ethereum,American Express joins Hyperledger Project #Ethereum http://ift.tt/2kjc5CG,0,0,0,False
273,Juan José Calderón Amador@eraser,post #elearning State of Blockchain Q3 2016. Slideshare from @coindesk http://klou.tt/xbuyc9gbw9ii #bitcoin #ethereum #cryptocurrency,0,0,0,False
274,Ethereum SE@StackEthereum,Invalid Jump...ing off this bridge if I don't figure this out. http://ethereum.stackexchange.com/questions/11781/invalid-jump-ing-off-this-bridge-if-i-dont-figure-this-out… #ethereum #solidity #testrpc,0,0,0,False
275,/r/Ethereum@r_Ethereum,LaborX decentralised marketplace on Ethereum blockchain #EthereumLaborX decentralised marketplace on Ethereum blockchainPosted in r/ethereum by u/ChronoBank • 13 points and 0 commentsreddit.com,0,0,0,False
276,/r/Ethereum@r_Ethereum,Ethereum for Dummies - introducing the next great technological leap forward #Ethereum http://ift.tt/2jNvFDr,0,0,0,False
277,/r/Ethereum@r_Ethereum,"Contingency - With pre-sale launching in a little over 24 hours, let's meet the team #Ethereum http://ift.tt/2jKlfXy",0,0,0,False
278,/r/Ethereum@r_Ethereum,From Boom to Whimper – Where are the Bitcoin merchants and can Ethereum revive cryptocurrency payments? #EthereumFrom Boom to Whimper – Where are the Bitcoin merchants and can...Posted in r/ethereum by u/arcturnus • 7 points and 2 commentsreddit.com,0,0,0,False
279,/r/Ethereum@r_Ethereum,Introduction to the Ethereum-based Golem Project #Ethereum http://ift.tt/2jKjR7C,0,0,0,False
282,Антон Орлов@aqrisaqris,#Blockchain Angels Invest $1 Million in Bitcoin-Ethereum Hybrid #Qtum http://bit.ly/2j5ZDoD #BTC #altcoin #ETH @QtumOfficial #china #ICO,1,0,0,False
285,Coinstats@coinstats,"Ethereum Classic - ETC
Price: $1.30118
Change in 1h: +-0.08%
Market cap: $114969647.0
Ranking: 6
#Ethereum Classic #ETC",0,0,0,False
286,Coinstats@coinstats,"Ethereum - ETH
Price: $10.4954
Change in 1h: +-0.02%
Market cap: $927753255.0
Ranking: 2
#Ethereum #ETH",0,0,0,False
287,MidEast Times@midetimes,Dougherty & Co Downgrades Ethan Allen Interiors Inc. $ETH to Neutral http://mideasttime.com/?p=1506858,0,0,0,False
288,Ethereum SE@StackEthereum,Transfer from EtherCamp to local geth does not work (testnet) - Balance is Zero http://ethereum.stackexchange.com/questions/11780/transfer-from-ethercamp-to-local-geth-does-not-work-testnet-balance-is-zero… #ethereum #mining #accounts,0,0,0,False
291,Crypto Live@crypto_c_radio,#NowPlaying Coin Interview - Coin Interview with Ecoin Project at http://cryptocurrencyradio.com #bitcoin #ethereum,0,0,0,False
292,Crypto Live@crypto_c_radio,#NowPlaying The Beardy Durfs - Bitcoins at http://cryptocurrencyradio.com #bitcoin #ethereum,0,0,0,False
293,Alexandr Bev@alexandr9015,"#Qtum is gaining very much popularity-don't miss the chance to invest in this project. Website - https://qtum.org
#btc #eth",0,0,0,False
294,Ameer Rosic@AmeerRosic,#Cryptocurrency: A New Economy For The Future http://dld.bz/eEbgr #bitcoin #blockchain #ethereum,1,0,0,False
296,BlockchainItalia@blockchainITA,#Ethereum at a Crossroad as Corporate Interest Grows - CryptoCoinsNews https://cryptocoinsnews.com/ethereum-crossroad-corporate-interest-grows/… #blockchain,0,0,0,False
297,/r/Ethereum@r_Ethereum,Chain Interoperability #Ethereum http://ift.tt/2kJZ7hS,0,0,0,False
298,CryptoCompare@CryptoCompare,The Gemini Exchange is great! Check out our guide on how to #trade there. #ethereumHow to Trade on Gemini Exchange?If you are looking to get trading Bitcoin - one of the top exchanges to start on is Gemini Exchange - the digital asset exchange started by the Winklevoss twins. The exchange is a new breed of...cryptocompare.com,0,0,0,False
299,Coinstats@coinstats,"Ethereum Classic - ETC
Price: $1.30253
Change in 1h: +0.17%
Market cap: $115087191.0
Ranking: 6
#Ethereum Classic #ETC",0,0,0,False
300,Coinstats@coinstats,"Ethereum - ETH
Price: $10.4937
Change in 1h: +-0.1%
Market cap: $927588582.0
Ranking: 2
#Ethereum #ETH",0,0,0,False
305,/r/Ethereum@r_Ethereum,Chronobank makes a strategic partnership with instant exchange service Changelly #Ethereum http://ift.tt/2kiQmdL,1,0,0,False
306,Angel Madhu Deva@angeltserovski,"That kind of day. Studying 
#turquesa #turquoise  #ether… https://instagram.com/p/BP41DWPgGyK75Dc8omBsmaowuR_45hLwIIo8QY0/…",0,0,0,False
308,DEFI @DoughDeFi,"What are the Commission fees going to be? Is there a minimum?
https://reddit.com/r/Augur/comments/5r06rp/what_are_the_commission_fees_going_to_be_is_there/…
#augur #ethereum #redditWhat are the Commission fees going to be? Is there a minimum?I assume there is or it'll be a race to the bottom.reddit.com",0,0,0,False
309,Coinstats@coinstats,"Ethereum Classic - ETC
Price: $1.29925
Change in 1h: +0.12%
Market cap: $114795750.0
Ranking: 6
#Ethereum Classic #ETC",0,0,0,False
310,Ethereum Price@EthereumPrice_,"#Ethereum: Ether Price Index
1 ETH =0.011371Ƀ XBT = $10.473860 USD
Today: -0.09%⬇︎ Last 24h: -0.30%⬇︎
https://ethereum-price.com",0,0,0,False
311,Coinstats@coinstats,"Ethereum - ETH
Price: $10.506
Change in 1h: +0.09%
Market cap: $928661146.0
Ranking: 2
#Ethereum #ETH",0,0,0,False
312,Ethereum SE@StackEthereum,Tracking translations into smart contract ether and tokens http://ethereum.stackexchange.com/questions/11779/tracking-translations-into-smart-contract-ether-and-tokens… #ethereum #solidity #dapps,1,0,0,False
313,Allspires@Allspires,"Retweeted daddybios (@daddybios):

Don't miss! #Qtum co-founder, Patrick Dai at the European #Ethereum... http://fb.me/1Rv8QNQVa",0,0,0,False
314,Ethereum UAE@Ethereum_UAE,Why 2017 is Crucial for Banks to Prove Blockchain Tech’s Worth http://ift.tt/2kL2CRe #Ethereum,0,0,0,False
315,Faith Emmanuel@residualbitcoin,Contact us - Fintricity #ethereum #blockchain #jobs http://bitcoinagile.com/AD8005/contact-us-fintricity_stream… #ResidualBitcoin,0,0,0,False
316,daddybios@daddybios,"Don't miss! #Qtum co-founder, Patrick Dai at the European #Ethereum Development Conference Paris Feb17-18th http://edcon.io
#fintech",1,1,0,False
318,Fintricity@fintricity,We’re hiring #blockchain experts! Send us your CV today #ethereum #blockchain #jobsContact Us | FintricityContact Fintricity today to discuss your digital transformation initiatives.fintricity.com,0,0,0,False
319,Crypto Live@crypto_c_radio,#NowPlaying Coin Interview - Coin Interview with Starbase at http://cryptocurrencyradio.com #bitcoin #ethereum,0,0,0,False
320,Crypto Live@crypto_c_radio,#NowPlaying ytcracker - Bitcoin Baron at http://cryptocurrencyradio.com #bitcoin #ethereum,0,0,0,False
321,TheBitcoinStrip.com@thebitcoinstrip,Why I beleive http://Contingency.tech is destined to the be future of crypto gambling: https://thebitcoinstrip.com/blog/the-next-chapter-of-crypto-gambling.html… #bitcoin #ethereum #fintech,0,0,0,False
323,Ethereum SE@StackEthereum,Invalid Gas Used and Missing trie node when starting a mining geth node http://ethereum.stackexchange.com/questions/11775/invalid-gas-used-and-missing-trie-node-when-starting-a-mining-geth-node… #ethereum #goethereum #mining,2,0,0,False
325,Vindyne8@Vindyne8,Interested in #humaniq bounties? Coming soon! Keep an eye @ this post: https://bitcointalk.org/index.php?topic=1711764.0… #discovertheunbanked #eth #btc #crowdfund,16,14,0,False
327,Ethereum SE@StackEthereum,Invalid Gas Used http://ethereum.stackexchange.com/questions/11775/invalid-gas-used… #ethereum #mining #gas #nodes #solomining,0,0,0,False
328,Vindyne8@Vindyne8,Quantum Foundation Combines #Bitcoin and #Ethereum to Create #Qtum https://btcmanager.com/news/tech/quantum-foundation-combines-bitcoin-and-ethereum-to-create-qtum/… #btc #fintech #startup #crowdfund @btc_manager,15,21,0,False
329,Bill Lewis@WorkstationW,The Four Pillars of Blockchain Technology (Part 1) – Derin Cag – Medium  #bitcoin #dao #ethereum #smartcontracts http://buff.ly/2kGP8Kh,0,0,0,False
330,Vindyne8@Vindyne8,#ETH based Uber of Time #ChronoBank Can Boost Cryptocurrency Adoption http://dlvr.it/N9m0pz @Cointelegraph #btc #etc $WAVES #LTC #NEM #EMC,15,17,0,False
331,Tedy MD@bitcoinjapanese,Peter Pan's Ladies http://vid.staged.com/dbIt #btcjapan #btcchina #ethereum.co.id,1,0,0,False
332,Coinstats@coinstats,"Ethereum Classic - ETC
Price: $1.29503
Change in 1h: +-0.57%
Market cap: $114421459.0
Ranking: 6
#Ethereum Classic #ETC",0,0,0,False
333,Coinstats@coinstats,"Ethereum - ETH
Price: $10.4922
Change in 1h: +-0.23%
Market cap: $927427515.0
Ranking: 2
#Ethereum #ETH",0,0,0,False
334,Crypto Live@crypto_c_radio,"#NowPlaying Technology and Choice - Technology and Choice #12, Influence Says It All at http://cryptocurrencyradio.com #bitcoin #ethereum",0,0,0,False
335,Patrizio Stavola@halovast,"#Swiss #finance industry consortium is working on a #blockchain-based platform for securities traded OTC.
#EthereumBanking secrecy can be kept: Swiss consortium achieves important step towards adoption of blockch...Since September 2016, a Swiss finance industry consortium is working on a blockchain-based transaction platform for securities that are traded Over-The-Counter (OTC). During the project, the research...hslu.ch",0,0,0,False
336,Crypto Live@crypto_c_radio,#NowPlaying Zhou Tonged - Lost Funds at http://cryptocurrencyradio.com #bitcoin #ethereum,1,0,0,False
339,CryptoRaptor@Cryptopoly,#Trading #Cryptocurrency: How do you match up? https://themerkle.com/trading-cryptocurrency-how-do-you-match-up/… via @themerklenews #cyrpto #BTC #ETH #XRP #LTC #XMR,0,0,0,False
343,Ameer Rosic@AmeerRosic,"Join today! Blockgeeks is a #Blockchain innovation hub 
& marketplace http://blockgeeks.com #Bitcoin #Ethereum",4,3,0,False
344,Blockgeeks@Blockgks,What is #Ethereum? A Step-by-Step Beginners Guide  http://dld.bz/fcBTc #blockchain #fintech,1,0,0,False
345,WKRB News@WKRBNews,Brokers Offer Predictions for Ethan Allen Interiors Inc.’s Q3 2017 Earnings $ETH http://ift.tt/2kKNUcJ,0,0,0,False
346,Coinstats@coinstats,"Ethereum Classic - ETC
Price: $1.29985
Change in 1h: +0.04%
Market cap: $114845578.0
Ranking: 6
#Ethereum Classic #ETC",0,0,0,False
347,Coinstats@coinstats,"Ethereum - ETH
Price: $10.5125
Change in 1h: +0.3%
Market cap: $929209279.0
Ranking: 2
#Ethereum #ETH",0,0,0,False
348,WKRB News@WKRBNews,Brokers Offer Predictions for Ethan Allen Interiors Inc.’s Q3 2017 Earnings $ETH http://zpr.io/PNxa2,0,0,0,False
349,Weird Viral Videos@wvv9871,"bit*Starz Bitcoin Casino ""USA Welcome"":     Please check the laws in your jurisdiction or cou.. #ethereum #ether http://dld.bz/fvVte",0,0,0,False
350,Ethereum SE@StackEthereum,How to connect Eris to different accounts to start a chain? http://ethereum.stackexchange.com/questions/11747/how-to-connect-eris-to-different-accounts-to-start-a-chain… #ethereum #blockchain #contractdeployment,0,0,0,False
352,Ameer Rosic@AmeerRosic,"#Blockchain can be confusing, but it doesn't have to be.  http://blockgeeks.com #bitcoin #Ethereum",0,0,0,False
355,CryptoIndexes@CryptoIndexes,Ethereum was the least volatile coin over the last 12h $ETH #Yobit | https://goo.gl/oHcDBG,1,0,0,False
356,Coinstats@coinstats,"Ethereum Classic - ETC
Price: $1.29777
Change in 1h: +-0.26%
Market cap: $114659962.0
Ranking: 6
#Ethereum Classic #ETC",0,0,0,False
357,Ethereum Price@EthereumPrice_,"#Ethereum: Ether Price Index
1 ETH =0.011350Ƀ XBT = $10.410005 USD
Today: -0.28%⬇︎ Last 24h: -0.44%⬇︎
https://ethereum-price.com",0,0,0,False
358,Bitcoin Updater@BitcoinUpdater,The History of Casper – Chapter 2 #ethereum http://soco.space/q2M1DG,0,0,0,False
359,BlackBullTradingPost ₿   @BlackBullTradn,"Cointelegraph: More details about #Bitcoin and #Ethereum on:
https://goo.gl/gIVmjI
https://goo.gl/i8FM1N
#fi… https://twitter.com/i/web/status/825987702877253633…",0,0,0,False
360,Ali Güçlü@aliguclu,"Cointelegraph : More details about #Bitcoin and #Ethereum on:
https://goo.gl/gIVmjI
… https://twitter.com/Cointelegraph/status/825987702877253633…)Quote TweetCointelegraph@Cointelegraph · Jan 30, 2017More details about #Bitcoin and #Ethereum on:
https://goo.gl/gIVmjI
https://goo.gl/i8FM1N
#finance #cryptocurrency #analytics",0,0,0,False
361,LAPITH@bhumharit,"RT: More details about #Bitcoin and #Ethereum on:
https://goo.gl/gIVmjI
https://goo.gl/i8FM1N
#finance… https://twitter.com/i/web/status/825987702877253633…",0,0,0,False
362,LAPITH@bhumharit,"More details about #Bitcoin and #Ethereum on:
https://goo.gl/gIVmjI
https://goo.gl/i8FM1N
#finance… https://twitter.com/i/web/status/825987702877253633…",0,0,0,False
366,Crypto Live@crypto_c_radio,#NowPlaying Zhou Tonged - Bitcoin's Here at http://cryptocurrencyradio.com #bitcoin #ethereum,0,0,0,False
368,Happycoin News ₿@happycoinnews,"Introducing http://Santiment.net - #Ethereum's 1st Cryptomarket Intelligence Platform for Traders and Investors http://ow.ly/Eqzr308txCnSantiment - See what other crypto traders are missingWe provide tools to help you analyze crypto markets and find data-driven opportunities to optimize your investing. Santiment is a behavior analytics platform for cryptocurrencies, sourcing on-chain,...santiment.net",0,0,0,False
369,Brave New Coin@bravenewcoin,#Ethereum Price: USD $10.53 $ETH http://ow.ly/6UKf3048WBe,1,1,0,False
370, Eliza Cheng @ElizaRyenne,Let the bots mine #bitcoin #dogecoin #litecoin #ethereum #gold for you! JOIN NOW at https://eobot.com/user/393610 @eobot,1,0,0,False
371,Blockgeeks@Blockgks,How Can #Blockchain Technology Help Fight Air Pollution? http://dld.bz/fnrst #Ethereum #airpollution,1,0,0,False
373,Coinstats@coinstats,"Ethereum Classic - ETC
Price: $1.29897
Change in 1h: +0.27%
Market cap: $114764237.0
Ranking: 6
#Ethereum Classic #ETC",0,0,0,False
374,Coinstats@coinstats,"Ethereum - ETH
Price: $10.4987
Change in 1h: +0.05%
Market cap: $927961187.0
Ranking: 2
#Ethereum #ETH",0,0,0,False
375,Ameer Rosic@AmeerRosic,Great people deserve a great audience. http://blockgeeks.com #Blockchain #Ethereum #Bitcoin,3,0,0,False
376,Faith Emmanuel@residualbitcoin,#ethereum Price Technical Analysis  ETH/USD Continues To Face Sellers - #bitcoin News #Face http://newsbitcoin.info/ethereum-price-technical-analysis-ethusd-continues-to-face-sellers… …,0,0,0,False
377,BitcoinAgile@bitcoinagile,#ethereum Price Technical Analysis  ETH/USD Continues To Face Sellers - #bitcoin News #Face http://newsbitcoin.info/ethereum-price-technical-analysis-ethusd-continues-to-face-sellers…,2,0,0,False
379,Bitcoin Updater@BitcoinUpdater,Project Bletchley – New Blockchain partners come to Azure Marketplace #ethereum http://soco.space/zjeirV,0,0,0,False
380,InterCooler@intercooleronli,Ethan Allen Interiors Inc. $ETH Plans Quarterly Dividend of $0.19 http://zpr.io/PNajT,0,0,0,False
381,Ethereum SE@StackEthereum,Nethereum. Analog for web3.eth.filter('latest').watch() http://ethereum.stackexchange.com/questions/11773/nethereum-analog-for-web3-eth-filterlatest-watch… #ethereum #nethereum,0,0,0,False
382,ΞTHΞROll@etheroll,"Today we are proud to publish the results of our 3rd party security audit https://etheroll.wordpress.com/2017/01/28/today-we-are-proud-to-publish-the-results-of-our-3rd-party-security-audit/… #ethereumToday we are proud to publish the results of our 3rd party security auditIn the wake of The DAO and in following best practices for smart contract security, Etheroll contracted Piper Merriam for 3rd party independent security audits of the entire suite of our smart cont…etheroll.wordpress.com",0,0,0,False
383,Ameer Rosic@AmeerRosic,6 Reasons Why #Blockchain is Worth Getting Excited http://snip.ly/7je5i #bitcoin #Ethereum,1,1,0,False
384,Crypto Live@crypto_c_radio,#NowPlaying TBP110 - TBP110 - The Technological Revolution at http://cryptocurrencyradio.com #bitcoin #ethereum,0,0,0,False
386,Coinstats@coinstats,"Ethereum Classic - ETC
Price: $1.29394
Change in 1h: +-0.13%
Market cap: $114317635.0
Ranking: 6
#Ethereum Classic #ETC",0,0,0,False
387,Arthur@arturagasyan,"Join to the #Qtum slack, to be in touch with team and members
http://qtumslack.herokuapp.com
#ICO #BLOCKCHAIN #ETH #BTC
@QtumOfficial",0,0,0,False
388,Coinstats@coinstats,"Ethereum - ETH
Price: $10.4947
Change in 1h: +0.02%
Market cap: $927588911.0
Ranking: 2
#Ethereum #ETH",0,0,0,False
389,Alberto Jauregui | esoteRICK.eth @DisruptBanksy,http://ift.tt/2jMqGmx Ethereum Price Technical Analysis – ETH/USD Continues To Face Sellers - newsBTC #ethereum #ether,0,0,0,False
390,Dewi A@dewi_aries,Big Big Big #Qtum : Connecting Blockchain Technology With the Commercial World. https://bitcoinmagazine.com/articles/qtum-connecting-blockchain-technology-with-the-commercial-world-1484145776/… … #BTC #ETH #Blockchain #Moreno,0,0,0,False
392,Ameer Rosic@AmeerRosic,#Blockchain Technology Proves Itself in Wall Street Test http://snip.ly/i6je1 #Bitcoin #Ethereum,1,1,0,False
393,Vindyne8@Vindyne8,"The #humaniq website has a new look, check it out! http://humaniq.co #BTC #ETH #discovertheunbanked #crowdfund #ico",14,15,0,False
394, Amitav Bhattacharjee @bamitav,#Zcash + #Ethereum = : Why Two Blockchains Are Evolving Together http://coindesk.com/zcash-ethereum-how-two-major-blockchains-are-evolving-together/… #Blockchain #Technology #TechNews #RT,0,0,0,False
395,Vindyne8@Vindyne8,"#Qtum update Jan 29, 2017 https://bitcointalk.org/index.php?topic=1720632.msg17660633#msg17660633… European Ethereum Development Conference, February 17th - 18th in Paris #eth #btc",16,16,0,False
397,Vindyne8@Vindyne8,#Emercoin integrated into #Chronobank ICO dashboard chronobank.io You can now invest with $EMC as well! #BTC #ETH $WAVES #ETC #NEM #EMC,14,15,0,False
399,Coinstats@coinstats,"Ethereum Classic - ETC
Price: $1.29541
Change in 1h: +-0.08%
Market cap: $114446340.0
Ranking: 6
#Ethereum Classic #ETC",0,0,0,False
400,Ethereum Price@EthereumPrice_,"#Ethereum: Ether Price Index
1 ETH =0.011357Ƀ XBT = $10.474500 USD
Today: -0.22%⬇︎ Last 24h: -0.07%⬇︎
https://ethereum-price.com",0,0,0,False
401,Coinstats@coinstats,"Ethereum - ETH
Price: $10.4981
Change in 1h: +0.05%
Market cap: $927880832.0
Ranking: 2
#Ethereum #ETH",0,0,0,False
403,Ethereum SE@StackEthereum,"convert from bytes32 to bytes with format ""\xFF\xFF\xFF"" http://ethereum.stackexchange.com/questions/11772/convert-from-bytes32-to-bytes-with-format-xff-xff-xff… #ethereum #bytes",0,0,0,False
405,Crypto Live@crypto_c_radio,#NowPlaying Tone Vays - China & #Bitcoin Price Drop at http://cryptocurrencyradio.com #bitcoin #ethereum,0,0,0,False
406,AliReza Rahbari@rahbari_alireza,"#Bitcoin and #Altcoins News: Can #Ethereum-Based Akasha Revolutionize Social Net...Bitcoin and Altcoins News: Can Ethereum-Based Akasha Revolutionize Social Networks?Governments of the Industrial World, you weary giants of flesh and steel, I come from Cyberspace, the new home of the Mind. On behalf of...bestaltcoin.blogspot.com",0,0,0,False
407,AliReza Rahbari@rahbari_alireza,"#Bitcoin and #Altcoins News: #Ethereum at a Crossroad as Corporate Interest Grow...Bitcoin and Altcoins News: Ethereum at a Crossroad as Corporate Interest GrowsFollowing the explosion of interest in blockchain technology last year,  Vitalik Buterin  gave a presentation at the Hyperledger’s tec...bestaltcoin.blogspot.com",0,0,0,False
408,Crypto Live@crypto_c_radio,#NowPlaying Bitcoins   Gravy - Ode to Satoshi (The Official Bitcoin Song : ) at http://cryptocurrencyradio.com #bitcoin #ethereum,1,0,0,False
409,Ameer Rosic@AmeerRosic,How #Blockchain Helps Brooklyn Dwellers Use Neighbors' Solar Energy http://snip.ly/f3wcc #Ethereum,0,0,0,False
410,Christian Seberino@c_seberino,Has This Ethereum Classic Developer Solved Proof of Stake? http://buff.ly/2kBjMR6 #etc #eth #ethereumclassic #ethereum #blockchain #bitcoinHas This Ethereum Classic Developer Solved Proof of Stake?nasdaq.com,0,0,0,False
412,Faith Emmanuel@residualbitcoin,#ethereum Price Technical Analysis – ETH/USD Continues To Face Sellers #BitcoinNews #BTCNews #NewsBTC #247Bitcoin http://bitcoinagile.com/AD6907/ethereum-price-technical-analysis-ethusd-continues-to-face-sellers_stream… …,0,0,0,False
413,Faith Emmanuel@residualbitcoin,#ethereum Price Technical Analysis – ETH/USD Continues To Face Sellers #BitcoinNews #BTCNews #NewsBTC #247Bitcoin http://bitcoinagile.com/AD68EC/ethereum-price-technical-analysis-ethusd-continues-to-face-sellers_stream… …,0,0,0,False
414,BitcoinAgile@bitcoinagile,#ethereum Price Technical Analysis – ETH/USD Continues To Face Sellers #BitcoinNews #BTCNews #NewsBTC #247Bitcoin http://bitcoinagile.com/AD6907/ethereum-price-technical-analysis-ethusd-continues-to-face-sellers_stream…,0,0,0,False
415,BitcoinAgile@bitcoinagile,#ethereum Price Technical Analysis – ETH/USD Continues To Face Sellers #BitcoinNews #BTCNews #NewsBTC #247Bitcoin http://bitcoinagile.com/AD68EC/ethereum-price-technical-analysis-ethusd-continues-to-face-sellers_stream…,0,0,0,False
416,CryptoNewswire @CryptoNewswire,Ethereum Price Technical Analysis ETH/USD Continues To Face Sellers - http://newsbtc.com/2017/01/30/ethereum-price-technical-analysis-ethusd-continues-face-sellers/… $ETH #blockchain #markets #fintech,1,0,0,False
417,Ethereum Monkey@EthMonkey,Ethereum Price Technical Analysis - ETH/USD Continues To Face Sellers - NEWSBTC #ethereum http://newsbtc.com/2017/01/30/ethereum-price-technical-analysis-ethusd-continues-face-sellers/…,0,0,0,False
418,Faith Emmanuel@residualbitcoin,#ethereum Price Technical Analysis – ETH/USD Continues To Face Sellers #BitcoinNews #BTCNews #NewsBTC #247Bitcoin http://bitcoinagile.com/AD6807/ethereum-price-technical-analysis-ethusd-continues-to-face-sellers_stream… …,0,0,0,False
419,Faith Emmanuel@residualbitcoin,#ethereum Price Technical Analysis  ETH/USD Continues To Face Sellers - NEWSBTC #price http://newsbtc.com/2017/01/30/ethereum-price-technical-analysis-ethusd-continues-face-sellers…  #R…,0,0,0,False
421,BitcoinAgile@bitcoinagile,#ethereum Price Technical Analysis – ETH/USD Continues To Face Sellers #BitcoinNews #BTCNews #NewsBTC #247Bitcoin http://bitcoinagile.com/AD6807/ethereum-price-technical-analysis-ethusd-continues-to-face-sellers_stream…,0,0,0,False
423,Blockgeeks@Blockgks,What does #Zcash mean for #Ethereum? http://dld.bz/fhyWt #blockchain,4,2,0,False
424,BitcoinAgile@bitcoinagile,#ethereum Price Technical Analysis  ETH/USD Continues To Face Sellers - NEWSBTC #price http://newsbtc.com/2017/01/30/ethereum-price-technical-analysis-ethusd-continues-face-sellers…,1,3,0,False
425,Coinstats@coinstats,"Ethereum Classic - ETC
Price: $1.29566
Change in 1h: +-0.03%
Market cap: $114465973.0
Ranking: 6
#Ethereum Classic #ETC",0,0,0,False
426,Coinstats@coinstats,"Ethereum - ETH
Price: $10.4846
Change in 1h: +-0.06%
Market cap: $926668392.0
Ranking: 2
#Ethereum #ETH",0,0,0,False
427,ΞTHΞЯΞUM ÐΞV NΞWS ⟠@Eth_Dev_News,"#TokyoEthereumHackathon
DEMO: ""Tourium"" #ethereum #blockchain #dApp  #ethdev #webdev #gamedev #indiedev #devops #IoTFrom John Lilic ₿ Ξ ∞",13,19,0,False
428,Crypto Live@crypto_c_radio,#NowPlaying Beyond Bitcoin Community - #BitShares Hangout #4 w/ #ChrisHering and Fuzzy! at http://cryptocurrencyradio.com #bitcoin #ethereum,1,0,0,False
430,Crypto Live@crypto_c_radio,"#NowPlaying BitcoinMeister - #Bitcoin media news, #Ethereum Classic spike,  crypto-snobbery, Onecoin is a scam, #Monero at cryptocurrencyrad",0,0,0,False
433,ΞTHΞЯΞUM ÐΞV NΞWS ⟠@Eth_Dev_News,"#uPort alpha is crushing, and @uport_me @PelleB #UI game is tight w/#UX thats legit chill https://pic.twitter.com/wv65ywuCMs #ethereum #ethdev #gamedev",17,32,0,False
434,ΞTHΞЯΞUM ÐΞV NΞWS ⟠@Eth_Dev_News,Colony @joincolony decentralises all teh things. Nextgen #fintech https://blog.colony.io/colony-q1-update-b386425e0a00#.1drhiiojw… #ethereum #ethdev #gamedev,12,20,0,False
435,ΞTHΞЯΞUM ÐΞV NΞWS ⟠@Eth_Dev_News,"Replying to @AugurProjectSecuring @AugurProject
#REP w/@LedgerHQ #NanoS http://blog.augur.net/securing-your-rep-with-a-ledger-nano-s/… #IoT #fintech #blockchain #dApps #gamedev #webdev #ethdev #ethereum",15,23,0,False
436,Ethereum SE@StackEthereum,What is the difference between bytes and bytes32? http://ethereum.stackexchange.com/questions/11770/what-is-the-difference-between-bytes-and-bytes32… #ethereum #solidity,0,0,0,False
437,Mohd Sham Saiman@msham70,...#BitcoinWillUniteUs #ETHEREUM #project | #smart #money #wallET #NoBanNoWall | #nomoneynoTALK | B.E. A.Utiful #Crypto | #anxiety 432 | ...,0,0,0,False
438,Ameer Rosic@AmeerRosic,Why Latin American economies are turning to #bitcoin http://snip.ly/mtab3 #blockchain #ethereum,1,0,0,False
439,Brave New Coin@bravenewcoin,#Ethereum Price: USD $10.55 $ETH http://ow.ly/6UKf3048WBe,1,0,0,False
440,Blockgeeks@Blockgks,Could #Blockchain Technology Bankrupt Spotify? A Music Revolution http://buff.ly/2cWIfNM #ethereum #bitcoin,0,0,0,False
441,Coinstats@coinstats,"Ethereum Classic - ETC
Price: $1.29652
Change in 1h: +-0.17%
Market cap: $114540335.0
Ranking: 6
#Ethereum Classic #ETC",0,0,0,False
442,Coinstats@coinstats,"Ethereum - ETH
Price: $10.4902
Change in 1h: +0.02%
Market cap: $927148256.0
Ranking: 2
#Ethereum #ETH",0,0,0,False
