,user,text,likes,retweets,replies,is_thread
0,🅖🅐🅡🅨 🅛🅔🅛🅐🅝🅓 The Bitcoin Boomer@GaryLeland,@TonyCecala & I start recording the @Crypto_Cousins #Podcast next week #Bitcoin #cryptocurrency #Crypto #ethereum #BitcoinCash #Bitcointalk,0,0,0,False
1,Automatski@theautomatski,'Friendable' The Worlds Social Network. http://bit.ly/2w0xR4g #bitcoin #platform #venture #Ethereum #crowdfunding #equity #investing #ETH,0,0,0,False
2,Felipe@PhilCrypto77,Getting closer... $eth,11,7,1,True
3,aRealWaynker@w4yneKER,"#CFTC stopping fake Bitcoin #traders, helping the good guys. https://cointelegraph.com/news/cftc-files-first-case-regarding-against-bitcoin-fraudsters… : #Cointelegraph $btc $eth $pay $neo $sec $scCFTC Files First Case Against Bitcoin FraudstersFraud makes the entire digital currency industry look bad, so many were pleased when the CFTC announced charges of fraud against Gelfman Blueprint, for alleged Ponzi scheme.cointelegraph.com",0,0,0,False
4,"Dr. Mehdi Sarsar, PMP®@msarsar","http://hacked.com.convey.pro/l/4ARe4oj 

Are you watching closely? 
#Minerva (OWL) #ICO is Smart Money on the #Ethereum #Blockchain by #ICOcheck",0,0,0,False
5,Alex Melen@amelen,Good looking chart for $ETH here with a 4h close above $280 & 100 SMA. The next leg up might happen tonight. #eth #ethereum #ether #bitcoin,9,2,2,False
6,ryanking.rvn@lionking_1996,"Great project for an eSports. Can't wait for us, fans of eSports like Dota 2. #HERO #ICO #ethereumQuote TweetHERO@HEROcoinio · Sep 20, 2017Wondered what makes HERO so unique and why it's the best among all similar options to invest in? Here's the answer https://herocoin.io",0,0,0,False
7,B. Van Randall@bvanrandall,#NewMusic #Bitcoin #bitcoins #cryptocurrency #ethereum #btc #litecoin #coinbase #bitstamp #blockchain #rt Full vid: https://youtu.be/hcFcbtkABNg,1,1,0,False
8,Bitcoin eNews@BitcoinEnews,#Bitcoin is going up. #soccer #bitcoincash #ethereum #ripple #dash #monero #blockchain #investments #invest $xvg #btc #cryptos #altcoinsGIF,4,1,0,False
9,Automatski@theautomatski,'SmartNET' The Worlds Low Power Wide Area Network. http://bit.ly/2w0xR4g #Startups #china #funding #crowdfunding #TokenSales #ether #Top10,0,0,0,False
10,Ethereum manager@EthereumManager,"Etherium cheapest on Cryptopia BTC-market: $284.61 0.07530000BTC

$ETHBTC #etherium $eth $ETHUSD",0,0,0,False
11,Best Coin Faucets@BestcoinFaucets,Fast Easy #Crypto Exchange https://changelly.com/?ref_id=13ab9f7010df… #Bitcoin $bcn $eth $neo $xrp $ltc $xmr $dash $zec $xem #bch $lsk $bts $omg $gnt $doge,1,0,0,False
12,CryptoNini@CryptoNini,"The crypto LinkedIn competitor is doing an ICO
https://steemit.com/tiesnetwork/@uanxufree/the-linkedin-competitor-is-doing-an-token-sale-ties-network-has-some-good-applications…
#blockchain #bitcoin #ethereum #fintech #ICO #TokenSale #Crypto $tgeThe linkedin competitor is doing a token sale: Ties.network (has some good applications) — SteemitI found on twitter someone talking about a crypto LinkedIn and I did some research about it. The main point of my… by uanxufreesteemit.com",1,0,0,False
13,Bitcoin News@BestBitcoinNews,Bitcoin Cash Whitepaper released! #bitcoin #bitcoincash #ethereumBITCOIN CASH | Short ExplanationPODCAST | Difference between Bitcoin Cash and Bitcoin | Practical Explanation of the Hard Forkyoutube.com,0,0,0,False
14,Bitcoin News@BestBitcoinNews,Updated Bitcoin promotional graphics for Bitcoin Cash and more #bitcoin #bitcoincash #ethereumBITCOIN CASH | Short ExplanationPODCAST | Difference between Bitcoin Cash and Bitcoin | Practical Explanation of the Hard Forkyoutube.com,0,0,0,False
15,Foxes Den@foxesden34,"Ethereum Based Energy Startup Grid+ Raises $40 Million in a Pre-Sale http://trustnodes.com/2017/09/23/ethereum-based-energy-startup-grid-raises-40-million-pre-sale… #ethereumEthereum Based Energy Startup Grid+ Raises $40 Million in a Pre-SaleThe tokens pre-sale of Grid+, an ethereum based energy startup that came out of ConsenSys, ended just hours after it started with the project stating:…trustnodes.com",0,0,0,False
16,Automatski@theautomatski,40 #ICOs & #ITOs to choose from. $8bn assets under management http://bit.ly/2w0xR4g #BitCoin #ITOs #Ethereum,0,0,0,False
17,BitcoinAgile@bitcoinagile,#ethereum Price Analysis: Ether Upside But Slow Weekly Movement … http://coingreed.com/ethereum-price-analysis-ether-upside-but-slow-weekly-movement…,0,0,0,False
18,ETH LTC Crypto Bot@eth_bot,I sold ETH-USD #ETH @ 286.27 (not investment advice),0,0,0,False
19,analyst5@analyst5_bot,"#crypto mkt cap last hour


$PAY +2.034m
$STRAT +1.574m
$LSK +1.521m


$BTC -185.831m
$ETH -87.693m
$DASH -13.863m

#altcoins",3,0,0,False
24,Bitcoin News@BestBitcoinNews,Spotted at the Lucky Dragon Casino in Vegas. #bitcoin #ethereum #bitcoincashBITCOIN CASH | Short ExplanationPODCAST | Difference between Bitcoin Cash and Bitcoin | Practical Explanation of the Hard Forkyoutube.com,0,0,0,False
25,Coin Spectator - Real-time cryptocurrency news@coinspectator,Congress Passed A Bill To Deport Suspected 'Gang'... #ethereum #btc #ico #american_civil_liberties_union https://coinspectator.com/news/66749/congress-passed-a-bill-to-deport-suspected-gang-members-theres-just-one-problem…,0,0,0,False
26,Coin Spectator - Real-time cryptocurrency news@coinspectator,"Cops Delete Facebook Post Of Massive ""Weed"" Bust After The Internet... #bitcoin #eth #fintech #cannabis https://coinspectator.com/news/66748/cops-delete-facebook-post-of-massive-weed-bust-after-the-internet-corrects-them…",0,0,0,False
27,Crypto Yoyo@cryptoyoyo,Painted Vitalik Buterin tonight. via /r/ethereum http://bit.ly/2xr54nw #ethereum,0,0,0,False
28,Coin Spectator - Real-time cryptocurrency news@coinspectator,Spain In Crisis: Catalan Police Reject Madrid Ta... #eth #altcoins #fintech #17000_member_catalan_police https://coinspectator.com/news/66747/spain-in-crisis-catalan-police-reject-madrid-takeover-vow-to-resist…,0,0,0,False
29,BitcoinAgile@bitcoinagile,An Advanced Cryptocurrency Ticker Utilizing Gems  peerguess  Medium #ethereum #peerguess https://medium.com/@peerguess/an-advanced-cryptocurrency-ticker-utilizing-gems-c33cc1b05ca7…,0,0,0,False
30,/r/Ethereum@r_Ethereum,How would routing attacks differ between the bitcoin and ethereum networks versus tangle network like Iota's? #Eth…How would routing attacks differ between the bitcoin and ethereum...reddit.com,0,0,0,False
31,CoinVedi@CoinVedi,"CFTC Files First Case Regarding Against Bitcoin Fraudsters
https://coinvedi.com/cftc-files-first-case-regarding-against-bitcoin-fraudsters/…
#Bitcoin #Blockchain #Cryptocurrency #Ethereum",1,0,0,False
32,#1c0@GO1c0,"#Ambrosus #ICO #swiss #blockchain solution for #pharma and #food. #KYC whitelist only! 
More info here: https://blog.ambrosus.com/how-to-participate-in-ambrosus-tge-7cf1fb7b13c0…
#ethereum",0,0,0,False
33,Adrian's Toaster@enigmapi_one,"Hello humans, #Ethereum is currently around $282.51 as of Sat 23 Sep 23:30:02 UTC 2017",0,0,0,False
34,Kelly Sanders@kelly03sanders,"Seats are filling up fast for @fidcomnet ICO.  #crowdsale #bitcoin #blockchain #ico #token #ethereum #eth
https://twitter.com/fidcomnet/status/911329016292020225…This Tweet is unavailable.",0,0,0,False
37,Ethereum Bidder@EthereumBidder,Ledger Nano S Cryptocurrency Bitcoin Ethereum Hardware Wallet Brand NEW in Stock http://ebay.to/2fHFSkW #US #ethereum,0,0,0,False
38,Ethereum manager@EthereumManager,"Etherium cheapest on Cryptopia BTC-market: $281.72 0.07504627BTC

$eth #etherium $ETHBTC $ETHUSD",0,0,0,False
39,Waqar Azeem@waq_azeem,Ethereum’s Byzantium Hard Fork Postponed For Further Testing http://cstu.co/7facc0 $BTC $ETH #Bitcoin,0,0,0,False
40,無料レポート@masaranman,"RT! The #UTRUST Pre-ICO is live!  Have you brushed up on the Whitepaper?
#ICO #BITCOIN #ETHEREUM #cryptocurrency
https://utrust.io/#whitepaper",0,0,0,False
41,Coin Spectator - Real-time cryptocurrency news@coinspectator,Mainnet Release: v2.5.1 #ethereum #eth #altcoin https://coinspectator.com/news/66737/mainnet-release-v251…,0,0,0,False
42,Bitcoin News@BestBitcoinNews,"May theymos, bashco, Blockstream and Core-supporters of censorship be exiled and… #bitcoin #bitcoincash #ethereumBITCOIN CASH | Short ExplanationPODCAST | Difference between Bitcoin Cash and Bitcoin | Practical Explanation of the Hard Forkyoutube.com",0,0,0,False
43,Center Cloud@center_cloud,Changelly #Bitcoin #Ethereum #Monero #Ripple #Litecoin #Dash cryptocurrency exchange - https://goo.gl/8c72uR #cloud,0,0,0,False
44,"BitcoinhogFix The Money, Fix The World@bitcoinhog","Those who sold their crypto-currency will buy back in, those new to game will take us to an ATH. Only way is up.

$btc $eth $neo $omg $wtc",3,0,0,False
45,Arvin Storey@CryptoStorey,"Let us pray!  $eth $btc #cryptocurrenciesQuote TweetNicola Duke@NicTrades · Sep 23, 2017Get ready for ETH to outperform BTC for a bit",0,0,0,False
46,Blockgeeks@Blockgks,Welcome to Fortune's 2016 40 Under 40 http://dld.bz/eWbaX #ethereum #blockchain #business,2,0,0,False
47,Gambiste@GambisteFinance,"Evening Hypest Alternative Currencies, check out Gambiste Top 10: $BTC $BTC $DASH $ETH $OMG $BCH $ZEC $LTC $ARK http://gambiste.com/index.php/2017/09/23/gambiste-top-10-evening-hypest-alternative-currencies-28/…",1,0,0,False
48,/r/Ethereum@r_Ethereum,Running out of disk space due blockchain size #EthereumRunning out of disk space due blockchain sizereddit.com,0,0,0,False
49,BitcoinAgile@bitcoinagile,"China Exchange Ban Rumors Pull #ethereum, #bitcoin and Following Altcoins to Crash up to 20% of Loss - Ethereum http://bitcoinagile.com/13446A2/china-exchange-ban-rumors-pull-ethereum-bitcoin-and-following-altcoins-to-crash-up-to-20-of-loss-ethereum-world-news-blog_stream…",0,0,0,False
50,FintechNews HongKong@FintechNewsHK,"The World's Safest Place For #Digital Money 

$crypto #btc #eth #mobilepayments #digitalbanking #ICO
https://buff.ly/2f89FTm",4,4,0,False
51,Ethereum Bidder@EthereumBidder,Ethereum mining rig http://ebay.to/2wX84d6 #UK #ethereum,0,0,0,False
54,Ethereum Pricebot@ETHPriceBot,"#ETH 24hr Summary:
Last: $282.55
High: $285.55
Low: $260.02
Change: 7.70% | $20.19
Volume: $19,468,447.71
$ETH #Ethereum #Pricebots",0,0,0,False
55,ETH / GBP@EthGbp,"# ETH Price September 23rd: 1 ETH = £216.73 GBP
#Ethereum #Ether",0,0,0,False
56,𝙅𝙤𝙝𝙣 𝙓 𝙉𝙁𝙏@bitcoin_army,"@atlantio: 1 #ETH = 505 #ATL, JOIN THE #ICO NOW AND GRAB 19% FOR A LIMITED TIME ONLY. https://atlant.io
#ethereum #atlant_platform",0,0,0,False
57,Jan Miranda@JanMiranda,Replying to @julianhosp and @tenxwalletI know a smart #Ethereum #blockchain developer in #Toronto @technocrypto that works at @weareledger - He may have some suggestions.,0,0,0,False
58,Ethereum Updates@Current_ETH,The current price of Ethereum in USD is: $282.32 #Ethereum #ETH,0,0,0,False
59,Crypto Lahey@crypto_lahey,What's the Drake Equation for crypto economics becoming the norm? $ETH #cryptocurrency,0,0,0,False
60,Topcrypostats@topcrypostats,"Ethereum - ETH
Price: $282.01
Change in 1h: +0.22%
Market cap: $26,731,073,551.00
Ranking: 2
#Ethereum #ETH",0,0,0,False
61,ETH / GBP@EthGbp,"# ETH Price September 23rd: 1 ETH = £215.87 GBP
#Ethereum #Ether",0,0,0,False
62,Flat Cologne@bitcoinhacks,#BTC price increased! Buying @ $3749.88 & Selling @ $3751.37  $btc $eth $etc $neo $dgb $dash $strat $eos $omg $pay $xrp $xmr $gas ,0,0,0,False
63,Eth Hourly Price@eth_hourly,"Current #ethereum price is $282.01, an increase of +0.22%, a market cap of $26,731,073,551 and 24 hr. vol. of $433,875,000",0,0,0,False
64,WorldCoinIndex@WorldCoinIndex,Cryptocurrencies $ETH $LTC $DASH $XMR $ZCASH https://worldcoinindex.com,1,0,0,False
65,BitcoinAgile@bitcoinagile,#ethereum testnet just verified a zcash transaction #explorer http://bitcoinagile.com/1344644/ethereum-testnet-just-verified-a-zcash-transaction_stream…,0,0,0,False
66,Blockchain Entertainment@BchainEntertain,"I'm Back @YouTube
https://youtu.be/uVKs-grbWqQ
Been Learning How to Code #smartcontracts #Ethereum #Erc20 #tokens #SubscribeI'm BACK! With HUGE Future Plans!!I've been away learning how to code a little bit in Ethereum.I now know how to code and verify an ERC-20 Token.I'm now working on Crowdfunding smart contract...youtube.com",0,0,0,False
67,Rogério Nunes Mota@NRogerionmota1,Earn ethereum for clicking ads https://bitvertizer.com/?ref=UOCZ5698 #ethereum via @EtherClicks,1,0,0,False
68,Ruud Joustra@ruudjoustra,The latest The Ruud Joustra Daily! http://paper.li/ruudjoustra?edition_id=73cc40b0-a090-11e7-99e6-002590a5ba2d… #ethereum,0,0,0,False
69,Automatski@theautomatski,'SmartNET' The Worlds Low Power Wide Area Network. http://bit.ly/2w0xR4g #blockchain #cybersecurity #Ethereum #ITOs #tech #ICOs #icoalert,0,0,0,False
70,Cryptosaurus@DinoCrypto,Hodling $BTC $ETH $BAT $NEO $GAS $MTL $IOC and $BTS,3,2,0,False
71,R.Heart's forking ETH. HEX.com 40% APR 1189x @494d@RichardHeartWin,How do you feel about #Ethereum ICOing a BIP?Wut?16.8%Wat?8.1%WTF?48.8%World computah26.3%346 votes·Final results,7,0,0,True
72,Automatski@theautomatski,Global Crypto Wallet for POS. http://bit.ly/2w0xR4g #investing #btc #bitcoin #cryptocurrency #kickstarter #campaign #tech #funding #ETH,0,0,0,False
73,CryptoRaccoon@CryptoRaccoonn,Replying to @CryptoGatesWould be really strange since $eth is not meant as currency. Do you have any proof? It would be nice for the #ethereum hodl'ers tho :p,1,1,1,False
74,$hillfoyle@Machinemadegods,$xzc goin hiking $btc $eth $omg $zec $pay $ltc,1,1,0,False
75,Crypto Fans@arya_adika_r,looking good project #HERO #ICO #ethereum @HEROcoinio,0,0,0,False
76,Ethereum SE@StackEthereum,"Ledger still shows that I have a balance of ETH, but I sent the entire amount twice to Bittrex https://ethereum.stackexchange.com/questions/26979/ledger-still-shows-that-i-have-a-balance-of-eth-but-i-sent-the-entire-amount-tw… #ethereumLedger still shows that I have a balance of ETH, but I sent the entire amount twice to BittrexMy Ledger is still showing my entire ""balance"" of ETH when I open the wallet, but it also shows the twice attempted transfer of the entire amount to Bittrex underneath it. Both times I tried to tra...ethereum.stackexchange.com",0,0,0,False
77,#1c0@GO1c0,"#Ambrosus #ICO write REQUEST KYC to info @ambrosus.com. 97kETH in presale, current #TGE 4.5k #eth.
#ethereum #pharma #food #meds #swiss #kyc",0,0,0,False
78,CryptoOverSignals@CryptoOverSign,"$ETH / $btc:  Overbought #Poloniex 
Last Price: 0.07519512
24hrChange: 3.6%
Volume: 4,233.170",0,0,0,False
79,BitcoinAgile@bitcoinagile,Toronto Firm Evolve Applies for #bitcoin-Based ETF in Canada - Bittoxcom #ethereum #btc http://bitcoinagile.com/1344556/toronto-firm-evolve-applies-for-bitcoin-based-etf-in-canada-bittoxcom_stream…,0,0,0,False
80,analyst5@analyst5_bot,"#crypto mkt cap last hour


$XRP +10.161m
$DASH +9.100m
$XEM +5.400m


$ETH -129.765m
$BTC -51.431m
$NEO -7.535m

#altcoins",2,0,0,False
81,Coin Spectator - Real-time cryptocurrency news@coinspectator,CoinLoan Crowdsale to Start Soon. Should You Subscribe? #blockchain #ethereum #btc #sponsored_stories https://coinspectator.com/news/66711/coinloan-crowdsale-to-start-soon-should-you-subscribe…,0,0,0,False
82,Coin Spectator - Real-time cryptocurrency news@coinspectator,Amazon Will not Accept Bitcoin Payments Anytime Soon #cryptocurrency #ethereum #crypto #bitcoin https://coinspectator.com/news/66710/amazon-will-not-accept-bitcoin-payments-anytime-soon…,0,0,0,False
83,Crypto Savior@crypto_savior,Bitnovo Offers Loaded Bitcoin Cards at Fifty Spanish Carrefour Retail Stores http://cstu.co/633121 $BTC $ETH #bitcoin #blockchain,1,0,0,False
84,Crypto King@Crypto_Pay,"$iop $IOP 2x tomorrow buy & hodl! 
$iop $trst $blk $nxt $cfi $btc $qtum $omg $bat $strat $start $bcc $eth $waves $lsk $ltc",2,4,1,False
85,Mike@magolnick,Hard fork for #Ethereum postponed #bitcoin #bitqy #blockchain #cryptocurrency http://fb.me/EiglDSbi,1,0,0,False
86,Red Ed@colorsign,They still have The Belt & The Pants!!! Less than $125.00. #punk #trashandvaudville #eastvillage #touristing #Ethereum,0,0,0,False
87,Automatski@theautomatski,40 #ICOs & #ITOs to choose from. $8bn assets under management http://bit.ly/2w0xR4g #deals #blockchain #venturecapital #Startups #ether,0,0,0,False
88,jayjie.eth | Human Being@jim380,"1. https://twitter.com/CryptoTutor/status/911585147140665344…
2. https://twitter.com/jim380/status/911001611673071616…
which $BTC wave count do you agree with more? $neo $eth $ltc $edg $ok $vtc $wtcQuote Tweetjayjie.eth | Human Being@jim380 · Sep 21, 2017@Kuronekkoz1989 $BTC longer term update.
$neo $eth $ltc $edg $ok $vtc $wtc",2,3,0,True
89,Adrian's Toaster@enigmapi_one,"Hello humans, #Ethereum is currently around $282.52 as of Sat 23 Sep 22:30:03 UTC 2017",0,0,0,False
91,gMAK@gMAKcrypto,"And atomic swaps & Zerocoin on ETH.

Do yourself a favour $XZC. 
$BTC $ETH #Masternodes #altcoins #cryptocurrencyQuote TweetgMAK@gMAKcrypto · Sep 23, 2017Yes $XZC went up 70% since I called it 

BUT they haven't even formally announced their masternodes yet! Do yourself a favour...

#Znodes https://twitter.com/gMAK_88/status/910490537995759617…",1,0,0,False
92,Rahul Sood @rahulsood,"Ethereum Co-founder Joins UnikoinGold Advisory Board

#Ethereum #ERC20 #Cryptocurrency #Blockchain #Bitcoin #ICOEthereum Co-founder Joins UnikoinGold Advisory Board - Unikrn NewsWe’re pleased to announce that we’ve brought on Ethereum co-founder Anthony Di Iorio as a purchaser and active advisor to UnikoinGold.news.unikrn.com",33,7,1,False
93,Krypto-Invest@Kryptolnvest,"Wanna fly to the moon! keep tracking our tweets! #OKcash #pay #btc #ETH #neo #omg #QtumQuote TweetCrypto Alchemist@cryptoalchemist · Sep 23, 2017An even better looking inverse head and shoulders formation. Next leg is the rocket to the moon.  @eBoostCoin $ebst",0,0,0,False
94,Ray L@RayLoActual,"http://AltcoinExchange.com! BUILT BY TRADERS, FOR TRADERS! #crypto #ethereum #altcoins #bitcoin #btc #cryptocurrency http://altcoinexchange.com/?kid=H0VKX",0,0,0,False
95,Bitcoin News@BestBitcoinNews,"http://youtu.be/e_9QouZWUvc ""The money shot"" #Bitcoin #BitcoinCash #EthereumWhat is BITCOIN CASH? Practical Explanation of the Hard Fork!Difference between Bitcoin Cash and Bitcoin explained in under 3 Minutes! Is Bitcoin Cash the REAL Bitcoin in regards to Satoshi's Vision? SUBSCRIBE & LIKE! ...youtube.com",0,0,0,False
96,/r/Ethereum@r_Ethereum,Has anyone here sold their entire bitcoin savings to buy ethereum? #EthereumHas anyone here sold their entire bitcoin savings to buy ethereum?reddit.com,1,0,0,False
97,Bitcoin News@BestBitcoinNews,The money shot #bitcoin #ethereum #bitcoincashBITCOIN CASH | Short ExplanationPODCAST | Difference between Bitcoin Cash and Bitcoin | Practical Explanation of the Hard Forkyoutube.com,1,0,0,False
98,BitcoinBuzz vega9@BitcoinBuzzV9,http://bitcoinbuzz.vega9.com - Hot topics: #crypto #monacoin #bitcoin #blockchain #cryptocurrency #ethereum,5,0,0,False
99,CoindicatorBOT@CoindicatorBot,"$ETH Signal Result

Time:2017-09-23 16:18:27 GMT 

Price:0.07491197

Potential Profit/Loss

1h: 0.36%
3h: 0.64%
6h: 0.7%

 $btc",0,0,0,False
100,nyotoharrison@homecashpower,#Udemy #Ethereum & #Ripple Course (2 Course Bundle) [100%off] #blockchain #cryptocurrency #cryptoinvestor #coupon http://anycouponcode.net/udemy-coupon-ethereum-ripple-course-2-course-bundle-100-off/…,1,0,0,False
101,onlinemoneysecret@hardyongarso,#Udemy #Ethereum & #Ripple Course (2 Course Bundle) [100%off] #blockchain #cryptocurrency #cryptoinvestor #coupon http://anycouponcode.net/udemy-coupon-ethereum-ripple-course-2-course-bundle-100-off/…,0,0,0,False
111,R.Heart's forking ETH. HEX.com 40% APR 1189x @494d@RichardHeartWin,Which failures are most likely in #Ethereum hard fork upgrade attempts? How wrong can it go?Two chains which disagree23%Both chains halt11.7%Hidden error post facto43.8%Miners attack21.5%265 votes·Final results,7,2,9,True
