,user,text,likes,retweets,replies,is_thread
0,WeTrustLeonD@WeTrustLeonD,More #Tech details about how #WeTrust is using #Blockchain to #disrupt traditional banking and insurance https://medium.com/wetrust-blog/how-wetrust-works-under-the-hood-part-2-frontend-and-backend-deep-dive-7f9353b2c99b#.t7kjj81lv… #EthereumHow WeTrust Works Under the Hood Part 2: Frontend and Backend Deep DiveThis is the second of a four part series discussing the technology powering the WeTrust platform.blog.wetrust.io,79,123,0,False
1,WeTrustTeam@WeTrustPlatform,"WeTrust's #lending circle #Ethereum #dApp is LIVE! Here's a #walkthrough! Check it out at: http://ROSCA.WeTrust.IO
http://buff.ly/2kxlu7u",105,286,0,False
2,Matchpool@matchpool,#matchpool #ethereum Matchpool forthcoming ICO is now listed on http://icocountdown.com .45 days until opening,35,44,0,False
3,iuri matias@iurimatias,"Announcing Embark 2.3.0 - Now fully extendable through plugins! #EthereumRelease Embark 2.3.0 - Plugins, Plugins, Plugins and more! · embarklabs/embarkTo Update to 2.2.0 important Embark's npm package has changed from embark-framework to embark, this sometimes can create conflicts. To update, first uninstall embark-framework 1 to avoid any c...github.com",18,11,0,False
4,Alberto Jauregui | esoteRICK.eth @DisruptBanksy,"http://ift.tt/2ls0nDl Ethereum Price Trends (ETH and ETC, Week of February 6th) - CoinTelegraph #ethereum #ether",1,0,0,False
5,sofia pagliarin@pagliasofia,Congratulations Dr. Sophie Rudolf! Outstanding PhD defense #eth #wsl @WSL_research,4,1,0,False
6,Bitcoin Followers@Bitcoinfirst,#Qtum article for the Russian community: http://forklog.com http://forklog.com/singapurskij-startap-qtum-poluchil-1-mln-na-razvitie-gibridnogo-blokchejna/… #Blockchain #Ethereum #BTC,1,2,0,False
7,vasya.vasyn@vasys174,"the #Qtum project http://forbes.com/sites/rogeraitken/2017/02/06/qtum-mixing-bitcoin-ethereum-launching-proof-of-stake-smart-contracts-platform/#1ff82bac3564… … #blockchain #BTC #Ethereum ""The ambitious goal of becoming the ‘Blockchain of China’ no less.""",3,1,0,False
8,Foxes Den@foxesden34,Vitalik Buterin AMA (ASK ME ANYTHING) http://blockgeeks.com/ama/vitalik-buterin-ama-ask-anything/… by foxesden34 @Blockgks #ethereum,3,3,0,False
9,Bill Lewis@WorkstationW,What is this Blockchain Thing? – Startup Grind – Medium #blockchain #bitcoin #fintech #ethereum #iot http://buff.ly/2k2DVPh,2,3,0,False
10,Bitcoin Casino@bitcoincasinox,"OMG, #Ethereum Is So Hard Forked via @Blockgks http://buff.ly/2liW80h #blockchain",0,0,0,False
11,"John Ranford - #Census: European, #woke 3.5%@JohnRanford",@Jameston I'm interested to hear you are keen on #Ethereum for social good. Any comments on http://promise2030.org? #socent,1,0,0,False
12,Bitcoin Brasil@BitcoinBr10,The latest Bitcoin Price Index is 1053.30 USD http://studiobitcoin.com #Bitcoin #Blockchain #Price #Coindesk #btc #Ethereum #trading #altcoin,2,0,0,False
13,Brian D. Colwell@BColwell_Invest,#Microsoft #VisualStudio is making the #Ethereum #Solidity #language available 2 #application #developers. #blockchain #iot #crypto #bitcoin,5,2,0,False
14,Inzhoop.eth@inzhoop,"Replying to @stephantualThanks @stephantual .
LETH's go to  #EDCON.
Keep in touch #ethereum",2,0,0,False
15,kX@KruxinX,@ShapeShift_io Bright Future over at Ubiq Smart Contracts https://bittrex.com/Market/Index?MarketName=BTC-UBQ… Lets get this supported! $UBQ $ETH $ETC $DCR,7,1,0,False
16,Vindyne8@Vindyne8,8BTC takes the #Qtum leap: http://news.8btc.com/the-qtum-leap-driving-smart-contracts-to-mainstream-business… #Blockchain #Ethereum #BTC,5,11,0,False
17,Corey Petty@Corpetty,"Excellent conversation on the legality of ""smart contracts"" in #ethereum between me and another user in the DC area:Arizona Bill Would Make Blockchain Smart Contracts 'Legal'Posted in r/ethereum by u/axelors • 77 points and 34 commentsreddit.com",2,0,0,False
18,CL Taylor@DigitWealthNews,FintekNews-Bitcoin vs Gold (2/8) http://goo.gl/IHvPkX #fintech #bitcoin #blockchain #ethereum #tech #gold #investing #trading #litecoin,4,3,0,False
19,iExec@iEx_ec,#iExec @ #EDCON #0 : ten steps to understand the technology behind the #Ethereum #decentralized #Cloud https://reddit.com/r/ethereum/comments/5stn8c/iexec_edcon_0_ten_steps_to_understand_the/… #blockchainiEx.ec @ EDCON #0 : ten steps to understand the technology behind...Posted in r/ethereum by u/jbrg • 23 points and 5 commentsreddit.com,12,77,0,False
20,Stephan Tual@stephantual,"Competition heats up in the mobile #Ethereum ""Mist-like"" client - LΞTH - https://github.com/inzhoop-co/LETH/blob/master/README.md…",63,36,2,False
21,iExec@iEx_ec,A blockchain revolution of the Cloud computing business: https://linkedin.com/pulse/iexec-blockchain-revolution-cloud-computing-business-mircea-moca… #Ethereum #blockchain #Cloud #CloudComputing #Bitcoin #ico,28,82,0,False
22,karlos g liberal@patxangas,EN DIRECTO: ¿Bitcoin/blockchain un experimento real? en #spreaker #bitcoin #blockchain #ethereum #podcast https://spreaker.com/user/karlosgliberal/bitcoin-blockchain-un-experimento-real?autoplay=1…,3,1,0,False
23,Vindyne8@Vindyne8,#RT Join ChronoBank on BitcoinTalk! http://bit.ly/2fYWBhS #blockchain #bitcoin #ethereum #wavesplatform,14,13,0,False
24,Beyond the void #blockchaingame@BeyondVoidGame,Our new forum http://buff.ly/2lnX9Ab come and say hello :-) #indiegame $NXC #ethereum,12,10,0,False
25,GUTS Tickets@GUTStickets,Join this boyband with your skills ;-) #Python #Django #Ethereum #EmberJS #Amsterdam #job #fullstack #developers http://bit.ly/2kEXP7p,22,30,1,False
26,Chris@ethchris,"Next Berlin #Ethereum meetup on 2017-02-20 features @VitalikButerin on ""Introduction on Cryptoeconomics""Ethereum Meetup FebruaryMo., 20. Feb. 2017, 19:00: Topics:• Linking outside the Box: A Blockchain-enabled Decentralized Social Network - Fabian Kirstein, Manuel Polzhofer (FraunhoferFOKUS), Eugeniu Rusu (Jolocom)• Introductimeetup.com",3,1,0,False
27,GUTS Tickets@GUTStickets,"Article about GUTS @nrc #blockchain #tickets #ethereum #events #nieuwsJe hoeft blockchain niet te snappenNieuwe technologie: Het klinkt cryptisch, maar de toepassingen zijn vaak praktisch. Drie ondernemers leggen uit hoe zij de wereld overtuigen van blockchain: „Hoe het technisch allemaal werkt, leg ik...nrc.nl",9,21,0,False
28,Alberto Jauregui | esoteRICK.eth @DisruptBanksy,http://ift.tt/2k4wPKn Ethereum Price Technical Analysis – ETH/USD Continuing Gains - newsBTC #ethereum #ether,0,0,0,False
29,Magda Borowik@magdaborowik,#Ethereum is the new internet's government http://bit.ly/2kI4lH5 #cryptoeconomy,2,2,0,False
30,madstudios30620@madstudios30620,Is 2017 the D/A/\/\ON/> AGE? #IoT #SmartCity #Money available E-Z here: http://ift.tt/2izvABX #bitcoin by #paypal #btc #eth #ethereum,1,1,0,False
31,B9lab@b9lab,"Pleased to announce new Certified CTO #blockchain Course. Use: ""EARLYBIRD"" for a 20% discount. #bitcoin #ethereum https://academy.b9lab.com/courses/B9lab/CTO1/2017-03/about?afmc=3d…",9,6,0,False
32,Defi.Central@DefiCentral,"Ethereum (ETH) New Exchange:
Details:https://goo.gl/r3ZFLH
@ethereumproject #ethereum $ETH #cryptocurrency #blockchain #altcoin",3,2,0,False
33,Christian Seberino@c_seberino,"Charlie Lee Talks About Litecoin & Bitcoin http://buff.ly/2kSP9dp #etc #eth #ethereumclassic #ethereum #blockchain #bitcoin #iohkCharlie Lee talks Litecoin, Bitcoin, and more! 2-7-2017Charlie Lee of Litecoin and Coinbase fame was in the house tonight! It was an honor to get to talk to this legend of cryptocurrency. In the video he give so...youtube.com",3,1,0,False
34,Anthony Schmitt Financial Services | Trader@BourseetTrading,"The #blockchain's emerging role in sustainability |
#cryptocurrency #Bitcoin #ethereum #Fintech
https://greenbiz.com/article/blockchains-emerging-role-sustainability?utm_content=bufferd4b1f&utm_medium=social&utm_source=twitter.com&utm_campaign=buffer… @GreenBiz",5,5,0,False
35,Defi.Central@DefiCentral,"Nav Coin 4.0.0, Website Redesign and #Anon #Dapps
https://goo.gl/L57iX2
@NAVCoin #navcoin #blockcahin #bitcoin #cryptocurrency #ethereum",2,2,0,False
36,Cointelegraph@Cointelegraph,"#CT_index
Read our fresh #Ethereum price analysis here:
https://goo.gl/4kyhua",9,4,1,False
37,Enzyme Finance@enzymefinance,"Dukascopy TV: Melonport Interview with Co-Founder and CEO, @perham83 https://youtube.com/watch?v=E0gYyX8Dhg8… #blockchain #ethereum #cryptocurrency #future",12,9,0,False
38,ethereum.network@EthereumNetw,"Announcing Embark 2.3.0 - Now fully extendable through plugins!
https://github.com/iurimatias/embark-framework/releases/tag/2.3.0…
#Ethereum Framework for #decentralized appsRelease Embark 2.3.0 - Plugins, Plugins, Plugins and more! · embarklabs/embarkTo Update to 2.2.0 important Embark's npm package has changed from embark-framework to embark, this sometimes can create conflicts. To update, first uninstall embark-framework 1 to avoid any c...github.com",6,3,0,False
39,Jolocom@GETJolocom,You should join us at this Meetup. Jolocom presenting its #Ethereum integration. Check it out and RSVP! http://meetu.ps/35lCb0,4,4,0,False
40,Bitcoingeek@bitcoingeek000,"Did you know? #Qtum project was featured on different websites like forbes and econotimes. Visit @QtumOfficial and see it all.

#ETH #BTC",1,0,0,False
41,TokenFunder@tokenfunder,Looking to finance the future? Stay tuned...we're making it easy at http://tokenfunder.io #VC #startups #blockchain #ETH #SocEnt #ICO,1,0,0,False
42,Digix DGX@DigixDGX,"#Digix Core Dev Update - Feb 8 2017
https://reddit.com/r/digix/comments/5sr5mu/digix_core_dev_update_feb_8_2017/…
#ethereum #redditDigix Core Dev Update - Feb 8 2017Posted in r/digix by u/kcchng • 22 points and 26 commentsreddit.com",2,1,0,False
43,Ethlance@ethlance,The @metamask_io team makes using decentralized apps easy for anyone. No knowledge of #Ethereum required. Learn how https://txn.me/6T39tH,9,6,1,False
44,Ameer Rosic@AmeerRosic,How does #blockchain work? The ultimate guide  http://buff.ly/2dvhaDX #bitcoin #ethereum #startup,3,0,0,False
45,Ethlance@ethlance,Want to help build the future of #gaming and #esports? Check out @firstbloodio on http://ethlance.com #ethereum #blockchain #careers,3,2,0,False
46,"Kindeya G.hiwot, Prof@ProfKindeya",Attending the first conference on Traffic Safety #Tigray; we must curb terrible traffic accidents #Ethiopia; we r loosing life each day #ETH,4,1,0,False
47,#blocktalk@block_talk,"@VitalikButerin's Dad trolling his AMA that's going on today

#Ethereum $ETH
http://blockgeeks.com/ama/vitalik-buterin-ama-ask-anything/…",1,1,0,False
48,Alex.eth@AlexanderFisher,The next Michigan Ethereum Meetup is scheduled! Feb 23rd at TD Ameritrade in Ann Arbor http://buff.ly/2kIIxw5 #Ethereum #Golem #Fintech,1,0,0,False
49,Barry Dutton | #Liberty Maximalist $BTC $CEL $ETH@BarryDutton,"$MIT ITO Sale Starts 2/13 —  https://steemit.com/altcoin/@joseph/mit-ito-initial-token-offering-sale-starts-on-february-13… …

#bitcoin #ethereum #zec #MIT #btc $btc #ito @Intellisys_LLC @CharlieShrem #CryptoQuote TweetJoseph Stuhlman@JStuhlman · Feb 8, 2017$MIT ITO (initial token offering), Sale Starts on February 13 — Steemit https://steemit.com/altcoin/@joseph/mit-ito-initial-token-offering-sale-starts-on-february-13…
#bitcoin #ethereum #zec #MIT #btc $btc #ito",3,2,1,False
50,Datavetaren@Datavetaren,Make currency great again. #bitcoin,22,3,1,False
51,Roland@metamatterNL,"Maybe you don't get it... currency is a thing of the past. This is about value & more important, the exchange of it #ethereum",2,1,0,False
52,Michael Wuehler@wuehler,"Blockchain Insurance applications on #ethereum tonight @splashthat http://meetu.ps/e/CsFyP/mSQhv/f with @etherisc_Blockchain-based Insurance on EthereumWed, Feb 8, 2017, 6:30 PM: To kick off our 2017 program, join the Etherisc team to learn about blockchain-based Insurance applications on Ethereum.Etherisc started as a demo project for Devcon 2 lastmeetup.com",4,1,0,False
53,TokenMarket@tokenmarket,The difference between App Coins and Protocol Tokens https://medium.com/@willwarren89/the-difference-between-app-coins-and-protocol-tokens-7281a428348c#.79qwsgshy… #ethereum #blockchain #ico,1,0,0,False
54,BetcoinAG@BetcoinAG,Betcoin Dice Introduces Automated Dice Rolling / Betting #bitcoin #casino #dice #provablyfair #ETH #LTC https://betcoin.ag/betcoin-dice-introduces-automated-dice-rolling-betting…,2,0,0,False
55,Christian Seberino@c_seberino,"Turkey, Colombia and Venezuela; LocalBitcoins Volumes Hit Records in All Three Countries http://buff.ly/2jYgbMg #etc #eth #ethereumclassic",1,2,0,False
56,Lefteris Karapetsas@LefterisJP,"Wanna chat with us, the developers of @raiden_network? If so don't hesitate to visit us at gitter https://gitter.im/raiden-network/raiden… #ethereum #raiden",3,1,0,False
57,Vindyne8@Vindyne8,The #Qtum Q&A PDF transcript from the Slack session http://qtumslack.herokuapp.com can be found on the website: http://qtum.org/QA1.pdf #BTC #ETH,13,8,0,False
58,ethereum.network@EthereumNetw,"Using the Decentralized Web
Interact with decentralized applications /wo understanding #Ethereum
https://medium.com/ethlance/using-the-decentralized-web-3936dc5daac1…
by @sourcerersio",5,1,0,False
59,ethereum.network@EthereumNetw,"Colony Beta Overview
https://blog.colony.io/colony-beta-product-summary-2121a357d61d…
by @joincolony
Cooperation on #Ethereum",2,1,0,False
60,Jerome de Tychey @jdetychey,"amazing work by @inzhoop
This client handles chat over whisper and ERC20 token
#ethereum #blockchainQuote TweetStephan Tual@stephantual · Feb 8, 2017Competition heats up in the mobile #Ethereum ""Mist-like"" client - LΞTH - https://github.com/inzhoop-co/LETH/blob/master/README.md…",3,1,0,False
61,Brave New Coin@bravenewcoin,#Ethereum Price: USD $11.41 $ETH http://ow.ly/6UKf3048WBe,2,1,0,False
62,David Peyronnin@davidpeyronnin,@VitalikButerin Ask Me Anything is live #ethereum #founder @Blockgks http://blockgeeks.com/ama/vitalik-buterin-ama-ask-anything/… #blockchain @MthreeC @MthreeAlumni,1,1,0,False
65,BitcoinAgile@bitcoinagile,Accenture and Thales unveil hardware security solution for blockchains #ethereum #Bitcoin http://bit.ly/2lkyQal,1,0,0,False
66,ant@ThisIsNuse,"Trade #Bitcoin against $CNH $EUR $JPY $USD $ETH $OIL and $GOLD over at 

http://evolve-markets.us

Use #MT4 #MetaTrader up to 500x leverage",8,5,3,False
67,Dan Clark Audio@danclarkaudio,"#FUTchampions will be playing with #ETHER C #headphones and @ChordAudio #Mojo DAC/Amps; planning to watch the live feed!Quote TweetEA SPORTS FIFA@EASPORTSFIFA · Feb 8, 2017The top #FIFA17 players from Asia, Africa, the Middle East and Oceania battle in Sydney on Feb 11th. #FUTChampions http://bit.ly/2kt7DRe",3,0,0,False
68,ExploreTraveler@exploretravel1,RT @matchpool: Why poker and dating #dapps (like Matchpool) choose #Ethereum: http://lnkplg.co/P02bY via @CoinTelegraph,1,0,0,False
69,BitcoinAgile@bitcoinagile,Were Hiring - Field Services Engineer - BlockApps Inc #ethereum #blockchain #hiring http://blockapps.net/hiring-field-services-engineer…,1,1,0,False
70,WorldCoinIndex@WorldCoinIndex,Cryptocurrencies $ETH $LTC $DASH $XMR $ZCASH https://worldcoinindex.com,0,0,0,False
72,Crypto Live@crypto_c_radio,#NowPlaying Bitcoins   Gravy - Ode to Satoshi (The Official Bitcoin Song : ) at http://cryptocurrencyradio.com #bitcoin #ethereum,0,0,0,False
73,/r/Ethereum@r_Ethereum,"Algorand: A New Scalable and Secure Approach to Byzantine Fault Tolerant Consensus #EthereumAlgorand: A New Scalable and Secure Approach to Byzantine Fault...We were recently joined on Epicenter by MIT Professor Silvio Micali. He describes the concept of Algorand, an alternative approach to proof of...reddit.com",0,0,0,False
74,/r/Ethereum@r_Ethereum,ethereum mist on chromebook + geth light client. when hardware wallets aren't enough! #Ethereumethereum mist on chromebook + geth light client. when hardware...Posted in r/ethereum by u/taylorgerring • 36 points and 3 commentsreddit.com,0,0,0,False
75,Francesco Villa@cekospiu,Donate to our project! Add funds and receive $$$ in exchange from profits lifetime! @gagpubblicita #ethereum #miner https://indiegogo.com/projects/build-ethereum-mining-farm/x/14702367#/…,0,0,0,False
78,/r/Ethereum@r_Ethereum,Similarities and differences between uPort and Keybase? #EthereumSimilarities and differences between uPort and Keybase?Posted in r/ethereum by u/binaryparadise • 13 points and 0 commentsreddit.com,0,0,0,False
79,Ameer Rosic@AmeerRosic,Certified Blockchain & Bitcoin Courses http://buff.ly/2kkgJ2U #blockchain #Bitcoin #Ethereum,0,0,0,False
82,SwingTradeBot@SwingTradeBot,"Scan results - 1,2,3 Retracement Bearish today: $ELF $SBH $MNK $ETH $NOC $BJRI $HIBB $BGFV $AMAG $GIMO ... http://swingtradebot.com/events/36/equities?selected_date=2017-02-08…",0,0,0,False
83,/r/Ethereum@r_Ethereum,Careful - SIM Cards / Phone Numbers Still Being Socially Engineered #Ethereum http://ift.tt/2kJ7eIA,0,0,0,False
84,Blockgeeks@Blockgks,Can This 22-year-old Coder Out-Bitcoin #Bitcoin? http://dld.bz/eWMa7 #ethereum,1,1,0,False
85,Coinstats@coinstats,"Ethereum Classic - ETC
Price: $1.4494
Change in 1h: +-0.18%
Market cap: $128491130.0
Ranking: 6
#Ethereum Classic #ETC",0,0,0,False
86,Bobe'bot@Bobe_bot,"1 #BTC = 1077.7639 #CHF
1 #ETH = 11.8132 #CHF
1 #DOGE = 0.000210389223 #CHF
sources: @cryptonatorcom @hellobity",0,0,0,False
87,Coinstats@coinstats,"Ethereum - ETH
Price: $11.4593
Change in 1h: +-0.08%
Market cap: $1016345201.0
Ranking: 2
#Ethereum #ETH",0,0,0,False
88,Ticker Report@TickerReport,Ethan Allen Interiors Inc. $ETH Stake Decreased by Clark Capital Management Group Inc. http://ift.tt/2llW53V,0,0,0,False
89,Ticker Report@TickerReport,Ethan Allen Interiors Inc. $ETH Stake Decreased by Clark Capital Management Group Inc. http://zpr.io/PEpkv,0,0,0,False
90,MedosAdvert@medosadvert,Hi @FreshnFearless #SCRYPT #MINER 1MH/s 8.80$ Christmas offers on http://cryptocoins.it/go/hashflare/ #Ethereum via https://Statusbrew.com,0,0,0,False
92,Crypto Live@crypto_c_radio,#NowPlaying Beyond Bitcoin Community - #BitShares Hangout #4 w/ #ChrisHering and Fuzzy! at http://cryptocurrencyradio.com #bitcoin #ethereum,0,0,0,False
93,Crypto Live@crypto_c_radio,#NowPlaying Alpaca Socks - Max Min at http://cryptocurrencyradio.com #bitcoin #ethereum,0,0,0,False
94,East African C S@eastafricancs,"NAAPID is this Monday @ South Shore School. This event is a good opportunity to support a child's learning!
#EACS #EducatingtTheHorn #ETH",0,0,0,False
95,Crypto Live@crypto_c_radio,#NowPlaying BitcoinMeister - Doug_Casey_talks_Bitcoin_Africa_and_more at http://cryptocurrencyradio.com #bitcoin #ethereum,0,0,0,False
96,/r/Ethereum@r_Ethereum,Elon Musk and the Blockchain Part 1 #EthereumElon Musk and the Blockchain Part 1Posted in r/ethereum by u/SoftSpoon_Jack • 27 points and 9 commentsreddit.com,0,0,0,False
97,/r/Ethereum@r_Ethereum,"Can you run a regular website using ETH? #EthereumCan you run a regular website using ETH?For mainstream adoption, this is of course needed so I'm curious if there's already a way to host a regular website but can still interact with...reddit.com",0,0,0,False
98,Crypto Live@crypto_c_radio,#NowPlaying Jamie Shelly - Bitcoin Song at http://cryptocurrencyradio.com #bitcoin #ethereum,0,0,0,False
99,/r/Ethereum@r_Ethereum,Zcash Stumbles on Blockchain Bug Tied to Old Software #EthereumZcash Stumbles on Blockchain Bug Tied to Old SoftwarePosted in r/ethereum by u/rammsteinPL • 20 points and 0 commentsreddit.com,0,0,0,False
102,Andrew Arthur@Drew_Hornick,New @runjewels is bonkers.. #ether,0,0,0,False
104,Coinstats@coinstats,"Ethereum Classic - ETC
Price: $1.45399
Change in 1h: +0.21%
Market cap: $128895984.0
Ranking: 6
#Ethereum Classic #ETC",0,0,0,False
105,Coinstats@coinstats,"Ethereum - ETH
Price: $11.4701
Change in 1h: +0.05%
Market cap: $1017286895.0
Ranking: 2
#Ethereum #ETH",0,0,0,False
106,/r/Ethereum@r_Ethereum,An Ethereum Debate #Ethereum http://ift.tt/2k4boOq,0,0,0,False
107,SoftSpoon.io@soft_spoon,"Elon Musk and the Blockchain Part 1: http://softspoon.io/elon-musk-and-the-blockchain-part-1/…
#blockchain #elonmusk #ethereum",2,13,1,False
108,Crypto Press@CryptoPressNews,Price Alert: Ethereum  9.51% 1h change $ETH - Current Price: 0.044920 ICN | More #ETH Info http://crypto.press/coins/ETH-Ethereum… #CryptoPressThe following media includes potentially sensitive content. Change settingsView,1,1,0,False
109,Tom Menner@tmenner,Why the #Ethereum hard fork is problematic https://bitcoinmagazine.com/articles/op-ed-why-ethereums-hard-fork-will-cause-problems-coming-year/… #blockchain,1,0,0,False
110,/r/Ethereum@r_Ethereum,Madisetti & Bahga Release New Book on “Blockchain Applications – a Hands-on Approach” #EthereumMadisetti & Bahga Release New Book on “Blockchain Applications – a...Posted in r/ethereum by u/twigwam • 10 points and 0 commentsreddit.com,0,0,0,False
113,/r/Ethereum@r_Ethereum,Mamoru's SafeBike: Recovering Items using Ethereum's Blockchain #EthereumMamoru's SafeBike: Recovering Items using Ethereum's BlockchainPosted in r/ethereum by u/jholmes91 • 14 points and 0 commentsreddit.com,0,0,0,False
114,Екатерина Слюсарь@slusare061,"The price was fixed at $ 80 per #GB , it is possible there is an accumulation for the next jump. #BTC @ByteballOrg #Byteball #LTC #ETH",0,0,0,False
115,Ethereum SE@StackEthereum,Usage of ENS for contract upgrade http://ethereum.stackexchange.com/questions/11998/usage-of-ens-for-contract-upgrade… #ethereum #upgrading #ens,0,0,0,False
116,BTCMANAGER@btc_manager,"SafeBike: Recovering Lost Items with #Ethereum's Blockchain:
https://btcmanager.com/mamorus-safebike-recovering-items-using-ethereums-blockchain/…
#news #technology #blockchain #crypto",6,2,0,False
117,Ameer Rosic@AmeerRosic,Check it out! Beginners guide to #Blockchain http://buff.ly/2dvhaDX #bitcoin #ethereum #startup,0,0,0,False
119,Crypto Live@crypto_c_radio,#NowPlaying TBP113 - Innovators' Lab at http://cryptocurrencyradio.com #bitcoin #ethereum,0,0,0,False
120,Barry Dutton | #Liberty Maximalist $BTC $CEL $ETH@BarryDutton,"$MIT ITO Sale Starts 2/13 —  https://steemit.com/altcoin/@joseph/mit-ito-initial-token-offering-sale-starts-on-february-13… …

#bitcoin #ethereum #zec #MIT #btc $btc #ito... http://fb.me/1JN7PMa1OMIT ITO (initial token offering), Sale Starts on February 13 — SteemitMainstreet Investment Removes Restrictions, Widens Investor Eligibility Sale of 50 million digital tokens… by josephsteemit.com",4,1,0,False
122,Collin Crypto@CollinCrypto,Nearing the conclusion of a big triangle break for $ETC.  #Ethereum,21,11,4,False
125,Blockgeeks@Blockgks,Check it out! Beginners guide to #Blockchain http://buff.ly/2dvhaDX #bitcoin #ethereum #startup,2,4,0,False
126,Coinstats@coinstats,"Ethereum Classic - ETC
Price: $1.45142
Change in 1h: +-0.18%
Market cap: $128666178.0
Ranking: 6
#Ethereum Classic #ETC",0,0,0,False
127,Coinstats@coinstats,"Ethereum - ETH
Price: $11.4604
Change in 1h: +-0.23%
Market cap: $1016411230.0
Ranking: 2
#Ethereum #ETH",0,0,0,False
128,Ethereum Price@EthereumPrice_,"#Ethereum: Ether Price Index
1 ETH =0.010718Ƀ XBT = $11.382245 USD
Today: -0.76%⬇︎ Last 24h: -1.33%⬇︎
https://ethereum-price.com",0,0,0,False
130,/r/Ethereum@r_Ethereum,Does Ethereum have a tipbot on Reddit? #EthereumDoes Ethereum have a tipbot on Reddit?xreddit.com,1,0,0,False
131,Roland@metamatterNL,Replying to @DatavetarenI can say this is true for #ethereum! It is far superior technology to #bitcoin.,1,1,0,False
132,Crypto Live@crypto_c_radio,#NowPlaying Kryp Tina - Love You Like A Bitcoin at http://cryptocurrencyradio.com #bitcoin #ethereum,0,0,0,False
135,DEFI @DoughDeFi,"Receive free email alerts based on #Augur rates changes
https://reddit.com/r/Augur/comments/5sv6ss/receive_free_email_alerts_based_on_augur_rates/…
#ethereum #redditReceive free email alerts based on Augur rates changesPosted in r/Augur by u/klemann • 3 points and 0 commentsreddit.com",0,0,0,False
136,Simeon Udoh ∀@TechviberNG,@QtumOfficial ICO starts March 1st | Anticipate The Launch of #Qtum. A Combination of Bitcoin & Ethereum #Bitcoin #Fintech #ETH #BTC,0,0,0,False
140,Игорь Репной@repnoi,#matchpool #ethereum Matchpool forthcoming ICO is now listed on http://ln.is/S3UaL .45 days until... by #burovik99 via @c0nvey,0,0,0,False
141,Cliff K Jordan@CKJordan15,"Earn up to $65,610 daily! join & get the benefits http://bit.ly/coinviv2 #coinomia #ethereum #cryptoguide #Bitcoins",0,0,0,False
142,Ethereum SE@StackEthereum,What are some cheap ways to buy Ethereum? http://ethereum.stackexchange.com/questions/11996/what-are-some-cheap-ways-to-buy-ethereum… #ethereum #ether #exchanges,1,0,0,False
143,Ethereum SE@StackEthereum,Testnet blockchain inconsistencies - geth diverged from original blockchain? http://ethereum.stackexchange.com/questions/11997/testnet-blockchain-inconsistencies-geth-diverged-from-original-blockchain… #ethereum #goethereum #testnets,0,0,0,False
144,Brave New Coin@bravenewcoin,#Ethereum Price: USD $11.52 $ETH http://ow.ly/6UKf3048WBe,0,0,0,False
146,Chesatochi@Chesatochi_com,"#Bitcoin Hardware Wallet Trezor Adds Support For #Ethereum Users
http://dld.bz/fx5bx",0,0,0,False
148,Coinstats@coinstats,"Ethereum Classic - ETC
Price: $1.45382
Change in 1h: +-0.28%
Market cap: $128876454.0
Ranking: 6
#Ethereum Classic #ETC",0,0,0,False
149,Coinstats@coinstats,"Ethereum - ETH
Price: $11.482
Change in 1h: +-0.1%
Market cap: $1018307649.0
Ranking: 2
#Ethereum #ETH",0,0,0,False
150,/r/Ethereum@r_Ethereum,Ethers Wallet for iOS (ethers.io) #Ethereum http://ift.tt/2lrVKJt,0,0,0,False
151,Roland@metamatterNL,"Replying to @DatavetarenMaybe you don't get it... currency is a thing of the past. This is about value & more important, the exchange of it #ethereum",2,1,0,False
153,Crypto Live@crypto_c_radio,#NowPlaying Zhou Tonged - Bitcoin's Here at http://cryptocurrencyradio.com #bitcoin #ethereum,0,0,0,False
154,SEPA for Corporates@sepa4corporates,"The Best #Ethereum Explanation for Newbies (Infographic) via @angelomilan
http://go.shr.lc/2lnlMhe
#fintech | #blockchain | #tech",3,2,0,False
160,Altcoinix[KLKS]@Yavuzcetinkaya3,start mine stop trump coin http://altcoinix.com/stc/public still profitable #bitcoin #scrypt #miningpool #ethereum #altcoin,0,0,0,False
161,#TagThis@TagMents,"#Ethereum Dice Game #Etheroll Announces Strictly Limited 
#Crowdfund Campaign Opening February 13 
- http://buff.ly/2kLfOsm",0,0,0,False
162,Ethereum SE@StackEthereum,"Can't use object ""compiles"" in var compiled = web3.eth.compile.solidity(source); http://ethereum.stackexchange.com/questions/11995/cant-use-object-compiles-in-var-compiled-web3-eth-compile-soliditysource… #ethereum #goethereum #solidity",0,0,0,False
163,m0rte@m0rte17,"If you missed #Qtum Q&A session, you can read what it says here https://qtum.org/QA1.pdf #BTC #ETH",0,0,0,False
164,Beastlorion@Beastlyorion,"Replying to @wreathy and @syscoinIt's not easy to compare $sys to most other coins. It is a platform for developing decentralize apps, like $eth.",1,0,0,False
165,Faith Emmanuel@residualbitcoin,Were Hiring - Field Services Engineer - BlockApps Inc #ethereum #blockchain #hiring http://blockapps.net/hiring-field-services-engineer…  #Resi…,0,0,0,False
167,BlockApps@blockapps,BlockApps is looking for a Field Services Engineer - come join us! http://buff.ly/2kT66EF #blockchain #ethereum #hiring,2,1,0,False
168,Coinstats@coinstats,"Ethereum Classic - ETC
Price: $1.45752
Change in 1h: +0.51%
Market cap: $129202509.0
Ranking: 6
#Ethereum Classic #ETC",0,0,0,False
169,Coinstats@coinstats,"Ethereum - ETH
Price: $11.492
Change in 1h: +0.54%
Market cap: $1019177688.0
Ranking: 2
#Ethereum #ETH",0,0,0,False
171,/r/Ethereum@r_Ethereum,Using the Decentralized Web - Interact with Dapps without understanding Ethereum #EthereumUsing the Decentralized Web - Interact with Dapps without...Posted in r/ethereum by u/JoeyUrgz • 33 points and 3 commentsreddit.com,0,0,0,False
172,Blockgeeks@Blockgks,Live in 1 hour!  AMA with @VitalikButerin founder of @ethereumproject http://bit.ly/2kdB0Ee #Ethereum #Blockchain #cryptocurrency,15,11,0,False
173,Blockgeeks@Blockgks,Is #Blockchain Technology Going To Disrupt Our Political System:  http://dld.bz/fgnWh #ethereum,1,3,0,False
174,Coinstats@coinstats,"Ethereum Classic - ETC
Price: $1.44963
Change in 1h: +0.04%
Market cap: $128501337.0
Ranking: 6
#Ethereum Classic #ETC",0,0,0,False
176,Coinstats@coinstats,"Ethereum - ETH
Price: $11.4321
Change in 1h: +0.37%
Market cap: $1013850896.0
Ranking: 2
#Ethereum #ETH",0,0,0,False
177,Ethereum Price@EthereumPrice_,"#Ethereum: Ether Price Index
1 ETH =0.010701Ƀ XBT = $11.349845 USD
Today: -0.91%⬇︎ Last 24h: -1.11%⬇︎
https://ethereum-price.com",0,0,0,False
178,Olivier Chapiteau@o_chapiteau,"08Feb2017 18:00 UTC #Ether #Blockchain status - Block height @ 3,146,935 - 67,331 unconfirmed tr. - Last fork height @ 3,146,933",0,0,0,False
179,Burakak Semauwe@B_itcoins,Combination ETH-BTC to Creat #Qtum for future of currency .https://btcmanager.com/quantum-foundation-combines-bitcoin-and-ethereum-to-create-qtum/… #BTC #ETH #MIX #currency,0,0,0,False
180,brandonzemp.eth@zempbrand,Just stumbled upon this site. You can send encrypted Ethereum blockchain messages and validate documents. #Ethereum https://chainy.info,0,0,0,False
182,/r/Ethereum@r_Ethereum,HUMANIQ: Empowering disadvantaged populations in Africa #EthereumHUMANIQ: Empowering disadvantaged populations in AfricaPosted in r/ethereum by u/Humaniq_ICO • 16 points and 7 commentsreddit.com,0,0,0,False
183,Alex.eth@AlexanderFisher,Arizona Bill Would Make Blockchain Smart Contracts 'Legal' - CoinDesk http://buff.ly/2k3dWaH #Ethereum #Fintech,1,0,0,False
186,Joseph Stuhlman@JStuhlman,"$MIT ITO (initial token offering), Sale Starts on February 13 — Steemit https://steemit.com/altcoin/@joseph/mit-ito-initial-token-offering-sale-starts-on-february-13…
#bitcoin #ethereum #zec #MIT #btc $btc #itoMIT ITO (initial token offering), Sale Starts on February 13 — SteemitMainstreet Investment Removes Restrictions, Widens Investor Eligibility Sale of 50 million digital tokens… by josephsteemit.com",13,52,2,False
187,Lelaku Rang@Bitc_oin,"#Qtum is Driving Smart Contracts to Mainstream Business, So are you waiting for? http://news.8btc.com/the-qtum-leap-driving-smart-contracts-to-mainstream-business… #BTC #ETH #technology",0,0,0,False
188,Ocean Side@oceansidesunset,"Best #bitcoin #litecoin #ethereum trading site  https://goo.gl/pECcgs   Its easy to convert to/from USD, EUR, RUB too!",0,0,0,False
189,Crypto Live@crypto_c_radio,"#NowPlaying Dash Detailed - Why Yes, This Water-Dispensing Machine Accepts #Dash 'InstantSend' at http://cryptocurrencyradio.com #bitcoin #ethereum",0,0,0,False
190,123Bit@marketing123bit,Buy / Sell #bitcoin and #ethereum easily!   https://goo.gl/pECcgs   Works with #okpay webmoney #payeer advcash payza #wire,0,0,0,False
191,iExec@iEx_ec,#iExec @ #EDCON #0 : ten steps to understand the technology behind the #Ethereum #decentralized #Cloud https://reddit.com/r/ethereum/comments/5stn8c/iexec_edcon_0_ten_steps_to_understand_the/… #blockchainiEx.ec @ EDCON #0 : ten steps to understand the technology behind...Posted in r/ethereum by u/jbrg • 25 points and 5 commentsreddit.com,12,77,0,False
192,Bobe'bot@Bobe_bot,"1 #BTC = 1078.4238 #CHF
1 #ETH = 11.8213 #CHF
1 #DOGE = 0.0002106126 #CHF
sources: @cryptonatorcom @hellobity",0,0,0,False
193,Coinstats@coinstats,"Ethereum - ETH
Price: $11.3897
Change in 1h: +0.31%
Market cap: $1010076519.0
Ranking: 2
#Ethereum #ETH",0,0,0,False
194,Defi.Central@DefiCentral,"Digix Core Dev Update - Feb 8 2017
Details:https://goo.gl/wNgJXr
@DigixGlobal #digix #ethereum #DAO $eth #cryptocurrency #blockchain",2,2,0,False
195,Ethereum SE@StackEthereum,"""No data is deployed on the contract address"" http://ethereum.stackexchange.com/questions/11993/no-data-is-deployed-on-the-contract-address… #ethereum #mist #testnets #tokens",0,0,0,False
196,Mold Sensitized@moldsensitized,"OMG, #Ethereum Is So Hard Forked via @Blockgks http://buff.ly/2le6Epr #blockchain",1,0,0,False
197,Vindyne8@Vindyne8,"#Humaniq will be publishing one of these every week. Video soon, stay tuned! weekly review: https://blog.humaniq.co/humaniq-1st-weekly-review-8731c86ba527#.4mhtgul7p… #blockchain #btc #eth",13,14,0,False
198,Ameer Rosic@AmeerRosic,#Cryptocurrency: A New Economy For The Future http://dld.bz/eEbgr #bitcoin #blockchain #ethereum,0,0,0,False
199,Bitcoin Legend@bitcoin_legend,#Qtum blockchain project. Foundation Combines #Bitcoin and #Ethereum ! Won the most innovative award. #BTC #cryptocurrency @QtumOfficial,0,0,0,False
200,BItMedia@bitmedia_,Have you any Question about #Qtum project? Click to join their slack https://qtumslack.herokuapp.com #BTC #ETH,0,0,0,False
201,Sourcerers@sourcerersio,The Dapp Daily 2/8/17 - Updates from the #ethereum ecosystem https://txn.me/6SQLtH,1,0,0,False
202,Ethereum SE@StackEthereum,Time to first block http://ethereum.stackexchange.com/questions/11992/time-to-first-block… #ethereum #goethereum #lightclients #android,0,0,0,False
203,/r/Ethereum@r_Ethereum,iEx.ec @ EDCON #0 : ten steps to understand the technology behind the Ethereum decentralized cloud #Ethereum http://ift.tt/2kOeoxW,0,0,0,False
206,Los Silva@LosSilvaTV,New Article http://goo.gl/HNyWSK @IBM @IBMWatson #ibm #Dubai #smartcontracts #blockchain #ETHEREUM #cryptocurrency #crypto #bitcoin,0,0,0,False
208,Vindyne8@Vindyne8,"#chronobank has collected 3,821 BTC from 2,087 participants chronobank.io 7ish days left! #btc #eth #etc #nem #ltc #emc $waves",13,15,0,False
210,Vindyne8@Vindyne8,#Forbes article on #Qtum http://forbes.com/sites/rogeraitken/2017/02/06/qtum-mixing-bitcoin-ethereum-launching-proof-of-stake-smart-contracts-platform/#4a606a1e3564… #btc #eth #blockchain #fintech,18,15,0,False
212,Coinstats@coinstats,"Ethereum Classic - ETC
Price: $1.44911
Change in 1h: +0.91%
Market cap: $128451175.0
Ranking: 6
#Ethereum Classic #ETC",0,0,0,False
213,Coinstats@coinstats,"Ethereum - ETH
Price: $11.3612
Change in 1h: +0.39%
Market cap: $1007534164.0
Ranking: 2
#Ethereum #ETH",0,0,0,False
214,Ethereum SE@StackEthereum,web3.js execution - server vs browser http://ethereum.stackexchange.com/questions/11991/web3-js-execution-server-vs-browser… #ethereum #web3js #mist,0,0,0,False
215,/r/Ethereum@r_Ethereum,The Dapp Daily 2/8/17 - Updates from the Ethereum ecosystem #EthereumThe Dapp Daily 2/8/17 - Updates from the Ethereum ecosystemPosted in r/ethereum by u/JoeyUrgz • 14 points and 0 commentsreddit.com,0,0,0,False
216,Avarice@5_Avarice,The Future Of Labor: An Interview With #ChronoBank http://ln.is/xDyAQ @BitcoinChaser #btc #eth... by #BitBeanWhale via @c0nveyThe Future Of Labor: An Interview With Chronobank | Bitcoin ChaserChronoBank is an ICO that is attempting to revolutionize the way organizations hire and pay workers around the world. Will it succeed?bitcoinchaser.com,0,0,0,False
219,Ethereum SE@StackEthereum,In a rental agreement payRent function is not working or not updating on MIST! http://ethereum.stackexchange.com/questions/11990/in-a-rental-agreement-payrent-function-is-not-working-or-not-updating-on-mist… #ethereum #solidity #mist,0,0,0,False
220,/r/Ethereum@r_Ethereum,Announcing Embark 2.3.0 - Now fully extendable through plugins! #EthereumAnnouncing Embark 2.3.0 - Now fully extendable through plugins!Posted in r/ethereum by u/heliumcraft • 59 points and 2 commentsreddit.com,1,2,0,False
221,fintech-portal.net@fintech_portal,"Why Poker, Dating Dapps Chose Ethereum #blockchain #ethereum #fintech #payment #banking http://crwd.fr/2k1DCJm",1,0,0,False
223,Ameer Rosic@AmeerRosic,Join Today for a Live AMA with @VitalikButerin founder of @ethereumproject http://bit.ly/2kdB0Ee #Ethereum #Blockchain #cryptocurrency,1,4,0,False
224,Scofield@ScofieldN7,"#Qtum has a lot of support in the business media, many articles in renowned publications such as Forbes. #eth #btc http://qtum.org",0,0,0,False
225,Game Of Bitcoins@GameofBitcoins,For mine #Qtum you need only your PC - Using PoS (  proof-of-stake ) equal chances for everybody - #bitcoin #ethereum #cryptocurrency,1,0,0,False
227,Blockgeeks@Blockgks,"#Blockchain Technology and the Law Are Allies, Not Enemies http://dld.bz/fkYrY #ethereum #fintech",1,1,0,False
228,Coinstats@coinstats,"Ethereum Classic - ETC
Price: $1.43433
Change in 1h: +0.17%
Market cap: $127139764.0
Ranking: 6
#Ethereum Classic #ETC",0,0,0,False
230,Ethereum Price@EthereumPrice_,"#Ethereum: Ether Price Index
1 ETH =0.010705Ƀ XBT = $11.233050 USD
Today: -0.87%⬇︎ Last 24h: -1.54%⬇︎
https://ethereum-price.com",1,0,0,False
231,Coinstats@coinstats,"Ethereum - ETH
Price: $11.319
Change in 1h: +0.13%
Market cap: $1003782227.0
Ranking: 2
#Ethereum #ETH",0,0,0,False
232,Prati Pratim@pratipratim,Ethtrade -  invest in #ethereum #bitcoin | Passive income investments | Cryptocurrency automatic trader http://bit.ly/2jtcwqP,1,0,0,False
233,Ultime Notizie@twittsitalia,Ethtrade -  invest in #ethereum #bitcoin | Passive income investments | Cryptocurrency automatic trader http://bit.ly/2jtcwqP,1,0,0,False
234,Bata Matic@bata_matic,Ethtrade -  invest in #ethereum #bitcoin | Passive income investments | Cryptocurrency automatic trader http://bit.ly/2jtcwqP,1,0,0,False
235,Zvezdana Jovanovic@easymethods,Ethtrade -  invest in #ethereum #bitcoin | Passive income investments | Cryptocurrency automatic trader http://bit.ly/2jtcwqP,0,0,0,False
237,Netcube93@Netcube93,.@SergeyIvliev of @LykkeCity on Russian TV: https://youtube.com/watch?v=1KQzueKWovg… #bitcoin #blockchain #ethereum #fintech,0,0,0,False
239,ᑕᖺᖇᓮᔕ ᔕᖰᗩﬡﬡᗢᔕ 㛨  @cspannos,Fascinating article: “The Meaning of Decentralization” by @VitalikButerin https://medium.com/@VitalikButerin/the-meaning-of-decentralization-a0c92b76a274#.gi1peubxw… #blockchain #ethereum,7,4,0,False
240,/r/Ethereum@r_Ethereum,CodeTract partners with BullionStar for their Gold Smart Contract #EthereumCodeTract partners with BullionStar for their Gold Smart ContractWe have partnered with BullionStar for our gold token. You can read more through our press release at...reddit.com,0,0,0,False
243,Yes We Pump@yeswepump,The Meaning of Decentralization https://medium.com/@VitalikButerin/the-meaning-of-decentralization-a0c92b76a274… #ethereum,3,0,0,False
244,Bitcoin Followers@Bitcoinfirst,"Qtum’s method allows Smart Contracts to be operated without the need for accounts
#Qtum #ethereum #bitcoin
http://qtum.org",1,0,0,False
245,Blockgeeks@Blockgks,Become a #Blockchain Guest Contributor http://dld.bz/fgnwr #writer #bitcoin #ethereum,1,1,0,False
246,Coinstats@coinstats,"Ethereum Classic - ETC
Price: $1.43117
Change in 1h: +0.26%
Market cap: $126857847.0
Ranking: 6
#Ethereum Classic #ETC",0,0,0,False
247,Coinstats@coinstats,"Ethereum - ETH
Price: $11.3055
Change in 1h: +0.08%
Market cap: $1002567934.0
Ranking: 2
#Ethereum #ETH",0,0,0,False
248,Ethereum SE@StackEthereum,How to change block confirmations with geth? http://ethereum.stackexchange.com/questions/11989/how-to-change-block-confirmations-with-geth… #ethereum #goethereum,1,0,0,False
249,/r/Ethereum@r_Ethereum,What is etherium? #EthereumWhat is etherium?Posted in r/ethereum by u/ManyLlamas • 2 points and 10 commentsreddit.com,1,0,0,False
250,BrianDColwell (Quotidian Marketing)@BrianDColwell,#Ethereum is an #opensource #blockchain project. #fintech #iot #bitcoin #mobilepayments #smartcontracts #digital #currency #cryptocurrency,3,1,0,False
251,Trial@Trial1551,"An open source project combines #Ethereum and #Bitcoin to create #QTUM.
Join Now: https://qtum.org => https://bitcointalk.org/index.php?topic=1720632.0…
#crypto",1,0,0,False
252,Ameer Rosic@AmeerRosic,"Join today! Blockgeeks is a #Blockchain innovation hub 
& marketplace http://blockgeeks.com #Bitcoin #Ethereum",1,0,0,False
254,ether19@ether19again,#Qtum #ICO date is getting closer as each day pass by. Get your funds ready to invest into a truly unique #blockchain #project. #BTC #ETH,0,0,0,False
255,Wanda Hermawan@_wanda27,#Qtum article for the #Russian community: http://forklog.com http://forklog.com/singapurskij-startap-qtum-poluchil-1-mln-na-razvitie-gibridnogo-blokchejna/… #Blockchain #Ethereum #BTC,1,0,0,False
256,LΔURΔ Wears a Mask in 2021@LauraSomfai,Blockchain as Collective Intelligence. @aetrnty attempting to create #blockchain 2.0. #bitcoin #fintech #ethereum http://bit.ly/2jXcjjx,0,0,0,False
257,Mark Melvin@MelvisMax,join here #qtum community. We will be glad to. Write to @qtumfoundation about wanting to. #ETH #Crypto #BTC,0,0,0,False
258,Ethereum SE@StackEthereum,Gas prices for code execution http://ethereum.stackexchange.com/questions/11988/gas-prices-for-code-execution… #ethereum #gas #gasprice,1,0,0,False
259,Bata Matic@bata_matic,#SCAM alert Do NOT Join #AutoBitcoinBuilder #NOTPAY You will lose money! #bitcoin #ethereum #fraud #treft... http://fb.me/11c7hYpFT,0,0,0,False
261,Prati Pratim@pratipratim,#SCAM alert Do NOT Join #AutoBitcoinBuilder #NOTPAY You will lose money! #bitcoin #ethereum #fraud #treft #stealing http://bit.ly/2kPC04L,0,0,0,False
262,Bata Matic@bata_matic,#SCAM alert Do NOT Join #AutoBitcoinBuilder #NOTPAY You will lose money! #bitcoin #ethereum #fraud #treft #stealing http://bit.ly/2kPC04L,0,0,0,False
263,Ultime Notizie@twittsitalia,#SCAM alert Do NOT Join #AutoBitcoinBuilder #NOTPAY You will lose money! #bitcoin #ethereum #fraud #treft #stealing http://bit.ly/2kPC04L,0,0,0,False
264,Zvezdana Jovanovic@easymethods,#SCAM alert Do NOT Join #AutoBitcoinBuilder #NOTPAY You will lose money! #bitcoin #ethereum #fraud #treft #stealing http://bit.ly/2kPC04L,0,0,0,False
268,Crypto Live@crypto_c_radio,"#NowPlaying Trace Mayer, J.D. - Interview with Crush The Street at http://cryptocurrencyradio.com #bitcoin #ethereum",0,0,0,False
269,DCurrencyTrader@dcurrencytrader,"How much money can you make mining #ethereum on a GPU Graphics Card in an average gaming computer?Quote Tweetintrotocryptos.ca@introtocryptos · Jan 13, 2017Mining Ethereum On A Home Gaming Computer http://lumbridgecity.com/DtIib",1,0,0,False
270,Александр@Nevskiy_A,The project becomes more popular in the world. About #Qtum from Japan. http://cryptocurrencymagazine.com/qtum-leads-smartcontract-to-mainstream?from=groupmessage… #Blockchain #BTC #Ethereum #fintech,1,0,0,False
271,Ameer Rosic@AmeerRosic,"#Blockchain can be confusing, but it doesn't have to be.  http://blockgeeks.com #bitcoin #Ethereum",2,1,0,False
272,Blockgeeks@Blockgks,Ethereum And Bitcoin: What's The Difference? http://dld.bz/fnDDq #Ethereum #bitcoin #blockchain,3,3,0,False
274,Coinstats@coinstats,"Ethereum Classic - ETC
Price: $1.4262
Change in 1h: +-0.38%
Market cap: $126415459.0
Ranking: 6
#Ethereum Classic #ETC",0,0,0,False
275,Coinstats@coinstats,"Ethereum - ETH
Price: $11.3017
Change in 1h: +0.03%
Market cap: $1002216234.0
Ranking: 2
#Ethereum #ETH",0,0,0,False
276,LAPITH@bhumharit,RT WorkstationW: What is this Blockchain Thing? – Startup Grind – Medium http://buff.ly/2kNvlsf #blockchain #bitcoin #fintech #ethereum #…What is this Blockchain Thing?I live in the world of blockchain and smart contracts. I hear people using terms that remind me of when we were building the Web back in…medium.com,0,0,0,False
277,Colombina@Colombina_2,"#QTUM will bring a new innovation in #blockchain. JOIN NOW! https://qtum.org  
More see on: https://bitcointalk.org/index.php?topic=1720632.0… #crypto #ETH #BTC",1,0,0,False
278,Bill Lewis@WorkstationW,What is this Blockchain Thing? – Startup Grind – Medium http://buff.ly/2kNvlsf #blockchain #bitcoin #fintech #ethereum #iot,3,1,0,False
279,Faith Emmanuel@residualbitcoin,"iEx.ec @ EDCON #0 : ten steps to understand the technology behind the #ethereum #blockchain https://medium.com/iex-ec/iex-ec-edcon-0-ten-steps-to-understand-the-technology-behind-the-ethereum-decentralized-cloud-d1f4ba233643… …iExec : ten steps to understand the technology behind the Ethereum decentralized cloudIn preparation for the EDCON conference, we present a series of articles to introduce the technology behind the iEx.ec Blockchain-based…medium.com",0,0,0,False
281,Ethereum SE@StackEthereum,How does data storage blockchain works? http://ethereum.stackexchange.com/questions/11987/how-does-data-storage-blockchain-works… #ethereum #blockchain #storage #cloudmining,0,0,0,False
282,DEFI @DoughDeFi,"When do we expect augur to launch v1?
https://reddit.com/r/Augur/comments/5ssavo/when_do_we_expect_augur_to_launch_v1/…
#augur #ethereum #redditWhen do we expect augur to launch v1?Just wondering what the timeframe is. I thought Augur was supposed to go live for the US election, but understand that there is no definite...reddit.com",0,0,0,False
283,BitcoinAgile@bitcoinagile,iEx.ec @ EDCON #0 : ten steps to understand the technology behind the #ethereum #blockchain https://medium.com/iex-ec/iex-ec-edcon-0-ten-steps-to-understand-the-technology-behind-the-ethereum-decentralized-cloud-d1f4ba233643…,7,3,0,False
284,boby hodob@bobyhodob,Here is the transcript in PDF format from our Q&A session on Feb 1st for direct download: https://qtum.org/QA1.pdf #Qtum #eth #btc,1,0,0,False
285,fav@btsfav,"Thank you Technode for writing an article about #Qtum http://ln.is/5Rk49
#ETH #BTC by #BitcoinGarden via @c0nvey",0,0,0,False
286,Brave New Coin@bravenewcoin,#Ethereum Price: USD $11.36 $ETH http://ow.ly/6UKf3048WBe,1,0,0,False
287,Coinstats@coinstats,"Ethereum Classic - ETC
Price: $1.4316
Change in 1h: +-0.69%
Market cap: $126892387.0
Ranking: 6
#Ethereum Classic #ETC",0,0,0,False
288,Coinstats@coinstats,"Ethereum - ETH
Price: $11.2998
Change in 1h: +-0.31%
Market cap: $1002031793.0
Ranking: 2
#Ethereum #ETH",0,0,0,False
289,Ethereum Price@EthereumPrice_,"#Ethereum: Ether Price Index
1 ETH =0.010731Ƀ XBT = $11.205500 USD
Today: -0.64%⬇︎ Last 24h: -1.09%⬇︎
https://ethereum-price.com",1,0,0,False
290,dianka@dianka985,"#Qtum aims to build smart contract functionalities that can be implemented at an enterprise level. https://qtum.org
#BTC & #ETH",1,0,0,False
291,Bitcoin Updater@BitcoinUpdater,Ethereum Price Technical Analysis – ETH/USD Breaks Down #ethereum http://socl.club/_fWR7P,0,0,0,False
292,Ethereum SE@StackEthereum,Installing and running a node on ethereum http://ethereum.stackexchange.com/questions/11986/installing-and-running-a-node-on-ethereum… #ethereum #goethereum,0,0,0,False
293,Vindyne8@Vindyne8,"#creditbit dev update with clarification, definitions, & roles https://bitcointalk.org/index.php?topic=1237511.msg17770782#msg17770782… $CRBIT #btc #eth #blockchain #fintech",13,16,0,False
294,Ameer Rosic@AmeerRosic,Great people deserve a great audience. http://blockgeeks.com #Blockchain #Ethereum #Bitcoin,0,0,0,False
295,daddybios@daddybios,"Singapore startup #Qtum received $ 1 million for the development of hybrid #blockchain https://qtum.org
#BTC #ETH #fintech #crypto",0,0,0,False
296,/r/Ethereum@r_Ethereum,"How could etherium change porn? #EthereumHow could etherium change porn?I'm a webmaster of several adult sites and wonder how etherium could change the current state of porn. With this I mean porn tubes, cam sites,...reddit.com",0,0,0,False
298,Mr@PompeyBitcoin,#Ethereum Payment Channels Could Enter Production in #2017 http://bit.ly/2jFXNwx via @CoinDeskEthereum Payment Channels Could Enter Production in 2017 - CoinDeskA project aiming to bring payment channels to ethereum is expected to become production-ready by the end of this year.coindesk.com,0,0,0,False
299,Vindyne8@Vindyne8,The Future Of Labor: An Interview With #ChronoBank http://bitcoinchaser.com/chronobank-interview… @BitcoinChaser #btc #eth #nem #etc #ltc $waves #emc #blockchain,16,16,0,False
300,Crypto Live@crypto_c_radio,#NowPlaying The Beardy Durfs - Bitcoins at http://cryptocurrencyradio.com #bitcoin #ethereum,0,0,0,False
301,Blockgeeks@Blockgks,How does #blockchain work? The ultimate guide  http://buff.ly/2dvhaDX #bitcoin #ethereum #startup,3,3,0,False
302,Vindyne8@Vindyne8,#Qtum article for the #Russian community: http://forklog.com http://forklog.com/singapurskij-startap-qtum-poluchil-1-mln-na-razvitie-gibridnogo-blokchejna/… #Blockchain #Ethereum #BTC,14,16,0,False
303,Ameer Rosic@AmeerRosic,6 Reasons Why #Blockchain is Worth Getting Excited http://snip.ly/7je5i #bitcoin #Ethereum,0,0,0,False
304,Faith Emmanuel@residualbitcoin,#ethereum Price Technical Analysis  ETH/USD Continuing Gains http://bitcoin-newz.com/ethereum-price-technical-analysis-ethusd-continuing-gains…  #ResidualBitcoin,0,0,0,False
305,BitcoinAgile@bitcoinagile,#ethereum Price Technical Analysis  ETH/USD Continuing Gains http://bitcoin-newz.com/ethereum-price-technical-analysis-ethusd-continuing-gains…,1,0,0,False
306,Crypto Live@crypto_c_radio,#NowPlaying BitcoinMeister - Abraham Cambridge of the Sun Exchange Part 1 at http://cryptocurrencyradio.com #bitcoin #ethereum,1,0,0,False
307,Crypto Live@crypto_c_radio,#NowPlaying ytcracker - Bitcoin Baron at http://cryptocurrencyradio.com #bitcoin #ethereum,0,0,0,False
308,BitcoinMan@eugeneym,join here #qtum community. We will be glad to. Write to @qtumfoundation about wanting to. #ETH #Crypto #BTC,0,0,0,False
310,Spotlights3.0@Spotlights3_0,"#Ethereum Price Trends (ETH and ETC, Week of February 6th)
https://goo.gl/bmnv0b #analysis #finance",0,0,0,False
311,Spotlights3.0@Spotlights3_0,"#CT_index
Read our fresh #Ethereum price analysis here:
https://goo.gl/4kyhuaThe following media includes potentially sensitive content. Change settingsView",0,0,0,False
312,CaterPilar Vesga@CaterPilarVesga,Check out the program for Zurich Life Science Day http://lifescience-youngscientists.uzh.ch/dam/jcr:633375d8-0e34-44dc-a097-71707793120f/Program%20ZLSD%202017%20v14.jpg… #ETH #UZH #CareerOportunities,1,0,0,False
313,Vitalii@artdor,#Qtum is becoming more and more popular project. About it is already @Forbes writes http://forbes.com/sites/rogeraitken/2017/02/06/qtum-mixing-bitcoin-ethereum-launching-proof-of-stake-smart-contracts-platform/#1ff82bac3564…  It's really good news! #ETH,1,0,0,False
314,Ameer Rosic@AmeerRosic,#Blockchain Technology Proves Itself in Wall Street Test http://snip.ly/i6je1 #Bitcoin #Ethereum,0,0,0,False
315,Coinstats@coinstats,"Ethereum Classic - ETC
Price: $1.42427
Change in 1h: +-0.49%
Market cap: $126238900.0
Ranking: 6
#Ethereum Classic #ETC",0,0,0,False
316,Coinstats@coinstats,"Ethereum - ETH
Price: $11.2777
Change in 1h: +-0.58%
Market cap: $1000042575.0
Ranking: 2
#Ethereum #ETH",0,0,0,False
317,Crypto Live@crypto_c_radio,"#NowPlaying The Ether Review - The #Ether Review #51?'??'""?'?Hack Ether Camp: There Can be Only One at http://cryptocurrencyradio.com #bitcoin #eth",0,0,0,False
318,/r/Ethereum@r_Ethereum,ChronoBank to partner with International People Solutions (IPS) #EthereumChronoBank to partner with International People Solutions (IPS)Posted in r/ethereum by u/bezV • 12 points and 5 commentsreddit.com,1,0,0,False
319,Crypto Live@crypto_c_radio,#NowPlaying Zhou Tonged - When the Drops Come at http://cryptocurrencyradio.com #bitcoin #ethereum,0,0,0,False
320,Faith Emmanuel@residualbitcoin,#ethereum Price Technical Analysis  ETH/USD Continuing Gains - NEWSBTC http://bit.ly/2ljvWT9  #ResidualBitcoin,0,0,0,False
321,Ethereum SE@StackEthereum,Error running Truffle migrate http://ethereum.stackexchange.com/questions/11985/error-running-truffle-migrate… #ethereum #truffle #testrpc,0,0,0,False
322,BitcoinAgile@bitcoinagile,#ethereum Price Technical Analysis  ETH/USD Continuing Gains - NEWSBTC http://bit.ly/2ljvWT9,0,0,0,False
324,Ethereum SE@StackEthereum,sendTransaction does not send the transaction (geth) http://ethereum.stackexchange.com/questions/11983/sendtransaction-does-not-send-the-transaction-geth… #ethereum #goethereum #pendingtransactions,0,0,0,False
326,Ameer Rosic@AmeerRosic,How #Blockchain Helps Brooklyn Dwellers Use Neighbors' Solar Energy http://snip.ly/f3wcc #Ethereum,1,0,0,False
327,vasya.vasyn@vasys174,The #Qtum Q&A PDF transcript from our Slack session https://qtumslack.herokuapp.com  can be found on our website: https://qtum.org/QA1.pdf #BTC #ETH,0,0,0,False
328,/r/Ethereum@r_Ethereum,Arizona Bill Would Make Blockchain Smart Contracts 'Legal' #EthereumArizona Bill Would Make Blockchain Smart Contracts 'Legal'Posted in r/ethereum by u/axelors • 72 points and 34 commentsreddit.com,1,0,0,False
329,Ethereum SE@StackEthereum,Solidity compilation issue on Linux Mint http://ethereum.stackexchange.com/questions/11982/solidity-compilation-issue-on-linux-mint… #ethereum #solidity #solc #linux,0,0,0,False
331,Coinstats@coinstats,"Ethereum Classic - ETC
Price: $1.42989
Change in 1h: +-3.34%
Market cap: $126735234.0
Ranking: 6
#Ethereum Classic #ETC",0,0,0,False
333,Ethereum Price@EthereumPrice_,"#Ethereum: Ether Price Index
1 ETH =0.010801Ƀ XBT = $11.210495 USD
Today: +0.02%⬆︎ Last 24h: -0.74%⬇︎
https://ethereum-price.com",0,0,0,False
334,Coinstats@coinstats,"Ethereum - ETH
Price: $11.3495
Change in 1h: +-1.52%
Market cap: $1006394065.0
Ranking: 2
#Ethereum #ETH",0,0,0,False
335,Michael@misterigl,".@VitalikButerin, AMA: today @ 3 pm – 5 pm EST
http://blockgeeks.com/ama/vitalik-buterin-ama-ask-anything/…
#EthereumHow to AMAAn Intro to AMAs AMA stands for “Ask Me Anything,”  term used to describe interviewing people. All AMA's are done by Text base replies. Very similar to Reddit. Guests will receive questions before...blockgeeks.com",0,0,0,False
336,LAPITH@bhumharit,"RT: #CT_index
Read our fresh #Ethereum price analysis here:
https://goo.gl/4kyhua",0,0,0,False
337,Ali Güçlü@aliguclu,"Cointelegraph : #CT_index
Read our fresh #Ethereum price analysis here:
… https://twitter.com/Cointelegraph/status/829248524919390209…)Quote TweetCointelegraph@Cointelegraph · Feb 8, 2017#CT_index
Read our fresh #Ethereum price analysis here:
https://goo.gl/4kyhua",0,0,0,False
338,Ameer Rosic@AmeerRosic,Q&A: STEPHAN TUAL: Founder & COO Slock.it & The DAO http://dld.bz/faeQR #THEDAO #ethereum #blockchain,0,0,0,False
339,Nori @ERTSNO,Blockchain economy https://cbinsights.com/blog/industries-disrupted-blockchain/… Banking is only the start #blockchain #ether #bitcoins,1,0,0,False
341,Cees Grootes@Analyticus,Bitcoin Vs Ethereum http://minyanville.com/business-news/markets/articles/2524BTC-2523Bitcoin-2523Ethereum-2523Blockchain-2540InvestorsBuz/2/4/2017/id/59333… #blockchain #bitcoin #ethereum,0,0,0,False
342,Jouko Salonen@JoukoSalonen,Nordledger living asa_service_20170208 by @JoukoSalonen #blockchain #construction http://slideshare.net/jouko.salonen/nordledger-living-asaservice20170208… #Ethereum #slideshareNordledger living asa_service_20170208Ethereum blockchain focused place related physical building asset splitting solution for construction industry.slideshare.net,2,1,0,False
344,tidex.com@Tidex_Exchange,#RT The Meaning of Decentralization https://medium.com/@VitalikButerin/the-meaning-of-decentralization-a0c92b76a274#.kasmrgc44… #Tidex #exchange #blockchain #wavesplatform #ethereum #ETH #BTC @VitalikButerin,17,15,0,False
345,Julia Edling@bitcointonic,"Trends #Ethereum Price(ETH and ETC, Week of February 6th): They will be gaining profit from it in the long-term… http://dlvr.it/NKBQLW",0,0,0,False
346,Sanjay Gupta@teaconnexions,"OMG, #Ethereum Is So Hard Forked via @Blockgks http://bit.ly/2kBXv6Y #blockchain",0,0,0,False
347,Crypto Live@crypto_c_radio,#NowPlaying TBP111 - Disrupting Global Commerce at http://cryptocurrencyradio.com #bitcoin #ethereum,0,0,0,False
348,Brave New Coin@bravenewcoin,#Ethereum Price: USD $11.61 $ETH http://ow.ly/6UKf3048WBe,1,0,0,False
349,Blockgeeks@Blockgks,Great people deserve a great audience. http://blockgeeks.com #Blockchain #Ethereum #Bitcoin,1,1,0,False
350,Ameer Rosic@AmeerRosic,Why Latin American economies are turning to #bitcoin http://snip.ly/mtab3 #blockchain #ethereum,1,1,0,False
351,Crypto Live@crypto_c_radio,#NowPlaying BitcoinMeister - Abraham Cambridge of the Sun Exchange Part 2 at http://cryptocurrencyradio.com #bitcoin #ethereum,0,0,0,False
354,Digix DGX@DigixDGX,"#Digix Core Dev Update - Feb 8 2017
https://reddit.com/r/digix/comments/5sr5mu/digix_core_dev_update_feb_8_2017/…
#ethereum #redditDigix Core Dev Update - Feb 8 2017Posted in r/digix by u/kcchng • 19 points and 26 commentsreddit.com",2,1,0,False
355,Дмитрий Марков@D_Markovv,"Do not miss the best ICO project Qtum! @QtumOfficial
#Qtum #blockchain #ETH #BTC",1,0,0,False
357,gL3nnX@gl3nnx,"Nice, #altcoin $FCT surpasses $ETH's and $XMR's volume today. #bitcoin",0,0,0,False
358,jupiter35@jupiter_hoainam,Donate to our project! Add funds and receive $$$ in exchange from profits lifetime! @gagpubblicita #ethereum #miner farm/x/14702367#/,0,0,0,False
359,jupiter35@jupiter_hoainam,Donate to our project! Add funds and receive $$$ in exchange from profits lifetime! @gagpubblicita #ethereum #miner https://indiegogo.com/projects/build-ethereum-mining-farm/x/14702367#/…,0,0,0,False
361,fintechfolk@fintechfolk,Thanks  for registering for FinTechFolk - http://zpr.io/Mnfj #fintech #ethereum #bitcoin #blockchain,0,0,0,False
362,Blockgeeks@Blockgks,Q&A: STEPHAN TUAL: Founder & COO Slock.it & The DAO http://dld.bz/faeQR #THEDAO #ethereum #blockchain,3,1,0,False
363,Coinstats@coinstats,"Ethereum Classic - ETC
Price: $1.4955
Change in 1h: +0.16%
Market cap: $132546632.0
Ranking: 6
#Ethereum Classic #ETC",0,0,0,False
364,Coinstats@coinstats,"Ethereum - ETH
Price: $11.6068
Change in 1h: +-0.02%
Market cap: $1029180901.0
Ranking: 2
#Ethereum #ETH",0,0,0,False
365,Qtum@qtum,The #Qtum Q&A PDF transcript from our Slack session https://qtumslack.herokuapp.com can be found on our website: https://qtum.org/QA1.pdf #BTC #ETH,42,120,0,False
366,Krillionaire@krilli0naire,"Seaman is quitting Twitter again after calling for ""Public Hangings"" lol $BTC $ETH #Bitcoin #cryptocurrency",1,0,0,False
367,Faith Emmanuel@residualbitcoin,#ethereum Price Technical Analysis  ETH/USD Continuing Gains - #bitcoin News #Analysis http://newsbitcoin.info/ethereum-price-technical-analysis-ethusd-continuing-gains…  #R…,1,0,0,False
368,Vindyne8@Vindyne8,#creditbit 's Consistent Innovation to Strengthen its Position in the #Cryptocommunity $CRBIT #btc #eth #blockchain http://newsbtc.com/2017/02/07/creditbits-consistent-innovation-strengthen-position-cryptocommunity/…,16,17,0,False
369,KarolinaMarzantowicz@KMarzantowicz,Replying to @magdaborowik#ethereum is not internet government but #blockchain in general has capabilities to govern privacy in internet,0,0,0,False
370,Crypto Live@crypto_c_radio,#NowPlaying Episode #4_ On - Episode #4: On-Ramping with Dee at http://cryptocurrencyradio.com #bitcoin #ethereum,0,0,0,False
371,/r/Ethereum@r_Ethereum,[Serious] Ethereum total supply #Ethereum http://ift.tt/2k0ZgbU,0,0,0,False
372,Amith Chandrashekar@amith__c,The Meaning of Decentralization  @VitalikButerin #fintech #blockchain #Ethereum http://buff.ly/2kLEQZ0,0,0,0,False
373,René Orij@ReneOrij,"Triple Entry Accounting + XBRL will start in NL in 2017 ! #Ethereum #C4ACCTriple Entry Accounting + XBRL will start in NL in 2017 ! #Ethereum #C4ACCOp persoonlijke titel Geregeld zie je artikelen of blogs verschijnen van personen of organisaties, die de toekomst proberen te voorspellen van de accountancy & het kantoor van de toekomst. Nu heb ik...linkedin.com",0,0,0,False
374,Ameer Rosic@AmeerRosic,How Will #Blockchain Change Banking? How Won't It? http://snip.ly/a2ci1 #Ethereum #Bitcoin,0,0,0,False
377,Vindyne8@Vindyne8,#ChronoBank makes a strategic partnership with #Instahireapp https://blog.chronobank.io/chronobank-makes-a-strategic-partnership-with-instahire-65ed40ffd41c#.jeudpps1i… #btc #ltc #eth #etc $waves #nem #emc,14,15,0,False
378,Vindyne8@Vindyne8,#Qtum Press Article From #Japan: http://cryptocurrencymagazine.com/qtum-leads-smartcontract-to-mainstream?from=groupmessage… #Blockchain #BTC #Ethereum #fintech,14,16,0,False
379,Coinstats@coinstats,"Ethereum Classic - ETC
Price: $1.49271
Change in 1h: +-0.03%
Market cap: $132297235.0
Ranking: 6
#Ethereum Classic #ETC",0,0,0,False
380,WorldCoinIndex@WorldCoinIndex,Cryptocurrencies $ETH $LTC $DASH $XMR $ZCASH https://worldcoinndex.com,0,0,0,False
381,Coinstats@coinstats,"Ethereum - ETH
Price: $11.6083
Change in 1h: +-0.05%
Market cap: $1029297530.0
Ranking: 2
#Ethereum #ETH",0,0,0,False
382,Ameer Rosic@AmeerRosic,25 GENIUSES WHO ARE CREATING THE FUTURE OF BUSINESS http://snip.ly/avrq9 #Blockchain #Ethereum,0,0,0,False
383,Faith Emmanuel@residualbitcoin,#ethereum Price Technical Analysis – ETH/USD Continuing Gains #BitcoinNews #BTCNews #NewsBTC #247Bitcoin #Bitcoin http://bit.ly/2liMk6c …,0,0,0,False
384,Christian Seberino@c_seberino,"Bitcoin Bulls Rage On: BTCManager’s Week in Review February 6 http://buff.ly/2ljN3jw #etc #eth #ethereumclassic #ethereum #blockchainBitcoin Bulls Rage On: BTCManager's Week in Review Feb 6Bitcoin breaks the $1000 handle again, after a harsh reaction to the PBOC announcement of the inspection of Chinese exchanges in January.btcmanager.com",0,0,0,False
385,/r/Ethereum@r_Ethereum,"Question: Pre-fork Ethereum addresses? #EthereumQuestion: Pre-fork Ethereum addresses?After splitting ETH/ETC in a pre-fork address, is there any risk to keep the pre-fork address for future ETH uses or the pre-fork address should...reddit.com",0,0,0,False
386,BitcoinAgile@bitcoinagile,#ethereum Price Technical Analysis – ETH/USD Continuing Gains #BitcoinNews #BTCNews #NewsBTC #247Bitcoin #Bitcoin http://bit.ly/2liMk6c,0,0,0,False
387,Faith Emmanuel@residualbitcoin,#ethereum Price Technical Analysis – ETH/USD Continuing Gains #BitcoinNews #BTCNews #NewsBTC #247Bitcoin #Bitcoin http://bit.ly/2k0T3N2 …,0,0,0,False
388,Faith Emmanuel@residualbitcoin,#ethereum Price Technical Analysis – ETH/USD Continuing Gains #BitcoinNews #BTCNews #NewsBTC #247Bitcoin #Bitcoin http://bit.ly/2k0KQZi …,0,0,0,False
389,Tony Adams@AdamsGardens,Yo @Nas Can we get the original version of the classic #Ether produced by @THEREALSWIZZZ??????? For the die hard fans from the jump????????,0,0,0,False
390,BitcoinAgile@bitcoinagile,#ethereum Price Technical Analysis – ETH/USD Continuing Gains #BitcoinNews #BTCNews #NewsBTC #247Bitcoin #Bitcoin http://bit.ly/2k0T3N2,1,2,0,False
391,BitcoinAgile@bitcoinagile,#ethereum Price Technical Analysis – ETH/USD Continuing Gains #BitcoinNews #BTCNews #NewsBTC #247Bitcoin #Bitcoin http://bit.ly/2k0KQZi,0,0,0,False
392,WLST.com@wlstcom,Ethereum Price Technical Analysis  ETH/USD Continuing Gains - NEWSBTC #cryptocurrency $ETH http://newsbtc.com/2017/02/08/ethereum-price-technical-analysis-ethusd-continuing-gains…,0,0,0,False
393,Faith Emmanuel@residualbitcoin,#ethereum Price Technical Analysis  ETH/USD Continuing Gains - NEWSBTC #EthereumPricechart http://newsbtc.com/2017/02/08/ethereum-price-technical-analysis-ethusd-continuing-gains… …,0,0,0,False
394,CryptoNewswire @CryptoNewswire,Ethereum Price Technical Analysis ETH/USD Continuing Gains - http://newsbtc.com/2017/02/08/ethereum-price-technical-analysis-ethusd-continuing-gains/… $ETH #cryptocurrency #blockchain #cryptoEthereum Price Technical Analysis – ETH/USD Continuing GainsEthereum price retained the bullish bias against the US Dollar to settle above $11.20. ETH/USD may continue to move higher in the short term.newsbtc.com,2,4,0,False
395,Ethereum Monkey@EthMonkey,Ethereum Price Technical Analysis - ETH/USD Continuing Gains - NEWSBTC #ethereum http://newsbtc.com/2017/02/08/ethereum-price-technical-analysis-ethusd-continuing-gains/…,0,0,0,False
396,Blockgeeks@Blockgks,"Check it out! Full Q &A with Richard Olsen, CEO at #lykke http://buff.ly/2cQ2dIQ #blockchain #ethereum",3,2,0,False
397,BitcoinAgile@bitcoinagile,#ethereum Price Technical Analysis  ETH/USD Continuing Gains - NEWSBTC #EthereumPricechart http://newsbtc.com/2017/02/08/ethereum-price-technical-analysis-ethusd-continuing-gains…,0,0,0,False
398,Bobe'bot@Bobe_bot,"1 #BTC = 1088.0153 #CHF
1 #ETH = 12.0208 #CHF
1 #DOGE = 0.000212669732 #CHF
sources: @cryptonatorcom @hellobity",0,0,0,False
399,Coinstats@coinstats,"Ethereum Classic - ETC
Price: $1.49405
Change in 1h: +0.3%
Market cap: $132414152.0
Ranking: 6
#Ethereum Classic #ETC",0,0,0,False
400,dotglum@dotglum,"“Code, Control, and the Coin” by @BitTrust #bitcoin #blockchain #cryptocurrency #altcoins #ethereum #segwit #DLTCode, Control, and the CoinA common debate within the bitcoin community centers on authority and power. Where does power emanate from in a decentralized system? Who…medium.com",1,0,0,False
401,/r/Ethereum@r_Ethereum,"Ask Vitalik A Question #EthereumAsk Vitalik A QuestionPost your question(s) [here] (http://blockgeeks.com/ama/vitalik-buterin-ama-ask-anything/) asap. He'll be answering them on February 8, 2017...reddit.com",0,0,0,False
402,Crypto Live@crypto_c_radio,#NowPlaying The Dollar Vigilante - An Interview with Collin Kettell of Palisade Global at http://cryptocurrencyradio.com #bitcoin #ethereum,0,0,0,False
403,M A T T H U N T Ξ R@matthunter,“The difference between App Coins and Protocol Tokens” by Will Warren https://medium.com/@willwarren89/the-difference-between-app-coins-and-protocol-tokens-7281a428348c#.9r5ru1o06… #augur $REP #ethereum,0,0,0,False
404,Faith Emmanuel@residualbitcoin,#ethereum Big Problems in the coming years #bitcoin #blockchain #medium https://medium.com/@davy_k_m/ethereum-big-problems-in-the-coming-year-980c9a84ae49…  #ResidualBitcoin,0,0,0,False
406,BitcoinAgile@bitcoinagile,#ethereum Big Problems in the coming years #bitcoin #blockchain #medium https://medium.com/@davy_k_m/ethereum-big-problems-in-the-coming-year-980c9a84ae49…,2,0,0,False
407,Brave New Coin@bravenewcoin,#Ethereum Price: USD $11.67 $ETH http://ow.ly/6UKf3048WBe,0,0,0,False
408,Blockgeeks@Blockgks,"Who is working on a blockchain powered sustainable energy solutions?
http://dld.bz/eVxaY #ethereum #blockchain",1,2,0,False
409,Coinstats@coinstats,"Ethereum Classic - ETC
Price: $1.49005
Change in 1h: +-0.33%
Market cap: $132057739.0
Ranking: 6
#Ethereum Classic #ETC",0,0,0,False
410,Coinstats@coinstats,"Ethereum - ETH
Price: $11.6149
Change in 1h: +0.15%
Market cap: $1029851117.0
Ranking: 2
#Ethereum #ETH",0,0,0,False
