,user,text,likes,retweets,replies,is_thread
0,EA Software@AgentSoft,"Another day of coding, another step closer to #Bittorrent + #Blockchain #vtorrent is coming #bitcoin #ethereum #monero #dashdc",2,1,0,False
1,RL Aitken@AitkenRL,"@Forbes: #investment guide to #crypto ICO's now rating #blockchain #startups. @NickAyton
#bitcoin #ethereum #GolemInvestment Guide To 'Crypto' Coin Offerings Rating Blockchain StartupsIn the crypto world the ""ICO"" - Initial Coin Offering - has been nothing short of a phenomenon. But when these fund raisings arise, how do investors properly evaluate the investment opportunity and...forbes.com",4,2,0,False
2,Wizards of the World@tithecoin,"Invest now at +10% bonus, limited time! Check us out at http://tithecoin.com ! #investing in #charity with #bitcoin #ethereum #xcp #steem",6,9,0,False
3,Julia Vaingurt@julia_vaingurt,"http://cur.lv/14cohe
 Does anyone think ether will rise to fame like bitcoin in the near future? #ETH #Ethereum",2,0,0,False
4,Pelle Brændgaard (we are hiring)@PelleB,"First invites to the uPort developers alpha are out. Develop real consumer #ethereum apps, signup here: http://buff.ly/2jfr0tB #whoareu",48,28,0,False
5,Vindyne8@Vindyne8,#RT Join ChronoBank on slack. http://chronobank.herokuapp.com #ethereum #blockchain #bitcoin #btc #ETH #crowdfunding,16,16,0,False
6,Los Silva@LosSilvaTV,Great user case for understanding #blockchain and #ethereum tech http://goo.gl/LLd7xQ #projectoaken #oaken #tesla #ether #btc #crypto,6,3,0,False
7,Vindyne8@Vindyne8,#chronobank BTC correction = good TIME to get your TIME here: chronobank.io You can also use alts! #btc #eth $waves #nem #etc #ltc #emc,18,16,0,False
8,ur-trading@urtrading,"#Ethereum
BY thegrowmoneymovement",1,1,0,False
9,Dawn@Dawn_Community,"Retweeted Blockgeeks (@Blockgks):

What does #Zcash mean for #Ethereum? http://dld.bz/fhyWt #blockchain... http://fb.me/7UuREWVuOWhat does Zcash mean for Ethereum?Many of us at ConsenSys believe the Ethereum community should be excited about the launch of Zcash and the incredible partnership opportunities that exist to bring both blockchains closer to achiev...blockgeeks.com",1,0,0,False
10,Jason Hamilton@jason_hamiltonm,How does #blockchain work? The ultimate guide  http://buff.ly/2hJAJHg #bitcoin #ethereum #startup http://buff.ly/2hJuy67 via @Blockgks,3,3,0,False
11,Zia Babar@ziababar,Talk about a confluence of emerging digital technologies. #Blockchain #Ethereum #Autonomous #IoT #ProjectOaken https://youtube.com/watch?v=6NBbZxddXEk…,1,1,0,False
12,Cointelegraph@Cointelegraph,Man Who Claims to Be #Ethereum’s Godfather Aims at Recasting Smart Contracts https://cointelegraph.com/news/man-who-claims-to-be-ethereums-godfather-aims-at-recasting-smart-contracts… - By @iykearu,13,22,1,False
13,i-Invested@i_Invested,"Building ‘Google For The Economic Web’ on The #Ethereum #Blockchain.
https://lnkd.in/dcsi9xd",3,2,0,False
14,Pelle Brændgaard (we are hiring)@PelleB,"2017 is the year when the #ethereum conversation changes from being about the price of ETH, to “have you used the latest dapp?” @uport_me",71,38,0,False
15,DarkMatter@DarkMatter799,Waiting for further breakdown before buying more #ethereum,1,3,0,False
16,Kevin Osterling@kevin_osterling,"You can do Quantitative Easing with #cryptocurrency  and it'll be obvious, but you can't do Fractional Reserve Banking #bitcoin #ethereum",1,0,0,False
17,Chrono.tech@ChronotechNews,#RT Development status update #2 https://blog.chronobank.io/development-status-update-2-690e03cb177a#.u7jokyx68… #blockchain #ethereum #bitcoin #wavesplatform #crowdfunding,36,26,3,False
18,Statspotting.com@statspotting,Income determines university choices - http://statspotting.com/income-determines-university-choices/… #vc #startups #bitcoin #p2p #ethereumFamily income determines students' university choices - Statspotting!Students choose better colleges based on family incomestatspotting.com,1,0,0,False
19,Jason Hamilton@jason_hamiltonm,Great people deserve a great audience. http://buff.ly/2i4uy1h #Blockchain #Ethereum #Bitcoin http://buff.ly/2i4DjZx via @AmeerRosic,1,0,0,False
20,WingzTV@realnewsvideos,#Ethereum-based #prediction #platform #Augur #co-founder named #2016 Thiel Fellow http://wingztv.com/video/live-with-ethereum-fan-augur-director-of-marketing-tony-sakich…,1,0,0,False
21,Anne Connelly@Anne_Connelly,What is 'Enterprise #Ethereum'? Details Emerge on Secret #Blockchain Project http://bit.ly/2hV2QDr via @CoinDesk,1,4,0,False
22,EthEmbedded@EthEmbedded,"#ProjectOaken made the news!  

#smartcar #IoT #AutonomousVehicles #smartcities #blockchain #ethereum #canbusQuote TweetETHNews@ETHNews_ · Jan 7, 2017#ProjectOaken Puts A #Tesla On The #Blockchain @TeslaMotors 
https://ethnews.com/project-oaken-puts-a-tesla-on-the-blockchain…",7,6,0,False
23,Dan Conway@DanConway650,"@ConsenSysAndrew killing it at Blockchain Fintech Summit, Silicon Valley. Huge China contingent hearing about wonders of #Ethereum.",0,0,0,False
24,Dmitry ButΞrin@BlockGeekDima,#Ethereum for Enterprise - http://buff.ly/2jnUZ6n #blockchain #startup,1,0,0,False
25,ethereum.network@EthereumNetw,"Introduction of the #Ethereum Light Client for DApp developers
https://blog.ethereum.org/2017/01/07/introduction-light-client-dapp-developers/… by @zsfelfoldi",5,5,0,False
26,Dan Conway@DanConway650,Crowd (mob) around @ConsenSysAndrew. These people want to develop on #Ethereum. This thing of ours is accelerating. Blockchain Fintech Con.,3,1,0,False
27,Pelle Brændgaard (we are hiring)@PelleB,The growth in downloads of Truffle an #ethereum development tool might be a good proxy for future ETH growth http://buff.ly/2iLqyWP,12,10,0,False
28,Ansel Lindner@AnselLindner,"Another #ethereum bug. Keep it simple stupid. #kiss #bitcoin
Cannot/Should not decentralize all the apps.
https://ethnews.com/ethercamps-hkg-token-has-a-bug-and-needs-to-be-reissued…",2,2,0,False
29,Michael Flynn  付林@mflynn2,Solving scalability will lead to huge adoption in 2017/18. Ppl want it now.  http://crwd.fr/2jl6BXX #blockchain #fintech #bitcoin #ethereum,5,5,1,False
30,Julia Edling@bitcointonic,"Man Claiming to Be #Ethereum’s Godfather Plans to Recast Smart Contracts: Computer scientist, Yanislav Malahov and… http://dlvr.it/N3Sw5l",2,1,0,False
31,æternity blockchain@aeternity,@aetrnty on @CoinTelegraph: #Ethereum’s godfather aims at recasting #SmartContracts http://ow.ly/3PBS307MrAY #blockchain #fintech #technology,8,9,0,False
32,George@_Georgeth_,Wow! 25000 subscriptions on the #Ethereum #Reddit page! https://reddit.com/r/ethereum/ #community #growth,9,8,0,False
33,Vindyne8@Vindyne8,#RT Development status update #2 https://blog.chronobank.io/development-status-update-2-690e03cb177a#.prfmx89m6… #blockchain #ethereum #bitcoin #wavesplatform #crowdfunding,22,27,1,False
34,Collin Crypto@CollinCrypto,.@CollinCrypto This strategy has yielded a 100% win rate since I tweeted it last October.  $ETH #Ethereum $GAM,21,5,4,False
35,matt edwards@meds888,Amazing! A #Tesla car on a #blockchain using smart contracts via #ethereum - UAE GovHack Preview https://youtu.be/6NBbZxddXEk #smartcities,3,0,0,False
36,Aayush Jindal@AayushJs,"#Ethereum - $ETH/USD Under Pressure, Upsides Limited #Ether #Cryptocurrency https://ethnews.com/analysis/01-07-2017-ethusd-under-pressure-upsides-limited…",1,2,0,False
37,Sean@seandotau,“Man Who Claims to Be #Ethereum’s Godfather Aims at Recasting Smart Contracts” http://buff.ly/2i0M5Ma,2,1,0,False
38,Dominic Williams ∞@dominic_w,"#PHI extended (...Devcon2)
- Cyberspace issues loans using autonomous system
- Create stable crypto""fiat""
http://buff.ly/2ioFJCn
#ethereum",12,6,0,False
39,Lika Nicolic@Ethereumhub,Great people deserve a great audience. http://blockgeeks.com #Blockchain #Ethereum #Bitcoin,1,0,0,False
40,Chuck Russell@iamChuckRussell,#bitcoin Bitcoin might just be a plausible response to the “war on cash” declared by governments around the wor... http://ow.ly/FDTL508k3FH,2,1,0,False
41,Chuck Russell@iamChuckRussell,#ethereum will also play a part in the 'War on Cash' - #blockchain will continue to disrupt #fintech strongholds.,2,2,0,False
42,farazdagi.eth@farazdagi,"Amazing team, amazing project. Hiring! #opensource #ethereumQuote TweetStatus@ethstatus · Jan 7, 2017We're hiring core contributors, come join our #clojurescript #clojure #reactnative #opensource #ethereum project! https://status-platform.workable.com/jobs/406019",5,2,0,False
43,Bitcoin Updater@BitcoinUpdater,Ethereum Classic Price Technical Analysis – ETC/BTC Continue To Bleed #ethereum http://soco.space/lAtCK3,2,0,0,False
44,Christian Seberino@c_seberino,Etherplay is now live on the mainnet! Play the first ever video game on Ethereum! http://buff.ly/2iaM5Fk #etc #eth,1,1,0,False
45,ethereum.network@EthereumNetw,".@uport_me is hiring
https://angel.co/uport/jobs
#Ethereum #identityuPort JobsGet notified when uPort posts jobs. uPort puts the user at the center of Web 3.0, building a new identity system that gives each of us control of our own data and empowers us to use it in new and...angel.co",2,2,0,False
46,Marochini@Marochini1975,"An #Ethereum Mobile Client Launches in Alpha, Aimed at Early Adopters and Developers

#blockchain
http://ln.is/m.digitaljournal.com/8Sr2b…",1,3,0,False
47,Defi.Central@DefiCentral,"New Pool For Expanse [EXP] 
Details:https://goo.gl/AqC3Hf
@ExpanseOfficial #cryptocurrency #expanse $exp $eth #ethereum #blockchain",1,2,0,False
48,Digiconomist@DigiEconomist,"#Cryptocurrency highlights week 1 inc: Shrem using #Ethereum to buy up waste, SEC setting #Bitcoin ETF decision date http://digiconomist.net/cryptocurrency-highlights-week-1-2017…",2,1,0,False
49,Chris Burniske@cburniske,Follow the leader? Fascinating how ~similar the #Ethereum #Litecoin #Monero etc charts are to #bitcoin of late https://coinmarketcap.com,8,2,1,False
50,Blockchain Weekly@blockchainwkly,The Evolution Of Casinos – Next Generation Transparent #ethereum Smart Contracts Based Casino https://txn.me/5RbTtH via @blockchainers,0,0,0,False
51,Defi.Central@DefiCentral,"FirstBlood Dev Update + Social Sunday
Details:https://goo.gl/4jKGjg
@firstbloodio #cryptocurrency #gaming #F1IRSTBLOOD #ethereum #altcoin",2,0,0,False
52,Michael Wuehler@wuehler,@ConsenSysAndrew live from Silicon Valley #ethereum @ConsenSysLLC,4,3,0,False
53,Anthony Schmitt Financial Services | Trader@BourseetTrading,".@CoinTelegraph 
Man Who Claims to Be #Ethereum’s Godfather Aims at Recasting #smartcontracts https://cointelegraph.com/news/man-who-claims-to-be-ethereums-godfather-aims-at-recasting-smart-contracts… #coins by .@iykearu",2,2,0,False
54,Crypto Gossip@CryptoGossip_,Remember: Monday $SYS #SYSCOIN Developer Update with exiting News. #Poloniex $ETC $ETH $XMR $BTC $NAV $SC $ZEC $FCT #Poloniex,4,3,0,False
55,Kenny Rowe@kennyrowe,"The Seattle #Ethereum Meetup group is proud to host @drummondreed for a talk on Self-Sovereign Identity. Jan 17thDrummond Reed On Self-Sovereign IdentityTue, Jan 17, 2017, 6:00 PM: It is widely acknowledged that blockchain technology could be a breakthrough in digital identity. Blockchain identity projects have been announced for both Bitcoin (Blockstmeetup.com",1,2,0,False
56,Blockgeeks@Blockgks,What are the best #blockchain books to read? http://dld.bz/eWaV7 #bitcoin #ethereum #startup,1,0,0,False
57,Ameer Rosic@AmeerRosic,Step-by-Step Guide: What the heck is a Smart Contract? #blockchain #bitcoin #ethereum http://dld.bz/eYNat,1,0,0,False
58,Fred E @Fredilly,#Ethereum build a decentralized LinkedIn for Russia. Quick! ,1,0,0,False
59,Thorsten Scholtes@ts_scholtes,What is 'Enterprise Ethereum'? Details Emerge on Secret Blockchain Project http://bit.ly/2hV2QDr #ethereum #blockchain,1,0,0,False
60,Contractize@contractize,Man Who Claims to Be #Ethereum’s Godfather Aims at Recasting #SmartContracts #Contractize https://lnkd.in/ee39nFY,1,2,0,False
61,Jouko Salonen@JoukoSalonen,if u have #ETH AGI on DAO - does it fork (morph)?  (or only deterministically updates the state) - protocol vs contract?,2,1,0,False
62,Syncubate@Syncubate,"Despite steep pullback in $BTC on finding resistance at previous highs near $1200, $ETH bulls are holding its value from lows few weeks ago.",1,0,0,False
63,MiningShed@miningshed,Cleaning required - time to replace that shoe rack! #mining #miningrig #ethereum #zcash #z… http://j.mp/2iSDB9h,1,3,0,False
64,Jack@jackfru1t,pretty strong breakout the last few days on #ethereum $ETHBTC. Watching to see how this week's candle closes.,3,1,0,False
65,EtherBlockchain.io@etherblockchain,“Status Alpha Release” by @jarradhope https://blog.status.im/status-alpha-release-fcecfedd2b94#.s4vzsazfg… #status #ether #blockchain,1,0,0,False
66,Marco ฿TC@Marco_BTC,"Bought at the bottom?
$ETH seems to be strong, might go up to 0.013-0.015 soon!",1,0,0,False
67,fav@btsfav,Hey @ElonMusk & @TeslaMotors - We put a Tesla on the #blockchain!! http://ln.is/JAbfW #Ethereum... by #GeorgeAHallam via @c0nvey,1,0,0,False
68,Alberto Jauregui | esoteRICK.eth @DisruptBanksy,http://ift.tt/2iNokq1 Man Who Claims to Be Ethereum's Godfather Aims at Recasting Smart Contracts - CoinTelegraph #ethereum #ether,1,0,0,False
69,BitcoinAgile@bitcoinagile,"Status.im, an #ethereum Mobile Client Launches in Alpha, Aimed at Early Adopters and #aimed http://investorsbuz.com/2017/01/07/status-im-ethereum-mobile-client-launches-alpha-aimed-early-adopters-developers…",3,0,0,False
70,Foxes Den@foxesden34,Man Who Claims to Be Ethereum’s Godfather Aims at Recasting Smart Contracts https://cointelegraph.com/news/man-who-claims-to-be-ethereums-godfather-aims-at-recasting-smart-contracts… #ethereum,1,1,0,False
76,Francesco Villa@cekospiu,Donate to our project! Add funds and receive $$$ in exchange from profits lifetime! @gagpubblicita #ethereum #miner https://indiegogo.com/projects/build-ethereum-mining-farm/x/14702367#/…,0,0,0,False
77,Bitcoin Updater@BitcoinUpdater,AI Driven Investment Bank Euklid Closes Seed Funding at €10M Valuation #ethereum http://soco.space/SXwU6-,0,0,0,False
78,BO@b2o101,free ethereum every 4 minute https://goo.gl/SnbXdF #ethereum #bitcoin #blockchain #dogecoin #crypto #satoshi,1,1,0,False
80,HJ El Bey@BusynessOfME,I effin' LOVE #BitCoin #BlockChain #Ethereum @Ethereum,1,0,0,False
81,Ian Xiao@ian_xxiao,Getting my toes wet with some techie stuff :) great introduction to #Ethereum https://youtu.be/66SaEDzlmP4 via @YouTube,1,0,0,False
82,BO@b2o101,free ethereum every 5 minute https://goo.gl/qTW6ri #ethereum #bitcoin #blockchain #dogecoin #crypto #satoshi,1,0,0,False
83,Coinstats@coinstats,"Ethereum Classic - ETC
Price: $1.43841
Change in 1h: +-0.39%
Market cap: $126059973.0
Ranking: 6
#Ethereum Classic #ETC",0,0,0,False
84,Bobe'bot@Bobe_bot,"1 #BTC = 937.5737 #CHF
1 #ETH = 10.5375 #CHF
1 #DOGE = 0.000229053825 #CHF
sources: @cryptonatorcom @hellobity",0,0,0,False
85,Coinstats@coinstats,"Ethereum - ETH
Price: $9.83784
Change in 1h: +0.78%
Market cap: $862609614.0
Ranking: 2
#Ethereum #ETH",0,0,0,False
86,Daniel Pichler @PichlerD,"Project Oaken: A tesla on the blockchain #smartcontracts #ethereum
https://youtu.be/6NBbZxddXEk",0,0,0,False
99,Ameer Rosic@AmeerRosic,Could #Blockchain Technology Disruptive The Real Estate Industry? http://dld.bz/eCvcw #ethereum,0,0,0,False
100,Blockgeeks@Blockgks,#Ethereum for Enterprise - http://buff.ly/2jnRGMK #blockchain #startup,1,1,0,False
101,/r/Ethereum@r_Ethereum,"Finally got 500ETH #EthereumFinally got 500ETHIt was simple: 5BTC vs 500ETH May the force be with us in 5-10 years By the way, do you advice me to invest in Augur, Arcade or Iconomi too? How...reddit.com",1,0,0,False
102,Veki@Veki551155,"The role of #bitcoin and #ethereum #blockchain #mediumThe role of Bitcoin and EthereumI’ve previously said that I hate bitcoin and think it will die. Well I’ve changed my mind. I don’t think it will die, but I don’t think it…medium.com",0,0,0,False
103,blockchainmedia@Ethereumlab,What is #Ethereum? A Step-by-Step Beginners Guide  http://dld.bz/fcBTc #blockchain #fintech,0,0,0,False
104,Faith Emmanuel@residualbitcoin,"The role of #bitcoin and #ethereum #blockchain #medium https://medium.com/@Stephen../the-role-of-bitcoin-and-ethereum-d6d1c0b32660… #ResidualBitcoinThe role of Bitcoin and EthereumI’ve previously said that I hate bitcoin and think it will die. Well I’ve changed my mind. I don’t think it will die, but I don’t think it…medium.com",0,0,0,False
105,BitcoinAgile@bitcoinagile,"The role of #bitcoin and #ethereum #blockchain #mediumThe role of Bitcoin and EthereumI’ve previously said that I hate bitcoin and think it will die. Well I’ve changed my mind. I don’t think it will die, but I don’t think it…medium.com",1,1,0,False
106,/r/Ethereum@r_Ethereum,"DApp Legal & Accounting Frameworks #EthereumDApp Legal & Accounting FrameworksHi everyone, We’ve made significant progress on Rex in the last couple months and are prepping for some exciting announcements. In the meantime,...reddit.com",0,0,0,False
107,MeeseeksBTC@Meeseeks100BTC,"RT Start mining $ETH or $BTC together with people from all over the world.

https://goo.gl/tYClLG",0,0,0,False
116,ᴀɴᴅʀᴇ ᴄʀᴀᴍᴇʀ @TheAndreCramer,What is '#Enterprise #Ethereum'? Details Emerge on Secret #Blockchain Project http://buff.ly/2iN2kf0 #cryptotech #smartcontracts,1,1,0,False
117,Christian Seberino@c_seberino,What is difference between Monero / Dash / BitShares? http://buff.ly/2hWsURN #etc #eth #ethereumclassic #ethereum #blockchain #bitcoinWhat is difference between Monero / Dash / BitShares?Hi guys. Can someone explain me what is difference between Monero / Dash / BitShares? I was talking about this issue with some ppl and they told...reddit.com,1,1,0,False
119,Coinstats@coinstats,"Ethereum Classic - ETC
Price: $1.44455
Change in 1h: +0.86%
Market cap: $126595206.0
Ranking: 6
#Ethereum Classic #ETC",0,0,0,False
120,Coinstats@coinstats,"Ethereum - ETH
Price: $9.73921
Change in 1h: +-0.15%
Market cap: $853943438.0
Ranking: 2
#Ethereum #ETH",0,0,0,False
128,Jesic Aleksandar@SasaJesic,Replying to @SasaJesic#zcash #bitcoin #litecoin #ethereum .What if the $ or € or £ add Lihtening network? Lol,0,0,0,False
129,Jesic Aleksandar@SasaJesic,#bitcoin #litecoin #ethereum .lightening network it is like all of us reserved $ on Visa card.,1,1,1,False
130,fintechfolk@fintechfolk,Thanks @dw_barclay for registering for FinTechFolk - http://zpr.io/Mnfj #fintech #ethereum #bitcoin #blockchain,0,0,0,False
131,Alex.eth@AlexanderFisher,"Battle of the Blockchains: #Ethereum or #Bitcoin?  http://buff.ly/2i10BDA #blockchainBattle of the Blockchains: Ethereum or Bitcoin?To date, Bitcoin is perhaps the most well-known blockchain platform, but others like Ethereum are starting to change that. Because users can build applications using Ethereum to transmit information...edgy.app",1,1,0,False
132,Ren@DSNR_1,dont give up on $ETH guys it still has massive 'potential'!!,0,0,0,False
135,Coinstats@coinstats,"Ethereum Classic - ETC
Price: $1.43085
Change in 1h: +-0.46%
Market cap: $125392640.0
Ranking: 6
#Ethereum Classic #ETC",0,0,0,False
136,Coinstats@coinstats,"Ethereum - ETH
Price: $9.68379
Change in 1h: +-2.42%
Market cap: $849070677.0
Ranking: 2
#Ethereum #ETH",0,0,0,False
137,Ethereum Price@EthereumPrice_,"#Ethereum: Ether Price Index
1 ETH =0.010753Ƀ XBT = $9.664500 USD
Today: -4.40%⬇︎ Last 24h: -6.15%⬇︎
https://ethereum-price.com",0,0,0,False
138,Ethereum SE@StackEthereum,Proof of authenticity without microchips? http://ethereum.stackexchange.com/questions/11223/proof-of-authenticity-without-microchips… #ethereum #privatekey,0,0,0,False
140,Alistair Milne@alistairmilne,Big found in another Ethereum smart contract: https://ethnews.com/ethercamps-hkg-token-has-a-bug-and-needs-to-be-reissued… $ETH $ETC,10,11,3,False
141,BO@b2o101,free ethereum every 10 minute https://goo.gl/oHlYsc #ethereum #bitcoin #blockchain #dogecoin #crypto #satoshi,1,1,0,False
146,Veki@Veki551155,Income determines university choices - Statspotting #ethereum #bitcoin #vc #startups #p2p http://bit.ly/2jfspjz,0,0,0,False
147,USA News@1USNews,"GET FREE #DOGE
Win dogecoin every 60 minutes
http://goo.gl/hE5Bk6
#doge #dogecoin
#Ethereum
#bitcoin #litecoin #gold #PrimeDay",0,0,0,False
148,Gflaterr on Parler & Gab @gflaterr,"Project Oaken Puts A #Tesla On The #Blockchain
https://ethnews.com/project-oaken-puts-a-tesla-on-the-blockchain…
#ethereum @buddendorf",1,0,0,False
149,blockchainmedia@Ethereumlab,What is the difference between #Bitcoin and #Ethereum? http://dld.bz/eWaV7 #startup,0,0,0,False
150,Collin Crypto@CollinCrypto,Replying to @CollinCrypto.@CollinCrypto This strategy has yielded a 100% win rate since I tweeted it last October.  $ETH #Ethereum $GAM,21,5,4,False
151,/r/Ethereum@r_Ethereum,PHI extended (Devcon2...). Loans from cyberspace #EthereumPHI extended (Devcon2...). Loans from cyberspacePosted in r/ethereum by u/vrf5 • 11 points and 0 commentsreddit.com,1,0,0,False
154,BO@b2o101,free ethereum every 15 minute https://goo.gl/Ssdtwl #ethereum #bitcoin #blockchain #dogecoin #crypto #satoshi,0,0,0,False
155,Cliff K Jordan@CKJordan15,"Earn up to $65,610 daily! join & get the benefits http://bit.ly/coinviv2 #coinomia #ethereum #cryptoguide #Bitcoins",0,0,0,False
157,Bitcoin Investing@InvestBitcoin1,"My 4 main trading coins #Bitcoin -40%, #Ethereum - 30%, #Factom 15%, #Maidsafe -15%",1,2,0,False
158,/r/Ethereum@r_Ethereum,"Where are the Ether Platform Wallets ? #EthereumWhere are the Ether Platform Wallets ?Indeed Ive been asking for months, a simple wallet with Dapp plugins with super UX. And no KYC.. bs . Get ether from atms or credit card purchase...reddit.com",0,0,0,False
160,Brave New Coin@bravenewcoin,#Ethereum Price: USD $9.89 $ETH http://ow.ly/6UKf3048WBe,0,0,0,False
161,BitcoinAgile@bitcoinagile,Income determines university choices - Statspotting #ethereum #bitcoin #vc #startups #p2p http://bit.ly/2jfspjz,1,1,0,False
163,Coinstats@coinstats,"Ethereum Classic - ETC
Price: $1.43988
Change in 1h: +0.05%
Market cap: $126181829.0
Ranking: 6
#Ethereum Classic #ETC",0,0,0,False
164,Coinstats@coinstats,"Ethereum - ETH
Price: $9.90931
Change in 1h: +-0.67%
Market cap: $868829511.0
Ranking: 2
#Ethereum #ETH",0,0,0,False
165,Ethereum SE@StackEthereum,How to deploy Ethereum Alarm Clock contract on a private ethereum network? http://ethereum.stackexchange.com/questions/11222/how-to-deploy-ethereum-alarm-clock-contract-on-a-private-ethereum-network… #ethereum #solidity #contractdesign,0,0,0,False
168,blockchainmedia@Ethereumlab,What are the best #blockchain books to read? http://dld.bz/eWaV7 #bitcoin #ethereum #startup,1,0,0,False
169,/r/Ethereum@r_Ethereum,"Thinking about joining Ethereum community / project #EthereumThinking about joining Ethereum community / projectI understand Bitcoin and have recently been learning about the Ethereum network and Ether. I want to be a part of the project, put money into it...reddit.com",1,0,0,False
177,WhalePanda@WhalePanda,"Bug in in a token contract on the #Ethereum blockchain again, where else do bugs pop up every day? $ETH https://ethnews.com/ethercamps-hkg-token-has-a-bug-and-needs-to-be-reissued…",24,17,2,False
179,LAPITH@bhumharit,RT aetrnty: aetrnty on CoinTelegraph: #Ethereum’s godfather aims at recasting #SmartContracts http://ow.ly/3PBS307MrAY #blockchain #fintech…,0,0,0,False
182,Alternative Currency@alt_ccy,Man Who Claims to Be #Ethereum’s Godfather Aims at Recasting Smart Contracts https://cointelegraph.com/news/man-who-claims-to-be-ethereums-godfather-aims-at-recasting-smart-contracts…,0,0,0,False
183,Bitcoin@crypto_bitcoins,Man Who Claims to Be Ethereum’s Godfather Aims at Recasting Smart Contract https://cointelegraph.com/news/man-who-claims-to-be-ethereums-godfather-aims-at-recasting-smart-contracts… #ether #btc #eth,2,0,0,False
184,Cointon@CointonDotCom,Man Who Claims to Be Ethereum’s Godfather Aims at Recasting Smart Contract https://cointelegraph.com/news/man-who-claims-to-be-ethereums-godfather-aims-at-recasting-smart-contracts… #ether #btc #eth,0,0,0,False
185,Coinstats@coinstats,"Ethereum Classic - ETC
Price: $1.43829
Change in 1h: +-0.74%
Market cap: $126040369.0
Ranking: 6
#Ethereum Classic #ETC",0,0,0,False
186,Coinstats@coinstats,"Ethereum - ETH
Price: $9.97046
Change in 1h: +-0.39%
Market cap: $874179741.0
Ranking: 2
#Ethereum #ETH",0,0,0,False
193,/r/Ethereum@r_Ethereum,A presentation on Ethereum I gave at TicketLeap -- aimed at beginners #EthereumA presentation on Ethereum I gave at TicketLeap -- aimed at beginnersPosted in r/ethereum by u/EvanVanNess • 42 points and 12 commentsreddit.com,1,0,0,False
194,/r/Ethereum@r_Ethereum,"Drummond Reed On Self-Sovereign Identity - Seattle Ethereum Meetup (Seattle, WA) #EthereumDrummond Reed On Self-Sovereign Identity - Seattle Ethereum Meetup...Posted in r/ethereum by u/kennyrowe • 18 points and 4 commentsreddit.com",1,0,0,False
197,BO@b2o101,free ethereum every 15 minute https://goo.gl/MljKm6 #ethereum #bitcoin #blockchain #dogecoin #crypto #satoshi,0,0,0,False
201,blockchainmedia@Ethereumlab,"What Is The Future Of The #Blockchain? A 2017 Prediction
 http://dld.bz/fpPb5 #Ethereum #bitcoin",1,0,0,False
202,Ethereum SE@StackEthereum,"Contract with default function that uses more than 2,300 gas http://ethereum.stackexchange.com/questions/11219/contract-with-default-function-that-uses-more-than-2-300-gas… #ethereum #testing #vulnerability",1,0,0,False
203,Blockgeeks@Blockgks,"New Post: Blockchain For Business, Should You Care? http://buff.ly/2jnyY7U #blockchain #bitcoin #ethereum #fintech",1,0,0,False
213,Paul Tech@PaulTechUK,What is #Ethereum? A Beginners Guide #blockchain https://app.quuu.co/r/yayb-n,0,0,0,False
215,CryptoCompare@CryptoCompare,"RELEASE THE KRAKEN! #Ethereum #Trading made easier.How to Trade Ethereum on Kraken?If you have generated some Ether or have some Bitcoins, Euros or Dollars you can transfer them to an exchange to start trading! This process can vary from exchange to exchange with different exchan...cryptocompare.com",0,0,0,False
217,Los Silva@LosSilvaTV,New Article: Project Oaken Puts A Tesla On The Blockchain #Blockchain #tesla #ETHEREUM #cryptocurrency https://ethnews.com/project-oaken-puts-a-tesla-on-the-blockchain…,0,0,0,False
218,Coinstats@coinstats,"Ethereum Classic - ETC
Price: $1.44879
Change in 1h: +-0.19%
Market cap: $126958633.0
Ranking: 6
#Ethereum Classic #ETC",0,0,0,False
219,Coinstats@coinstats,"Ethereum - ETH
Price: $10.0194
Change in 1h: +-0.06%
Market cap: $878460733.0
Ranking: 2
#Ethereum #ETH",0,0,0,False
227,Ethereum Price@EthereumPrice_,"#Ethereum: Ether Price Index
1 ETH =0.010968Ƀ XBT = $10.002025 USD
Today: -2.50%⬇︎ Last 24h: -1.07%⬇︎
https://ethereum-price.com",0,0,0,False
228,Olivier Chapiteau@o_chapiteau,"07Jan2017 18:00 UTC #Ether #Blockchain status - Block height @ 2,953,419 - 182,998 unconfirmed tr. - Last fork height @ 2,953,399",1,0,0,False
229,Fabio Carbone@FabioCarbone80,Anche le #CloudMining sono in #saldi #BTC #Scrypt #X11 #Zcash #Ethereum #Equihash #DASH #Bitcoin #sottocosto https://goo.gl/OUfCFj,0,0,0,False
230,BO@b2o101,free ethereu every 20 minute https://goo.gl/78O6jm #ethereum #bitcoin #blockchain #dogecoin #crypto #satoshi,1,0,0,False
231,Mogul News@mogulnews,Everything you need to know about Ethereum http://mktmgl.co/2hhWDEy #Ethereum #bitcoin,0,0,0,False
232,/r/Ethereum@r_Ethereum,"Possible Ethereum business model that drives adoption and earns passively #EthereumPossible Ethereum business model that drives adoption and earns...Smart contract parking tickets. - New users park in a space at a car park for a discounted rate and asked to pay later - After leaving, these...reddit.com",0,0,0,False
233,/r/Ethereum@r_Ethereum,Congrats on 25k subs #EthereumCongrats on 25k subsI woke up to this... flawless victory!reddit.com,1,0,0,False
235,Ethereum SE@StackEthereum,How to unmarshall an uint returned from a solidity contract? http://ethereum.stackexchange.com/questions/11216/how-to-unmarshall-an-uint-returned-from-a-solidity-contract… #ethereum #solidity #web3js,1,0,0,False
237,Contractize@contractize,#SmartContracts Process #Contractize #Ethereum #blockchain,1,2,0,False
238,Constantin Malaeru@costi672000,Donate to our project! Add funds and receive $$$ in exchange from profits lifetime! @gagpubblicita #ethereum #miner https://indiegogo.com/projects/build-ethereum-mining-farm/x/14702367#/…,1,0,0,False
248,Ethereum SE@StackEthereum,Erlang parallelism with Solidity - Properties http://ethereum.stackexchange.com/questions/11214/erlang-parallelism-with-solidity-properties… #ethereum #solidity,0,0,0,False
249,Johan Nygren@resilience_me,"#BITNATION is building Governance 2.0, using new forms of state-technologies like for example #Ethereum http://blockgeeks.com/introduction-to-ethereum-blockchain/…",1,1,0,False
250,PACTA@getPACTA,Why is 2017 going to be The Year of Smart Contracts? http://buff.ly/2javB4g via @PCMag #ethereum #contractmanagement,0,0,0,False
251,Blockgeeks@Blockgks,"What Is The Future Of The #Blockchain? A 2017 Prediction
 http://dld.bz/fpPb5 #Ethereum #bitcoin",1,0,0,False
252,Coinstats@coinstats,"Ethereum Classic - ETC
Price: $1.45437
Change in 1h: +0.38%
Market cap: $127445755.0
Ranking: 6
#Ethereum Classic #ETC",0,0,0,False
253,Bobe'bot@Bobe_bot,"1 #BTC = 938.5577 #CHF
1 #ETH = 10.7052 #CHF
1 #DOGE = 0.00022927905 #CHF
sources: @cryptonatorcom @hellobity",0,0,0,False
254,Coinstats@coinstats,"Ethereum - ETH
Price: $10.0133
Change in 1h: +-0.53%
Market cap: $877912808.0
Ranking: 2
#Ethereum #ETH",0,0,0,False
263,Chuck Russell@iamChuckRussell,Replying to @iamChuckRussell#ethereum will also play a part in the 'War on Cash' - #blockchain will continue to disrupt #fintech strongholds.,2,2,0,False
264,Ethereum SE@StackEthereum,Erlang parallelism with Solidity - which is better? http://ethereum.stackexchange.com/questions/11214/erlang-parallelism-with-solidity-which-is-better… #ethereum #solidity,1,0,0,False
265,Ethereum SE@StackEthereum,How to resync your timestamp of private ethereum network? http://ethereum.stackexchange.com/questions/11215/how-to-resync-your-timestamp-of-private-ethereum-network… #ethereum #solidity #timers,1,0,0,False
267,Defi.Central@DefiCentral,"Let's Talk ETC! (Ethereum Classic) - Episode #7 - With Prophet Daniel
Details:https://goo.gl/eePeuv
@EthereumClassic #ethereum #ethclassic",1,2,0,False
268,CryptoRTs +  = @CryptoRTs,New blog: Introduction of the Light Client for DApp developers by zsfelfoldi #ethereum #dapp #LES #ethlightclient http://bit.ly/2i48fvk,0,0,0,False
269,/r/Ethereum@r_Ethereum,"Need a multi crypto-currency wallet #EthereumNeed a multi crypto-currency walletI need one where i can store dogecoins, ethereum and bitcoins and i need to hold my keys and backup. Anyone can help please?reddit.com",1,0,0,False
270,Ethereum@ethereum,"New blog: Introduction of the Light Client for DApp developers by @zsfelfoldi #ethereum #dapp #LES #ethlightclientIntroduction of the Light Client for DApp developersThe first version of the Light Ethereum Subprotocol (LES/1) and its implementation in Geth are still in an experimental stage, but they are expected to reach a more mature state in a few months where...blog.ethereum.org",71,62,3,False
272,ethereum.network@EthereumNetw,".@CampEther’s HKG Token Has A Bug And Needs To Be Reissued #Ethereum
https://ethnews.com/ethercamps-hkg-token-has-a-bug-and-needs-to-be-reissued…
by @ETHNews_",1,4,0,False
273,JZay@BTCOlN,Replying to @BTCOlNLightened up my $ETH bag. Will try an reload lower,0,0,0,False
282,Brave New Coin@bravenewcoin,#Ethereum Price: USD $10.1 $ETH http://ow.ly/6UKf3048WBe,1,0,0,False
283,blockchainmedia@Ethereumlab,"#Blockchain Technology and the Law Are Allies, Not Enemies http://dld.bz/fkYrY #Ethereum #crypto",1,0,0,False
284,Lika Nicolic@Ethereumhub,"#Blockchain Technology and the Law Are Allies, Not Enemies http://dld.bz/fkYrY #ethereum #fintech",1,0,0,False
285,Coinstats@coinstats,"Ethereum Classic - ETC
Price: $1.44911
Change in 1h: +0.13%
Market cap: $126982814.0
Ranking: 6
#Ethereum Classic #ETC",0,0,0,False
286,Coinstats@coinstats,"Ethereum - ETH
Price: $10.0715
Change in 1h: +0.41%
Market cap: $882999426.0
Ranking: 2
#Ethereum #ETH",0,0,0,False
288,Crypto_Krill@Crypto_Krill,The robots are coming... #robot $btc #bitcoin $eth #AI #ArtificialIntelligence,1,1,0,False
295,MAZ@MazArmageddon,#Ether and @Shroud_Eater was lit last night fam. That shit was spiritual.,0,0,0,False
296,Matei Culcer@the_real_MacCoy,"Best 2106 #blockchain resources #ethereum #currencies #tech #TechNewsQuote TweetMatei Culcer@the_real_MacCoy · Sep 12, 2016#Blockchain service which allows users to bring dollars, euros, and other #Currencies onto and off of the #ethereum https://twitter.com/bitcoinagile/status/775282410300796929…",0,0,0,False
297,blockchainmedia@Ethereumlab,Introduction to #Ethereum #Blockchain: The Internet's Government http://dld.bz/fkYrH #crypto,2,1,0,False
298,Раб Божий@Diener_Gottes,Man Who Claims to Be #Ethereum’s Godfather Aims at Recasting Smart Contracts: Computer… https://goo.gl/fb/9m3sXw,0,0,0,False
299,Veki@Veki551155,"Status.im, an #ethereum Mobile Client Launches in Alpha, Aimed at Early Adopters and #aimed …",0,0,0,False
300,Lika Nicolic@Ethereumhub,Q&A: STEPHAN TUAL: Founder & COO Slock.it & The DAO http://dld.bz/faeQR #THEDAO #ethereum #blockchain,0,0,0,False
301,Faith Emmanuel@residualbitcoin,"Status.im, an #ethereum Mobile Client Launches in Alpha, Aimed at Early Adopters and #aimed http://investorsbuz.com/2017/01/07/status-im-ethereum-mobile-client-launches-alpha-aimed-early-adopters-developers… …",0,0,0,False
313,Tech Lib@tech__lib,"It's coming! The #Blockchain Technology That Will Replace Lawyers  #ethereum
@Ethereumhub - Check https://goo.gl/UXv51S",0,0,0,False
315,Coinstats@coinstats,"Ethereum Classic - ETC
Price: $1.44952
Change in 1h: +1.11%
Market cap: $127017557.0
Ranking: 6
#Ethereum Classic #ETC",0,0,0,False
316,Coinstats@coinstats,"Ethereum - ETH
Price: $10.0391
Change in 1h: +0.04%
Market cap: $880150532.0
Ranking: 2
#Ethereum #ETH",0,0,0,False
317,Ethereum Price@EthereumPrice_,"#Ethereum: Ether Price Index
1 ETH =0.011170Ƀ XBT = $10.017500 USD
Today: -0.70%⬇︎ Last 24h: +3.61%⬆︎
https://ethereum-price.com",0,0,0,False
318,CryptoNewswire @CryptoNewswire,Man Who Claims to Be Ethereums Godfather Aims at Recasting Smart Contracts - https://cointelegraph.com/news/man-who-claims-to-be-ethereums-godfather-aims-at-recasting-smart-contracts… $ETH #altcoin #finance #fintech,0,0,0,False
319,Info Wisata@beri451,Free Ethereum https://goo.gl/kY2WK8 #bitcoin #Panama #altcoin #eth #price #trading,0,0,0,False
320,Mahalo Patrimoine@mahalopatrim,http://bitcoinsuccess.blogspot.co.id faucet collection #ethereum #bitcoin #blockchain #dogecoin #xapo #FinTech #regulation by #BitSuccess,1,0,0,False
321,EtherBlockchain.io@etherblockchain,Introduction of the Light Client for DApp developers https://blog.ethereum.org/2017/01/07/introduction-light-client-dapp-developers/… #ether #blockchain #ethereum,0,0,0,False
322,/r/Ethereum@r_Ethereum,Devcon2 Recap: Ethereum for Resource Limited Devices - Bob Summerwill #EthereumDevcon2 Recap: Ethereum for Resource Limited Devices - Bob SummerwillPosted in r/ethereum by u/thehighfiveghost • 42 points and 0 commentsreddit.com,0,0,0,False
323,Ethereum Monkey@EthMonkey,Man Who Claims to Be Ethereum's Godfather Aims at Recasting Smart Contracts #ethereum https://cointelegraph.com/news/man-who-claims-to-be-ethereums-godfather-aims-at-recasting-smart-contracts…,0,0,0,False
334,Nishant Shastry@nishant_shastry,Man Who Claims to Be #Ethereum’s Godfather Aims at Recasting Smart Contracts https://cointelegraph.com/news/man-who-claims-to-be-ethereums-godfather-aims-at-recasting-smart-contracts… - By iykearu,0,0,0,False
335,LAPITH@bhumharit,RT: Man Who Claims to Be #Ethereum’s Godfather Aims at Recasting Smart Contracts https://cointelegraph.com/news/man-who-claims-to-be-ethereums-godfather-aims-at-recasting-smart-contracts… - By iykearu,1,0,0,False
336,LAPITH@bhumharit,Man Who Claims to Be #Ethereum’s Godfather Aims at Recasting Smart Contracts https://cointelegraph.com/news/man-who-claims-to-be-ethereums-godfather-aims-at-recasting-smart-contracts… - By iykearu,0,0,0,False
337,Ali Güçlü@aliguclu,"CoinTelegraph : Man Who Claims to Be #Ethereum’s Godfather Aims at Recasting Smart Contrac… https://twitter.com/CoinTelegraph/status/817739027935821825…)Quote TweetCointelegraph@Cointelegraph · Jan 7, 2017Man Who Claims to Be #Ethereum’s Godfather Aims at Recasting Smart Contracts https://cointelegraph.com/news/man-who-claims-to-be-ethereums-godfather-aims-at-recasting-smart-contracts… - By @iykearu",1,0,0,False
338,Ethereum UAE@Ethereum_UAE,Man Who Claims to Be Ethereum’s Godfather Aims at Recasting Smart Contracts http://ift.tt/2i0utA1 #Ethereum,0,0,0,False
339,BlackBullTradingPost ₿   @BlackBullTradn,CoinTelegraph: Man Who Claims to Be #Ethereum’s Godfather Aims at Recasting Smart Contracts https://cointelegraph.com/news/man-who-claims-to-be-ethereums-godfather-aims-at-recasting-smart-contracts… - By iykearu,0,0,0,False
341,Info Wisata@beri451,Free Bitcoin https://goo.gl/Tqlwkm #bitcoin #Panama #altcoin #eth #price #trading,0,0,0,False
342,BO@b2o101,free ethereum every 10 minute https://goo.gl/AovdjD #ethereum #bitcoin #blockchain #dogecoin #crypto #satoshi,0,0,0,False
354,Defi.Central@DefiCentral,"Digix-Core Dev Update : 7 Jan 2017
Details:https://goo.gl/liJJZm
@DigixGlobal #ethereum #Blockchain #digix #Fintech #cryptocurrency",1,2,0,False
355,cryptinsight@cryptinsight,Representatives of Wall Street and the #ethereum Foundation are working on a new confidential #blockchain-project | http://bit.ly/2iTqchn,0,0,0,False
356,Blockgeeks@Blockgks,Finally! A Simple Guide To understand Ethereum http://dld.bz/fcBTc #Ethereum #blockchain #fintech,1,0,0,False
357,hubskihose@hubskihose,Charlie Shrem Wants to Use Ethereum to Buy Up Michigan’s Waste Industry #ethereum #business http://dlvr.it/N3QXbh,0,0,0,False
358,Coinstats@coinstats,"Ethereum Classic - ETC
Price: $1.44213
Change in 1h: +-0.15%
Market cap: $126367916.0
Ranking: 6
#Ethereum Classic #ETC",0,0,0,False
359,Coinstats@coinstats,"Ethereum - ETH
Price: $10.0466
Change in 1h: +-0.64%
Market cap: $880794682.0
Ranking: 2
#Ethereum #ETH",0,0,0,False
360,Info Wisata@beri451,free doge coin https://goo.gl/5k9frA #bitcoin #Panama #altcoin #eth #price #trading,0,0,0,False
374,Trust 2 Pay / ReliablyME - Alex Todd@Trust2Pay,Global #FinTech Innovators’ Daily is out! http://paper.li/Trust2Pay/1426970568?edition_id=228277b0-d4df-11e6-95ce-0cc47a0d164b… #bitcoin #ethereum,1,0,0,False
375,Ethereum UAE@Ethereum_UAE,"iEx.ec Offers an Insight into Its Upcoming Blockchain Based Distributed Computing Platform http://ift.tt/2i3B0YU #EthereumiEx.ec Offers an Insight into Its Upcoming Blockchain Based Distributed Computing PlatformiEx.ec is a blockchain based cloud computing system that aims to provide scalable, secure and easily accessible computing resources for dApps.bitcoinist.com",0,0,0,False
376,/r/Ethereum@r_Ethereum,bitcoin will never be a currency #Ethereumbitcoin will never be a currencyreddit.com,1,0,0,False
378,Info Wisata@beri451,free ethereum every 20 minute https://goo.gl/Xtyn34 #bitcoin #Panama #altcoin #eth #price #trading,0,0,0,False
379,Pravin Bhudiya@pravin_bhudiya,"Ethereum Introduction of the Light Client for DApp developers
Details:https://goo.gl/QxuLNR
@ethereumproject #ethereum #dapp $ETH #crypto",0,0,0,False
380,/r/Ethereum@r_Ethereum,"internet / ethereum analogy #Ethereuminternet / ethereum analogySomeone correct me if I am wrong but this is the analogy i see. Tcp/ip = blockchain email = bitcoin www = ethereum Google,facebook,uber,etc =...reddit.com",1,0,0,False
381,Defi.Central@DefiCentral,"Ethereum Introduction of the Light Client for DApp developers
Details:https://goo.gl/QxuLNR
@ethereumproject #ethereum #dapp $ETH #crypto",2,0,0,False
391,Lika Nicolic@Ethereumhub,"Check it out! Full Q &A with Richard Olsen, CEO at #lykke http://buff.ly/2cQ2dIQ #blockchain #ethereum",0,0,0,False
392,blockchainmedia@Ethereumlab,Could #Blockchain Technology Bankrupt Spotify? A Music Revolution http://buff.ly/2cWIfNM #ethereum #bitcoin,1,1,0,False
393,Coinstats@coinstats,"Ethereum Classic - ETC
Price: $1.45269
Change in 1h: +5.35%
Market cap: $127291337.0
Ranking: 6
#Ethereum Classic #ETC",0,0,0,False
394,Coinstats@coinstats,"Ethereum - ETH
Price: $10.1292
Change in 1h: +1.43%
Market cap: $888023429.0
Ranking: 2
#Ethereum #ETH",0,0,0,False
396,Info Wisata@beri451,free ethereum every 5 minute https://goo.gl/9vLnB8 #bitcoin #Panama #altcoin #eth #price #trading,0,0,0,False
397,EasyEth@EasyEthereum,EtherPlay - Play & Win Ethers - https://easyeth.com/?p=693 #ethereumproject #ethereum #eth #etherplay via @EasyEthereum,1,1,0,False
398,BO@b2o101,free ethereum every 5 minute https://goo.gl/QVAov3 #ethereum #bitcoin #blockchain #dogecoin #crypto #satoshi,1,0,0,False
407,Status@ethstatus,"We're hiring core contributors, come join our #clojurescript #clojure #reactnative #opensource #ethereum project! https://status-platform.workable.com/jobs/406019",43,28,1,False
408,TenX@tenxwallet,"Agree? Share / RT!
Disagree? Like!

#OneBit #ToTheMoon #blockchain #bitcoin #crypto #ethereum",0,0,0,False
409,Lika Nicolic@Ethereumhub,"Who is working on a blockchain powered sustainable energy solutions?
http://dld.bz/eVxaY #ethereum #blockchain",0,0,0,False
410,Info Wisata@beri451,free ethereum every 10 minute https://goo.gl/owY5W3 #bitcoin #Panama #altcoin #eth #price #trading,0,0,0,False
411,BO@b2o101,free ethereum every 20 minute https://goo.gl/SJB1L5 #ethereum #bitcoin #blockchain #dogecoin #crypto #satoshi,0,0,0,False
413,/r/Ethereum@r_Ethereum,What is the difference between Mist and the Ethereum Wallet? #EthereumWhat is the difference between Mist and the Ethereum Wallet?reddit.com,1,0,0,False
414,/r/Ethereum@r_Ethereum,Does anyone think ether will rise to fame like bitcoin in the near future? #EthereumDoes anyone think ether will rise to fame like bitcoin in the near...Posted in r/ethereum by u/Iamahighlighter012 • 11 points and 41 commentsreddit.com,1,1,0,False
415,gilberto orlandi@matrixitalia,"When you have nothing to hidde you have nothing to fear.. go BTC!! #bitcoin #ethereumQuote TweetBitcoin News@PrecioBTC · Jan 7, 2017EU Council Requests The Registration Of Bitcoin Users http://dlvr.it/N3Mrmq #Bitcoin",0,0,0,False
424,Brave New Coin@bravenewcoin,#Ethereum Price: USD $10.04 $ETH http://ow.ly/6UKf3048WBe,0,0,0,False
425,blockchainmedia@Ethereumlab,"Is #Ethereum similar to #Bitcoin? Well, sort of, but not really. http://dld.bz/fcBTc #blockchain",0,0,0,False
426,Veki@Veki551155,"Status.Im, an #ethereum Mobile Client Launches in Alpha, Aimed at Early Adopters and Developers #SEO #CMS http://synapticweb.co/news/1279-status-im,-an-ethereum-mobile-client-launches-in-alpha,-aimed-at-early-adopters-and-developers…",0,0,0,False
427,Coinstats@coinstats,"Ethereum Classic - ETC
Price: $1.37482
Change in 1h: +1.57%
Market cap: $120466067.0
Ranking: 6
#Ethereum Classic #ETC",0,0,0,False
428,Coinstats@coinstats,"Ethereum - ETH
Price: $9.98867
Change in 1h: +0.18%
Market cap: $875688768.0
Ranking: 2
#Ethereum #ETH",0,0,0,False
429,Ethereum Price@EthereumPrice_,"#Ethereum: Ether Price Index
1 ETH =0.011198Ƀ XBT = $10.014215 USD
Today: -0.45%⬇︎ Last 24h: +2.92%⬆︎
https://ethereum-price.com",0,0,0,False
430,Faith Emmanuel@residualbitcoin,"Status.Im, an #ethereum Mobile Client Launches in Alpha, Aimed at Early Adopters and Developers #SEO #CMS http://synapticweb.co/news/1279-status-im,-an-ethereum-mobile-client-launches-in-alpha,-aimed-at-early-adopters-and-developers… #Residua…",0,0,0,False
431,BitcoinAgile@bitcoinagile,"Status.Im, an #ethereum Mobile Client Launches in Alpha, Aimed at Early Adopters and Developers #SEO #CMS http://synapticweb.co/news/1279-status-im,-an-ethereum-mobile-client-launches-in-alpha,-aimed-at-early-adopters-and-developers…",0,0,0,False
432,Michael Flynn  付林@mflynn2,Not just asset tokenization for non-FI use case. #blockchain goes beyond #fintech. Digital ID great PoC. #ethereum #disruption,1,0,0,False
439,Yoichi Hirai@pirapira,"working on the #coq extraction of #ethereum virtual machine defs  https://github.com/pirapira/eth-isabelle/pull/131… (HOL4: I've never used it, maybe now to try)[WIP] Generate Coq files with `make lem-coq` by pirapira · Pull Request #131 · pirapira/eth-isabelleFixes #98github.com",12,5,0,False
440,Info Wisata@beri451,free ethereu every 20 minute https://goo.gl/78O6jm #bitcoin #Panama #altcoin #eth #price #trading,0,0,0,False
441,BO@b2o101,big free ethereum every 60 minute https://goo.gl/Mp2qOl #ethereum #bitcoin #blockchain #dogecoin #crypto #satoshi,1,1,0,False
442,Ameer Rosic@AmeerRosic,Is #Youtube in Trouble? #Blockchain is coming! http://bit.ly/1tgKTVz #ethereum #bitcoin,1,0,0,False
443,Info Wisata@beri451,free ethereum every 15 minute https://goo.gl/bDA2Oj #bitcoin #Panama #altcoin #eth #price #trading,0,0,0,False
444,Lika Nicolic@Ethereumhub,Step-by-Step Guide: What the heck is a Smart Contract? #blockchain #bitcoin #ethereum http://dld.bz/eYNat,0,0,0,False
445,BO@b2o101,free ethereum every 600 minute https://goo.gl/VOo9pg #ethereum #bitcoin #blockchain #dogecoin #crypto #satoshi,1,0,0,False
446,blockchainmedia@Ethereumlab,What does #Zcash mean for #Ethereum? http://dld.bz/fhyWt #blockchain,0,0,0,False
449,Coinstats@coinstats,"Ethereum Classic - ETC
Price: $1.34778
Change in 1h: +0.14%
Market cap: $118094883.0
Ranking: 6
#Ethereum Classic #ETC",0,0,0,False
450,Bobe'bot@Bobe_bot,"1 #BTC = 917.2257 #CHF
1 #ETH = 10.5919 #CHF
1 #DOGE = 0.000232936275 #CHF
sources: @cryptonatorcom @hellobity",0,0,0,False
451,Ethereum Monkey@EthMonkey,"Status.Im, an Ethereum Mobile Client Launches in Alpha, Aimed at Early Adopters and Developers #ethereumStatus.Im, an Ethereum Mobile Client Launches in Alpha, Aimed at Early Adopters and DevelopersStatus, an Ethereum light client targeting Android & iOS unveiled its feature light alpha today.cointelegraph.com",0,0,0,False
460,Coinstats@coinstats,"Ethereum - ETH
Price: $9.96169
Change in 1h: +0.57%
Market cap: $873310614.0
Ranking: 2
#Ethereum #ETH",0,0,0,False
461,Ameer Rosic@AmeerRosic,Could #Blockchain Technology Bankrupt #Spotify? http://bit.ly/1tgKTVz #ethereum #bitcoin,0,0,0,False
462,Info Wisata@beri451,free ethereum every 15 minute https://goo.gl/MljKm6 #bitcoin #Panama #altcoin #eth #price #trading,0,0,0,False
463,Lika Nicolic@Ethereumhub,It's coming! The #Blockchain Technology That Will Replace Lawyers http://dld.bz/eYNat #ethereum,0,0,0,False
464,/r/Ethereum@r_Ethereum,"IBC presents: Ronan Sandford, Etherplay – an interview #EthereumIBC presents: Ronan Sandford, Etherplay – an interviewPosted in r/ethereum by u/malefizer • 26 points and 3 commentsreddit.com",0,0,0,False
465,/r/Ethereum@r_Ethereum,"Gift Ether to a friend #EthereumGift Ether to a friendHow would be the easiest and fastest (<4h) to gift a friend, who does not have a wallet yet, some ether?reddit.com",0,0,0,False
466,Get Free Dogecoin@GetDogecoin,"GET FREE #DOGE
Win dogecoin every 60 minutes
http://goo.gl/hE5Bk6
#doge #dogecoin
#Ethereum
#bitcoin #litecoin #Amazon",0,0,0,False
472,blockchainmedia@Ethereumlab,"OMG, Ethereum Is So Hard Forked http://dld.bz/fm2T7 #Ethereum #blockchain #bitcoin",0,0,0,False
473,Bitcoin Updater@BitcoinUpdater,Bitcoin's Upside to Continue on Indian Demand and SegWit Update: BTCManager's Week in Review Nov. 21 #ethereum http://soco.space/Zw6jyK,1,0,0,False
474,Info Wisata@beri451,free ethereum every 5 minute https://goo.gl/Eu2q2z #bitcoin #Panama #altcoin #eth #price #trading,0,0,0,False
475,Hmd Ray@hmd_ray,Soon there will be no $IOC to buy. Buy it now. $IOC #IOCOIN #DIONS #BTC #ETC #ETH #XMR,1,1,0,False
476,Emuesiri Consin-Mosheshe@consin_mosh,"Biggie !!, Pac, @Nas 
Even Hov @S_C_ should respect irregardless of his Multi-Millionaire$ $ventures acquired
#ETHER https://twitter.com/XXL/status/817658551011344385…This Tweet is unavailable.",0,0,0,False
477,blockchainmedia@Ethereumlab,How Can #Blockchain Technology Help Fight Air Pollution? http://dld.bz/fnrst #Ethereum #airpollution,0,0,0,False
478,Coinstats@coinstats,"Ethereum Classic - ETC
Price: $1.33353
Change in 1h: +3.65%
Market cap: $116843752.0
Ranking: 6
#Ethereum Classic #ETC",0,0,0,False
479,Coinstats@coinstats,"Ethereum - ETH
Price: $9.82967
Change in 1h: +1.18%
Market cap: $861718773.0
Ranking: 2
#Ethereum #ETH",0,0,0,False
480,Info Wisata@beri451,free ethereum every 15 minute https://goo.gl/DVnBbi #bitcoin #Panama #altcoin #eth #price #trading,0,0,0,False
481,BO@b2o101,free ethereum every 15 minute  https://goo.gl/DVnBbi #ethereum #bitcoin #blockchain #dogecoin #crypto #satoshi,1,1,0,False
482,MedosAdvert@medosadvert,Hi @nuserurybyr #SCRYPT #MINER 1MH/s 6.60$ Christmas offers on http://cryptocoins.it/go/hashflare/ #Ethereum via https://Statusbrew.com/?r=wl,0,0,0,False
483,MedosAdvert@medosadvert,Hi @Reevoo #SCRYPT #MINER 1MH/s 6.60$ Christmas offers on http://cryptocoins.it/go/hashflare/ #Ethereum via https://Statusbrew.com/?r=wl,0,0,0,False
484,MedosAdvert@medosadvert,@nutanix earn 3% for every day with http://cryptocoins.it/go/etherminers/ #BitCoin #Ethereum #AltCoins via https://Statusbrew.com/?r=wl,0,0,0,False
485,Lika Nicolic@Ethereumhub,How Can #Blockchain Technology Help Fight Air Pollution? http://dld.bz/fnrst #Ethereum #airpollution,0,0,0,False
486,blockchainmedia@Ethereumlab,What are your favorite digital wallets to use and why? http://dld.bz/fevtV #blockchain #bitcoin #ethereum,0,0,0,False
493,ant@ThisIsNuse,"Replying to @ThisIsNuse.@ThisIsNuse Yes, yes it is. 

https://coinigy.com/s/i/5870b449/

Welcome back $ETHPoloniex BTC/ETH Chart - Published on Coinigy.com on January 7th, 2017 at 9:26 AM.Poloniex BTC/ETH Chart - Indicators used: BTC/USD, BITF, Volume (true, 20) - Interval: D. Published on Coinigy.com on January 7th, 2017 at 9:26 AM.coinigy.com",1,1,0,False
494,Info Wisata@beri451,free ethereum every 15 minute https://goo.gl/Ssdtwl #bitcoin #Panama #altcoin #eth #price #trading,0,0,0,False
495,BO@b2o101,free ethereum every 5 minute https://goo.gl/Eu2q2z #ethereum #bitcoin #blockchain #dogecoin #crypto #satoshi,0,0,0,False
496,kim macleod@bakerygirl9,"Thinking Of #Investing In #Ether? Get Started Now! 3% Discount w/ Coupon - 8rRBkl http://dld.bz/ePx6q
#Ethereum",0,0,0,False
497,Marco ฿TC@Marco_BTC,"Replying to @Marco_BTCBought at the bottom?
$ETH seems to be strong, might go up to 0.013-0.015 soon!",1,0,0,False
498,Tedy MD@bitcoinjapanese,Kahn Academy CEO On The State Of Education | Squawk B... http://vid.staged.com/wCBt #btcjapan #btcchina #ethereum.co.id,1,2,0,False
499,blockchainmedia@Ethereumlab,"Top AMA's with the leaders in #Blockchain, #Bitcoin and #Ethereum http://blockgeeks.com/ama/",0,0,0,False
500,Blockgeeks@Blockgks,What is #Ethereum? A Step-by-Step Beginners Guide  http://dld.bz/fcBTc #blockchain #fintech,0,0,0,False
502,Coinstats@coinstats,"Ethereum Classic - ETC
Price: $1.29495
Change in 1h: +-2.0%
Market cap: $113461696.0
Ranking: 6
#Ethereum Classic #ETC",0,0,0,False
507,Coinstats@coinstats,"Ethereum - ETH
Price: $9.73341
Change in 1h: +0.63%
Market cap: $853266763.0
Ranking: 2
#Ethereum #ETH",0,0,0,False
508,Ethereum Price@EthereumPrice_,"#Ethereum: Ether Price Index
1 ETH =0.011433Ƀ XBT = $9.759245 USD
Today: +1.64%⬆︎ Last 24h: +7.77%⬆︎
https://ethereum-price.com",1,0,0,False
509,BitcoinBuzz vega9@BitcoinBuzzV9,http://bitcoinbuzz.vega9.com - Hot topics: #bitcoin #blockchain #btc #fintech #ethereum #news,0,0,0,False
510,Info Wisata@beri451,free ethereum every 10 minute https://goo.gl/oHlYsc #bitcoin #Panama #altcoin #eth #price #trading,0,0,0,False
512,Lika Nicolic@Ethereumhub,Smart Contracts: The #Blockchain Technology That Will Replace Lawyers http://dld.bz/eYNat #ethereum,0,0,0,False
513,Info Wisata@beri451,free ethereum every 600 minute https://goo.gl/VOo9pg #bitcoin #Panama #altcoin #eth #price #trading,0,0,0,False
514,BO@b2o101,free ethereum every 15 minute https://goo.gl/bDA2Oj #ethereum #bitcoin #blockchain #dogecoin #crypto #satoshi,1,0,0,False
515,snooptoshi@CryptofSatoshi,Buy a shit ton of $ETC now and short $ETH in a month and a half https://twitter.com/22loops/status/817626394687574016…This Tweet is unavailable.,1,0,0,False
517,Jouko Salonen@JoukoSalonen,Replying to @trentmc0if u have #ETH AGI on DAO - does it fork (morph)?  (or only deterministically updates the state) - protocol vs contract?,2,1,0,False
518,Brave New Coin@bravenewcoin,#Ethereum Price: USD $9.66 $ETH http://ow.ly/6UKf3048WBe,2,0,0,False
527,blockchainmedia@Ethereumlab,"Besides #Ethereum, which blockchains do you think are currently leading the pack http://dld.bz/fcNRx",0,0,0,False
529,Coinstats@coinstats,"Ethereum Classic - ETC
Price: $1.32417
Change in 1h: +-0.08%
Market cap: $116020178.0
Ranking: 6
#Ethereum Classic #ETC",0,0,0,False
530,Coinstats@coinstats,"Ethereum - ETH
Price: $9.67659
Change in 1h: +0.34%
Market cap: $848273194.0
Ranking: 2
#Ethereum #ETH",0,0,0,False
531,/r/Ethereum@r_Ethereum,A governance proposal to reverse hacks & coordinate protocol upgrades #EthereumA governance proposal to reverse hacks & coordinate protocol upgradesPosted in r/ethereum by u/tomding • 21 points and 7 commentsreddit.com,1,0,0,False
532,Info Wisata@beri451,big free ethereum every 60 minute https://goo.gl/Mp2qOl #bitcoin #Panama #altcoin #eth #price #trading,0,0,0,False
542,/r/Ethereum@r_Ethereum,Need help #EthereumNeed helpJust created a Multisig wallet in MIST. Where can I find the Json file? Many thanks.reddit.com,1,0,0,False
543,Citroen995@citroen995,rebalanced my holdings. #bitcoin #ethereum #cryptocurrency #coincap,0,0,0,False
544,Info Wisata@beri451,free ethereum every 20 minute https://goo.gl/SJB1L5 #bitcoin #Panama #altcoin #eth #price #trading,0,0,0,False
545,BO@b2o101,free ethereum every 10 minute  https://goo.gl/owY5W3 #ethereum #bitcoin #blockchain #dogecoin #crypto #satoshi,1,0,0,False
547,Blockgeeks@Blockgks,How Can #Blockchain Technology Help Fight Air Pollution? http://dld.bz/fnrst #Ethereum #airpollution,2,3,0,False
548,Coinstats@coinstats,"Ethereum Classic - ETC
Price: $1.32489
Change in 1h: +-0.83%
Market cap: $116081452.0
Ranking: 6
#Ethereum Classic #ETC",0,0,0,False
549,Coinstats@coinstats,"Ethereum - ETH
Price: $9.61645
Change in 1h: +-0.83%
Market cap: $842988899.0
Ranking: 2
#Ethereum #ETH",0,0,0,False
550,Ethereum SE@StackEthereum,What happens when you put an recursive schedule call with Ethereum Alarm Clock scheduler? http://ethereum.stackexchange.com/questions/11199/what-happens-when-you-put-an-recursive-schedule-call-with-ethereum-alarm-clock-s… #ethereum #contractdesign,2,2,0,False
551,Vindyne8@Vindyne8,#RT Visit: chronobank.io #blockchain #ethereum #bitcoin #ETH #ETC #NEM #LTC $WAVES #EMC #crowdfunding #Chronobank,19,19,0,False
563,Info Wisata@beri451,free ethereum every 5 minute https://goo.gl/QVAov3 #bitcoin #Panama #altcoin #eth #price #trading,0,0,0,False
564,BO@b2o101,free ethereum every 5 minute  https://goo.gl/9vLnB8 #ethereum #bitcoin #blockchain #dogecoin #crypto #satoshi,1,0,0,False
565,LAPITH@bhumharit,RT BlockChainBiz: The Week in #Ethereum http://weekinethereum.com via BlockChainBiz #ETH #fintech #cryptocurrency https://pic.twitter.com/5IHRS6QMod,0,0,0,False
567,Info Wisata@beri451,free ethereum every 5 minute https://goo.gl/qTW6ri #bitcoin #Panama #altcoin #eth #price #trading,0,0,0,False
568,BO@b2o101,free ethereum every 20 minute https://goo.gl/Xtyn34 #ethereum #bitcoin #blockchain #dogecoin #crypto #satoshi,1,0,0,False
569,Lika Nicolic@Ethereumhub,Would you like early access to BlockGeeks #Blockchain Community? Sign up here http://blockgeeks.com #ethereum,0,0,0,False
570,Christian Seberino@c_seberino,Kraken Adds Anonymous Cryptocurrency Monero http://buff.ly/2if5QeU #etc #eth #ethereumclassic #ethereum,0,0,0,False
571,blockchainmedia@Ethereumlab,Can This 22-year-old Coder Out-Bitcoin #Bitcoin? http://dld.bz/eWMa7 #ethereum,0,0,0,False
572,Coinstats@coinstats,"Ethereum Classic - ETC
Price: $1.34197
Change in 1h: +1.15%
Market cap: $117576021.0
Ranking: 6
#Ethereum Classic #ETC",0,0,0,False
575,Coinstats@coinstats,"Ethereum - ETH
Price: $9.71167
Change in 1h: +-0.51%
Market cap: $851323583.0
Ranking: 2
#Ethereum #ETH",0,0,0,False
576,Ethereum Price@EthereumPrice_,"#Ethereum: Ether Price Index
1 ETH =0.011327Ƀ XBT = $9.638750 USD
Today: +0.70%⬆︎ Last 24h: +10.34%⬆︎
https://ethereum-price.com",1,0,0,False
577,Olivier Chapiteau@o_chapiteau,"07Jan2017 06:00 UTC #Ether #Blockchain status - Block height @ 2,950,426 - 175,627 unconfirmed tr. - Last fork height @ 2,950,424",1,0,0,False
579,Info Wisata@beri451,free ethereum every 4 minute https://goo.gl/SnbXdF #bitcoin #Panama #altcoin #eth #price #trading,0,0,0,False
580,BO@b2o101,free ethereum every 60 minute https://goo.gl/QwsPz9 #ethereum #bitcoin #blockchain #dogecoin #crypto #satoshi,1,1,0,False
581,seven nieberg@seven_nieberg,"GET 10MHs mining speed for F.R.E.E , and use it for Ethereum, litecoin or bitcoin mining http://bit.ly/10MHsFree #ethereum #bitcoin
4GIF",0,0,0,False
582,Ξ Fly Guy Ξ (flyguy.eth)@FlyGuyInTheSky,#bitcoin has now dropped back to where it was on 22nd Dec 2016 and #ethereum to where it was on 3rd Jan 2017... both are years apart?  ,1,0,0,False
584,blockchainmedia@Ethereumlab,Check it out! Beginners guide to #Blockchain http://buff.ly/2dvhaDX #bitcoin #ethereum #startup,1,0,0,False
585,Lika Nicolic@Ethereumhub,"Join today! Blockgeeks is a #Blockchain innovation hub 
& marketplace http://blockgeeks.com #Bitcoin #Ethereum",0,0,0,False
586,SAD PP CRAB@kimmythehun,There is no deeper feeling than experiencing this live #holy #ether #NowPlaying I Hear Satan by Dax Riggs ♫ http://spoti.fi/Nj5LTV,0,0,0,False
587,Info Wisata@beri451,free bitcoin every 10 minute https://goo.gl/AovdjD #bitcoin #Panama #altcoin #eth #price #trading,0,0,0,False
590,Blockgeeks@Blockgks,What does #Zcash mean for #Ethereum? http://dld.bz/fhyWt #blockchain,1,2,0,False
592,Jack@jackfru1t,Replying to @jackfru1tpretty strong breakout the last few days on #ethereum $ETHBTC. Watching to see how this week's candle closes.,3,1,0,False
593,Ameer Rosic@AmeerRosic,5 Blockchain Applications That will Revolutionize The world http://bit.ly/1U4aha8 #Blockchain #Bitcoin #ethereum,2,2,0,False
594,Lika Nicolic@Ethereumhub,What is #Blockchain Technology? Guide For Beginners http://dld.bz/eW5DU #ethereum,0,0,0,False
595,seven nieberg@seven_nieberg,"GET 10MHs mining speed for F.R.E.E , and use it for Ethereum, litecoin or bitcoin mining http://bit.ly/10MHsFree #ethereum #bitcoin
16GIF",0,0,0,False
596,Info Wisata@beri451,free ethereum every 60 minute https://goo.gl/QwsPz9 #bitcoin #Panama #altcoin #eth #price #trading,0,0,0,False
598,seven nieberg@seven_nieberg,"GET 10MHs mining speed for F.R.E.E , and use it for Ethereum, litecoin or bitcoin mining http://bit.ly/10MHsFree #ethereum #bitcoin
74",0,0,0,False
599,Ξ Fly Guy Ξ (flyguy.eth)@FlyGuyInTheSky,Replying to @FlyGuyInTheSky.......year of #ethereum & death of #bitcoin in China?,2,2,4,False
600,seven nieberg@seven_nieberg,"GET 10MHs mining speed for F.R.E.E , and use it for Ethereum, litecoin or bitcoin mining http://bit.ly/10MHsFree #ethereum #bitcoin
18GIF",0,0,0,False
601,Ξ Fly Guy Ξ (flyguy.eth)@FlyGuyInTheSky,#ethereum orientated tokens #augur and #iconomi are faring better than #bitcoin too. Latter being a basket of Altcoins spreading risk.,1,0,0,False
602,Romano@RNR_0,"Replying to @Crypto_BitlordI don't own/hold $ETH
So I'm not promoting my own position. 
@Tcorp_",1,0,0,False
603,Ξ Fly Guy Ξ (flyguy.eth)@FlyGuyInTheSky,"Replying to @FlyGuyInTheSky and @marketscharts show #ethereum is currently holding up better than #bitcoin Will Chinese move into ""Anonymous"" alt $Zcash $XMR ?",0,0,0,False
604,seven nieberg@seven_nieberg,"GET 10MHs mining speed for F.R.E.E , and use it for Ethereum, litecoin or bitcoin mining http://bit.ly/10MHsFree #ethereum #bitcoin
85GIF",0,0,0,False
605,Ameer Rosic@AmeerRosic,5 Blockchain Applications That Will Transform Society http://bit.ly/1U4aha8 #Blockchain #Bitcoin #ethereum,1,0,0,False
610,Ξ Fly Guy Ξ (flyguy.eth)@FlyGuyInTheSky,"#ethereum is at present more stable than #bitcoin after Chinese scare. https://bloomberg.com/news/articles/2017-01-06/bitcoin-buyers-eye-beijing-nervously-as-prices-slide-from-record… Are they moving out into other #AltcoinsThrough Rally or Crash, Here's Why Bitcoin Buyers Are Nervous About ChinaFor Felix Yang, nothing beat bitcoin.bloomberg.com",1,1,0,False
611,seven nieberg@seven_nieberg,"GET 10MHs mining speed for F.R.E.E , and use it for Ethereum, litecoin or bitcoin mining http://bit.ly/10MHsFree #ethereum #bitcoin
64GIF",0,0,0,False
612,Brave New Coin@bravenewcoin,#Ethereum Price: USD $9.65 $ETH http://ow.ly/6UKf3048WBe,1,0,0,False
613,blockchainmedia@Ethereumlab,How does #blockchain work? The ultimate guide  http://buff.ly/2dvhaDX #bitcoin #ethereum #startup,0,0,0,False
614,Blockgeeks@Blockgks,Could #Blockchain Technology Bankrupt Spotify? A Music Revolution http://buff.ly/2cWIfNM #ethereum #bitcoin,0,0,0,False
615,Coinstats@coinstats,"Ethereum Classic - ETC
Price: $1.34545
Change in 1h: +-4.68%
Market cap: $117877364.0
Ranking: 6
#Ethereum Classic #ETC",0,0,0,False
616,Coinstats@coinstats,"Ethereum - ETH
Price: $9.63933
Change in 1h: +-1.24%
Market cap: $844960830.0
Ranking: 2
#Ethereum #ETH",0,0,0,False
617,seven nieberg@seven_nieberg,"GET 10MHs mining speed for F.R.E.E , and use it for Ethereum, litecoin or bitcoin mining http://bit.ly/10MHsFree #ethereum #bitcoin
69GIF",0,0,0,False
