,user,text,likes,retweets,replies,is_thread
0,Matthias Tarasiewicz@parasew,Simon De La Rouviere @simondlr presenting @UjoMusic in the Crypto Lab at #riat in #vienna. Exciting #ethereum meetup!,1,1,0,False
1,Farhan Elias@farhan_elias,Bid to Connect #Ethereum and #Zcash #Blockchains Reaches New Milestone | @scoopit http://sco.lt/55doif,2,0,0,False
2,Ugo Setti @ugosetti,#technology : A Complete Guide To #Blockchain http://forbes.com/sites/bernardmarr/2017/01/24/a-complete-beginners-guide-to-blockchain/… #bitcoin #cryptocurrency #ethereum #R3 #digital #innovation,2,0,0,False
3,Ovu James@Kill_Bitcoin,"Can't waiting for crowdsale from @QtumOfficial or Quantum Project (#Qtum) on March 1, 2017. #BTC #ETH #Moreno #Blockchain",3,0,0,False
4,ether19@ether19again,"Follow, retweet and support #Qtum project. More updates coming your way. #BTC #ETHEREUM #Monero #fintech #Trending #investment #ICO",3,0,0,False
5,Crypto Bean@William42111948,"#Groestlcoin now implemented Segwit

$XMR #ethereum",5,4,0,False
6,Neha M@neha_m25,Great talk by Alice from @oraclizeit @techbees_london on smart contracts #ethereum,3,2,0,False
7,Sean@seandotau,How #Ethereum Smart Contracts Could Replace Mining Pool Managers http://buff.ly/2k108l5,3,0,0,False
8,Christian Seberino@c_seberino,The Future of Digital Banking http://buff.ly/2jhHsw8 #etc #eth #ethereumclassic #ethereum #blockchain #bitcoin,3,2,0,False
9,Los Silva@LosSilvaTV,New Article on @PurseIO and @ShapeShift_io http://goo.gl/DoSmoR #Amazon #ewallet #digitalwallet #blockchain #Ethereum #bitcoin #btc #eth,5,5,0,False
10,WhalePanda@WhalePanda,Replying to @Melt_DemPretty sure the correct tag for that one is #Ethereum $ETH though.,5,0,0,False
11,Komonec@Komonec,I tried to run mining on server board #Mining #Bitcoin #Ethereum #Zcash $btc $eth $zec,4,2,0,False
12,Murat Durmus (CEO @AISOMA_AG)@CEO_AISOMA,"What Experts Are Predicting for 2017 in #Bitcoin & #Blockchain Tech.

#Quantumcomputing #Qtum #ethereum #innovation
http://bit.ly/2kkAnsX",6,3,0,False
13,Al Sherriff@CBoxxLtd,Heard Nick Johnson of #Ethereum mention .ETH Naming Service at #blockchainweek yesterday. Info here @teamblockchainExplaining the Ethereum Namespace AuctionThis post is to meant to inform the Ethereum community and solicit feedback. Questions and comments are very much appreciated and will be…medium.com,2,2,0,False
14,Carsten Munk@stskeeps,"OK, Parity's Authority Round picking up the validators from a smart contract is pretty genius. #ethereum",1,0,0,False
15,Afolabi Owagbenga@jacaf01jacaf,"#Qtum project breathe new life into smart contract platform. https://bitcointalk.org/index.php?topic=1720632.0…;
 https://qtum.org #fintech #Eth #RSK #crypto",2,1,0,False
16,Дмитрий Марков@D_Markovv,"Qtum is a blockchain project that allows decentralized applications and smart contracts.
#Qtum #blockchain #BTC #ETH",2,0,0,False
17,TyrionTrader@TheXrn,"Bought #Litecoin - Segregated Witness Incoming, 2 days to first test - http://litecoinblockhalf.com/segwit.php
$BTC $Dash $XMR $ETH $ETC",6,3,0,False
18,Andy@cryptowanderer,"Reminder! 1st 2017 Joburg #ethereum meetup happening tomorrow @RMB_CIB from 5pm. Pull in!

https://meetup.com/Johannesburg-Ethereum-Meetup/events/236871978/…
@farzamehsani @paulkhlsInteresting Presentations, Fascinating People, Ethereum, and BeerThu, Jan 26, 2017, 5:00 PM: Hi everyone,I'm excited to announce our second Ethereum meetup in Johannesburg, and the first for 2017. We've been able to line up some of the developers working in the banmeetup.com",3,2,0,False
19,Cointelegraph@Cointelegraph,"#Ethereum price can go up and down: expert
https://goo.gl/TrvJfi @ethstatus #blockchain",6,6,0,False
20,The Financial Revolutionist@Fin_Revolution,We're rooting for @BanQuApp. See The FR #blockchain #ethereum http://buff.ly/2j4CPFJ,2,0,0,False
21,Game Of Bitcoins@GameofBitcoins,#Qtum integrates #Ethereum Virtual Machine and #Bitcoin’s Unspent Transaction Output-Smart contracts and Master contracts-Off-chain data!,2,0,0,False
22,AISOMA Research@AISOMA_LAB,"Quantum Foundation Combines Ethereum And #Bitcoin To Create #Qtum.

#Quantum #ethereum #blockchain #innovation
http://bit.ly/2k2fVzP",3,9,0,False
23,BGL@crypto_lawyers,"Interesting opinion:
What #GMO #Bitcoin Wallet means for Future of #Forex Trading
#cryptocurrency #fintech #ethereum
http://buff.ly/2jW0JEc",2,0,0,False
24,Beyond the void #blockchaingame@BeyondVoidGame,Rémi is getting ready for #BTV Live DEMO next Friday #indiegame #ethereum $NXC,15,9,0,False
25,Kenny Rowe@kennyrowe,Going to be a record volume day on http://mkr.market. 5521.26 ETH so far today. https://makerdao.github.io/markets/#MKRETH #ETHEREUM,5,0,0,False
26,Los Silva@LosSilvaTV,Moving Trust To The Blockchain - http://ETHNews.com #blockchain #ethereum #ConsenSys #trust #bitcoinnews #eth https://ethnews.com/moving-trust-to-the-blockchain…,1,1,0,False
27,ΞTHΞROll@etheroll,Such wow! Over 120 testnet ether bets placed in the first 24 hours of our public alpha. Keep rollin' #ethereum #bitcoin #monero #dice,1,0,0,False
28,Digix DGX@DigixDGX,"Spectrum Feature Overview
#digix #ethereum",6,0,0,False
29,UQUID@uquidcard,"#Digicel Grenada 3x #BONUS #mobile #recharge with #Ethereum , #litecoin , #Ripple , #etc , #monero , #dash , #Zcash https://goo.gl/3IzuzK",2,0,0,False
30,ConsenSys@Consensys,"Part 1 // @CReckhow sat down with @ethstatus to explain #Ethereum in a non-technical form

http://buff.ly/2jeUpTX",11,5,0,False
31,Bitcoin Magazine@BitcoinMagazine,Has This Ethereum Classic Developer Solved Proof of Stake? https://bitcoinmagazine.com/articles/has-ethereum-classic-developer-solved-proof-stake/… #ethereum @IOHK_Charles #blockchain,15,25,3,False
32,ETH CS Department@CSatETH,"Sir Tim Berners-Lee at #ETH: ""Think beyond the limitations of the computer"" #wwfnextgeneration",10,4,0,False
33,Digix DGX@DigixDGX,"#reddit DigixGlobal Live Stream - Vitalik Buterin Keynote on Metropolis Jan 26th 2017, 7pm SGT
https://reddit.com/r/digix/comments/5q1x9z/digixglobal_live_stream_vitalik_buterin_keynote/…
#digix #ethereumDigixGlobal Live Stream - Vitalik Buterin Keynote on Metropolis...Posted in r/digix by u/kcchng • 19 points and 3 commentsreddit.com",3,0,0,False
34,Stephan Tual@stephantual,"JAAK_io blew my mind at #blockchain expo. Fully fledged dapp - uses SWARM, ÐΞVp2p & the EVM- http://jaak.io #ethereum #blockchain ",30,31,0,False
35,/r/Ethereum@r_Ethereum,Is it still possible to withdraw DAO tokens to Polo in order to receive ETH and ETC? #EthereumIs it still possible to withdraw DAO tokens to Polo in order to...Late to the game updating my DAO situation. I've had a hell of a time getting my wallet up to date. I noticed that Polo has frozen DAO deposits....reddit.com,1,0,0,False
36,Vindyne8@Vindyne8,"#ChronoBank partners with Lykke
https://blog.chronobank.io/chronobank-partners-with-lykke-c849ffee3ad9#.68zzbvq52… #lykke #btc #eth #etc #nem $WAVES #ltc #emc",16,15,0,False
37,Prati Pratim@pratipratim,Ethtrade -  invest in #ethereum | Passive income investments | Cryptocurrency automatic trader http://bit.ly/2jtcwqP,1,0,0,False
38,Olivier Chapiteau@o_chapiteau,"25Jan2017 18:00 UTC #Ether #Blockchain status - Block height @ 3,062,438 - 53,751 unconfirmed tr. - Last fork height @ 3,062,420",3,0,0,False
39,11:FS@11FS,What is #Ethereum? A Beginners Guide #blockchain http://buff.ly/2krxDgK,5,6,0,False
40,Alby@twchannelx,#Qtum aims to be the bridge between the #Bitcoin and #Ethereum communities. #fintech #altcoin - http://qtum.org,2,1,0,False
41,Blockchain News@blockchainers,"From the Archives at #Blockchain News: CoinOffering Becomes First Company to Issue Shares http://bit.ly/2aWa6OQ #Coinfox #Ethereum #ICOCoinOffering Becomes First Company to Issue Shares in Ethereum BlockchainThe world’s first company offering shares issued as Ethereum tokens has been registered in the Marshall Islands. Unlike its predecessors, it functions both inthe-blockchain.com",4,5,0,False
42,.@theyblinked,We need legal safe-harbors for non-custodial uses of cryptocurrencies. https://coincenter.org/entry/bitcoin-innovators-need-legal-safe-harbors… by @valkenburgh #bitcoin #ethereum #zcash,4,2,0,False
43,daddybios@daddybios,"#Qtum The most anticipated project in 2017.
The combination of #eth and #btc https://qtum.org
You cannot miss this #fintech event.GIF",1,0,0,False
44,Christian Seberino@c_seberino,"Ethereum Classic Today http://buff.ly/2jdWRxo #etc #eth #ethereumclassic #ethereum #blockchain #bitcoin #iohkEthereum Classic TodayETC Today provides you with news and media surrounding Ethereum Classic, Ethereum, Bitcoin, and blockchain technology.etc.today",3,3,0,False
45,Vindyne8@Vindyne8,#ETH based Uber of Time #ChronoBank Can Boost Cryptocurrency Adoption http://dlvr.it/N9m0pz @Cointelegraph #btc #etc $WAVES #LTC #NEM #EMC,14,15,0,False
46,Lumenaut@StellarLumenaut,Over 150 million of worth in tokens on Ethereum blockchain!!!! And it is only the beginning!!!!!:) #ETH #ethereum #awesome,2,1,0,False
47,Muchamad Aldi Ananta@_dimox,Quantum Foundation newest cryto project #Qtum  - combining #bitcoin and #Ethereum technology to facilitate #Blockchain  adoption for corp,1,0,0,False
48,John Lilic ₿ Ξ ∞@JohnLilic,"adChain & @ConsenSysLLC Unlock Blockchain For Digital Advertising http://streetinsider.com/Press+Releases/adChain+and+ConsenSys+Unlock+Blockchain+For+Digital+Advertising/12452145.html… more examples of making #blockchain real #EthereumadChain and ConsenSys Unlock Blockchain For Digital AdvertisingLos Angeles, CA (PRWEB) January 24, 2017 adChain and ConsenSys Unlock Blockchain For Digital Advertising Developers Invited to Learn More about adChain Protocol adChain, an Ethereum-based blockchain...streetinsider.com",17,9,0,False
49,ETH CS Department@CSatETH,"""Build systems that allow society to debate on how to use them"", Ankit Singla #ETH #wwfnextgeneration",9,3,0,False
50,(┌ﾟдﾟ)┌ [HODL]@j32804,U no rant abt the financial side of gas cost to run contracts on #Ethereum. U pay server when u don't run anything. Contracts u pay as u go,2,0,0,False
51,ETH CS Department@CSatETH,"#wwfnextgeneration #ETH president Lino Guzzella: ""Become scientists, become researchers, become entrepreneurs""",3,0,0,False
52,Julia Edling@bitcointonic,"#Ethereum Smart Contracts Could Edge Out Mining Pool Managers: Today, nine mining pools make up roughly 75% of the… http://dlvr.it/NBvsWJ",1,0,0,False
53,Eawag@EawagResearch,Congratulations to Eawag #PhD Kirsten Oswald: #ETH medal for her dissertation on #methane oxidation @ETH_en http://bit.ly/2jdBXLr,9,0,0,False
54,Al Sherriff@CBoxxLtd,"That's roughly the idea with #Ethereum I think #worldcomputer @teamblockchainQuote TweetSteve Waldron @Stevewal63 · Jan 25, 2017Is #blockchain a ""new operating system for the planet""? @TeamBlockchain @Coinfirm_io @cloudnthings @thomaspower http://cityam.com/257805/blockchain-new-operating-system-planet-barclays-vice…",1,1,0,False
55,David M. Brear@davidbrear,What is #Ethereum? A Beginners Guide #blockchain http://bit.ly/2krDYsQ,3,3,0,False
56,Blockgeeks@Blockgks,How does #blockchain work? The ultimate guide  http://buff.ly/2dvhaDX #bitcoin #ethereum #startup,3,1,0,False
57,starttanky@starttanky,"#ethereum update #ethusd
small correction over?",1,0,0,False
58,CrypT0preneur@twit2millions,Quantum Foundation newest cryto project #Qtum  - combining #bitcoin and #Ethereum technology to facilitate #Blockchain  adoption for corp,2,1,0,False
59,Matthias Tarasiewicz@parasew,Paul Kohlhaas @paulkhls presenting in #riat Vienna:  #ethereum based digital identity system developed w 9needs & Unicef in South Africa,3,1,0,False
60,John Lilic ₿ Ξ ∞@JohnLilic,"More evidence that good things happen when we #ListenToThePhysicists @CarstenStoecker nice work as always @innogy #EthereumQuote TweetEUROFORUM  IT & TK@ITK_live · Jan 25, 2017""Maschinen werden zukünftig Kunden sein!"" @CarstenStoecker @innogy über Car eWallets. #stratit",8,3,0,False
61,Simon de la Rouviere @simondlr,.@paulkhls talking ECD provenance using Ethereum. @amplyscale @UNICEFinnovate. #ethereum #vienna,10,8,0,False
62,Ameer Rosic@AmeerRosic,Step-by-Step Guide: What the heck is a Smart Contract? #blockchain #bitcoin #ethereum http://dld.bz/eYNat,3,1,0,False
63,Anthony Schmitt Financial Services | Trader@BourseetTrading,What is #Ethereum :  A Beginners Guide #Blockchain http://bit.ly/2krDYsQ @davidbrear #Fintech,2,2,0,False
64,BlockChannel@BlockChannel,"BlockChannel: #ETH /USD Pressuring Support, Remains At Risk #Ether #PriceAnalysis
https://ethnews.com/analysis/01-25-2017-ethusd-pressuring-support-remains-at-risk…",1,0,0,False
65,Jameson Lopp@lopp,Replying to @lopp3) My wish is that we promote more constructive criticism and debate while ostracizing those who are toxic and repeat the same rhetoric.,41,8,5,False
66,tgerring.eth@TaylorGerring,"Without driving a further wedge, this is one of the reasons I like being part of the #Ethereum community. Focus on positive result",5,1,0,False
67,CryptoNewswire @CryptoNewswire,Has This Ethereum Classic Developer Solved Proof of Stake? - http://nasdaq.com/article/has-this-ethereum-classic-developer-solved-proof-of-stake-cm738269… $ETC $ETH #fintech #blockchain #marketsHas This Ethereum Classic Developer Solved Proof of Stake?nasdaq.com,2,2,0,False
68,TokenMarket@tokenmarket,ETHnews interviewed TokenMarket CEO @ransu about ICOs & power of tokenised crowdfunding http://ow.ly/7fb6308lxAB #ethereum #crowdfunding #ICO,1,0,0,False
69,Julia Edling@bitcointonic,"#Bitcoin #Prediction 13 #Ethereum: In this episode series I make predictions, rant, and speculate all things… http://dlvr.it/NCG4MV",1,1,0,False
70,Flip @TheAssetMan,my @golemproject $GNT is at 165% profit in under a month. Some people realised a higher number than that! $BTC @Liqui_Exchange $ETH #bitcoin,1,0,0,False
71,ant@ThisIsNuse,So we're all gonna ignore that week plus accumulation on $ETH eh?,7,0,0,False
72,BitcoinAgile@bitcoinagile,Has This #ethereum Classic Developer Solved Proof of Stake? http://bitcoinsahoy.com/has-this-ethereum-classic-developer-solved-proof-of-stake…,1,0,0,False
82,Francesco Villa@cekospiu,Donate to our project! Add funds and receive $$$ in exchange from profits lifetime! @gagpubblicita #ethereum #miner https://indiegogo.com/projects/build-ethereum-mining-farm/x/14702367#/…,0,0,0,False
83,FRIDAY RICKY DRED@Fridayrickydred,#Ether #HipHopNews  ‘Wait A Minute (Remix/Gmix/6iXMiX)’ by Friday Ricky Dred on #SoundCloud? #np https://soundcloud.com/fridayakarickydred/wait-a-min-remixgmix6ixmix?utm_source=soundcloud&utm_campaign=share&utm_medium=twitter…,0,0,0,False
84,Illi Mai@illimattic408,"WHAT IS #ETHEREUM?
Ether is a digital currency used for operating smart contracts on the Ethereum network. Like Bitc http://empowr.com/illimattic?p=BL5XH…",0,0,0,False
87,lega!!!@legaping,@Districts_io is promoting crypto-currency’s to people.#BTC #ETH #blockchain,3,6,0,False
88,Bitcoin Updater@BitcoinUpdater,Ethereum's Woes Continue as Price Sinks to 9-Month Low #ethereum http://soco.space/wq.a8_,0,0,0,False
89,MarketBeat@MarketBeatCom,"Ethan Allen Interiors Inc. $ETH Releases Quarterly Earnings Results, Beats Expectations By $0.01 EPS http://zpr.io/PYBCK",0,0,0,False
90,Daily Political@dailypoliticaln,"Ethan Allen Interiors Inc. $ETH Releases Quarterly Earnings Results, Beats Expectations By $0.01 EPS http://dailypolitical.com/?p=903817",0,0,0,False
91,StockEarnings.com@StocksEarning,"$ETH Since last ER, stock gained 9%. Reporting Earnings on 1/25 After Close (Confirmed). http://ow.ly/Zdzu308lcTx",0,0,0,False
93,Daily Political@dailypoliticaln,"Ethan Allen Interiors Inc. $ETH Releases Quarterly  Earnings Results, Beats Expectations By $0.01 EPS http://ift.tt/2kkMAhk",0,0,0,False
94,Briefing.com@Briefingcom,"$ETH: Ethan Allen beats by $0.01, reports revs in-line (Results in-line with 1/11 pre-announcement) http://bit.ly/2jqDYaC",0,0,0,False
95,Coinstats@coinstats,"Ethereum Classic - ETC
Price: $1.28923
Change in 1h: +-0.22%
Market cap: $113727008.0
Ranking: 6
#Ethereum Classic #ETC",0,0,0,False
98,Bobe'bot@Bobe_bot,"1 #BTC = 919.545 #CHF
1 #ETH = 11.0221 #CHF
1 #DOGE = 0.000206311968 #CHF
sources: @cryptonatorcom @hellobity",0,0,0,False
99,Coinstats@coinstats,"Ethereum - ETH
Price: $10.5679
Change in 1h: +0.02%
Market cap: $932623564.0
Ranking: 2
#Ethereum #ETH",0,0,0,False
101,Антон Орлов@aqrisaqris,#Qtum: Connecting #Blockchain Technology With the Commercial World http://nasdaq.com/article/qtum-connecting-blockchain-technology-with-the-commercial-world-cm732079… @QtumOfficial #ICO #BTC #ETH #fintech #UTXOQtum: Connecting Blockchain Technology With the Commercial Worldnasdaq.com,0,0,0,False
102,Crypto Live@crypto_c_radio,#NowPlaying World Crypto Network - Plantoids: Living #Blockchain Art - YMB Podcast E158 at http://cryptocurrencyradio.com #bitcoin #ethereum,0,0,0,False
103,Ethereum SE@StackEthereum,Can the Ethereum ecosystem exist without the DNS and HTTP protocols? http://ethereum.stackexchange.com/questions/11661/can-the-ethereum-ecosystem-exist-without-the-dns-and-http-protocols… #ethereum #protocol,1,0,0,False
104,Arthur@arturagasyan,"Check #qtum - most sensational project of 2017 on their site and find out more http://qtum.org
#ico #qtum #eth #btc
@QtumOfficial",0,0,0,False
106,MeeseeksBTC@Meeseeks100BTC,"RT Start mining $ETH or $BTC together with people from all over the world.

https://goo.gl/tYClLG",0,0,0,False
107,Christian Seberino@c_seberino,Ethereum (ETC) Investment Trust http://buff.ly/2jTJZxI #etc #eth #ethereumclassic #ethereum #blockchain #bitcoin #iohk,1,0,0,False
109,Coinstats@coinstats,"Ethereum Classic - ETC
Price: $1.2928
Change in 1h: +-0.59%
Market cap: $114040711.0
Ranking: 6
#Ethereum Classic #ETC",0,0,0,False
110,Estimize@Estimize,This afternoon's winner for $ETH is Genji who beats 9 other analysts and the Wall Street Consensus - http://estimize.com/eth/fq2-2017?utm_content=release_winner&utm_medium=tweet&utm_source=twitter…,0,0,0,False
111,Estimize@Estimize,$ETH misses the Estimize EPS Consensus by 2c and the Estimize Revenue Consensus by $7.07M - http://estimize.com/eth/fq2-2017?utm_content=beat_or_miss&utm_medium=tweet&utm_source=twitter…,0,0,0,False
112,Estimize@Estimize,$ETH reports FQ2 earnings of 39c EPS and $194.67M Revs - http://estimize.com/eth/fq2-2017?utm_content=release_actuals&utm_medium=tweet&utm_source=twitter…,0,0,0,False
113,Coinstats@coinstats,"Ethereum - ETH
Price: $10.5692
Change in 1h: +0.16%
Market cap: $932725115.0
Ranking: 2
#Ethereum #ETH",0,0,0,False
117,EarningsCast@earningscast,"$ETH Listen to Q2 2017 Ethan Allen Inter Earnings Call (EPS 0.39 vs EST 0.385) live at 05:00 PM,ondemand after http://earningscast.com/q2-2017-ethan-allen-interiors-inc-earnings-call…",0,0,0,False
118,Ethereum SE@StackEthereum,Why does a Solidity throw consume all gas? http://ethereum.stackexchange.com/questions/2307/why-does-a-solidity-throw-consume-all-gas… #ethereum #evm #outofgas #exceptions,0,0,0,False
119,Corner Coin@Corner_Coin,Qtum plans to meld the #Bitcoin protocol with #Ethereum technology https://goo.gl/CgjzZv #fintech,0,0,0,False
121,Ethereum SE@StackEthereum,Smart contract reading from / writing to IPFS http://ethereum.stackexchange.com/questions/11660/smart-contract-reading-from-writing-to-ipfs… #ethereum #solidity #ipfs,1,0,0,False
122,/r/Ethereum@r_Ethereum,Building Dapps on Ethereum with APIs and Microservices: what's actually needed - off-chain #EthereumBuilding Dapps on Ethereum with APIs and Microservices: what's...Posted in r/ethereum by u/altsang0614 • 12 points and 1 commentreddit.com,0,0,0,False
123,Ameer Rosic@AmeerRosic,It's coming! The #Blockchain Technology That Will Replace Lawyers http://dld.bz/eYNat #ethereum,0,0,0,False
124,Vindyne8@Vindyne8,#Qtum Signature & Avatar Campaign on #bitcointalk https://bitcointalk.org/index.php?topic=1747399.0… #LEGENDARY SLOTS OPEN! Up to 0.065BTC per week. #bounty #eth #btc,14,16,0,False
125,Sean@seandotau,"Has This #Ethereum Classic Developer Solved Proof of Stake? http://buff.ly/2jyty6o @thomaspower @Stevewal63 @NickAyton #TeamblockchainHas This Ethereum Classic Developer Solved Proof of Stake?In the quest for a reliable proof of stake algorithm, IOHK CEO and Ethereum Classic developer Charles Hoskinson believes his company has made a breakthrough.bitcoinmagazine.com",5,3,2,False
127,Aslam Motala@aslammotala,"Grayscale to Launch Ethereum Classic Trust, Modeled After Bitcoin Investment Trust - Bitcoin News http://buff.ly/2jv6R2W #Ethereum",0,0,0,False
128,David Albrecht@davalb,"I wrote a blog post about monday's #ethereum meetup http://propellah.net/2017/01/25/low-hanging-fruit-for-the-crypto-community-ethereum-meetup-berlin-january-2017/… @espassitLow-hanging fruit for the crypto community – Ethereum Meetup Berlin January 2017Even though the scheduled talk about ""Decentralised, Direct Democracy & Multidimensional Monetary System"" didn't take place, the January meetup at the Ethereum HQ in Berlin didn't lack interesting...propellah.net",0,0,0,False
129,/r/Ethereum@r_Ethereum,Coinomi for Android now supports dApps and Smart Contracts! #EthereumCoinomi for Android now supports dApps and Smart Contracts!reddit.com,0,0,0,False
130,/r/Ethereum@r_Ethereum,Help with TheDao Research--Original Warnings/Conditions/Terms of Agreement #EthereumHelp with TheDao Research--Original Warnings/Conditions/Terms of...Could someone point me to the information a person would see if he tried to purchase TheDao tokens from the official site? I'm trying to determine...reddit.com,0,0,0,False
131,StockNews.com@stocknewsdotcom,$ETH Beats EPS estimates by $0.01. Revenues in-line. https://stocknews.com/news/eth-beats-eps-estimates-by-0-01-revenues-in-line/…,0,0,0,False
132,Crypto Live@crypto_c_radio,#NowPlaying The Crypto Show - The Crypto Show with Scrooge Mc Dances with Altcoins at http://cryptocurrencyradio.com #bitcoin #ethereum,0,0,0,False
133,L_Ron_Fuddard@L_Ron_Fuddard,"I'm liking $ETH right now, time to put them $PASC profits to work.",0,0,0,False
139,Earnings News@EPSGUID,"$ETH reported earnings of $0.39, consensus was $0.38, Earnings Whisper was $0.39 via @eWhispers #metwhisper http://eps.sh/d/eth",0,0,0,False
140,Cees Grootes@Analyticus,Weekly Cryptocurrency Market Outlook January 25 https://btcmanager.com/price-pages/weekly-cryptocurrency-market-outlook-january-25/… #blockchain #teamblockchain #cryptocurrency #bitcoin #ethereum,1,2,0,False
141,Julia Edling@bitcointonic,"According to expert, #ether price can go up and down, as it is more fuel than money: I don’t care day to day what… http://dlvr.it/NCCfBj",0,0,0,False
142,Briefing.com@Briefingcom,Co’s that have issued #guidance in the last 30 days http://bit.ly/28Lp6Al $BA $LMT $PF $HLF $CHKP $TGT $BGFV $TNAV $ETH $ASNA $CUDA $TEVA,0,0,0,False
143,Coinstats@coinstats,"Ethereum Classic - ETC
Price: $1.29863
Change in 1h: +-1.02%
Market cap: $114553255.0
Ranking: 6
#Ethereum Classic #ETC",0,0,0,False
144,Ethereum Price@EthereumPrice_,"#Ethereum: Ether Price Index
1 ETH =0.011639Ƀ XBT = $10.468280 USD
Today: -2.08%⬇︎ Last 24h: -0.53%⬇︎
https://ethereum-price.com",0,0,0,False
145,Coinstats@coinstats,"Ethereum - ETH
Price: $10.5474
Change in 1h: +-0.08%
Market cap: $930788144.0
Ranking: 2
#Ethereum #ETH",0,0,0,False
146,Crypto Live@crypto_c_radio,"#NowPlaying Dash Detailed - Why Yes, This Water-Dispensing Machine Accepts #Dash 'InstantSend' at http://cryptocurrencyradio.com #bitcoin #ethereum",0,0,0,False
147,Ethereum SE@StackEthereum,Changing current address to another address http://ethereum.stackexchange.com/questions/11658/changing-current-address-to-another-address… #ethereum #solidity #web3js #addresses #testrpc,1,0,0,False
148,Max Garza III@maxgarza,Power On Xpress 2017 Review.  Work From Home and Make Money Online.  #Xecoin #EthereumThe following media includes potentially sensitive content. Change settingsView,0,0,0,False
149,M A T T H U N T Ξ R@matthunter,"@ConsenSysLLC and adChain
Unlock #Blockchain For Digital Advertising #ETHEREUM https://consensys.net/static/adChain.pdf…",2,0,0,False
150,Crypto Live@crypto_c_radio,#NowPlaying TheKoziTwo - The proudhon song (bitcoin is a bubble) at http://cryptocurrencyradio.com #bitcoin #ethereum,0,0,0,False
152,JΞFF@jeffehh,Joshua attending his first #ethereum core dev meeting ,77,15,1,False
153,Ameer Rosic@AmeerRosic,Smart Contracts: The #Blockchain Technology That Will Replace Lawyers http://dld.bz/eYNat #ethereum,0,0,0,False
155,Margin Hunt@MarginHunt,Ethan Allen Interiors Inc $ETH #Trading at a slight discount to Fair Value before earnings Wednesday https://finbox.io/ETH?r=ysbgqmf,0,0,0,False
156,Раб Божий@Diener_Gottes,Has This #Ethereum Classic Developer Solved Proof of Stake? https://goo.gl/fb/Ckhglk #bitcoin,0,0,0,False
157,Traders Community@TradersCom,US #Earnings To Watch After Close Today Jan 25 2017 $T $EBAY $ETH $FFIV $LRCX $LVS $QCOM $XLNX $SPX $SPX $QQQ http://traderscommunity.com/forum/index.php?topic=1091.msg6346#msg6346…,0,0,0,False
158,#Bitcoin #News #BTC@1BitcoinNews,Has This #Ethereum Classic Developer Solved Proof of Stake?: The post Has… https://goo.gl/fb/5bZSQe #Bitcoin #BTC,0,0,0,False
159,Nishant Shastry@nishant_shastry,Has This Ethereum Classic Developer Solved Proof of Stake? https://bitcoinmagazine.com/articles/has-ethereum-classic-developer-solved-proof-stake/… #ethereum IOHK_Charles… https://twitter.com/i/web/status/824329491438829572…,0,0,0,False
161,Cliff K Jordan@CKJordan15,"Earn up to $65,610 daily! join & get the benefits http://bit.ly/coinviv2 #coinomia #ethereum #cryptoguide #Bitcoins",0,0,0,False
162,/r/Ethereum@r_Ethereum,"Many questions about Ethereum and legal jurisdiction. #EthereumMany questions about Ethereum and legal jurisdiction.1. If there is a bug in the code that causes someone to lose money, is someone likely to win a lawsuit against the programmers responsible?* 2....reddit.com",0,0,0,False
163,Christine Soekasih@Christine_S02,Has This #Ethereum Classic Developer Solved Proof of Stake? https://goo.gl/fb/fd1mnZ #vk #bitcoin,0,0,0,False
164,Crypto Live@crypto_c_radio,#NowPlaying The LTB Network - Let's Talk #Bitcoin! #321 Around the Loop Again at http://cryptocurrencyradio.com #bitcoin #ethereum,1,0,0,False
165,need-bitcoin.com@need_bitcoin,Has This #Ethereum Classic Developer Solved Proof of Stake?: In the quest for a reliable… https://goo.gl/fb/Bvs6kh,0,0,0,False
166,Brave New Coin@bravenewcoin,#Ethereum Price: USD $10.59 $ETH http://ow.ly/6UKf3048WBe,1,0,0,False
167,/r/Ethereum@r_Ethereum,"Fact checker based on Ethereum? #EthereumFact checker based on Ethereum?I am trying to devise a sort of ""prediction"" market, but instead of being a ""prediction"", it works in the present. A ""description"" market, if you...reddit.com",0,0,0,False
168,Coinstats@coinstats,"Ethereum Classic - ETC
Price: $1.31211
Change in 1h: +-0.52%
Market cap: $115740723.0
Ranking: 6
#Ethereum Classic #ETC",0,0,0,False
169,Coinstats@coinstats,"Ethereum - ETH
Price: $10.5572
Change in 1h: +-0.03%
Market cap: $931637913.0
Ranking: 2
#Ethereum #ETH",0,0,0,False
170,Faith Emmanuel@residualbitcoin,Has This #ethereum Classic Developer Solved Proof of Stake? http://bitcoinsahoy.com/has-this-ethereum-classic-developer-solved-proof-of-stake… #ResidualBitcoin,0,0,0,False
174,george samuels@fultonavegeorge,"#bitcoin #Blockchain #ETHEREUM #litecoin follow me i will alwyas followback you, #followme #followback",0,0,0,False
184,Ethereum UAE@Ethereum_UAE,Has This Ethereum Classic Developer Solved Proof of Stake? http://ift.tt/2jSqCCE #Ethereum,0,0,0,False
185,/r/Ethereum@r_Ethereum,"looking for a programmer for partnership - ethereum app #Ethereumlooking for a programmer for partnership - ethereum appHi All I am thinking of relaunching my endeavour in blockchain, with an application to the european commission next month. The system allows any...reddit.com",0,0,0,False
186,/r/Ethereum@r_Ethereum,"Rolling back tokens if large amount were ever stolen? #EthereumRolling back tokens if large amount were ever stolen?I had a quick question about tokens. If a large amount of tokens were stolen from an exchange, would it be possible to roll them back? It would...reddit.com",0,0,0,False
189,endonpdc@endonpdc,"Smart investment, you enjoy the result and happy. Real company, real project, 20% per month, https://ethtrade.org/@825746 #bitcoin #ethereum",0,0,0,False
190,Faith Emmanuel@residualbitcoin,Bid to Connect #ethereum and Zcash Blockchains Reaches New Milestone - CoinDesk - Talking http://talkingdrum.com.ng/2017/01/25/bid-to-connect-ethereum-and-zcash-blockchains-reaches-new-milestone-coindesk… …,0,0,0,False
191,BitcoinAgile@bitcoinagile,Bid to Connect #ethereum and Zcash Blockchains Reaches New Milestone - CoinDesk - Talking http://talkingdrum.com.ng/2017/01/25/bid-to-connect-ethereum-and-zcash-blockchains-reaches-new-milestone-coindesk…,1,0,0,False
192,/r/Ethereum@r_Ethereum,Has this ETC developer solved POS? #EthereumHas this ETC developer solved POS?Posted in r/ethereum by u/twigwam • 0 points and 5 commentsreddit.com,0,0,0,False
194,Briefing.com@Briefingcom,Upcoming #earnings reports http://bit.ly/2iJnDzh $AF $T $EBAY $ETH $LVS $QCOM $RJF $VRTX $CAT $F $LUV $GOOG $INTC $MSFT $PYPL $SBUX $SWFT,0,0,0,False
195,Blockgeeks@Blockgks,Great people deserve a great audience. http://blockgeeks.com #Blockchain #Ethereum #Bitcoin,3,0,0,False
196,Coinstats@coinstats,"Ethereum Classic - ETC
Price: $1.31913
Change in 1h: +0.23%
Market cap: $116358269.0
Ranking: 6
#Ethereum Classic #ETC",0,0,0,False
197,Coinstats@coinstats,"Ethereum - ETH
Price: $10.5603
Change in 1h: +0.1%
Market cap: $931896497.0
Ranking: 2
#Ethereum #ETH",0,0,0,False
198,ETHNews@ETHNews_,"#ETH /USD Pressuring Support, Remains At Risk #Ether #PriceAnalysis
https://ethnews.com/analysis/01-25-2017-ethusd-pressuring-support-remains-at-risk…",1,0,0,False
200,BlockChannel@BlockChannel,BlockChannel:Has This Ethereum Classic Developer Solved Proof of Stake? https://bitcoinmagazine.com/articles/has-ethereum-classic-developer-solved-proof-stake/… #ethereum IOHK_Ch… https://twitter.com/i/web/status/824329491438829572…,0,0,0,False
201,Crypto Trader Pro @CryptoTraderPro,Has This Ethereum Classic Developer Solved Proof of Stake? #ethereum @IOHK_Charles…… http://dlvr.it/NC9Q0m via→ http://betbitcoin.mobi,0,0,0,False
202,Bitcoin Sportsbook @SportsbookBTC,#ethereum Has This Ethereum Classic Developer Solved Proof of Stake? #ethereum… http://dlvr.it/NC9Q09 via→ http://betbitcoin.mobi,0,0,0,False
203,Ethereum Monkey@EthMonkey,Has This Ethereum Classic Developer Solved Proof of Stake? #ethereum https://bitcoinmagazine.com/articles/has-ethereum-classic-developer-solved-proof-stake/…,0,0,0,False
206,Dmitry ButΞrin@BlockGeekDima,"OMG, #Ethereum Is So Hard Forked: Baby Is Growing Up http://buff.ly/2ksRFHT",1,0,0,False
208,Crypto Live@crypto_c_radio,#NowPlaying The Crypto Show - The Crypto Show #Seinfeld Edition at http://cryptocurrencyradio.com #bitcoin #ethereum,0,0,0,False
209,len@xtreme_prot,nice article about #Qtum project https://news.bitcoin.com/qtum-project-mixture-bitcoin-ethereum/… #ICO #ethereum #bitcoin #blockchain more information here https://bitcointalk.org/index.php?topic=1720632.0…,1,0,0,False
210,Crypto Live@crypto_c_radio,#NowPlaying Kryp Tina - Love You Like A Bitcoin at http://cryptocurrencyradio.com #bitcoin #ethereum,0,0,0,False
213,Blockgeeks@Blockgks,"OMG, #Ethereum Is So Hard Forked: Baby Is Growing Up http://buff.ly/2ksO10z",0,0,0,False
214,Daniel Spiller@spiller_crypto,vSlice $VSL = good buy / info @vSliceCoin / @vDice_io $BTC $ETH #investing,3,1,0,False
215,Mystic Coders@mysticcoders,What is #Ethereum? A Beginners Guide #blockchain http://buff.ly/2jQgCts,1,0,0,False
216,Faith Emmanuel@residualbitcoin,How #ethereum-based Uber of Time ChronoBank Could Boost Cryptocurrency Adoption - Altcoin http://bitcoinagile.com/ABE707/how-ethereum-based-uber-of-time-chronobank-could-boost-cryptocurrency-adoption-altcoin-today_stream… …,0,0,0,False
217,/r/Ethereum@r_Ethereum,The Ðapp Daily 1/25/17 - Updates from the Ethereum ecosystem #Ethereum http://ift.tt/2k47KmG,1,0,0,False
218,BitcoinAgile@bitcoinagile,How #ethereum-based Uber of Time ChronoBank Could Boost Cryptocurrency Adoption - Altcoin http://bitcoinagile.com/ABE707/how-ethereum-based-uber-of-time-chronobank-could-boost-cryptocurrency-adoption-altcoin-today_stream…,0,0,0,False
219,Blockgeeks@Blockgks,Q&A: STEPHAN TUAL: Founder & COO Slock.it & The DAO http://dld.bz/faeQR #THEDAO #ethereum #blockchain,0,0,0,False
220,Coinstats@coinstats,"Ethereum Classic - ETC
Price: $1.31488
Change in 1h: +0.19%
Market cap: $115981430.0
Ranking: 6
#Ethereum Classic #ETC",0,0,0,False
221,Ethereum Price@EthereumPrice_,"#Ethereum: Ether Price Index
1 ETH =0.011654Ƀ XBT = $10.444140 USD
Today: -1.95%⬇︎ Last 24h: +16.49%⬆︎
https://ethereum-price.com",0,0,0,False
222,Coinstats@coinstats,"Ethereum - ETH
Price: $10.544
Change in 1h: +0.03%
Market cap: $930444572.0
Ranking: 2
#Ethereum #ETH",0,0,0,False
225,CryptoNewswire @CryptoNewswire,"Ether Price Can Go Up and Down, It Is More Fuel Than Money: Expert - https://cointelegraph.com/news/ether-price-can-go-up-and-down-it-is-more-fuel-than-money-expert… $BTC $ETH #finance #blockchain #investing",0,0,0,False
226,Crypto Live@crypto_c_radio,#NowPlaying Zhou Tonged - When the Drops Come at http://cryptocurrencyradio.com #bitcoin #ethereum,0,0,0,False
227,/r/Ethereum@r_Ethereum,Ethereum To The Moon Shirt | Ethereum Clothing #EthereumEthereum To The Moon Shirt | Ethereum ClothingPosted in r/ethereum by u/EtherKid • 9 points and 3 commentsreddit.com,0,0,0,False
229,Ethereum UAE@Ethereum_UAE,"IoT, Smart Contracts Focus of Blockchain Expo London 2017 http://ift.tt/2jSey4s #EthereumIoT, Smart Contracts Focus of Blockchain Expo London 2017London Correspondent Nick Ayton gives us a summary of Blockchain Expo London 2017, the two-day event at London’s Olympia conference center.cointelegraph.com",0,0,0,False
230,tgerring.eth@TaylorGerring,"Replying to @loppWithout driving a further wedge, this is one of the reasons I like being part of the #Ethereum community. Focus on positive result",5,1,0,False
232,Aram Koukia@aramkoukia,“Deploy #Ethereum smart contracts using C# and VisualStudio” https://koukia.ca/deploy-ethereum-smart-contracts-using-c-and-visualstudio-5be188ae928c#.sdw9v8r1n…,2,0,0,False
233,Carlos Macías@CarlosMacias_,".
#Microsoft Unveils #ProjectManifest, 
A Plan For #Blockchain Product Tracking

@coindesk
#Ethereum
@DelRayMan
http://coindesk.com/microsoft-unveils-project-manifest-a-plan-for-product-tracking-via-blockchain/…",0,0,0,False
234,Subverter@_subverter,"The Best Performing Cryptocurrency of 2016? Monero – https://subverter.co/2017/01/25/the-best-performing-cryptocurrency-of-2016-monero/… #cryptocurrency #bitcoin #ethereum #darknetThe Best Performing Cryptocurrency of 2016? MoneroWhile 2016 saw Bitcoin increase over 119% year-over-year and Ethereum over 760%, neither were even close to the winner at 2,760%: Monero. The increase was largely fueled by darknet site...subverter.co",0,0,0,False
235,♡Call Me Mary Jane♡@maedskiny,"#Eth says hello!
#knit #tricô #trico #knited #knittersofinstagram #knitting #knittingnerd #yarn… https://instagram.com/p/BPshCGTD6yr/",0,0,0,False
237,Blocktribe.com@BlockchainTribe,Enterprise #Ethereum: Creating A Standard For Private #Blockchains http://bit.ly/2j7sys9,0,0,0,False
238,Ameer Rosic@AmeerRosic,"OMG, #Ethereum Is So Hard Forked: Baby Is Growing Up http://buff.ly/2ksInM2",0,0,0,False
239,Faith Emmanuel@residualbitcoin,Proposed #ethereum Investment Vehicle Sparks Controversy - #bitcoin XYZ http://bitcoinagile.com/ABDFEB/proposed-ethereum-investment-vehicle-sparks-controversy-bitcoin-xyz_stream…  #ResidualBitcoin,0,0,0,False
240,/r/Ethereum@r_Ethereum,PSA - Add this git webhook to your solidity codebases for the Ethereum Function Signature Registry #EthereumPSA - Add this git webhook to your solidity codebases for the...The Ethereum Function Signature Registry is an open database that maps function signatures to their 4-byte function selector. Wallet applications...reddit.com,0,0,0,False
241,/r/Ethereum@r_Ethereum,Selling brand never used thegrid.io membership #EthereumSelling brand never used thegrid.io membershipAny bids? You can build Ethereum related sites on that platform. I currently have the rights to 5 sites and will be given to you upon payment...reddit.com,0,0,0,False
242,"Lisa | Art, Web, Saber, Burlesque, Mom@lisabronwyn","OMG, #Ethereum Is So Hard Forked via @Blockgks https://app.quuu.co/r/gbb-lo #blockchain",0,0,0,False
244,Coinstats@coinstats,"Ethereum Classic - ETC
Price: $1.31051
Change in 1h: +0.02%
Market cap: $115593565.0
Ranking: 6
#Ethereum Classic #ETC",0,0,0,False
245,Bobe'bot@Bobe_bot,"1 #BTC = 920.0476 #CHF
1 #ETH = 11.0135 #CHF
1 #DOGE = 0.000206709052 #CHF
sources: @cryptonatorcom @hellobity",0,0,0,False
246,Coinstats@coinstats,"Ethereum - ETH
Price: $10.5328
Change in 1h: +0.11%
Market cap: $929437463.0
Ranking: 2
#Ethereum #ETH",0,0,0,False
247,BitcoinAgile@bitcoinagile,Proposed #ethereum Investment Vehicle Sparks Controversy - #bitcoin XYZ http://bitcoinagile.com/ABDFEB/proposed-ethereum-investment-vehicle-sparks-controversy-bitcoin-xyz_stream…,0,0,0,False
248,/r/Ethereum@r_Ethereum,"Looking for an Ethereum core developer #EthereumLooking for an Ethereum core developerHi everyone. Our team is currently working on a large-scale project called the Decentralized News Network, or DNN, for short. DNN is a global and...reddit.com",0,0,0,False
249,BlackBullTradingPost ₿   @BlackBullTradn,"Cointelegraph: #Ethereum price can go up and down: expert
https://goo.gl/TrvJfi ethstatus #blockchain",1,0,0,False
250,Crypto Live@crypto_c_radio,#NowPlaying Epicenter - 166  G. Andrew Stone & Andrew Clifford: #Bitcoin Unlimited at http://cryptocurrencyradio.com #bitcoin #ethereum,0,0,0,False
251,Ethereum UAE@Ethereum_UAE,"Ether Price Can Go Up and Down, It Is More Fuel Than Money: Expert http://ift.tt/2jxs8sT #Ethereum",0,0,0,False
252,LAPITH@bhumharit,"#Ethereum price can go up and down: expert
https://goo.gl/TrvJfi ethstatus #blockchain",0,0,0,False
253,Anthony Schmitt Financial Services | Trader@BourseetTrading," #Ethereum price can go up and down: expert
https://goo.gl/TrvJfi @ethstatus @Cointelegraph #blockchain #Bitcoin #Fintech",2,2,0,False
254,LAPITH@bhumharit,"RT: #Ethereum price can go up and down: expert
https://goo.gl/TrvJfi ethstatus #blockchain",0,0,0,False
257,Zvezdana Jovanovic@easymethods,Scam or not? #bitcoin #ethereum #passive #income #cryptocurrency http://bit.ly/2jtcwqP,0,0,0,False
258,Bata Matic@bata_matic,Scam or not? #bitcoin #ethereum #passive #income #cryptocurrency http://bit.ly/2jtcwqP,0,0,0,False
259,Prati Pratim@pratipratim,Scam or not? #bitcoin #ethereum #passive #income #cryptocurrency http://bit.ly/2jtcwqP,0,0,0,False
260,Ultime Notizie@twittsitalia,Scam or not? #bitcoin #ethereum #passive #income #cryptocurrency http://bit.ly/2jtcwqP,0,0,0,False
261,Ξ Fly Guy Ξ (flyguy.eth)@FlyGuyInTheSky,Replying to @MrChrisEllis and @VitalikButerin#ethereum is and will be different... the fall was due to the fork.. as it progresses .. watch.,0,0,0,False
262,/r/Ethereum@r_Ethereum,"Tendermint 0.8 is out, featuring ABCI, persistence, Cosmos Basecoin, and more! #EthereumTendermint 0.8 is out, featuring ABCI, persistence, Cosmos...Posted in r/ethereum by u/jaekwon_ • 43 points and 24 commentsreddit.com",0,0,0,False
263,/r/Ethereum@r_Ethereum,Moving Trust To The Blockchain #EthereumMoving Trust To The BlockchainPosted in r/ethereum by u/csilvaethnews • 5 points and 0 commentsreddit.com,0,0,0,False
266,Ethereum Monkey@EthMonkey,"Ether Price Can Go Up and Down, It Is More Fuel Than Money: Expert #ethereum https://cointelegraph.com/news/ether-price-can-go-up-and-down-it-is-more-fuel-than-money-expert…",0,0,0,False
269,Neeraj K. Agrawal@NeerajKA,"A distraught scientist stands over his #ethereum hardware wallet following the DAO hack (taken: June 18, 2016)GIF",4,1,0,False
270,Burakak Semauwe@B_itcoins,#Qtum Created By Quantum Foundation Combines Bitcoin and Ethereum. It is seems be surprice https://btcmanager.com/news/tech/quantum-foundation-combines-bitcoin-and-ethereum-to-create-qtum/… #BTC #ETH #Blockchain,1,0,0,False
271,Corner Coin@Corner_Coin,The Qtum Project Creates a Mixture of #Bitcoin and #Ethereum https://goo.gl/CgjzZv via @NigeriaTodayNG #fintech,0,0,0,False
272,José Carlos Baquero @jbaquerot,"Top 5 #Ethereum #DApps Available Right now.Top 5 Ethereum DApps Available Right nowThe Ethereum ecosystem is home to many enthusiastic developers who are creating decentralized applications, or DApps. A lot of these projects are still in the concept of the development stage, even...bcvcsc.tumblr.com",0,0,0,False
273,Lelaku Rang@Bitc_oin,"Unique From #Qtum Project's  are basing Quantum on Bitcoin Core for stability, and Blackcoin POS3.0 for consensus. #BTC #ETH #Moreno",0,0,0,False
274,/r/Ethereum@r_Ethereum,This is uPort! #EthereumThis is uPort!Posted in r/ethereum by u/btsfav • 28 points and 7 commentsreddit.com,0,0,0,False
276,Ultime Notizie@twittsitalia,Ethtrade -  invest in #ethereum | Passive income investments | Cryptocurrency automatic trader http://bit.ly/2jtcwqP,0,0,0,False
277,Bata Matic@bata_matic,Ethtrade -  invest in #ethereum | Passive income investments | Cryptocurrency automatic trader http://bit.ly/2jtcwqP,0,0,0,False
278,Zvezdana Jovanovic@easymethods,Ethtrade -  invest in #ethereum | Passive income investments | Cryptocurrency automatic trader http://bit.ly/2jtcwqP,0,0,0,False
279,Vindyne8@Vindyne8,#Qtum social media campaign on #Twitter https://bitcointalk.org/index.php?topic=1754405.0… Check it out & earn rewards #bounty #eth #btc,14,15,0,False
280,Daniel Spiller@spiller_crypto,@Liqui_Exchange let your traders know about BitCoin Transaction Accelerator (free to use) https://viabtc.com/tools/txaccelerator/… … #blockchain $ETH $BTC,1,0,0,False
281,Dani Alka@Go_Bitco,Take information or big update About project Quantum / #Qtum on Bitcointalk Forums. https://bitcointalk.org/index.php?topic=1720632.0… #BTC #ETH #Moreno,0,0,0,False
282,/r/Ethereum@r_Ethereum,"Tenderming 0.8 is out, featuring ABCI, persistence, Cosmos Basecoin, and more! #EthereumTenderming 0.8 is out, featuring ABCI, persistence, Cosmos...reddit.com",0,0,0,False
283,/r/Ethereum@r_Ethereum,RabbitCash - Buy and sell ethers with cash #EthereumRabbitCash - Buy and sell ethers with cashPosted in r/ethereum by u/root-io • 12 points and 5 commentsreddit.com,0,0,0,False
284,Daniel Spiller@spiller_crypto,$1ST @firstbloodio volume picking up speed on @Liqui_Exchange - up %40 since last week. $1ST FTW! $ETH $BTC #investing,0,0,0,False
285,fintechfolk@fintechfolk,Thanks @balcersd for registering for FinTechFolk - http://zpr.io/Mnfj #fintech #ethereum #bitcoin #blockchain,0,0,0,False
286,Crypto Live@crypto_c_radio,#NowPlaying State Change - State Change #37 - State Channels Deep Dive with Ameen Soleimani at http://cryptocurrencyradio.com #bitcoin #ethereum,0,0,0,False
288,Brave New Coin@bravenewcoin,#Ethereum Price: USD $10.53 $ETH http://ow.ly/6UKf3048WBe,0,0,0,False
289,Crypto Live@crypto_c_radio,#NowPlaying BitcoinMeister - Abraham Cambridge of the Sun Exchange Part 1 at http://cryptocurrencyradio.com #bitcoin #ethereum,0,0,0,False
294,Blockgeeks@Blockgks,"Check it out! Full Q &A with Richard Olsen, CEO at #lykke http://buff.ly/2cQ2dIQ #blockchain #ethereum",0,0,0,False
295,Coinstats@coinstats,"Ethereum Classic - ETC
Price: $1.31277
Change in 1h: +0.42%
Market cap: $115791155.0
Ranking: 6
#Ethereum Classic #ETC",0,0,0,False
296,Estimize@Estimize,"$ETH reports after the close, Estimize Consensus +0.04 EPS and +2.58M Revs compared to WS http://estimize.com/eth/fq2-2017?utm_content=prerelease&utm_medium=tweet&utm_source=twitter…",1,0,0,False
297,Coinstats@coinstats,"Ethereum - ETH
Price: $10.5187
Change in 1h: +0.06%
Market cap: $928180913.0
Ranking: 2
#Ethereum #ETH",0,0,0,False
298,Ethereum SE@StackEthereum,What is an Event? http://ethereum.stackexchange.com/questions/11228/what-is-an-event… #ethereum #solidity #contractdevelopment #blockchain #events #blockheader,0,0,0,False
299,Crypto Live@crypto_c_radio,#NowPlaying Bitcoins   Gravy - Ode to Satoshi (The Official Bitcoin Song : ) at http://cryptocurrencyradio.com #bitcoin #ethereum,0,0,0,False
300,Portable Instant Mining Platform@getPiMP,"Look at this, PiMP team member caught warming his hands up on his PiMP rigs on a cold winter night! #Ethereum #Mining #Crypto",1,0,0,False
302,/r/Ethereum@r_Ethereum,"monax without VM #Ethereummonax without VMI want to install monax in an instance of hyper-V, but Hyper-V can´t use virtualmachine in the instance like the virtualbox need it to run...reddit.com",0,0,0,False
303,ethereum.network@EthereumNetw,".@MSFT_Business Unveils Project for #Blockchain Product Tracking with @MojixInc
http://coindesk.com/microsoft-unveils-project-manifest-a-plan-for-product-tracking-via-blockchain/…
#Ethereum",0,0,0,False
305,Ethereum SE@StackEthereum,Exploring and Analyzing the Ethereum blockchain http://ethereum.stackexchange.com/questions/2184/exploring-and-analyzing-the-ethereum-blockchain… #ethereum #blockchain #database,3,1,0,False
310,"Trade Alerts, Trade Ideas and Crypto @AlertTrade",#UpWithEarningsToday $ETH ETHAN ALLEN INTERIORS #TradeIdeas via  http://AlertTrade.us to #FreeTradingRoomFree live trading from Trade IdeasJoin the free Live Trading Room and interact with the community and the Trade Ideas Team.trade-ideas.com,0,0,0,False
311,/r/Ethereum@r_Ethereum,"Microsoft Unveils Project Manifest, A Plan For Blockchain Product Tracking #EthereumMicrosoft Unveils Project Manifest, A Plan For Blockchain Product...Posted in r/ethereum by u/twigwam • 106 points and 16 commentsreddit.com",0,0,0,False
312,Scam-Times@Scam_Times,JOIN to our Twitter company #ASC #BTC and earn ASC  #altcoins #ico #crypto #eth https://bitcointalk.org/index.php?topic=1749935…,2,0,0,False
313,ethereum.network@EthereumNetw,".@TheRudimental 2016 ReCap and 2017 Roadmap
https://medium.com/@TheRudimental/2016-recap-and-2017-roadmap-c36928e8b0fd…
Financial law on #Ethereum",1,0,0,False
314,Ethereum SE@StackEthereum,Sending a transaction with a value parameter to a contract method http://ethereum.stackexchange.com/questions/11647/sending-a-transaction-with-a-value-parameter-to-a-contract-method… #ethereum #contractinvocation #badjump,0,0,0,False
315,Crypto Live@crypto_c_radio,#NowPlaying The Ether Review - The #Ether Review #52 ?#ArcadeCity is Back on the Road at http://cryptocurrencyradio.com #bitcoin #ethereum,0,0,0,False
316,Brownie.one@Aegon1987,"What to mine? Zcash or Ether? 
#Zcash
#bitcoin
#Ethereum",1,1,0,False
317,/r/Ethereum@r_Ethereum,ConsenSys and adChain form collaboration using Ethereum #EthereumConsenSys and adChain form collaboration using EthereumPosted in r/ethereum by u/andrewkeys • 35 points and 0 commentsreddit.com,0,0,0,False
318,ethereum.network@EthereumNetw,"Need some testnet ether to play around with #Ethereum contracts?
https://reddit.com/r/ethereum/comments/5q29ns/anyone_need_ropsten_testnet_ether/…
@hudsonjamesonAnyone Need Ropsten Testnet Ether?I have some and am happy to send it to you. Just leave your Ethereum testnet address in the comments.reddit.com",5,2,0,False
319,Cliff K Jordan@CKJordan15,"Just got my 1st #bitcoins on #Coinbase! Buy $100, Get $10 http://bit.ly/cbaseviv #coinarmy #Bitcointalk #ethereum",0,0,0,False
320,CryptoCompare@CryptoCompare,Want to see a documentary about #Ethereum? A film about decentralized technology? @SingularDTV is for you. #CryptoWhat is Singular-DTVSingularDTV (S-DTV) is a content production and distribution platform built on Ethereum. The goal is not only to create and broadcast quality film and tv content but also to reshape the entertainment...cryptocompare.com,0,0,0,False
321,Blockgeeks@Blockgks,"Who is working on a blockchain powered sustainable energy solutions?
http://dld.bz/eVxaY #ethereum #blockchain",0,0,0,False
322,Coinstats@coinstats,"Ethereum Classic - ETC
Price: $1.30657
Change in 1h: +1.07%
Market cap: $115242671.0
Ranking: 6
#Ethereum Classic #ETC",0,0,0,False
323,Ethereum Price@EthereumPrice_,"#Ethereum: Ether Price Index
1 ETH =0.011737Ƀ XBT = $10.410645 USD
Today: -1.25%⬇︎ Last 24h: +0.66%⬆︎
https://ethereum-price.com",0,0,0,False
324,Coinstats@coinstats,"Ethereum - ETH
Price: $10.5195
Change in 1h: +0.22%
Market cap: $928238739.0
Ranking: 2
#Ethereum #ETH",0,0,0,False
325,Blockgeeks@Blockgks,New Post: William Mougayar: What is The State Of Blockchain? http://buff.ly/2jZvDeP #blockchain #bitcoin #ethereum #fintech,6,7,0,False
326,The Financial Revolutionist@Fin_Revolution,We're rooting for @BanQuApp. See The FR #blockchain #ethereum http://buff.ly/2j4IcVh,0,0,0,False
327,Ameer Rosic@AmeerRosic,Is #Youtube in Trouble? #Blockchain is coming! http://bit.ly/1tgKTVz #ethereum #bitcoin,0,0,0,False
328,Awesomeness Prime@jay_ziggy,I'm I the only one that can imagine Trump signing executive orders to the Ether instrumental? #ExecutiveOrders #Ether #Trump,1,0,0,False
329,Richard ~ ₿@blockchainbros,A recap of day 2 London #blockchainexpo - https://bitcointalk.org/index.php?topic=695855.msg17618327#msg17618327… #blockchain $eth $xmr #smartcontracts,0,0,0,False
330,BLOCKCHAINS@BLOCKCHAlNS,"#Ethereum is in the news http://CRYPTOCURRENCYKING.COM
#SiliconValley #startups #cryptocurrency #Entrepreneur #startup #crowdfunding #dash #cnbc",1,0,0,False
331,/r/Ethereum@r_Ethereum,The Rudimental's 2016 ReCap and 2017 Roadmap. Come read about our adventure with FINRA and the SEC. #Ethereum http://ift.tt/2kiFmdG,0,0,0,False
332,/r/Ethereum@r_Ethereum,Can we use zksnarks to generate secure random numbers? #EthereumCan we use zksnarks to generate secure random numbers?I'm not familiar with zero knowledge proofs enough to answer this. Can we use zero knowledge proofs to let participants of e.g. a roulette...reddit.com,0,0,0,False
333,/r/Ethereum@r_Ethereum,"Someone earned 4,5 ETH with the Million Ether Homepage - it is just the beginning. #EthereumSomeone earned 4,5 ETH with the Million Ether Homepage - it is...Posted in r/ethereum by u/takeshi_reg • 0 points and 3 commentsreddit.com",0,0,0,False
334,Ξmil@emosto,With #Parity v1.5 it becomes clear that @ParityTech is aiming much higher than supporting only #ethereum. Looking forward to its next ver.,0,0,0,False
335,Juan José Calderón Amador@eraser,post #elearning State of Blockchain Q3 2016. Slideshare from @coindesk http://klou.tt/xbuyc9gbw9ii #bitcoin #ethereum #cryptocurrency,0,0,0,False
336,TradeZero@TradeZer0,"Today's Corporate #Earnings #stockmarket #daytrading #bolsa #NYSE
$BGG, $0.290
$CMO, $0.195
$CTXS, $1.261
$CSS, $
$ETH, $0.385",2,0,0,False
337,gaomingcong@g187774208271,"Start Building your Future Today!!
Join Here - https://goo.gl/RLPF4G
#Ethtrade #Ethereum #Bitcoin",4,0,0,False
338,高小露@GGXX957,"Start Building your Future Today!!
Join Here - https://goo.gl/RLPF4G
#Ethtrade #Ethereum #Bitcoin",0,0,0,False
339,周伟坚@zouweijan,"Start Building your Future Today!!
Join Here - https://goo.gl/RLPF4G
#Ethtrade #Ethereum #Bitcoin",0,0,0,False
340,心远@g138774981091,"Start Building your Future Today!!
Join Here - https://goo.gl/RLPF4G
#Ethtrade #Ethereum #Bitcoin",0,0,0,False
341,Zeth Couceiro@Zeth_Plexus,#Creditbit to Become #Ethereum Token in Bid to Beat #Bitcoin at Speed https://cointelegraph.com/news/creditbit-to-become-ethereum-token-in-bid-to-beat-bitcoin-at-speed… via @Cointelegraph #blockchain #DLT,1,0,0,False
344,fintechfolk@fintechfolk,Thanks  for registering for FinTechFolk - http://zpr.io/Mnfj #fintech #ethereum #bitcoin #blockchain,0,0,0,False
346,Александр@Nevskiy_A,"Hurry up to become an investor of the first Bitcoin-Ethereum hybrid #Qtum. Who knows, maybe he will repeat the success of the #BTC and #ETH",1,1,0,False
347,Patrizio Stavola@halovast,"half-quoting @gmcmullen :) 
This is what @IPFSbot and #Ethereum #Swarm are for.Quote TweetNOT ALT WORLD@NotAltWorld · Jan 24, 2017This is the National Park Service's Cultural Resources Climate Change Strategy. Pls download before it is removed. 
https://nps.gov/subjects/climatechange/culturalresourcesstrategy.htm…",2,0,0,False
348,Stephan Tual@stephantual,So many #blockchain and #ethereum booths at @BlockchainEXPO - we've gone a (very) long way ,38,19,2,False
350,Blockgeeks@Blockgks,Step-by-Step Guide: What the heck is a Smart Contract? #blockchain #bitcoin #ethereum http://dld.bz/eYNat,0,0,0,False
351,Coinstats@coinstats,"Ethereum Classic - ETC
Price: $1.29258
Change in 1h: +-1.23%
Market cap: $114007083.0
Ranking: 6
#Ethereum Classic #ETC",0,0,0,False
352,Coinstats@coinstats,"Ethereum - ETH
Price: $10.5019
Change in 1h: +-0.57%
Market cap: $926671268.0
Ranking: 2
#Ethereum #ETH",0,0,0,False
353,Crypto Live@crypto_c_radio,#NowPlaying BitcoinMeister - Abraham Cambridge of the Sun Exchange Part 2 at http://cryptocurrencyradio.com #bitcoin #ethereum,0,0,0,False
354,Ameer Rosic@AmeerRosic,Could #Blockchain Technology Bankrupt #Spotify? http://bit.ly/1tgKTVz #ethereum #bitcoin,1,0,0,False
358,Ethereum UAE@Ethereum_UAE,"SuperDAO Completes Audits, Adjusts Crowdfunding Timeline http://ift.tt/2jx2lRx #EthereumSuperDAO Completes Audits, Adjusts Crowdfunding TimelineSuperDAO core components external audits were just completed by Zeppelin Smart Contracts Solutions security firm.bitcoinist.com",1,0,0,False
359,Tristan Winters@tristan_winters,"n00b users on FB blockchaininfo thread try to wrap heads around a mempool = LOL. Poor blockchaininfo support staff. 

#ethereum #shamefuljoy",1,0,0,False
361,Faith Emmanuel@residualbitcoin,Creditbit to Become #ethereum Token in Bid to Beat #bitcoin at Speed http://gettopical.com/blockchain/a9ef33e4c8a55964e2dc2c5e6627c931… #ResidualBitcoin,0,0,0,False
362, Teo Kanistras®@Teokanistras,"Bitcoin Debit Card  #bitcoin #btc #satochis #blockchain #fintech #crypto #ethereum #mining #prize #faucetBitcoin Wallet & Prepaid CardsWe are an all-in-one blockchain payment gateway providing digital currency wallets, prepaid cards and processing solutions for businesses and merchants!cryptopay.me",0,0,0,False
363,Crypto Live@crypto_c_radio,#NowPlaying State Change - State Change #38 ? #Truffles in the #Azure Marketplace at http://cryptocurrencyradio.com #bitcoin #ethereum,0,0,0,False
364,BitcoinAgile@bitcoinagile,Creditbit to Become #ethereum Token in Bid to Beat #bitcoin at Speed http://gettopical.com/blockchain/a9ef33e4c8a55964e2dc2c5e6627c931…,0,0,0,False
365,Crypto Live@crypto_c_radio,#NowPlaying Zhou Tonged - Holding at http://cryptocurrencyradio.com #bitcoin #ethereum,0,0,0,False
366,Ethereum SE@StackEthereum,Why don't gas calculations take into account array size anymore? http://ethereum.stackexchange.com/questions/11654/why-dont-gas-calculations-take-into-account-array-size-anymore… #ethereum #gas #gasestimate,0,0,0,False
367,/r/Ethereum@r_Ethereum,Ether Echo. What is Magic Contract. #EthereumEther Echo. What is Magic Contract.The so-called Magic Contract is a personal engine for data encryption and decryption. It is generated by the Ether Echo service for each...reddit.com,0,0,0,False
368,Nazim Morera@mr__nazim,Qtum wants to unify #Bitcoin and #Ethereum #blockchain applications - http://technode.com/2017/01/13/qtum-wants-to-unify-bitcoin-and-ethereum-blockchain-applications/…,0,0,0,False
369,Trial@Trial1551,"An open source project combines #Ethereum and #Bitcoin to create #QTUM. 
Join Now: https://qtum.org ==> https://bitcointalk.org/index.php?topic=1720632.0…",0,0,0,False
370,Nazim Morera@mr__nazim,"For Jeremy Millar, this is the Birth of Enterprise #Ethereum #blockchain https://media.consensys.net/the-birth-of-enterprise-ethereum-in-2017-ebe7f7abed92#.nfz7u9szo…",1,0,0,False
372,Bitcoin Warrior@betget1,#Qtum is an enterprise that combines different aspects of the #ETH and #BTC in to one cohesive project https://ethnews.com/quantum-foundation-combines-ethereum-and-bitcoin-to-create-qtum… #fintech #ICO,0,0,0,False
373,/r/Ethereum@r_Ethereum,Need help/advice regarding transaction #EthereumNeed help/advice regarding transactionSo I just bought a Ledger Nano S and went to transfer some test ether to it as I am a total noob to all of this. The transaction went through even...reddit.com,0,0,0,False
374,Crypto Live@crypto_c_radio,#NowPlaying The Kozi Two - Bitcoin song: He gave us change (a dedication to Satoshi Nakamoto) at http://cryptocurrencyradio.com #bitcoin #ethereum,0,0,0,False
375,Blockgeeks@Blockgks,"#Blockchain Technology and the Law Are Allies, Not Enemies http://dld.bz/fkYrY #Ethereum #crypto",1,3,0,False
378,Coinstats@coinstats,"Ethereum Classic - ETC
Price: $1.30606
Change in 1h: +-1.62%
Market cap: $115194762.0
Ranking: 6
#Ethereum Classic #ETC",0,0,0,False
379,Coinstats@coinstats,"Ethereum - ETH
Price: $10.559
Change in 1h: +0.47%
Market cap: $931701050.0
Ranking: 2
#Ethereum #ETH",0,0,0,False
380,m2ie@m2ie_conseil,#Blockchain This is the Birth of Enterprise #Ethereum http://futurism.com/this-is-the-birth-of-enterprise-ethereum/… via @Futurism,0,0,0,False
381,zzorgich@zzorgich,#Qtum project Smart Contract platform with EVM functionality! @QtumOfficial #crypto #BTC #ETH #LTC #monero,1,0,0,False
382,Blockchain Weekly@blockchainwkly,When is a #blockchain not a blockchain? https://nakedsecurity.sophos.com/2017/01/24/when-is-a-blockchain-not-a-blockchain/… by @dannybradbury #bitcoin #ethereumWhen is a blockchain not a blockchain?Financial services businesses have taken the original blockchain concept in a new direction – so why are the purists so upset about Accenture’s approach?nakedsecurity.sophos.com,1,0,0,False
385,Prashanth@cp_tpl,"""Decentralising the Internet would be a cool thing to do."" 
-
Sir Tim Berners-Lee at #Eth today.",1,2,1,False
386,Ethereum SE@StackEthereum,How to run contracts with 'Oraclize' using truffle? http://ethereum.stackexchange.com/questions/11652/how-to-run-contracts-with-oraclize-using-truffle… #ethereum #contractdesign #truffle #testrpc #oracles,1,0,0,False
388,Jeff Langfels@JffXL,The latest The Bitcoin Ethereum crypto currency Daily! http://paper.li/f-1465302405?edition_id=80655f00-e2f9-11e6-8648-0cc47a0d1609… #blockchain #ethereum,0,0,0,False
390,Bitcoin | G A B B A@CryptoGabba,"Anyone who is aware of the (income) tax regulations on Bitcoin in The Netherlands? 

#Bitcoin #BTC #LTC #Eth #Ethereum #XMR #Monero #Tax",1,1,0,False
391,dianka@dianka985,"#Qtum raises $1m from leading blockchain entrepreneurs!
Do not miss the ICO!
https://qtum.org
#Bitcoin #Ethereum",1,0,0,False
392,Faith Emmanuel@residualbitcoin,Proposed #ethereum Investment Vehicle Sparks Controversy - #bitcoin XYZ http://bitcoinagile.com/ABBBF9/proposed-ethereum-investment-vehicle-sparks-controversy-bitcoin-xyz_stream…  #ResidualBitcoin,0,0,0,False
393,BitcoinAgile@bitcoinagile,Proposed #ethereum Investment Vehicle Sparks Controversy - #bitcoin XYZ http://bitcoinagile.com/ABBBF9/proposed-ethereum-investment-vehicle-sparks-controversy-bitcoin-xyz_stream…,3,0,0,False
395,Brave New Coin@bravenewcoin,#Ethereum Price: USD $10.57 $ETH http://ow.ly/6UKf3048WBe,0,0,0,False
396,Blockgeeks@Blockgks,Introduction to #Ethereum #Blockchain: The Internet's Government http://dld.bz/fkYrH #crypto,0,0,0,False
397,Coinstats@coinstats,"Ethereum Classic - ETC
Price: $1.32902
Change in 1h: +-0.26%
Market cap: $117218009.0
Ranking: 6
#Ethereum Classic #ETC",0,0,0,False
398,Ethereum Price@EthereumPrice_,"#Ethereum: Ether Price Index
1 ETH =0.011695Ƀ XBT = $10.428000 USD
Today: -1.61%⬇︎ Last 24h: +0.37%⬆︎
https://ethereum-price.com",0,0,0,False
399,Coinstats@coinstats,"Ethereum - ETH
Price: $10.5193
Change in 1h: +0.14%
Market cap: $928182901.0
Ranking: 2
#Ethereum #ETH",0,0,0,False
400,Ethereum SE@StackEthereum,How can we retrieve the evolution of the state of an smart contract variable? http://ethereum.stackexchange.com/questions/11119/how-can-we-retrieve-the-evolution-of-the-state-of-an-smart-contract-variable… #ethereum #transactions #blockchain,0,0,0,False
401,Luke@thinlyspread_,First quarterly report from @Ripple's @MiguelVias confirms major institutions buying up #XRP just below current market price. Hmm! #BTC #ETH,0,0,0,False
403,Crypto Live@crypto_c_radio,#NowPlaying Bitcoin Trading Academy - BATT: #Bitcoin & #Altcoin #Trading Talk 43 at http://cryptocurrencyradio.com #bitcoin #ethereum,0,0,0,False
404,OpenLedger@OpenLedgerDEX,"#ethereum Price #technical Analysis – #ETHUSD
http://newsbtc.com/2017/01/25/ethereum-price-technical-analysis-ethusd-slowly-grinds-lower/…
#ETH #ethereumtrade #cryptocurrency #Crypto #OpenLedger #EXCHANGEEthereum Price Technical Analysis – ETH/USD Slowly Grinds LowerEthereum price remained a slow and steady downtrend against the US Dollar. More losses are likely in ETH/USD, as long as price is below $10.50.newsbtc.com",1,0,0,False
405,Ethereum SE@StackEthereum,What public test-networks and faucets exist? http://ethereum.stackexchange.com/questions/84/what-public-test-networks-and-faucets-exist… #ethereum #contractdevelopment #dappdevelopment #testnets #testing,0,0,0,False
406,Foxes Den@foxesden34,"Ethereum (ETH) Price Index, Charts, FIAT Exchange Rates, USD,EUR,CNY http://paper.li/f-1473176678?read=http%3A%2F%2Fbravenewcoin.com%2Fethereum… #ethereum",0,0,0,False
407,Crypto Live@crypto_c_radio,#NowPlaying Zhou Tonged - You Just Got Mt Goxed! at http://cryptocurrencyradio.com #bitcoin #ethereum,0,0,0,False
409,/r/Ethereum@r_Ethereum,Could someone give me an ELI5 on how stable tokens and pegged sidechains. #Ethereum http://ift.tt/2jYSAP7,1,0,0,False
410,Vindyne8@Vindyne8,#chronobank Now is a good TIME to get your TIME here: chronobank.io You can also use alts! #btc #eth $waves #nem #etc #ltc #emc,14,15,0,False
411,Vindyne8@Vindyne8,"#Creditbit to Become #Ethereum Token in Bid to Beat #Bitcoin at Speed
http://goo.gl/HCvf7l $CRBIT @creditbit @Cointelegraph",17,19,0,False
415,/r/Ethereum@r_Ethereum,"KeepKey and ETH #EthereumKeepKey and ETHHi, I have been unable to find instructions on how to transfer my ETH keys to my KeepKey. Anyone want to help me out? Thanks.reddit.com",1,0,0,False
416,Vindyne8@Vindyne8,"Would you like to talk to the #Qtum team direct, and hear about the latest news? Join the Slack channel http://qtumslack.herokuapp.com #BTC #ETH",14,16,0,False
417,Ethereum UAE@Ethereum_UAE,"Fred Ehrsam Leaves Coinbase, Hints At New Crypto Business Ideas http://ift.tt/2jdWDD2 #EthereumFred Ehrsam Leaves Coinbase, Hints At New Crypto Business IdeasFred Ehrsam, co-founder of Coinbase announced his official decision to leave the company to pursue other ideas within the cryptocurrency scene.cointelegraph.com",0,0,0,False
418,Maarten@NotMaarten,"https://youtube.com/watch?v=veUeif-MIBw… 

24 hours till next bullrun #ethereum #hopium",0,0,0,False
419,Crypto Live@crypto_c_radio,#NowPlaying The Dollar Vigilante - An Interview with Collin Kettell of Palisade Global at http://cryptocurrencyradio.com #bitcoin #ethereum,0,0,0,False
420,Crypto Live@crypto_c_radio,#NowPlaying Jamie Shelly - Bitcoin Song at http://cryptocurrencyradio.com #bitcoin #ethereum,0,0,0,False
421,Dr Tayo Abinusawa@tabinusawa,"@IBM, @Microsoft & @Deloitte are pioneering the #Blockchain-as-a-Service revolution #baas #fintech #IOT #Ethereum #rubix #bluemix #digitalQuote TweetMEDICI Global@gomedici · Nov 7, 20163 Companies Leading the #Blockchain as a Service (BaaS) Revolution http://buff.ly/2eHSFRM",1,0,0,False
422,Tedy MD@bitcoinjapanese,DOUBLE ENDED Di-L-Do (reupload) http://vid.staged.com/cDGt #btcjapan #btcchina #ethereum.co.id,1,0,0,False
423,Blockgeeks@Blockgks,It's coming! The #Blockchain Technology That Will Replace Lawyers http://dld.bz/eYNat #ethereum,1,0,0,False
424,Coinstats@coinstats,"Ethereum Classic - ETC
Price: $1.33182
Change in 1h: +-0.75%
Market cap: $117463188.0
Ranking: 6
#Ethereum Classic #ETC",0,0,0,False
425,Bobe'bot@Bobe_bot,"1 #BTC = 920.04 #CHF
1 #ETH = 11.0082 #CHF
1 #DOGE = 0.000206889046 #CHF
sources: @cryptonatorcom @hellobity",0,0,0,False
426,Coinstats@coinstats,"Ethereum - ETH
Price: $10.4992
Change in 1h: +-0.25%
Market cap: $926395905.0
Ranking: 2
#Ethereum #ETH",0,0,0,False
427,trimplement Team@trimplement,ZCash on Ethereum: Anonymity With Smart Contracts http://buff.ly/2kmF0Gp #zcash #ethereum #blockchain #smartcontracts #projectalchemy,1,0,0,False
428,Digiconomist@DigiEconomist,"#Ethereum doesn't scale very well yet either; has an adaptive block size though so no limit. #ETH transaction volumes certainly trending up.Quote TweetAaron Wright@awrigh01 · Jan 24, 2017Scalability is one of blockchain tech's biggest limitations; if Bitcoin doesn’t change, Ethereum is going to eat into Bitcoin’s network. https://twitter.com/WhalePanda/status/823763079196446720…",1,0,0,False
430,m0rte@m0rte17,#Qtum Compatible with #BTC and #Ethereum ecosystems. Learn more here https://qtum.org and here https://goo.gl/9yNnG6,0,0,0,False
432,Colombina@Colombina_2,#QTUM very interesting and perspective project! JOIN NOW! Check website https://qtum.org and Follow @QtumOfficial #crypto #ETH #BTC,0,0,0,False
433,LAPITH@bhumharit,RT: RT pop_chest: Andreas aantonop went to his first #Ethereum Meetup. Watch what happens next  …From POP Network,2,0,0,False
434,Aslam Motala@aslammotala,"Trust or No Trust, Traders Are Still Unsure About Ethereum Classic - CoinDesk http://buff.ly/2knKhgH #Ethereum #ETC #blockchainTrust or No Trust, Traders Are Still Unsure About Ethereum Classic - CoinDeskNews of a planned investment trust based on ether classic has seen prices climb, but the token still has much to prove, analysts say.coindesk.com",0,0,0,False
435,LAPITH@bhumharit,RT pop_chest: Andreas aantonop went to his first #Ethereum Meetup. Watch what happens next  …1:03568 viewsFrom POP Network,2,0,0,False
436,BlackBullTradingPost ₿   @BlackBullTradn,Cointelegraph: RT pop_chest: Andreas aantonop went to his first #Ethereum Meetup. Watch what happens next  …From POP Network,2,0,0,False
438,Coinstats@coinstats,"Ethereum Classic - ETC
Price: $1.34211
Change in 1h: +-0.65%
Market cap: $118368381.0
Ranking: 6
#Ethereum Classic #ETC",0,0,0,False
439,Coinstats@coinstats,"Ethereum - ETH
Price: $10.5372
Change in 1h: +0.08%
Market cap: $929730643.0
Ranking: 2
#Ethereum #ETH",0,0,0,False
440,Ethereum SE@StackEthereum,Different use of .yaml and .toml file http://ethereum.stackexchange.com/questions/11648/different-use-of-yaml-and-toml-file… #ethereum #blockchain #contractdeployment #erisindustries #configuration,0,0,0,False
443,Ethereum SE@StackEthereum,Sending a transaction to a contract method with MetaMask http://ethereum.stackexchange.com/questions/11647/sending-a-transaction-to-a-contract-method-with-metamask… #ethereum #contractinvocation #metamask,1,0,0,False
444,Crypto Live@crypto_c_radio,#NowPlaying Elaine Diane Taylor - Bitcoin Barbarians at http://cryptocurrencyradio.com #bitcoin #ethereum,0,0,0,False
445,Ambroid@anambroid,$ETH squeezing. Good R/R on a long position for an edge to edge trade. https://coinigy.com/s/i/588870f7/,1,0,0,False
446,/r/Ethereum@r_Ethereum,Anyone Need Ropsten Testnet Ether? #EthereumAnyone Need Ropsten Testnet Ether?I have some and am happy to send it to you. Just leave your Ethereum testnet address in the comments.reddit.com,1,0,0,False
447,Bitcoingeek@bitcoingeek000,#Qtum is compatible with #bitcoin and #Ethereum ecosystems. Hooray!! Know more about it @ http://qtum.org and @QtumOfficial,0,0,0,False
448,Ethereum SE@StackEthereum,How can i confirm transaction in geth from other peer of blockchain? http://ethereum.stackexchange.com/questions/11646/how-can-i-confirm-transaction-in-geth-from-other-peer-of-blockchain… #ethereum #goethereum #blockchain #cppethereum,0,0,0,False
449,Tim R. Lea@TimothyLea2,"Whats your opinion on #cryptocurrencies like #Ethereum, #Zcash and #Bitcoin? by Tim Lea https://quora.com/Whats-your-opinion-on-crypto-currencies-like-Ethereum-Zcash-and-Bitcoin/answer/Tim-Lea?srid=R9z6…",0,0,0,False
450,Tom Menner@tmenner,@Finlync Offers @SAP #ERP Integration to @Hyperledger & #Ethereum #Blockchain http://the-blockchain.com/2017/01/18/finlync-designs-erp-integration-distributed-ledger-blockchain/… via @blockchainers,1,0,0,False
453,Coinstats@coinstats,"Ethereum Classic - ETC
Price: $1.35143
Change in 1h: +-0.03%
Market cap: $119188666.0
Ranking: 6
#Ethereum Classic #ETC",0,0,0,False
454,Ethereum Price@EthereumPrice_,"#Ethereum: Ether Price Index
1 ETH =0.011704Ƀ XBT = $10.440300 USD
Today: -1.53%⬇︎ Last 24h: +1.05%⬆︎
https://ethereum-price.com",0,0,0,False
455,Coinstats@coinstats,"Ethereum - ETH
Price: $10.5258
Change in 1h: +-0.08%
Market cap: $928710083.0
Ranking: 2
#Ethereum #ETH",0,0,0,False
458,Cointon@CointonDotCom,Barry Silbert Clarifies Naming of Proposed Ethereum (ETC) Investment Trust https://cointelegraph.com/news/barry-silbert-clarifies-naming-of-proposed-ethereum-etc-investment-trust… #ethereum #ether,0,0,0,False
459,Crypto Live@crypto_c_radio,#NowPlaying ytcracker - Bitcoin Baron at http://cryptocurrencyradio.com #bitcoin #ethereum,0,0,0,False
460,Faith Emmanuel@residualbitcoin,ConsenSys and adChain unlock #blockchain for digital advertising #ethereum #ConsenSys http://ibtimes.co.uk/consensys-adchain-unlock-blockchain-digital-advertising-1602953…  #Re…,1,0,0,False
461,CryptoWallets@CryptoWalletsio,"Electrum-DASH 2.4.1 Released https://cryptowallets.io/2017/01/24/electrum-dash-2-4-1-released/…
#bitcoin #ethereum #cryptocurrency",0,0,0,False
462,CryptoWallets@CryptoWalletsio,"Electrum-DASH v2.4.1rc2 Released https://cryptowallets.io/2017/01/24/electrum-dash-v2-4-1rc2-released/…
#bitcoin #ethereum #cryptocurrency",0,0,0,False
463,CryptoNewswire @CryptoNewswire,How the Great Schism Can End Well for Ethereum One (Part 1 of 3) - https://bitcoinmagazine.com/articles/how-the-great-schism-can-end-well-for-ethereum-one-part-of-1469895898/… $ETH #finance #altcoin #fintechHow the Great Schism Can End Well for Ethereum One (Part 1 of 3)In Part 1: How the great Ethereum schism can end relatively well for Ethereum One (but not so much for Ethereum Classic.)bitcoinmagazine.com,0,0,0,False
464,CryptoWallets@CryptoWalletsio,"Dash Wallet – PreRelease – v2.4.1rc1 – For Final Release see Electrum https://cryptowallets.io/2017/01/24/dash-wallet-prerelease-v2-4-1rc1-for-final-release-see-electrum/…
#bitcoin #ethereum #cryptocurrency",0,0,0,False
465,BitcoinAgile@bitcoinagile,ConsenSys and adChain unlock #blockchain for digital advertising #ethereum #ConsenSys http://ibtimes.co.uk/consensys-adchain-unlock-blockchain-digital-advertising-1602953…,1,1,0,False
466,CryptoWallets@CryptoWalletsio,"Ethereum Classic Wallet 0.9.1 (Pre Release) https://cryptowallets.io/2017/01/24/ethereum-classic-wallet-0-9-1-pre-release/…
#bitcoin #ethereum #cryptocurrency",0,0,0,False
467,CryptoWallets@CryptoWalletsio,"Ethereum Classic Mist Wallet – 0.8.1 (1.4.10 go-ethereum) https://cryptowallets.io/2017/01/24/ethereum-classic-mist-wallet-0-8-1-1-4-10-go-ethereum/…
#bitcoin #ethereum #cryptocurrency",0,0,0,False
469,CryptoWallets@CryptoWalletsio,"Monero / XMR Wallet Wolfram Warptangent, Point Release 1 v0.10.1 https://cryptowallets.io/2017/01/24/monero-xmr-wallet-wolfram-warptangent-point-release-1-v0-10-1/…
#bitcoin #ethereum #cryptocurrency",0,0,0,False
470,CryptoWallets@CryptoWalletsio,"Monero / XMR Wallet Wolfram Warptangent v0.10.0 https://cryptowallets.io/2017/01/24/monero-xmr-wallet-wolfram-warptangent-v0-10-0/…
#bitcoin #ethereum #cryptocurrency",0,0,0,False
471,TAINA@TainaMarket,"GET FREE #DOGE
Win dogecoin every 60 minutes
http://goo.gl/hE5Bk6
#doge #dogecoin
#Ethereum
#bitcoin #litecoin #gold #Amazon",0,0,0,False
472,Brave New Coin@bravenewcoin,#Ethereum Price: USD $10.6 $ETH http://ow.ly/6UKf3048WBe,1,0,0,False
473,Blockgeeks@Blockgks,"OMG, Ethereum Is So Hard Forked http://dld.bz/fm2T7 #Ethereum #blockchain #bitcoin",1,0,0,False
479,Coinstats@coinstats,"Ethereum Classic - ETC
Price: $1.35227
Change in 1h: +-0.86%
Market cap: $119260987.0
Ranking: 6
#Ethereum Classic #ETC",0,0,0,False
480,Coinstats@coinstats,"Ethereum - ETH
Price: $10.5356
Change in 1h: +-0.22%
Market cap: $929559310.0
Ranking: 2
#Ethereum #ETH",0,0,0,False
481,Ameer Rosic@AmeerRosic,5 Blockchain Applications That will Revolutionize The world http://bit.ly/1U4aha8 #Blockchain #Bitcoin #ethereum,4,6,0,False
482,jayeharrill.eth @JayeHarrill,WOOOOT I'm in! @Uport #ethereum #blockchain #AlphaTester http://ift.tt/2krPmAR,0,0,0,False
484,Ethereum SE@StackEthereum,Geth Chaindata size http://ethereum.stackexchange.com/questions/9312/geth-chaindata-size… #ethereum #blockchain #mining,0,0,0,False
485,Crypto Live@crypto_c_radio,#NowPlaying The Beardy Durfs - Bitcoins at http://cryptocurrencyradio.com #bitcoin #ethereum,0,0,0,False
486,CryptoWallets@CryptoWalletsio,"Bitcoin Core v0.11.2 Released https://cryptowallets.io/2017/01/24/bitcoin-core-v0-11-2-released/…
#bitcoin #ethereum #cryptocurrency",0,0,0,False
487,Faith Emmanuel@residualbitcoin,#ethereum Price Technical Analysis  ETH/USD Slowly Grinds Lower - #bitcoin News #Analysis http://bitcoinagile.com/ABA6DE/ethereum-price-technical-analysis-ethusd-slowly-grinds-lower-bitcoin-news_stream… …,0,0,0,False
488,cryptoking619@cryptoking619,Ethereum Price Technical Analysis – ETH/USD Slowly Grinds Lower http://newsbtc.com/2017/01/25/ethereum-price-technical-analysis-ethusd-slowly-grinds-lower/… #ethereum,1,0,0,False
489,cryptoking619@cryptoking619,How Ethereum Smart Contracts Could Replace Mining Pool Managers http://bit.ly/2jufnPC via @CoinDesk #ethereum,1,0,0,False
500,Ethereum SE@StackEthereum,How do I fix the installation problem of 'Ethereum-bridge'? http://ethereum.stackexchange.com/questions/11645/how-do-i-fix-the-installation-problem-of-ethereum-bridge… #ethereum #contractdebugging #truffle #testrpc #oracles,0,0,0,False
501,BitcoinAgile@bitcoinagile,#ethereum Price Technical Analysis  ETH/USD Slowly Grinds Lower - #bitcoin News #Analysis http://bitcoinagile.com/ABA6DE/ethereum-price-technical-analysis-ethusd-slowly-grinds-lower-bitcoin-news_stream…,2,0,0,False
502,Ameer Rosic@AmeerRosic,5 Blockchain Applications That Will Transform Society http://bit.ly/1U4aha8 #Blockchain #Bitcoin #ethereum,1,0,0,False
503,Aslam Motala@aslammotala,Proposed 'Ethereum' Investment Vehicle Sparks Controversy - CoinDesk http://buff.ly/2kdYeuH #Ethereum #decentralize #blockchain,0,0,0,False
504,Coinstats@coinstats,"Ethereum Classic - ETC
Price: $1.36441
Change in 1h: +0.27%
Market cap: $120330460.0
Ranking: 6
#Ethereum Classic #ETC",0,0,0,False
505,Coinstats@coinstats,"Ethereum - ETH
Price: $10.5614
Change in 1h: +0.02%
Market cap: $931825948.0
Ranking: 2
#Ethereum #ETH",0,0,0,False
506,CryptoWallets@CryptoWalletsio,"New post: Parity 1.3.1 ( Ethcore , Parity Core ) Released https://cryptowallets.io/2017/01/24/parity-1-3-1-ethcore-parity-core-released/…
#bitcoin #ethereum",0,0,0,False
516,Vindyne8@Vindyne8,#Emercoin integrated into #Chronobank ICO dashboard chronobank.io You can now invest with $EMC as well! #BTC #ETH $WAVES #ETC #NEM #EMC,16,11,0,False
517,Crypto Live@crypto_c_radio,#NowPlaying Tone Vays - CryptoScam  #1 - Bitcoin (w/ Chris DeRose) at http://cryptocurrencyradio.com #bitcoin #ethereum,0,0,0,False
520,/r/Ethereum@r_Ethereum,What's the best way to change my parity chain directory location? #EthereumWhat's the best way to change my parity chain directory location?Using Parity 1.5 on windows. Chain data takes up a lot of space and want to move it to a different drive.reddit.com,0,0,0,False
521,Crypto Live@crypto_c_radio,"#NowPlaying Trace Mayer, J.D. - Trace Mayer recaps #Bitcoin during 2016 at http://cryptocurrencyradio.com #bitcoin #ethereum",0,0,0,False
523,Coinstats@coinstats,"Ethereum Classic - ETC
Price: $1.35963
Change in 1h: +-0.32%
Market cap: $119907071.0
Ranking: 6
#Ethereum Classic #ETC",0,0,0,False
524,Coinstats@coinstats,"Ethereum - ETH
Price: $10.551
Change in 1h: +-0.3%
Market cap: $930895007.0
Ranking: 2
#Ethereum #ETH",0,0,0,False
525,Ethereum Price@EthereumPrice_,"#Ethereum: Ether Price Index
1 ETH =0.011750Ƀ XBT = $10.496105 USD
Today: -1.15%⬇︎ Last 24h: +0.94%⬆︎
https://ethereum-price.com",0,0,0,False
526,Olivier Chapiteau@o_chapiteau,"25Jan2017 06:00 UTC #Ether #Blockchain status - Block height @ 3,059,406 - 48,230 unconfirmed tr. - Last fork height @ 3,059,404",0,0,0,False
527,Faith Emmanuel@residualbitcoin,#ethereum Price Technical Analysis – ETH/USD Slowly Grinds Lower #BitcoinNews #BTCNews #NewsBTC #247Bitcoin #BTC https://247bitcoin.net/ethereum-price-technical-analysis-ethusd-slowly-grinds-lower… #…,0,0,0,False
528,Alexandr Bev@alexandr9015,"#Qtum is gaining more and more popularity, follow the latest news.
@QtumOfficial #btc #ethereum #cryptocurrency",0,0,0,False
529,Crypto Live@crypto_c_radio,#NowPlaying Naomi van der Velde - All About That Bitcoin at http://cryptocurrencyradio.com #bitcoin #ethereum,0,0,0,False
530,ethereum.network@EthereumNetw,"Reducing The Carbon Footprint With #Ethereum
https://ethnews.com/reducing-the-carbon-footprint-with-ethereum…",4,2,0,False
533,fknmayhem@fknmayhem,"Fourth Wednesday of the month is always one of the better ones. Because #Revival by @HackinTimSeeley. 

Also #Ether by @mattkindt.",0,0,0,False
534,/r/Ethereum@r_Ethereum,Question about Metamask #EthereumQuestion about MetamaskHow do you send tokens from a Metamask account? For example if I wanted to send 1 DGD token from an account on Metamask to some other Ethereum...reddit.com,0,0,0,False
535,Faith Emmanuel@residualbitcoin,How #ethereum Smart Contracts Could Replace Mining Pool Managers  DailyCoin http://bitcoinagile.com/ABA1C2/how-ethereum-smart-contracts-could-replace-mining-pool-managers-dailycoin_stream…  #ResidualBitc…,1,0,0,False
536,Bitcoin@crypto_bitcoins,Ethereum Price (ETH and ETC) Trends (Week of January 23rd) https://cointelegraph.com/news/ethereum-eth-and-etc-price-trends-week-of-january-23rd… #ethereum #bitcoin #ether #btc,1,0,0,False
537,Cointon@CointonDotCom,Ethereum Price (ETH and ETC) Trends (Week of January 23rd) https://cointelegraph.com/news/ethereum-eth-and-etc-price-trends-week-of-january-23rd… #ethereum #bitcoin #ether #btc,1,0,0,False
538,BitcoinAgile@bitcoinagile,How #ethereum Smart Contracts Could Replace Mining Pool Managers  DailyCoin http://bitcoinagile.com/ABA1C2/how-ethereum-smart-contracts-could-replace-mining-pool-managers-dailycoin_stream…,1,2,0,False
539,Ethereum Monkey@EthMonkey,Ethereum Price Technical Analysis - ETH/USD Slowly Grinds Lower - NEWSBTC #ethereum http://newsbtc.com/2017/01/25/ethereum-price-technical-analysis-ethusd-slowly-grinds-lower/…,0,0,0,False
540,vasya.vasyn@vasys174,#Qtum wants to unify #Bitcoin & #Ethereum blockchain applications http://technode.com/2017/01/13/qtum-wants-to-unify-bitcoin-and-ethereum-blockchain-applications/… … #BTC #ETH @technodechina,0,0,0,False
542,Faith Emmanuel@residualbitcoin,#ethereum Price Technical Analysis – ETH/USD Slowly Grinds Lower #BitcoinNews #BTCNews #NewsBTC #247Bitcoin #BTC https://247btc.net/ethereum-price-technical-analysis-ethusd-slowly-grinds-lower… #…,0,0,0,False
543,Faith Emmanuel@residualbitcoin,#ethereum Price Technical Analysis – ETH/USD Slowly Grinds Lower #BitcoinNews #BTCNews #NewsBTC #247Bitcoin #BTC http://bitcoinagile.com/ABA05B/ethereum-price-technical-analysis-ethusd-slowly-grinds-lower_stream… #…,0,0,0,False
544,Faith Emmanuel@residualbitcoin,#ethereum Price Technical Analysis  ETH/USD Slowly Grinds Lower - NEWSBTC #ethereumtrade http://bitcoinagile.com/ABA04D/ethereum-price-technical-analysis-ethusd-slowly-grinds-lower-newsbtc_stream…  …,1,2,0,False
545,BitcoinAgile@bitcoinagile,#ethereum Price Technical Analysis – ETH/USD Slowly Grinds Lower #BitcoinNews #BTCNews #NewsBTC #247Bitcoin #BTC https://247btc.net/ethereum-price-technical-analysis-ethusd-slowly-grinds-lower…,1,0,0,False
546,CryptoNewswire @CryptoNewswire,"Ethereum Price Technical Analysis ETH/USD Slowly Grinds Lower - http://newsbtc.com/2017/01/25/ethereum-price-technical-analysis-ethusd-slowly-grinds-lower/… $ETH #bitcoin #markets #cryptocurrencyEthereum Price Technical Analysis – ETH/USD Slowly Grinds LowerEthereum price remained a slow and steady downtrend against the US Dollar. More losses are likely in ETH/USD, as long as price is below $10.50.newsbtc.com",0,0,0,False
547,Blockgeeks@Blockgks,Smart Contracts: The #Blockchain Technology That Will Replace Lawyers http://dld.bz/eYNat #ethereum,2,0,0,False
548,BitcoinAgile@bitcoinagile,#ethereum Price Technical Analysis  ETH/USD Slowly Grinds Lower - NEWSBTC #ethereumtrade http://bitcoinagile.com/ABA04D/ethereum-price-technical-analysis-ethusd-slowly-grinds-lower-newsbtc_stream…,1,0,0,False
549,Coinstats@coinstats,"Ethereum Classic - ETC
Price: $1.36586
Change in 1h: +0.03%
Market cap: $120454734.0
Ranking: 6
#Ethereum Classic #ETC",0,0,0,False
550,Bobe'bot@Bobe_bot,"1 #BTC = 920.0504 #CHF
1 #ETH = 11.1226 #CHF
1 #DOGE = 0.00020676019 #CHF
sources: @cryptonatorcom @hellobity",0,0,0,False
551,Coinstats@coinstats,"Ethereum - ETH
Price: $10.5878
Change in 1h: +0.05%
Market cap: $934128919.0
Ranking: 2
#Ethereum #ETH",0,0,0,False
552,daddybios@daddybios,"#Qtum a blockchain project that aims to maintain compatibility
with existing processes from #Bitcoin and #Ethereum, has raised
$1 million.",1,1,0,False
553,/r/Ethereum@r_Ethereum,Cuda error 11 How to fix #EthereumCuda error 11 How to fixlog: Setting DAG epoch #101... Setting DAG epoch #101 for GPU #0 Create GPU buffer for GPU #0 CUDA error - cannot allocate big buffer for DAG....reddit.com,0,0,0,False
554,AnaX Coin@AnaXCoin,"FloatCOIN Seed Nodes are up!

#bitcoin
#altcoin
#ethereum
#cryptocurrency
#floatcoin​ @… https://instagram.com/p/BPrIMj1AF28/",1,2,0,False
555,Classic Ether@classicether,"Replying to @carloo_v and @iohk_carlovetcAs @IOHK_Charles sides with $ETH against branding of @EthereumTrust, + friends now with Buterin, why should ETC trust IOHK?",4,0,0,False
556,AnaX Coin@AnaXCoin,"Just finished out live stream on live.me

#bitcoin
#altcoin
#ethereum
#cryptocurrency… https://instagram.com/p/BPrGSjBlens/",0,0,0,False
557,Brave New Coin@bravenewcoin,#Ethereum Price: USD $10.69 $ETH http://ow.ly/6UKf3048WBe,1,0,0,False
558,Coinstats@coinstats,"Ethereum Classic - ETC
Price: $1.36478
Change in 1h: +-0.39%
Market cap: $120357725.0
Ranking: 6
#Ethereum Classic #ETC",0,0,0,False
559,Coinstats@coinstats,"Ethereum - ETH
Price: $10.5804
Change in 1h: +-0.15%
Market cap: $933463321.0
Ranking: 2
#Ethereum #ETH",0,0,0,False
