,user,text,likes,retweets,replies,is_thread
0,𝐂𝐫𝐲𝐩𝐭𝐨 𝐁𝐫𝐨𝐬𝐧𝐚𝐧@CryptoBrosnan,"An example of a Medium Risk #Portfolio #Diversification .

#Bitcoin #Altcoins #Fiat #ICOs $BTC $ETH $LTC $REBL $ALQO $POE $AMB $LEND $DRGN",6,3,0,False
1,Knowledge@KNWtoken,"We have passed 3,000 members in our official Telegram group! We are  proud to have such a wonderful, enthusiastic community. To speak directly with the #KNWtoken team visit our Telegram and join the conversation: https://t.me/Knowledgeio
#knowledge #telegram #ethereum #icoKNW token - Official Telegram Chat for Knowledge.io - Copyright 2018Official Telegram Chat for Knowledge.iot.me",163,182,3,False
2,Oscar Madrid@Madrid123Oscar,"These cryptocurrency ‘forks’ could beat price rise of Bitcoin, Ethereum, Litecoin and Ripple   #cryptocurrency #blockchain #bitcointalk #investing #cryptocurrencynews #newapp #mobilegames #ethereum #bitcoin #litecoin #ripple #xrp #ltc #eth #btc #ICOalertThese cryptocurrency 'forks' could beat Bitcoin and make a lot of people richProcess which makes new virtual currencies could also create a lot of wealthmetro.co.uk",3,0,0,False
3,中島明紀@VoicePing@atyenori,"I just completed #CryptoZombies Lesson 2! My zombie ate some #CryptoKitties, and I learned more about #Ethereum development. Watch my zombie battle more CryptoKitties: https://share.cryptozombies.io/en/lesson/2/share/fsaff?id=Z2l0aHVifDc1MTA5NzQ=…",2,0,0,False
4,Jacky Yu@jacky_yu23,Someone gave me $ETH as a gift and I just exchanged it for some more $LTC. #SorryNotSorry #Litecoin #Ethereum #PayWithLitecoin #CryptocurrencyGIF,7,3,1,False
5,Pete@Pete_cryptofan,"NEW FREE GIVEAWAY!

I will give 3000 $TRX to a lucky winner on March 5!

FOLLOW AND RETWEET for a chance to win!

#TRON $BTC $XLM $ADA $BCC $NXT $ETC $GNT $XEM $RDD $EDG $DOGE $ARK $IOP $IOTA $EOS $BTS $REQ $GNT $QSP $ARK $RDD $XRP $XVG $ETH $ETC $SUB $SWT $MYB $BLOCK $WTC $ZCL",107,177,230,False
6,CryptoLovers@onlinebiz_2017,"#XTR #ICO #XATRA #Blockchain #Coin # BTC # Bitcoin #ETH #Ethereum
 DON’T LOSE YOUR CHANCE 
2017 was the year of growth of the cryptocurrency market
 https://xatra.io",0,0,0,False
7,Parabolic@Meraki44,Folks... $500Billion industry and Ripple is already working with companies who control over 25%!!  Think about it!!!  #BULLISH #XRP #xrpthestandard #xrparmy @xrptips #RIPPLE #Ripplenews #BTC #Coinbase #bitoasis #zebpay #HODLgang #China #korean #India #Japan #cryptocurrency #ETH,209,130,12,False
8,Ethan Pines@EthanPines,"@brockpierce, shot for @Forbes #cryptocurrency list. We had a fascinating talk. #cryptocurrency #bitcoin #ethereum #blockchain #entrepreneur",44,5,8,False
9,CoinFree@everflyinthesky,"#ENRT
Get EnergyToken, free Airdrop. Join now http://tokenenergy.net/?invite=4462 and earn 100 free #EergyTokens. Bring a friend and get +50 EnergyTokens.

#BTC #XRP #EOS #TRX #ADA #XVG #ETH #XLM #GTO #NEO #LTC #XRB #RIPPLE #VERGE",1,0,0,True
10,Sachin Lulla@SachinLulla,"#Blockchain Unleashed: Hello world! https://ibm.com/blogs/blockchain/2016/10/blockchain-unleashed-hello-world/… #Bitcoin #Ethereum #Cryptocurrency #Altcoins #Crypto #CryptoCurrencies #Cryptorevolution #Cryptos #IoT #IIoT #AI #InternetOfThings #ArtificialIntelligence #BigData #IndustrialIoT #MachineLearning #DeepLearning #StrategyBlockchain Unleased Blog: Hello World!The Blockchain Unleashed Blog provides news, interviews, conversations, stories and opinions from the blockchain community — inside and outside of IBM.ibm.com",5,13,0,False
11,Ivan Mushketyk@mushketyk,"I understand the power of smart contracts on a #Blockchain, but are projects like a Twitter on #Ethereum truly viable? Will people pay Ether to post tweets or create accounts?",1,0,0,False
12,Ary Rosado@aryrosadoseo,What Are Cryptokitties? Crash Course https://buff.ly/2D0osKW #Ethereum #Blockchain,1,0,0,False
13,Dr. $hitcoin@shitcoinexpert,"#airdropalert

Receive $100 worth of tokens from PriorityEx!
Register here http://goo.gl/JGDTKQ

**PriorityEx is the first cryptocurrency trading exchange that prioritizes the customer’s first approach. #free #crypto #airdrops #airdrop #cryptocurrency #ico #freetokens #ETH",3,2,0,False
14,Zloadr@zloadr,"#Iran Announces Plans for #Cryptocurrency

The Iranian Ministry of #Information and #Communications has announced that there are plans to develop cryptocurrency platforms. The #government minister who leads....

http://bit.ly/2EMV8LV
#zloadr #ripple #Ethereum #IOTA #blockchain",85,92,1,False
15,Betrium Bets ICO@betriumBets,"Would you like to know more about Betrium? Why not chat to one of our team on Telegram: https://t.me/betriumChat
#betrium #ico #tokensale #bitcoin #ethereum",120,113,2,False
16,Crypto-Fascist@CryptoFascista,What is @DeepOnionx DeepSend feature ? Here is an extract of DeepOnion whitepaper so you can understand how perfectly it completes native integration into the TOR network for privacy : #Crypto #Monero #ZEC #XMR #Privacy #TOR #XVG #Bitcoin #ETH #BTC #XRP #NANO #NEO #LTC #XRP #ADA,5,1,0,False
17,Schneider@Schneider_GfX,After #VoteCentral development is done @Deeponionx members will have their say in all decisions regarding the project future #blockchain #nano #deeponion #verge #xvg #spectrecoin #xspec #zoin #zoi #tron #trx #ripple #xrp #bitcoin #btc #ethereum #altcoins #dash #xrb #cardano #pivx,10,2,0,False
18,Hurify@Hurify_hur,"#Hurify onboards Smart Factory - Kunshan as its client. Smart Factory - Kunshan aims to build Industry 4.0 platform in Kunshan City, China. #Crypto #Cryptocurrency #Ethereum .Jul. 2017 Smart Factory KunshanGerman-Chinese demonstration center Industry 4.0 in Kunshan on the way July 2017 Startup Factory (Kunshan) Co., Ltd. and Kunshan City have announced at the Kunshan Import Expo that they will jointly...startupfactory-china.de",8,25,2,False
19,ODEM@ODEM_IO,Imagine bundling solutions to higher #education’s greatest challenges into a single platform... http://ed.gr/n9aj #edtech #Ethereum #blockchainBlockchain Spurs Collaboration in Educational CommunitiesImagine bundling solutions to higher education’s greatest challenges into a single platform.medium.com,42,44,1,False
20,Dario@SauvignonBlancD,"We're thinking about pushing Mimic on blockchain. What do you think?
#mimic #blockchain #crypto #ethereum #cryptocurrency #ethereum #bitcoin #bitcointalk",2,1,0,False
21,Bitcoin Price@coinpricenow,"1 Bitcoin ( #BTC )
Dollar: 10,178.54$ 

1 Bitcoin Cash ( #BCH )
Dollar: 1,258.90$ 

1 Ethereum ( #ETH )
Dollar: 856.57$ 

1 Ripple ( #XRP )
Dollar: 0.95284$ 

Date: 23 Feb 2018 23:9

#Bitcoin #Ethereum #cryptocurrency #crypto #altcoin #Blockchain #Ripple",0,0,0,False
22,ZupplyToken@ZupplyICO,"finally the moment has arrived ... we declare officially open our #PreICO #TokenSale ! Buy your #tokens on https://zupply.net
| 7 days -50% OFF | Catch the moment !!
#ZUP $ZUP #ICO #ICOs #cryptocurrency #Crypto #Cryptos #cryptocurrencies #altcoins #Airdrop #bitcoin #ethereum",100,108,12,False
23,Vamshi @idohodl,"Our first #Dapp @memeschain is on @producthunt - You can register and prove your ownership of memes anywhere in this universe :D using #Ethereum #Blockchain https://producthunt.com/posts/memeschain…
Let us know your feedback & help us spread the word.MemesChain - Own & monetize your memes, with the power of Blockchain & AI | Product HuntMemesChain is a platform that helps you own and monetise  your most creative memes, using the power of blockchain and AI.  from your memes either by meme auction or ads.  The single truth...producthunt.com",4,1,0,False
24,Antonio Figueiredo@afigueiredo,"Enterprise Ethereum Alliance: a #blockchain challenger! http://bit.ly/2EB3CSl via @Finextra #EthereumEnterprise Ethereum Alliance: a blockchain challenger!Early May, the Indian IT services and consulting powerhouse Wipro, announced it had joined the Enter...finextra.com",2,0,0,False
25,Justin Wu $LUNA  $KSM@hackapreneur,"Ubisoft Eyes Digital Collectibles On Blockchain
 https://ethnews.com/ubisoft-eyes-digital-collectibles-on-blockchain…
#bitcoin #crypto #blockchain #ethereum",64,19,2,False
26,Venture Capitalist | Filmmaker | Coder | Fashion@romanerobbcom,The Romane Robb Show: https://soundcloud.com/recradio/the-romane-robb-show-s1ep4-brian-h-robb-stocks-and-crypto… @brianhrobb @robbcapital #stocks #cryptocurrency #cryptocurrency @RobinhoodApp #robinhoodapp #money #finance #podcast #robbradionetwork#ltc #eth #btc #bitcoin @SatoshiLite #brainrobb #robbcapital #business #robbradio #podcasting #trx,4,4,0,False
27,Hodlshark@HodlShark,If you only do one thing this weekend check out #deedcoin https://deedcoinlaunch.com #deedcoin #bitcoin #etherium #XVG #LTC #BTC #icx #xrp #blockchain #litecoin #Litepay #tron #trx #RDD #Ethereum #Eth #cryptocurrency #crypto #RealEstate #IOTA #ripple #xvg #pac,4,0,0,False
28,wizkid@wizkid998,"#YGGDRASH - multi dimensional blockchains with a vision to digitize everything into reality.

$BTC $ETH $ICX",9,2,2,False
29,タイクツマッカートニー（ブログ更新用）@BuSuke5,"#TheAbyss has dual currency options whereby all operations can be conducted in fiat money and the platform's own ABYSS tokens.
Join #ico now http://theabyss.com/invite/w73ymt
#ico #blockchain #cryptocurrency #altcoin #ethereum #bitcoin",0,0,0,False
30,Budbo@BudboApp,"""Much like what is happening in the conventional supply chain industry, Budbo is using the #blockchain to bring a level of transparency to #cannabis that was impossible a few years ago.""
https://coinspeaker.com/2018/02/14/making-legal-cannabis-transparent-blockchain-technology/… #cryptocurrency #tokensale #bitcoin #ethereum #ico",21,19,0,False
31,Airdrop List@airdropnewlist,"New #Airdrop  ### Exclusive #SynapseAI  Airdrop  ###

Synapse team is distributing 100 free #SYN tokens to the community for a simple sign up on their website.

1. Sign up : https://tokensale.synapse.ai/r/26105
2. Confirm your email

#Airdrop #cryptocurrency #ethereum #token #SynapseAI",4,2,0,False
32,Crypto India News@CryptoIndiaNews,"New Indian exchange @WazirXIndia will start trading this March,
Signup now and complete KYC and get free 100Wazir coins

https://wazirx.com/#/invite/6uama
#Crypto #Bitcoin #btc #Litecoin #Airdrop #trading #ripple #trx #EthereumBuy Bitcoin, Cryptocurrency at India’s Largest Exchange | Trading Platform | WazirXWazirX is India's most trusted Bitcoin and cryptocurrency exchange & trading platform. Buy, Sell & Trade BTC, XRP, ETH, TRX, and 100+ cryptocurrencies in India at best prices. Start trading Now!wazirx.com",5,3,0,False
33,Ethereum Bank Transactions EBTS@EtherBTS,"We've got a whole stack of exciting news releases coming your way in the future. And if you'd like to be the first users in on the action, make sure you join our official announcement channel on #Telegram:https://t.me
/EBTSNetwork
#ebts #blockchain #ETH #ICO",15,4,1,True
34,Brock Perko@brockperko,"Do great research, place your bets, and take a longer outlook on your portfolio. You will increase confidence and reduce anxiety. If I learned anything in 2017, it is to never FOMO into a runner, trade less, and invest in infrastructures of the future. #Blockchain #BTC #ETH #VEN",1,0,0,False
35,Crypto Briefing@Crypto_Briefing,We took three #blockchain projects and made some predictions for 2018. Will #Bitcoin continue to dominate the #crypto scene? Will #Ethereum scale (#onchain or #offchain) and lead the market cap charts? Or will #NEO emerge as suggested? https://crypp.to/ETH2018,2,0,0,False
36,MrTechie - The Crypto Challenge@TheCryptoChall,"Live Now The Crypto Challenge - Day 23 - Buy Buy Buy, but watch your back! Also, just in case you missed it, we are doing **Mind Week** this week https://youtu.be/KzAsGnUQ8xY - 6 Months to turn $1.5k into $250k #thecryptochallenge #cryptocurrency #Crypto #ETH #BTC",2,1,0,False
37,coinOK@coinok,Order your secure and smart BTC/ETH/Altcoin hardware wallet - Only 94.80 EUR https://ledgerwallet.com/r/4518?path=/products/ledger-nano-s… #bitcoin #btc #eth #altcoin 18:17,1,0,0,False
38,We Babel@We_Babel,"Looks like #Twitter may be doing some clean up regarding spam and scams. This is great news for the $crypto community. Lot's of people losing money to scam accounts asking you to send $ETH and get double back.. that's not how things work... Don't fall for it, stay safe! #BitcoinQuote Tweetjack@jack · Feb 23, 2018Replying to @neuwaves and @VitalikButerinThe team is on this",2,2,0,False
39,Mobilum@xcardbymobilum,"Pay anywhere, with any digital currency, using any payment card. #Mobilum
#PreICO in THREE days! Visit http://Mobilum.com to learn more. #bitcoin #dash #ethereum #cryptocurrency",9,3,0,False
40,Brad Smith@thebradsmith,"Artist @TarynSouthern talks #Blockchain for music production on @Cheddar: “We have 350 owners of the token collaborating on the song using AI and all receive a portion of the royalties using ethereum smart contracts.”  Never said this before, but #YaasQueen. $ETH #CheddarLIVE",12,4,0,False
41,Anirudh Jonnalagadda@ajonnala1,AMD RX580 Making over 32MH/s Stable. Find out how to DIY in about 5 minutes - https://youtu.be/gEZiv5tkT5U  Works for RX470/480/570/580 #Mining #ETH #ethereum #diy #megahash #bios #xrp #ripple #btc #ltc #monero #zcash #iota #rdd #xvg #verge #claymore #dualmining #money #FreeMoney #neo,5,3,0,False
42,Vella (Real account from April 2016)@cryptotrader85,"$LUN is up 113% 

More good news with #Lunyr & that is that it will be added to https://coinswitch.co 

Like I have always said #LUN is a solid long term hold.

$ETH $BTC #ETHEREUM #ETH #Bitcoin #Token #Crypto #Blockchain #Dapps",3,1,2,False
43,Salih SARIKAYA@SalihSarikaya,"13,000 Coinbase users received notice from #Coinbase today, that their account is one of the 13,000 that they will have to turn over to the #IRS under the court order.
#Bitcoin #BTC #ETH 
RT @aantonop",15,9,1,False
44,Land of Crypto@landofcrypto,"Game Changing Payment Method for Adult Entertainment Industry, Eroiy to Start
https://coinidol.com/eroiy-to-start-in-adult-entertainment-industry/…
#ETH #EROIY #BTC #ICO #Crowdsale 

All details related to Eroiy’s crowdfunding initiatives are now available at https://eroiy.io",2,2,0,False
45,Jahn Khan@J4hnKh4n,"Checkout the #Paysura #iOS   Application design. 
Join the ICO on march 3rd. Register for whitelist.
http://paysura.com
#ethereum #ICO #blockchain #BINANCE #Kraken #CoinbaseQuote TweetCrypto Inkie@contestsinkie · Feb 22, 2018#PAYSURA’s first App Design is finished. Great things are going on in the background! Stay tuned! https://twitter.com/PAYSURA_IPC/status/965947858204622850…",6,2,0,False
46,Business Minds Today@BMToday,"""One of the funny things about the market is that every time one person BUYS, another SELLS, and both think they are ASTUTE."" - William Feather

#Markets #Stocks #Bitcoin #Blockchain #ETH #LTC #Altcoins #ICOs #CryptoCurrency #BCH #EOS #Ethereum #XRP #Dash #XMR #Neo #Nem #BTCAgree100%Disagree0%20 votes·Final results",6,4,0,False
47,Vella (Real account from April 2016)@cryptotrader85,"$COV is holding its spot in the top 5 gainers!

Great project with a long term future! 

Thanks once again to @tehMoonwalker for sharing this project with me. Be sure to give him a follow!

#Covesting #COV #Ethereum #ETH #Token",7,3,0,False
48,Bitsbetrippin@BitsBeTrippin,Ok may have went a bit overboard ....  @sony #bitcoin #litecoin #ethereum #BTC #etc #cryptocurrency a6500 4K setup @rodemics #CryptoCurrencies #blockchain livestream later tonight covering use cases and architecture around Blockchain tech 9pm cst,29,1,8,False
49,GameTheory Racing@Gametheoryrace,"LADIES AND GENTLEMENN!! Take a read over the official take always from the second #KIN AMA with @ted_livingston. Very similar to my commentary. There are a very exciting few months ahead of us. #KINgang get pumped. $BTC $ETH $XRP time to diversify!Quote TweetKin Ecosystem@Kin_Ecosystem · Feb 22, 2018ICYMI: The biggest takeaways from our second AMA with @ted_livingston: https://medium.com/kinfoundation/kin-q-a-with-ted-takeaways-from-our-second-ama-2-20-18-98239f1ac57f…",22,11,1,False
50,B ONE PAYMENT |Crypto Wallet Weekly Crypto Gems @WALLETB1P,"ICO - OVERVIEW

You can buy our #ICO with:
#litecoin - #verge - #bitcoin #bitcoincash #digibyte #ethereum
https://bitcoinone.io/ico

Whitepaper
https://bitcoinone.io/whitepaper
#ico
#icos
#icosale
#icoproject
#icofunding
#bitcoinnews
#token
#tokensale
#btc
@icoalerts777
@consultio_now",7,6,1,False
51,EthCC - Ethereum Community Conference@EthCC,#EthCC @HughKarp  from @nexusmutual will talk about Insurance for smartcontract! Join us in Paris at http://ethcc.io #ethereum #blockchain,2,2,0,False
52,Crypto Ken@cryptokencan,"First episode of Crypto Weekly. This week we discuss Petra, Tether, Aliens, Big 426 financial firms, find out what bags @crypto_beak is holding and more. GET HYPED #cryptoweekly #crypto #cryptocurrency #ethereum #ethorse #bitcoinQuote TweetCrypto Beak@crypto_beak · Feb 23, 2018LADS THE BEAK DADDY IS ONLY ON ITUNES. CHECK OUT CRYPTOWEEKLY PODCAST RIGHT HERE RIGHT FUCKING NOW WITH MY MATES @cryptokencan AND BIG GEORDIE P. https://itunes.apple.com/gb/podcast/crypto-weekly/id1351749137?mt=2…",4,3,0,False
53,Afshine Emrani  MD FACC@afshineemrani,"Important! This guys gets #cryptocurrency #Crypto #cryptotrading Listen to him.  #cryptocurrencies #bitcoin #BitcoinCash #ether #ETHEREUM #XRP #ripple #Litecoin #EOS #eos_로그 #Vergecurrency #VergeCoin #STELLAR #DashQuote TweetBloomberg@business · Feb 22, 2018Bitwise executive calls Bitcoin a multitrillion-dollar opportunity https://bloom.bg/2CBnsei",6,4,0,False
55,Omar Bham (Crypt0)@crypt0snews,"It's finally here- My 2018 Anarchapulco VLOGumentary :D I've been very excited to put this together for you guys, and hope you enjoy taking the journey with those of us who made it out. Till next year! https://youtube.com/watch?v=Xtid1Br3HeI… #anarchapulco #cryptocurrency #bitcoin #ethereum #vlogThe Official Crypt0's Anarchapulco 2018 VLOGumentary (SO MUCH... 𝙏𝙝𝙖𝙣𝙠 𝙔𝙤𝙪 𝙁𝙤𝙧 𝙒𝙖𝙩𝙘𝙝𝙞𝙣𝙜!  Remember to subscribe and hit the bell """" icon, so you don't miss your daily cryptocurrency news!-~-~~-~~~...youtube.com",46,11,5,False
56,Omar Bham (Crypt0)@crypt0snews,"The Crypto Show Acapulco 2018 with Luke Rudkowski, World Alternative Media, & The Arcane Bear https://steemit.com/steemit/@crypt0/the-crypto-show-acapulco-2018-with-luke-rudkowski-world-alternative-media-and-the-arcane-bear… #bitcoin #ethereum #steemit #cryptocurrency #blockchain #news @WeAreChangeNYC @thearcanebear @TheCryptoShow @DashpayThe Crypto Show Acapulco 2018 with Luke Rudkowski, World Alternative Media, & The Arcane Bear —...by crypt0steemit.com",15,4,0,False
57,Dopameme@Dopameme_io,"We’re ready to launch our whitelist registration, you can earn $DMT by follow us and fill up the registration form #FunSideOfBlockchain #Blockchain $ETH",3,1,0,False
58,The Hiitman @CryptoHiitman,"Doing a random giveaway of 1 $ETH
To enter Follow, Retweet, and Describe your worst trading habit in the Comments.  #BTCUSD #ethereum #ETC #cryptotwitter #cryptotrading #Giveaway",12,15,16,True
59,Polis Blockchain@PolisBlockchain,https://facebook.com/polisblockchain/posts/780418772153458… Friday Newsletter with a special shout-out to a Polis Community Member $polis $btc $eth #polis #cryptocurrencies #hodl #thinkdecentral,9,1,1,False
60,Tezicorn ꜩ@TezicornTEZ,"Replying to @alanizBTCIndeed. After #BTC and #ETH, please everyone, don't miss the train this time :)",2,1,0,False
61,Crypto Coin Show@CryptoCoinShow,"Watch this weeks $CRYPTO Twitter recap with @jessecouch. Best time to look at the charts is when the market is red, what did he pick? #ETH #BTC #XEL #VEE$CRYPTO Twitter Recap w/ Jesse Couch crypto-2018-02-22$VEE no bittrex listing pump. Tough times in $crypto lately with no cryptocurrencies doing well.$POT regains top mcap after a lengthy 3 month run at the top ...youtube.com",4,2,0,False
62,Andres Vilariño@andresvilarino,"#SmartContracts: The #BlockchainTechnology That Will Replace Lawyers VIA @blockgks
@glwebeu @antgrasso @kuriharan @reach2ratan
#trust #blockchain #ledger #cryptocurrencies #ethereum #ProofOfStake #Blockchain
http://buff.ly/2Ca0hvKQuote TweetGiuliano Liguori@ingliguori · Feb 22, 2018#SmartContracts: The #BlockchainTechnology That Will Replace Lawyers VIA @blockgks
@glwebeu @antgrasso @kuriharan @reach2ratan
#trust #blockchain #ledger #cryptocurrencies #ethereum #ProofOfStake
https://buff.ly/2Ca0hvK",5,1,0,False
63,Smiley@PrzemekBoratys1,"$btc 10400-10500 long, close 11200 -12k  if not shorts 9800-9500
$ltc $lsk $etc $eth $zcl $omg",0,0,0,False
64,I'm Justin Dart...@Justin_Dart,"What is the cast of &#8216;The Office&#8217; doing now? https://mashable.com/2018/02/21/where-is-office-cast/… #Bitcoin
#Bitcoin
#BitcoinCash #Ethereum
#LitecoinWhat is the cast of ‘The Office’ doing now?Are the Dundies still going on?mashable.com",0,0,0,False
65,Bitintruder.com@bitintruder,"For Banks, This Volatility Is Too Much http://rviv.ly/ly8VeT #bitcoin #ethereum #bitcoinprice #cryptocurrency",0,0,0,False
66,Conor@CryptoConor,"ICO ALERT! If you invest in just 1 ICO in 2018, it's gotta be this one! 

--> http://bit.ly/ICO-Dorado
$WAVES 6.77031$ $SOAR $GAME $EMV $GXS $EDG $BLUE $PART $SPANK $OMG $IOC $XRB $EOS $ENJ $UKG $MER $VIB $NLG $DOPE $SNGLS $ETH $VIA $PURA $ALIS $NEBL $TX",0,0,0,False
67,WorldCoinIndex@WorldCoinIndex,Cryptocurrencies $ETH $LTC $DASH $XMR $ZCASH https://worldcoinindex.com,0,0,0,False
68,polan@Evans2907,"http://AltcoinExchange.com! BUILT FOR TRADERS, BY TRADERS! #crypto #ethereum #altcoins #bitcoin #btc #cryptocurrency https://altcoin.io/?kid=MA2BX",0,0,0,False
69,Сергей Мурзин@sergeimurzin191,"#PhnxToken pre-registration has started. Join now and get your free 300 tokens. 
https://phnxtoken.com/?r=66749#register… Share your ref link and win 100 more tokens for each member you refer. This offer valid for a short time. So be quick! 
#Airdrop #BTC #XRP #TRX #ADA #XVG #ETH #XLM #BINANCE",0,0,0,False
72,Rajeeb Kc@VDFGroup,"#ENRT
Get EnergyToken, free Airdrop. Join now http://tokenenergy.net/?invite=4527 and earn 100 free #EergyTokens. Bring a friend and get +50 EnergyTokens.

#BTC #XRP #EOS #TRX #ADA #XVG #ETH #XLM #GTO #NEO #LTC #XRB #RIPPLE #VERGE",0,0,0,False
73,Crypto Airdrops Alert@AirdropsCryptos,"Get 15 $GX, join the #Airdrop:
1) Go to https://goo.gl/e1qBZ7
2) Sign up with your Email
#CrytoCurrency #GX #GXAlliance #Gamex #ETH #token #ERC20",0,0,0,False
74,XiXi_CuTe@Lekhanhvupro,"#PhnxToken pre-registration has started. Join now and get your free 300 tokens. 
https://phnxtoken.com/?r=66766#register… Share your ref link and win 100 more tokens for each member you refer. This offer valid for a short time. So be quick! 
#Airdrop #BTC #XRP #TRX #ADA #XVG #ETH #XLM #BINANCE",1,0,0,False
76,polan@Evans2907,http://Altcoin.io - Decentralized Cryptocurrency Exchange - #bitcoin #ethereum #crypto #altcoins Sign up for early access: https://altcoin.io/?kid=MA2BX,0,0,0,False
77,Yassine Mostakim@YassineMostaki1,"#ENRT
Get EnergyToken, free Airdrop. Join now http://tokenenergy.net/?invite=4544 and earn 100 free #EergyTokens. Bring a friend and get +50 EnergyTokens.

#BTC #XRP #EOS #TRX #ADA #XVG #ETH #XLM #GTO #NEO #LTC #XRB #RIPPLE #VERGE",0,0,0,False
78,polan@Evans2907,"http://AltcoinExchange.com! BUILT FOR TRADERS, BY TRADERS! #crypto #ethereum #altcoins #bitcoin #btc #cryptocurrency https://altcoin.io/?kid=M9H36",0,0,0,False
79,Ozzmak@Ozzmak,@CarolineLundSF Caroline Lund – Move Your Body http://mi2n.com/press.php3?press_nb=193161… @leofrappier #dj #dancemusic #newmusicalert   Join The eCoinNetwork. Learn all about #cryptocurency https://ozzmak.ecoinnetwork.com #ecoin #Bitcoin #ecoinnetwork #ethereum #tron #binace,1,0,0,False
80,Coin Spectator - Real-time cryptocurrency news@coinspectator,Bitcoin Debate: Warren Buffett Bear Vs. Winklevoss Twins Bull #eth #altcoins #ico https://coinspectator.com/news/294797/bitcoin-debate-warren-buffett-bear-vs-winklevoss-twins-bull…,0,0,0,False
81,Sarah Janet@sarahjanettweet,"don't miss out on registering on Binance, before they close registrations again

 https://binance.com/?ref=22686820
$BTC $ZCL $ETH $ETC $BCH $LTC $XRP $DASH $BTG $XLM $XMR $ZEC $ADA $SNT $NEO $NXT $OMG $POWR $VTC $VOX $XEM $LSK $DGB $DOGE $COVAL $XVG $GRS $AMP $strat $sc $XRB $NAV  48187",0,0,0,False
82,Ozzmak@Ozzmak,Real Time Promotions to Real Fans  http://musicartistnewspromotion.com http://ozzmaknews.com #promotions #exposure #ozzmak #news #RT Join The eCoinNetwork. Learn all about #cryptocurency https://ozzmak.ecoinnetwork.com #ecoin #Bitcoin #ecoinnetwork #ethereum #tron,1,0,0,False
83,Yevhenii Kholodniak@damisik,"#ENRT
Get EnergyToken, free Airdrop. Join now http://tokenenergy.net/?invite=4541 and earn 100 free #EergyTokens. Bring a friend and get +50 EnergyTokens.

#BTC #XRP #EOS #TRX #ADA #XVG #ETH #XLM #GTO #NEO #LTC #XRB #RIPPLE #VERGE",0,0,0,False
85,QuikNode@QuikNode,"We're thrilled to announce support for #Geth and #Rinkeby today! You can now launch your node in 8 locations on #Ethereum MainNet, Kovan, Ropsten, Classic, Morden, Expanse, and Rinkeby. What should QNode do next?! ",3,4,0,False
86,Chris Jordan@ChrisJordanTwit,"Looking for honest and profitable trading calls, recommendations and advice, join:

http://t.me/CryptoHeatsignals…
$BTC $ETH $ETC $BCH $LTC $XRP $DASH $XLM $XMR $ZEC $ADA $SYS $NEO $LUX $OMG $POWR $VTC $XEM $LSK $DGB $DOGE $XVG $VEN $ICX $ZCL $DRGN $WTC $IC $TRX $QTUM $LSK $ZRX 78880CryptoheatCrypto trading channel specialized in low risk, high reward coin picks and choosing proper entry points. This is not financial advice. You should do your own research afterwards... for contact DM me...t.me",0,0,0,False
87,Igor Nemo@PybukoH,"#ENRT
Get EnergyToken, free Airdrop. Join now http://tokenenergy.net/?invite=4539 and earn 100 free #EergyTokens. Bring a friend and get +50 EnergyTokens.

#BTC #XRP #EOS #TRX #ADA #XVG #ETH #XLM #GTO #NEO #LTC #XRB #RIPPLE #VERGE",0,0,0,False
88,プンプイ@sizukanax,"#PhnxToken pre-registration has started. Join now and get your free 300 tokens. 
https://phnxtoken.com/?r=66724#register… Share your ref link and win 100 more tokens for each member you refer. This offer valid for a short time. So be quick! 
#Airdrop #BTC #XRP #TRX #ADA #XVG #ETH #XLM #BINANCE",0,0,0,False
89,Jos Koni@KoniJos,"#PhnxToken pre-registration has started. Join now and get your free 300 tokens. 
https://phnxtoken.com/?r=66691#register… Share your ref link and win 100 more tokens for each member you refer. This offer valid for a short time. So be quick! 
#Airdrop #BTC #XRP #TRX #ADA #XVG #ETH #XLM #BINANCE",1,1,0,False
90,Andrei Lefebvre@the_yoeman,"Bank of America Telegraphs How Terrified the Globalists are of the Cryptocurrencies -- Total Fear of Losing Control Over the World's Money
http://wildnews.us/6Cryptocurrency.html… #cryptocurrency #Bitcoin #BitcoinCash #Ethereum... https://gab.ai/AndreiTheYoeman/posts/20394309…",0,0,0,False
91,Den Vichi@DenVichi,I will be happy to see the tremendous success that you will soon have! #Miralab #ICO #mira #eth #cryptocurrency,0,0,0,False
92,Crypto by Devvie@devnullius,"#Gamified #eLearning: levels, points, rewards and more are all used to boost engagement and motivation of students! JOIN NOW https://bitschool.io/#token-sale
#bitcoin #altcoin #ethereum #crypto #ICO #education #elearning #bitschool #AI #bitschoolAI #adaptive #education #bonus",1,0,0,False
93,Zeto Lane@zetolane,"Free trading signals. Join now:

http://t.me/CryptoWhalesClub…
$FLO $GNT $GUP $BTA $IOP $LBC $LMC $MUE $EBST $BNT $NEOS $NMR $PART $QRL $BCC $RISE $SHIFT $TRST $AEON $BCY $BRK $GBYTE $CPC $CVC $TRIG $SNT $DRACO $DAR $DGB $DOGE $EFL $ETH $VIA $FCT
65854893554CryptoWhalesClub - Trading Signals & Alerts“Money may not buy happiness, but I'd rather cry in a Jaguar than on a bus” - Trading signals - Only middle & short term - Day trading based on TA, news and momentum Contact @TomassoCryptot.me",0,0,0,False
94,Den Vichi@DenVichi,"I believe will reach the target, never miss to join with this great project. #Miralab #ICO #mira #eth #cryptocurrency",0,0,0,False
95,Douglas Imasuen@ImasuenDouglas,"Nollycoin Airdrop!  Participate  now and get rewarded! Please SHARE
https://docs.google.com/forms/d/e/1FAIpQLSegdr5wkKjTt26Hvo_ZNvrB_FAhPT4F4KfOZ8xGhx97t1_-ZQ/viewform?c=0&w=1…
#Airdrop #nollycoin #BTC #ETH",0,0,0,False
96,Ha Manh Cuong@manhcuong07,"#ENRT
Get EnergyToken, free Airdrop. Join now http://tokenenergy.net/?invite=4529 and earn 100 free #EergyTokens. Bring a friend and get +50 EnergyTokens.

#BTC #XRP #EOS #TRX #ADA #XVG #ETH #XLM #GTO #NEO #LTC #XRB #RIPPLE #VERGE",0,0,0,False
97,Crypto Slimer@CryptoSlimer,"What is your favorite coin/token with a market cap lower than $100M??
#bitcoin #xrp $btc $ltc $xrp $ada $eth $usdt $neo $drgn $wtc $dent $icx $ven $neo $eos $ppt $ecn $plr $gas $part $ecn $btg $wax $link $trx $xvg $etc $dgd $etc $rdd $doge $knc $ada $dash $cnd $smart $zmr $nano",1,5,0,False
98,RTNG Investing@Rules2NightGolf,"waiting patiently $ETH $BTC - hoping for the break upwards in a week, or two... #crypto",0,0,0,False
99,Tony@anmen20,"#ENRT
Get EnergyToken, free Airdrop. Join now http://tokenenergy.net/?invite=4528 and earn 100 free #EergyTokens. Bring a friend and get +50 EnergyTokens.

#BTC #XRP #EOS #TRX #ADA #XVG #ETH #XLM #GTO #NEO #LTC #XRB #RIPPLE #VERGE",0,0,0,False
100,Kevin Osterling@kevin_osterling,"#iota Q is out and ots huge !!!

#iotaq #bitcoin #bcash #monero #dash #ethereum #cardano",1,1,0,False
102,ill_order_the_pa@Forex_trader_4u,"Why not try a different crypto exchange
Check out  http://binance.com/?ref=20966677 #crypto #bitcoin #ripple #Trader #Litecoin #Ethereum #CryptoCurrencies #tradingbroker #plus500 #Ethereum #FreeBitcoin Exchange | Cryptocurrency Exchange | Binancebinance.com",0,0,0,False
103,I'm Justin Dart...@Justin_Dart,"A Token to Regulate All Tokens? Messari to Raise ICO https://coindesk.com/token-regulate-tokens-messari-raise-ico-2018/… #Bitcoin
#Bitcoin
#BitcoinCash #Ethereum
#LitecoinA Token to Regulate All Tokens? Messari to Raise ICO - CoinDeskThe entrepreneur behind Messari shares his vision for how the crypto industry could self-regulate ICOs and forestall a regulatory apocalypse.coindesk.com",0,0,0,False
104,Bitcoin City@city_bitcoin,"A friend owes u $10 wants to give u Bitcoin but u want Ethereum, what do u do?

Our Pos/Swap will convert it for u, No Account Needed, Super Simple, Super Fast

Bitcoin miner fee 0.0001

http://bitcoincitymining.com/pos
#btc #eth #litecoin #ltc #Cryptos #stocks",1,0,0,False
105,Ethereum Bidder@EthereumBidder,Ethereum! Gold Plated Commemorative Coin .999 Fine Copper Physical Coin ETH Bit http://ebay.to/2EPipc3 #ethereum,0,0,0,False
106,Rise New York@ThinkRiseNY,High Stakes: Ethereum's Fight Over Lost Funds Explained @coindesk http://ow.ly/9CS030iAaLW #ETH,0,0,0,False
107,EWTrader@ewftrader,Get our latest #Cryptocurrencies analysis for FREE  http://bit.ly/EWF-CRYPTO #Elliottwave #Bitcoin #Ethereum #Ripple #Litecoin #Dash $BTCUSD $ETHUSD $XRPUSD $DASH #fintech #blockchain #cryptotrading #IOTA #xrp #cryptocurrency,1,0,0,False
108,USSROVER@USSROVER,Check out this Crypto Currency website and answer a question or two let us build up a knowledge base #bitcoin #ether #crypto https://gocryptly.com/gocryptly-forum-questions/…,0,0,0,False
109,fatima@fatima37679343,"#ENRT
Get EnergyToken, free Airdrop. Join now http://tokenenergy.net/?invite=4526 and earn 100 free #EergyTokens. Bring a friend and get +50 EnergyTokens.

#BTC #XRP #EOS #TRX #ADA #XVG #ETH #XLM #GTO #NEO #LTC #XRB #RIPPLE #VERGE",0,0,0,False
110,The Crypto Latino@TheCryptoLatino,"Cryptoinvesting ICO #Crypto #Cryptocurrency #Blockchain #Bitcoin #Ethereum #Investment #FinanceQuote TweetForbes@Forbes · Feb 23, 2018What to look out for before investing in an ICO:",1,0,0,False
111,Ian Beckett@ianbeckett,"Moscow Begins #Ethereum #Crypto #evotingTesting - #elections #cryptocurrencyMoscow Begins Crypto-Elections Testing: Thumbs Nose at U.S.The irony is so thick you'd think it was made from ballistic jelly.  But, that's exactly what's needed to contain this shot across the election-tampering bow the Russians just pulled off. According...tomluongo.me",0,0,0,False
112,john paul del castillo@jhaypee121791,"#ENRT
Get EnergyToken, free Airdrop. Join now http://tokenenergy.net/?invite=4525 and earn 100 free #EergyTokens. Bring a friend and get +50 EnergyTokens.

#BTC #XRP #EOS #TRX #ADA #XVG #ETH #XLM #GTO #NEO #LTC #XRB #RIPPLE #VERGE",0,0,0,False
113,Cryptocurrency Education@thinkandgrowbtc,"(Jackpotting, Cryptocurrency Mining and More) Crypto News Watch - https://cryptonews.watch/jackpotting-cryptocurrency-mining-and-more/…
#cryptocurrency #bitcoin #litecoin #ethereum $ADA $RPX $PPT $XRP",0,0,0,False
114,T.K. Hamed@Tk_Hamed,"Excellent read, on how 100s of millions are being invested into potentially unsecured Copy-paste #ERC20 contracts. https://arxiv.org/pdf/1802.06038.pdf… #ETHEREUM",0,0,0,False
115,CRYPTONEWS.WATCH@crypto_news24,"(Jackpotting, Cryptocurrency Mining and More) Crypto News Watch - https://cryptonews.watch/jackpotting-cryptocurrency-mining-and-more/…
#cryptocurrency #bitcoin #litecoin #ethereum $ADA $RPX $PPT $XRP",0,0,0,False
116,EthCC - Ethereum Community Conference@EthCC,#EthCC @vaughnmck will present @jaak_io  ! Join us in Paris at http://ethcc.io #ethereum #blockchain,0,0,0,False
117,kored@kored01,"pre-sale bonus 35%. Prepare for another opportunity. We offer 20% in the first major ICO phase starting on March 5, 2018.
http://buzzshow.com/tokensale
#Buzzshow #ICO #BTC #ETH #Youtube",1,0,0,False
118,Jimhawkins@UJimhawkins,"Join best Pump&Hold&Sell group !!
PumpToken is planning to create its own token, join now http://pumptoken.org/?r=182268#register… and earn 300 free #PumpToken. 

#BTC #XRP #EOS #TRX #ADA #XVG #ETH #XLM #GTO #NEO #LTC #XRB #RIPPLE #VERGE",0,0,0,False
119,Kevin cao@Kcao86,"#PhnxToken pre-registration has started. Join now and get your free 300 tokens. 
https://phnxtoken.com/?r=66667#register… Share your ref link and win 100 more tokens for each member you refer. This offer valid for a short time. So be quick! 
#Airdrop #BTC #XRP #TRX #ADA #XVG #ETH #XLM #BINANCE",0,0,0,False
120,Uththara Chamara@ChamaraM1991,"PolicyPal Network Insurance for the Cryptoassets
PolicyPal is invested by 500 Startups, Startupbootcamp Fintech and angel investors from private equity firms and family offices.
PayPal
Global Brain ...
Read more details at 
https://policypal.network
#BTC #ETH #PolicyPalnetwork",0,0,0,False
121,I'm Justin Dart...@Justin_Dart,Start today -> https://goo.gl/UoB5wP - #bitcoin #cryptocurrency #ethereum #blockchain #crypto #btc #money #litecoin #ripple #forex #eth #bitcoinnews,0,0,0,False
122,cryptophoria@EvanChevenska,"#Free #Token #Airdrop #ICO #Giveaway #Bounty #Eth #Ethereum #Altcoin #Cryptocurrency #Contest #Blockchain #Affiliate #references

JOIN HERE : https://bit.ly/CCRB-Token",3,1,0,False
123,Zeto Lane@zetolane,"Join now:

http://t.me/CryptoWhalesClub…
$FUN $GNT $GUP $ZEN $KMD $LSK $LUN $XMR $MUSIC $VTR $NEOS $NMR $PART $VTC $BLK $RBY $SEQ $UNO $AMP $BSD $BRK $BYC $CANN $CVC $CFI $XCP $TX $DRACO $DAR $XDN $SYNX $XEL $ETH $VIA $EXP
63227295808CryptoWhalesClub - Trading Signals & Alerts“Money may not buy happiness, but I'd rather cry in a Jaguar than on a bus” - Trading signals - Only middle & short term - Day trading based on TA, news and momentum Contact @TomassoCryptot.me",0,0,0,False
124,HackingCrypto@Hacking_Crypto,"Turkish Lawmaker Proposes National Cryptocurrency #BTC #Ethereum #LTCTurkish Lawmaker Proposes National CryptocurrencyHacking Crypto brings you the latest cryptocurrency market news and articles suggested by the community, manually curated for you.hackingcrypto.com",0,0,0,False
125,ThirdBrainFx@thirdbrainfx,"Check all here --> https://thirdbrainfx.com/crypto.html 
On #Hitbtc #LTC to #BTC -- > 0.02037, volume --> 27586 
On #Bittrex #ETH to #USD -- > 858.55, volume --> 24817 
On #wexnz #LTC to #USD -- > 207.172, volume --> 15031 
On #Exmo #ETH to #USD -- > 887, volume --> 6276",0,0,0,False
126,OpenDataMonkey @OpenDataMonkey,Buy Your #Crypto Currencies On #Binance Crypto Exchange - $ETH $BTC $LTC $XRP #zLx https://goo.gl/6X8xNx via @opendatamonkey,0,0,0,False
127,CoinSignalBot@CoinSignalBot,"5 min #RSI Signals:

$BTC - $NBT: 36.05

$ETC $WAVES $LTC $RISE $NXS $EXCL $ZCL $ARDR $INFX $FUN $EMC $ETH $SHIFT $COVAL $XDN $NEO $CRW",0,0,0,False
128,Zeto Lane@zetolane,"I made 0.25 BTC this week. Join now:

http://t.me/CryptoWhalesClub…
$AEON $BCY $BTS $STORJ $CLAM $CLUB $PAY $TX $DCT $DTB $DGB $DOPE $EMC $ETH $SWT $FTC $FLO $GLD $IOC $BTA $INFX $LBC $XLM $MUE $MYST $RLC $NAV $NMR $PPC $PDC $BCC $RISE $SNGLS $UNB
98139497530CryptoWhalesClub - Trading Signals & Alerts“Money may not buy happiness, but I'd rather cry in a Jaguar than on a bus” - Trading signals - Only middle & short term - Day trading based on TA, news and momentum Contact @TomassoCryptot.me",1,0,0,False
129,Ethereum boi@ether_boi,"The price of $ETH is: $862.588 as of 2018-02-23 23:43:22                                  Market Cap: $84363746511.0
 -(Price from http://CoinCap.io)",0,0,0,False
134,Anthony  $KSM $ETH $MIST $EROWAN@anthony_gerrits,"Only 2 days left on the #debitumnetwork ICO, if it doesn’t sell out before that. Last chance https://debitum.network/?a_aid=gerr18 #ico #eth",1,0,0,False
135,Sidorenko Ivan@sidorenkoivan19,"#ENRT
Get EnergyToken, free Airdrop. Join now http://tokenenergy.net/?invite=4522 and earn 100 free #EergyTokens. Bring a friend and get +50 EnergyTokens.
http://tokenenergy.net
#BTC #XRP #EOS #TRX #ADA #XVG #ETH #XLM #GTO #NEO #LTC #XRB #RIPPLE #VERGE",0,0,0,False
136,Samc@Samc47486359,"#ENRT
Get EnergyToken, free Airdrop. Join now http://tokenenergy.net/?invite=4520 and earn 100 free #EergyTokens. Bring a friend and get +50 EnergyTokens.

#BTC #XRP #EOS #TRX #ADA #XVG #ETH #XLM #GTO #NEO #LTC #XRB #RIPPLE #VERGE",0,0,0,False
137,CB TRADER@claudiodanet,"#PhnxToken pre-registration has started. Join now and get your free 300 tokens. 
https://phnxtoken.com/?r=66648#register… Share your ref link and win 100 more tokens for each member you refer. This offer valid for a short time. So be quick! 
#Airdrop #BTC #XRP #TRX #ADA #XVG #ETH #XLM #BINANCE",0,0,0,False
138,Coin Trading Room@CoinTradingRoom,"The Next Petro? Iranian Minister Reveals Cryptocurrency Plans

https://coindesk.com/next-petro-iranian-minister-reveals-cryptocurrency-plans/…
#cryptocurrency #bitcoin #blockchain #btc #ltc #trading #usd #litecoin #crypto #eth #ethereum #market #monero #xmr #fintech #ICO #altcoin #tokensale #cryptocurrencies #ada #iota #dash #neThe Next Petro? Iranian Minister Reveals Cryptocurrency Plans - CoinDeskIran's central bank is developing a cryptocurrency, though it has no plans to embrace bitcoin.coindesk.com",1,0,0,False
139,Coin Spectator - Real-time cryptocurrency news@coinspectator,"FOE Newsletter Test: Bitcoin Factories, Still-Untouched Beaches and More #btc #eth #ico https://coinspectator.com/news/294790/foe-newsletter-test-bitcoin-factories-still-untouched-beaches-and-more…",0,0,0,False
140,go9ryu@QfWfv9hj2uJXmpK,"#ENRT
Get EnergyToken, free Airdrop. Join now http://tokenenergy.net/?invite=4517 and earn 100 free #EergyTokens. Bring a friend and get +50 EnergyTokens.

#BTC #XRP #EOS #TRX #ADA #XVG #ETH #XLM #GTO #NEO #LTC #XRB #RIPPLE #VERGE",0,0,0,False
141,✞ CoinDevil ✞@CryptoCoinDevil,!! - An #Ethereum Classic Fork Snapshot Is Coming Next Week https://goo.gl/HyEQgK,0,0,0,False
142,DealBox Inc.@DealBoxinc,"Want to know more about bitcoin?
 Learn more at dlbx -
https://dlbx.io
#ethereum #litecoin #ripple #dash #monero #dogecoin #nem #dlbx #nxt #peercoin #potcoin #primecoin #nutbits #coinye #titcoin #omnilayer #crypto #btc #entreprenuer #business #finance #blockchain #income",2,1,1,False
143,jH [1BTC=1BTC] @cryptojekkey," Okey guys, 2 ZCL  give away to random follower (+retweet), if #Bittrex support $ZCL $BTCP Fork. Lets Go! 
$btc $crypto $etc $neo $trx $ltc $ethGIF",18,31,14,False
144,Zeto Lane@zetolane,"Trading signals. Join now:

http://t.me/CryptoWhalesClub…
$FUN $SYS $GOLOS $XZC $INCNT $LSK XMG $MCO $MYST $PINK $NXT $OMNI $PTC $POT $BLITZ $RBY $SHIFT $SPHR $AEON $BSD $BTS $BYC $CANN $CVC $TRIG $TK $CRB $DAR $DGD $DOGE $EFL $ETH $WINGS $FCT
jdfdggbfaefCryptoWhalesClub - Trading Signals & Alerts“Money may not buy happiness, but I'd rather cry in a Jaguar than on a bus” - Trading signals - Only middle & short term - Day trading based on TA, news and momentum Contact @TomassoCryptot.me",2,0,0,False
145,Angel_Deed@xxAngel_Darkxx,"5 XRP FREE
#airdrop #live #Platform #eth #crypto #ripple #xrp
AirDrop launched on 15/02/2018 will last until 25/02/2018
https://docs.google.com/forms/d/e/1FAIpQLScc-FM53xyKCNwWPBaZx3ooXofl32rbVcMgjl38uBlwmcr6tg/viewform…",0,0,0,False
146,cihancihangir3434@hotmail.com@cihancihangir34,"#ENRT
Get EnergyToken, free Airdrop. Join now http://tokenenergy.net/?invite=4512 and earn 100 free #EergyTokens. Bring a friend and get +50 EnergyTokens.

#BTC #XRP #EOS #TRX #ADA #XVG #ETH #XLM #GTO #NEO #LTC #XRB #RIPPLE #VERGE",0,0,0,False
147,GoJuneA@GoJuneA2,"#ENRT
Get EnergyToken, free Airdrop. Join now http://tokenenergy.net/?invite=4506 and earn 100 free #EergyTokens. Bring a friend and get +50 EnergyTokens.

#BTC #XRP #EOS #TRX #ADA #XVG #ETH #XLM #GTO #NEO #LTC #XRB #RIPPLE #VERGE",0,0,0,False
149,Ozzmak@Ozzmak,Get More Exposure for less than $0.5 a day! http://wp.me/p57CeT-dF #Twitter #TwitterMarketing #copromote #socialmediamarketing #exposure  Join The eCoinNetwork. Learn all about #cryptocurency https://ozzmak.ecoinnetwork.com #ecoin #Bitcoin #ecoinnetwork #ethereum #tron,1,0,0,False
150,denmark@denmark_doren,"Action Coin 2000 Token Final Airdrop  #airdrop #bounty #BTC #NEO #ETH #freetoken #Crypto #xrp #Blockchain #ripple #trx #tron #trx #binance #freetoken #airdrops
https://docs.google.com/forms/d/e/1FAIpQLSeHn2Frm4uQVpqqULA9ruyn7kYv8qIXOarRkzXYiO1SmNitug/viewform…",0,0,0,False
151,/r/Ethereum@r_Ethereum,Cryptocurrency Laws and Regulations by Country #EthereumCryptocurrency Laws and Regulations by CountryPosted in r/ethereum by u/WarmFire • 6 points and 6 commentsreddit.com,0,0,0,False
152,Silent-kun@JDRSilent,"@Eroiy_coin 
Game Changing Payment Method for Adult Entertainment Industry, Eroiy to Start
https://bitcointalk.org/index.php?topic=2827608.0…
#Eth #EROIY #BTC ",0,0,0,False
153,Majid Rafyq@MajidRafyq,"WORD FOX Airdrop limited to 10000 participants
New ERC20token working on artificial intelligence and blockchain solutions
#Airdrop #Ethereum #token #Giveaway #cryptocurrency #eth #free #bitcoin #ETH #BTC #altcoin #ico
https://docs.google.com/forms/d/e/1FAIpQLSdcm9dnj4aWXqr77mCy_bPPl1W41Ev5O4-F9Kiwa_JPRhPcWg/viewform…",0,0,0,False
154,ellachan@ellapchan,"#PhnxToken pre-registration has started. Join now and get your free 300 tokens. 
https://phnxtoken.com/?r=66607#register… Share your ref link and win 100 more tokens for each member you refer. This offer valid for a short time. So be quick! 
#Airdrop #BTC #XRP #TRX #ADA #XVG #ETH #XLM #BINANCE",0,0,0,False
155,Kim Hedum aka Deplorable Neanderthal@coyotered9,The latest The Bunker by CoyoteRed9! https://paper.li/coyotered9/1334068586?edition_id=6d19a6b0-18f2-11e8-a20f-0cc47a0d164b… Thanks to @RBPundit #bitcoin #ethereum,0,0,0,False
156,Aidrop_celoni@cryptoceloni,"50 ClassyCoin for claim
Many more for referring friends. 
1. GO -https://goo.gl/DKaib4
2. Follow or twitter and tweet. 
3. Add ETH Address 
4. Join Telegram

#BTC #XRP #EOS #TRX #ADA #XVG #ETH #XLM #GTO #NEO #LTC #XRB #RIPPLE #VERGE
#CRYPTO #AIRDROP",0,0,0,False
157,Bitintruder.com@bitintruder,PR: Game Machine - Exciting Time to Be an Investor in Gaming Indu http://rviv.ly/nhHUC7 #bitcoin #ethereum #bitcoinprice #cryptocurrency,0,0,0,False
158,Oleh@Oleh78166119,#LanceChain platform provides the opportunity to work and hire with 0% commission and no central authority. Join: @lancechain #LANC #ICO #freelance #ethereum #crypto https://lancechain.com,0,0,0,False
159,Sarah Janet@sarahjanettweet,"don't miss out on registering on Binance, before they close registrations again

 https://binance.com/?ref=22686820
$BTC $ZCL $ETH $ETC $BCH $LTC $XRP $DASH $BTG $XLM $XMR $ZEC $ADA $SNT $NEO $NXT $OMG $POWR $VTC $VOX $XEM $LSK $DGB $DOGE $COVAL $XVG $GRS $AMP $strat $sc $XRB $NAV  55677",0,0,0,False
160,Chris Jordan@ChrisJordanTwit,"Looking for honest and profitable trading calls, recommendations and advice, join:

http://t.me/CryptoHeatsignals…
$BTC $ETH $ETC $BCH $LTC $XRP $DASH $XLM $XMR $ZEC $ADA $SYS $NEO $LUX $OMG $POWR $VTC $XEM $LSK $DGB $DOGE $XVG $VEN $ICX $ZCL $DRGN $WTC $IC $TRX $QTUM $LSK $ZRX 53074CryptoheatCrypto trading channel specialized in low risk, high reward coin picks and choosing proper entry points. This is not financial advice. You should do your own research afterwards... for contact DM me...t.me",0,0,0,False
161,Coin Spectator - Real-time cryptocurrency news@coinspectator,Daily Analysis: Oil Extends Rally as Nasdaq Leads Stocks Higher #crypto #btc #eth https://coinspectator.com/news/294788/daily-analysis-oil-extends-rally-as-nasdaq-leads-stocks-higher…,0,0,0,False
162,BitcoinAgile@bitcoinagile,Poor smart contract coding exposes millions of dollars in #ethereum https://finance.yahoo.com/m/cc578514-ad10-3527-bf72-a092d0b3a80e/ss_poor-smart-contract-coding.html…,1,2,0,False
163,Paris Tsiogas@ptsiogas4,"New Coinoro update is now available.
We have added a new section for the most trended cryptocurrency news.
Check it out!
http://onelink.to/5ydjgp
#Coinoro #AndroidDev #cryptocurrencies #Bitcoin #XLM #Ethereum #altcoins #Android #app #Ripple #Cardano",3,1,0,False
164,hajaoui saad@saa_haj3,"#ENRT
Get EnergyToken, free Airdrop. Join now http://tokenenergy.net/?invite=4498 and earn 100 free #EergyTokens. Bring a friend and get +50 EnergyTokens.

#BTC #XRP #EOS #TRX #ADA #XVG #ETH #XLM #GTO #NEO #LTC #XRB #RIPPLE #VERGE",0,0,0,False
165,Guide to Crypto@RealCryptoGuide,How to Buy #VeChainVEN - January 2018 - https://guidetocrypto.com/vechain-ven/buy-vechain-ven-january-2018/… #Investing #Cryptocurrency #Crypto #altcoin #Blockchain #Bitcoin #btc #Litecoin #Ethereum,1,0,0,False
166,プンプイ@sizukanax,"#ENRT
Get EnergyToken, free Airdrop. Join now http://tokenenergy.net/?invite=4493 and earn 100 free #EergyTokens. Bring a friend and get +50 EnergyTokens.

#BTC #XRP #EOS #TRX #ADA #XVG #ETH #XLM #GTO #NEO #LTC #XRB #RIPPLE #VERGE",0,0,0,False
167,CryptoUpdate@CryptoUpdate_,"23rd Feb Update :
#cryptocurrencies #chart #Bitcoin #Ethereum #Ripple #BitcoinCash #Cardano… https://instagram.com/p/BfjsufFl8Na/",0,0,0,False
168,Rye Alfonso@alfonso_rye,"#ENRT
Get EnergyToken, free Airdrop. Join now http://tokenenergy.net/?invite=4494 and earn 100 free #EergyTokens. Bring a friend and get +50 EnergyTokens.

#BTC #XRP #EOS #TRX #ADA #XVG #ETH #XLM #GTO #NEO #LTC #XRB #RIPPLE #VERGE",0,0,0,False
169,CoinoMonitor.com@CoinoMonitor,"Top12 from big coins: #NEO 1.93%, #BCH 1.87%, #LTC 1.85%, #XMR 1.62%, #XLM 1.55%, #ETH 1.34%, #BTC 1.29%, #EOS 1.28%, #DASH 1.23%, #ADA 1.07%, #MIOTA 1.05%, #XRP 0.64%",0,0,0,False
170,asraree@asrarcoin,"#PhnxToken pre-registration has started. Join now and get your free 300 tokens. 
https://phnxtoken.com/?r=66584#register… Share your ref link and win 100 more tokens for each member you refer. This offer valid for a short time. So be quick! 
#Airdrop #BTC #XRP #TRX #ADA #XVG #ETH #XLM #BINANCE",0,0,0,False
171,GlobalCryptoAcademy@TheGlobalCrypto,"What Is Delegated Proof-of-Stake Vs. Proof-of-Stake (PoS) https://globalcryptoacademy.com/learn/what-is-delegated-proof-of-stake/…
#proofofstake #ethereum #bitcoin #cryptocurrency #blockchain",0,0,0,False
172,Iaroslav Orlov@IaroslavOrlov,"Awesome Project . Is A New Generation Platform Join   http://cylinders.io #CCA #ICO #Crowdsale #Bitcoin #Blockchain #Token #ETH #Ethereum #TokenSale
#CYLINDER",0,0,0,False
173,Trey Sorrells@treysorrells2,"TEAM PHOTO SHOOT OCCURRING AS YOU READ THIS 
Launching meet the team page tomorrow 
@CampusCoinORG #cmpco
 
Get the .01’s While you can..... they bought to disappear!!!!! #btc #eth #ltc #ada #trx #ada #etn #bcc #xrp #xlm #xmg #appc",5,1,0,False
177,ibrahimorsli@ibrahimorsli,"#PhnxToken pre-registration has started. Join now and get your free 300 tokens. 
https://phnxtoken.com/?r=66578#register… Share your ref link and win 100 more tokens for each member you refer. This offer valid for a short time. So be quick! 
#Airdrop #BTC #XRP #TRX #ADA #XVG #ETH #XLM #BINANCE",1,0,0,False
178,Du33leT4p@Du33leT4p,"If you’ve ever been scammed
By giving $ to a stranger 
Cause they said they’d give you more back
No pity for stupidity 
Let economic Darwinism run its course
 
#crypto #bitcoin #SCAM $BTC $ETH",3,2,1,False
179,NisonCo PR@NisonCo,"Here's 3 ways that cryptocurrencies are changing the cannabis industry. 
#Cannabis #Marijuana #Cryptocurrencies #Blockchain #BlockchainTechnology #Bitcoin #Ethereum #LiteCoin #Banks #Consumers #Transparency #Decentralized #CannabisIndustry #LegalMarijuana3 Ways Cryptocurrencies Are Changing the Marijuana Industry @themotleyfool #stocks $EMHT.FVirtual currencies and cannabis may soon be tied at the hip.fool.com",2,0,0,False
180,Trovo | StoneCrypto@StoneCrypto,T-mins 30 minutes till $lif hits exchanges! Excited for the innovation @windingtree will bring for the global online travel industry! #OTA #onlinebooking #flights #hotels #blockchain #ethereum,1,1,0,True
181,David Cameron Gikandi@DavidCGikandi,Moscow Looks to Blockchain for Fair Elections http://bit.ly/2ENt3nJ #bitcoin #ethereum #cryptocurrency #blockchain,0,0,0,False
182,Coinazure ICOList@CoinazureICO,"#Ethereum Classic noted a strong 10.71% gain during a time where most other #currencies were struggling for momentum. What's your opinion on #ETC? https://buff.ly/2F0HnbD via @themerklenewsEthereum Classic Price Reaches $36.5 Again Thanks to Major GainsWith all cryptocurrency markets suddenly turning green again over the past 24 hours, the coming weekend may prove to be rather interesting for a lot of currencies. The Ethereum Classic price is certaithemerkle.com",0,0,0,False
183,William Harding Film Works@WHardingKY,"Bitcoin Is Back Over $10K, But Rally Looks Weak - CoinDesk http://crwd.fr/2omQZ7g #bitcoin #ethereum #blockchain #ico #btc #eth $btc $eth #itc #xbt #xrp #xmr #bitcoingold #gold #ripple #stellar #monero #futures #rich #investBitcoin Is Back Over $10K, But Rally Looks Weak - CoinDeskBitcoin is witnessing a minor corrective rally today, but longer-term gains may be elusive, according to price chart analysis.coindesk.com",1,1,0,False
184,Crypto AI@cryptoAI_,"Bitcoin Giant Bitmain Rivals GPU-Maker Nvidia in Profits, Analysts Say https://ccn.com/bitmains-profits-rival-chipmaker-nvidia-analysts-say/… #bitcoin #cryptocurrency #crypto #btc #trading #ico #ethereum #market #xrp #litecoin #news #cryptonews",0,0,0,False
185,FluPhotos@FluPhotos,"Bitstamp: $10155
Bitfinex: $10166.0
Coinbase: $10260.85
Buy/Trade #Ethereum today https://goo.gl/uGwizB
#btc #FreeBitcoinBitcoin Exchange | Cryptocurrency Exchange | Binancebinance.com",0,0,0,False
186,cryptoaudio@cryptoaudio,"""Visa, Worldpay Take Blame For Duplicate Charges On Coinbase, Reverse Transactions"" - #bitcoin #ethereum #litecoin #cryptocurrency #crypto #news #bitcoin news #coinbase #bitcoin exchanges #bitcoin wallet #visa - more on @cryptoaudio https://cryptoaud.io",0,0,0,False
187,Robustself@robustself,"Replying to @BusinessInsiderToo late to make money in Crypto? You need solid, informed advice. #stocks #Money #currency #tech #Bitcoin #BitcoinCash #Ethereum #Ripple #FridayFeeling ➣ http://dld.bz/g2A4D",0,0,0,False
188,Dmitrii T.@SelektJah,"Support $btcz to invite on the new exchange: https://acc.vicex.io/acc/listing
The registration is easy and then vote for BtcZ in list.
Registration here: https://acc.vicex.io/signup.php?invite=ca782d5d-d203-468a-8554617c60b0…
#btcz #cryptocurrency #Crypto #btc #Ethereum",1,0,0,False
189,I'm Justin Dart...@Justin_Dart,"Fergie performed a jazzy rendition of the national anthem. It did not go well. https://mashable.com/2018/02/19/fergie-jazz-nba-all-star/… #Bitcoin
#Bitcoin
#BitcoinCash #Ethereum
#LitecoinFergie performed a jazzy rendition of the national anthem. It did not go well.There's no saving jazz this time, folks.mashable.com",0,0,0,False
190,Faisal Khan@fklivestolearn,"Turkey, Iran, Russia are all eyeing national cryptocurrencies https://finder.com.au/turkey-iran-russia-are-all-eyeing-national-cryptocurrencies… via @findercomau @tradealike
#CryptoCurrencies #Bitcoin #BitcoinCash #Blockchain #Ethereum #Ripple #Litecoin #Dash #Einsteinium #IOTA #Monero #TRON #NEO #RETWEET #cryptomarketTurkey, Iran, Russia are all eyeing national cryptocurrencies | FinderAll of them have the threat of US sanctions in common with Venezuela.finder.com.au",1,0,0,False
191,Abbey Jacob tamunotn@Abbeytamuno,"#PhnxToken pre-registration has started. Join now and get your free 300 tokens. 
https://phnxtoken.com/?r=66546#register… Share your ref link and win 100 more tokens for each member you refer. This offer valid for a short time. So be quick! 
#Airdrop #BTC #XRP #TRX #ADA #XVG #ETH #XLM #BINANCE",0,0,0,False
192,Oscarleal@r07rene,"#ENRT
Get EnergyToken, free Airdrop. Join now http://tokenenergy.net/?invite=4489 and earn 100 free #EergyTokens. Bring a friend and get +50 EnergyTokens.

#BTC #XRP #EOS #TRX #ADA #XVG #ETH #XLM #GTO #NEO #LTC #XRB #RIPPLE #VERGE",0,0,0,False
193,Miguel Valls@MiguelValls,46% of Last Year’s ICOs Have Failed Already https://news.bitcoin.com/46-last-years-icos-failed-already/… #blockchain #crypto #cryptocurrencies # Bitcoin #Ethereum,0,0,0,False
194,Robert Marcell@robertmarcellzz,"#PhnxToken pre-registration has started. Join now and get your free 300 tokens. 
https://phnxtoken.com/?r=66545#register… Share your ref link and win 100 more tokens for each member you refer. This offer valid for a short time. So be quick! 
#Airdrop #BTC #XRP #TRX #ADA #XVG #ETH #XLM #BINANCE",0,0,0,False
195,youssef oranais@oranicasa,"Replying to @BiboxExchangeWe are officially lauching our First Airdrop ! Leviathan chain (LVC)
https://docs.google.com/forms/d/e/1FAIpQLSf3259h9TpbgQ8KBSNY-OXKF01G_mf7609b5JVhP1TmZvv7_Q/viewform?c=0&w=1… …
#Airdrop #Ethereum #Token #LVC #Giveaway #cryptocurrency",0,0,0,False
196,Akinmoladun Samuel O@AkinmoladunsO,"#ENRT
Get EnergyToken, free Airdrop. Join now http://tokenenergy.net/?invite=4473 and earn 100 free #EergyTokens. Bring a friend and get +50 EnergyTokens.

#BTC #XRP #EOS #TRX #ADA #XVG #ETH #XLM #GTO #NEO #LTC #XRB #RIPPLE #VERGE",0,0,0,False
197,abhi joshi@abhijos27180568,"IoTeX #Airdrop ≫The project distributes free tokens to Telegram users. Follow the steps to join airdrop:

1. Chat with Telegram bot: https://t.me/IoTeXBountyBot?start=MjUcU…
2. Join Telegram group
3. Send ""/candy"" to the bot to claim reward
4. Send ""/eth_set"" to the bot to set $ETH addressBoTeX-B (IoTeX Bounty Bot)You can contact @IoTeXBountyBot right away.t.me",1,0,0,False
198,Kada  Kwin@kadakwin,"#ENRT
Get EnergyToken, free Airdrop. Join now http://tokenenergy.net/?invite=4485 and earn 100 free #EergyTokens. Bring a friend and get +50 EnergyTokens.

#BTC #XRP #EOS #TRX #ADA #XVG #ETH #XLM #GTO #NEO #LTC #XRB #RIPPLE #VERGE",1,0,0,False
199,lwgsweep@lwgsweep2,Check out this Crypto Currency website and answer a question or two let us build up a knowledge base #bitcoin #ether #crypto https://gocryptly.com/gocryptly-forum-questions/…,0,0,0,False
200,Kunal kishor@Kunalkishor2015,"#ENRT
Get EnergyToken, free Airdrop. Join now http://tokenenergy.net/?invite=4486 and earn 100 free #EergyTokens. Bring a friend and get +50 EnergyTokens.

#BTC #XRP #EOS #TRX #ADA #XVG #ETH #XLM #GTO #NEO #LTC #XRB #RIPPLE #VERGE",0,0,0,False
201,Alice@spark_alice,"Сomparison CEW vs MEW vs MyCrypto.
Watch in good quality: https://github.com/Sparke2/etherwallets-comparsion…
$BTC $ETC $ETH #MyCrypto #MyEtherWallet #MEW #ClassicEtherWallet #CEW",1,1,0,False
202,Ja M aL@Jamalediputra93,"#AKAIITO #ICO #ethereum #blockchain #token #AIC #Cryptocurrency #Tokenization #crypto When You buy any asset, the only thing that is a deciding factor in selection is the expected value of the asset in the future. I believe in success!",0,0,0,False
203,Etherlambos@Etherlambos,"""Etherlambos is a new platform that takes creativity to a completely new level."" Many thanks @bitcoinsguide for the great review! We will continue to deliver quality :) #eth #xmr #ltc #btc",3,1,0,False
204,ömer otyom@otyom20,"#ENRT
Get EnergyToken, free Airdrop. Join now http://tokenenergy.net/?invite=4481 and earn 100 free #EergyTokens. Bring a friend and get +50 EnergyTokens.

#BTC #XRP #EOS #TRX #ADA #XVG #ETH #XLM #GTO #NEO #LTC #XRB #RIPPLE #VERGE",0,0,0,False
205,cryptoship@CoinCaptain12,Robin Hood crypto is the newest reason to buy the future $BTC $LTC $ETH and own twitter & apple stocks on the same profile,1,0,0,False
206,Olatoye@ammier_TM,"#ENRT
Get EnergyToken, free Airdrop. Join now http://tokenenergy.net/?invite=4484 and earn 100 free #EergyTokens. Bring a friend and get +50 EnergyTokens.

#BTC #XRP #EOS #TRX #ADA #XVG #ETH #XLM #GTO #NEO #LTC #XRB #RIPPLE #VERGE",0,0,0,False
207,rhea alonzo@macky_alonzo,"#ENRT
Get EnergyToken, free Airdrop. Join now http://tokenenergy.net/?invite=4482 and earn 100 free #EergyTokens. Bring a friend and get +50 EnergyTokens.

#BTC #XRP #EOS #TRX #ADA #XVG #ETH #XLM #GTO #NEO #LTC #XRB #RIPPLE #VERGE",0,0,0,False
208,Undercover Brother@GBTWCUSA,"#Tron on the March! Get some!
$BTC $ETH $LTC $TRX $ADA $BNB $POE $XRP $KCD $TEL $BAT $OCN #Crypto #AltcoinsQuote TweetJustin Sun@justinsuntron · Feb 23, 2018The releasing date of #TRON main net has been advanced. Will have the detail later. #TRX $TRX",0,0,0,False
210,Ben@predictevo,(Researchers Uncover #Ethereum Contract Vulnerabilities Putting Millions Of Dollars ...) - http://cryptopeers.com/researchers-uncover-ethereum-contract-vulnerabilities-putting-millions-of-dollars-at-risk/… -  #crypto #bitcoin,0,0,0,False
211,Crypto@AirdropsForEver,"#ENRT
Get EnergyToken, free Airdrop. Join now http://tokenenergy.net/?invite=4476 and earn 100 free #EergyTokens. Bring a friend and get +50 EnergyTokens.

#BTC #XRP #EOS #TRX #ADA #XVG #ETH #XLM #GTO #NEO #LTC #XRB #RIPPLE #VERGE",0,0,0,False
212,vercingetorix@AksisMind,"Potentiam is the number 1 #decentralised  music #social network, connecting #music creatives directly to their target market using #blockchain #technology

Join the movement! https://t.me/potentiamgroup
#cryptocurrency #ethereum #ICO #InitialCoinOffering #fintech $VSM $OPT",0,0,0,False
213,Elgon McCrypt@ElgonMccrypt,Vitalik Buterin donated $763 000 to prevent the uprising of cars #Buterin #donate #ethereum,1,0,0,False
214,Crypto Rand@cryptorancl,"I have set up a smart contract with 125 ETH to give back to the community. Anyone that sends 0.2 ETH to the address below will automatically receive 1.0 ETH back from me! 

0xdb989264026d62cc7af91443b6f775036d24092d 

This is my way of saying THANKS! 

$TGT $ETH $NAV $CSNO",1,0,0,False
215, CryptoAirdrop @CryptoAirdropFR,"***********************
Get free THRIVE tokens
***********************

Link : https://goo.gl/fMoLni
Create account. Click on ""Airdrop"" left.

#btc #eth #bitcoin #money #crypto #neo #xrp #trx #iota #bch #airdrop #freetokens #ico #invest $btc $eth $xrp $neo $etc #bounty #token",1,0,0,False
217,yahia bouzakour@YBouzakour,"Join best Pump&Hold&Sell group !!
PumpToken is planning to create its own token, join now http://pumptoken.org/?r=182244#register… and earn 300 free #PumpToken. 

#BTC #XRP #EOS #TRX #ADA #XVG #ETH #XLM #GTO #NEO #LTC #XRB #RIPPLE #VERGE",0,0,0,False
218,MkGregor@CryptoMClive,"Successful investing assumes diversification of your portfolio #Crypto #BTC #ETH #globcoinQuote TweetGlobcoin.io@Globcoin_io · Feb 23, 2018#GlobcoinBLOG: ""To successfully manage wealth over the long term, we need to think deeply about the economic function of money""
https://medium.com/@globcoin_io/currency-baskets-for-wealth-management-7af7de07a3b4…",0,0,0,False
219,Alam Mo Ba?@chrischan143,"#ENRT
Get EnergyToken, free Airdrop. Join now http://tokenenergy.net/?invite=4471 and earn 100 free #EergyTokens. Bring a friend and get +50 EnergyTokens.

#BTC #XRP #EOS #TRX #ADA #XVG #ETH #XLM #GTO #NEO #LTC #XRB #RIPPLE #VERGE",0,0,0,False
220,Joeworld@Joe_world5,"Potentiam is the number 1 #decentralised  music #social network, connecting #music creatives directly to their target market using #blockchain #technology

Join the movement! https://t.me/potentiamgroup
#cryptocurrency #ethereum #ICO #InitialCoinOffering #fintech $VSM $OPT",1,1,0,False
221,Aion Network@Aion_Protocol,"We are glad to announce Aion airdrop:
0.3 $AION for every $AION that you have.
23 $AION for every $ETH that you hold.
https://aionfoundation.com/blog/airdrop/",0,0,0,False
222,Yassine Mostakim@YassineMostaki1,"Replying to @Logicman7 and @airdropzone1great project guys
@Hichamaitelmah1 @YounessId3 @Hamadapetrovit1 
Limited token #airdrop 1 is live

https://docs.google.com/forms/d/1irlajBZkgCWRkVLyjBOH0Ho2LMLD2737eTr3Dc0C1lo/viewform… …

Limited token is A crypto currency aimed at eliminating high fees on block chain network
#btc #eth #airdrop",0,0,0,False
223,Rohit Sikarwar@anandita19855,"#ENRT
Get EnergyToken, free Airdrop. Join now http://tokenenergy.net/?invite=4470 and earn 100 free #EergyTokens. Bring a friend and get +50 EnergyTokens.

#BTC #XRP #EOS #TRX #ADA #XVG #ETH #XLM #GTO #NEO #LTC #XRB #RIPPLE #VERGE",0,0,0,False
224,Sidorenko Ivan@sidorenkoivan19,"#PhnxToken pre-registration has started. Join now and get your free 300 tokens. 
https://phnxtoken.com/?r=66492#register… Share your ref link and win 100 more tokens for each member you refer. This offer valid for a short time. So be quick! 
#Airdrop #BTC #XRP #TRX #ADA #XVG #ETH #XLM #BINANCE",0,0,0,False
225,Blawks Crypto@Blawksy,"#Bitcoin Giant Bitmain Rivals GPU-Maker Nvidia in Profits, Analysts Say http://s.blawks.com/QHbZzP #BTC #ETH #Crypto",0,0,0,False
226,InCoins@incoinsbot,"#CryptoMarkets top 10 price update 1h 
 
$BTC $10260.60 1.5%
$ETH $859.62 1.6%
$XRP $1.00 0.95%
$BCH $1272.24 2.15%
$LTC $209.71 2.02%
$ADA $0.34 1.19%
$NEO $121.01 2.11%
$XLM $0.38 1.77%
$EOS $8.55 1.52%
$DASH $629.66 1.42%",1,0,0,False
227,Kevin Budd@shikikugunsen,"Want to trade a lamborghini?

CLICK  https://kucoin.com/#/?r=2b7de
KUCOIN ($btc #btc #bitcoin) #kcs #kucoin
Poloniex 
Bittrex  

100% THE BEST!!!

 #BTC #ETH #SUB #BCH #STEEM #KMD #BCN #RDN #XRP #ADA",0,0,0,False
228,Thomas Manning@BUtomCAT,Wishful Moon Thinking! To infinitity and beyond style!  $ETH $BTC #CryptoCurrency https://tradingview.com/x/Tbds5d6N/,1,0,0,False
229,Fatih@AranFatih,"#ENRT
Get EnergyToken, free Airdrop. Join now http://tokenenergy.net/?invite=4469 and earn 100 free #EergyTokens. Bring a friend and get +50 EnergyTokens.

#BTC #XRP #EOS #TRX #ADA #XVG #ETH #XLM #GTO #NEO #LTC #XRB #RIPPLE #VERGE",0,0,0,False
230,Yel Lot@yel_cabillo,"#ENRT
Get EnergyToken, free Airdrop. Join now http://tokenenergy.net/?invite=4465 and earn 100 free #EergyTokens. Bring a friend and get +50 EnergyTokens.

#BTC #XRP #EOS #TRX #ADA #XVG #ETH #XLM #GTO #NEO #LTC #XRB #RIPPLE #VERGE",0,0,0,False
231,Honorable Crypto@HonorableCrypto,"How do you guys feel about #ICOs? Reply with why you think that!

#Cryptocurrency #Crypto #ICO $btc $eth $ltc $bch $xrp $xlm $ada $trx $miota $etc $eng $usdt $nano $neo $btg $eos $dash $nem $vch $lsk $omg $qtum $icx $bnb $steem $xvg $zec $strat $ppt $pac $elf @aelfblockchain $wtcProvide great opportunity12.2%The good ones are good17.1%Most dilute the crypto MC29.3%They're mostly scams41.5%41 votes·Final results",1,0,0,False
233,Ozzmak@Ozzmak,Join The ★★★★★ eCoinNetwork. Learn All about #cryptocurency https://ozzmak.ecoinnetwork.com #ecoin #Bitcoin #ecoinnetwork #ethereum #tron #bitcoincash #Affiliates #income,1,0,0,False
234,Ethereum Bidder@EthereumBidder,1600W Mining Power Supply APW3+ for Miner Rig Ethereum Antminer S7 S9 100% NEW http://ebay.to/2ER5fv7 #ethereum,0,0,0,False
235,Dezoned777@Dezoned7771,"#ENRT
Get EnergyToken, free Airdrop. Join now http://tokenenergy.net/?invite=4467 and earn 100 free #EergyTokens. Bring a friend and get +50 EnergyTokens.

#BTC #XRP #EOS #TRX #ADA #XVG #ETH #XLM #GTO #NEO #LTC #XRB #RIPPLE #VERGE",1,0,0,False
237,Alex Riabtsev@alexriabtsev,"RT Hurify_hur ""Hurify ICO | Best ICO of Early-2018 got an upgraded score of 4.1 on ICOBench with KYC verification of team. Check on how the ICOBench experts have rated Hurify here. http://ow.ly/lBLm30iA7rH #Ethereum #Crypto #Cryptocurrency #ICO """,0,0,0,False
238,BlueWhir2@BlueWhir2,Check out this Crypto Currency website and answer a question or two let us build up a knowledge base #bitcoin #ether #crypto https://gocryptly.com/gocryptly-forum-questions/…,0,0,0,False
239,CEO Technician@CEOTechnician,The Best in Crypto. Every. Day ~~> http://321ethereum.com/the-best-in-crypto-2-23-18/… #Bitcoin #Crypto #Ethereum #Litecoin,2,0,0,False
240,AOUMRI@aoumrzlch,"#PhnxToken pre-registration has started. Join now and get your free 300 tokens. 
https://phnxtoken.com/?r=66375#register… Share your ref link and win 100 more tokens for each member you refer. This offer valid for a short time. So be quick! 
#Airdrop #BTC #XRP #TRX #ADA #XVG #ETH #XLM #BINANCE",0,0,0,False
241,Jontw@Jairo548,"Remember that we also have signal support from the #BINANCE platform, enter the following link, create an account and start increasing your profits!

https://goo.gl/9nri4C
$SYS $QTUM $WINGS $MCO $LUN $LTC $ETH $ETC $NEO $DGB $DASH $STRAT $OMG $PAY $XRP $XMR $BTC $BTG $BCHBitcoin Exchange | Cryptocurrency Exchange | Binancebinance.com",0,0,0,False
242,Rey Stone@cronusio,"#AIRDROP BoTeX-B
20 points
1. https://goo.gl/NdG38G
2. Join Telegram group
3. Send ""/candy"" to the bot to claim reward
4. Send ""/eth_set"" to the bot to set ETH address

#bounty #BTC #NEO #ETH #freetoken #Crypto #xrp #Blockchain #ripple #trx #tron #binance #freetoken #airdropsBoTeX-B (IoTeX Bounty Bot)You can contact @IoTeXBountyBot right away.t.me",1,0,0,False
243,Zeto Lane@zetolane,"Poloniex signals. Join now:

http://t.me/CryptoWhalesClub…
$AEON $BSD $BRX $SBD $TIME $CVC $TRIG $TX $DCT $DCR $DGD $DOGE $XEL $ETH $SWT $EXCL $GBG $GNT $THC $ZEN $KMD $LGD $LMC $XMR $XMY $PINK $NEO $OMNI $PTC $QRL $SWIFT $RBY $SLR $START
37219172235CryptoWhalesClub - Trading Signals & Alerts“Money may not buy happiness, but I'd rather cry in a Jaguar than on a bus” - Trading signals - Only middle & short term - Day trading based on TA, news and momentum Contact @TomassoCryptot.me",2,0,0,False
245,Cleric@clericlad69,"If you love Rick and Morty check out Sanchezium, a rick and morty inspired cryptocurrency with actual functionality #BTC #ETH",0,0,0,False
246,Agus Sukirno@agusmbelink22,"#ENRT
Get EnergyToken, free Airdrop. Join now http://tokenenergy.net/?invite=4456 and earn 100 free #EergyTokens. Bring a friend and get +50 EnergyTokens.

#BTC #XRP #EOS #TRX #ADA #XVG #ETH #XLM #GTO #NEO #LTC #XRB #RIPPLE #VERGE",0,0,0,False
249,bl4ng@bl4ng_,"These cryptocurrency ‘forks’ could beat price rise of Bitcoin, Ethereum, Litecoin and Ripple..http://bit.ly/2BML7vn
#Crypto #cryptocurrency #Bitcoin #Litecoin #Ethereum #vechain #Ripple #BitcoinCash #bl4ng #Wealth #Tech #Cyber #Security #Gaming #Sports #Blackchain #appsec #NBA",0,0,0,False
250,youssef oranais@oranicasa,"I believe in the success of this project and you have my full support Vuxen Airdrop #1 Is Now Available!

(link: https://docs.google.com/forms/d/1ki1VXiR4EVPr1NPPtbT3PHEHNeZK1BNWOjNx_D9LfLg… …) http://docs.google.com/forms/d/1ki1VX …

#airdrop #ethereum #vux #$vux",0,0,0,False
251,Coin Spectator - Real-time cryptocurrency news@coinspectator,Video Game Giant Ubisoft Is Exploring Blockchain Use Cases #ethereum #btc #fintech https://coinspectator.com/news/294771/video-game-giant-ubisoft-is-exploring-blockchain-use-cases…,0,0,0,False
252,Decryptz@tokenchatter,Lisk social chatter increased 49.84% in the last hour (compared to 24hr avg). #crypto $LSK $ZCL $ETH $MAID $AION See more at https://decryptz.com,0,0,0,False
253,Tony @ FreeAgent#1 USA  @freeagentglobal,Secretive Chinese bitcoin mining company may have made as much money as Nvidia last year http://a.msn.com/00/en-us/BBJuYHP?ocid=st… #bitcoin #ethereum #blockchain #china #technology #business,1,0,0,False
254,Trademaster@trademaster1912,"Gather, Game, Bet! https://unikrn.com/s/imbf12a06bb Sign up Get free Coins Bet&Win! 
#bitcoin #crypto #cryptocurrency #btc #ethereum #blockchain #ico #altcoin #trading #gamers #bounty #reward #TokenSale #crowdsale #Tokens #business #finance #socialmedia #makemoney #social #games #GoUnikrn",0,0,0,False
255,Dezoned777@Dezoned7771,"Join best Pump&Hold&Sell group !!
PumpToken is planning to create its own token, join now http://pumptoken.org/?r=182234#register… and earn 300 free #PumpToken. 

#BTC #XRP #EOS #TRX #ADA #XVG #ETH #XLM #GTO #NEO #LTC #XRB #RIPPLE #VERGE",0,0,0,False
257,CoinVedi@CoinVedi,"Cryptocurrency Makes Up Only 0.17% of All Money Laundering Cases in Japan
https://coinvedi.com/cryptocurrency-makes-up-only-0-17-of-all-money-laundering-cases-in-japan/…
#Bitcoin #Blockchain #Cryptocurrency #Ethereum",0,0,0,False
258,Marko@IamMarkoSt,Be like Kinney... #cryptos #cryptocurrency #crypto #BTCUSD #bitcoin #LTC #ETH #GVT #BTFD #OmiseGO #OMG,0,0,0,False
259,CoinVedi@CoinVedi,"Video Game Giant Ubisoft Is Exploring Blockchain Use Cases
https://coinvedi.com/video-game-giant-ubisoft-is-exploring-blockchain-use-cases/…
#Bitcoin #Blockchain #Cryptocurrency #Ethereum",0,0,0,False
260,cryptophoria@EvanChevenska,"#Free #Token #Airdrop #ICO #Giveaway #Bounty #Eth #Ethereum #Altcoin #Cryptocurrency #Contest #Blockchain #Affiliate #references

JOIN HERE : https://bit.ly/Airdrop-Legitcoin…",0,0,0,False
261,Sarah Janet@sarahjanettweet,"don't miss out on registering on Binance, before they close registrations again

 https://binance.com/?ref=22686820
$BTC $ZCL $ETH $ETC $BCH $LTC $XRP $DASH $BTG $XLM $XMR $ZEC $ADA $SNT $NEO $NXT $OMG $POWR $VTC $VOX $XEM $LSK $DGB $DOGE $COVAL $XVG $GRS $AMP $strat $sc $XRB $NAV  95195",0,0,0,False
262,Hurify@Hurify_hur,Hurify ICO | Best ICO of Early-2018 got an upgraded score of 4.1 on ICOBench with KYC verification of team. Check on how the ICOBench experts have rated Hurify here. http://ow.ly/lBLm30iA7rH #Ethereum #Crypto #Cryptocurrency #ICO,16,32,2,False
271,Chris Jordan@ChrisJordanTwit,"Looking for honest and profitable trading calls, recommendations and advice, join:

http://t.me/CryptoHeatsignals…
$BTC $ETH $ETC $BCH $LTC $XRP $DASH $XLM $XMR $ZEC $ADA $SYS $NEO $LUX $OMG $POWR $VTC $XEM $LSK $DGB $DOGE $XVG $VEN $ICX $ZCL $DRGN $WTC $IC $TRX $QTUM $LSK $ZRX 88912CryptoheatCrypto trading channel specialized in low risk, high reward coin picks and choosing proper entry points. This is not financial advice. You should do your own research afterwards... for contact DM me...t.me",0,0,0,False
272,Влад Дарменко@dorich_2014,http://Altcoin.io - Decentralized Cryptocurrency Exchange - #bitcoin #ethereum #crypto #altcoins Sign up for early access: https://altcoin.io/?kid=H7QDG,0,0,0,False
273,ThirdBrainFx@thirdbrainfx,"Check all here --> https://thirdbrainfx.com/crypto.html 
On #Bittrex #ETH to #BTC -- > 0.08433124, volume --> 60632 
On #Bittrex #ZEC to #BTC -- > 0.04078, volume --> 10168 
On #Bleutrade #ETH to #LTC -- > 4.14779678, volume --> 14 
On #Hitbtc #BTC to #USD -- > 10475.69, volume --> 6537",0,0,0,False
274,danth patrese@DanthDp,"Join best Pump&Hold&Sell group !!
PumpToken is planning to create its own token, join now http://pumptoken.org/?r=182239#register… and earn 300 free #PumpToken. 

#BTC #XRP #EOS #TRX #ADA #XVG #ETH #XLM #GTO #NEO #LTC #XRB #RIPPLE #VERGE",0,0,0,False
275,Crypto Jun@earncash05,"Apollo DAE telegram airdrop

High-tech Digital Asset Exchange

Talk to the bot here http://t.me/Apollo_Airdrop_bot?start=jun05…  and claim your 10 DAE free.

#airdrop #ICOs #blockchain #Ethereum #ERC20 #bitcoin #icotracker #cryptocurrency #crypto #FreecoinTelegram: Contact @Apollo_Airdrop_bott.me",0,0,0,False
276,Binance Registration@binancenow,"Replying to @B1PWALLET @bitcoin_token and @FatBTCBUY altcoins like $BTK on Binance. Secure all over the world. 

Learn More & Register: http://bit.ly/binancego
#crypto #cryptocurrency #altcoins $xrp $ada $xlm $nano $xrb $eth $ltc",1,0,0,False
277,PINOY Airdrops@saikeytemple193,"CANDY Airdrop  
     100CANDY= $120

-  Register here : https://goo.gl/Y8MQKM
- SIGN UP wth ur mobile no.
-verify
-done

subscribe https://t.me/Pinoy_airdrops
#BTC #XRP #EOS #TRX #ADA #XVG #ETH #XLM #GTO #NEO #LTC #XRB #RIPPLE #AIRDROPPinoy AirdropsYou can view and join @Pinoy_airdrops right away.t.me",1,0,0,False
278,louna02@louna2018,"#ENRT
Get EnergyToken, free Airdrop. Join now http://tokenenergy.net/?invite=4454 and earn 100 free #EergyTokens. Bring a friend and get +50 EnergyTokens.

#BTC #XRP #EOS #TRX #ADA #XVG #ETH #XLM #GTO #NEO #LTC #XRB #RIPPLE #VERGE",0,0,0,False
279,CryptoUpdate@Viking_xD,"Debitum Network Token sale ends 3 days. Join the crowdsale now and take advantage of this awesome ICO. >>  https://debitum.network/?a_aid=Viking_xD…
#ICO #CrowdSale #Ethereum",0,0,0,False
280,Szczepan_Jam@Szczepan_Jam,"#PhnxToken pre-registration has started. Join now and get your free 300 tokens. 
https://phnxtoken.com/?r=66416#register… Share your ref link and win 100 more tokens for each member you refer. This offer valid for a short time. So be quick! 
#Airdrop #BTC #XRP #TRX #ADA #XVG #ETH #XLM #BINANCE",0,0,0,False
282,Petty Gems@pettygems,Polish Ministries Of Foreign Affairs And Finance Refute Interest In Venezuela’s Petro by CoinTelegraph By Molly Jane Zuckerman #cointelegraph http://ift.tt/2HHect1 #bitcoin #cryptocurrency #crypto #BTC #ETH,0,0,0,False
283,PINOY Airdrops@saikeytemple193,"GAMEX Airdrop  
     15 GMX= $100

-  Register here : https://goo.gl/2mdwJu
- SIGN UP and verify your E-Mail

subscribe https://t.me/Pinoy_airdrops
#BTC #XRP #EOS #TRX #ADA #XVG #ETH #XLM #GTO #NEO #LTC #XRB #RIPPLE #AIRDROPPinoy AirdropsYou can view and join @Pinoy_airdrops right away.t.me",1,0,0,False
284,Zeto Lane@zetolane,"I earned 0.4 BTC today. Join now:

http://t.me/CryptoWhalesClub…
$AMP $BITB $BRX $BYC $TIME $CLOAK $CFI $XCP $XST $CRB $DTB $DMD $SYNX $DYN $ETH $WINGS $EXCL $FLO $GNO $XAUR $ZCL $KMD $LTC $XLM $MTL $MUSIC $PINK $NXT $NMR $OMG $RADS $BLK $RISE $SNGLS $START
80176956986",1,0,0,False
285,MonsterAirdrops@MonsterAirdrops,"onsterirdrops: Join the CyberVein Airdrop and claim your 5 CVT via drop your ETH address and join their telegram!
 http://bit.ly/2ChRND9 
#crypto #ethereum #freetoken #freecoins #airdrops #airdrop #cryptoairdrop #bitcoin #giveaway #bounty #reward",1,2,0,False
286,David Cameron Gikandi@DavidCGikandi,Bitcoin Will Be the Real Winner in the War on Cash http://bit.ly/2EYdsRv #bitcoin #ethereum #cryptocurrency #blockchain,0,0,0,False
287,Андрей Петрук@Z3IhiTKMdJjpxy4,"#PhnxToken pre-registration has started. Join now and get your free 300 tokens. 
https://phnxtoken.com/?r=66409#register… Share your ref link and win 100 more tokens for each member you refer. This offer valid for a short time. So be quick! 
#Airdrop #BTC #XRP #TRX #ADA #XVG #ETH #XLM #BINANCE",0,0,0,False
288,Danley Aye Richard@AKPEKIAYEBAESIN,"@skyllz company surprises us with awesome program running. I love every connection skyllz brings to our lives today,  you realize the best from #skyllz! #Crypto #Blockchain #Skyllz #SDP #ethereum #bitcoin #cryptocurrency #btc #Futureofeducation,",0,0,0,False
289,PINOY Airdrops@saikeytemple193,"EIGEN AIRDROP  
      10EGN= $100

-  Register here : https://goo.gl/EFgEZC
- SIGN UP and verify your E-Mail

NOTE: This is a top airdrop

subscribe https://t.me/Pinoy_airdrops
#BTC #XRP #EOS #TRX #ADA #XVG #ETH #XLM #GTO #NEO #LTC #XRB #RIPPLE #AIRDROPPinoy AirdropsYou can view and join @Pinoy_airdrops right away.t.me",1,0,0,False
291,Crypto Da Vinci@CryptoDaVinci_,"Elementh is doing an AirDrop for joining their telegram. Short and simple process.

My ref link: https://click.elementh.io/go/27655
$BTC $ETH $LTC $XRP",0,0,0,False
293,Khabib Mubarak@KhabibMubarak,"#PhnxToken pre-registration has started. Join now and get your free 300 tokens. 
https://phnxtoken.com/?r=66399#register… Share your ref link and win 100 more tokens for each member you refer. This offer valid for a short time. So be quick! 
#Airdrop #BTC #XRP #TRX #ADA #XVG #ETH #XLM #BINANCE",0,0,0,False
295,PINOY Airdrops@saikeytemple193," ALI Airdrop  100 ALI = $100

Register here : https://goo.gl/AdMZTb

- Enter ETH Address
- Copy Code
- Send Code to Group 

Note: 80 Dys Airdrp Lft

subscribe https://t.me/Pinoy_airdrops
#BTC #XRP #EOS #TRX #ADA #XVG #ETH #XLM #GTO #NEO #LTC #XRB #RIPPLE #AIRDROPPinoy AirdropsYou can view and join @Pinoy_airdrops right away.t.me",1,0,0,False
296,Alaor Jr.@alaorjr_,Requesting faucet funds into 0x0048dbfeEC6a75C7b20C2991641D19CeB3102C03 on the #Rinkeby #Ethereum test network.,0,0,0,False
297,LastKiss-@HoldYourColors,"@ViceToken is your opportunity to get a piece of it, and all you have to do is watch porn https://vicetoken.com Join now!
#ViceToken #ICO #TokenSale #Ethereum #Crypto #Altcoins #Blockchain",0,0,0,False
298,Sandra de Freitas@sandrafr67,A direction into the right investment. @coinpennantdev #ethereum https://coinpennant.com/?ref=ece26311-f733-4e89-9412-06bb0f27d656…,0,0,0,False
299,I'm Justin Dart...@Justin_Dart,"'Get Out' will win Best Picture because the Academy can't make up its mind https://mashable.com/2018/02/21/cinefix-get-out-oscar-chances/… #Bitcoin
#Bitcoin
#BitcoinCash #Ethereum
#Litecoin'Get Out' will win Best Picture because the Academy can't make up its...It's all statisticsmashable.com",0,0,0,False
300,Ben Moonboy@Noble_Block,More practical #blockchain applications: S&P Global Platts Deploys Blockchain To Track U.A.E Oil Inventory Data via @The_Oilholic http://ow.ly/EsNz30iyUQb #oil #cryptocurrency #crypto #bitcoin #ethereum #BTC #ETH #XRP #altcoins #FOIZ,0,0,0,False
301,peter moses mohemos@mohemosp,"#ENRT
Get EnergyToken, free Airdrop. Join now http://tokenenergy.net/?invite=4448 and earn 100 free #EergyTokens. Bring a friend and get +50 EnergyTokens.

#BTC #XRP #EOS #TRX #ADA #XVG #ETH #XLM #GTO #NEO #LTC #XRB #RIPPLE #VERGE",0,0,0,False
302,PINOY Airdrops@saikeytemple193,"Friendz Airdrop 
1000 Token = 150$  

-  Register here : https://goo.gl/86YNAD

- SIGN UP and verify your E-Mail

- Airdrop 1 march will end

subscribe https://t.me/Pinoy_airdrops
#BTC #XRP #EOS #TRX #ADA #XVG #ETH #XLM #GTO #NEO #LTC #XRB #RIPPLE #AIRDROPPinoy AirdropsYou can view and join @Pinoy_airdrops right away.t.me",1,0,0,False
303,BitcoinAgile@bitcoinagile,"#ethereum Juggles Flaming Chainsaws  Uphill on A Unicycle ETH by trader MagicPoopCannon  published February 23, 2018 #BNP https://tradingview.com/chart/ETHUSD/CZ6M6sed-Ethereum-Juggles-Flaming-Chainsaws-Uphill-on-A-Unicycle-ETH…",0,0,0,False
304,KoopVmesteKostroma@stonetokencrew,"Hey, guys! Our second and the best  Master of code is testing our #smartcontract ""Mr.Putin"" for a whole week!! The main thing for us is the safety of investors, guys, this is the most important for us.. Soon!!!! #ICO #Blockchain http://stonetoken.io #ethereum",2,2,0,False
305,Valera Dubrovin@valerasms,"#ENRT
Get EnergyToken, free Airdrop. Join now http://tokenenergy.net/?invite=4440 and earn 100 free #EergyTokens. Bring a friend and get +50 EnergyTokens.

#BTC #XRP #EOS #TRX #ADA #XVG #ETH #XLM #GTO #NEO #LTC #XRB #RIPPLE #VERGE",0,0,0,False
306,Mark W Hanna@MarkHannaBTC,"We need to close the next 4h candle above the resistance line ~358-360 to see the full moon 

$ETC #EthereumClassic #Ethereum",5,1,0,False
307,BitFloyd@readyrmca,"Ethereum Juggles Flaming Chainsaws — Uphill on A Unicycle (ETH) - ETHUSD TradingView https://tradingview.com/chart/ETHUSD/CZ6M6sed-Ethereum-Juggles-Flaming-Chainsaws-Uphill-on-A-Unicycle-ETH/… #ethereum #ETH #cryptocurrency #Crypto #CryptoCurrenciesEthereum Juggles Flaming Chainsaws — Uphill on A Unicycle (ETH) for BITFINEX:ETHUSD by MagicPoopC...Hi friends! Welcome to this update analysis on Ethereum! Let's get right to it. Looking at the four hour chart, you can see that ETH appears to be building a small inverse head and shoulders pattern....tradingview.com",0,0,0,False
308,nguyen trong nghia@nguyent84283253,"#PhnxToken pre-registration has started. Join now and get your free 300 tokens. 
https://phnxtoken.com/?r=66382#register… Share your ref link and win 100 more tokens for each member you refer. This offer valid for a short time. So be quick! 
#Airdrop #BTC #XRP #TRX #ADA #XVG #ETH #XLM #BINANCE",0,0,0,False
309,PINOY Airdrops@saikeytemple193,"OWNDATA AIRDROP
1000 DTA = 100$

Register here : 
https://goo.gl/UhbhHV

-regstr with ur email
-confrm ur email

subscribe https://t.me/Pinoy_airdrops
#BTC #XRP #EOS #TRX #ADA #XVG #ETH #XLM #GTO #NEO #LTC #XRB #RIPPLE #AIRDROPPinoy AirdropsYou can view and join @Pinoy_airdrops right away.t.me",1,0,0,False
310,JZ@ZTrend,$OST looking like it wants to ramp on the 1 min after a successful retest. $BTC $LTC $ETH $SPY,1,1,0,False
311,Vladymyr Nakonechnyi@Colt_AF,"#PhnxToken pre-registration has started. Join now and get your free 300 tokens. 
https://phnxtoken.com/?r=66357#register… Share your ref link and win 100 more tokens for each member you refer. This offer valid for a short time. So be quick! 
#Airdrop #BTC #XRP #TRX #ADA #XVG #ETH #XLM #BINANCE",1,0,0,False
312,Edward Lawlor@EddyLawlor,Replying to @LamdenTauNow this is what you call progress $btc $eth @Cointelegraph,4,0,0,False
313,LIVE CRYPTO UPDATES@livecryptofeed,"Ethereum price went up: $856.26166476 USD
Previous Price: $841.192631 USD
#ETH #ETHEREUM",0,0,0,False
314,Paolo Marchesi@emmepi_11,"Look at this: https://steward.friendz.io/go?r=MzM0OTcx
#crypto #sale #ethereum #ICO #cryptocurrency #blockchain #TokenSale #friendzico #friendz",0,0,0,False
315,Gresham INTL@GreshamINTL,"Ethereum is facing what might be its biggest tech crisis in some time, with developers split over whether software changes should recover lost funds.
#bitcoin #ethereum #cryptocurrency #BTC http://crwd.fr/2opqfms",0,0,0,False
316,PINOY Airdrops@saikeytemple193," BTSG Bot 2Round  39 BTSG = $100

Register here : https://goo.gl/ZMLKLg

- Click ""JOIN AIRDROP""
- Claim My Token! 
- Done

Note : 1 March Airdrop Left

subscribe https://t.me/Pinoy_airdrops
#BTC #XRP #EOS #TRX #ADA #XVG #ETH #XLM #GTO #NEO #LTC #XRB #RIPPLE #AIRDROPPinoy AirdropsYou can view and join @Pinoy_airdrops right away.t.me",1,0,0,False
317,GrosWesh@GrosWeshfr,Gainfy is doing token airdrop. Sign up for free token via http://gainfy.com @gainfy #blockchain #healthcare #ICO #bitcoin #ethereum #gainfy #fintech #cryptocurrency #blockchaintechnology,0,0,0,False
318,BitcoinBank (BTCB) ICO@BitcoinBankICO,"Today, we have got a 683 satochis results from our Trading Software

Visit : http://bitcoin-bank.io  for more info

#ethereum#cryptocurrency#ripple#crypto#bitcoin#eth#ether#bitcoinmining#btc
#bitcoincash#bitcoinnews#digitalcoin#ico#BTC#BCH#RIPPLE#btcb#icoalert#ltc",0,0,0,False
319,Realidad Psicologica@RealidadPsi,"mine #Bitcoin #Ethereum #Litecoin or any cryptocurrency. with eobot: REGISTER HERE https://eobot.com/user/252099 safe and reliable. INVEST NOW!  #TCMS19,#حبك_يا_كويت_في_كل_بيت",0,0,0,False
320,Realidad Psicologica@RealidadPsi,"mining #Bitcoin #Ethereum #Litecoin #Dogecoin #Ripple or any cryptocurrency. with eobot: REGISTER HERE https://eobot.com/user/252099 safe and reliable .. INVEST NOW!  ""Nanette Fabray"",#ConfessionsFromANeighbor",0,0,0,False
321,Coin Spectator - Real-time cryptocurrency news@coinspectator,Polish Ministries Of Foreign Affairs And Finance Refute Interest In Venezuela’... #bitcoin #eth #fintech https://coinspectator.com/news/294750/polish-ministries-of-foreign-affairs-and-finance-refute-interest-in-venezuelas-petro…,0,0,0,False
322,Rishabh Grover@phunnyindian,"So many cheap alts.  Buying and buying.. 
$btc $eth $ltc $neoGIF",1,0,0,False
323,OKELANA SUNDAY@SundayOkelana,"This great project is an opportunity to secure a better future I fully support#CherEcocity #tokensale #ethereum #blockchain #eth #token #realestateQuote TweetMikey Wax@MikeyWax · Oct 28, 2017Thanks all for the amazing feedback so far on ""Spaceman""! Just posted the lyric video! Check it out and please RT 
http://youtube.com/watch?v=nWjSUKzMoOM…",0,0,0,False
324,David Schuman@CoachSchuman,The Future of Bitcoin: How will it change and what will happen now read here https://medium.com/@nucfootball/the-future-of-bitcoin-f218bec8f945… #bitcoin #altcoin #ether,0,0,0,False
325,Danley Aye Richard@AKPEKIAYEBAESIN,You have skills and you need solution https://skyllz.org  you can ask anything in @Skyllz_platform telegram group https://t.me/skyllz #Crypto #Blockchain #Skyllz #SDP #ethereum #bitcoin #cryptocurrency #btc,0,0,0,False
326,PINOY Airdrops@saikeytemple193,"CORBIT  200CORBIT= 100$

Register here: https://corbit.website/airdrop/bOnjD

-paste ur eth
-follow instructions

subscribe https://t.me/Pinoy_airdrops
#BTC #XRP #EOS #TRX #ADA #XVG #ETH #XLM #GTO #NEO #LTC #XRB #RIPPLE #AIRDROPPinoy AirdropsYou can view and join @Pinoy_airdrops right away.t.me",1,0,0,False
327,Hyped On Crypto@HypedOnCrypto,"$BTC update (4hr chart). As we thought, established another lower high, using the previous neckline of the H&S as resistance. #BTC will test the 200MA again and the support we held yesterday, soon. #bitcoin #ltc $ltc #litecoin #eth $eth #ethereum #cryptocurrency #crypto",5,1,0,False
328,aseer alattar@aseeralattar,"#PhnxToken pre-registration has started. Join now and get your free 300 tokens. 
https://phnxtoken.com/?r=66361#register… Share your ref link and win 100 more tokens for each member you refer. This offer valid for a short time. So be quick! 
#Airdrop #BTC #XRP #TRX #ADA #XVG #ETH #XLM #BINANCE",0,0,0,False
329,Sean Thomas@SmartBresource,"Move your trading to the #1 crypto exchange today! 
 https://binance.com/?ref=12073751 
#coinbase #Crypto #TRX #cryptocurrency #BTC #bitcoin #passiveincome #ETH #LTC #ENJ #NEO #ADA #ICX #BCC #ICO #altcoin #binance #cryptonews #etherium #trading #xrp #ripple #litecoin #cardona",1,0,0,False
330,Wandering Bob@CryptoBobcat,"Weekly Trade Summary 2/23/2018: Positive
$ETH/USD 

7 Bananas on the banana truck. 
No loss of coin position. 

Overall: I think market headed up. The daily chart is making smaller triangles. I like the hourly chart better. Might try sniping a banana or two over the weekend.The following media includes potentially sensitive content. Change settingsView",1,0,0,False
331,𝕄𝕒𝕣𝕥𝕚𝕟𝔽𝕚𝕝𝕞@Martin_AIM_77,"Replying to @arunsasiDon’t place all your eggs in one basket. Not all are culprits.
Yes many will fail and don’t have a reason to do an ICO. But once long time ago there was an ICO that was called:

Ethereum

Is everyone an expert and knows every single use case for every single ICO?

#ETH #ICO #BTC",0,0,0,False
332,JustFacts@JustFactsNL,"Crypto trade signals on Telegram https://goo.gl/N8CKNx  <--------- 

#Crypto #signals #telegram #BTC #ETH #CryptoNews #Cryptocurreny #Dash #Ripple #BCH #ETC #LTC #NXT #BTG #EOS #XMR #DGB #IOT #XRP #BITCOIN #Bittrex #Hitbtc #Binance #Poloniex #altcoin #XVG #HT #QTUM #NEO 44",1,0,0,False
333,Crypto Cleveland@ClevelandCrypto,"Upcoin in giving $500 credit for new signup: Trading starts in less than a week! Grab your account now. 

http://bit.ly/UP-Coin
$btc $eth $xrp $bch $ada $ltc $neo $xlm $eos $xem $miota $dash $xmr $trx $lsk $ven $etc $qtum $icx $btg $ppt $xrb $zec",0,0,0,False
334,JZ@ZTrend,$LUN beautifully setting up for what could be another move on the 1 min. Break away from this volume should be fast. $BTC $LTC $SPY $ETH,1,0,0,True
335,Elon Mc Butterballs@amazonbum,"Keep voting folks. We’re nearly there. Vote for wepower on binance. #wpr #btc #eth @WePowerN @binance_2017Quote TweetWePower@WePowerN · Feb 23, 2018""(...)We are grateful & proud of every one of you, who voted, shared this cause, expressed their support! Guys, you are WONDERFUL! Let's stay united until the last vote!"" - @Nikver & @Arturas_wpr sending  to you all!
Help #WePower to succeed, vote here: https://binance.com/vote.html",3,1,0,False
336,Danley Aye Richard@AKPEKIAYEBAESIN,"Like to know about #Skyllz The unified protocol to assess, validate and empower human skills.Join in our telegram https://t.me/skyllz   and you can also visit our website. #Crypto #Blockchain #Skyllz #SDP #ethereum #bitcoin #cryptocurrency #btc",0,0,0,False
337,Coin Gamma@coingamma,"Bitcoin $BTC Price: $10241.6 (2.08%)
Ethereum $ETH Price: $858.235 (5.55%)
Ripple $XRP Price: $0.999624 (5.54%)
Bitcoin Cash $BCH Price: $1266.84 (4.1%)
Litecoin $LTC Price: $210.163 (7.65%)
More Prices: https://goo.gl/Hb6qJN
#blockchain #bitcoinprice #crypto",0,0,0,False
338,brianzico@bri19351,"#PhnxToken pre-registration has started. Join now and get your free 300 tokens. 
https://phnxtoken.com/?r=66334#register… Share your ref link and win 100 more tokens for each member you refer. This offer valid for a short time. So be quick! 
#Airdrop #BTC #XRP #TRX #ADA #XVG #ETH #XLM #BINANCE",0,0,0,False
339,Golden Gateway@GoldenGatewayUS,Ethereum Governance 'Not That Bad' Says Buterin Amid Fund Debate http://officialgoldengateway.blogspot.com/2018/02/ethereum-governance-not-that-bad-says_23.html… #ethereum,0,0,0,False
340,Cacique@CaciquePM,"So excited! Every week is a progress for @nexus_socials  #SCL and their partner @moxy_one . This year promese greatness. #ethereum #$btcusdQuote TweetMoxyOne@moxy_one · Feb 23, 2018#WhiteLabel Partner Alert!  

Social!  

Social will be adopting the #MoxyOne system to offer their users with a debit card functionality — with custom company branded cards! 
  http://goo.gl/5ipDL5",1,0,0,False
341,LastKiss-@HoldYourColors,"@SYNCFAB Eliminate marketing costs by having buyers directly connect to your manufacturing facility https://blockchain.syncfab.com
#SyncFab #ICO #TokenSale #Ethereum #Altcoins #Blockchain #Token #AltcoinsSyncFab: OEM Parts Procurement & Supply Chain Blockchain PlatformSyncFab blockchain platform allows OEM Purchasing and Engineering Departments to source, procure, track, secure, and pay for precision parts.syncfab.com",0,0,0,False
342,/r/Ethereum@r_Ethereum,There were some question about how you would be able to earn crypto with the new Lympo Dapp #EthereumThere were some question about how you would be able to earn...reddit.com,0,0,0,False
343,thibault gourdon@Thibal69,"Airdrop 300 cubits : 
#airdrop #airdrops #freetoken #ico #crypto #cryptocurrencies #ETH #BTC
http://vy.tc/ekXtM58",0,0,0,False
344,#EndSars GentleWolf@realikeonwe,"Potentiam is the number 1 #decentralised  music #social network, connecting #music creatives directly to their target market using #blockchain #technology

Join the movement! https://t.me/potentiamgroup
#cryptocurrency #ethereum #ICO #InitialCoinOffering #fintech $VSM $OPT",0,0,0,False
345,Jason Simmons@Follow2TheMoney,$Ltc $Eth $Btc $Neo green :),2,0,0,False
346,PINOY Airdrops@saikeytemple193," PHRM Airdrop  10 PHRM = $100

Register here : https://pharmz.io/invite/?id=de9sAhJu…

- Enter ETH Address
- Copy Code
- Send Code to Group  https://telegram.me/pharmz_AD

Note: 80 Dys Airdrp Lft

#BTC #XRP #EOS #TRX #ADA #XVG #ETH #XLM #GTO #NEO #LTC #XRB #RIPPLE #AIRDROPPharmz AirdropYou can view and join @pharmz_AD right away.telegram.me",1,0,0,False
347,I'm Justin Dart...@Justin_Dart,Start today -> https://goo.gl/U9aHsd - #bitcoin #cryptocurrency #ethereum #blockchain #crypto #btc #money #litecoin #ripple #forex #eth #bitcoinnewsGIF,1,0,0,False
348,binancesignal@binancesignal11,"Free signals huge profit! https://t.me/Cryptosignalsofficial… $FUN $FTC $FLO $FLDC $FCT $FAIR $EXP $EXCL $ETH $ETC $LUN $NEO $XVG $1ST $2GIVE $LUN $NEO $XVG $1ST $2GIVE $CTR $CMT $CDT #BITTREX 8123Crypto Signals OfficialCryptocurrency Trading Signals 24/7 Crypto expert Our trading signals are based on Technical analysis No Pump, No Dump  Altcoins and trading advises brought to you by @Jairo548t.me",0,0,0,False
349,aRealWaynker@w4yneKER,"#Poland denies any interest in Petro #trading, despite earlier #Venezuelan media claims https://cointelegraph.com/news/polish-ministries-of-foreign-affairs-and-finance-refute-interest-in-venezuelas-petro… : #Cointelegraph $btc $eth $pay $neo $sec $sc",0,0,0,False
351,asraree@asrarcoin,"#ENRT
Get EnergyToken, free Airdrop. Join now http://tokenenergy.net/?invite=4439 and earn 100 free #EergyTokens. Bring a friend and get +50 EnergyTokens.

#BTC #XRP #EOS #TRX #ADA #XVG #ETH #XLM #GTO #NEO #LTC #XRB #RIPPLE #VERGE",0,0,0,False
352,PINOY Airdrops@saikeytemple193,"THRT  2000THRT = 1,500$

Register here : https://reg.thrivelabs.io/register?ref=2d170245f9e9ea87…

- Enter Email Address
- Confirm Email
-done

Top airdrop

#BTC #XRP #EOS #TRX #ADA #XVG #ETH #XLM #GTO #NEO #LTC #XRB #RIPPLE #AIRDROP",1,0,0,False
353,Jerelyn Panis@JerelynPanis,"RT @auroratoken
""Aurora Supercomputer Last Airdrop limited to 2000 participants""
#Airdrop #ethereum #token #cryptocurrency #GiveawayLast Airdrop#3 AURORA Supercomputer token 2000 participantsAURORA Token is a new ERC20 token AURORA is going to become a global, open source, decentralized supercomputer that everyone can access .Total supply : 1.000.000.000 ARA If you want to join the...docs.google.com",0,0,0,False
