,user,text,likes,retweets,replies,is_thread
0,Crypto Press@CryptoPressNews,"$ETH | #ETH - ethereum's Current Price: ▼ $187.9243 | 1h ▼ : -0.2 % | 24h ▼ : -1.86 % | 7d ▲ : 2.61% | More on:ETH > Ethereum News > Ethereum Pricing Information > Ethereum Charts > More! » Crypto.PressEthereum information portal: news, price information, and more about ETH.crypto.press",0,0,0,False
1,Tradesatoshi Price@TradeSatoshiP,"Prices update in $USDT every 1 hour:

$BTC - 9216.00 $
$ETH - 194.00 $
$XRP - 0.29 $
$TRX - 0.0190 $
$DOGE - 0.00269800 $
$LTC - 64.33 $

 #BTC #ETH #XRP #TRX #DOGE #LTC #Tradesatoshi #Crypto #Trading",3,1,0,False
2,chaawiiDz@ChaawiiD,"XERA Exchange - The next BIG thing in crypto currency exchanges. If you want some free tokens, head over to their competition, for a chance to win 15k tokens. https://gleam.io/4rhaQ/15k-xera-tokens-up-for-grabs…
#xeraexchange #blockchain #bitcoin #trading #ethereum #crypto #altcoin #cryptocurrency",0,0,0,False
3,WorldCoinIndex@WorldCoinIndex,Cryptocurrencies $ETH $LTC $DASH $XMR $ZCASH https://worldcoinindex.com,0,0,0,False
4,Joe Manzanares (#MillionDollarBTC) ₿@JoeManzanares,"XRP does have its fair share of naysayers who believe that it will be one of the cryptocurrencies that ends up going to zero.

#BlockChainNews
#BTC #BCH #LTC #ETH #XLM #BSV #BNB #DASH #XRP #ETC #USDTRipple CEO Has Grave Warning for Crypto Markets; Will XRP Survive a Market-Wide Purge?The Ripple CEO explained in an interview that he believes the vast majority of cryptos will eventually plummet to zero; will XRP be exempt from this?newsbtc.com",2,0,0,False
5,Justin Gesso@justin_gesso,"Vitalik Buterin's Ethereum had a great second quarter of this year, but the same cannot be said of Q3. Let's take a look at what happened. #ethereum https://thenextweb.com/hardfork/2019/10/23/ethereum-q2-performance-etoro-coin-cryptocurrency/…",0,0,0,False
6,Crypto Trade Tips@TradeFetcher,"Crypto Cradle detected: BITFINEX:ETHBTC (6H timeframe) Direction: LONG As at Nov 7, 23:57PM (UTC) $ETH #ETHBTC
This is a heads-up for a POTENTIAL trade only. View links on our Twitter page for more details. https://youtu.be/LJxM78Z0jHw v3.1 (beta)@TradeFetcher Crypto Cradle strategy market scannerCrypto Cradle trading strategy: https://tinyurl.com/cobb-courses-2019 @TradeFetcher on Twitter: https://twitter.com/tradefetcherTradeFetcher scans all Bitfin...youtube.com",0,0,0,False
7,Minting Coins® | mintingcoins.eth @MintingCoins,"From Pomp, @APompliano: Epic conversation. Will be out next week    https://twitter.com/_connerbrown_/status/1191796306236231680… https://upload.news/zzpcy2 | #Bitcoin #Ethereum #Blockchain #OpenBlockchainQuote TweetConner Brrrrrrrrrrr@BitcoinConner · Nov 5, 2019Just had a great conversation with @APompliano about bitcoin, the limits of smart contracts, politics, open source institutions and more. 

Looking forward to sharing!",1,0,0,False
8,EQXCrypto Exchange@EcryptoExchange,"After you have set up the http://metamask.io wallet, you can use your wallet’s address to receive coins and the ability to send coins to other wallets.

Start Here
https://cryptospecialistexchange.com
#Ethereum",1,1,0,False
9,Bitcoin NYS ℠@bitcoinnys,"From Pomp, @APompliano: Epic conversation. Will be out next week    https://twitter.com/_connerbrown_/status/1191796306236231680… https://upload.news/zzpcyy | #Bitcoin #Ethereum #Blockchain #OpenBlockchainQuote TweetConner Brrrrrrrrrrr@BitcoinConner · Nov 5, 2019Just had a great conversation with @APompliano about bitcoin, the limits of smart contracts, politics, open source institutions and more. 

Looking forward to sharing!",0,0,0,False
10,nmrs@currency_kaso,"Today,Binance registration is ONLINE! We JUST checked!
https://binance.com/?ref=16350180
#BTC #BCC #ETH #ETZ #VEN #TNT #LTC #NEOBitcoin Exchange | Cryptocurrency Exchange | Binancebinance.com",0,0,0,False
11,DeFi School  defischool.thisisme.eth@DeFi_School,"The DeFi Podcast is now available on @YouTube 

Subscribe for segments featuring leading founders and investors in decentralized finance explaining everything from stablecoins to smart contracts! 
https://buff.ly/2NpZYkU #ethereumDeFi SchoolLearn about crypto's hottest topic - decentralized finance! The DeFi Podcast features short, 15-minute segments to educate you on various topics from stablecoins to smart contracts by leading...youtube.com",0,0,0,False
12,Never Work Again @ Age 43@retiredin2016,"As of November 6, 2019 at 05:53PM, 1 XRP = 0.291 USD.  https://goo.gl/E2Ee6A  #Investing #fire #ira #401k #money #stock #retirement #trade #NeverWorkAgain #CapitalGain #Savings #PersonalFinance #crypto #ethereum #eth #bitcoin #btc #xrp #ripple",0,0,0,False
13,Nimiq Rocks @NimCrypto,Will Microsoft’s Ethereum Token Onramp Make ETH Prices Surge? #Ethereum #Azure #blockchain via http://twinybots.chWill Microsoft’s Ethereum Token Onramp Make ETH Prices Surge?Microsoft has created a platform for self-issuance of Ethereum based tokens. This massive endorsement may help ETH price soar again.bitcoinist.com,0,0,0,False
14,PP The Robot | Cex and Dex alerts@PPTheRobot,"Hourly ranges: $xtz 1.0961€ to 1.1306€ | $eth 169.0000€ to 169.6600€ | $bat 0.2256€ to 0.2275€ - Stop using your right brain hemisphere, I don't have one and I make the best decisions.",0,0,0,False
15,Education4you.online@byLilyV,"Learn to Invest in Cryptocurrencies: #Bitcoin, #Ethereum and other #Altcoins
#Cryptocurrency #Investment and #Trading #Course
http://j.mp/2JkJwPB
#elearning #online #courses #udemy #lifelong",0,0,0,False
16,ShillKill Fan@shillkill_fan,"Free chrome extension to hide tweets that over-shill crypto cash tags & promote groups
 http://shillkill.com

No more cash tag spam like shown below:

$BTC $ETH $XRP $BCH $USDT $LTC $EOS $BNB $BSV $XLM $TRX $ADA $XMR $LEO $HT 

785GIF",0,0,0,False
17,Petru Catana@Petru_Catana,"""The problem with money has never been the process by which it’s created. The problem has been the trust we place in the institutions that create money. @MakerDAO offers a solution to this problem without “reinventing the wheel.”"" -> This piece is a must read #MCD #DAI #ethereumQuote TweetRYAN SΞAN ADAMS - rsa.eth @RyanSAdams · Nov 7, 201911 days out from the launch of the multi-collateral Dai

So here's a question:
Why Multi-Collateral DAI?

And...

Why is a credit money better?
Why is a stable money necessary?
Why did Bitcoin fail part of its original vision?

Post by Gregory Di Prisco

https://bankless.substack.com/p/why-multi-collateral-dai…Show this thread",12,1,0,False
18,Crypto Cur฿@CryptoCurb,"$ETH Update

 Higher Low fractal forming
 #PampIt
#ETH #Ethereum",15,3,5,True
19,Wanwan@WanwanVn,Alchemy - Asia's first cryptocurrency and fiat currency mobile payment solution for businesses and merchants in different countries. http://alchemytech.io #Alchemy #IEO #Crowdsale #Bitcoin #Blockchain #Token #ETH #Ethereum #TokenSale,0,0,0,False
20,Agatha Ventures@EarlyAdopter23,"Top 5 #cryptocurrencies 
 Alert Time: 2019-11-08 02:50:03
#Bitcoin: $9,270.151
#Ethereum: $188.232
#XRP: $0.293
#BitcoinCash: $293.767
#Tether: $1.006
#instabtc #instavenezuela #btc #cryptocurrencymarket #SmartCash
http://coincaps.ai",0,0,0,False
21,Automatski@theautomatski,Defining The Next 1000 Years Of Human Evolution http://bit.ly/2u1RYfn | #tokyo #funding #boston #washington #ITOs #godblessamerica #cleveland #ico #godblessamerica #seattle #bonus #louiesville #china #crypto #korea #orlando #italy #detroit #singapore #cuba #oakland #money #eth,0,0,0,False
22,Marcin Pawel@MarcinPress,"CryptoNinjas @crypto_ninjas writes about the integration of #bitcoin wallets to Nash Exchange: https://cryptoninjas.net/2019/11/07/bitcoin-btc-wallets-now-live-on-non-custodial-crypto-service-nash/…
$BTC $NEX $NEO $ETH #DEX #DeFi #NashBitcoin (BTC) wallets now integrated on non-custodial crypto service NashNash, the non-custodial crypto exchange and service company, has announced that bitcoin (BTC) wallets are now live for users. The ability to purchase BTCcryptoninjas.net",116,33,1,False
23,Aiyra@Aiyra01,Made a Police report and earned #cryptocurrency with the @BULVRDapp http://bulvrdapp.com/#app - Use my referral code : JixPa4uCow and we both get free tokens! #Ethereum #blockchain #geomining,0,0,0,False
24,DeFi Info@AboutDefi,"There is now over 650 million (USD) locked in #DeFi. Image from @defipulse
@KyberNetwork @UniswapExchange #ethereum @getnuo @compoundfinance #DAI @MakerDAO @b0xNet @InstaDApp @Bancor @SetProtocol @dydxprotocol @synthetix_io",26,5,1,False
25,ChaE YounG@ChaEYou53800684,"#Soraix , The vision of creating a balanced ecosystem that benefits mutual supplier consumers is a great concept.
 @Soraix3 @soraixteam #blockchain #SoraixICO #ICO #tokensale #SRX #BTC #ETH
https://t.me/soraixico
http://soraix.comTelegram: Contact @soraixicot.me",0,0,0,False
26,ChaE YounG@ChaEYou53800684,"#TheFaustFlick project looks special with really promising potential. It will be very interesting for everyone. Surely you will succeed!
@TFF_Token @TheFaustFlick @caressinghearts #Film #ExecutiveProduce #ETH #TFF #FilmBusinessBuster #TFF_Bounty @mehr2day @jongmyungLee2",1,1,0,False
27,CRYPTO END GAMEr@cryptoendgamer,$rlc this is what I call a Chico Magic Pump @ChicoCrypto I didnt know rlc existed. But I did get into chainlink $link way before Chico spoke about it. We do select good coins. $btc $eth #crypto,1,1,0,False
28,VF@VisionaryFinanc,"#Sponsored By Visionary Financial 

Trade, track, buy, and secure your #crypto in the #ShapeShift Platform. Create an account to receive a #KeepKey hardware wallet for only $10. 

Sign up now: http://bit.ly/34Cb3VV
#Bitcoin #Ethereum #XRP #Litecoin & More!",16,6,0,False
29,shah.ezham@shahezham1,"How do you earn your cryptocurrency? mining using machine or else? Buy it from exchanger and sell it when price is more than you buy? or platform genenator which will close at anytime without knowing? Join me at @EthStvo
#EthStvo
#ETHEREUM #earnmoney https://ethsto.io/?r=8460",0,0,0,False
30,Felix@AureumVictoria,"Nice! My #Trading Bot just sold $LXT with 3.33% profit on #huobi! 

Free test Bot: http://bit.ly/Bot_  (#Werbung)

#BTC $BTC #ETH $ETH #LTC $LTC #XRP $XRP #Cryptocurrency #Krypto #CryptocurrencyCryptohopper - The Most Powerful Crypto Trading BotCryptohopper is the best crypto trading bot currently available, 24/7 trading automatically in the cloud. Easy to use, powerful and extremely safe. Trade your cryptocurrency now with Cryptohopper,...cryptohopper.com",0,0,0,False
31,Amber Twemlow (Twem)@AmberTwemlow,"#Ethereum, current price ($): 188.32",1,0,0,False
32,Agatha Ventures@EarlyAdopter23,"Top 5 #cryptocurrencies 
 Alert Time: 2019-11-08 02:40:02
#Bitcoin: $9,270.311
#Ethereum: $188.305
#XRP: $0.292
#BitcoinCash: $294.388
#Tether: $1.005
#instacrypto #instaethereum #instaeth #SecretContracts $USD
http://coincaps.ai",0,0,0,False
33,Crypto squawk@SquawkCrypto,"Top movers of the day are GAPS $GAP and Universa $UTNP (chart). Generally, after the correction in the morning, crypto markets have rebounded in the afternoon. Over the last 24 hours 2100NEWS NWST1100 has declined by 1.45%,  Bitcoin $BTC by 1.07% and Ether $ETH by 1.75%.
$Crypto",2,0,0,False
34,Hispano Aurea@xtraignaciux,Updated Quad Kicker is here!! #Ethereum #BlockChain #NEWSで妄想 https://github.com/ethereum/go-ethereum/releases/tag/v1.9.7…,1,0,0,False
35,Leonardo [no ProgPow]@LeonPedretti,Imagine when Ethereum : Pos 2 + a Defi Ecosystem + Iot + backend of internet. Just imagine... #ethereum #pos #defi @ethereumita @jacoped,3,1,0,False
36,The Gem Lab@The_GemLab,$btc Everyone thinks 9400 not yet gotta kills 50x-100x. long. Entry imo - 9135-9160 Binance add $20 usdt for mex and bybit. Ladder sl 9089 structure is broken if it goes below 9100.  Targets 9350-9400  4-8 hours for entry  $eth $ltc $trx $xlm $xrp $ada $neo $bnb $trx $link $renThe following media includes potentially sensitive content. Change settingsView,4,1,1,False
37,R0gU3_K3y5@R0gU3_K3yS,"So because of a robbery thay happened, I actually found out there is a #bitcoin / #Litecoin / #Ethereum ATM in my jurisdiction! That's pretty cool, the ATM I mean. So I'm probably gonna go check it out when I go back in on Friday.
Anyone use bitcoin that follows me?",1,0,0,False
38,CryptoThayne@cryptosommelier,"China Signs Agreement With Hong Kong Central Bank for Blockchain Push https://ift.tt/34BEebs 
$Bolt + is also making BIG moves Download Bolt + Android & IOS
https://boltpluslink.com/na
$crypto $ont $xlm $Btc $bnb $xrp
$Neo $Bnb $LTC $QTUM $ETH",2,1,1,False
39,Adrian's Toaster@enigmapi_one,"Hello humans, as of Thu Nov  7 17:30:14 CST 2019, current #cryptocoin prices:
#bitcoin is $9276.5115
#dash is $73.0258
#dogecoin is $0.0027
#ethereum is $187.8525
#iota is $0.2727
#litecoin is $62.1705
#ripple is $0.2923",1,0,0,False
40,Live Crypto Prices@CryptoPrices4U,"Top 5 #cryptocurrencies 
 Alert Time: 2019-11-08 02:30:07
#Bitcoin: $9,231.23000
#Ethereum: $186.90000
#XRP: $0.29156
#BitcoinCash: $293.23000
#Tether: $0.99981
#FreeCoin #enigma #ath #neoDashboard of Live Crypto PricesLive Crypto Prices shows the most accurate crypto live prices, charts and market rates from trusted top crypto exchanges globally. Live Crypto Prices has over 1600+ cryptocurrencies, trusted histor...livecryptoprices.com.au",0,0,0,False
41,Agatha Ventures@EarlyAdopter23,"Top 5 #cryptocurrencies 
 Alert Time: 2019-11-08 02:30:06
#Bitcoin: $9,276.511
#Ethereum: $187.853
#XRP: $0.292
#BitcoinCash: $294.176
#Tether: $1.005
#instavenezuela #ico #xrp #IoT #markets
http://coincaps.ai",1,0,0,False
42,Tony @ crypto60@crypto_sixty," 1 Hour crypto $USD prices

#BTC  $9228.64 (-0.01%)
#LTC  $61.83 (-0.03%)
#BNB  $20.38 (-0.05%)
#TRX  $0.0196 (+0.05%)
#XLM  $0.0745 (-0.19%)
#ETH  $186.98 (-0.04%)
#XRP  $0.2903 (-0.03%)
#BCH  $292.55 (-0.20%)

http://crypto60.com #bitcoin #crypto",0,0,0,False
43,Nimiq Rocks @NimCrypto,AdvertSuite #Ethereum #ico #crypto via http://twinybots.ch https://advertsuite.com/?aid=1395121,0,0,0,False
44,Crypto Mak @crypto__mak,Planning the demise of OpenZeppelin Contracts' evil twin  Join the discussion on the options in the community forum https://reddit.com/r/ethereum/comments/dt6axt/planning_the_demise_of_openzeppelin_contracts/?utm_source=dlvr.it&utm_medium=twitter… #ethereumPlanning the demise of OpenZeppelin Contracts' evil twin  Join...Posted in r/ethereum by u/abcoathup • 6 points and 0 commentsreddit.com,0,0,0,False
45,FullStackJack@FullStackJack1,Requesting faucet funds into 0x0D85295e9B0f87A506d3ce71B69F996e55746352 on the #Rinkeby #Ethereum test network.,0,0,0,False
46,FrankLy@Frankrypto,"$NKN Update - the bus has arrived. From here, enjoy your profits. U r still welcome. matic $Xlm $Wpr $eth $Btc $Eos $cnd $qsp $req $go $Vet $Lend $Beam $Mft $Key $Zil $Iotx $Data $Cdt $snm $tnt $Rcn $Btt $Ren $eos $ltc $btc $bnb $dock $nano $trx $iost $hc $nav $fuel $dgb $link",4,1,0,True
47,Uniswap Unicorns@UniswapUnicorns,"Tassat Is One Step Closer to Offering Crypto Derivatives With CFTC Approval 

http://allcoinsdaily.com/tassat-is-one-step-closer-to-offering-crypto-derivatives-with-cftc-approval/…
#cryptonews #crypto #btc #eth #eos #xrp #ltc",0,0,0,False
48,CRYPTOIDOLIC21 - I buy coins and I know things@CryptoIdolic21,Replying to @gator_bitcoinI’m thinking about just going with my original $ALTS first if I enter back.  $LTC $ETH $FUN $NEO $ARK,1,0,0,False
49,Fungibler@Fungiblers,"We were one of the lucky ones to receive a @DecadentInc Halloween Special #NFT. Check more of them out on @opensea
https://opensea.io/assets/0xcc132611673ada7dac13dff5246d3b7ab1cf125f/0…
#Blockchain #crypto #Ethereum #Dapps #technews #cryptocurrency #digitalcollectibles #digitalassetsDecadent's CreepyKitty - Decadent Graveyard | OpenSeaPurple taped cardboard box with a creepy neon cat inside, 2 on the right side; designed by OA for Decadentopensea.io",3,1,1,False
50,aWebAnalysis | Crypto@aWebAnalysis,"Ethereum ETH Current Price:
$187.92
1 Hour: 0.01 % | 24 Hours: -1.75 % | 7 Days: 2.54 %
#eth #ethereum",0,0,0,False
58,coinOK@coinok,Order your secure and smart BTC/ETH/Altcoin hardware wallet - Only 94.80 EUR https://ledgerwallet.com/r/4518?path=/products/ledger-nano-s… #bitcoin #btc #eth #altcoin 18:20,0,0,0,False
59,Rami Ali@airdrops_token,"Guide to Earn 30-1000$ Daly with $KCS Coin

http://bit.ly/free-coin-guide
$BTC $ETH $ONT $DCR $XMR $VET $XTZ $ENJ $RVN $BRD $KMD $TUSD $THETA $ARDR $REP $BTS $ETN $IOTX $POWR $BQX $EDO $PIVX $QKC $SYS $MITH $MAN $POE
$LINK $ADA $XRP $MATIC $TRX $BNB",0,0,0,False
60,Agatha Ventures@EarlyAdopter23,"Top 5 #cryptocurrencies 
 Alert Time: 2019-11-08 02:20:02
#Bitcoin: $9,271.611
#Ethereum: $187.959
#XRP: $0.292
#BitcoinCash: $294.437
#Tether: $1.005
#cryptocurrency #btc #BigData $QRL #rt
http://coincaps.ai",0,0,0,False
61,jimmyfrench@jimmyfr50399803,"I want to introduce you to my secret of bitcoin mining that can generate huge profit within a short period of time..
#bitcoin #cryptocurrency #forex #crypto #ethereum #blockchain #bitcoinmining #btc #money #business #millionaire #binaryoptions #trading #entrepren come",0,0,0,False
62,Katie Sherlock@CherninaAlyona,current support and resistance levels for eth http://bitcoin.letsdrinkbeer.site/how-much-is-bitcoin-at-the-moment… #eth to ast,1,0,0,False
63,FiVeFoT@FivePHOT,Replying to @cryptorecruitrI’ve gone heavy on $ETH. Looks where the developers are gravitating and where large scale companies look for Blockchain solutions. ETH 2.0 (if implemented as planned) will solve all current issues with the code. 3k might be low.,2,0,0,False
64,𝙏𝙝𝙚 𝙇𝙞𝙤𝙣 𝙄𝙣𝙫𝙚𝙨𝙩𝙤𝙧 @Lion_Investor,"Bitrue's Power Piggy gives you up to +10% interest on the following #CryptoCurrency: $BTC $ETH $XRP $TRX & more!

Register for Bitrue Exchange here for #Free #Crypto with daily payouts!Download Bitrue App and sign up, get Sign-up Package at once. Open the package you will have a...Download Bitrue App and sign up, get Sign-up Package at once. Open the package you will have a chance to win 60,000 XRP! Moreover, inviting friends will get commission rebate up to 50%!For details,...bitrue.com",2,0,0,False
65,Automatski@theautomatski,Defining The Next 1000 Years Of Human Evolution http://bit.ly/2u1RYfn | #washington #privateequity #perth #PrivateEquity #Top10 #cybersecurity #minneapolis #chicago #comsa #icoalert #sale #adelaide #raleigh #cybersecurity #pittsburgh #ether #lasvegas #avcj #portland #pittsburgh,0,0,0,False
66,Cryptobits News@CryptoBitsNews1,"Bithumb Chain: Not Just Another Exchange Blockchain? 
Bithumb https://cryptobits.news/bithumb-chain-not-just-another-exchange-blockchain/?utm_campaign=twitter&utm_medium=twitter&utm_source=twitter…
#Bitcoin #Bitcoinnews #BTC #Crypto #Cryptocurrency #Cryptonews #digitalcurrency #Ethereum #hodl #Litecoin",0,0,0,False
67,Password Coach@PasswordCoach,"Finding your way around the Password Coach Book of Password Hints is child’s play. As is creating endless bullet-proof, disconnected passwords #cryptocurrency wallet #btc #eth #xrp #bitcoin #blockchain https://youtu.be/hu8pQSzZ4Xs",1,1,0,False
68,Crypto Mako@CryptoMako,"Results:
$BTC $ETH $XRP $LTC $BNB $XLM $ADA $XMR $ONT $BAT $VET $ZRX $OMG $RLC $REN $TOMO",0,0,0,False
69,Agatha Ventures@EarlyAdopter23,"Top 5 #cryptocurrencies 
 Alert Time: 2019-11-08 02:10:03
#Bitcoin: $9,276.821
#Ethereum: $188.376
#XRP: $0.292
#BitcoinCash: $295.166
#Tether: $1.005
#IoT #AI #trading #money #stockmarket
http://coincaps.ai",0,0,0,False
70,Agatha Ventures@EarlyAdopter23,"#tether #responds to #academic #paper on #bitcoin #manipulation; #calls it #‘flawed’ and #’embarrassing’ 
#instacrypto #instaethereum #instaairdrop #ethereum #trading #cryptocurrencymarket #SecretContracts #fintech #trading $ETH $CNY $XBT
http://bit.ly/2PXx5y4",0,0,0,False
71,Agatha Ventures@EarlyAdopter23,"#russia #mulls new #bitcoin #confiscation #law
#instabitcoin #instablockchain #ico #ethereum #trading #altcoins #binance #bittrex $BTC $BTCUSD #stockmarket #retweet
http://bit.ly/2K0OEcQ",0,0,0,False
72,Joe Pile@JoePile5,"Follow these step-by-step instructions outlining what you need (info, documents, ID, etc) to complete your registration @BinanceAmerica so you won't be caught off guard! 
#bitcoin #eth #cryptocurrencyHow to Register & Get Verified on Binance USBinance US is now open for business enabling full fiat deposits and withdrawals for those migrating from Binance after the ban on US…cryptobuffett.medium.com",1,0,0,True
73,Amber Twemlow (Twem)@AmberTwemlow,"#Ethereum, current price ($): 188.55",0,0,0,False
74,Agatha Ventures@EarlyAdopter23,"#china’s #president #xi wants the #nation to #lead on #blockchain, but #insiders say #local #governments might get in the way 
#instablockchain #instaeth #instaairdrop #btc #ethereum #airdrop #trading #FreeCoin #BigData #dapp #trading #markets
http://bit.ly/2NPpeQD",0,0,0,False
75,Agatha Ventures@EarlyAdopter23,"#microsoft will #work with #ethereum to #develop new #digital #assets
#instacrypto #instaico #btc #ethereum #trx #trading #cryptocurrencymarket #SecretContracts #trading #enigma #markets #retweet
http://bit.ly/2K1GbX3",0,0,0,False
76,bitsmart.ioETHbot@bitsmart_eth,"ETH $188.39 Up +$0.96 +0.51% in the last hour #ethereum #bitsmartbitsmart :: Ethereum news, price, social media analysis and market sentimentbitsmart monitors the latest Ethereum news, price, social analysis and market sentiment 24/7bitsmart.io",1,0,0,False
77,Cryptobits News@CryptoBitsNews1,"Ripple CEO Has Grave Warning for Crypto Markets; Will XRP 
 https://cryptobits.news/ripple-ceo-has-grave-warning-for-crypto-markets-will-xrp-survive-a-market-wide-purge/?utm_campaign=twitter&utm_medium=twitter&utm_source=twitter…
#Bitcoin #Bitcoinnews #BTC #Crypto #Cryptocurrency #Cryptonews #digitalcurrency #Ethereum #hodl #Litecoin",0,0,0,False
78,Jeff@jboicertified,"If you haven't yet, check out Nexo where you can either acquire instant cash or earn income by just parking your #crypto if you plan on #HODL ! Check out the rates below for #cryptocurrency such as #BTC #ETH #XRP #LTC
https://nexo.io/instant-crypto-loans?utm_source=visionaryfinance&utm_medium=fixed&utm_campaign=nexoeverywhere…",1,1,0,False
79,ClankApp - Crypto Whales Tracker @ClankApp,"Last hourly biggest #ETHEREUM blockchain transaction : 
 
2,507,368 #USDT (2,507,355 USD) from #binance to #binance
 
Detail: https://clankapp.com/tx/usdt/064ccc3282852f6e68e91032049b02e505c6ef96009f784b2a87cd08c02bccdf…
 
Date : 2019-11-07 22:07:21 (GMT +0)Ethereum (USDT) / Transaction Detail / $2,507,355 from binance to unknown wallet - ClankAppEthereum whale transaction with a value of 2,507,355 USD (2,507,368.000 USDT) move from binance to unknown wallet - 2019-11-07T22:07:21 (GMT 0)clankapp.com",0,0,0,False
82,Angins@anginmaghfur,"SwapZilla client will be able to conveniently analyze the portfolio and make informed decisions about changing its structure, tools for statistical analysis of any assets 
#SwapZilla #ico #crypto #bitcoin #ethereum #blockchain #btc #etc
https://swapzilla.co",0,0,0,False
83,HashRaptor@HashRaptor,Initial #Ethereum hashrate for the *new* EVGA 1660 Super XC Ultra. Impressed so far. Video with testing should hit soon :). #GPUMining #Crypto #Mining,15,3,7,False
84,Cryptobits News@CryptoBitsNews1,"Tassat Is One Step Closer to Offering Crypto Derivatives 
 https://cryptobits.news/tassat-is-one-step-closer-to-offering-crypto-derivatives-with-cftc-approval/?utm_campaign=twitter&utm_medium=twitter&utm_source=twitter…
#Bitcoin #Bitcoinnews #BTC #Crypto #Cryptocurrency #Cryptonews #digitalcurrency #Ethereum #hodl #Litecoin",0,0,0,False
85,Miguel Elvir@miguelvir,Requesting faucet funds into 0x633C1255B44a83505ABfB67b038F9ba1AB13F685 on the #Rinkeby #Ethereum test network.,1,0,0,False
86,Agatha Ventures@EarlyAdopter23,"#binance’s #“blitzscaling” makes #bnb #highly #undervalued, #claims #report
#instacryptocurrency #instavenezuela #instanews #ethereum #ripple #bittrex #IoT #decentralized $JPY #money #markets #stockmarket
http://bit.ly/2X3cWsh",0,0,0,False
87,Michael Huntington@cryptoscanner1,"#CRYPTO is shooting up! Use https://cryptolume.co to find where COINS are moving. Track crypto with HIGH buyers and moving in PRICE!

#BTC #ETH #DX #XTZ #MKR #BTM #VET #DCR #AOA #VSYS #CRO #EKT #ETC #SNX #BTG #DOGE #KBC #ATOM #HOT #SC",0,0,0,False
88,Trading Strategist@TradeStrategyCo,"#BTCUSD $9218.57
Price change 1-Hour -0.20% | 1-Day -1.40% | 1-Week 0.97%
11/7/2019 11:01 PM

Real-time #bitcoin price + news analysis of 150+ global news sources every hour 24*7*365

#BTC #blockchain #ethereum #trading #ico #Crypto #cryptocurrency #news",0,0,0,False
89,MexWatcher@MexWatcher,"Future / Spot basis as of Fri Nov 08 08:01:27 JST 2019
$BCH : -0.88%
$XRP : -1.05%
$ETH : -0.64%
$EOS : -0.85%
$LTC : -0.97%
$TRX : -0.94%
$XBT : 1.90%
$ADA : 1.06%
(positive means contango.)
Ref Contract : Z19",0,0,0,False
90,LearnEverythingBITCOIN@cryptowealth10,"Ignore Crypto Twitter – Life as a Nocoiner Isn't That Bad -  http://ht.ly/hKpM30pc5Hd
#bitcoin #litecoin #stock #ethereum #cryptocurrency #blockchain #altcoins #income #cryptomining #ether #btc #cryptonews #digitalmoney #cryptowallets #digitalwallet #learneverythingbitcoinIgnore Crypto Twitter – Life as a Nocoiner Isn't That Bad – Featured Bitcoin NewsAs the price of BTC has dropped below $10K, there’s been a slew of absurd tweets saying things like this is the “last chance to buy BTC under $10,000.”news.bitcoin.com",0,0,0,False
91,AirdropsPlayroyal@RoyalDarlight,"adding BTC, release official roadmap, Play is clearly setting itself aside to become the number one online Token Platform play trade exchange http://ow.ly/c7s230pKzGz
@PlayRoyal_EN @CryptoAlliance3 @FIO_Social #bitcoin #BTC #ethereum #TRX #USDT #EXCHANGE #Crypto #cryptocurrency",7,4,0,False
92,Agatha Ventures@EarlyAdopter23,"#dogecoin #price up by #3.03% 
#instacryptocurrency #instabitcoin #instaeth #monero #newcryptocurrency #pumpanddump #coinbase #bittrex #FreeCoin #BigData $ETH $BTCEUR
http://bit.ly/32ojt1G",0,0,0,False
93,CryptoThayne@cryptosommelier,"Video: Bitcoin Cash Lets You Buy Equity Over the Counter at a Bar https://ift.tt/33oz7eB . 
$Bolt + is also making BIG moves Download Bolt + Android & IOS
https://boltpluslink.com/na
$crypto $ont $xlm $Btc $bnb $xrp
$Neo $Bnb $LTC $QTUM $ETH",1,0,0,False
94,ETH / GBP@EthGbp,"# ETH Price November 7th: 1 ETH = £145.9 GBP
#Ethereum #Ether",0,0,0,False
95,DailyCoin@dailycoinfo,New Ethereum (ETH) Price is $187.07 USD #Ethereum #ETH #DailyCoin https://dailycoin.info/market-center/ethereum…,0,0,0,False
96,Cryptoonair@cryptoonair1,"#celsius #network now #supports #tether at #12% #interest
#instanews #cryptocurrency #crypto #btcnews #ethereum #ripplenews #pumpanddump #dapp #btfd #node #pos #kucoin
http://bit.ly/2NO0s3i",0,0,0,False
97,Crypto Gulp@CryptoGulp,"Top 5 Cryptocurrencies - Current Prices

$BTC: $9,266.06 - Bitcoin  +0.08%
$ETH: $188.39 - Ethereum  +0.38%
$XRP: $0.291951509 - XRP  +0.05%
$BCH: $294.84 - Bitcoin Cash  +0.32%
$USDT: $1.00 - Tether  +0.01%",0,0,0,False
98,Crypto Nuthatch@CryptoNuthatch," 07-11-2019 23:00
 $ETH @ 187.41 $ - 169.61 € |  -1.916%
 $BTC @ 9241.41 $ - 8363.77 € |  -1.045%",0,0,0,False
99,Coindera@coindera,"Top 5

$WLO $XLM on @bitfinex +34%
$RCN $BTC on @bitfinex +43%
$RCN $BTC on @bitfinex +43%
$XVG $ETH on @bitfinex +55%
$XVG $ETH on @bitfinex +55%",0,0,0,False
100,Coin Trading Analytics@CoinTradingBot,"Top 100 avg 1h return: 0.2±0.8%; 68 up, 30 down
$BTC 0.3%  $ETH 0.4%
Best:
3.5% $AOA @AuroraOffic_en
2.9% $NRG @Energicrypto
1.9% $ETC @eth_classic
Top 101-200 avg 1h return: 0.2±1.5%; 66 up, 33 down
Best:
4.8% $RDD @reddcoin
3.1% $SAN @santimentfeed
2.6% $BEAM @beamprivacy",1,0,0,False
101,Coin Trading Analytics@CoinTradingBot,"Top 100 avg 24h return: -0.1±5.1%; 36 up, 64 down
$BTC -0.8%  $ETH -1.5%
Best:
26.3% $DX @DxChainNetwork
22.6% $XTZ @tez0s
12.2% $MKR @MakerDAO
8.9% $DCR @decredproject
8.1% $VET @vechainofficial
Worst:
-5.7% $XRP
-6.2% $ABBC
-8.7% $ILC
-8.8% $CHZ
-13.7% $BCN
#bitcoin #crypto",0,0,0,False
102,CoinCircus.io@CoinCircus, #Ethereum (#ETH $ETH) global volume weighted average is currently $186.952 | -0.55% change over 24hrs. #crypto #blockchain #market #news #coin #trading #cryptocurrency https://coincircus.io/ETH ,0,0,0,False
103,Crypto Buzz Tracker@TrackThatCrypto,"TOP-12 most-mentioned #crypto this hour:
1. #bitcoin
2. #luna
3. #ethereum
4. #icon
5. #xrp
6. #cardano
7. #tezos
8. #tron
9. #nem
10. #bitshares
11. #bitcoincash
12. #eos
#cryptocurrency #altcoin #blockchain #news #CryptoBuzzTracker",0,0,0,False
104,Bobe'bot@Bobe_bot,"1 #BTC = 9304.8237 #CHF
1 #ETH = 189.0565 #CHF
1 #DOGE = 0.00266288749468 #CHF
sources: @cryptonatorcom @bity",0,0,0,False
105,CoinTrendz.com@CoinTrendz,"Top 10 Mentions on Twitter in the last hour - $BTC $VET $ETH $XRP $XTZ $XLM $LINK $LTC $ZRX $TRX 

More on http://CoinTrendz.com ",2,1,0,False
106,Crypto Press@CryptoPressNews,"$ETH | #ETH - ethereum's Current Price: ▲ $188.0711 | 1h ▲ : 0.27 % | 24h ▼ : -1.61 % | 7d ▲ : 2.6% | More on:ETH > Ethereum News > Ethereum Pricing Information > Ethereum Charts > More! » Crypto.PressEthereum information portal: news, price information, and more about ETH.crypto.press",1,1,0,False
107,Tradesatoshi Price@TradeSatoshiP,"Prices update in $USDT every 1 hour:

$BTC - 9227.14 $
$ETH - 194.00 $
$XRP - 0.29 $
$TRX - 0.0190 $
$DOGE - 0.00269799 $
$LTC - 64.33 $

 #BTC #ETH #XRP #TRX #DOGE #LTC #Tradesatoshi #Crypto #Trading",3,1,0,False
108,Calm Like a Bomb @HungerInside303,Made a Pothole report on Johnson Drive and earned #cryptocurrency with the @BULVRDapp http://bulvrdapp.com/#app - Use my referral code : Bi2VjqdIuk and we both get free tokens! #Ethereum #blockchain #geomining,0,0,0,False
109,Crypto Follower@CryptoLionLife,"Tassat Is One Step Closer to Offering Crypto Derivatives With CFTC Approval https://coindesk.com/tassat-is-one-step-closer-to-offering-crypto-derivatives-with-cftc-approval…
#Crypto #CryptoFollower #share2steem #blockchain #Bitcoin #Ethereum #ETH #BTC #CoinDesk
The CFTC has granted Tassat a swap execution facility registration, bringing it one step c…",0,0,0,False
110,Automatski@theautomatski,Defining The Next 1000 Years Of Human Evolution http://bit.ly/2u1RYfn | #venturecapital #forthworth #atlanta #venture #Top10 #miv #AVCJKorea #Ethereum #funding #madison #Russia #dallas #miami #saintpaul #funding #saltlakecity #ico #tucson #paris #phoenix #tokyo #melbourne #btc,0,0,0,False
111,WhaleCallsAlts@WhaleCallsAlts,OKEX $ETH Weekly futures has liquidated a short position of 2301 contract at 188.327 - 2019-11-08 06:56:42,1,0,0,False
112,JMACK@JasonMack99,"HEY!!! In case you didn't know, you don't have to find a Coinflip Atm to purchase your favorite cryptos... You can use our site http://coinflip.tech  to purchase using credit cards!!  You're welcome  BETTA GET SOME
#BTC #LTC #ETH #TRX #KMD #DASH #LINKBitcoin ATMs Nationwide, Low rates, Buy Bitcoin with Cash - CoinFlipCoinFlip has the largest network of Bitcoin ATMs in the US. With Market leading low rates, buy using cash, card, or bank transfer. Buying Bitcoin has never been easiercoinflip.tech",11,6,2,True
113,Uniswap Unicorns@UniswapUnicorns,"Binance's ""Blitzscaling"" Makes BNB Highly Undervalued, Claims Report 

http://allcoinsdaily.com/binances-blitzscaling-makes-bnb-highly-undervalued-claims-report/…
#cryptonews #crypto #btc #eth #eos #xrp #ltc",0,0,0,False
114,Angins@anginmaghfur,"GOLD tokens are backed by physical gold stored in a secure vault. The gold stored is audited in real-time and can be verified online.1 TOKEN = 1 GRAM OF GOLD 99.99 PURITY
#goldtoken #erc20 #eth #blockchain #stablecoin https://gold.storage",0,0,0,False
115,PP The Robot | Cex and Dex alerts@PPTheRobot,"Hourly ranges: $xtz 1.1154€ to 1.1446€ | $eth 168.6300€ to 169.6300€ | $bat 0.2249€ to 0.2276€ - You didn't expect that, did you?",0,0,0,False
116,BITCOIN KOREA | ICO Advisor | Altcoin Expert@Bitcoin_Korea,"Bitcoin and Ethereum Market Update: November 7, 2019 #Altcoin #Bitcoin #Ethereum via http://twinybots.chBitcoin and Ethereum Market Update: November 7, 2019 | BTCMANAGERTotal crypto market cap added $5.4 billion to its value since Monday, November 4 and now stands at $251.8 billion. Top ten coins remained mostly flat for the last 24 hours but we saw Stellar (XLM)...btcmanager.com",0,0,0,False
117,Learn To Trade Forex@LearnToTradeFX_,"The S&P and Dow off highs but still close at record highs https://snip.ly/z3nhil #forex #investing #bitcoin #crypto #xrp #btc #eth #forexsignalsQuote TweetAlphaex Capital@AlphaexCapital · Nov 7, 2019The S&P and Dow off highs but still close at record highs https://snip.ly/z3nhil #forex #investing #bitcoin #crypto #xrp #btc #eth #forexsignals",0,0,0,False
118,Devan Naratama@DevanNaratama,"Alchemy provides you with hybrid payment solutions that will enable your offline and online businesses to accept fiat and crypto payments in simple, fast and secure manner. 

https://achpay.org #IEO #Crowdsale #Bitcoin #Blockchain #Token #ETH #Ethereum #TokenSale",0,0,0,False
119,Agatha Ventures@EarlyAdopter23,"Top 5 #cryptocurrencies 
 Alert Time: 2019-11-08 01:50:02
#Bitcoin: $9,272.254
#Ethereum: $188.250
#XRP: $0.292
#BitcoinCash: $294.723
#Tether: $1.005
#instablockchain #instabtc #instaeth #cryptocurrencymarket #AI
http://coincaps.ai",0,0,0,False
120,Never Work Again @ Age 43@retiredin2016,"As of November 6, 2019 at 04:50PM, 1 ETH = 186.96 USD.  https://goo.gl/E2Ee6A  #Investing #fire #ira #401k #money #stock #retirement #trade #NeverWorkAgain #CapitalGain #Savings #PersonalFinance #crypto #ethereum #eth #bitcoin #btc",0,0,0,False
121,Ko₿ra Trading@kobratrading,"Replying to @ChartVampireLOL This gif made me spit out my coffee!

Yeah just a scalp here. Mid-term we are going down. We never even kissed (but we got close) to the .5FIB from the 3K move.

We need .618 but CT knows this, and $BTC / $ETH NEVER do what CT wants. Only alts since low liquidity.",2,0,0,False
123,Bradley Townsend@TwitrDeliquent,"Would love to give a huge shoutout and congratulations to @PegNetNews on #100x growth in #hashrate since launch.

#defi #blockchain #ETH $FCT #100x",15,8,0,False
124,iAstra Media Group@Iastralive,"Turning our attention now to the other 29 coins that are currently tracked by Omenics, besides the top 10 coins, we find that 21 of them have a 5-5.9 score iAstra is a company on the move buy this one

Buy the iAstra Coin
http://equitybuyers.net/cryptoexchange/
#Ethereum",1,1,0,False
125,Cryptobits News@CryptoBitsNews1,"Bitcoin Will See First Mining Difficulty Decrease in Three 
 https://cryptobits.news/bitcoin-will-see-first-mining-difficulty-decrease-in-three-months/?utm_campaign=twitter&utm_medium=twitter&utm_source=twitter…
#Bitcoin #Bitcoinnews #BTC #Crypto #Cryptocurrency #Cryptonews #digitalcurrency #Ethereum #hodl #Litecoin",0,0,0,False
126,Bangkit Anom@anom_768,I'm participating in the #Blockchain Education #Giveaway to win $25 in Ethereum thanks to @BizBlockchainHQ! #TechEd #crypto #sweepstakes #ether #ethereum –Learn about Blockchain & Win $25 in Ethereum!Discover the world of blockchain technology and get a chance to win $25 in Ethereum.Submit as many...givelab.com,1,0,0,False
127,Crypto Mak @crypto__mak,Would you like to add an OPTIONAL layer of very light Auth analytics in your Dapp? https://reddit.com/r/ethereum/comments/dt34ja/would_you_like_to_add_an_optional_layer_of_very/?utm_source=dlvr.it&utm_medium=twitter… #ethereum,0,0,0,False
128,Crypto Mak @crypto__mak,Rage against the (EV)Machine part 1: contract size https://reddit.com/r/ethereum/comments/dt1n7r/rage_against_the_evmachine_part_1_contract_size/?utm_source=dlvr.it&utm_medium=twitter… #ethereum,0,0,0,False
129,P_S_trade #cryptotrading@P_S_trade,"#ETH #Ethereum #Crypto #cryptotrading #altcoins #bitcoin 
The consolidation on the market is going on now. Where will the price probably move? You can Read on http://bitcoinnews.com tomorrow!",0,0,0,False
130,Alphaex Capital@AlphaexCapital,"The S&P and Dow off highs but still close at record highs https://snip.ly/z3nhil #forex #investing #bitcoin #crypto #xrp #btc #eth #forexsignalsThe S&P and Dow off highs but still close at record highsAll major indices close higher The major stock indices closed off their high levels for the day as US/China trade deal details go back and forth.  However, they S&P and Dow still closed at record...snip.ly",1,0,0,False
131,ybc@ybc143,A must watch $vet $btc $eth #vechain #vefam http://kankanews.com/a/2019-11-06/0019047896.shtml…,10,1,1,False
132,The Lincolnian@ThisLincolnian,Ethan Allen Interiors $ETH Price Target Cut to $19.00 http://thelincolnianonline.com/?p=3182259,0,0,0,False
133,Mark J. Mueller@mark_j_mueller,Bitcoin and Ethereum are two of the biggest projects in the crypto space. Find out which is best in Bitcoin VS Ethereum: [The Ultimate Step-by-Step Comparison Guide] https://buff.ly/2ID1dtn #BTC #ETH #Crypto,0,0,0,False
134,ThirdBrainFx@thirdbrainfx,"Check all here --> https://thirdbrainfx.com/crypto.html 
On #Kraken #LTC to #USD -- > 61.55, volume --> 37429 
On #C-Cex #LTC to #BTC -- > 0.0124, volume --> 60 
On #Hitbtc #DOGE to #ETH -- > 0.00001377, volume --> 16950800 
On #Hitbtc #PPC to #BTC -- > 0.00002577, volume --> 10143",0,0,0,False
135,Automatski@theautomatski,The Topmost Technology Company In The World Today http://bit.ly/2u1RYfn | #kualalumpur #phoenix #ether #techcrunch #albuquerque #portland #sanjose #iconomi #southafrica #honolulu #miami #washingtonDc #ETH #icotracker #london #zloadr #austin #ethereum #pittsburgh #chicago #avcj,0,0,0,False
136,Agatha Ventures@EarlyAdopter23,"Top 5 #cryptocurrencies 
 Alert Time: 2019-11-08 01:40:02
#Bitcoin: $9,267.499
#Ethereum: $187.981
#XRP: $0.291
#BitcoinCash: $294.687
#Tether: $1.004
#instablockchain #bitcoin #newcryptocurrency #binance $BTC
http://coincaps.ai",0,0,0,False
137,CRYPTOIDOLIC21 - I buy coins and I know things@CryptoIdolic21,"Replying to @gator_bitcoinAlright, why $LINK and $ETC over the established $LTC and $ETH?",1,1,0,False
138,"Trade Alerts, Trade Ideas and Crypto @AlertTrade",$ETH to $600+ into June 2020 http://dlvr.it/RHrW0V  Start Trading for Free ⟶ http://nash.press √,1,0,0,False
139,Crypto Trader Pro @CryptoTraderPro,$ETH to $600+ into June 2020 http://dlvr.it/RHrW0G Nash (NEX) about to Mo0n? ⟶ http://nash.press √,0,0,0,False
140,BitcoinAgile@bitcoinagile,$ETH to $600+ into June 2020 for BITFINEX:ETHUSD by userfan #ETHUSD $ETH https://tradingview.com/chart/ETHUSD/antgh7yh-ETH-to-600-into-June-2020…,1,0,0,False
141,crypto_watchdog@cryptostar000,$ETH to $600+ into June 2020 - #ETHUSD chart$ETH to $600+ into June 2020 for BITFINEX:ETHUSD by userfanPrepare ur bags for the seasonal $ETH pumptradingview.com,1,0,0,False
142,Domain Address Info@DomainAddress4u,Running Ethereum Full Nodes: A Guide for the Barely Motivated via /r/ethereum https://ift.tt/2WXldOm hot  in #reddit #ethereum #eth #cryptoRunning Ethereum Full Nodes: A Guide for the Barely MotivatedPosted in r/ethereum by u/MidnightOnMars • 27 points and 12 commentsreddit.com,0,0,0,False
143,Domain Address Info@DomainAddress4u,Chatting with the Co-Founder of Linkedin Eric Ly about #DeFi & #Stablecoins via /r/ethereum https://ift.tt/2NJpIri hot  in #reddit #ethereum #eth #cryptoChatting with the Co-Founder of Linkedin Eric Ly about #DeFi &...Posted in r/ethereum by u/DJohnston • 29 points and 0 commentsreddit.com,1,1,0,False
144,CryptomaQ@CryptomaQ,"FBI Says Bitcoin Concern Is Getting ‘Bigger and Bigger’ https://cryptomaq.com/fbi-says-bitcoin-concern-is-getting-bigger-and-bigger/…
#bitcoin #bitcoinnews #ethereum #ripple #litecoin #crypto #cryptocurrency #cryptoupdate #cryptocurrencynews #blockchain #ltc #btc #xrp #ethFBI Says Bitcoin Concern Is Getting ‘Bigger and Bigger’In a recent U.S. Senate Committee on Homeland Security And Governmental Affairs hearing, Senator Mitt Romney expressed concerns about Bitcoin’s potential as a threat to national security. Federal...cryptomaq.com",1,1,0,False
145,スイサン@ngntjd_1022,"《Thank you for your virtual currency support m (__) m》

http://ow.ly/Qz6m30pQPUI
#bitcoin
#BTC
#ETH
#doge",0,0,0,False
146,Michael Hendricks@JudeNewcomb,"good day, #crypto universe! well, the team at #metrix is getting the recognition they deserve as they are now widely considered to be a top-10 masternode project. this is going to be one to watch during the next #altseason. make sure to get your $mrx on @IDAXpro today! $btc $ethQuote TweetOmni Analytics Group@OmniAnalytics · Nov 4, 2019Slightly updated version of the plot to include more logos.Show this thread",26,18,0,False
147,crypto_watchdog@cryptostar000,"$ETH $ETHUSD $BTC
Looking for Dec W1 to start this run or sooner
Target $600+ in June 2020.",1,0,0,True
148,DYOR.net@DYORCryptoBot,"[BOT SCAN - 07/11 22h]  Bullish rank on 1D 
1: $ZRX (12 pts) 
2: $RCN (10 pts) 
3: $BNT (8 pts) 
4: $CDT (8 pts) 
5: $ETH (8 pts)",0,0,0,False
149,CryptoThayne@cryptosommelier,"Ripple CEO: Only 1% of Today’s Cryptocurrencies  rewards. I love tips too. http://tinyurl.com/y55tsmz6 
$Bolt + is also making BIG moves Download Bolt + Android & IOS
https://boltpluslink.com/na
$crypto $ont $xlm $Btc $bnb $xrp
$Neo $Bnb $LTC $QTUM $ETH",0,0,0,False
150,My Crypto Advisor@MyCryptoAdvisor,"Who Could Foresee How Technology Would Evolve Since The Foundation Of Coca-Cola In The 19th Century? #btc #business #eth #tech
https://cointelegraph.com/news/coca-cola-using-blockchain-for-21-billion-per-year-network…",0,0,0,False
151,Adrian's Toaster@enigmapi_one,"Hello humans, as of Thu Nov  7 16:30:14 CST 2019, current #cryptocoin prices:
#bitcoin is $9269.9068
#dash is $72.8095
#dogecoin is $0.0027
#ethereum is $187.9738
#iota is $0.2718
#litecoin is $62.0746
#ripple is $0.2916",0,0,0,False
152,nTangled Cloud@nTangledCloud,Facebook Privacy Breach: 100 Developers Improperly Accessed Data https://buff.ly/2rkgquv #Tech #Technology #blockchain #innovation #science #IT #BigData #Security #Cybersecurity #ethereum #crypto #ICO #crowdfunding #cloud #cryptocurrency #IOT #computer #cloud #infosec #infosecu…,3,0,0,False
153,Agatha Ventures@EarlyAdopter23,"Top 5 #cryptocurrencies 
 Alert Time: 2019-11-08 01:30:05
#Bitcoin: $9,269.907
#Ethereum: $187.974
#XRP: $0.292
#BitcoinCash: $294.139
#Tether: $1.004
#newcryptocurrency #decentralized $ETC $BTCUSD #rt
http://coincaps.ai",0,0,0,False
154,ThirdBrainFx@thirdbrainfx,"Check all here --> https://thirdbrainfx.com/crypto.html 
On #Binance #BTC to #USD -- > 10314.14, volume --> 23565 
On #Livecoin #BLK to #BTC -- > 0.00000557, volume --> 21074 
On #IncoreX #ETH to #BTC -- > 0.0289914, volume --> 400 
On #Coinbase Pro #ZEC to #BTC -- > 0.004177, volume --> 50",0,0,0,False
155,Tony @ crypto60@crypto_sixty," 1 Hour crypto $USD prices

#BTC  $9229.77 (+1.05%)
#LTC  $61.85 (+1.26%)
#BNB  $20.39 (+0.89%)
#TRX  $0.0196 (+1.14%)
#XLM  $0.0747 (-0.31%)
#ETH  $187.05 (+1.02%)
#XRP  $0.2904 (+0.66%)
#BCH  $293.15 (+1.21%)

http://crypto60.com #bitcoin #crypto",0,0,0,False
