,user,text,likes,retweets,replies,is_thread
0,Crypto Press@CryptoPressNews,"$ETH | #ETH - ethereum's Current Price: ▼ $128.0981 | 1h ▼ : -0.09 % | 24h ▼ : -0.64 % | 7d ▼ : -10.11% | More on:ETH > Ethereum News > Ethereum Pricing Information > Ethereum Charts > More! » Crypto.PressEthereum information portal: news, price information, and more about ETH.crypto.press",1,0,0,False
1,Tradesatoshi Price@TradeSatoshiP,"Prices update in $USDT every 1 hour:

$BTC - 6900.00 $
$ETH - 128.00 $
$XRP - 0.20 $
$TRX - 0.0136 $
$DOGE - 0.00212000 $
$LTC - 41.32 $

 #BTC #ETH #XRP #TRX #DOGE #LTC #Tradesatoshi #Crypto #Trading",3,1,0,False
2,WorldCoinIndex@WorldCoinIndex,Cryptocurrencies $ETH $LTC $DASH $XMR $ZCASH https://worldcoinindex.com,1,1,0,False
3,CryptoCrusades@MerfolkGames,"We're in #SanFrancisco for blockchain meetings with business partners!

#blockchain #California #crypto #cryptocurrency #ethereum #startup #train",7,2,1,False
4,KrakenPrices@KrakenPrices," Prices update in $USD (1 hour):

$BTC - 7144.6 $  (+0.05 %)
$ETH - 127.02 $  (-0.2 %)
$XRP - 0.19 $    (-0.08 %)
$BCH - 186.2 $   (-0.16 %)
$LTC - 39.63 $   (-0.2 %)

#BTC #ETH #XRP #BCH #LTC #Trading #Crypto #Bitcoin",0,0,0,False
5,Cryptocurrencies / USD@cryptosUSD," Prices update in $USD (1 hour):

$BTC   - 7143.6 $    (+0.04 %)
$ETH   - 127.02 $    (-0.2 %) 
$XRP   - 0.19 $      (-0.08 %)
$BCH   - 186.2 $     (-0.16 %)
$LTC   - 39.63 $     (-0.15 %)

#USD #Dollar #BTC #ETH #XRP #BCH #LTC #Trading #Bitcoin #Ethereum",0,0,0,False
6,Cryptocurrencies / EUR@cryptosEUR," Prices update in $EUR (1 hour):

$BTC   - 6457.0 €  (+0.01 %)
$ETH   - 114.89 €  (-0.19 %)
$XRP   - 0.17 €    (-0.09 %)
$BCH   - 168.0 €   (-0.41 %)
$LTC   - 35.82 €   (-0.11 %)

#EUR #Euro #BTC #ETH #XRP #BCH #LTC #Trading #Bitcoin #Ethereum",0,0,0,False
8,Prime Trader@IdeasPrime,"ETH/BTC | $ETHBTC | $ETH $BTC

ETHBTC Watch if is the bottom

Long or short it on WCX: http://wcex.com/trade/ETH-BTC",0,0,0,False
9,Official | BitEclipse Exchange | Forex & Crypto@biteclipse96122,"[Importance High]
Please refrain from ""Free E-mail Address"" for ""Sign Up"" to avoid the case you can not receive an e-mail from our side. This is VERY IMPORTANT more than you imagine. Thank you.

#IEO #ICO #STO #Broker #Exchange #Forex #Crypto #BTC #ETH",5,1,0,False
10,InterBit Investment Exchange - InterbitToken@LuciferSoftware,"Be ready for the next boom from $enj #enj @enjin #ENJIN
#Predictions #Prediction made by @LuciferSoftware
#cryptolucifersoftware
#Crypto
#cryptocurrency
#cryptotrading
#cryptocurrencies #altcoins @binance #CRYPTO $eth $Btc $xrp #CryptoNews #CryptocurrencyMarketGIF",1,1,0,False
11,FrankLy@Frankrypto,Update on the script I have been working on. Progress. See for yourself. $ZIL WEEKLY $ICX $LINK $BTC $ETH $XRP $XLM $SYS $DOGE $LEND $STORJ $LEND $ADX $QLC $KNC $ICX $WPR $WABI $HOT $DOCK $LUN $MFT $NPXS $ONT $VET $QLC $BAT $ADA $MATIC $CELR $FET #Bitcoin #altcoins #Crypto $DGB,1,0,0,False
12,BlockChainFuture@MultiChainHub,Women in Blockchain http://dlvr.it/RLkJ4t #Blockchain #Tech #DeFi #Ethereum #DLT,0,0,0,False
13,Never Work Again @ Age 43@retiredin2016,"As of December 20, 2019 at 05:53PM, 1 XRP = 0.1915 USD.  https://goo.gl/E2Ee6A  #Investing #fire #ira #401k #money #stock #retirement #trade #NeverWorkAgain #CapitalGain #Savings #PersonalFinance #crypto #ethereum #eth #bitcoin #btc #xrp #ripple",0,0,0,False
14,kels@newaccountmadd,"#Spikes
This pattern, if it could even be called one, is extremely common in cryptocurrency. Spikes perform on the higher side of risk level and therefore they generate quick profits. These profit targets should be less than 2%. #BTC #ETH #Crypto #Trading #CandlestickPatterns",0,0,0,False
15,Alphaex Capital@AlphaexCapital,FinTwit - The Best Free Forex Tool You Are Not Using https://alphaexcapital.com/fintwit/ #forex #investing #bitcoin #crypto #xrp #btc #eth #forexsignalsFinTwit - The Best Free Forex Tool You Are Not Using In 2021Introducing FinTwit. Transform your twitter into an automated research tool - reading the most prolific and profitable trader's insights for free. Read more...alphaexcapital.com,1,0,0,False
16,Futures and Options@futuresoption,What is An Initial Coin Offering #ICOs http://futuresandoptions.gr/en/what-is-an-initial-coin-offering-icos/… #blockchain #Crypto #Bitcoin #btc #Ethereum,0,0,0,False
17,Thrones Crypto@ThronesCrypto,"Check out the #XTRABYTES Sub-Reddit

http://reddit.com/r/Xtrabytes
#crypto #cryptocurrency #tech #technology
$BTC $ETH $XRP $XMR $XBY $BCH $TRX $LTC $ADA $DGTX $EOS $ZEC $NEO $USDT $LINK $BNB $DGB $XEM $DOGE $OMG $ETC",0,0,0,False
18,InterBit Investment Exchange - InterbitToken@LuciferSoftware,"The $enj #enj @enjin #ENJIN
Will hit the Target price of 1133 satoshi  #Prediction made by @LuciferSoftware
#cryptolucifersoftware
#Crypto
#cryptocurrency
#cryptotrading
#cryptocurrencies #altcoins @binance #CRYPTO $eth $Btc $xrp #CryptoNews #cryptocurrencymarket #bitcoinGIF",1,0,0,False
21,Shafiul Alam@MasterPipoo22,"#Emirex project is gearing itself for the future. Why? It's features are so futuristic and simplistic at the same time. I can't tell you enough about it. You have to check it out yourself
#EMRX
#bitcoin
#Ethereum",0,0,0,False
22,FrankLy@Frankrypto,Update on the script I have been working on. Progress. See for yourself. $BTC MONTHLY $ICX $LINK $BTC $ETH $XRP $XLM $SYS $DOGE $LEND $STORJ $LEND $ADX $QLC $KNC $ICX $WPR $WABI $HOT $DOCK $LUN $MFT $NPXS $ONT $VET $QLC $BAT $ADA $MATIC $CELR $FET #Bitcoin #altcoins #Crypto $DGB,0,0,0,False
23,Calm Like a Bomb @HungerInside303,Made a Traffic report on E I 25 Frontage Rd and earned #cryptocurrency with the @BULVRDapp http://bulvrdapp.com/#app - Use my referral code : Bi2VjqdIuk and we both get free tokens! #Ethereum #blockchain #geomining,0,0,0,False
24,webnow@webnowcompany,#ALT #MIOTA #BTC #ETH IOTA (MIOTA) prices have fallen in the past 24 hours – despite upward trends in most altcoin prices and the release of a new roadmap. At the time of writin...Read more:iota pledges a bright 2020 in new roadmap but market is unimpressediota pledges a bright 2020 in new roadmap but market is unimpressedwebnow.company,0,0,0,False
25,Kevin Foster@KFost24,"Replying to @majinsayan$ETH has a broken structure and 5.5x the supply, people are dumb

$BTC never went back under $100 after the run to $1380",3,1,0,False
26,CryptoLuis@cryptoeconomyny,"#blockchain
#cryptocurrency
#MachineLearning
#Al
#QuantumComputing
#5G
All those technology will change the way we eat, play, live, shop, travel, plan. Picking the right #Crypto project is is crucial for success
My pics $vet #XRP #Ethereum #bitcoin #Chainlink #IoT #IoVGIF",1,0,0,False
27,Runkut@runkut_w,"Egoras Airdrop is now Live

Click on below link to participate into this amazing #Airdrop
https://t.me/egorasmarketbot
 Rewards: 500 + 30 EGR 
#Airdrops #blockchain #cryptocurrency #ICO #bitcoin #Crypto #ETH",0,0,0,False
28,CoinBlick: Crypto News @CoinBlick,"XRP Could Soon Fall Against Bitcoin, Analyst Warns as Pressure Builds https://newsbtc.com/2019/12/21/xrp-could-soon-fall-against-bitcoin-analyst-warns-as-pressure-builds/… $BTC $XRP $ETHXRP Could Soon Fall Against Bitcoin, Analyst Warns as Pressure BuildsOver the past few days, Bitcoin has strongly outperformed altcoins, especially Ethereum and XRP. On Wednesday, when BTC was trading 8% down on the week, bothnewsbtc.com",0,0,0,False
29,marco A saavedra G@Marcsaa1828,These guys are giving away $500 in $ETH every day in a crypto competitionJoin CoinCircleI might earn up to $200 just for sharing this post! Join CoinCircle and learn how you can too.coincircle.com,0,0,0,False
30,Justin Gesso@justin_gesso,"Ethereum Classic, now the 25th largest digital asset with the current market value of $436 million and an average daily trading volume of $769 million #ethereum https://fxstreet.com/cryptocurrencies/news/ethereum-classic-etc-in-retreat-as-the-team-prepares-for-agarata-201912120842…",1,0,0,False
31,Adds Skyline@addsprint,"#OKEx #USDK #Airdrop is Coming!

Top 3 Exchange/Clear tasks/Cash bonus

Pool: $100,000

$5 for participant and $1 referal at least

Come & earn: 
https://t.me/OKex_Airdrop_Bot…
#Airdrops #OKEx #Crypto #Bounty #BTC #ETH #Blockchain",0,0,0,False
32,Rafał Chraboł@RafalChrabol,"The latest Fintech Daily by Rafael! http://news.bizpark.co/?edition_id=c64baed0-244a-11ea-a278-0cc47a0d1605… Thanks to @Cointelegraph #mostinfluential2019 #ethereumPassive Decryption of Ethereum Peer-to-Peer Trafficresearch.nccgroup.com Ethereum, a popular cryptocurrency, utilizes a P2P flood network overlay protocol in order to propagate new transactions and state around the network. As has been shown in...news.bizpark.co",0,0,0,False
33,FinTech News Hub@fintechnewshub,"Our featured article for today! Please don't forget to subscribe to our daily newsletter at http://fintechnewshub.com/?edition_id=9fe36080-244a-11ea-a9ac-0cc47a0d164b… to receive our daily curated #crypto and #blockchain #news.

#bitcoin #btc #ethereum #eth #ripple #xrp #cardano #ada #litecoin #ltc #eos #xlm #trx #dash #iota #xmrEthereum's Most Active Application is Unstoppable Domainsbitcoinist.com After CryptoKitties, the Ethereum blockchain again has an application that has been the most active on its network recently. Following the launch of its .crypto registry for blockchain...fintechnewshub.com",0,0,0,False
34,EdmundOng@EdmundOngJJ,"$LABX $BTC $ETH $BITG $SCAP $DOGEC $SOVEQuote TweetStakinglab@Staking_LAB · Dec 21, 2019We'd like to WELCOME @CoinDelion on our #platforms!
""#POS and #Masternode #Coin.
#Currency that is used as payment in all #Delion #Project, #Ecosystem""
Join our #shared #masternode: https://stakinglab.io/pools/2391
#cryptonews #passiveincome with #Rewards",1,1,0,False
35,Kelly Crypto@kellysiqili,"#ALTCOINS are MOVING! Use https://cryptolume.co to scan for OVERSOLD RSI, MACD CROSSOVERS and where BUYERS are going!

#BTC #ETH $MATIC $HEDG $NEX $LUNA $MCO $TOMO $WAVES $MONA $ZEN $SEELE $HT $XLM $SOLVE $STEEM $ETC $ICX $SAI $LEO",0,0,0,False
36,Uniswap Unicorns@UniswapUnicorns,"XRP Could Soon Fall Against Bitcoin, Analyst Warns as Pressure Builds 
#cryptonews #crypto #btc #eth #eos #xrp #ltc
https://allcoinsdaily.com/xrp-could-soon-fall-against-bitcoin-analyst-warns-as-pressure-builds/…",0,0,0,False
37,Tony @ crypto60@crypto_sixty," 1 Hour crypto $USD prices

#BTC  $7166.19 (+0.19%)
#LTC  $39.78 (-0.18%)
#BNB  $13.36 (+0.15%)
#TRX  $0.0135 (+0.60%)
#XLM  $0.0455 (-0.09%)
#ETH  $127.64 (-0.02%)
#XRP  $0.1918 (+0.10%)
#BCH  $186.46 (-0.03%)

http://crypto60.com #bitcoin #crypto",0,0,0,False
38,Live Crypto Prices@CryptoPrices4U,"Top 5 #cryptocurrencies 
 Alert Time: 2019-12-22 02:30:09
#Bitcoin: $7,141.18000
#Ethereum: $127.24000
#XRP: $0.19314
#Tether: $1.00000
#BitcoinCash: $186.46000
#instabtc #bittrex #coldstorage #bitfinexDashboard of Live Crypto PricesLive Crypto Prices shows the most accurate crypto live prices, charts and market rates from trusted top crypto exchanges globally. Live Crypto Prices has over 1600+ cryptocurrencies, trusted histor...livecryptoprices.com.au",0,0,0,False
39,ThirdBrainFx@thirdbrainfx,"Check all here --> https://thirdbrainfx.com/crypto.html 
On #Bittrex #XRP to #USD -- > 0.19188865, volume --> 24873853 
On #Poloniex #XRP to #USD -- > 0.19163264, volume --> 34568602 
On #wexnz #ETH to #USD -- > 584.35511, volume --> 4642 
On #wexnz #ETH to #BTC -- > 0.0693, volume --> 3094",0,0,0,False
40,GetTheCrypto@GetTheCrypto1,#bitcoinnews Crypto's Is The Future  #ETH - 0x3BC690c604d170BB53c155cb66074B4DE1172C36,0,0,0,False
41,Crypto Moose@crypto_rasmus,"December has been good to me  I have picked up #cryptocurrency like crazy 
#BTC
#LTC
#VET
#XRP
#XLM
#ETH  and some more Bitcoin 

I still have some pocket change  What do I need as my last investment in 2019 ? Hit me ",1,0,0,False
45,Havacube@havacube,"Free money guys no joke https://coinbase.com/earn/oxt/invite/zxk3fb4n…
#ERC20 #CRYPTOMONNAIE #TELCOIN #DYNMT #AZBIT #TRON #PARJAR #ETHEREUM #BITCOINSV #CARDANO #TEZOS #STELLAR #CHAINLINK #HUOBI #NEO #ETC #QTUM #ZRX #ENJIN #IOST #NRG #BTMX #ETN #DGTX https://pic.twitter.com/IhoMd4YnFMEarn OrchidWatch short educational videos and earn Orchid (OXT).coinbase.com",0,0,0,False
46,∞Brian Michael∞@CryptoNaut11,Just took a look at the Bitcoin price. #DYOR #BTSE $NEXO #Dai #bitcoin #BTC #btc #ETH #LTC #XLM #Zcash #LitecoinFam #ZRX #ICX #XMR #twitch #FOMO #alts #Crypto #love #gymflow #workout #GettingBetterEveryDay #lovewhatIdoGIF,2,1,0,False
47,Masternode.co@Masternodedotco,"GET $52 OF $OXT FOR FREE #Orchid #Token in Coinbase Earn  https://bit.ly/2EFNC2P
#ERC20 #CRYPTOMONNAIE #TELCOIN #DYNMT #AZBIT #TRON #PARJAR #ETHEREUM #BITCOINSV #CARDANO #TEZOS #STELLAR #CHAINLINK #HUOBI #NEO #ETC #QTUM #ZRX #ENJIN #IOST #NRG #BTMX #ETN #DGTXEarn OrchidWatch short educational videos and earn Orchid (OXT).coinbase.com",2,0,0,False
48,HipHopVideo.com@hiphopvideocom,"GET $52 OF $OXT FOR FREE #Orchid #Token in Coinbase Earn  https://bit.ly/2EFNC2P
#ERC20 #CRYPTOMONNAIE #TELCOIN #DYNMT #AZBIT #TRON #PARJAR #ETHEREUM #BITCOINSV #CARDANO #TEZOS #STELLAR #CHAINLINK #HUOBI #NEO #ETC #QTUM #ZRX #ENJIN #IOST #NRG #BTMX #ETN #DGTXEarn OrchidWatch short educational videos and earn Orchid (OXT).coinbase.com",0,0,0,False
49,(っ◔◡◔)っ BigComicArt@bigcomicart,"Exciting to take @cheval_homard The Druid's top pixie dust $ETH bid on @SuperRare_co.  A challenging feat indeed, and a #collector to watchout for in the #NFTs space.  #vader #starwars #trending #ethereum #bitcoinAuthentic Digital Art - Portrait of Lord Satoshi Vadermoto #4 | SuperRareThe conception of oil painting began as a statement of wealth. Landscapes with castle overlooking their lands filled with the owner's livestock. Tables filled with exotic foods and expensive crystal...superrare.co",3,0,0,False
50,bitpeaks@bitpeaks,buy $ETH on #gate @ 126.92 https://bitpeaks.com/gate/eth,1,0,0,False
51,Cryptorrent@CryptorrentTA,"$MITH is ready for some movement

See #Mithril Analysis & Chart Here.

Join my Free Telegram Watchlist 
http://t.me/ProTrades1Watchlist…
$BTC $ETH $CELR $LUN $AION $APRA $KAVA $ENG $TOMO $FTT $VITE $WAVES $ONE $DUSK $XRP $LINK $XTZ $ATOM $VET $TROY $BNB $SFTThe following media includes potentially sensitive content. Change settingsView",3,0,0,False
52,ThirdBrainFx@thirdbrainfx,"Check all here --> https://thirdbrainfx.com/crypto.html 
On #Bittrex #XRP to #ETH -- > 0.00150489, volume --> 548104 
On #Livecoin #XRP to #USD -- > 0.19663, volume --> 1 
On #IncoreX #XMR to #USD -- > 116.23, volume --> 755 
On #Hitbtc #NXT to #BTC -- > 0.00000128, volume --> 10672187",0,0,0,False
53,jai@nanashemefan,"Three major crypto currencies consolidating just before Christmas as investors and traders take up their position. Expect volatility near end of the year and/or early next year.
$btc #btc #bitcoin $xrp #xrp #ripple $eth #eth #ethereum",0,0,0,False
54,bidcoin_channel@BidcoinC,"#bidcoin social #reward program gives you #FREE bid token to #play right away! NO need to recharge!!  click now https://t.me/bidcoinRewardBot… for your #gift and #win #crypto like #bitcoin #ethereum #dash #btc #eth #xmr #ltc #zec without any #exchange, only on http://bidcoin.io",1,0,0,False
55,Jsf@thejaysf,"BLOCK SEQUENCE IV  1/1 
-
https://superrare.co/artwork-v2/block-sequence-4-6344…
#cryptoart #nft #nifties #nfts #ethGIF",14,0,0,False
56,InterBit Investment Exchange - InterbitToken@LuciferSoftware,"The $waves #waves
Will hit the Target price of 1333 satoshi in 24-48h #Prediction  made by @LuciferSoftware
#cryptolucifersoftware
#Crypto
#cryptocurrency
#cryptotrading
#cryptocurrencies #altcoins @binance #CRYPTO $eth $Btc $xrp #CryptoNews #CryptocurrencyMarket",1,1,0,False
57,Futhorc Ecosystems@FuthorcE,SCIΛ is a close agreement of investment #SmartContracts established to leverage a proportion of #portfolio value in safe haven assets as #Gold and #Silver complemented by other monetize systems as #BTC #ETH #IOTA https://instagram.com/p/B6WjnTZlibm/?igshid=1klq07uem8taa…,0,0,0,False
58,DeFi Alerts@defiAlerts,"Compound (APR) 
 block: 9142903 

 $ETH - B 2.19% S 0.01% 
 $SAI - B 8.28% S 2.15% 
 $USDC - B 8.74% S 3.44% 
 $REP - B 2.13% S 0.01% 
 $BAT - B 4.21% S 0.28% 
 $ZRX - B 3.21% S 0.12% 
 $WBTC - B 6.11% S 0.75% 
 $DAI - B 4.16% S 3.97%",0,0,0,False
59,BRRRRRR@EternalBTC,"Remember when $BSV forked off from $BCH splitting the community in 2 and totally fucking both coins? 

The same thing will happen to $ETH when they split into ETH and ETH2.0

DEATHBLOW",2,0,0,False
60,CryptoNewswire @CryptoNewswire,"XRP Could Soon Fall Against Bitcoin, Analyst Warns as Pressure Builds - https://cryptonewswire.com/xrp-could-soon-fall-against-bitcoin-analyst-warns-as-pressure-builds… $BTC $ETH $XRP #trading #bitcoins",0,0,0,False
61,Mike The Hodler @thecryptokeepr,"XRP Could Soon Fall Against Bitcoin, Analyst Warns as Pressure Builds >>@ https://thecryptokeepers.com/xrp-could-soon-fall-against-bitcoin-analyst-warns-as-pressure-builds/… || $btc $eth $ltc $xrp $vetTop 10 Cryptocurrencies By Market CapTop 10 Crypto Rank Symbol Name Price 1 Hour 24 Hours 7 Daysthecryptokeepers.com",0,0,0,False
62,Alt Cash@Alt_Cash,"Start today it's that simple, claim some faucets: https://altcash.co.uk/?q=faucetlist #ETH #free #handoutFaucet & Airdrop ListOur ever growing list of faucets and airdrops. Add your faucet or airdrop via Twitter: @Alt_Cashaltcash.co.uk",0,0,0,False
63,Cryptobits News@CryptoBitsNews1,"XRP Could Soon Fall Against Bitcoin, Analyst Warns as 
 
https://cryptobits.news/xrp-could-soon-fall-against-bitcoin-analyst-warns-as-pressure-builds/?utm_campaign=twitter&utm_medium=twitter&utm_source=twitter…
#Bitcoin #Bitcoinnews #BTC #Crypto #Cryptocurrency #Cryptonews #digitalcurrency #Ethereum #hodl #Litecoin",0,0,0,False
64,Trading Strategist@TradeStrategyCo,"#BTCUSD $7145.03
Price change 1-Hour 0.27% | 1-Day -0.54% | 1-Week 0.85%
12/21/2019 11:03 PM

Real-time #bitcoin price + news analysis of 150+ global news sources every hour 24*7*365

#BTC #blockchain #ethereum #trading #ico #Crypto #cryptocurrency #news",0,0,0,False
65,Andrej Muzevic@andrej_muzevic,"Food for thought #EthereumQuote TweetFrank Yiannas@FrankYiannasFDA · Dec 21, 2019Gartner finds IoT & #blockchain integrations are booming. What does this mean for food safety? Think more than traceability.  Instead, think....track, trace, MONITOR, & predict. A New Era of Smarter Safety is dawning. https://tek.io/2EeqlEZ",4,0,0,False
71,Crypto Alert@CoinGnuBot@CoinGnuBot001,"Fluctuation of major coins (past 1 H)

 $BTC Bitcoin  +0.19%
 $ETH Ethereum  +0.25%
 $XRP XRP  +0.26%
 $XEM NEM  -0.12%
 $DASH Dash  +0.44%
 $ADA Cardano  +0.18%
 $EOS EOS  0.00%
 $BCH Bitcoin Cash  -0.24%

More ranking...https://coingnu.com/en/su/1",1,0,0,False
72,Michael Huntington@cryptoscanner1,"#ALTCOINS are going up! Use https://cryptolume.co to find where CRYPTO MONEY is moving. Find coins with HIGH buyer % and moving in PRICE!

#BTC #ETH #MATIC #HEDG #NEX #MCO #LUNA #WAVES #MONA #TOMO #HT #SOLVE #SEELE #ICX #ETC #ZEN #MIOTA #XLM #SAI #LEO",0,0,0,False
73,Ethex.Bet@Ethex_bet,"Who is #VitalikButerin?

Vitalik Buterin is one of the most famous persons in crypto industry. How he made his way to blockchain and #Ethereum creation?

https://medium.com/ethexbet/who-is-vitalik-buterin-d8b0c8346266…
#Blockchain #Crypotcurrency #ETH #BTC",1,1,0,False
74,MacQ@Mac88Q,"I've been thinking of #crypto #newyearresolutions

And I found one, finally

I have 539 followers

From now on I'll put aside one dollar for each new follower. As soon as I collect enough, I'm getting a #Coinmine for myself!

@coinmine #Ethereum #bitcoin #fintech",2,1,0,False
75,MexWatcher@MexWatcher,"Future / Spot basis as of Sun Dec 22 08:01:27 JST 2019
$BCH : 0.04%
$XRP : 0.04%
$ETH : 0.06%
$EOS : -0.15%
$LTC : 0.02%
$TRX : 0.00%
$XBT : 0.04%
$ADA : 0.43%
(positive means contango.)
Ref Contract : Z19",1,0,0,False
76,blinnikovartem@blinnikovartem1,"I’m getting lucky playing on http://EarnBet.io! They’re giving away free BTC in their Telegram, visit http://t.me/earnbetcasino and follow the steps in the pinned post to get yours!

#gambling #casino #dapp $BTC $ETH $EOS $BCH $LTC $BNB $XRP",0,0,0,False
77,iluvbtc@iluvbitcoins,"ACX
BTC: $10501
BCH: $276
ETH: $211

BTC Markets
#BTC: $10400
#BCH: $270
#ETH: $186
#LTC: $58

CoinSpot
BTC: $10400
LTC: $63

Cointree
BTC: $10415

Independent Reserve
BTC: $10432
BCH: $274
ETH: $185",0,0,0,False
78,ETH / GBP@EthGbp,"# ETH Price December 21st: 1 ETH = £98.33 GBP
#Ethereum #Ether",0,0,0,False
79,CoinTrendz.com@CoinTrendz,"Top 10 Mentions on Twitter in the last hour - $BTC $ETH $XRP $LTC $LINK $VET $EOS $ETC $NEO $XTZ 

More on http://CoinTrendz.com ",1,0,0,False
80,CoinCircus.io@CoinCircus, #Ethereum (#ETH $ETH) global volume weighted average is currently $128.753 | 0.21% change over 24hrs. #crypto #blockchain #market #news #coin #trading #cryptocurrency https://coincircus.io/ETH ,0,0,0,False
81,Kitco Crypto@KitcoCrypto,"https://kitco.com 18:00 EDT $USD
#BTC  $7167.25 (0.19%)
#LTC  $39.81 (-0.33%)
#BNB  $13.35 (0.07%)
#TRX  $0.0135 (0.82%)
#XLM  $0.0456 (0.15%)
#ETH  $127.76 (0.26%)
#XRP  $0.1918 (0.21%)
#BCH  $186.41 (-0.23%)

#kitco #crypto",0,0,0,False
82,ThirdBrainFx@thirdbrainfx,"Check all here --> https://thirdbrainfx.com/crypto.html 
On #Exmo #ZEC to #BTC -- > 0.00397914, volume --> 6150 
On #C-Cex #LTC to #USD -- > 48, volume --> 2 
On #Kraken #ETH to #GBP -- > 100.02, volume --> 2 
On #Kraken #ETH to #USD -- > 127.24, volume --> 41427",0,0,0,False
83,Bitcoin Hacks@bitcoinhacks,#BTC price increased! Buying @ $7143.89 & Selling @ $7143.89  $btc $eth $etc $neo $dgb $dash $strat $eos $omg $pay $xrp $xmr $gas ,0,0,0,False
84,Eth Hourly Price@eth_hourly,"Current #ethereum price is $128.15, an increase of +0.15%, a market cap of $13,966,804,435 and 24 hr. vol. of $7,432,916,019.38",1,0,0,False
85,Crypto Press@CryptoPressNews,"$ETH | #ETH - ethereum's Current Price: ▲ $128.0390 | 1h ▲ : 0.07 % | 24h ▼ : -0.75 % | 7d ▼ : -10.21% | More on:ETH > Ethereum News > Ethereum Pricing Information > Ethereum Charts > More! » Crypto.PressEthereum information portal: news, price information, and more about ETH.crypto.press",2,3,0,False
86,blinnikovartem@blinnikovartem1,"following tweet by using the hashtags #gambling #casino #bet #dapp #BTC #ETH #EOS #BCHQuote TweetEarnBet.io - First Decentralized Casino@EarnBetCasino · Dec 10, 2019We are thrilled to announce our move to the WAX blockchain! @WAX_io @WilliamEQuigley @OPSkins @LukasRepublic
https://blog.earnbet.io/earnbet-moves-to-the-wax-blockchain/…",0,0,0,False
87,BLOCKCHAIN MONKEYZ@blockchainmkyz,"Apologies for the lack of videos lately, I've been sticking my head into the ground of RESEARCH.

GET SOME.

#VECHAIN #CELSIUSNETWORK #XRP #IOTA #RIPPLE #AE #NPXS #BTC #ETH #BLOCKCHAIN",26,2,1,False
88,KrakenPrices@KrakenPrices," Prices update in $USD (1 hour):

$BTC - 7141.0 $  (+0.02 %)
$ETH - 127.28 $  (+0.17 %)
$XRP - 0.19 $    (+0.2 %)
$BCH - 186.5 $   (-0.05 %)
$LTC - 39.71 $   (-0.28 %)

#BTC #ETH #XRP #BCH #LTC #Trading #Crypto #Bitcoin",0,0,0,False
89,Cryptocurrencies / USD@cryptosUSD," Prices update in $USD (1 hour):

$BTC   - 7141.0 $    (+0.05 %)
$ETH   - 127.28 $    (+0.17 %)
$XRP   - 0.19 $      (+0.29 %)
$BCH   - 186.5 $     (-0.05 %)
$LTC   - 39.69 $     (-0.33 %)

#USD #Dollar #BTC #ETH #XRP #BCH #LTC #Trading #Bitcoin #Ethereum",1,0,0,False
90,Cryptocurrencies / EUR@cryptosEUR," Prices update in $EUR (1 hour):

$BTC   - 6456.2 €  (+0.05 %)
$ETH   - 115.11 €  (+0.37 %)
$XRP   - 0.17 €    (+0.36 %)
$BCH   - 168.7 €   (+0.06 %)
$LTC   - 35.86 €   (-0.11 %)

#EUR #Euro #BTC #ETH #XRP #BCH #LTC #Trading #Bitcoin #Ethereum",1,0,0,False
91,Blank@kaaiaah,"https://futurism.com/the-byte/russian-cybertruck-troll-elon-musk… if #ethereum was a #cybertruck, this would be your favorite copycat token. $trx $xtz $eth $eosRussians Troll Elon Musk With Knockoff CybertruckA Russian YouTube channel built a knockoff version of Tesla's Cybertruck and then drove it around the streets of Moscow.futurism.com",0,0,0,False
93,ELON☽USK@elondusketeer,Replying to @ChainRND and @rb19832Baseless fud. Hard for team to dump when most of teams tokens are locked up for this specific reason. And as for using $dusk for sto's it has always been the option to use dusk for premium just as the case for $eth. That's not the only use case for token. Complete baseless lies,2,0,0,False
94,CoinTrendz.com@CoinTrendz,"Pump Alert! - CZR/ETH on Bibox! Price increase: 12.10% | Volume: +12.23% - $CZR $ETH #bibox #crypto #bitcoin #cryptoalerts #cointrendz 

More on http://t.me/cointrendz ",0,0,0,False
95,Johnny PolkaCash@JohnnyZcash,"Replying to @bitcoinprophet1 and @SingularityLuvrDive deeper. Look at the partnerships. Look at the dex, look at the privacy features, look at frictionless transactions. Best wallet in all of crypto. 40 percent of its tiny supply locked in nodes. CEO brought $NEM to top 20. $TOMO is far better. It's what $ETH 2.0 wants to be.",10,1,2,False
96,Upgrade Complete Solutions@UpgradeComplet1,"@cryptosNstocks @realKalenDanger
#Daily $TRUSD / $ETH pair #UPDATE 
Price currently 12600 gwei from a 24h high of 12700 gwei and up from the 24h low 5000 gwei. 24h change is 135.19% Next buyback will be 12-22 on the $TRUSD / $ETH pair.",2,1,0,False
97,AbbyCrypTz@applianceguru,$OXT circulating supply is almost half of that of $LINK EOY for link is 100 do your own math for $OXt and it’s not even in any pump exchange yet! Made in America when Chinese Korean Japanese get in on the other exchange! This thing will have to hit 3-5 dollar! $btc $eth $eos $ada,3,0,0,False
98,CryptoNStocks@cryptosNstocks,"@TrustUSD
#48hr #supply #adjustment has been #initiated. The supply contraction amount was 484,400 #TRUSD, the total #buyback amount was 79,223.48 $TRUSD
#total supply: 28,484,372.
#circulating supply: 5,958,122.
Avail on @catexofficial in #btc and #eth #trading pairs
#crypto",1,0,0,False
99,Automatski@theautomatski,The Topmost Technology Company In The World Today http://bit.ly/2u1RYfn | #kansascity #chicago #funds #ICOs #honolulu #bitcoinaustralia #argentina #nashville #stlouis #milwaukee #adelaide #bitcoinUK #ether #venturecapital #AVCJKorea #funding #melbourne #mexico #virginiabeach,1,0,0,False
100,KARBI@KARBI_1,"I have been watching  $N8V @N8VCOIN for quite some time but unfortunately I haven't bought it 
$btc $eth",0,0,0,False
101,July Moreira@Juliete96145025,"Replying to @HuobiWalletManage your #BTC, #ETH #XRP #TRX #XRP #DOGE with Huobi Wallet App

My HUOBI WALLET DOGE

DRSMveGuh9jDXm4yoTWLVegMHQSgCtTRSF

Thanks HUOBI",1,0,0,False
102,Alphaex Capital@AlphaexCapital,Learn how Forex Factory provides free trading tools and how to use them to gain a timely and quick overview of today's markets. => https://alphaexcapital.com/trading-education/forex-factory-tools/… #forex #investing #bitcoin #crypto #xrp #btc #eth #forexsignalsForex Factory: 5 Free Tools That Will Improve Your TradingLearn how Forex Factory provides free trading tools and how to use them to gain a timely and quick overview of today's markets.alphaexcapital.com,1,0,0,False
103,Never Work Again @ Age 43@retiredin2016,"As of December 20, 2019 at 04:50PM, 1 ETH = 127.02 USD.  https://goo.gl/E2Ee6A  #Investing #fire #ira #401k #money #stock #retirement #trade #NeverWorkAgain #CapitalGain #Savings #PersonalFinance #crypto #ethereum #eth #bitcoin #btc",0,0,0,False
104,InterBit Investment Exchange - InterbitToken@LuciferSoftware,"I offer free #Prediction for the next 60 min. You can ask me about any #cryptocurrency . #Predictions by @LuciferSoftware
#cryptolucifersoftware
#Crypto
#cryptocurrency
#cryptotrading
#cryptocurrencies #altcoins @binance #CRYPTO $eth $Btc $xrp #CryptoNews #CryptocurrencyMarketGIF",1,0,0,False
105,GlowTech@GlowTechZ,"Check out the #XTRABYTES Sub-Reddit

http://reddit.com/r/Xtrabytes
#crypto #cryptocurrency #tech #technology
$BTC $ETH $XRP $XMR $XBY $BCH $TRX $LTC $ADA $DGTX $EOS $ZEC $NEO $USDT $LINK $BNB $DGB $XEM $DOGE $OMG $ETC",0,0,0,False
106,InterBit Investment Exchange - InterbitToken@LuciferSoftware,"The $enj #enj @enjin #ENJIN
Will hit the Target price of 1133 satoshi  #Prediction made by @LuciferSoftware
#cryptolucifersoftware
#Crypto
#cryptocurrency
#cryptotrading
#cryptocurrencies #altcoins @binance #CRYPTO $eth $Btc $xrp #CryptoNews #CryptocurrencyMarketGIF",2,1,0,False
107,TrueFi.io @TrustToken,"This week's industry first: send $TUSD without $ETH

How? Pay your gas fees with TUSD, using @BitpieWallet - it's the first wallet to support ERC20 token transactions without ETH gas costs.

Thanks & congrats to our Bitpie friends & partners Quote TweetBitpieWallet@BitpieWallet · Dec 21, 2019In bitpie wallet, when sending #TUSD, you are free to choose to pay either ETH or TUSD as the gas fee.
It's the first wallet ever support sending ERC20 tokens(on-chain tx) w/o ETH.
http://bitpie.com
@TrustToken0:14396 views",8,1,1,False
108,sekai.eth@b2pLes,"Our friend made this little beauty.
Kids were happy!
#birthday #cake $BTC $ETH $VET",1,0,0,False
109,Bumlebien@bumlebi,"Replying to @projectmatrix1Mine are
$divi
$btc
$wax
$eth
By size.
Everything else has been sold a long time ago.
$Divi has been my best performer by far.
I have a lot of faith in the future of $wax.
$eth - just in case they build something awesome.
$btc already is awesome",7,1,0,False
110,CryptoLord@CryptoLord999,"$LBC in preparing for the next wave.
I bet we hit 200 sats. Tomorrow!
#LBRY $iota $xrp $btc $tube $eth $nxt $neo $zec $ardr $etc",10,4,0,False
111,InterBit Investment Exchange - InterbitToken@LuciferSoftware,"The $band #band price will explode soon..
Target price is 3703 satoshi  #Prediction made by @LuciferSoftware
#cryptolucifersoftware
#Crypto
#cryptocurrency
#cryptotrading
#cryptocurrencies #altcoins @binance #CRYPTO $eth $Btc $xrp #CryptoNews #CryptocurrencyMarketGIF",1,1,0,False
112,Kevin Lim@_kevinlim,"The advantages of #Cryptocurrency:
- Fraud Protection
- Prevents Identity Theft
- Immediate Settlement
- Access to Everyone
- Lower Fees

#CyberSecurity #Crypto #Blockchain #Fintech #Bitcoin #Ethereum #Litecoin #Ripple #Cryptocurrencies

Via @evankirstel",5,7,0,False
113,FrankLy@Frankrypto,Update on the script I have been working on. Progress. See for yourself. $STEEM. 2 HOUR $ICX $LINK $BTC $ETH $XRP $XLM $SYS $DOGE $LEND $STORJ $LEND $ADX $QLC $KNC $ICX $WPR $WABI $HOT $DOCK $LUN $MFT $NPXS $ONT $VET $QLC $BAT $ADA $MATIC $CELR $FET #Bitcoin #altcoins #Crypto,2,1,0,False
114,Mike The Hodler @thecryptokeepr,'Crypto-villain' Brad Sherman earns spot on 2020's crypto-radar >>@ https://thecryptokeepers.com/crypto-villain-brad-sherman-earns-spot-on-2020s-crypto-radar/… || $btc $eth $ltc $xrp $vetTop 10 Cryptocurrencies By Market CapTop 10 Crypto Rank Symbol Name Price 1 Hour 24 Hours 7 Daysthecryptokeepers.com,0,0,0,False
115,Juliete moreira@moreira_juliete,"Replying to @HuobiWalletManage your #BTC, #ETH #XRP #TRX #XRP #DOGE with Huobi Wallet App

My DOGE Wallet Huobi
DRSMveGuh9jDXm4yoTWLVegMHQSgCtTRSF",0,0,0,False
116,InterBit Investment Exchange - InterbitToken@LuciferSoftware,"The $matic #Matic price will explode soon..
Target price is 273 satoshi  #Prediction made by @LuciferSoftware
#cryptolucifersoftware
#Crypto
#cryptocurrency
#cryptotrading
#cryptocurrencies #altcoins @binance #CRYPTO $eth $Btc $xrp #CryptoNews #CryptocurrencyMarketGIF",1,0,0,False
117,InterBit Investment Exchange - InterbitToken@LuciferSoftware,"The $tomo #TomoChain price will explode soon..
Target price is 8600 satoshi  #Prediction made by @LuciferSoftware
#cryptolucifersoftware
#Crypto
#cryptocurrency
#cryptotrading
#cryptocurrencies #altcoins @binance #CRYPTO $eth $Btc $xrp #CryptoNews #CryptocurrencyMarketGIF",2,1,1,False
118,Marko Omcryptokus@omcikusmarko,"#CRYPTO #CURRENCIES are moving! Get on https://cryptolume.co to TRACK which #CRYPTO has the highest BUYERS!

#BTC #ETH $MATIC $HEDG $NEX $MCO $LUNA $BCD $STEEM $MONA $WAVES $SOLVE $SEELE $HT $ICX $ETC $SAI $MIOTA $TOMO $XLM",0,0,0,False
119,Bitsoul_Hunter@bitsoul_hunter,"visit: https://emjac.io #EMJ #IEO #Crypto #Blockchain #ethereum #ether #cryptocurrency #tokensaleQuote TweetEMJAC | EMJ Token@emjac_emj · Dec 21, 2019#EMJAC #IEO is #livenow #gogreen #grabyourtokens
Visit : http://emjac.io

P2PB2B: https://p2pb2b.io/token-sale/EMJ/2…
Lukki: https://app.lukki.io/ieo-list/a0074b51-b615-4b1b-a462-3cf90e9e89e5…",0,0,0,False
120,Tony @ crypto60@crypto_sixty," 1 Hour crypto $USD prices

#BTC  $7152.64 (-0.64%)
#LTC  $39.85 (-0.42%)
#BNB  $13.34 (-0.30%)
#TRX  $0.0134 (-0.22%)
#XLM  $0.0456 (-0.48%)
#ETH  $127.67 (-0.07%)
#XRP  $0.1916 (-0.36%)
#BCH  $186.52 (-0.38%)

http://crypto60.com #bitcoin #crypto",0,0,0,False
121,ThirdBrainFx@thirdbrainfx,"Check all here --> https://thirdbrainfx.com/crypto.html 
On #BitFinex #LTC to #USD -- > 40, volume --> 368520 
On #Bleutrade #ETH to #BTC -- > 0.01796773, volume --> 1 
On #Hitbtc #XDN to #BTC -- > 0.00000005, volume --> 217740000 
On #Cex.io #ZEC to #USD -- > 48.03, volume --> 637",0,0,0,False
122,InterBit Investment Exchange - InterbitToken@LuciferSoftware,"The $enj #enj @enjin #ENJIN price will explode soon..
Target price is 1130 satoshi  #Prediction made by @LuciferSoftware
#cryptolucifersoftware
#Crypto
#cryptocurrency
#cryptotrading
#cryptocurrencies #altcoins @binance #CRYPTO $eth $Btc $xrp #CryptoNews #CryptocurrencyMarketGIF",1,1,0,False
125,Uniswap Unicorns@UniswapUnicorns,"Why a Top Analyst Thinks Bitcoin Remains Bearish Despite $1,000 Jump 
#cryptonews #crypto #btc #eth #eos #xrp #ltc
https://allcoinsdaily.com/why-a-top-analyst-thinks-bitcoin-remains-bearish-despite-1000-jump/…",0,0,0,False
126,Automatski@theautomatski,"Blood, Sweat & Tears Competing with $10 Trillion Incumbants http://bit.ly/2u1RYfn | #Moscow #denver #deals #icotracker #investment #seattle #AVCJjapan #argentina #ETH #venture #netherlands #miv #sale #saintpaul #italy #pittsburgh #BitCoin #saltlakecity #bitcoinrussia #asia #btc",0,0,0,False
127,Norwalk Wrestling@warrior_wrestle,"$eth Turner at 152 gets pinned in :48.
Seth finishes in 2nd place!",5,1,0,False
128,InterBit Investment Exchange - InterbitToken@LuciferSoftware,"The $mda #mda price will explode soon..
Target price is 7300 satoshi  #Prediction made by @LuciferSoftware
#cryptolucifersoftware
#Crypto
#cryptocurrency
#cryptotrading
#cryptocurrencies #altcoins @binance #CRYPTO $eth $Btc $xrp #CryptoNews #CryptocurrencyMarket",1,2,0,False
129,Bitsoul_Hunter@bitsoul_hunter,"I wish you success on this one guys. This project is a good and have a strong team, in a predictable and transparent road map, planned and projected growth in both the campaign. https://crypcore.com #blockchain #eth #crypto #DigitalMarketing #ico #ieo #crypcore",0,0,0,False
130,FrankLy@Frankrypto,Update on script i've been working on. Progress. C 4 yo'self. $WAN Daily.  $ICX $LINK $BTC $ETH $XRP $XLM $SYS $DOGE $LEND $STORJ $LEND $ADX $QLC $KNC $ICX $WPR $WABI $HOT $DOCK $LUN $MFT $NPXS $ONT $VET $QLC $BAT $ADA $MATIC $CELR $FET #Bitcoin #altcoins #crypto #cryptotrading,1,0,0,False
131,The Gem Lab@The_GemLab,"$btc When it takes to long to pump..u ladder the shorts and watch it DUMP slow grind down imo.  I could be wrong. 7050, 6950, 6850, incoming! And way more blood to come?!CAN I GET A RETWEET!!!.  $eth $ltc $rvn $trx $xlm $xrp $ada $neo $bnb $trx $link $ren $data $bnb $matic $theta",12,1,4,False
132,Betajol@betajol,"Replying to @HuobiWalletManage your #BTC, #ETH #XRP #TRX #XRP #DOGE with Huobi Wallet App

DDxSJYJC5Qy7P1wV8JXxTZoA9xbCafYwtS",0,0,0,False
133,aWebAnalysis | Crypto@aWebAnalysis,"Ethereum ETH Current Price:
$128.40
1 Hour: 0.22 % | 24 Hours: -0.48 % | 7 Days: -9.98 %
#eth #ethereum",0,0,0,False
134,Airdrop Lush@AirdropLush,"Over 1 Million USD$ in Airdrops you must join before X-mas!
#Xmas #btc #eth #airdrop #giveaways",1,1,1,False
135,coinOK@coinok,Order your secure and smart BTC/ETH/Altcoin hardware wallet - Only 94.80 EUR https://ledgerwallet.com/r/4518?path=/products/ledger-nano-s… #bitcoin #btc #eth #altcoin 17:20,1,0,0,False
136,Rami Ali@airdrops_token,"Guide to Earn 30-1000$ Daly with $KCS Coin

http://bit.ly/free-coin-guide
$BTC $ETH $ONT $DCR $XMR $VET $XTZ $ENJ $RVN $BRD $KMD $TUSD $THETA $ARDR $REP $BTS $ETN $IOTX $POWR $BQX $EDO $PIVX $QKC $SYS $MITH $MAN $POE
$LINK $ADA $XRP $MATIC $TRX $BNB",0,0,0,False
138,Navitas@Navitas_Green,"Tata Consultancy Services Launches Blockchain App Deployment Kit #Blockchain #Ethereum #Ripple via http://twinybots.chTata Consultancy Services Launches Blockchain App Deployment KitMultinational IT services giant Tata Consultancy Services launched the Quartz DevKit, which the firm claims can build blockchain apps 40% fastercointelegraph.com",0,0,0,False
139,Crypto Moment@MyCryptoMoment,"Do you like #Ethereum? Show your love with this amazing T-Shirt! 
GRAB YOURS  https://buff.ly/3722d58
Ether not your thing? No problem! We have more than  350 #designs in our collection!
CHECK THEM OUT  https://buff.ly/38hwU7D
#crypto #cryptocurrency #bitcoin #btc #shirt",0,0,0,False
140,Cryptos Rocket@cryptosrocket,Why Ethereum Can Still Drop 35% Despite Ongoing Bitcoin Recovery... https://cryptosrocket.com/news/2019/12/21/why-ethereum-can-still-drop-35-despite-ongoing-bitcoin-recovery/… #ETH #ethereum #recentLogin « Cryptos Rocketcryptosrocket.com,1,0,0,False
141,Cryptobits News@CryptoBitsNews1,"Why a Top Analyst Thinks Bitcoin Remains Bearish Despite 
 
https://cryptobits.news/why-a-top-analyst-thinks-bitcoin-remains-bearish-despite-1000-jump/?utm_campaign=twitter&utm_medium=twitter&utm_source=twitter…
#Bitcoin #Bitcoinnews #BTC #Crypto #Cryptocurrency #Cryptonews #digitalcurrency #Ethereum #hodl #Litecoin",0,0,0,False
142,GetTheCrypto@GetTheCrypto1,#altcoins Cryptocurrencies Peace of Mind  #ETH - 0x3BC690c604d170BB53c155cb66074B4DE1172C36,0,0,0,False
143,CoinMoon@CoinMoonApp,"Check out Top Coins Market Summary Today! (Dec 22nd)
#crypto #bitcoin #cryptocurrency #blockchain #btc #ethereum #trading #cryptocurrencies #cryptonews #bitcoinnews #bitcoins #eth #bitcoinprice
$BTC $ETH $XRP $BCH $LTC
@CNN_Blockchain @CoinMoonApp",0,0,0,False
144,bidcoin_channel@BidcoinC, reasons to #love #bidcoin: fun way to get #crypto / #save up to 70% / safe as but easier than any #exchange!  #boost your #gain without #trading #bitcoin #ethereum #monero #litecoin #dash #btc #eth #xmr #ltc #zec - #cryptoeasy on http://bidcoin.io your #doubleok,0,0,0,False
145,𝐁𝐮𝐥𝐥𝐫𝐮𝐧 𝐆𝐫𝐚𝐯𝐚𝐧𝐨@Bullrun_Gravano,"Anyone want to earn some free $OXT?

Just sign into Coinbasde and use my referral code. Watch a couple videos and get free #ORCHID
$eth $btc #crypto #eos #trading $ltc #bitcoin #airdrop #GiveawayEarn OrchidWatch short educational videos and earn Orchid (OXT).coinbase.com",1,0,0,False
146,FrankLy@Frankrypto,Update on the script I have been working on. Progress. Buy signal on $VET (USD daily). $ICX $LINK $BTC $ETH $XRP $XLM $SYS $DOGE $LEND $STORJ $LEND $ADX $QLC $KNC $ICX $WPR $WABI $HOT $DOCK $LUN $MFT $NPXS $ONT $VET $QLC $BAT $ADA $MATIC $CELR $FET #Bitcoin #cryptocurrencies $DGB,2,0,0,True
147,Crypto Heart@crypto_heart,"Manage your #BTC, #ETH #XRP #TRX #XRP #DOGE with Huobi Wallet App

Huobi doge address: D8C7JE6K27qAFpChsyBFuCrAPhgNMXGMxHQuote TweetHuobiWallet@HuobiWallet · Dec 11, 2019Boom! The biggest giveaway is here!

Download Huobi Wallet App and create a DOGE wallet. 
OR
Repost this tweet with comment ""Manage your #BTC, #ETH #XRP #TRX #XRP #DOGE with Huobi Wallet App"" and add your DOGE address from Huobi Wallet. 

Rules: https://support.huobiwallet.com/hc/en-us/articles/900000037126…GIF",0,0,0,False
148,Zach@CosmoZach1,Find object I want》 path 》 selection 》Mask#blockchain #scifi #fantasy #sciencefantasy #graphicdesign #photoshop #astronomy #sciencefictionfantasy #eth #photomanipulation #raredigitalart #vaporwave #glitchart #cryptoart #psychedelicart #crypto #ethereum #tokenised,4,1,0,False
149,okebukola john@Haywhy_J,"1st Trade Founder Jearon Wong: Why I Set Up New Crypto exchange? https://youtu.be/-CR67PGNmeA via 
@YouTube
#cryptocurrency #blockchain #bitcoin #1stTrade #cryptoexchange #defi #eth1st Trade Founder Jearon Wong: Why I Set Up New Crypto exchange?1st Trade Founder Jearon Wong: Why I Set Up New Crypto exchange?youtube.com",0,0,0,False
150,Jimilave@jimilave,"Replying to @HuobiWalletManage your #BTC, #ETH #XRP #TRX #XRP #DOGE with Huobi Wallet App

D7byCCt9c3qn1JESpzgUYmaJfBkkvC4F1U",0,0,0,False
151,EQXCrypto Exchange@EcryptoExchange,"PDX Coin Trading on the http://CryptoSpecialistExchange.com  

PDX Coin is backed up by Proven Revenue Producing Oil and Gas Reserves.

Watch The Video To Find Out How:
PDX Coin Introduction Video https://youtu.be/S8xfNO6pURg
#EthereumPDX Coin Introduction VideoPDX is the world’s first true utility coin and compliant digital currency, backed up by independently certified proved recoverable oil and gas reserves.youtube.com",0,0,0,False
152,Cryptobits News@CryptoBitsNews1,"A Complete Guide to Stablecoins 
From 2018 onwards, new 
https://cryptobits.news/a-complete-guide-to-stablecoins/?utm_campaign=twitter&utm_medium=twitter&utm_source=twitter…
#Bitcoin #Bitcoinnews #BTC #Crypto #Cryptocurrency #Cryptonews #digitalcurrency #Ethereum #hodl #Litecoin",0,0,0,False
153,Coin News Telegraph@coin_telegraph,"‌Bitcoin Wars: If Blockchain History Were the Original Star Wars Trilogy – http://Investing.com. Read more:
https://coinnewstelegraph.com/?p=115852
#cryptoexchange #currency #trader #eth #cryptoinvestor #ico #bitcoinexchange #cryptocurrencies #coinbase #binance #crypto #bitcoin #walle #xrp",3,1,0,False
154,Trading Strategist@TradeStrategyCo,"#BTCUSD $7125.7
Price change 1-Hour -0.43% | 1-Day -0.82% | 1-Week 0.82%
12/21/2019 10:06 PM

Real-time #bitcoin price + news analysis of 150+ global news sources every hour 24*7*365

#BTC #blockchain #ethereum #trading #ico #Crypto #cryptocurrency #news",0,0,0,False
155,CRYPTONEWS.WATCH@crypto_news24,"Can #Ethereum Survive Without a Monetary Policy? (TrustNodes) 

A joke on April 1st 2018 on a fixed supply for eth by Vitalik Buterin, #Ethereum’s co-founder, turned out to be not quite a joke.... 

https://cryptonews.watch/can-ethereum-survive-without-a-monetary-policy/…",0,0,0,False
156,Never Work Again @ Age 43@retiredin2016,"As of December 20, 2019 at 04:05PM, 1 BTC = 7149.5 USD.  https://goo.gl/E2Ee6A  #Investing #fire #ira #401k #money #stock #retirement #trade #NeverWorkAgain #CapitalGain #Savings #PersonalFinance #crypto #ethereum #eth #bitcoin #btc",0,0,0,False
157,Mike The Hodler @thecryptokeepr,"Why a Top Analyst Thinks Bitcoin Remains Bearish Despite $1,000 Jump >>@ https://thecryptokeepers.com/why-a-top-analyst-thinks-bitcoin-remains-bearish-despite-1000-jump/… || $btc $eth $ltc $xrp $vet",0,0,0,False
158,ClankApp - Crypto Whales Tracker @ClankApp,"Last hourly biggest #ETHEREUM blockchain transaction : 
 
6,347,027 #USDT (6,378,285 USD) from #binance to #binance
 
Detail: https://clankapp.com/tx/usdt/bfe8e3310c06a2b3ca03450ff20987c273e7696170f35f359f9c262a3d501883?uuid=466545136…
 
Date : 2019-12-21 21:23:09 (GMT +0)Ethereum (USDT) / Transaction Detail / $6,378,285 from binance to unknown wallet - ClankAppEthereum whale transaction with a value of 6,378,285 USD (6,347,027.000 USDT) move from binance to unknown wallet - 2019-12-21T21:23:09 (GMT 0)clankapp.com",0,0,0,False
159,Crypto Alert@CoinGnuBot@CoinGnuBot001,"Fluctuation of major coins (past 1 H)

 $BTC Bitcoin  -0.33%
 $ETH Ethereum  -0.09%
 $XRP XRP  -0.26%
 $MIOTA IOTA  -3.18%
 $XEM NEM  +0.05%
 $EOS EOS  -0.24%
 $XLM Stellar  -0.68%
 $LTC Litecoin  -0.05%

More ranking...https://coingnu.com/en/su/1",0,0,0,False
163,Eloisa Marchesoni@TheCrypthusiast,#Blockchain #Ethereum Blockchain Jobs ReportBlockchain Jobs Report – PDF ReportA survey conducted by Glassdoor in August 2018 found an exponential growth in demand from employers searching for talent especially in the crypto field. The growth in demand for talent is not...blackchain.guru,1,0,0,False
164,Automatski@theautomatski,The Topmost Technology Company In The World Today http://bit.ly/2u1RYfn | #blockchain #JackMa #bonus #perth #investment #ethereum #cleveland #kualalumpur #comsa #austin #bitcoinrussia #washingtonDc #boise #chille #Startups #venture #forthworth #louiesville #paris #adelaide #nem,0,0,0,False
165,iluvbtc@iluvbitcoins,"ACX
BTC: $10471
BCH: $272
ETH: $193

BTC Markets
#BTC: $10413
#BCH: $270
#ETH: $185
#LTC: $58

CoinSpot
BTC: $10436
LTC: $63

Cointree
BTC: $10423

Independent Reserve
BTC: $10433
BCH: $274
ETH: $185",0,0,0,False
166,Eloisa Marchesoni@TheCrypthusiast,"#Blockchain #Ethereum Blockchain Explained (101)Blockchain 101 – PDF ReportWe have seen it all – from the 1st introduction of Bitcoin whitepaper in 2009 to introduction of other utility based crypto tokens to real world media coverage and hype, and now a fusion of funding...blackchain.guru",0,0,0,False
167,CryptomaQ@CryptomaQ,"Fomo3D Team Launch New Dapp That’s ‘Not Just a Game’ https://cryptomaq.com/fomo3d-team-launch-new-dapp-thats-not-just-a-game/…
#bitcoin #bitcoinnews #ethereum #ripple #litecoin #crypto #cryptocurrency #cryptoupdate #cryptocurrencynews #blockchain #ltc #btc #xrp #ethFomo3D Team Launch New Dapp That’s ‘Not Just a Game’Team Just, the brain trust behind viral hit Fomo3D, are back with an eagerly anticipated new dapp, this time on Tron. Just.game has been dubbed “a showcase of how blockchain technology can be used to...cryptomaq.com",0,0,0,False
168,Crypto Gulp@CryptoGulp,"Top 5 Cryptocurrencies Prices

 $BTC: $7,190.37 | Bitcoin -0.05%
 $ETH: $128.03 | Ethereum +0.03%
 $XRP: $0.193548166 | XRP +0.26%
 $USDT: $1.00 | Tether -0.19%
 $BCH: $187.78 | Bitcoin Cash +0.09%",0,0,0,False
169,Royhan@MuhammadRoyhan,Why ##Ethereum Can Still Drop 35% Despite Ongoing Bitcoin Recovery: Ethereum (#ETH) has been facing… https://goo.gl/fb/1wvLZx #BlockchainWhy Ethereum Can Still Drop 35% Despite Ongoing Bitcoin RecoveryThe strength of Ethereum's current resistance is leading analysts to predict that ETH could soon drop another 35% against its Bitcoin trading pair.newsbtc.com,0,0,0,False
170,Coindera@coindera,"Top 5

$AION $BNB on @binance_2017 +5%
$AION $BTC on @binance_2017 +5%
$AION $ETH on @binance_2017 +5%
$BTC $MAID on @BittrexExchange +5%
$ONG $EUR on @cex_io +9%",1,0,0,False
171,Crypto Buzz Tracker@TrackThatCrypto,"TOP-12 most-mentioned #crypto this hour:
1. #bitcoin
2. #ethereum
3. #xrp
4. #holo
5. #tron
6. #dash
7. #bitcoincash
8. #tether
9. #steem
10. #luna
11. #waves
12. #tezos
#cryptocurrency #altcoin #blockchain #news #CryptoBuzzTracker",0,0,0,False
172,CoinTrendz.com@CoinTrendz,"Top 10 Mentions on Twitter in the last hour - $BTC $ETH $XRP $MATIC $EOS $NEO $LTC $VET $XTZ $TRX 

More on http://CoinTrendz.com ",0,0,0,False
173,Kitco Crypto@KitcoCrypto,"https://kitco.com 17:00 EDT $USD
#BTC  $7153.87 (-0.36%)
#LTC  $39.94 (-0.08%)
#BNB  $13.34 (-0.30%)
#TRX  $0.0134 (-0.37%)
#XLM  $0.0455 (-0.76%)
#ETH  $127.43 (-0.10%)
#XRP  $0.1914 (-0.31%)
#BCH  $186.84 (0.26%)

#kitco #crypto",0,0,0,False
174,Deribot@Deribit_Alerts,"Current Deribit index prices:

 $BTC | $7137.20
 $ETH | $127.00",0,0,0,False
175,ThirdBrainFx@thirdbrainfx,"Check all here --> https://thirdbrainfx.com/crypto.html 
On #Bleutrade #POT to #BTC -- > 0.00000438, volume --> 9493 
On #Exmo #ZEC to #USD -- > 29.71656737, volume --> 11487 
On #wexnz #LTC to #RUB -- > 5788.75917, volume --> 2143 
On #Exmo #ETH to #USD -- > 133.10671414, volume --> 6276",0,0,0,False
176,Bitcoin Hacks@bitcoinhacks,#BTC price decreased! Buying @ $7137.8 & Selling @ $7137.8  $btc $eth $etc $neo $dgb $dash $strat $eos $omg $pay $xrp $xmr $gas ,0,0,0,False
177,Eth Hourly Price@eth_hourly,"Current #ethereum price is $128.07, an increase of +0.08%, a market cap of $13,958,233,023 and 24 hr. vol. of $7,431,930,328.93",0,0,0,False
178,Crypto Press@CryptoPressNews,"$ETH | #ETH - ethereum's Current Price: ▲ $128.0484 | 1h ▲ : 0.07 % | 24h ▼ : -0.76 % | 7d ▼ : -10.24% | More on:ETH > Ethereum News > Ethereum Pricing Information > Ethereum Charts > More! » Crypto.PressEthereum information portal: news, price information, and more about ETH.crypto.press",1,0,0,False
179,KrakenPrices@KrakenPrices," Prices update in $USD (1 hour):

$BTC - 7139.5 $  (-0.15 %)
$ETH - 127.06 $  (-0.02 %)
$XRP - 0.19 $    (-0.06 %)
$BCH - 186.6 $   (+0.11 %)
$LTC - 39.82 $   (+0.13 %)

#BTC #ETH #XRP #BCH #LTC #Trading #Crypto #Bitcoin",0,0,0,False
180,Cryptocurrencies / USD@cryptosUSD," Prices update in $USD (1 hour):

$BTC   - 7137.5 $    (-0.22 %)
$ETH   - 127.06 $    (-0.02 %)
$XRP   - 0.19 $      (-0.15 %)
$BCH   - 186.6 $     (+0.11 %)
$LTC   - 39.82 $     (+0.13 %)

#USD #Dollar #BTC #ETH #XRP #BCH #LTC #Trading #Bitcoin #Ethereum",0,0,0,False
181,Cryptocurrencies / EUR@cryptosEUR," Prices update in $EUR (1 hour):

$BTC   - 6452.9 €  (-0.2 %) 
$ETH   - 114.69 €  (-0.17 %)
$XRP   - 0.17 €    (-0.11 %)
$BCH   - 168.6 €   (-0.06 %)
$LTC   - 35.9 €    (-0.47 %)

#EUR #Euro #BTC #ETH #XRP #BCH #LTC #Trading #Bitcoin #Ethereum",0,0,0,False
182,FrankLy@Frankrypto,Update on the script I have been working on. Progress. See for yourself. $STEEM. $ICX $LINK $BTC $ETH $XRP $XLM $SYS $DOGE $LEND $STORJ $LEND $ADX $QLC $KNC $ICX $WPR $WABI $HOT $DOCK $LUN $MFT $NPXS $ONT $VET $QLC $BAT $ADA $MATIC $CELR $FET #Bitcoin #altcoins #cryptotrading,1,0,0,False
183,Seeds@seedstweets,"Evan redeemed a Seeds token to ask for $10 to buy his partner a little birthday gift, & the community delivered.

Anyone can redeem a Seeds token to make a Request for Help of any amount.

Want to give it a try?  Check out http://seedsgives.com!

#womenintech #eth #CryptoGIF",3,3,0,False
190,Automatski@theautomatski,The Worlds First Millennium Firm http://bit.ly/2u1RYfn | #charleston #neworleans #investing #venturecapital #philadelphia #miv #ITOs #eth #germany #sanFransico #AVCJKorea #saltlakecity #cuba #tokenlaunches #initialcoinofferings #blockchain #boston #JackMa #tampa #funds #spain,1,0,0,False
191,Cryptobits News@CryptoBitsNews1,"Why Ethereum Can Still Drop 35% Despite Ongoing Bitcoin 
 
https://cryptobits.news/why-ethereum-can-still-drop-35-despite-ongoing-bitcoin-recovery/?utm_campaign=twitter&utm_medium=twitter&utm_source=twitter…
#Bitcoin #Bitcoinnews #BTC #Crypto #Cryptocurrency #Cryptonews #digitalcurrency #Ethereum #hodl #Litecoin",0,0,0,False
192,Alphaex Capital@AlphaexCapital,"Find out what type of forex trader you are, take this quiz now => https://alphaexcapital.com/lp/type-of-trader-quiz/… #forex #investing #bitcoin #crypto #xrp #btc #eth #forexsignals",0,0,0,False
193,Juan José Calderón Amador@eraser,"Blockchain Technology and Decentralized Governance: Is the State Still Necessary?. Marcella Atzori, Ph. D.* https://medium.com/@eraser/blockchain-technology-and-decentralized-governance-is-the-state-still-necessary-1951b11e34cb?source=friends_link&sk=e54c39489fa6a2e56fcb36dce7f9475e… #blockchain #crypto #cryptocurrency #ethereum #bitcoin #GIGeconomy #opengov #government #decentralized #opengovernment #liberalism #capitalismBlockchain Technology and Decentralized Governance: Is the State Still Necessary?Marcella Atzori, Ph. D.*medium.com",0,0,0,False
194,FrankLy@Frankrypto,"Update on the script I have been working on. Progress. See for yourself. Oh, and buy signal on $ZIL You are welcome. $ICX $LINK $BTC $ETH $XRP $XLM $SYS $DOGE $LEND $STORJ $LEND $ADX $QLC $KNC $ICX $CLOAK $WPR $WABI $HOT $DOCK $LUN $CDT $MFT $NPXS $ONT $VET $QLC $BAT $ADA $MATIC",0,0,0,False
195,Emmanuel Eyong@ELovebright,"Manage your #BTC, #ETH #XRP #TRX #XRP #DOGE. DT233ZYuBtpz9oW7vfqdqkxudJf6k7xmWBQuote TweetHuobiWallet@HuobiWallet · Dec 11, 2019Boom! The biggest giveaway is here!

Download Huobi Wallet App and create a DOGE wallet. 
OR
Repost this tweet with comment ""Manage your #BTC, #ETH #XRP #TRX #XRP #DOGE with Huobi Wallet App"" and add your DOGE address from Huobi Wallet. 

Rules: https://support.huobiwallet.com/hc/en-us/articles/900000037126…GIF",0,0,0,False
197,Prime Trader@IdeasPrime,"ETH/USD | $ETHUSD | $ETH $USD

16 Week Donchian Strategy For Eth

Long or short it on WCX: http://wcex.com/trade/ETH-USD",0,0,0,False
198,JW Weatherman | mathbot.com@JWWeatherman_,"#Ethereum is a scam by design.

The only things that could possibly be reused are the techniques and lies used to attract suckers.

But the bitcoin can’t:

smart contract
fast payment
be private
scale

Lies are probably too ineffective now.Quote TweetJames Prestwich@_prestwich · Dec 21, 2019Replying to @AFDudley0 and @prestonjbyrnegenerally you don't deprecate and replace systems unless they're failing to meet needs/expectations

and if the architecture was good, you reuse it with improvements

eth1 is being deprecated, and none of its design is being reused",6,0,0,False
199,Folkspaper@folkspaper,"Does Blockchain Have A Place in Gaming? http://ow.ly/r9tP50xEDJC #folkspaper #blockchain #bitcoin #crypto #cryptocurrency #onlinejournalism #socialmedia #startup #it #tech #technology #ethereum #fintech #Folkspaper - Does Blockchain Have A Place in Gaming?Does blockchain have a position in gaming? AMD thinks so. Recently, the chipmaker joined the Blockchain game Alliance, an industry organization dedicated to promoting and regulating the ...folkspaper.com",0,0,0,False
200,TS@ThinkingSatoshi,"$ETH | 4hr
https://tradingview.com/x/UlLZywyk/
lookin' lookin'",1,0,0,True
201,Luka Centa@LukaCenta,"2000 CNB bonus for full registration. Value: 200USD
Crypto exchange!
#crypto #cryptocurrencies
#bitcoin #cryptotrading #Ethereum #BitcoinCash #free #giveaway #bonus",1,0,0,True
202,CryptoNewswire @CryptoNewswire,Why Ethereum Can Still Drop 35% Despite Ongoing Bitcoin Recovery - https://cryptonewswire.com/why-ethereum-can-still-drop-35-despite-ongoing-bitcoin-recovery… $BTC $ETH #news #alts #trading,0,0,0,False
203,Mike The Hodler @thecryptokeepr,"The SEC Wavers on Bitcoin ETFs, Congress Wants Crypto Tax Clarity, BTC Payments App Shuts Down >>@ https://thecryptokeepers.com/the-sec-wavers-on-bitcoin-etfs-congress-wants-crypto-tax-clarity-btc-payments-app-shuts-down/… || $btc $eth $ltc $xrp $vetTop 10 Cryptocurrencies By Market CapTop 10 Crypto Rank Symbol Name Price 1 Hour 24 Hours 7 Daysthecryptokeepers.com",0,0,0,False
204,∞Brian Michael∞@CryptoNaut11,I'm sitting here think this pump is not making any sense. Now it makes sense. Whales having fun. #DYOR #BTSE $NEXO #Dai #bitcoin #BTC #btc #ETH #LTC #XLM #Zcash #LitecoinFam #ZRX #ICX #XMR #twitch #FOMO #alts #Crypto #love #gymflow #workout #GettingBetterEveryDay #lovewhatIdo,2,1,0,False
205,Compound Finance Bot@CompoundBot,"Borrow/Supply Rates (APR):
 $ETH - 2.19% / 0.01%
 $DAI - 4.16% / 3.97%
 $SAI - 8.26% / 2.14%
 $USDC - 8.74% / 3.44%
 $BAT - 4.21% / 0.28%
 $ZRX - 3.25% / 0.12%",0,0,0,False
206,∞Brian Michael∞@CryptoNaut11,Hope ya'll weren't going long Bitcoin with leverage. Liquidation hunters on the loose. #DYOR #BTSE $NEXO #Dai #bitcoin #BTC #btc #ETH #LTC #XLM #Zcash #LitecoinFam #ZRX #ICX #XMR #twitch #FOMO #alts #Crypto #love #gymflow #workout #GettingBetterEveryDay #lovewhatIdo,1,1,0,False
207,iAstra Media Group@Iastralive,"Website owners get paid now in the Cryptospace

join the EQX AffiliatePartner  Program Now

http://equitybuyers.net/affiliate-home/?wpam_id=1…
#Ethereum",0,0,0,False
208,Sheldon Store EU@sheldoneu_store,"Amazon Europe gift cards available
Go» http://sheldoneu.store
$BTC $LTC $BCH $BCN $BITB $BLK $BNB $BTAD $BTG $CLOAK $DASH $DCR $DEV $DGB $DOGE $EBST $ETC $ETH $ETN $KMD $BAN $LSK $MUE $PIVX $PPC $SBD $SMART $STEEM $STRAT $SYS $TPAY $TRX $VTC $WAVES $XCP $XEM $XMR $XVG $XZC $ZEC",0,0,0,False
209,∞Brian Michael∞@CryptoNaut11,"I told you that candle was suspect, but what about the current one? What the hell just happened? #DYOR #BTSE $NEXO #Dai #bitcoin #BTC #btc #ETH #LTC #XLM #Zcash #LitecoinFam #ZRX #ICX #XMR #twitch #FOMO #alts #Crypto #love #gymflow #workout #GettingBetterEveryDay #lovewhatIdo",1,1,0,False
210,Uniswap Unicorns@UniswapUnicorns,"Craig Wright Attempts to 'Reveal the Origin' of Satoshi Nakamoto's Name 
#cryptonews #crypto #btc #eth #eos #xrp #ltc
http://allcoinsdaily.com/craig-wright-attempts-to-reveal-the-origin-of-satoshi-nakamotos-name/…",0,0,0,False
211,BitcoinAgile@bitcoinagile,Why #ethereum Can Still Drop 35% Despite Ongoing #bitcoin Recovery #crypto https://newsbtc.com/2019/12/21/why-ethereum-can-still-drop-35-despite-ongoing-bitcoin-recovery…,1,0,0,False
212,Mike The Hodler @thecryptokeepr,Why Ethereum Can Still Drop 35% Despite Ongoing Bitcoin Recovery >>@ https://thecryptokeepers.com/why-ethereum-can-still-drop-35-despite-ongoing-bitcoin-recovery/… || $btc $eth $ltc $xrp $vet,0,0,0,False
213,Automatski@theautomatski,The Topmost Technology Company In The World Today http://bit.ly/2u1RYfn | #godblessamerica #bitcoin #germany #ETH #washington #bonus #cleveland #dallas #Top10 #utrust #sydney #malaysia #oakland #charleston #newyork #abraaj #orlando #cryptocurrency #newzealand #technews #fund,0,0,0,False
214,Kelly Crypto@kellysiqili,"#ALTCOINS are going up! Use https://cryptolume.co to find where CRYPTO MONEY is moving. Find coins with HIGH buyer % and moving in PRICE!

#BTC #ETH $MATIC $HEDG $LUNA $MCO $MONA $WAVES $ICX $STEEM $SOLVE $HT $XLM $MIOTA $NRG $SEELE $ETC $SLV $LINK $SAI",0,0,0,False
215,Apollo Mission@GSX_21,So many coins to choose from for your staking. Hmmmm!!! $BTC $ETH #crypto $DAPS $RDD $777 $POT https://stackofstake.com/r/101458,0,0,0,False
216,Mike The Hodler @thecryptokeepr,Monero Price Analysis: After a Significant Movement; XMR/USD Market Drops Heavily >>@ https://thecryptokeepers.com/monero-price-analysis-after-a-significant-movement-xmr-usd-market-drops-heavily/… || $btc $eth $ltc $xrp $vet,0,0,0,False
217,ThirdBrainFx@thirdbrainfx,"Check all here --> https://thirdbrainfx.com/crypto.html 
On #C-Cex #ETH to #BTC -- > 0.0328, volume --> 19 
On #YoBit #LTC to #USD -- > 41.86633861, volume --> 382 
On #Livecoin #DOGE to #USD -- > 0.00207261, volume --> 11397063 
On #wexnz #DASH to #USD -- > 288.75307, volume --> 1732",0,0,0,False
218,Giacomo Arcaro@giacomoarcaro,"#Ethereum #Bitcoin Crypto Hedge Funds InsightsCrypto Hedge Funds Insights – PDF ReportWith this report, we intend to give our readers an overview of the global crypto hedge fund landscape. As the blockchain ecosystem evolves, market participants require a broader knowledge and...blackchain.guru",2,0,0,False
219,Tony @ crypto60@crypto_sixty," 1 Hour crypto $USD prices

#BTC  $7198.72 (+0.43%)
#LTC  $40.02 (+0.25%)
#BNB  $13.38 (+0.22%)
#TRX  $0.0134 (-0.22%)
#XLM  $0.0458 (+0.07%)
#ETH  $127.76 (+0.09%)
#XRP  $0.1923 (+0.37%)
#BCH  $187.23 (+0.45%)

http://crypto60.com #bitcoin #crypto",0,0,0,False
220,jacobjonson2018@jacobjonson2018,"One of the features of the Alchemy product is that it provides a data statistics system for all products, you can view historical transactions, payment reviews and other data.

#Alchemy #IEO #Bitcoin #Blockchain #Token #Ethereum #TokenSale",0,0,0,False
221,GetTheCrypto@GetTheCrypto1,#bitcoinmining Blockchain Support The Future  #ETH - 0x3BC690c604d170BB53c155cb66074B4DE1172C36,0,0,0,False
222,Automatski@theautomatski,The Topmost Technology Company In The World Today http://bit.ly/2u1RYfn | #newzealand #memphis #ether #chille #tokenlaunches #AVCJjapan #neworleans #bitshares #boston #forthworth #milwaukee #bitcoinaustralia #sanjose #Top10 #washingtonDc #gamecoin #deals #privateequity #madison,0,0,0,False
224,Uniswap Unicorns@UniswapUnicorns,"Ripple CEO Claims Half of Top 20 Banks Will Own Crypto in 2020; Is This Feasible? 
#cryptonews #crypto #btc #eth #eos #xrp #ltc
http://allcoinsdaily.com/ripple-ceo-claims-half-of-top-20-banks-will-own-crypto-in-2020-is-this-feasible/…",0,0,0,False
225,AbbyCrypTz@applianceguru,Replying to @VergeCanada and @vergecurrencyIn a era of partnership with @microsoft @google @ibm $xvg #verge new pump is decal on vans after tata and butt! $link $xtz $btc $eth,1,0,0,False
226,Ethereum boi@ether_boi,"The price of $ETH is: $undefined as of 2019-12-21 21:22:29                                  Market Cap: $undefined
 -(Price from http://CoinCap.io)",0,0,0,False
227,aWebAnalysis | Crypto@aWebAnalysis,"Ethereum ETH Current Price:
$128.25
1 Hour: 0.13 % | 24 Hours: -0.59 % | 7 Days: -10.14 %
#eth #ethereum",1,0,0,False
228,Chuky@Chuky22005017,"In Alchemy is payment consensus protocol developers, who participate in the development of interfaces, service and product-related to Alchemy's consensus protocols.

#Alchemy #IEO #Crowdsale #Bitcoin #Blockchain #Ethereum #TokenSale",0,0,0,False
229,bitpeaks@bitpeaks,"sell $ETH on #gate @ 127.26 https://bitpeaks.com/gate/eth +0.24% Quote Tweetbitpeaks@bitpeaks · Dec 21, 2019buy $ETH on #gate @ 126.95 https://bitpeaks.com/gate/eth",0,0,0,False
230,InCoins@incoinsbot,"#crypto prices update 1h 
 
$BTC $7205.24 0.2%
$ETH $128.25 0.13%
$XRP $0.19 0.31%
$USDT $1.00 0.25%
$BCH $187.78 0.17%
$LTC $40.24 0.33%
$EOS $2.48 0.37%
$BNB $13.41 0.0%
$BSV $85.31 0.17%
$XTZ $1.48 -0.44%
#cryptotrading #cryptocurrencies",0,0,0,False
232,coinOK@coinok,Order your secure and smart BTC/ETH/Altcoin hardware wallet - Only 94.80 EUR https://ledgerwallet.com/r/4518?path=/products/ledger-nano-s… #bitcoin #btc #eth #altcoin 16:20,0,0,0,False
233,WhaleTrades @WhaleTrades,"BitMEX $ETH Whale:
$575,500 worth of #Ethereum sold at $127.6 21:18:21 2019/12/21
|  Wait for the bounce, then short the corn",2,0,0,False
234,ItsFrank ⓣ@FrankLambeek,"If you feel bad, Sad or want to talk, DM me. I’m here for you all 
$BTC $sierra $fusion $nex $ltc $one $ins $xrp $vey $eth $matic $daps $neo $ftm $ada $bnb $miota $trx $vet $ocean $hot $rune $soul $icx $dmme $bolt $olt $kmd $dag $life $nlg $rsr $tfd $coti $tel $vra",0,0,0,False
235,Bitcoin  Forecast @ccexapp,"Tomorrow's Ethereum(ETH) forecast is
        
△UP 100% 
▼DOWN 0%

#Ethereum, #ETH

Bitcoin Forecast (iOS)
https://itunes.apple.com/app/id1404198250…",0,0,0,False
236,GetTheCrypto@GetTheCrypto1,#blockchain Cryptocurrencies Will Save The World  #ETH - 0x3BC690c604d170BB53c155cb66074B4DE1172C36,0,0,0,False
237,Algorithm X@AlgorithmX5,"Check out the #XTRABYTES Sub-Reddit

http://reddit.com/r/Xtrabytes
#crypto #cryptocurrency #tech #technology
$BTC $ETH $XRP $XMR $XBY $BCH $TRX $LTC $ADA $DGTX $EOS $ZEC $NEO $USDT $LINK $BNB $DGB $XEM $DOGE $OMG $ETC",0,0,0,False
238,WhaleApparel@WhaleApparel," May The Fourth Be With You Classic T-Shirt 
Take 25% OFF with code WHALE25
https://shortlink.store/vIMmtqA1l 
#Bitcoin $BTC #BTC #Crypto #cryptocurrency #ETH #XRP #LTC #XVG",1,0,0,False
239,Emmy@Emmy83405052,"In Alchemy platform will be a visual, simple, standardized smart contract market with a lower threshold for commercial use of smart contracts. 

#Alchemy #IEO #Crowdsale #Bitcoin #Blockchain #Token #ETH #Ethereum #TokenSale",0,0,0,False
240,™@tie_gunners,"This is bull news
A target of $250k for btc might be ridiculous but not impossible. 
Time to load my atomic wallet with some $btc $awc $eth $bnb
#cryptocurrencyQuote TweetCCN - Capital & Celeb News@CapitalAndCeleb · Dec 20, 2019Billionaire Venture Capitalist: Bitcoin Price to Skyrocket to $250,000 After May 2020 https://ccn.com/billionaire-venture-capitalist-bitcoin-price-250000-after-may-2020/…",2,0,0,False
241,Alphaex Capital@AlphaexCapital,FREE eBook Reveals Over 40+ Trading Resources Without Spending A Penny. Get Yours Now. https://alphaexcapital.com/lp/trading-resources-download?utm_source=twitter&utm_medium=ultimateretweet… #forex #investing #bitcoin #crypto #xrp #btc #eth #forexsignals,0,0,0,False
242,Bitty Mc.Coin@BitMcCoin,"For #XTRABYTES and #Crypto content:

https://blog.xtrabytes.global/category/general-crypto/…
#cryptocurrency #tech #technology #blog #blockchain
$BTC $ETH $XRP $XMR $XBY $BCH $TRX $LTC $ADA $DGTX $EOS $ZEC $NEO $USDT $LINK $BNB $DGB $XEM $DOGE $OMG $ETCXTRABYTES TodayContent for Cutting Edge Individualsblog.xtrabytes.global",0,0,0,False
243,Stacy@StacyLynnVE,"Because #Blockchain can be better. #XTRABYTES 

Check out the website: 

https://xtrabytes.global
#crypto #cryptocurrency #tech #technology
#bitcoin #ethereum #ripple #zcash #binance #litecoin #tron #cardano #steem #moneroXTRABYTES - The future-proof blockchain platformXTRABYTES™ is a next-generation blockchain company offering superior speed, security, and scalability. By enabling DApps and modules to be created in any programming language, our platform helps...xtrabytes.global",0,0,0,False
244,Trading Strategist@TradeStrategyCo,"The very latest #bitcoin news analysis from over 150 global news sources in real time every hour 24*7*365 

#BTCUSD $7156.37 at 12/21/2019 9:09 PM

 #BTC #blockchain #ethereum #trading #ico #Crypto #cryptocurrency #news",1,0,0,False
245,BlockChainFuture@MultiChainHub,This is the world’s first augmented reality T-shirt http://dlvr.it/RLk1N9 #SocialMedia #Dapps #Hyperledger #Ethereum #Smartcontract,1,0,0,False
246,Joe Martin@JoeMartinDE,The data which we'll soon be relying on will make millions of jobs redundant & enable completely new business models. Be prepared. Be on board. #blockchain #cryptocurrency #bitcoin #ethereum #crypto http://dld.bz/gRpph,0,0,0,False
247,RoNo Ⓥ@roy_noom,"mobility open blockchain initiative​ 
#mobi YouTube video

#VeChain participate within mobi

$VET $VTHO
$OCE $XRP $LTC $VSYS $ETH $Link $ADABuilding the New Economy of MovementA deep dive into possibilities unlocked with a blockchain-based Vehicle Identity...youtube.com",22,3,2,True
248,ShillKill Fan@shillkill_fan,"Free chrome extension to hide tweets that over-shill crypto cash tags & promote groups
 http://shillkill.com

No more cash tag spam like shown below:

$BTC $ETH $XRP $USDT $BCH $LTC $EOS $BNB $BSV $XTZ $XLM $TRX $ADA $LEO $MIN 

863GIF",0,0,0,False
253,Kur Ne Oldu@kurneoldu,"Values of the highest market cap 10 Cryptocurrencies :
1. #btc $7164.62
2. #eth $127.11
3. #xrp $0.192347
4. #usdt $1
5. #bch $186.61
6. #ltc $39.89
7. #eos $2.45
8. #bnb $13.32
9. #bsv $84.86
10. #ada $0.03306966

Actual  00:05 GMT+3",0,0,0,False
254,∞Brian Michael∞@CryptoNaut11,That last 1h candle was such sh*t. It did nothing for an hour and pumped right before it closed #DYOR #BTSE $NEXO #Dai #bitcoin #BTC #btc #ETH #LTC #XLM #Zcash #LitecoinFam #ZRX #ICX #XMR #twitch #FOMO #alts #Crypto #love #gymflow #workout #GettingBetterEveryDay #lovewhatIdoGIF,1,1,0,False
255,Michael Huntington@cryptoscanner1,"#CRYPTO #CURRENCIES are moving! Get on https://cryptolume.co to TRACK which #CRYPTO has the highest BUYERS!

#BTC #ETH #MATIC #HEDG #LUNA #MCO #MIOTA #WAVES #XLM #MONA #ICX #SOLVE #HT #BCD #SEELE #NRG #SLV #ETC #LINK #MKR",0,0,0,False
256,@SolidgoldTa,"@SolidgoldTa's account is temporarily unavailable because it violates the Twitter Media Policy. https://Learn more.Quote TweetCheds@BigCheds · Dec 21, 2019The Complete Beginners Guide to Crypto Currency Trading (FREE) (117999 views)

https://chedstrading.blogspot.com/2018/02/the-complete-beginners-guide-to-crypto.html…

RT and #Study",6,0,0,False
257,Shillin' XRProfit@j2schill,No crypto has been able to hold its value in the past 2 years. Retrace city out here! $BTC $ETH $APL $ETC $VET,0,0,0,False
258,iluvbtc@iluvbitcoins,"ACX
BTC: $10454
BCH: $271
ETH: $190

BTC Markets
#BTC: $10450
#BCH: $270
#ETH: $185
#LTC: $58

CoinSpot
BTC: $10402
LTC: $63

Cointree
BTC: $10438

Independent Reserve
BTC: $10433
BCH: $274
ETH: $185",0,0,0,False
260,BlockChainFuture@MultiChainHub,"the network, phones, speeds and more http://dlvr.it/RLk0W7 #Cryptocurrencies #Interoperability #Dapps #Ethereum #DeFi",0,0,0,False
261,Automatski@theautomatski,The Worlds First Millennium Firm http://bit.ly/2u1RYfn | #bitcoin #southaustralia #albuquerque #honolulu #entrepreneurs #ethereum #tech #canberra #crypto #france #sanFransico #AVCJjapan #bitcoin #atlanta #losangels #vc #ico #btc #investment #washington #bitcoinrussia #Ethereum,0,0,0,False
262,Crystal Suite@EDSCrystalSuite,"Casa Tookan wallet is supporting #BTC #ETH #ERC20 #ERC721 #counterparty, more blockchains and tokens will follow! Have you already tried it? https://crystalsuite.com/casa-tookan-wallet/… #blockchain #multichain #DApp #Dapps #blockchaingames #crystalsuite #crypto #gaming #wallet #blockchainwallet",0,0,0,False
263,Crypto Purge@ChainRND,"Replying to @elondusketeer @Crypto_guy_ and @rb19832$Dusk team did insider trading. Pumped and dumped the token while dumping on investors. 
Mainnet delayed.
Token not required for STO raise since last team announcement. Lied on whitepaper. 

$chx $poly $swm $xtz $ubt $eth $ofn
#Crypto #ico #defi #securitize #harbor",1,1,0,False
264,Demetrios Zamboglou PhD@zamboglou,"Top-5 #crypto summary 

1 #BTC to bounce off the critical support at $6,512 
2 #ETH plummeted below the support at $131.484
3 #XRP dived below the critical support at $0.20
4 #BCH broke below the support at $192.52
4 #LTC resumed its downtrend with a break below $42.05",9,2,1,False
265,cryptosnag@cryptosnag,"Top 5 #crypto gainers 
 Alert Time: 2019-12-22 00:00:41
#Cream: $0.01643
#BitcoinGod: $0.89403
#TravelNote: $0.00719
#BUDDY: $0.00000
#FidexToken: $0.00000
#ethereum #buyorders #investor #node
https://cryptosnag.com",0,0,0,False
266,WorldCoinIndex@WorldCoinIndex,Cryptocurrencies $ETH $LTC $DASH $XMR $ZCASH https://worldcoinindex.com,1,0,0,False
267,Crypto Gulp@CryptoGulp,"Top 5 Cryptocurrencies - Current Prices

Bitcoin $BTC: $7,193.40  +0.04%
Ethereum $ETH: $127.98  -0.04%
XRP $XRP: $0.193152817  +0.29%
Tether $USDT: $1.00  +0.24%
Bitcoin Cash $BCH: $187.59  +0.05%",0,0,0,False
268,XcelTrip@xceltrip,"Use KAU on XcelTrip to travel the world in class and make memories that last a lifetime
__
#xceltrip #kinesis #kinesismoney #Partnership #gold #silver #fintech #finance #Travelwithcrypto #PaywithKAU #cryptocurriencies #cryptopayments #digitalsilver #BTC #ETH #KAU #XLABs",3,1,0,False
269,Coindera@coindera,"Top 5

$BTC $VITE on @BittrexExchange +6%
$BTC $XMY on @BittrexExchange +8%
$ETH $BNT on @BittrexExchange +12%
$LRC $USD on @bitfinex +37%
$XCH $ETH on @bitfinex +38%",1,0,0,False
270,Nash Data@alert_nash,"$NEX TOKEN
USD: 0.93 | (24H /  -1.60%)
EUR: 0.84 | (24H /  -1.60%)
All time high: $3.31

#Nash Exchange
Staking: 6,323,425 nex (22.11% of 28.6M)
24H Volume: $32,387.78

Daily dividend (based on 0.22% Fee)
24 Months
1000 nex: $0.00106880

$btc $eth $nex $neo",1,0,0,False
271,Crypto Buzz Tracker@TrackThatCrypto,"TOP-12 most-mentioned #crypto this hour:
1. #bitcoin
2. #ethereum
3. #xrp
4. #holo
5. #tron
6. #dash
7. #bitcoincash
8. #tether
9. #luna
10. #waves
11. #tezos
12. #steem
#cryptocurrency #altcoin #blockchain #news #CryptoBuzzTracker",0,0,0,False
272,Kitco Crypto@KitcoCrypto,"https://kitco.com 16:00 EDT $USD
#BTC  $7179.36 (0.05%)
#LTC  $39.97 (-0.08%)
#BNB  $13.38 (-0.07%)
#TRX  $0.0135 (-0.07%)
#XLM  $0.0459 (0.17%)
#ETH  $127.56 (0.00%)
#XRP  $0.1920 (0.26%)
#BCH  $186.35 (-0.07%)

#kitco #crypto",0,0,0,False
273,Bitcoin Hacks@bitcoinhacks,#BTC price increased! Buying @ $7152.41 & Selling @ $7152.41  $btc $eth $etc $neo $dgb $dash $strat $eos $omg $pay $xrp $xmr $gas ,0,0,0,False
274,TKO@takeoff_tech,"【Our Logo】

Everyone’s dreams, all kinds of dreams, Taking Off like a rocket.

These are the wishes put in the logo.

#Crypto #Blockchain #ether #ethereum #bitcoin #cryptocurrency",0,0,0,False
275,Eth Hourly Price@eth_hourly,"Current #ethereum price is $128, an increase of +0.02%, a market cap of $13,950,916,081 and 24 hr. vol. of $7,427,764,567.85",0,0,0,False
276,BittrexPrices@BittrexPrices," Prices update in $USDT (1 hour):

$BTC - 7153.75 $       (+0.19 %)
$ETH - 126.95 $        (0.0 %)
$XRP - 0.19 $          (+0.35 %)
$BCH - 186.62 $        (0.0 %)
$LTC - 39.81 $         (+0.06 %)

#BTC #ETH #XRP #BCH #LTC #Trading #Crypto #Bitcoin",0,0,0,False
277,Crypto Press@CryptoPressNews,"$ETH | #ETH - ethereum's Current Price: ▲ $128.0033 | 1h ▲ : 0.02 % | 24h ▼ : -0.78 % | 7d ▼ : -10.33% | More on:ETH > Ethereum News > Ethereum Pricing Information > Ethereum Charts > More! » Crypto.PressEthereum information portal: news, price information, and more about ETH.crypto.press",1,0,0,False
278,EQXCrypto Exchange@EcryptoExchange,"This exchange platform is one of the best, and it has become quite popular hosting so many traders from around the globe in recent years. It features the most user-friendly interface, allowing for the quick registration process. 
https://cryptospecialistexchange.com
#Ethereum",0,0,0,False
279,Tradesatoshi Price@TradeSatoshiP,"Prices update in $USDT every 1 hour:

$BTC - 7200.00 $
$ETH - 128.00 $
$XRP - 0.20 $
$TRX - 0.0136 $
$DOGE - 0.00205002 $
$LTC - 42.00 $

 #BTC #ETH #XRP #TRX #DOGE #LTC #Tradesatoshi #Crypto #Trading",1,1,0,False
280,coinfather Bot@coinfather_bot,"Binance Trading Bot Buy Signal
Pair: STEEMBTC
Entry Price: ฿0.00002015

$STEEM #仮想通貨 #airdrop #ripple #tokensale $BCC $VET $TRX $ETH $BTC #crypto #bitcoin #ICO",2,0,0,True
281,Automatski@theautomatski,"Blood, Sweat & Tears Competing with $10 Trillion Incumbants http://bit.ly/2u1RYfn | #ICOs #ardor #orlando #honolulu #wavesplatform #forthworth #neworleans #houston #asia #comsa #dallas #austin #louiesville #boston #sanjose #fund #baltimore #ethereum #funding #austin #platform",0,0,0,False
282,KrakenPrices@KrakenPrices," Prices update in $USD (1 hour):

$BTC - 7149.9 $ (+0.08 %)
$ETH - 127.09 $ (+0.07 %)
$XRP - 0.19 $   (+0.19 %)
$BCH - 186.4 $  (-0.11 %)
$LTC - 39.77 $  (-0.05 %)

#BTC #ETH #XRP #BCH #LTC #Trading #Crypto #Bitcoin",0,0,0,False
283,Cryptocurrencies / USD@cryptosUSD," Prices update in $USD (1 hour):

$BTC   - 7153.2 $    (+0.13 %)
$ETH   - 127.09 $    (+0.07 %)
$XRP   - 0.19 $      (+0.19 %)
$BCH   - 186.4 $     (-0.11 %)
$LTC   - 39.77 $     (-0.05 %)

#USD #Dollar #BTC #ETH #XRP #BCH #LTC #Trading #Bitcoin #Ethereum",1,0,0,False
284,Cryptocurrencies / EUR@cryptosEUR," Prices update in $EUR (1 hour):

$BTC   - 6466.1 €  (+0.11 %)
$ETH   - 114.88 €  (+0.18 %)
$XRP   - 0.17 €    (+0.15 %)
$BCH   - 168.7 €   (+0.3 %) 
$LTC   - 36.07 €   (+0.19 %)

#EUR #Euro #BTC #ETH #XRP #BCH #LTC #Trading #Bitcoin #Ethereum",0,0,0,False
285,Rutger van der Tas@rutgervandertas,...the collector agrees to purchase the physical work too. I would only sell them together. The digital piece comes with a smart contract linked to my wallet on http://Superrare.co. The physical original is signed by hand and should be hung on the wall. #blockchain #eth,1,0,0,True
286,BasicAttentionTaken@battentiontaken,This what crypto prices looks like   #HODL #CryptoNews #Crypto #cryptocurrency $BAT #XRP #ETHFrom Mike in Miami,2,1,0,False
293,BasicAttentionTaken@battentiontaken,This what crypto prices looks like   #HODL #CryptoNews #Crypto #cryptocurrency $BAT #XRP #ETH0:0359.8K viewsFrom Mike in Miami,2,1,0,False
294,Automatski@theautomatski,The Topmost Technology Company In The World Today http://bit.ly/2u1RYfn | #minneapolis #bitcoinrussia #technews #kickstarter #louiesville #oakland #eth #virginiabeach #AVCJsingapore #avcj #BitCoin #utrust #godblessamerica #nem #austin #paris #southafrica #forthworth #icotracker,0,0,0,False
295,Education4you.online@byLilyV,"Learn to Invest in Cryptocurrencies: #Bitcoin, #Ethereum and other #Altcoins
#Cryptocurrency #Investment and #Trading #Course
http://j.mp/2JkJwPB
#elearning #online #courses #udemy #lifelong",0,0,0,False
296,Nimiq Rocks @NimCrypto,3 Under-the-Radar Product Trends for 2020 #Ethereum #1confirmation via http://twinybots.ch3 Under-the-Radar Product Trends for 2020 - CoinDeskHere's what 1confirmation partner Richard Chen is expecting to pop in the new year.coindesk.com,0,0,0,False
297,∞Brian Michael∞@CryptoNaut11,"You lose me when you promote XRP. I can't take it seriously. Every month, Ripple gives me a reason to move on. #DYOR #BTSE $NEXO #Dai #bitcoin #BTC #btc #ETH #LTC #XLM #Zcash #LitecoinFam #ZRX #ICX #XMR #twitch #alts #Crypto #love #workout #GettingBetterEveryDay #lovewhatIdoGIF",1,0,0,False
298,Panji_Rengganis27@PRengganis27,"Replying to @Uptrennd and @pawtocolIt's so cute, it will be give new colour on crypto world. Let's keep support @pawtocol
#giveaways #cryptocurrency #Ethereum",1,0,0,False
299,GoGoGadget@denuncia_seniat,"Check out the #XTRABYTES Sub-Reddit

http://reddit.com/r/Xtrabytes
#crypto #cryptocurrency #tech #technology
$BTC $ETH $XRP $XMR $XBY $BCH $TRX $LTC $ADA $DGTX $EOS $ZEC $NEO $USDT $LINK $BNB $DGB $XEM $DOGE $OMG $ETC",0,0,0,False
300,HsiangHui@hsianghui,"Bitcoin Continues to See Negative Corrections After Breaking $9,000, US Stocks Tumble #bitcoin #crypto #cryptocurrency #eth #btcBitcoin Continues to See Negative Corrections After Breaking $9,000, US Stocks TumbleBitcoin has seen significant volatility on the day, with the intraday high above $8,800 and a low below $8,500.cointelegraph.com",0,0,0,False
301,AgaintheFuture@againthef,"Because #Blockchain can be better. #XTRABYTES

Join the community in discussion at:

http://discord.xtrabytes.global
#cryptocurrency #tech #technology #crypto
$BTC $ETH $XRP $XMR $XBY $BCH $TRX $LTC $ADA $DGTX $EOS $ZEC $NEO $USDT $LINK $BNB $DGB $XEM $DOGE $OMG $ETC",0,0,0,False
302,Aliksendr@aliksendr,I'm participating in the #HolidayBlockchainGiveaway to win $25 in Ethereum thanks to @BizBlockchainHQ! #TechEd #crypto #sweepstakes #ether #ethereum #blockchain –Holiday Blockchain GiveawayDiscover the world of blockchain technology and get a chance to win $25 in Ethereum.Submit as many...givelab.com,0,0,0,False
303,Serge@Sergej_Berezin,"$AION / USD is breaking out of massive 1 year long Descending Wedge. ATH volume now for this coin
$BTC, $ETH, $ATOM",0,0,0,False
304,Bitcoin Price@coinpricenow,"1 Bitcoin ( #BTC )
Dollar: 7150.74$ 

1 Bitcoin Cash ( #BCH )
Dollar: 1,86.49$ 

1 Ethereum ( #ETH )
Dollar: 127.18$ 

1 Ripple ( #XRP )
Dollar: 0.19116$ 

Date: 21 Dec 2019 20:38

#Bitcoin #Ethereum #cryptocurrency #crypto #altcoin #Blockchain #Ripple",0,0,0,False
305,Ethereum boi@ether_boi,"The price of $ETH is: $undefined as of 2019-12-21 20:38:17                                  Market Cap: $undefined
 -(Price from http://CoinCap.io)",0,0,0,False
306,Automatski@theautomatski,Defining The Next 1000 Years Of Human Evolution http://bit.ly/2u1RYfn | #godblessamerica #AVCJsingapore #investment #fund #neworleans #seattle #JackMa #sqpay #perth #venture #pittsburgh #equity #iot #boston #sydney #reuters #investing #tucson #bitcoinUK #money #platform #ether,0,0,0,False
307,Valentino Kovacic@amyntasTino,"Manage your #BTC, #ETH #XRP #TRX #XRP #DOGE with Huobi Wallet App

Doge address
D8odEMNsgP34Ari9M5zwF3tNsHo2FsrfYGQuote TweetHuobiWallet@HuobiWallet · Dec 11, 2019Boom! The biggest giveaway is here!

Download Huobi Wallet App and create a DOGE wallet. 
OR
Repost this tweet with comment ""Manage your #BTC, #ETH #XRP #TRX #XRP #DOGE with Huobi Wallet App"" and add your DOGE address from Huobi Wallet. 

Rules: https://support.huobiwallet.com/hc/en-us/articles/900000037126…GIF",0,0,0,False
308,Frequentia@frequentia,3 Under-the-Radar Product Trends for 2020 #Ethereum #1confirmation via http://twinybots.ch3 Under-the-Radar Product Trends for 2020 - CoinDeskHere's what 1confirmation partner Richard Chen is expecting to pop in the new year.coindesk.com,0,0,0,False
309,Mike The Hodler @thecryptokeepr,Binance Singapore suspends user's Bitcoin withdrawals; CZ addresses KYC/AML >>@ https://thecryptokeepers.com/binance-singapore-suspends-users-bitcoin-withdrawals-cz-addresses-kyc-aml/… || $btc $eth $ltc $xrp $vetTop 10 Cryptocurrencies By Market CapTop 10 Crypto Rank Symbol Name Price 1 Hour 24 Hours 7 Daysthecryptokeepers.com,1,0,0,False
310,ELON☽USK@elondusketeer,"Replying to @rb19832If you dyor on $dusk you would understand that we are not bots
$btc $eth #blockchain",1,0,0,False
311,Pretty Nastya@w1nch3st3r_Rus,"Go to the great team and superproject! I think that this project will be successful, since transparency and security are what everyone needs. The team is very strong and does everything professionally. ]
#HUSL #HustleToken #IEO #Ethereum http://hustletoken.org
@TheHustleToken",0,0,0,False
312,Crypto Lover@Ulfaulfa786,"$Matic 
Recovering

$XAUR $VTR $TRUST $PKB $GRS $SNGLS $GBG $SHIFT $DRACO $SWT $MUSIC $PPC $POT $BSD $ZCL $FLDC $EXP $MYST $GNO $IOC $TKS $MUE $BLOCK $CFI $HMQ $CRW $VOX $BCY $ABY $SIB $NMR $IOTA $BTC $ETH $BNB $EOS $ONTQuote TweetCrypto Lover@Ulfaulfa786 · Dec 10, 2019I am sure $matic will recover sooner in months but Here one lesson for us

Dont Buy in Fomo

Lets wait for $matic move now towards uptrend again . You guys did mistake again and again atleast dont sell now further  price will recover beginners stay away from cryptoShow this thread",4,0,0,False
313,TRON Mining@tron_mining,"Remember you can now process FREE payouts from your address dashboard!

You can also toggle auto payments!

#TRX #miner #ethash #randomx #x16rv2 #eth #xmr #rvn",1,1,0,False
314,Cryptobits News@CryptoBitsNews1,"Ripple CEO Claims Half of Top 20 Banks Will Own Crypto in 
 
https://cryptobits.news/ripple-ceo-claims-half-of-top-20-banks-will-own-crypto-in-2020-is-this-feasible/?utm_campaign=twitter&utm_medium=twitter&utm_source=twitter…
#Bitcoin #Bitcoinnews #BTC #Crypto #Cryptocurrency #Cryptonews #digitalcurrency #Ethereum #hodl #Litecoin",0,0,0,False
