,user,text,likes,retweets,replies,is_thread
0,Crypto Press@CryptoPressNews,"$ETH | #ETH - ethereum's Current Price: ▼ $261.2986 | 1h ▼ : -0.04 % | 24h ▲ : 10.88 % | 7d ▲ : 38.89% | More on:ETH > Ethereum News > Ethereum Pricing Information > Ethereum Charts > More! » Crypto.PressEthereum information portal: news, price information, and more about ETH.crypto.press",2,1,0,False
1,Its a hard hard life@SwedenThaiStudy,Thanks Peter Zaitsev - https://twitter.com/PeterZaitsev - For Following Me and I hope you have an amazing and rewarding day!!! Discord: http://bit.ly/2YznApV Hashtags: #dlive #eth #opensource #twitch,0,0,0,False
2,Tolerant Hum@TolerantHum,"I get the feeling we’re going to see new yearly highs for $BTC soon and see the BTC value of $ETH pump again too. 

I think everyone should base their trades on my feelings.",0,0,0,False
3,WorldCoinIndex@WorldCoinIndex,Cryptocurrencies $ETH $LTC $DASH $XMR $ZCASH https://worldcoinindex.com,0,0,0,False
4,Satoshi Sonic@SatoshiSonic,"$ETH 
we believe in you little buddy",4,0,0,True
5,Its a hard hard life@SwedenThaiStudy,All we need now is the Right People #dlive #eth #opensource #twitch https://streameth.com/all-we-need-now-is-the-right-people/…,1,0,0,False
6,CryptoLauren@otc_cyborg,Analyst: Crypto Markets May Be Gearing Up for Massive Surge as Bitcoin Continues Climbing http://bit.ly/2X1RRgE #bitcoin #blockchain #cryptocurrency #BTC #ICO #ethereum #eth #doge #xrp #ltc #crypto #fintech @BIGMONEYMIKE6 @justinsuntron #TEAMBILLIONAIRE #BMM #MONEYGANG #profi…,1,1,0,False
7,Cryptosites.co@cysites,"Current Top 3 Dapps by Daily Active Users (DAU)

1. STOX (2905)
2. Dai Stability System (2882)
3. Kyber (2372)

For more details. Please visit
http://cryptosites.co
#crypto #blockchain #ether #technology #BTC #cryptonews #ethereum #currency
#business #entrepreneur",0,0,0,False
8,cryptohunterCAO713@cryptoshreddar1,"what are some good resources you use for doing DD/DYOR on a project?

twitter?
medium?

$btc $eth $xrp $neo $dero $tomo $ela $wtc $ltc",4,3,0,False
9,Automatski@theautomatski,Blockchain (i) Scalability (ii) Throughput (iii) Energy Solved! http://bit.ly/2THsqCK | #ethereum #tezos #italy #initialcoinofferings #portland #crypto #perth #milwaukee #vc #platform #forthworth #newzealand #initialcoinofferings #perth #dubai #FinTech #ITOs #ICOs #Russia #avcj,0,0,0,False
10,MexWatcher@MexWatcher,"Mon May 20 08:53:35 JST 2019
[BitMEX #ETH Swap]
Predicted funding rate moved significantly. New rate is 
SHORT receives : 0.0401%",0,0,0,False
11,CryptoWorld@Crypto____World,"The Most Undervalued coin in Crypto.If the #crypto world only knew what's coming at #APOLLOCURRENCY it would blow them away. Read about and Join telegram and learn about this coin Asap. This is a Top 10 coin easy.
#Crypto #bitcoin #eth #bnb #stocksinnews #technology #60Minutes",2,0,0,False
12,Automatski@theautomatski,"Blood, Sweat & Tears Competing with $10 Trillion Incumbants http://bit.ly/2u1RYfn | #tampa #iot #canberra #entrepreneurs #losangels #ico #ITOs #comsa #ETH #memphis #investing #technews #cryptocurrency #investments #malaysia #TokenSales #washingtonDc #godblessamerica #bitcoinUK",0,0,0,False
13,shannoncrypt@shannontshanksc,"Start Trading $ETH With up to 100x leverage!

--- http://bit.ly/BitMEX0420 ---",0,0,0,False
14,Charlie Mar @itscharliemar,"60 Minutes: Bitcoin will ride.
Anderson Cooper reports on how bitcoin was started, where it may go and some of the people who have ridden the cryptocurrency roller coaster over the last 10 years

LINK: https://cbsnews.com/news/bitcoins-wild-ride-60-minutes-2019-05-19/…
$BTC $ETH $LTC $XRP $XLM $NEO $BCH $ETC",2,1,1,False
15,Automatski@theautomatski,The Worlds First Millennium Firm http://bit.ly/2u1RYfn | #nashville #virginiabeach #pittsburgh #forthworth #campaign #privateequity #singapore #sale #coin #philadelphia #UAE #italy #germany #ITOs #ico #tampa #ITOs #utrust #privateequity #cuba #columbus #blockchain #Alibaba #eth,0,0,0,False
16,Alin Iulian@DAlinIulian,$XMR will be listing on @zb.com  .. $dash $eth $trx,3,0,0,False
17,ThirdBrainFx@thirdbrainfx,"Check all here --> https://thirdbrainfx.com/crypto.html 
On #IncoreX #ETH to #BTC -- > 0.03102039, volume --> 400 
On #C-Cex #NXT to #USD -- > 0.03975669, volume --> 4 
On #YoBit #DOGE to #LTC -- > 0.00009479, volume --> 294 
On #YoBit #DASH to #DOGE -- > 32738.26739212, volume --> 5",0,0,0,False
18,bitsmart.io@bitsmart_io,"Decentralized Identity: How Microsoft (and Others) Plan to Empower Users to Own and Control Personal Data #blockchain #bitcoinnetwork #ethereum #starbucks #accenture #bitsmartDecentralized Identity: How Microsoft (and Others) Plan to Empower Users to Own and Control...Microsoft continues its blockchain streak, empowering users to own personal data.bitsmart.io",0,0,0,False
19,Markshire Crypto@MarkshireC,"#Australia moves to make using #cryptocurrency more feasible for daily transactions! Government adopting crypto! 
#bitcoin #ethereum #xrpQuote TweetMarius @LandM_Marius · May 19, 2019BREAKING: Australian ATO (Tax office) unofficially now rules if you cash out Bitcoin or Cryptos under $10,000 AUD, you do not need to declare it in tax returns. Get with your tax accountant to know more. Australia won’t make ruling crypto is currency but support it fully.Show this thread",1,0,0,False
20,Digital Currancis Expert@rippleksa,"Within next hours, Crypto  kicks in big time:
#btc $8558+
#eth $292+
#ltc $101+
#bch $454+
#etc $9.09+

",0,0,0,False
21,xibot @xavieriturralde,"Unleash your design superpowers & submit your designs @pictosis to win up to $25k+ USD in crypto!
@ethstatus @ethstatus_ES @pixura_io @dether_io @Keycard_ @tippin_me
$PICTO $ETH $DAI $BTC $SNT $DTH #Ethereum #ETH #Bitcoin #BTC #Sats #PICTO #PlayToCreate #Design #CrowdstormQuote TweetPictosis@pictosis · May 19, 2019Designs are coming!

Submit your design & win up to $25k+ USD in crypto for your outstanding work & community engagement!

Join the PICTO token logo design crowdstorm here:  

https://pictosis.com/pictosis/picto-token-design/…

#Pictosis #PlayToCreate #PICTO $PICTO #Design $ETH $BTCGIF",2,2,0,False
22,KrakenPrices@KrakenPrices," Prices update in $USD (1 hour):

$BTC - 8204.0 $ (+0.01 %)
$ETH - 261.3 $  (-0.03 %)
$XRP - 0.42 $   (-1.85 %)
$BCH - 417.4 $  (-2.77 %)
$LTC - 95.79 $  (-0.16 %)

#BTC #ETH #XRP #BCH #LTC #Trading #Crypto #Bitcoin",0,0,0,False
23,XOV - as featured on Forbes@XOVercoin,"We’re combining our stable coin and payments network to make paying for everyday items a reality. 

$xov @StableCryptos @CryptoWendyO @CryptoPhD @RapidsRPD @CoinTelegraphEU @InfinitoWallet @ForbesCrypto $btc $eth $xrp $xvg $tomo",17,9,6,False
24,Ron@Ronnycrypto,"qPocket: why not try to know this one!!! It is worth more than you ever think of!!!

#cryptowallet #eth #erc20 #dapp #quarkchain #qkc",0,0,0,False
25,Ron@Ronnycrypto,"Like this one sooo much....

#cryptowallet #eth #erc20 #dapp #quarkchain #qkc",0,0,0,False
26,Johnny One Punch  Man@DR6am,"That move up yesterday was not organic. There will be a lot of people trapped at $8,300 on BTC. All it takes is a rug pull from a big sell order and this market goes down. #btc #bitcoin #ltc #litecoin #ether #ethereum #crypto #cryptocurrency",1,0,0,False
27,Ether to USD@EtherUSD,$ETH: $262 USD,0,0,0,False
28,Automatski@theautomatski,Protein Folding & Cancer Cure Solved Deterministically http://bit.ly/2NVyr9x | #tokenlaunches #ether #phoenix #singapore #icotracker #deals #losangels #london #iconomi #PrivateEquity #platform #austin #money #cuba #entrepreneurship #southaustralia #Startups #lasvegas #germany,0,0,0,False
29,Ben Fischer@BoersenMedien,#Ethereum #ETH jumps 1.35% in one hour. #EOS #EOS jumps 1.86% in one hour. #Litecoin #LTC jumps 1.1% in one hour.,0,0,0,False
30,KJ@KellenKeith,Just took some profits from $BTC and put into $ETH  #cryptoinvestor,1,0,0,False
31,CRYPTO END GAMEr@cryptoendgamer,"According to my pattern, crypto CMC should correct to 200 -210 billion. I don’t know if it did. Anyhow, it looks like we are on our way to $300 - $350 billion. From there I expect a massive correction to $150 billion. $btc $eth $link #crypto",1,1,1,False
32,Trader Bash@traderbash768,#ETH Target hit. Remaining position closed. Onto the next trade.,1,1,0,True
33,Forza@Forza_Crypto,"60 Minutes is the most successful American television broadcast in history — tonight, the renowned program introduces the world to #Bitcoin and #cryptocurrency

Hodl on tight — it’s about to get very interesting 
#crypto #btc #ethereum #digitalassets #cbs #60minutes",5,0,0,False
34,Automatski@theautomatski,Blockchain (i) Scalability (ii) Throughput (iii) Energy Solved! http://bit.ly/2THsqCK | #bitshares #cryptocurrency #uk #netherlands #ITOs #token #crypto #tokenlaunches #tokyo #sanjose #ardor #deals #china #detroit #oakland #melbourne #minneapolis #godblessamerica #ethereum #ico,0,0,0,False
35,BittrexPrices@BittrexPrices," Prices update in $USDT (1 hour):

$BTC - 8146.54 $    (+1.2 %)
$ETH - 259.74 $     (+0.74 %)
$XRP - 0.42 $       (-2.0 %)
$BCH - 412.91 $     (-2.01 %)
$LTC - 96.59 $      (+1.48 %)

#BTC #ETH #XRP #BCH #LTC #Trading #Crypto #Bitcoin",0,0,0,False
36,Cryptocurrencies / EUR@cryptosEUR," Prices update in $EUR (1 hour):

$BTC - 7336.1 € (+1.35 %)
$ETH - 233.11 € (+0.67 %)
$XRP - 0.37 €  (-1.92 %)
$BCH - 370.8 € (-2.19 %)
$LTC - 85.63 € (+1.04 %)

#EUR #Euro #BTC #ETH #XRP #BCH #LTC #Trading #Crypto #Bitcoin #Ethereum",0,0,0,False
37,Automatski@theautomatski,Scientists Explain The Creation of Space & Time http://bit.ly/2U99DR6 | #kualalumpur #mexico #money #portland #ico #Alibaba #blockchain #indiegogo #venturecapital #crowdfunding #oakland #tokyo #tampa #platform #Russia #fund #ico #washingtonDc #atlanta #detroit #investing #ether,0,0,0,False
38,Cryptocurrencies / USD@cryptosUSD," Prices update in $USD (1 hour):

$BTC - 8200.0 $  (+1.45 %)
$ETH - 260.6 $   (+0.81 %)
$XRP - 0.42 $    (-2.07 %)
$BCH - 415.6 $   (-1.7 %)
$LTC - 95.98 $   (+1.2 %)

#USD #Dollar #BTC #ETH #XRP #BCH #LTC #Trading #Crypto #Bitcoin #Ethereum",0,0,0,False
39,liz perez@alejand98179334,EOS (EOS) Predictions: Is the Downfall of EOS Over or Bear has More Plans? - https://elevenews.com/2019/05/19/eos-eos-predictions-is-the-downfall-of-eos-over-or-bear-has-more-plans/#ripple… #ethereum #bitcoin #litecoin #ada #trx #xrp #eth #btc #btch #TRON #xlm #stellar #dash $ripple $ada $xrp $eth $btc $btch $xlm $eos,0,0,0,False
40,Snowball Money@snowball_money,"Are you based in the USA?  If so, you can be eligible for our VIP Beta app. Get into our DM’s 
#btc #eth #bitcoin #crypto",9,4,1,False
41,Sephiroth@Sephir_ETH,"When 60 minutes pump?!

$BTC $ETH $LTC",2,0,0,False
42,Bitcoin Price@coinpricenow,"1 Bitcoin ( #BTC )
Dollar: 8237.78$ 

1 Bitcoin Cash ( #BCH )
Dollar: 4,25.61$ 

1 Ethereum ( #ETH )
Dollar: 263.19$ 

1 Ripple ( #XRP )
Dollar: 0.42313$ 

Date: 19 May 2019 23:30

#Bitcoin #Ethereum #cryptocurrency #crypto #altcoin #Blockchain #Ripple",1,0,0,False
43,TradeSetup@trade_setup,"#Ethereum and other #cryptocurrency pairs have rallied over the weekend so we have all eyes on how Ethereum will react up at previous highs to see if price can build another buy entry for usQuote TweetTradeSetup@trade_setup · May 17, 2019#Ethereum played out nicely...gains all locked away so now just sitting back and watching to see if we can get another setup for a buy...once a few trader are washed out of course",0,0,0,False
44,Adrian's Toaster@enigmapi_one,"Hello humans, as of Sun May 19 18:30:14 CDT 2019, current #cryptocoin prices:
#bitcoin is $8238.0191
#dash is $167.8911
#dogecoin is $0.0032
#ethereum is $263.2585
#iota is $0.4278
#litecoin is $96.4004
#ripple is $0.4215",2,1,0,False
45,City Of Investment@CityofInvestmnt,http://cityofinvestment.com/investment-packages/… Cannot trade and require professional forex managed account services? View our investment packages #pension #gbp #Mexico #Argentina #Brazil #Colombia #Greece #Poland #Russia #SouthAfrica #Spain #Italy #Germany #Malta #Hungary #eth #btc #…Investment Packages - City Of Investmentcityofinvestment.com,0,0,0,False
46,ThirdBrainFx@thirdbrainfx,"Check all here --> https://thirdbrainfx.com/crypto.html 
On #Hitbtc #BTC to #USD -- > 8259.59, volume --> 6537 
On #C-Cex #ZEC to #BTC -- > 0.064111, volume --> 1 
On #YoBit #XRP to #ETH -- > 0.00156322, volume --> 918 
On #Exmo #DOGE to #BTC -- > 0.00000038, volume --> 67656804",0,0,0,False
47,Crypto pump island@crypto_pump_1,"Join our pump group : https://t.me/crypto_pump_island…
#bitcoin #eth #xrp #btc #binance #pumpanddump #pnd #cryptocurrency #crypto #cryptopump #cryptotrading #binance #ethereum #cryptopia #bitcoinexchange #cryptoexchange 

 Updated on 2019/05/19 23:30:01Crypto Pump IslandWe are a crypto pump channel conducting pumps on Binance and share binance trading signals For Premium  @APGLOBALS Note : Many channels are copying our signals and pretending to be like us....t.me",0,0,0,False
48,Tony @ crypto60@crypto_sixty," 1 Hour Top 8 $USD Price: 

#BTC  $8193.55 (1.85%)
#ETH  $261.86 (1.44%)
#XRP  $0.421658 (0.96%)
#BCH  $427.27 (1.11%)
#EOS  $6.54 (2.19%)
#LTC  $96.11 (1.44%)
#BNB  $29.11 (-0.44%)
#XLM  $0.144530 (1.63%)

http://crypto60.com #bitcoin #ethereum",0,0,0,False
49,CryptoSurfer@aakashbit,"Replying to @aakashbit and @MacnBTCTrade Closed : Selling $matic bags here

New Trade Opened:
$BTT 

Buy - 0.0010595 - this will grow in USDT
Target - 0.0014500

$btc $bnb $matic $eth",2,2,0,False
50,DEX Arbitrage Opportunity Bot@dexarbitrage," a decent 0.302% #arbitrage opportunity! Buy $BAT / $ETH on RadarRelay for 0.0014589, Sell on Binance for 0.0014633.
Potential Profit: 0.0004268 ETH (~0.1134 DAI).
#DeFi",1,0,0,False
51,Cryptoknight5287@cryptoknight527,"#Blockchain #cryptocurrency #bitcoin #Ethereum #ico #P2PS #P2PSF #startup #fintech on ICO benchQuote Tweetp2ps@p2psf · May 8, 2018I just published “P2PS MVP/Prototype evaluated, acknowledged and approved by ICObench.” https://medium.com/p/p2ps-mvp-prototype-evaluated-acknowledged-and-approved-by-icobench-537c6ce29e90…",1,0,0,False
52,Blue@BlueSS05,Added more $ETH today. Bought at the top a few days ago so sorry if it drops again. #fomo #someonehastobebuythetop #notgaybutdefwouldbeatop,0,0,0,True
53,Automatski@theautomatski,Internet Scale SAT Solver solved Billions of Variables/Clauses http://bit.ly/2F21OEy | #JackMa #cleveland #neworleans #mexico #forthworth #BitCoin #ITOs #cannabis #iot #newzealand #investment #stratis #Ethereum #bonus #funds #godblessamerica #initialcoinofferings #france #avcj,0,0,0,False
54,The Cryptomist@Thecryptomist,"$BTC
$ETH 

There goes the breakouts mentioned earlier today 
$Eth timing was accurate, however I was hoping $BTC would go sideways and move across the pennant for a little longer, I guess she waits for nobody!",32,5,4,False
55,phxtrades@phxtrades,"Heck of a bullish daily candle in cryptos today, looks pretty strong to move above the recent highs $BTC $BTCUSD $ETH $ETHUSD $LTC $LTCUSD",4,1,1,True
56,aWebAnalysis | Crypto@aWebAnalysis,"Ethereum ETH Current Price:
$263.30
1 Hour: 1.95 % | 24 Hours: 11.70 % | 7 Days: 40.16 %
#eth #ethereum",0,0,0,False
57,ChaE YounG@ChaEYou53800684,"#TheFaustFlick undoubtedly this will be a great opportunity for all investors to join wonderful.
@TFF_Token @TheFaustFlick @caressinghearts #Film #ExecutiveProduce #ETH #TFF #FilmBusinessBuster #TFF_Bounty.
http://t.me/TheFaustFlick
http://thefaustflick.comTheFaustFlickWelcome to the TheFaustFlick group. Happy to answer any question about TheFaustFlick & the FAUST SPV. • We don't DM • No Solicitors Please. • http://TheFaustFlick.com • https://twitter.com/FAUST_SPV...t.me",0,0,0,False
58,ChaE YounG@ChaEYou53800684,"#FilmBusinessBuster can do well, and more importantly, your work can be useful to people for humanity.
@FBB_Token @TheFaustFlick @caressinghearts #Medium #Film #SmartContract #ETH #FBB #TheFaustFlick #FBB_Bounty
https://t.me/FilmBusinessBuster…
http://filmbusinessbuster.comTelegram: Contact @FilmBusinessBustert.me",0,0,0,False
59,Automatski@theautomatski,"The Meaning of this Universe, Life & Everything is NOT 42 http://bit.ly/2U99DR6 | #tokyo #lasvegas #waves #token #miami #AVCJjapan #investments #ether #ico #utrust #iot #cryptocurrency #france #deals #ICOs #chille #PrivateEquity #milwaukee #technews #venturecapital #Alibaba #vc",0,0,0,False
60,Domain Address Info@DomainAddress4u,See you all next year #NYCBlockchainWeek Quantstamp activity round up via /r/ethereum http://bit.ly/2Wc8pFS hot  in #reddit #ethereum #eth #cryptoSee you all next year #NYCBlockchainWeek Quantstamp activity round upWrapping up our NY Blockchain Week at EthNewYork in Brooklyn today. Had a very successful New York Blockchain Week this year. We are closing...reddit.com,0,0,0,False
61,TYBITCOINSIGN@tybitcoinsign,"Binance is the number 1 crypto exchange ever. Trade crypto and earn money!

Go here: http://bit.ly/Binance_Ref
$XLM $ETH $XRP $DCR $ICX $VET $DGB $BAT $LSK $EOS $AE $NPXS $PHX $GNT $DOGE $GXS $WAX $WTC $POWR $NEXO $AION $EDO $BNT $ENG $EDR $MFT $MAN $RDN 9138734",2,0,0,False
62,TheOldRepublic 𒐪 For Human Good - Jedi Knight@theoldrepublic,"The #Matic token with support from both @binance and @Coinbase is surging up to 38% It brings ""massive scale to Ethereum."" It could be the it coin for 2019. #crypto #cryptocurrency #Ethereum #etg
@jack @sqcrypto @VitalikButerin @SatoshiLite @msnbc @cnbc @forbes @business @Gemini",0,0,0,False
63,Captain Altcoin@CaptainAltcoin,"Ethereum (ETH) Price Prediction 2019 - Plotting Another Offensive On The $275 Resistance (May 20th Update) | CaptainAltcoin https://buff.ly/2Vwqgms
#crypto #cryptotwitter #cryptocurrency #bitcoin #CryptoNews #cryptocurrencynews #cryptoinvestment $eth #eth #ethereum #ether",1,0,0,False
64,Automatski@theautomatski,"Startup delivers what Israel, Valley, MIT and Stanford are still struggling with http://bit.ly/2u1RYfn | #iot #bitcoin #ardor #ITOs #AVCJsingapore #sandeigo #raleigh #ether #indiegogo #funds #southaustralia #AVCJjapan #status #BitCoin #malaysia #startup #newzealand #mexico",0,0,0,False
65,The Daedalus Report™@DaedalusReport," $BTCUSD [White] ""Reversal Points in TIME"" forecast #LITECOIN #BITCOIN #ETHEREUM #OOTT #DAYTRADING #FUTURES $LTCUSD $ETHUSD #BLOCKCHAIN #CRYPTOCURRENCY #SWINGTRADING #TRADING #TRADINGCHAOS #TRADINGSTRATEGY #FRACTALS #TIMEPATTERNS https://TheDaedalusReport.com/LEARN",0,0,0,True
66,Ternio Community - Unofficial@TernioC,"Real transactions being made on the #Ternio #BlockCard!!
Finally a #crypto debit card that can be used anywhere on the #Visa network.
The easiest way to spend your #BTC #ETH #BCH #LTC #XLM or #TERN with no hidden fees!!!
#spendcrypto #cryptocurrencyQuote TweetTernio  @terniotoken · May 19, 2019Thanks to DillyDilly in the #ternio telegram channel for making the first #BlockCard customer transaction video!   We're going to be posting many more in the upcoming weeks of customers using their #Blockcard account to #spendcrypto.   #cryptocurrency #crypto #CryptoNews2:151.2K views",16,5,0,False
67,Automatski@theautomatski,The Worlds First 100k Qubit Quantum Computer http://bit.ly/2XPxhB9 | #raleigh #tokenmarket #initialcoinofferings #bitcoinUK #crypto #cybersecurity #ethereum #AVCJjapan #BitCoin #sandeigo #funding #privateequity #BitCoin #virginiabeach #paris #portland #Moscow #ITOs #investment,0,0,0,False
68,Firelyte@firelyte,Looks like $OMG just updated their network. #eth #ethereum #plasma #OmiseGO https://blog.omisego.network/next-station-samrong-omg-network-v0-2-83926df9ff68…,2,1,1,False
69,Crypto Millionaire App@eagletwitt3r,A little perspective for the panicking noobs: Bitcoin reached US dollar parity only 7 years ago on 9 February 2011. Back then it was considered an impossible miracle... http://bit.ly/2SaRii9 #Bitcoin #Crypto #Ethereum #Litecoin #Ripple #EOS,0,0,0,False
70,WhaleCallsAlts@WhaleCallsAlts,OKEX $ETH Weekly futures has liquidated a short position of 1885 contract at 266.625 - 2019-05-20 07:14:55,0,0,0,False
71,ThirdBrainFx@thirdbrainfx,"Check all here --> https://thirdbrainfx.com/crypto.html 
On #Livecoin #BLK to #BTC -- > 0.00001056, volume --> 21074 
On #Poloniex #ETH to #USD -- > 261.5, volume --> 29202 
On #Independent Reserve #BTC to #AUD -- > 11928, volume --> 305 
On #Kraken #BTC to #USD -- > 8213.4, volume --> 6877",0,0,0,False
72,Prime Trader@IdeasPrime,"ETH/USD | $ETHUSD | $ETH $USD

Are We Just Getting Started? (Crypto Update - BTC, XRP, ETH)

Long or short it on WCX: http://wcex.com/trade/ETH-USD",1,0,0,False
73,Aramis@TrochetA,Is it clout time yet ? #BTC #ETH,1,1,0,True
74,CryptoPunks Bot@cryptopunksbot,Punk 3585 bought for 0.55 ETH ($144.35 USD) by 0x844959 from 0x470e9b. http://larvalabs.com/cryptopunks/details/3585… #cryptopunks #ethereum,3,2,0,False
75,Cryptoskids@cryptoskids,"Highest number of coins hodlers in single wallet #bch 4,20,611.55, #bitcoin 1,21,805.00 #ethereum 10,833,722. you were late #crypto traders .",0,0,0,False
76,ᑭᗩᖇKEᖇ @parkerclewis,$ETH is being a little bitch right now,1,0,0,False
77,Hal L Finney@Rest_home_chad,Fun little 50x $eth scalp going well. Going to close here. Feel like we are more than likely going to form a triangle as this is more than likely what $btc is going to do. #gap,0,0,0,True
78,Automatski@theautomatski,The Topmost Technology Company In The World Today http://bit.ly/2u1RYfn | #memphis #gamecoin #reuters #saintpaul #albuquerque #indiegogo #oakland #neworleans #blockchain #saltlakecity #technews #AVCJsingapore #ico #tech #ether #singapore #brazil #sanantonio #ardor #Top10 #coin,0,0,0,False
79,WizardofWallstreet@CaptainWeee,$BCH $BTC $LTC $ETH $BNB $MATIC $ENJ $RVN $XRP Cruise Control ,5,3,2,False
80,Rachelle Elejorde@itsmeknowitall,"Great news! Join the Harmony launching now!

#harmonyprotocol #deepsharding #blockchain #BUIDL #BTC #ETHQuote TweetHarmony@harmonyprotocol · May 16, 2019Introducing the Harmony ($ONE) Token Sale on @binance Launchpad

Please note that Lottery Rules have changed to make them more inclusive and fair!

It's time to allocate your $BNB tokens and claim your tickets! 

Thanks to our community for the support 
https://binance.zendesk.com/hc/en-us/articles/360028476111…",0,0,0,True
81,Trading Strategist@TradeStrategyCo,"#BTCUSD $8255.3
Price change 1-Hour 2.40% | 1-Day 13.66% | 1-Week 19.55%
5/20/2019 12:07 AM

Real-time #bitcoin price + news analysis of 150+ global news sources every hour 24*7*365

#BTC #blockchain #ethereum #trading #ico #Crypto #cryptocurrency #news",0,0,0,False
82,Automatski@theautomatski,A New Physics - The Universe Runs Using Non-Deterministic Calculus http://bit.ly/2u1RYfn | #canberra #BitCoin #denver #italy #washington #cryptocurrency #london #netherlands #venturecapital #adelaide #vc #albuquerque #ether #omaha #newzealand #FinTech #ITOs #venture #bitcoinUK,0,0,0,False
83,Cuan Token@cuantokenn,Facebook Unexpectedly Plants Its Flag in Crypto-Friendly Switzerland http://bit.ly/2LR83jJ #investment #eth #litecoin #business #investor #bitcoinnews #bitcoins #cryptotrading #forextrader #bitcoincash #coinbase,0,0,0,False
84,Charlie Mar @itscharliemar," THE TRUTH BEHIND DIGITAL CURRENCIES 
LIVE ON YOUTUBE
LINK: https://youtu.be/pOlCPuqarl8

Tags: $BTC $ETH $LTC $XRP $XEM $XLM $BCH $NEO $ELA $POWR $ADA $TRX $XMR $DASH $DOGE $BSV $MIOTA #Crypto #Bitcoin #livenews #bitcoinlive",3,2,0,False
85,QwarkStreeCo@QwarkC,"Binance is the highest quality crypto exchange ever. Trade crypto and gain profit!

Click here: http://binance.com/?ref=10078236
$BCH $ETH $XRP $IOTA $XMR $WPR $NEM $BAT $RVN $EOS $AE $NPXS $CRO $GNT $XEM $HC $INS $POLY $NAS $KNC $ELA $ETP $BNT $KIN $SYS $NXS $OST $GRIN 90946",2,4,0,False
86,Felix@AureumVictoria,"Nice! My Trading Bot just sold $MCO with 1.05% profit on binance ! 

My Bot: http://bit.ly/Bot_
#Bitcoin #BTC $BTC #ETH $ETH #LTC $LTC #XRP $XRP #EOS $EOS #kryptowährung #Cryptocurrency #Krypto #BCH $BTC #ADA $ADA #BNB $BNB #XLM $XLM #USDT $USDTCryptohopper - The Most Powerful Crypto Trading BotCryptohopper is the best crypto trading bot currently available, 24/7 trading automatically in the cloud. Easy to use, powerful and extremely safe. Trade your cryptocurrency now with Cryptohopper,...cryptohopper.com",0,0,0,False
87,Space Misfits@SpaceMisfits,"Space Misfits: The World’s First Blockchain-Powered Open-World RPG Launches 25th of MAY 2019!

https://medium.com/space-misfits/space-misfits-has-hit-enjin-214d657c4067…
@enjin #blockchaingames #cryptocurrency #ethereumSpace Misfits: The World’s First Blockchain-Powered Open-World RPG Launches Next SaturdaySpace Misfits will then grow into the first blockchcain-powered MMOmedium.com",244,520,32,False
88,DEX Arbitrage Opportunity Bot@dexarbitrage," a decent 0.319% #arbitrage opportunity! Buy $OMG / $ETH on Binance for 0.0079480, Sell on IDEX for 0.0079733.
Potential Profit: 0.0007759 ETH (~0.2051 DAI).
#DeFi",1,0,0,False
89,WhaleCallsAlts@WhaleCallsAlts,OKEX $ETH Bi Weekly futures has liquidated a short position of 2000 contract at 267.563 - 2019-05-20 07:02:50,0,0,0,False
90,WhaleCallsAlts@WhaleCallsAlts,OKEX $ETH Weekly futures has liquidated a short position of 1939 contract at 267.185 - 2019-05-20 07:02:49,0,0,0,False
91,Michael Huntington@cryptoscanner1,"#CRYPTOCURRENCIES are MOVING! Try https://cryptolume.co to scan for OVERSOLD RSI, MACD CROSSOVERS and where VOLUME is going!

#BTC #ETH #LA #BCH #XVG #DASH #ELF #QTUM #XMR #MAID #XRP #MONA #THR #QBIT #MIOTA #BTG #ETP #CLAM #XTZ #SAN",0,0,0,False
92,bitsmart.ioETHbot@bitsmart_eth,"ETH $261.46 Up +$1.36 +0.52% in the last hour #ethereum #bitsmartbitsmart :: Ethereum news, price, social media analysis and market sentimentbitsmart monitors the latest Ethereum news, price, social analysis and market sentiment 24/7bitsmart.io",0,0,0,False
93,Coin Trading Analytics@CoinTradingBot,"Top 100 avg 1h return: 0.6±1.2%; 81 up, 19 down
$BTC 1.5%  $ETH 0.7%
Best:
3.9% $SAN @santimentfeed
2.4% $CLAM @ClamClient
2.3% $RDD @reddcoin
Top 101-200 avg 1h return: 0.7±2.6%; 72 up, 28 down
Best:
22.8% $INO @InoCoin2018
3.6% $MATIC @maticnetwork
3.6% $ROX @robotinaICO",1,1,2,False
94,Coin Trading Analytics@CoinTradingBot,"Top 100 avg 24h return: 7.0±4.5%; 97 up, 3 down
$BTC 12.4%  $ETH 10.9%
Best:
24.6% $LA @latokens
18.4% $BCH
16.9% $XVG @vergecurrency
15.6% $DASH @Dashpay
14.0% $ELF @aelfblockchain
Worst:
0.3% $MCO
0.1% $PAX
-0.1% $CRO
-2.2% $THETA
-6.8% $AOA
#bitcoin #crypto",2,0,0,False
95,Crypto Gulp@CryptoGulp,"Top 5 Cryptocurrencies Prices

$BTC: $8,190.04 - Bitcoin  +1.56% 
$ETH: $261.58 - Ethereum  +0.82%
$XRP: $0.422210304 - XRP  +1.67% 
$BCH: $426.75 - Bitcoin Cash  +0.74%
$EOS: $6.50 - EOS  +1.43% ",0,0,0,False
96,bitsmart.io@bitsmart_io,'Tackling Real World Issues': Hackers at ETH New York Build Apps Geared Towards Social Change #ethereum #hackathon #unicef #blockchain #smartcontract #bitsmart'Tackling Real World Issues': Hackers at ETH New York Build Apps Geared Towards Social Change ::...A New York Blockchain Week ended last Friday we spent time at an ethereum hackathon where developers came together to build blockchain tools with social impact.bitsmart.io,0,0,0,False
97,Crypto Millionaire App@eagletwitt3r,What percentage should you invest in each cryptocurrency to become a millionaire? A winning index strategy http://bit.ly/2EEJ5Pt #Bitcoin #Crypto #Ethereum #Litecoin #Ripple #EOS,1,0,0,False
98,Ethereum Hourly@EthereumHourly,"Price update: 1 #Eth = $262.25 
#cryptocurrency $ETH sourceCryptocurrency API, Historical & Real-Time Market Data | CryptoCompareFree cryptocurrency data APIs. Get high-quality historical & real-time trade, order book and volume data through market-leading REST & WebSocket APIs.min-api.cryptocompare.com",0,0,0,False
99,Alex Edward@AlexEdw33505633,$HOT was pumped by this group the best! https://t.me/mega_pump_group $BTC $XRP $ETH $EOS $LTC $BCH $TRX $XLM $ADA $BNB $XMR $NEO $WAVES $DLT $OAX $DGB  - [907]Mega Pump GroupCryptocurrency's #1 and biggest signal group! All of our pumps are free for all! We will never ask for money in exchange for VIP. #DYOR. None of our signals are financial advice. Join us on discord...t.me,0,0,0,False
100,Tweeting Neural Net@TweetingNN,#chessbrahTV #CoinmeOneAu #BTC26 #BullBearAnalyst #Ethereum Look good to me looking good!!!! :),0,0,0,False
101,Daniel Villamizar -Microsoft Azure MVP@CSA_DVillamizar,"This tweet, ""RT AghiathChbib: #Hyperledger Vs #Ethereum 
Which framework to use?
Reply with your view..
via 101Blockchains 
dinisguarda thomaspower…"" has been retweeted 43 times.",0,0,0,False
102,CoinTrendz.com@CoinTrendz,"Top 10 Mentions on Twitter in the last hour - $BTC $ETH $XRP $BCH $LTC $XLM $LINK $EOS $TRX $ADA 

More on http://CoinTrendz.com ",1,0,0,False
103,Crypto Press@CryptoPressNews,"$ETH | #ETH - ethereum's Current Price: ▲ $261.5084 | 1h ▲ : 0.72 % | 24h ▲ : 10.9 % | 7d ▲ : 39.35% | More on:ETH > Ethereum News > Ethereum Pricing Information > Ethereum Charts > More! » Crypto.PressEthereum information portal: news, price information, and more about ETH.crypto.press",1,1,0,False
104,Automatski@theautomatski,The Topmost Technology Company In The World Today http://bit.ly/2u1RYfn | #Startups #tech #denver #dubai #BitCoin #denver #orlando #melbourne #canberra #bitcoinUK #phoenix #ether #iot #southafrica #bonus #TokenSales #status #Alibaba #portland #canberra #boston #kansascity #ITOs,0,0,0,False
105,Crypto Floki@CryptoFloki,"You got to love the constant engagement with the community from the @dragonchaingang team, @sieng and in this specific case @j0j0r0 who's always om point btw. $DRGN #Blockchain #Dragonchain #Bitcoin #Ethereum #InterchainEverythingQuote TweetCrypto Spyro@SpyrotheDRGN · May 19, 2019$DRGN family some community questions and answers from our CEO @j0j0r0Show this thread",6,2,0,False
106,Exclusive Or@X_OR,"Top 3 Price Prediction #Bitcoin, #Ripple, #Ethereum: #Cryptos stage a Sunday surge, levels to watch – Confluence DetectorTop 3 Price Prediction Bitcoin, Ripple, Ethereum: Cryptos stage a Sunday surge, levels to watch –...After surging in the previous weekend, cryptocurrencies held up their gains throughout most of the week but then suffered a sudden sell-off late in thfxstreet.com",0,0,0,False
107,Automatski@theautomatski,Trillicorn - Valued at Over $20 Trillion http://bit.ly/2u1RYfn | #sydney #dubai #neworleans #oakland #paris #kualalumpur #indianapolis #Startups #albuquerque #investing #bitcoin #lasvegas #icotracker #sanjose #ETH #china #sydney #avcj #JackMa #reuters #funding #orlando #asia,0,0,0,False
108,Sampen Carrey@CarreySampen,"1000%+ cumulative profits

For more signals,join telegram- https://t.me/CryptoWarsnop
$WABI $SKB $REQ $BCH $BTC $NTY $BRD $LOOM $ARK $FSN $NEBL $XLM $RVN $REP $DIG $XRP $CLOAK $CLOAK $GBC $OCP $QLC $NXT $BTC $ETH $ETC 726659374",4,0,0,False
109,George Levy@georgelevy,"Most #cryptoassets well back in the green again, and #BitcoinCash is the past 24 hours' biggest gainer. 
More data at    

#cryptotrader #cryptotrading #cryptocurrency #bitcoin #BTC #ETH #XRP #blockchain #BCH #USDT #LTC #BSV #EO ... https://coinbillboard.com http://bit.ly/2Jt9DX5",1,0,0,False
110,Automatski@theautomatski,The Millennium Firm That Discovers The Secrets of The Universe http://bit.ly/2u1RYfn | #milwaukee #ether #iot #newyork #godblessamerica #forthworth #washington #ITOs #equity #sanFransico #cannabis #Top10 #funding #melbourne #wavesplatform #entrepreneurs #kualalumpur #crypto #vc,0,0,0,False
111,IV Turgenev@IvTurgenev,"QuarkChain, @Quark_Chain and add hashtags including #QuarkChain #QKC and any one of them (#Blockchain #BTC #ETH #blockchaintechnology #sharding",0,0,0,False
112,IV Turgenev@IvTurgenev,"Post tweets about QuarkChain, @Quark_Chain and add hashtags including #QuarkChain #QKC and any one of them (#Blockchain #BTC #ETH #blockchaintechnology #sharding",0,0,0,False
113,cryptoZen@cryptoZen8,$Poly #Polymath 1D huge bullish divergence. $Btc $Eth #Binance #Bittrex #Huobi,1,0,0,False
114,Archimedes@Know_It_Owl,$ETH needs to show us something soon.  Tapped resistance on the USD pair and the btc pair is hovering just above a recent resistance turned support.,0,0,0,False
115,Felix@AureumVictoria,"Nice! My Trading Bot just sold $XLM with 1.84% profit on binance ! 

My Bot: http://bit.ly/Bot_
#BTC $BTC #ETH $ETH #LTC $LTC #XRP $XRP #kryptowährung #Cryptocurrency #KryptoCryptohopper - The Most Powerful Crypto Trading BotCryptohopper is the best crypto trading bot currently available, 24/7 trading automatically in the cloud. Easy to use, powerful and extremely safe. Trade your cryptocurrency now with Cryptohopper,...cryptohopper.com",0,0,0,False
116,Felix@AureumVictoria,"Nice! My Trading Bot just sold $XLM with 2.47% profit on binance ! 

My Bot: http://bit.ly/Bot_
#BTC $BTC #ETH $ETH #LTC $LTC #XRP $XRP #kryptowährung #Cryptocurrency #KryptoCryptohopper - The Most Powerful Crypto Trading BotCryptohopper is the best crypto trading bot currently available, 24/7 trading automatically in the cloud. Easy to use, powerful and extremely safe. Trade your cryptocurrency now with Cryptohopper,...cryptohopper.com",0,0,0,False
117,TYBITCOINSIGN@tybitcoinsign,"Binance is the ultimate crypto exchange ever. Trade crypto and earn money!

Go here: http://binance.com/?ref=10078236
$GTO $ETH $XRP $TRX $DASH $WAN $XTZ $OMG $RVN $EOS $HT $NPXS $IOST $PPT $BNB $GXS $WAX $WTC $NAS $SKY $ELA $ZEN $AELF $QKC $SYS $REN $OCN $POE 5804",1,3,0,False
118,IV Turgenev@IvTurgenev,"Post tweets about qPocket, @qPocket_wallet and add hashtags including any one of them (#cryptowallet #eth #erc20 #dapp #quarkchain #qkc",0,0,0,False
119, Keep Calm @kittykeepcalm,"#cryptowallet #eth #erc20 #dapp #quarkchain #qk
how to calculate mining reward : http://bit.ly/MR_TELE.
GPU mining：For how to setup GPU mining for ethash (shard 0,1,2,3),  more details here: https://github.com/jyouyj/ethminer.",0,0,0,False
120,Juan Mayen baleadas.eth@JMayen26,It’s official! Had a blast at @ETHNewYork #ethnewyork #eth #now #ineed #some #sleep #hackathon,0,0,0,False
121,Crypto squawk@SquawkCrypto,"The crypto markets ended the day much higher. 2100NEWS DA Indexes ended up between 3.20% and 9.87%. Bitcoin $BTC ended up 10.01%, Ether $ETH ended up 9.06%.
https://2100news.com/2019/05/19/movers-of-the-day-332/…
#Crypto #CryptoNews #cryptotrading #2100NEWSMovers of the Day - 2100NEWSMovers of the Day 2100NEWS 2019/05/19 - tokens and coins that moved the most in the last 24 hours are Matic Network, IHT, FUEL, COVA, FTI, Divi, EVN, TKN.2100news.com",0,0,0,False
122,Wojack₿TC@WojackXBT,"Binance has The most Volume

Of all Crypto Exchanges

Start Trading Now

http://bit.ly/BinanceExchangeReferral…
$ICX $ETH $BTC $ENJI $MANA $AIONBitcoin Exchange | Cryptocurrency Exchange | Binancebinance.com",0,0,0,False
123,Felix@AureumVictoria,"Nice! My Trading Bot just sold $BRD with 1.75% profit on binance ! 

My Bot: http://bit.ly/Bot_
#BTC $BTC #ETH $ETH #LTC $LTC #XRP $XRP #kryptowährung #Cryptocurrency #KryptoCryptohopper - The Most Powerful Crypto Trading BotCryptohopper is the best crypto trading bot currently available, 24/7 trading automatically in the cloud. Easy to use, powerful and extremely safe. Trade your cryptocurrency now with Cryptohopper,...cryptohopper.com",0,0,0,False
124, Keep Calm @kittykeepcalm,"#QKC #Blockchain #BTC #ETH #blockchaintechnology #sharding
Testnet 2.0 Mining Introduction : http://bit.ly/TS2_TELE

Step by Step CPU Mining Guide : http://bit.ly/M2_TELE",0,0,0,False
125,DIGITAL@ConnieDigital,"The new #ENS registrar is perfect, and the integration with @opensea is powerful! Buying, selling and trading ERC721 domain names will be huge! @ensdomains #ethereum #ENSeverywhere",19,6,0,False
126, Keep Calm @kittykeepcalm,"#QKC #Blockchain #BTC #ETH #blockchaintechnology #sharding
To better test and demonstrate several critical new features in the mainnet, we launched Testnet 2.5. Testnet 2.5 further improve the security and flexibility of the network. https://medium.com/quarkchain-official/quarkchain-announces-official-launch-of-testnet-2-5-the-last-round-of-testnet-before-mainnet-43d47295ba1e…",0,0,0,False
127,Automatski@theautomatski,The Worlds First Commercial Implementation of Post Quantum Cryptography http://bit.ly/2u1RYfn | #orlando #houston #bonus #techcrunch #chicago #malaysia #ether #AVCJjapan #lasvegas #malaysia #godblessamerica #technews #perth #newzealand #phoenix #icoalert #saltlakecity,0,0,0,False
128,Katie Sherlock@CherninaAlyona,#ethereum real world uses …http://trading-websites-like-ebay.bitcointalk.bitcoinrobot.website how to create a dapp on ethereum,0,0,0,False
129,WhaleCallsAlts@WhaleCallsAlts,OKEX $ETH Quarterly futures has liquidated a short position of 1188 contract at 269.893 - 2019-05-20 06:47:18,1,0,0,False
130,WhaleCallsAlts@WhaleCallsAlts,OKEX $ETH Weekly futures has liquidated a short position of 21013 contract at 266.066 - 2019-05-20 06:47:18,1,0,0,False
131,Automatski@theautomatski,"Consult Aditya, The Top Technologist in the world today. http://bit.ly/2IPBi3D | #sanantonio #venturecapital #equity #sanFransico #baltimore #netherlands #startup #venture #cybersecurity #houston #AVCJjapan #Ethereum #pittsburgh #tokyo #charleston #miami #kansascity #korea #iot",1,0,0,False
132,Vadim Plesh@VADIM_PLESH,"QuarkChain, @Quark_Chain and add hashtags including #QuarkChain #QKC and any one of them (#Blockchain #BTC #ETH #blockchaintechnology #sharding",0,0,0,False
133,Vadim Plesh@VADIM_PLESH,"Post tweets about QuarkChain, @Quark_Chain and add hashtags including #QuarkChain #QKC and any one of them (#Blockchain #BTC #ETH #blockchaintechnology #sharding",0,0,0,False
134,WhaleCallsAlts@WhaleCallsAlts,OKEX $ETH Weekly futures has liquidated a short position of 32330 contract at 265.873 - 2019-05-20 06:46:57,1,0,0,False
135,ZeeSHAGG@ZeeSHAGG,"We're gonna break 8.5k tonight i can feel it, my gooch is tingling $BTC $ETH $LINK!",3,0,0,False
136,Damilola Lawal@CryptoLawal,"Join me on http://Lite.IM on WhatsApp -- the world's easiest Bitcoin wallet where you can also earn Bitcoin by referring your friends. You can use this link to get started: 

https://wa.me/17869167825?text=%2Fstart%20referral__d256e560-7a85-11e9-a5fa-39078c7acc34…
#BTT #Litecoin #TRX #XRP #BTC #IOST #BCH #BCC #ETH",0,0,0,False
137,Automatski@theautomatski,The Real Stark Industries http://bit.ly/2u1RYfn | #ether #france #deals #sanantonio #forthworth #brazil #stlouis #techcrunch #tokenlaunches #chille #southaustralia #Startups #italy #reuters #zloadr #milwaukee #denver #godblessamerica #newzealand #FinTech #utrust #AVCJjapan #uk,0,0,0,False
138,gunbotUK@GunbotUk,"#crypto #trading software that you own a #lifetime without monthly fees ?

#gunbot #machine #arbitrage #coin #Bittex #Binance
#Bitmex #CEXIO #Gdax #Huobi #Bitfinex #poloniex $ETH $BTC $LTC $XMR #Bitcoin #cryptocurrency #cryptocurrencies #cryptotrading
https://gunbot.uk",0,0,0,False
139,Crypto Millionaire App@eagletwitt3r,Did you know you can share you diversification score and relative #crypto holdings without revealing any actual amounts? Find out how well diversified your holdings are with the Crypto Millionaire app! #Bitcoin #Crypto #Ethereum #Litecoin #Ripple #EOS,0,0,0,False
140,Gresham INTL@GreshamINTL,"In about every four years, the Bitcoin blockchain network experiences a block reward halving, a mechanism that reduces the rate in which new bitcoin is generated or mined by miners.
#bitcoin #ethereum #cryptocurrency #BTC #tokens #blockchaintechnology https://bit.ly/2VLb5e2",0,0,0,False
141,ThirdBrainFx@thirdbrainfx,"Check all here --> https://thirdbrainfx.com/crypto.html 
On #Poloniex #ETH to #USD -- > 259.24010002, volume --> 29202 
On #Bittrex #LTC to #BTC -- > 0.01178177, volume --> 64437 
On #Livecoin #LTC to #BTC -- > 0.01173234, volume --> 15319 
On #C-Cex #NXT to #USD -- > 0.03975669, volume --> 4",0,0,0,False
142,CryptoKingF@CryptoKingF1,"Looking promising for #Bitcoin 
Follow me for the latest crypto news and technical analysis 
#Bitcoin #BTC #XRP #Ripple #ALT #ADA #EOS #XLM #ETH #TRX #Tron #LTC #BCH #NEO #BNBChinese Yuan ‘Inversely Correlated’ with Bitcoin, Amidst US-China Trade WarsUS-China trade wars have resulted in declining value of Chinese yuan while the bitcoin price has surged.cryptoglobe.com",0,0,0,False
143,KrakenPrices@KrakenPrices," Prices update in $USD (1 hour):

$BTC - 8203.5 $  (+1.75 %)
$ETH - 261.38 $  (+0.53 %)
$XRP - 0.43 $    (+2.98 %)
$BCH - 429.3 $   (+0.75 %)
$LTC - 95.94 $   (+0.58 %)

#BTC #ETH #XRP #BCH #LTC #Trading #Crypto #Bitcoin",1,0,0,False
144,Chacha@okoyechacha,"Ooobtc 
OOOBTC offers you an altcoin token that is no less sophisticated than other altcoins, even though the altcoin is new.
#ooobtc #obx #IEO #exchange #crypto #bitcoin #ethereum #launchpad #blockchain #toqqn #dogecoin #Btk #usdt #Btcone #OVC http://ooobtc.com",0,0,0,False
145,Automatski@theautomatski,P = NP We actually don't need any Quantum Computers http://bit.ly/2vEdWZ5 | #tokenlaunches #london #initialcoinofferings #Ethereum #funds #saltlakecity #charlotte #reuters #zloadr #singapore #denver #tampa #austin #france #mexico #icotracker #investments #crowdfunding #columbus,0,0,0,False
146,Mutu Adi@_xs888,"Hello people!

What are you thoughts about #daps coin?

In an altcoin bullrun can reach £0.09 in one year? (£ not $)

Seems to have a strong development and right now is cheap AF!

@DAPScoin #blockchain #cryptocurrency #bitcoin #btc #ltc #ethMore or equal to £0.0953.3%Less or equal to £0.0920%No way in one year0%See results26.7%15 votes·Final results",3,1,0,False
147,Automatski@theautomatski,Conspiracy!!! Biggest Secrets of the Universe kept hidden since 1990's made public. http://bit.ly/2U99DR6 | #indiegogo #tucson #madison #newzealand #cryptocurrency #AVCJKorea #italy #losangels #ITOs #louiesville #china #ICOs #icotracker #bonus #Ethereum #korea #charleston #ETH,0,0,0,False
148,Cold Shills @ColdShills,right onn $ETH,0,0,0,True
149,Cold Blooded Shiller@ColdBloodShill,"My favourite, $ETH. I think there's more upside potential with $ETH right now than most others, breaking $235 was a big achievement on the Renko and there's literally thin air between us and $300+. Again, momentum firmly on side and it's just getting started.",20,2,1,True
150,Cold Blooded Shiller@ColdBloodShill,"Been a while since I've done this and people used to enjoy them, so here's a collection of the Daily Renko picture across the majors. $BTC $ETH $ADA $BCH $XRP $EOS $LTC",45,6,7,True
151,Anton Oyo@DAO_dude,Cannot Forget... by /u/Kpenney #bitcoin #btc #eth #ethereum #crypto #cryptocurrency #memes #dankmemes,0,0,0,False
152,CryptoAdvocate @ethadvocate,"@Cryptocom and @Ledger, a winning combination in security of #Cryptocurrency assets 
https://altcoinbuzz.io/crypto-news/partnerships/crypto-com-joins-forces-with-ledger-to-provide-institutional-grade-custody-solution/…
#crypto #MCO #CRO #BTC #ETH #LTC #XRP #BNB #TUSD #PAS #ENJ #BAT #OMG #KNCCrypto.com Joins Forces with Ledger to Provide Institutional-Grade Custody Solution - Business...Crypto.com partners with Ledger to offer customers a highly secure digital asset management solution. The vault will be used to manage own and users assets.altcoinbuzz.io",0,0,0,False
153,Automatski@theautomatski,The Topmost Technology Company In The World Today http://bit.ly/2u1RYfn | #charleston #AVCJjapan #tokyo #ETH #cryptocurrency #bitcoinaustralia #netherlands #southafrica #cryptocurrency #india #paris #bonus #investment #honolulu #vc #tezos #philadelphia #iconomi #phoenix #sale,1,0,0,False
154,DEX Arbitrage Opportunity Bot@dexarbitrage," a decent 0.304% #arbitrage opportunity! Buy $BAT / $ETH on Binance for 0.0014721, Sell on ETHFinex for 0.0014766.
Potential Profit: 0.0004313 ETH (~0.1124 DAI).
#DeFi",1,0,0,False
155,$DOGE TO $1 @cryptunez,"if you wanna know why $MATIC is still going up, its because bagsy tried to use elliot waves to call the top

this is very similar to the Sub dev's shorting $ETH at the bottom

you really out-did yourself this time @imBagsyQuote TweetBagsy@imBagsy · May 19, 2019$MATIC

So far has had an extremely great run, it hasn't broken bullish market structure yet. Currently on its third impulse wave up (typically the last). If I wanted to long the pullback, I'd look from the 168-190 level if the chance occurs.",18,1,1,False
156,Automatski@theautomatski,The N-Queens Completion Millennium Puzzle Solved http://bit.ly/2J5SLq2 | #PrivateEquity #neworleans #equity #uk #Alibaba #cannabis #chille #spain #honolulu #investing #cybersecurity #ethereum #netherlands #bitshares #zloadr #indianapolis #ether #chicago #washington #boise #ICOs,0,0,0,False
157,BittrexPrices@BittrexPrices," Prices update in $USDT (1 hour):

$BTC - 8049.97 $    (+0.43 %)
$ETH - 257.82 $     (-0.67 %)
$XRP - 0.42 $       (+2.62 %)
$BCH - 421.37 $     (-1.02 %)
$LTC - 95.18 $      (-0.34 %)

#BTC #ETH #XRP #BCH #LTC #Trading #Crypto #Bitcoin",0,0,0,False
158,Automatski@theautomatski,Internet Scale SAT Solver solved Billions of Variables/Clauses http://bit.ly/2F21OEy | #investments #chicago #cryptocurrency #oklahomacity #ethereum #abraaj #houston #memphis #brazil #blockchain #Russia #JackMa #lasvegas #indianapolis #funding #Russia #money #adelaide #madison,0,0,0,False
159,Marko Omcryptokus@omcikusmarko,"#ALTCOINS are MOVING! Use https://cryptolume.co to scan for OVERSOLD RSI, MACD CROSSOVERS and where BUYERS are going!

#BTC #ETH $NET $LA $XVG $BCH $DASH $ELF $XRP $XMR $QTUM $MAID $MONA $BTC $MIOTA $THR $ETH $BTG $ABBC $BTS",2,0,0,False
160,Dictator know it all @Lionel46294550,#xrp #xrpcommunity #btc #bitcoin #eth #xlm how do you like them apples ,16,3,3,False
161,Adrian's Toaster@enigmapi_one,"Hello humans, as of Sun May 19 17:30:14 CDT 2019, current #cryptocoin prices:
#bitcoin is $8057.6371
#dash is $161.1218
#dogecoin is $0.0031
#ethereum is $257.6538
#iota is $0.4193
#litecoin is $94.5904
#ripple is $0.4163",2,0,0,False
162,TheMultiMan@TheMultiMan1,"Jump on here for all your #btc & #eth betting these #NBAPlayoffs
#NHLPlayoffs
#crypto #GamblingTwitter #Milwaukee
#Toronto #Bucks #Raptors
https://mbet.io/Home/BonusActive…",1,0,0,False
163,Crypto pump island@crypto_pump_1,"Join our pump group : https://t.me/crypto_pump_island…
#bitcoin #BTC #ETH #XRP #EOS #Stellar #LTC #BCH #BCHSV #Cardano #tron #XMR #iota #dash #neo #waves #Qtum #xvg #steem #tpay #DNT #CVC #bigpumpsignal #megapump #bigpumpgroup 

Updated on 2019/05/19 22:30:01Crypto Pump IslandWe are a crypto pump channel conducting pumps on Binance and share binance trading signals For Premium  @APGLOBALS Note : Many channels are copying our signals and pretending to be like us....t.me",1,0,0,False
164,BTC Bros@BTCBros,"MARKETS: Ethereum (ETH) Price Surge, Bulls Eyeing Fresh 2019 High

https://buff.ly/2EcJ30j
#ethereum #eth #cryptocurrency #cryptotrading #newsbtc #btcbrosEthereum (ETH) Price Surging: Bulls Eyeing Fresh 2019 HighEthereum price is once again gaining bullish momentum versus the US Dollar, similar to bitcoin. ETH is eyeing more gains and it seems like the price could revisit the $280 swing high.newsbtc.com",0,0,0,False
165,Tony @ crypto60@crypto_sixty," 1 Hour Top 8 $USD Price: 

#BTC  $8034.20 (0.04%)
#ETH  $258.30 (-0.45%)
#XRP  $0.416534 (1.22%)
#BCH  $422.39 (-0.99%)
#EOS  $6.40 (0.00%)
#LTC  $94.63 (-0.84%)
#BNB  $29.22 (-0.10%)
#XLM  $0.141838 (0.38%)

http://crypto60.com #bitcoin #ethereum",0,0,0,False
166,Automatski@theautomatski,http://bit.ly/2u1RYfn Millennium Firm Explains The Universe | #cybersecurity #pittsburgh #stratis #sanFransico #china #bitshares #baltimore #Ethereum #losangels #asia #iot #vc #kickstarter #india #deals #bancor #argentina #kansascity #denver #token #funds #madison #southafrica,0,0,0,False
167,Automatski@theautomatski,http://bit.ly/2u1RYfn Millennium Firm Explains The Universe | #kualalumpur #washington #neworleans #paris #ardor #techcrunch #AVCJsingapore #entrepreneurs #adelaide #brazil #indiegogo #ethereum #funding #AVCJjapan #cannabis #kansascity #bitcoinUK #funding #houston #nashville,0,0,0,False
168,AMAN SONI ~₿@crypto_soni,"get 10XRP free instant.
 register on bitrue exchange and get 10 XRP bonus to deposit more than 50$ 
2 XRP weekly bonus every week.
Link:
https://bitrue.com/activity/landing?inviteCode=TLVGW…
(Trusted Exchange)
#btc #Binance #Bitrue #bitcoin #xrp #Rewards #XLM #Airdrops #bounty #ETH #Crypto #investingDownload Bitrue App and sign up, get Sign-up Package at once. Open the package you will have a...Download Bitrue App and sign up, get Sign-up Package at once. Open the package you will have a chance to win 60,000 XRP! Moreover, inviting friends will get commission rebate up to 50%!For details,...bitrue.com",6,1,1,True
169,₱ⱤØØ₣ / ∆ \@ProOFuture,"The quiet before the storm.. 

$BTC $ETH",1,0,0,False
170,Jsf@thejaysf," : https://dapp.knownorigin.io/edition/62400

Edition 1 of 12 available now $ETH 0.025 ($6.43) @knownOrigin_io
#cryptoart #knownorigin #raredigitalart #nft #cryptocollectibleGIF",4,1,0,False
171,Global Crypto Enthusiast@GlobalCryptoEn,"You Can Now Send and Receive Bitcoin on Whats App - https://globalcryptoenthusiast.com/you-can-now-send-and-receive-bitcoin-on-whats-app/…
#bitcoin #btc #cryptocurrency #cryptocurrencynews #litecoin #ethereum #eth",0,0,0,False
172,Chacha@okoyechacha,"HARMONY IS THE BEST CHOICE

 http://Harmony.one is designed with secure Sharding: due to the involvement of distributed randomness generation process which is unpredictable, scalable as well as verifiable
#harmonyprotocol #deepsharding #blockchain #BUIDL #BTC #ETH",0,0,0,False
173,Automatski@theautomatski,Scientists Explain The Creation of Space & Time http://bit.ly/2U99DR6 | #atlanta #washington #technews #singapore #tezos #malaysia #ethereum #minneapolis #techcrunch #paris #funding #albuquerque #JackMa #newyork #status #dubai #AVCJjapan #netherlands #reuters #privateequity #vc,0,0,0,False
174,Crypy Hold@CrypyH,"Don't miss the Harmony IEO for anything guys. 

#harmonyprotocol  #deepsharding #blockchain #BUIDL #BTC #ETHQuote TweetHarmony@harmonyprotocol · May 19, 2019Do you still have questions about $ONE Token Sale through @binance LaunchPad? 

In order to better response to the most Frequently Asked Questions from our community we have created an Infographic with everything that you need to know! 

https://binance.zendesk.com/hc/en-us/articles/360028476111…",0,0,0,False
175,webnow@webnowcompany,#ETH ConsenSys recently announced their partnership with Moët Hennessy – Louis Vuitton (LVMH) and Microsoft on a project to design a blockchain-powered platform...Read more:louis vuitton and christian dior owner unveils blockchain platform to verify luxury goods bitcoin...louis vuitton and christian dior owner unveils blockchain platform to verify luxury goods bitcoinnewscomwebnow.company,0,0,0,False
176,ELDAR IBRAGIMOV@ELDARIBRAGIMOV,Requesting faucet funds into 0x574cedC817532C6f253D480F6Bf8EDF2ED1A137e on the #Rinkeby #Ethereum test network.,0,0,0,False
177,Niall Mac Mathúna@niallon11,"Simple and to the point post form @runicar1 ,

https://steemit.com/steem/@runicar/why-developers-should-build-new-dapps-and-migrate-existing-ones-to-steem…

On the many benifits to uilding on #steem
#blockchain #crypto #EOS #ethereumWhy Developers Should Build New DApps and Migrate Existing Ones To STEEM! — SteemitHaving such a low market cap places Steem blockchain under the radar for most developers and as they tend to build… by runicarsteemit.com",2,0,0,False
178,Automatski@theautomatski,Conclusive Proof. Is This Universe a Simulation? http://bit.ly/2u1RYfn | #ethereum #seattle #paris #charleston #token #investment #washingtonDc #brazil #tech #BitCoin #Top10 #melbourne #tokyo #albuquerque #entrepreneurs #canberra #korea #reuters #investments #AVCJjapan #china,0,0,0,False
179,gunbotUK@GunbotUk,"That was a flash #discount offer....
Dont miss out this time as i see #bitcoin going to #kiss 10k #soon
#crypto #bitrage #coin #Bittex #Binance #Bitmex #CEXIO #Gdax #Huobi #Bitfinex #poloniex $BTC $XMR $LTC $ETH $VIA $BNB $ETC $VIA $TUBE $MCO $NEO $TRXQuote TweetgunbotUK@GunbotUk · May 17, 2019With #bitcoin taking a dive the #fiat #price for a license is also on a #discount
#lifetime !  source at #github !!

NOT a service !! like #cryptohopper dont trust a closed backend with your #keys
https://gunbot.uk",1,2,0,False
180,aWebAnalysis | Crypto@aWebAnalysis,"Ethereum ETH Current Price:
$257.90
1 Hour: -0.29 % | 24 Hours: 9.28 % | 7 Days: 37.61 %
#eth #ethereum",0,0,0,False
181,HayeksGhost@HayeksGhost,Ethereum is a giant mess. #eth,0,0,0,False
182,JimiD@jimidee30,$eth needs to move.... cant believe $bch is moving at such a pace!,1,0,0,False
183,coinOK@coinok,Order your secure and smart BTC/ETH/Altcoin hardware wallet - Only 94.80 EUR https://ledgerwallet.com/r/4518?path=/products/ledger-nano-s… #bitcoin #btc #eth #altcoin 18:20,0,0,0,False
184,InCoins@incoinsbot,"#crypto prices update 1h 
 
$BTC $8061.89 0.2%
$ETH $258.05 -0.23%
$XRP $0.42 2.0%
$BCH $421.02 -0.5%
$LTC $94.61 -0.37%
$EOS $6.40 0.33%
$BNB $29.23 -0.02%
$USDT $1.01 0.2%
$XLM $0.14 0.55%
$ADA $0.09 0.16%
#cryptotrading #cryptocurrencies",0,0,0,False
185,doctor SPECTRE@doctorspectre,Replying to @RyanParkCapital and @CryptoWizarddIt happened because I entered the trade. All coins go to shit whenever I buy/hold them. The moment I buy it it turns to shit and the moment I sell they take off. Nearly every coin I enter My curse is very powerful $celr $matic $eth $atom,6,3,0,False
186,Automatski@theautomatski,Blockchain (i) Scalability (ii) Throughput (iii) Energy Solved! http://bit.ly/2THsqCK | #entrepreneurs #oklahomacity #money #ether #preicosale #venture #phoenix #status #Alibaba #ITOs #AVCJsingapore #france #waves #crypto #comsa #Alibaba #blockchain #dubai #neworleans #vc #ico,0,0,0,False
187,Ether to USD@EtherUSD,$ETH: $258 USD,0,0,0,False
188,D.I.Y Investing@vajolleratzii,Something to watch for is how closely $ETH follows $BTC and its accumulation cycle. I am expecting this pattern to carry out into the next cycle and wouldn't be the least bit surprised to see #ETH worth close to $20k,34,6,3,False
189,Automatski@theautomatski,What is the Meaning of Life? Scientists Answer http://bit.ly/2U99DR6 | #Top10 #houston #bonus #asia #investment #blockchain #money #ether #tezos #bitcoinUK #portland #iconomi #blockchain #cybersecurity #miami #minneapolis #JackMa #tampa #neworleans #ethereum #columbus #houston,1,0,0,False
190,GermanTrader@GermanTrader85,Sharding significantly improves the energy efficiency of cryptocurrency mining. Sharding in #Zilliqa has an energy footprint that is at least an order of magnitude less than today’s #Bitcoin or #Ethereum @zilliqa @SaibaKataruka #ZilliqaDay2019,15,3,2,False
191,Crypto Millionaire App@eagletwitt3r,It sure would be a shame! Save your wealth in Crypto! #Bitcoin #Cryptocurrency #MAGA #Crypto #Ethereum #Litecoin #Ripple #EOS,0,0,0,False
192,Automatski@theautomatski,"Blood, Sweat & Tears Competing with $10 Trillion Incumbants http://bit.ly/2u1RYfn | #miami #AVCJKorea #Startups #china #Russia #lasvegas #ETH #cuba #BitCoin #singapore #london #icotracker #tech #albuquerque #honolulu #crowdfunding #BitCoin #AVCJjapan #dallas #washingtonDc #miv",0,0,0,False
193,Crypto Millionaire App@eagletwitt3r,"When Will Your Crypto Let You Buy A Lamborghini? App review by http://Cryptodaily.co.uk http://bit.ly/2AatJ1Z #Bitcoin #Crypto #Ethereum #Litecoin #Ripple #EOSWhen Will Your Crypto Let You Buy A Lamborghini? App review by Cryptodaily.co.uk - Crypto Million...Review of our Crypto Millionaire app at Cryptodaily.co.uk, a leading crypto news website with offices in Singapore and the UK, that receives over a million monthly visitorscryptomillionaireapp.com",0,0,0,False
194,ThirdBrainFx@thirdbrainfx,"Check all here --> https://thirdbrainfx.com/crypto.html 
On #YoBit #ETH to #BTC -- > 0.03017, volume --> 10194 
On #IncoreX #BTC to #RUB -- > 548323.47, volume --> 11 
On #C-Cex #ZEC to #USD -- > 596.666, volume --> 2 
On #Hitbtc #DOGE to #USD -- > 0.00309155, volume --> 24980980",0,0,0,False
195,Ethereum boi@ether_boi,"The price of $ETH is: $undefined as of 2019-05-19 22:14:55                                  Market Cap: $undefined
 -(Price from http://CoinCap.io)",0,0,0,False
196,Larry Clark@maserati_crypto,Do we like $ZIL over $ETH? ,0,0,0,False
197,Crypto Breaking NEWS@CryptoTVNEWS,"Cryptocurrency Zap $ZAP Soared 45% Over the Last 24 Hours

#Zap #ZAP #HitBTC #ERC20 #Ethereumbased #Ethereum #ether #token #ERC20token",1,0,0,False
198,Todd Crosland@ToddCrosland,"ZCash Target: 76.9400
#CoinZoom#CoinZoomAI#cryptocurrencies#trading#blockchain#btc#crypto#bitcoin#fintech
#Ethereum#AI#ETH",0,0,0,False
199,Automatski@theautomatski,This Young Man is worth $20+ Trillion http://bit.ly/2KA1C4h | #money #blockchain #honolulu #melbourne #boise #indianapolis #equity #funds #AVCJsingapore #charleston #brazil #FinTech #miami #lasvegas #milwaukee #bitshares #stlouis #baltimore #kansascity #perth #crypto #btc #eth,0,0,0,False
200,Vortexnetwork (VTX) 4dmin social media@mars30634534,"#808coin #808 @808basscoin is back !! Join the discord https://discord.gg/2Svas75
#doge #btc #bitcoin #crypto #cryptocurrency #blockchain #eth #eos #xlm #ltc #DASH #XMRDiscord - A New Way to Chat with Friends & CommunitiesDiscord is the easiest way to communicate over voice, video, and text. Chat, hang out, and stay close with your friends and communities.discord.com",2,0,0,False
201,KeytoMarkets@KeytoMarkets,"Monday morning #Crypto update:
#cryptocurrencies on high gear following last week's wild ride.
#Dash coin leads with 27% followed  by #Bitcoin and Ripple by 15 %, #ETHEREUM by 12% and #Litecoin by 10%
#CryptoNews #cryptotrading 
Bitcoin resistance still seems between 8375-8470$",0,0,0,True
202,KeytoMarkets@KeytoMarkets,"Monday morning #Crypto update:
#cryptocurrencies on high gear following last week's wild ride.
#Dash coin leads with 27% followed  by #Bitcoin and Ripple by 15 %, #ETHEREUM by 12% and #Litecoin by 10%
#CryptoNews #cryptotrading 
Bitcoin resistance still seems between 8375-8470$",0,0,0,False
203,Automatski@theautomatski,Scientists Explain The Creation of Space & Time http://bit.ly/2U99DR6 | #tokenlaunches #icotracker #austin #ether #equity #germany #korea #ico #tezos #cuba #JackMa #oklahomacity #milwaukee #orlando #losangels #adelaide #malaysia #crypto #charlotte #ethereum #dubai #sydney #UAE,0,0,0,False
204,DK@Kranzthor,"This sums it up #ethereumQuote Tweetsanti.eth @santisiri · May 19, 2019buy some eth, download metamask, open a cdp on maker, add liquidity to a uniswap pool, send payments at *actual lightning speed* with xdai, follow the politics of moloch, fork a dao, talk game theory on crypto twitter, engineer the institutions of the future.. learn ethereum now!Show this thread",1,1,0,False
205,Never Work Again @ Age 43@retiredin2016,Ethereum (ETH-USD) rose by 11.1643%! Currently priced at 260.08.  https://goo.gl/E2Ee6A  #Investing #fire #ira #401k #money #stock #retirement #trade #NeverWorkAgain #CapitalGain #Savings #PersonalFinance #crypto #ethereum #eth #bitcoin #btc,0,0,0,False
206,CA$HLESS SOCIETY @_Is_Inevitable,"Same it's easy $BTC, $ETH, $ELA, relax.

Maybe throw some change at low cap alts but no need for anything else.Quote TweetMButcho@MButcho · May 19, 2019By far my top 3 picks in crypto space:
1. #Bitcoin - brought revolution
2. #Ethereum - bringing DeFi
3. #Elastos - bringing smart web

These 3 projects should be top 10 crypto assets forever! 

Keep building teams! 
@Cyber__Republic @Elastos_org @ethereum",6,1,0,False
207,Crypto Currency Focus@CryptoCurrFocus,5 Essential Tips To Buy Bitcoin & Altcoins Safely #cryptocurrency #blockchain #crypto #ethereum #ripple http://rviv.ly/XoPFtg,0,0,0,False
208,AltChica AltcoinTA&Signals@AltChicaSignals,"WABI/BTC

Probable Entries: 3722 - 3324 sats reg.

#wabibtc #cryptonews #hodl #eth #altcoin #altcointa #poloniex #altcoins
#altcoinsignal #ripplesignal #ethereum #tronsignal #bittrex #bitfinex #binance
#ether #crypto #ripple #signals #kraken #bittrexsignal #cryptota
#trading",1,0,0,True
209,Automatski@theautomatski,Defining The Next 1000 Years Of Human Evolution http://bit.ly/2u1RYfn | #baltimore #AVCJsingapore #milwaukee #sanjose #chille #avcj #ethereum #sale #omaha #startup #iconomi #fund #icotracker #PrivateEquity #oxycoin #sanjose #initialcoinofferings #venture #godblessamerica #money,0,0,0,False
210,Automatski@theautomatski,We Reinvented Machine Learning By Solving NP-Complete Problems http://bit.ly/2F2pMzu | #singapore #Top10 #entrepreneurship #india #kansascity #seattle #london #canberra #money #ico #privateequity #milwaukee #TokenSales #milwaukee #charlotte #softbank #neworleans #ethereum #btc,0,0,0,False
211,Never Work Again @ Age 43@retiredin2016,"As of May 18, 2019 at 05:05PM, 1 BTC = 8069.5601 USD.  https://goo.gl/E2Ee6A  #Investing #fire #ira #401k #money #stock #retirement #trade #NeverWorkAgain #CapitalGain #Savings #PersonalFinance #crypto #ethereum #eth #bitcoin #btc",0,0,0,False
212,Finance Magnates@financemagnates,"Just 376 crypto whales hold 33 percent of #Ether, Chainalysis finds https://buff.ly/2HtlgtH",2,0,0,False
213,₱ⱤØØ₣ / ∆ \@ProOFuture,"Ethereum is going to 6k.

$ETH",1,0,0,False
214,Daniel Villamizar -Microsoft Azure MVP@CSA_DVillamizar,"This tweet, ""RT Migranet1: https://buff.ly/2U3rMAL
#ArtificialIntelligence #Blockchain #migranet #ETHEREUM #ERC20"" has been retweeted 103 times.",0,0,0,False
215,PathTradingPartners@Path_Trading,"#BITCOIN : #ETHEREUM May-19 Update #CryptoCurrency Technical Analysis Chart

Watch -> https://youtu.be/xkkdVoN4rL8
#trading #technicalanalsys $btc $eth #TradingStrategy #tradingpsychology #tradingBITCOIN : ETHEREUM May-19 Update CryptoCurrency Technical Analysis...#bitcoin #ethereum #CryptoCurrencyBITCOIN : ETHEREUM May-19 Update CryptoCurrency Technical Analysis ChartGet caught up on our free YouTube ‘trading training...youtube.com",1,1,0,False
216,Trading Strategist@TradeStrategyCo,"#BTCUSD $8061.78
Price change 1-Hour 0.53% | 1-Day 9.96% | 1-Week 14.14%
5/19/2019 11:01 PM

Real-time #bitcoin price + news analysis of 150+ global news sources every hour 24*7*365

#BTC #blockchain #ethereum #trading #ico #Crypto #cryptocurrency #news",0,0,0,False
217,Pierre@pierre_crypt0,"$ETH #Ethereum

Nice reaction from Ethereum after a dip back to $225 a few days ago.

A weekly close above the $245-255 resistance would be impressive and could be the beggining of a bigger run to $300.

Would like to see $245-255 flip into support for good.",4,1,0,False
218,Daniel Villamizar -Microsoft Azure MVP@CSA_DVillamizar,"This tweet, ""RT AdvisorsExacta: #whales #bullrun #predictions #10k #blockchain #ethereum #cryptocurrency #crypto #btc #ico #fintech #altcoins #alttrade…"" hasn't been tweeted more than 2 times.",0,0,0,False
219,Coin Gamma@coingamma,"Bitcoin $BTC Price: $8073.5 (10.82%)
Ethereum $ETH Price: $260.05 (10.15%)
XRP $XRP Price: $0.42 (11.73%)
Bitcoin Cash $BCH Price: $425.97 (17.94%)
Litecoin $LTC Price: $95.26 (9.38%)
Check out Coin Gamma: http://bit.ly/2tPgujP
#blockchain #bitcoinprice #crypto #podcast",0,0,0,False
220,"Muhammad Aziz Suitch.io HR And CRM, clod software@forkdoneto","Analyst: Crypto Markets May Be Gearing Up for Massive Surge as Bitcoin Continues Climbing
#instaairdrop #ethereum #bittrex #AI #bullrun #hotwallet #bitfinex #steem
http://bit.ly/2VU2plT",0,0,0,False
221,DailyCoin@dailycoinfo,New Ethereum (ETH) Price is $260.03 USD #Ethereum #ETH #DailyCoin https://dailycoin.info/ethereum-price,0,0,0,False
222,Global Blockchain Summit@gblockchain1,"Hear and network with some of the top minds in the fields of #Crypto, #BlockchainTechnology, #SmartContracts, #Tech, and more! #Blockchain #GBSFall18 #Ethereum #Crypto #Innovation #AI #hyperledger #hashgraph #distributedledger #ico #IoT #gbsrocks! http://ow.ly/TLh530oBBrN",1,0,0,False
223,Latium@rwdrich1,"Claim 5 free #LatiumCoin today! AN5C2wTgmM9sVxA74rtMBSs6Vm9s7foJvS LatiumCoin #free $eth $btc #cryptocurrency VisitLatium Freelancing: Work & Hire For Cryptocurrency and USDPost a job for free and get live bids from our massive database of workers, or register and start working today.latium.org",0,0,0,False
224,Daniel Villamizar -Microsoft Azure MVP@CSA_DVillamizar,"This tweet, ""Three huge names that are making Ethereum their platform of choice

https://buff.ly/2YyMbLw
#etc #eth #ethereumclassic #ethereum #blockchain "" hasn't been tweeted more than 0 times.",0,0,0,False
225,Coin Trading Analytics@CoinTradingBot,"Top 100 avg 24h return: 7.2±7.1%; 96 up, 4 down
$BTC 10.8%  $ETH 10.2%
Best:
64.1% $NET @coinbit_coinbit
23.1% $LA @latokens
19.9% $XVG @vergecurrency
17.9% $BCH
14.9% $DASH @Dashpay
Worst:
0.4% $PAX
-0.9% $MCO
-1.5% $THETA
-1.6% $AOA
-1.7% $CRO
#cryptotrading #crypto",2,0,0,False
226,CryptoCat@MrCryptoCat,$ETH / $BTC marketcap ratio = 19.3% #eea,0,0,0,False
227,Ethereum Hourly@EthereumHourly,"Price update: 1 #Eth = $260.10 
#cryptocurrency $ETH sourceCryptocurrency API, Historical & Real-Time Market Data | CryptoCompareFree cryptocurrency data APIs. Get high-quality historical & real-time trade, order book and volume data through market-leading REST & WebSocket APIs.min-api.cryptocompare.com",0,0,0,False
228,City Of Investment@CityofInvestmnt,http://cityofinvestment.com/investment/ Open managed fx: #clients #investors #hnwi #pensioners to #invest in our #forex #managed #accounts. #fx #cityofinvestment #uk #Brexit #Pakistan #Iran #UAE #Iraq #Qatar #Kuwait #Oman #Lebanon #Jordan #Yemen #Bahrain #Syria #SaudiArabia #Egypt #eth…Investment - City Of Investmentcityofinvestment.com,0,0,0,False
229,Crypto Trader@cryptcoin_trade,"Ethereum: $259.53
 +9.16% (+$21.77)
High: $260.36
Low: $232.77
Volume: 6234

$ETH #ETH #ethereum",0,0,0,False
230,Bobe'bot@Bobe_bot,"1 #BTC = 8278.5976 #CHF
1 #ETH = 266.5619 #CHF
1 #DOGE = 0.00310796732601 #CHF
sources: @cryptonatorcom @bity",0,0,0,False
231,ThirdBrainFx@thirdbrainfx,"Check all here --> https://thirdbrainfx.com/crypto.html 
On #Livecoin #PPC to #USD -- > 0.4, volume --> 117 
On #YoBit #NMC to #DOGE -- > 163.55529815, volume --> 2 
On #Livecoin #XRP to #USD -- > 0.41381, volume --> 1 
On #Exmo #XRP to #ETH -- > 0.0016011, volume --> 113",0,0,0,False
232,CoinTrendz.com@CoinTrendz,"Top 10 Mentions on Twitter in the last hour - $BTC $ETH $XRP $XLM $LTC $BCH $ADA $BTT $BNB $TRX 

More on http://CoinTrendz.com ",1,0,0,False
233,Crypto pump island@crypto_pump_1,"Join our pump group : https://t.me/crypto_pump_island…
#stock #stockmarket #stocktrader #trader #coinbase #forex #exchange #portfolio #success #coin #coins #altcoin #ico #startup #token #news #mining #token #ethereum #litecoin #xrp #ltc #litecoin #eth 

 Updated on 2019/05/19 22:00:01Crypto Pump IslandWe are a crypto pump channel conducting pumps on Binance and share binance trading signals For Premium  @APGLOBALS Note : Many channels are copying our signals and pretending to be like us....t.me",0,0,0,False
234,Bitcoin Hacks@bitcoinhacks,#BTC price increased! Buying @ $8081.03 & Selling @ $8081.03  $btc $eth $etc $neo $dgb $dash $strat $eos $omg $pay $xrp $xmr $gas ,0,0,0,False
235,Eth Hourly Price@eth_hourly,"Current #ethereum price is $260.05, an increase of +1.32%, a market cap of $27,601,162,403 and 24 hr. vol. of $11,771,414,969.3",0,0,0,False
236,Tony @ crypto60@crypto_sixty," 1 Hour Global Markets

1 #ETH  $259.78 (1.43%)
2 #CryptoCap  $251.79B (0.82%)
3 #BTC  $8038.72 (0.47%)
4 #CAC  5,442.77 (0.23%)
5 #DAX  12,248.54 (0.22%)

http://crypto60.com #bitcoin #stocks",0,0,0,False
237,CppDevX@CPPDevX,"Nice day with my daughter, now onto some dev work for @ProjectVeil $veil $BTC $eth #Crypto #cryptocurrency #blockchain #privacycoin",3,0,0,False
238,Dogecoin and Bitcoin Cryptocurrency@BitcoinDogecoin,If you want to find out about a great #blockchain #crypto #bitcoin #ethereum wallet protection software affiliate program with a multi tiered structure so you share revenue with those you sign up - please message me.  The company is Blocksafe Technologies,1,1,0,False
239,Rihanna CLub@RihannaClubs,"DRIFE introduces will offer two payment modes: peer-to-peer and gamified. The peer-to-peer mode will let drivers accept payment directly they want to work out with their customers
https://drife.one #Drife #IEO #Crypto #Blockchain #ethereum #bitcoin #ether #cryptocurrency",0,0,0,False
240,Automatski@theautomatski,Conspiracy!!! Biggest Secrets of the Universe kept hidden since 1990's made public. http://bit.ly/2U99DR6 | #argentina #funding #sanjose #sanjose #investment #campaign #Ethereum #token #BitCoin #portland #platform #investing #venture #cryptocurrency #spain #dubai #cuba #ICOs,0,0,0,False
241,AirDrop探偵団@AirDropDetectiv,"NATURACOIN (400 NC) AIRDROP Token PHASE 2 (200 NC TOKENS PER REFERRAL) #airdrop #bounty #BTC #NEO6 #ETH #freetoken #Crypto #xrp #Blockchain #ripple #trx #tron #trx #binance #freetoken #airdrops #NCTokenNATURACOIN (400 NC) AIRDROP PHASE 2The NaturaCoin is a bottom up solution that positively rewards Humans anywhere actively contributing to a more sustainable world. NaturaCoin is airdropping 400 NC Tokens (30$), you will also earn 200...docs.google.com",1,0,0,False
242,bro@avi_mizrahi,Bitcoin Cash Devs Publish the First 3 of 3 Multi-Sig Schnorr Transaction #bitcoin #cryptocurrency #blockchain #ethereum #ICO http://bit.ly/2VDiSpe,0,0,0,False
243,Pan Galactic@PodcastPan,Made a Speed Cam report on E State Route 106 and earned #cryptocurrency with the @BULVRDapp http://bulvrdapp.com #bulvrd - Use my referral code : b3kw35P2d3 and we both get free tokens! #dApp #Ethereum #blockchain,2,0,0,False
244,Automatski@theautomatski,NP-Complete Graph Coloring Solved in Polynomial Time http://bit.ly/2HemRG0 | #kickstarter #ether #tech #france #charlotte #ico #cryptocurrency #dallas #venture #cuba #omaha #deals #phoenix #london #melbourne #baltimore #iot #FinTech #newzealand #initialcoinofferings #pittsburgh,0,0,0,False
245,Automatski@theautomatski,Most Profound Question in History of Mankind - Who is to be Master? http://bit.ly/2u1RYfn http://bit.ly/2Vas7hy | #kickstarter #blockchain #vc #Moscow #funds #philadelphia #indianapolis #sydney #forthworth #ITOs #washington #entrepreneurs #perth #abraaj #ETH #chille #ICOs #vc,0,0,0,False
246,Adios Mafia@adios_mafia,"Filled some longs:

$ETH/BTC chart https://coinigy.com/s/i/5ce1d00c99104/… $ETH.X via @coinigyBittrex ETH/BTC Chart - Published on Coinigy.com on May 19th, 2019 at 9:52 PM.Bittrex ETH/BTC Chart - Indicators used: Volume (true, 20) - Interval: 30. Published on Coinigy.com on May 19th, 2019 at 9:52 PM.coinigy.com",1,1,0,True
247,$MIST@CryptoTraderMo,$ETH next leg is coming up 290-300,0,0,0,False
248,Tref@trevorhwhite,"Just a shout out to @CryptoDonAlt. What a gent! If you don't follow the duck, get on it. If you are new to crypto or a self proclaimed OG, his tweets are as complicated or basic as you need them to be.  Thanks again for the message. #BTC #ETH #LTC #XMR #Crypto",1,1,0,False
249,LUMINACOIN@LUMINACOIN1,"Give away 
Get Free 50,000 RTUM for 100 people

•Follow
•Like Rtweet
•Tag 5 friend 
•Coment your ETH
#ICO #airdrop #ETH #token #giveaway #ico #airdrop #blockchain #btc #eth #moon #presale #crypto",1,1,3,False
250,artless amir@artlessamirul,"Try this new bounty project..

http://t.me/ooobtcExchange http://ooobtc.com #ooobtc #obx #IEO #Coin_of_month #crypto #bitcoin #ethereum #Airdrop #launchpad #blockchain #btc #toqqn #dogecoin #Btk #usdt #cryptocurrency #Btcone #OVC",2,0,0,False
251,Ghost@cryptoghost8941,"Replying to @maserati_cryptoI am mainly just heavy $btc rn. But have and love $link and $eth too, but until I see this chart on bitcoin dominance reverse trend I feel most alts could bleed more in sat value. I do think $bch could go on a run. As far as some low caps I am watching though - $nix $nrg $swm",6,1,1,False
252,Electrified_ Motors@Electrif_Motors,"Time to upgrade to Model X  selling my bellowed Tesla  Crypto transaction welcome. #Tesla
#models
#ElonMusk
#crypto
#modelsforsale
#carforsale
#teslasale
#ethereum
https://rover.ebay.com/rover/0/0/0?mpre=https%3A%2F%2Fwww.ebay.com%2Fulk%2Fitm%2F202683863199…",1,2,1,True
253,sangue.blu.inked@SangueBluInked,"#BINANCE #Airdrop +0.15 ETH 
0.15 #Ethereum to your #ETH address
Sign up
+0.15 $ETH for every new account!!
REGISTER: https://bit.ly/2TLA4YY
VERIFY ACCOUNT
GET YOUR ETH ADDRESS
#dubai #news #blockchain #Airdrop #Europe #USA #Banking #osaka #AbuDhabi #China #Norway",1,1,0,False
254,Automatski@theautomatski,The Real Stark Industries http://bit.ly/2u1RYfn | #investing #denver #Moscow #spain #houston #boston #money #AVCJjapan #perth #blockchain #china #crypto #entrepreneurship #italy #Ethereum #adelaide #columbus #deals #albuquerque #platform #honolulu #BitCoin #cannabis #charleston,0,0,0,False
255,artless amir@artlessamirul,"OBX takes the form of free distribution to the community, 35% airdrops and dividends to community users #launchpad #obx #ooobtc #crypto #exchange #ieo #btc #eth #blockchain http://ooobtc.com",1,0,0,False
256,VladimirClubBTC@btc_vladimir,"Binance is the ultimate crypto exchange in the world. Sign up today!

Click here: http://bit.ly/Binance_Ref
$BCH $ETH $XRP $TRX $ICX $WAN $NEM $ENJ $RVN $BTT $HT $NPXS $PHX $DAI $DOGE $HC $WAX $DLT $POWR $NEXO $AION $EDO $AELF $KIN $EDR $NXS $MAN $POE 1310400",2,0,0,False
257,Berminal@BerminalApp,"Analyst: Crypto Markets May Be Gearing Up for Massive Surge as Bitcoin Continues Climbing https://berminal.com/news/108759/Analyst-Crypto-Markets-May-Be-Gearing-Up-for-Massive-Surge-as-Bitcoin-Continues-Climbing…
#trading #money #trader #cryptocurrency #crypto #invest #blockchain #stocks #finance #stockmarket #news #Bitcoin #ETHEREUM #Analytics",2,1,0,False
258,Tech@cryptoITGuy,"Both #BTC and #ETH looking sexy. 

",1,1,0,True
259,artless amir@artlessamirul,"An Exchange without drawbacks, everything is done simply and easily. Excellent innovation! Success is written all over this Exchange 
http://ooobtc.com
#ooobtc #obx #IEaO #exchange #crypto #bitcoin #Ethereum #launchpad #blockchain #toqqn #dogecoin #btk #usdt #btcone #ovc",2,0,0,False
260,ThirdBrainFx@thirdbrainfx,"Check all here --> https://thirdbrainfx.com/crypto.html 
On #Hitbtc #XMR to #USD -- > 87.8987, volume --> 9287 
On #IncoreX #ETH to #EUR -- > 241.51, volume --> 347 
On #Bittrex #LTC to #BTC -- > 0.01178, volume --> 64437 
On #Kraken #LTC to #USD -- > 94.67, volume --> 37429",0,0,0,False
261,InsidersCrypto@insiderscrypt0,Embattled OneCoin Denies Multi-Billion Dollar Ponzi Scheme Allegations https://buff.ly/2Wd6FvW #cryptonews #cryptolife #cryptocurrency #tradingcrypto #ethereum #btc #bitcoin #blockchain #crypto #eth #cryptocurrencynews #CryptoNews #cryptoinvestor #cryptocurrencies #fintech,0,0,0,False
262,Matt H@Matthew24821439,"$ETH $400 incoming. 
$BTC $9000 incoming.

And for goddsake Buy some Fantom $FTM.",9,0,0,False
263,Posty@PostyXBT,"My dude is back with some clean af views on $ETHQuote TweetCryptoDude@cryptodude999 · May 19, 2019$ETH Long the box for financial freedom.Show this thread",15,1,1,False
264,WhaleCallsAlts@WhaleCallsAlts,OKEX $ETH Quarterly futures has liquidated a short position of 1280 contract at 268.026 - 2019-05-20 05:43:16,0,0,0,False
265,KrakenPrices@KrakenPrices," Prices update in $USD (1 hour):

$BTC - 8062.6 $  (+0.82 %)
$ETH - 259.99 $  (+1.76 %)
$XRP - 0.42 $    (+2.15 %)
$BCH - 426.1 $   (+1.45 %)
$LTC - 95.39 $   (+0.73 %)

#BTC #ETH #XRP #BCH #LTC #Trading #Crypto #Bitcoin",1,0,0,False
266,artless amir@artlessamirul,"The way this Exchange is becoming popular, no doubt it will soon be used in the everyday lives of people here on earth. http://ooobtc.com
#ooobtc #obx #IEaO #exchange #crypto #bitcoin #Ethereum #launchpad #blockchain #toqqn #dogecoin #btk #usdt #btcone #ovc",1,0,0,False
267,Charlie Mar @itscharliemar,"No ‘40% in a Day’ Altcoin Pumps Coming This Bull Market: Mike Novogratz.

The market is not like 2017, the market now is smarter. $BTC $ETH #crypto",4,1,3,False
268,Don-Alt Coin Trump@trumpandpump,"#Crypto #NewsUpdate via #Bitcoin Mag: ""Analyst: Crypto Markets May Be Gearing Up for Massive Surge as Bitcoin Continues Climbing"" http://bit.ly/2Qa4oMG #Blockchain #Cryptocurrency #Blockchain #Forex # #Ethereum #TRON #XRP #Ripple #BTC $SYS",2,0,0,False
269,analyst5@analyst5_bot,"#crypto mkt cap last hour


$BTC +1.132b
$ETH +361.217m
$XRP +324.741m


$DCR -1.603m
$XVG -1.111m
$NPXS -847.896k

#bitcoin #cryptocurrency",1,0,0,False
270,HackerNoon@hackernoon,"""Some Thoughts About Security Token Networks Part II"" by @jrdothoughts https://hackernoon.com/some-thoughts-about-security-token-networks-part-ii-4b56eb198cbb… #blockchain #ethereumSome Thoughts About Security Token Networks Part II | Hacker Noonhackernoon.com",1,1,0,False
271,artless amir@artlessamirul,"I am happy to be able to partner with this exchange ,Besides that I saw a team that was very reliable and experienced in managing this project. I am sure this exchange will bring great success...
#ooobtc #obx #IEO #exchange #crypto #bitcoin #ethereum #launchpad",1,0,0,False
272,Automatski@theautomatski,A New Physics - The Universe Runs Using Non-Deterministic Calculus http://bit.ly/2u1RYfn | #canberra #miami #boise #bitcoinrussia #bitcoinaustralia #charleston #PrivateEquity #seattle #italy #Moscow #gamecoin #funding #sandeigo #ethereum #spain #Moscow #investment #mexico #avcj,0,0,0,False
273,Ben Fischer@BoersenMedien,#Ethereum #ETH jumps 1.44% in one hour. #XRP #XRP jumps 1.74% in one hour. #Bitcoin Cash #BCH jumps 1.74% in one hour.,1,0,0,False
274,Crypto Mak @crypto__mak,Cheeze Wizards – By Fred Wilson https://reddit.com/r/ethereum/comments/bqmdrg/cheeze_wizards_by_fred_wilson/?utm_source=dlvr.it&utm_medium=twitter… #ethereumCheeze Wizards – By Fred WilsonPosted in r/ethereum by u/RexetBlell • 22 points and 2 commentsreddit.com,0,0,0,False
275,Rotich Nicholas@TheRotich,Requesting faucet funds into 0x82Db50051a489e4045bc7e03f1B6E1BB037cbC91 on the #Rinkeby #Ethereum test network.,0,0,0,False
276,supZeel@Supzeel,"Be updated on Harmony IEO  
#harmonyprotocol  #deepsharding  #blockchain #BUIDL #BTC #ETHQuote TweetHarmony@harmonyprotocol · May 19, 2019Do you still have questions about $ONE Token Sale through @binance LaunchPad? 

In order to better response to the most Frequently Asked Questions from our community we have created an Infographic with everything that you need to know! 

https://binance.zendesk.com/hc/en-us/articles/360028476111…",0,0,0,False
277,Steven McKeon (Mac)@macguyvermedia,Sick -> #CCXT – CryptoCurrency eXchange -> A #JavaScript / #Python / #PHP library for #cryptocurrency trading and #ecommerce with support for many #bitcoin /#ether / #altcoin exchange markets and merchant APIs. #npm https://npmjs.com/package/ccxt,5,4,1,True
278,Gwen Sarah@gwensarah1,"SMA Pay is a wallet service application, where consumers around the globe can collect, spend, withdraw, and exchange SMT tokens. Download now at https://play.google.com/store/apps/details?id=co.kr.sky.sma_android…
#ico #eth #token #cryptocurrency #money",0,0,0,False
279,Pan Galactic@PodcastPan,Made a Hazard report on Washington 16 and earned #cryptocurrency with the @BULVRDapp http://bulvrdapp.com #bulvrd - Use my referral code : b3kw35P2d3 and we both get free tokens! #dApp #Ethereum #blockchain,0,0,0,False
280,Cuan Token@cuantokenn,Embattled OneCoin Denies Multi-Billion Dollar Ponzi Scheme Allegations http://bit.ly/2JrQXHn #investment #eth #litecoin #business #investor #bitcoinnews #bitcoins #cryptotrading #forextrader #bitcoincash #coinbase,0,0,0,False
281,CryptoDude@Krexzn,It's so wonderful to see everything on the green side of life :) #crypto #btc #xrp #xrpcommunity #eth - We all know XRP is the real king!,0,0,0,False
282,Automatski@theautomatski,The Future of Mankind Rests on this Startup http://bit.ly/2u1RYfn | #TokenSales #dallas #louiesville #lasvegas #austin #UAE #southafrica #AVCJjapan #venture #indianapolis #token #honolulu #memphis #losangels #portland #kickstarter #stlouis #louiesville #Ethereum #ethereum #cuba,0,0,0,False
283,#xrp The Oracle Of@TheOracleOfXrp,"Same #crypto thread a few comments down.

It's funny how clear the writing on the wall is yet they refuse to admit it exists.

https://twitter.com/EdgarAronov/status/1130193590813114369?s=09…
#eth
#ALTSEASON
#btc
#ethereum
#altcoinQuote Tweetedgar.eth @EdgarAronov · May 19, 2019Replying to @bitcoinbella_Met my girlfriends' co-workers. During the dinner turns out three of them were into crypto. I was excited to start discussing the different project so I asked which is their favorite: xrp, xrp, and xrp. 

Once again had to rely on my Twitter friends with the discussion.",1,2,0,True
284,Automatski@theautomatski,"Blood, Sweat & Tears Competing with $10 Trillion Incumbants http://bit.ly/2u1RYfn | #forthworth #ETH #AVCJjapan #PrivateEquity #phoenix #dubai #washingtonDc #comsa #tokenlaunches #indianapolis #fund #singapore #funds #indiegogo #Russia #cannabis #miv #orlando #gamecoin #tech",0,0,0,False
285,Kelly Crypto@kellysiqili,"FORGET #BITCOIN, #ALTCOINS are MOVING! With https://cryptolume.co you can analyze where the VOLUME/PRICE is moving!

#BTC #ETH $NET $LA $XVG $BCH $QTUM $ELF $DASH $MAID $VEST $XMR $BTC $ETH $XRP $MIOTA $THR $LTC $LINK $QBIT",2,0,0,False
286,OneCryptoCap News@OneCryptoCap1,"Thanks @JeromeGrilleres @sunshinelu24 @kfeng027 and the rest of the @vechainofficial team for having @SMTRcontracts at your event. 

It was great to m https://onecryptocap.com/threads/thanks-jeromegrilleres-sunshinelu24-kfeng027-and-the-rest-of-the-vechainofficial-team-for-having-smtrcontracts-at-your-event-it-was-great-to-m.12432/… #crypto #cryptocurrency #blockchain #ethereum #btc #bitcoinmining #bitcoins #litecoin",0,0,0,False
287,OneCryptoCap News@OneCryptoCap1,Thank you to @sunshinelu24 @kfeng027 @vechainofficial for hosting a great meet-up. Lots of good questions and also @15000vCreative gave a great speech https://onecryptocap.com/threads/thank-you-to-sunshinelu24-kfeng027-vechainofficial-for-hosting-a-great-meet-up-lots-of-good-questions-and-also-15000vcreative-gave-a-great-speech.12431/… #crypto #cryptocurrency #blockchain #ethereum #btc #bitcoinmining #bitcoins #litecoin,0,0,0,False
288,OneCryptoCap News@OneCryptoCap1,40% Daily GAINS Over? - Binance Security Warning https://onecryptocap.com/threads/40-daily-gains-over-binance-security-warning.12430/… #crypto #cryptocurrency #blockchain #ethereum #btc #bitcoinmining #bitcoins #litecoin,0,0,0,False
289,OneCryptoCap News@OneCryptoCap1,Mike Novogratz Suggests Bitcoin Will Leave Its Peers In The Dust https://onecryptocap.com/threads/mike-novogratz-suggests-bitcoin-will-leave-its-peers-in-the-dust.12429/… #crypto #cryptocurrency #blockchain #ethereum #btc #bitcoinmining #bitcoins #litecoin,0,0,0,False
290,OneCryptoCap News@OneCryptoCap1,Bitcoin Full Nodes Still Under Threat By Inflation Bug https://onecryptocap.com/threads/bitcoin-full-nodes-still-under-threat-by-inflation-bug.12428/… #crypto #cryptocurrency #blockchain #ethereum #btc #bitcoinmining #bitcoins #litecoin,0,0,0,False
291,OneCryptoCap News@OneCryptoCap1,Ripple’s CEO Says 6% Of SWIFT Transactions Involve Human Intervention https://onecryptocap.com/threads/ripple%E2%80%99s-ceo-says-6-of-swift-transactions-involve-human-intervention.12427/… #crypto #cryptocurrency #blockchain #ethereum #btc #bitcoinmining #bitcoins #litecoin,0,0,0,False
292,OneCryptoCap News@OneCryptoCap1,How to Travel the World With Bitcoin Cash https://onecryptocap.com/threads/how-to-travel-the-world-with-bitcoin-cash.12426/… #crypto #cryptocurrency #blockchain #ethereum #btc #bitcoinmining #bitcoins #litecoin,0,0,0,False
293,Automatski@theautomatski,"The Startup that beat Google, Microsoft & Apple Combined http://bit.ly/2u1RYfn | #kansascity #nashville #startup #mexico #ICOs #funds #fund #JackMa #gamecoin #melbourne #phoenix #sanFransico #tech #bitcoinUK #avcj #bancor #vc #venturecapital #oakland #miami #ethereum #investing",0,0,0,False
294,OneCryptoCap News@OneCryptoCap1,Bitcoin Cash Upgrade and 30K Stores Accepting BCH in the Weekly Update From http://Bitcoin.com https://onecryptocap.com/threads/bitcoin-cash-upgrade-and-30k-stores-accepting-bch-in-the-weekly-update-from-bitcoin-com.12425/… #crypto #cryptocurrency #blockchain #ethereum #btc #bitcoinmining #bitcoins #litecoin,0,0,0,False
295,OneCryptoCap News@OneCryptoCap1,How to Use the CyberGhost VPN on Android Devices https://onecryptocap.com/threads/how-to-use-the-cyberghost-vpn-on-android-devices.12424/… #crypto #cryptocurrency #blockchain #ethereum #btc #bitcoinmining #bitcoins #litecoin,0,0,0,False
296,majormeowmeow@majormeowmeow,"A bit late but here’s Day 47: Crowning Glory @makersplaceco #100dayproject ""Offering Ascension"" Only 1 available for #eth or $$
http://bit.ly/mp-mjrmw
.
#art #nft #cryptoart #digitalartist #crypto #cryptoartist #blockchainart #space #stars #digitalpainting #digitalart #Procreate",9,4,0,False
297,Bitcompare@bitcomparenet,Analyst: Crypto Markets May Be Gearing Up for Massive Surge as Bitcoin Continues Climbing @newsbtc #Bitcoin #Crypto #Ethereum #bitcoin #crypto #ethereum https://tokentalk.co/NewsBTC/analyst-crypto-markets-may-be-gearing-up-for-massive-surge-as-bitcoin-continues-climbing-5ce1ca612065d06d1f099c6e?utm_source=dlvr.it&utm_medium=twitter…,0,0,0,False
298,CryptomaQ@CryptomaQ,"Ethereum Is Popular, but It’s Probably Not Perfect https://cryptomaq.com/ethereum-is-popular-but-its-probably-not-perfect/…
#bitcoin #bitcoinnews #ethereum #ripple #litecoin #crypto #cryptocurrency #cryptoupdate #cryptocurrencynews #blockchain #ltc #btc #xrp #ethEthereum Is Popular, but It’s Probably Not PerfectEthereum has always been well known for its smart contracts and technical capabilities, and that reputation is spreading to some of the biggest retailers and financial companies out there. A Network...cryptomaq.com",1,0,0,False
299,sangue.blu.inked@SangueBluInked,"#BINANCE #Airdrop +0.15 ETH 
0.15 #Ethereum to your #ETH address
Sign up
+0.15 $ETH for every new account!!
REGISTER: https://bit.ly/2TLA4YY
VERIFY ACCOUNT
GET YOUR ETH ADDRESS

#Manhattan #Zurich #business #rich #GOLD #Australia #Sydney #amsterdam #money #Canada",1,1,0,False
300,Kevin Schellinger@k_schellinger,"For a second, thought this was wrong. 

#BUIDL #Ethereum #HODL",1,0,0,False
301,Adrian's Toaster@enigmapi_one,"Hello humans, as of Sun May 19 16:30:14 CDT 2019, current #cryptocoin prices:
#bitcoin is $8057.5007
#dash is $158.8098
#dogecoin is $0.0031
#ethereum is $259.8755
#iota is $0.4199
#litecoin is $95.2489
#ripple is $0.4105",1,0,0,False
302,nTangled Cloud@nTangledCloud,Wormable Windows RDS Vulnerability Poses Serious Risk to ICS https://buff.ly/2LZUrTI #Tech #Technology #IT #BigData #Security #Cybersecurity #ethereum #crypto #crowdfunding #ico #cryptocurrency #IOT #Innovation #computer #cloud #infosec #infosecurity #hackers #hacking #quantum …,0,0,0,False
303,Crypto pump island@crypto_pump_1,"Join our pump group : https://t.me/crypto_pump_island…
#bitcoin #eth #xrp #btc #binance #pumpanddump #pnd #cryptocurrency #crypto #cryptopump #cryptotrading #binance #ethereum #cryptopia #bitcoinexchange #cryptoexchange 

 Updated on 2019/05/19 21:30:01Crypto Pump IslandWe are a crypto pump channel conducting pumps on Binance and share binance trading signals For Premium  @APGLOBALS Note : Many channels are copying our signals and pretending to be like us....t.me",0,0,0,False
304,Alex Edward@AlexEdw33505633,$HOT was pumped by this group the best! https://t.me/mega_pump_group $BTC $XRP $ETH $EOS $LTC $BCH $TRX $XLM $ADA $BNB $XMR $NEO $WAVES $DLT $OAX $DGB  - [906]Mega Pump GroupCryptocurrency's #1 and biggest signal group! All of our pumps are free for all! We will never ask for money in exchange for VIP. #DYOR. None of our signals are financial advice. Join us on discord...t.me,0,0,0,False
305,Tony @ crypto60@crypto_sixty," 1 Hour Top 8 $USD Price: 

#BTC  $8021.48 (0.73%)
#ETH  $258.23 (1.28%)
#XRP  $0.409451 (1.10%)
#BCH  $423.49 (1.46%)
#EOS  $6.38 (0.63%)
#LTC  $94.96 (0.44%)
#BNB  $29.16 (0.38%)
#XLM  $0.140706 (0.54%)

http://crypto60.com #bitcoin #ethereum",0,0,0,False
306,cryptobang@crypto2bigbang,"Every 24 hours you get bitcoin every day
Telegram Bot!
You can receive over 100 satoshi everyday!
$BTC $ETH $NEO $XRP $LTC $BCH
officialmcafee
You can join from here.BitCoin Free BotFree bitcoin everyday. Invite your friends and get more BitCoins.t.me",0,0,0,False
307,Automatski@theautomatski,"Millennium Firm Explains The Creation of The Universe, Space & Time http://bit.ly/2u1RYfn | #ether #miami #memphis #phoenix #funding #Alibaba #canberra #albuquerque #AVCJjapan #newzealand #TokenSales #token #wavesplatform #nashville #ico #funds #miv #france #tokyo #sanantonio",0,0,0,False
308,Gwen Sarah@gwensarah1,"Read Binance Research’s in-depth report on the latest #Binance Launchpad project - #HarmonyProtocol
$ONE #deepsharding #blockchain #BUIDL #BTC #ETHQuote TweetHarmony@harmonyprotocol · May 17, 2019Read @BinanceResearch's in-depth report ahead of @HarmonyProtocol $ONE token offering through @binance LaunchPad 

If you have any questions which are not responded by this report, feel free to reply to this Tweet or send us a DM! 

https://info.binance.com/en/research/ONE-2019-05-14.html…",0,0,0,False
309,Ghost@cryptoghost8941,"Replying to @twicratesSonAgree 100%. .03 was old support that became resistance during the fall to the double bottom. It was breached on this bounce. If $eth finds support there, that is resistance becoming support and very bullish. Def a key level to watch.",0,0,0,False
315,Aramis@TrochetA,"Can we have a clean break of 260 already... 
#ETH",0,0,0,False
316,On God @PullUpOnADemon,"950 SATS for $ADR right now.
Wow, in late 17' people would die to have this price but most people are all talk. They FOMO but won't buy the dip, last bull run i sold early, but this time im two steps ahead. $BTC to $20,000 will take #ADR to $1.00$

#bitcoin
#altcoins
#BTC
#ETH",0,0,0,False
317,Agatha Ventures@EarlyAdopter23,"Top 5 #crypto losers 
 Alert Time: 2019-05-20 00:25:58
#ZeusCrowdfunding: $0.000
#Skeincoin: $0.004
#KingXChain: $0.000
#ICOCalendar.Today: $0.002
#IceChain: $0.000
#monero #IoT #enigma $ETH $CNY
http://coincaps.ai",0,0,0,False
318,Avalon “FDA” Dust@vertinski,"*market buys $ETH* 
*sip*",3,0,0,False
325,Joseph Delong@josephdelong,After talking to @Sim_Pop I'm not sure how #Ethereum gets over being 300 people incestuouslly selling each other horse shit tokens.,13,2,2,False
