,user,text,likes,retweets,replies,is_thread
0,BitcoinAgile@bitcoinagile,$ETH /USD Bitmex Chart Clearly Showing Hidden Bullish Divergence for BITMEX:ETHUSD by BitBookkeeper #ETHUSD $ETH https://tradingview.com/chart/ETHUSD/CLa0roul-ETH-USD-Bitmex-Chart-Clearly-Showing-Hidden-Bullish-Divergence…,2,1,0,False
1,Crypto Press@CryptoPressNews,"$ETH | #ETH - ethereum's Current Price: ▼ $121.3653 | 1h ▼ : -0.16 % | 24h ▼ : -0.83 % | 7d ▲ : 12.65% | More on:ETH > Ethereum News > Ethereum Pricing Information > Ethereum Charts > More! » Crypto.PressEthereum information portal: news, price information, and more about ETH.crypto.press",1,0,0,False
2,Ethereum boi@ether_boi,"The price of $ETH is: $undefined as of 2019-02-11 23:59:08                                  Market Cap: $undefined
 -(Price from http://CoinCap.io)",0,0,0,False
3,WorldCoinIndex@WorldCoinIndex,Cryptocurrencies $ETH $LTC $DASH $XMR $ZCASH https://worldcoinindex.com,0,0,0,False
4,AlgoryProject@AlgoryProject,"Global Investigation Led by US DOJ Sees Extradition of 12 Bitcoin Scammers to US for Fake eBay Car Sales

Read more: https://app.algory.io/app/cryptonews/516625/global-investigation-led-by-us-doj-sees…
#cryptocurrency #cryptonews #crypto #algory #BTC #ETH #XRP #BCH #Bitcoin #Ethereum #Ripple #BitcoinCash",0,0,0,False
5,CoinPath@coinpath,Ethereum Classic (ETC) Remains Strong Above Key Support Levels https://news.coinpath.io/ethereum-classic-etc-remains-strong-above-key-support-levels/… #Classic #Ethereum,0,0,0,False
6,TRON WORLD NEWS@TRONWORLDNEWS,"#Tron CEO Justin Sun gets even with #Ethereum’s Co-Founder on Twitter 
https://tronweekly.com/tron-ceo-twitter-followers-surpass-eth-co-founder/… … @justinsuntron @mishalederman @DecentralizeTRX @TronNews_ @tronix_crypto @MotherOfCrypto_ @Tronfoundation @TRONplayyTron CEO Justin Sun Gets Even With Ethereum’s Co-Founder On TwitterThe unending saga between Sun and Buterin has surfaced again as Tron CEO Mr. Sun made a tweet today that compares their number of followers on Twitter.tronweekly.com",4,2,0,False
7,AnChain.AI@AnChainAI,"@VitalikButerin Hey Vitalik! We're focusing on bringing value to the #ETH ecosystem. One community at a time, we're securing #DApps, exchanges, and token contracts from any and all vulnerabilities/threats. Our smart contract auditing platform has already helped so many people!",1,0,0,False
8,Iulian Neagoe@iulian_neagoe,"We have created a Free Ethereum public file transfer service, hope you like it :) https://twi.li/nfFnkf #Ethereum",0,0,0,False
9,crypto_easybank@crypto_easybank,"$rvn let see this baby go. Buy 285-295
Targets 310,320,345,360 sl-277.  2-5 days!!! . $btc $xlm $xrp $neo $ada $eth $phx $gvt $link $vet.  Ladder in please.",1,1,4,True
10,Joe Martin@JoeMartinDE,"Everything in the Bitcoin network is maximally, capitalistically designed. #cryptocurrency #blockchain #bitcoin #ethereum #btc #eth #crypto http://dld.bz/gRnmf",0,0,0,False
11,SwapBot@AirSwapBot,"0.020670 $ETH traded for 15.000000 $EDG (0.001378 EDG/ETH)Trade ETH and EDG on AirSwapAirSwap is a peer-to-peer trading network built on Ethereum. Our mission is to empower people through global, frictionless trade. Start trading now.share.airswap.io",0,0,0,False
12,Agatha Ventures@EarlyAdopter23,"Top 5 #cryptocurrencies 
 Alert Time: 2019-02-12 02:50:02
#Bitcoin: $3,649.128
#Ethereum: $121.351
#XRP: $0.303
#Litecoin: $43.302
#EOS: $2.760
#instabitcoin #bitcoin #FreeCoin $BTC $QRL
http://coincaps.ai",0,0,0,False
13,Cryptocurrencies / USD@cryptosUSD," Prices update in $USD (1 hour):

$BTC - 3590.2 $  (-0.12 %)
$ETH - 119.51 $  (-0.4 %)
$XRP - 0.3 $     (-0.13 %)
$BCH - 120.7 $   (+0.08 %)
$BSV - 64.3 $    (0.0 %)
$LTC - 42.52 $   (-0.77 %)

#USD #Dollar #BTC #ETH #XRP #BCH #BSV #LTC #Trading #Crypto #Bitcoin #Ethereum",1,0,0,False
14,AlgoryProject@AlgoryProject,"The Relentless Belief in Bitcoin of Blockchain Developer Jimmy Song: A Look at the Pioneering Engineer

Read more: https://app.algory.io/app/cryptonews/516616/the-relentless-belief-in-bitcoin-of…
#cryptocurrency #cryptonews #crypto #algory #BTC #ETH #XRP #BCH #Bitcoin #Ethereum #Ripple #BitcoinCash #blockchain",0,0,0,False
15,KrakenPrices@KrakenPrices," Prices update in $USD (1 hour):

$BTC - 3590.2 $  (-0.12 %)
$ETH - 119.52 $  (-0.38 %)
$XRP - 0.3 $     (-0.13 %)
$BCH - 120.5 $   (-0.08 %)
$BSV - 64.3 $    (0.0 %)
$LTC - 42.52 $   (-0.58 %)

#BTC #ETH #XRP #BCH #BSV #LTC #Trading #Crypto #Bitcoin",1,0,0,False
16,Saket@5aket,"Smart Contracts on Plasma
https://tini.es/StDrCA
#ethereum",0,0,0,False
17,Foxes Den@foxesden34,"Ethereum Block Rewards Drop to Their Lowest Level Ever https://trustnodes.com/2019/02/11/ethereum-block-rewards-drop-to-their-lowest-level-ever… #ethereumEthereum Block Rewards Drop to Their Lowest Level EverEthereum's new supply has nearly halved, falling to circa 13,000 eth a day from 20,000 as the ice age kicks in to make mining more…trustnodes.com",0,0,0,False
22, Paleo by Leo  International Food Blogger@paleobyleo,Zk-SNARKs: Under the Hood – Vitalik Buterin – Medium https://twi.li/eoWxXj #Ethereum,1,0,0,False
23,Crypto squawk@SquawkCrypto,In the evening Bitcoiin B2G surged 22.37% but nevertheless ended down 25%. The tokens ended up 0.44% while the coins represented by NWSCo100 ended down 1.25%. Bitcoin also ended down 0.56% while like tokens Ether ended up 0.42%. $BTC $ETH #b2g #cryptotrading #CryptoNews,1,0,0,False
24,MacQ@Mac88Q,"Which of the following #crypto makes up the largest USD valuation of your portfolio? #bitcoin #Ethereum #XRP..... #tron
#blockchain #fintech #innovation #Cryptocurrency #tech #tradingBitcoin55.6%Ethereum0%Xrp22.2%Tron22.2%9 votes·Final results",1,0,0,True
25,Tako Bosscher@TukoL_,#Ethereum Price Analysis – Support Holding Steady at $120: After jumping 20% over the… https://goo.gl/fb/dZ1Yup,0,0,0,False
26,Reinout Dijkink@ReinoutDijkink,#Ethereum Price Analysis – Support Holding Steady at $120: After jumping 20% over the… https://goo.gl/fb/7y45cy,0,0,0,False
27,Peter Bergmans@PeterBergmans3,#Ethereum Price Analysis – Support Holding Steady at $120: After jumping 20% over the… https://goo.gl/fb/HxzjzL,0,0,0,False
28,Jason Campbell@CryptoGoatDFS,Use binance sign up code 12065013 to get half off your trading fees! $BTC $ETH $EOS $TRX $XRP $BCH $ETC $LTC $DASH $BTG $XLM $XMR $ZEC $ADA $NEO $OMG $XEM $LSK $NXS $ZRX $XVG $GRS $NANO $ZCL $ICX $STORM $VEN $WTC $ONT $BNB $GNT,1,0,0,False
29,Crypto Millionaire App@eagletwitt3r,Did you know you can share you diversification score and relative #crypto holdings without revealing any actual amounts? Find out how well diversified your holdings are with the Crypto Millionaire app! #Bitcoin #Crypto #Ethereum #Litecoin #Ripple #EOS,3,1,0,False
30,ThirdBrainFx@thirdbrainfx,"Check all here --> https://thirdbrainfx.com/crypto.html 
On #IncoreX #BTC to #USD -- > 3651.06, volume --> 53 
On #Hitbtc #ZEC to #ETH -- > 0.422877, volume --> 426 
On #Kraken #ZEC to #USD -- > 50.73, volume --> 4243 
On #IncoreX #ETH to #BTC -- > 0.03418375, volume --> 400",0,0,0,False
37,bitsmart.io@bitsmart_io,"Coinify Adds BCH to Its Virtual Currency Lineup #virtualcurrency #cryptocurrency #bitcoin #ethereum #agnosticism #bitsmartCoinify Adds BCH to Its Virtual Currency Lineup :: bitsmartCoinify, the Copenhagen-based cryptocurrency exchange and payments provider, has announced the introduction of three new virtual currencies on its buy and sell platformbitsmart.io",0,0,0,False
38,AlgoryProject@AlgoryProject,"Ethereum Price Analysis – Support Holding Steady at $120

Read more: https://app.algory.io/app/cryptonews/516609/ethereum-price-analysis-support…
#cryptocurrency #cryptonews #crypto #algory #BTC #ETH #XRP #BCH #LTC #XLM #TRX #Bitcoin #Ethereum #Ripple #BitcoinCash #Litecoin #Stellar #TRON #trading",0,0,0,False
39,CryptomaQ@CryptomaQ,"Bitcoin Friendly Micronation Acknowledged by European Commission President https://cryptomaq.com/bitcoin-friendly-micronation-acknowledged-by-european-commission-president/…
#bitcoin #bitcoinnews #ethereum #ripple #litecoin #crypto #cryptocurrency #cryptoupdate #cryptocurrencynews #blockchain #ltc #btc #xrp #ethBitcoin Friendly Micronation Acknowledged by European Commission PresidentIn 2019 the sovereign state of Liberland continues to gather headway by getting recognized by key leaders in the European Union and members of parliament. On Jan. 31, the micronation claiming the...cryptomaq.com",0,0,0,False
40,AlgoryProject@AlgoryProject,"Blockchain In Ticketing And Events: 9 Startups To Watch In 2019

Read more: https://app.algory.io/app/cryptonews/516603/blockchain-in-ticketing-and-events-9…
#cryptocurrency #cryptonews #crypto #algory #ETH #TIX #AVT #EVC #DUO #Ethereum #Blocktix #Aventus #EventChain #ParallelCoin #blockchain #ico",0,0,0,False
41,PathTradingPartners@Path_Trading,"#BITCOIN : #ETHEREUM Feb-11 Update #CryptoCurrency Technical Analysis Chart

Watch -> https://youtu.be/kTUfk28v4g0
$btc $ethBITCOIN : ETHEREUM Feb-11 Update CryptoCurrency Technical Analysis...#bitcoin #ethereumBITCOIN : ETHEREUM Feb-11 Update CryptoCurrency Technical Analysis ChartGet caught up on our free YouTube ‘trading training’ videos-- 'Tech...youtube.com",0,0,0,False
42,BitTitanSupport@_BitTitan_,"Good news
According to our #ProTitan the correction of #BTC is at the end.
The same is true for #ETH.
Thus, the next drop must be the last short position on a bear market. 
We expect next month to be the sideways month and after then gradually another relatively strong Bull …",0,0,0,False
43,Agatha Ventures@EarlyAdopter23,"Top 5 #cryptocurrencies 
 Alert Time: 2019-02-12 02:40:01
#Bitcoin: $3,651.098
#Ethereum: $121.620
#XRP: $0.303
#Litecoin: $43.396
#EOS: $2.767
#altcoin #pumpanddump $EUR $CNY $XBT
http://coincaps.ai",0,0,0,False
44,CoinBillboard@coinbillboard,"Another no-fun day in #crypto, unless you're a #Zcash hodler. Enjoy the week!
https://coinbillboard.com
#BTC #XRP #ETH #BCH #USDT #LTC #XLM #TRX #BSV #ADA #ZCH #EOS #IOTA #bitcoin #ethereum #altcoins #cryptocurrency #cryptotrading #trading #blockchain #market #news #price",2,1,0,False
51,CrypticPest@Al73r,Whats going on in crypto right now? @paperstreetvc @BeaxyExchange $btc $ethGIF,1,1,0,True
52,Cow In the [BitMEX] Shirt - ∀rax@OphiuchusGrey,Replying to @CryptoMagical and @bitcoinbuilI was suppose to buy $ETH with that,0,0,0,False
53,AlgoryProject@AlgoryProject,"Blockchain In Computing And Cloud Storage: 13 Startups To Watch In 2019

Read more: https://app.algory.io/app/cryptonews/516599/blockchain-in-computing-and-cloud…
#cryptocurrency #cryptonews #crypto #algory #ETH #GNT #GNX #DADI #TNS #Ethereum #Golem #GenaroNetwork #DADI #Transcodium #blockchain #ico #ledger #mining",0,0,0,False
54,Coin Spectator - Real-time cryptocurrency news@coinspectator,The complete checklist for your cryptocurrency taxes #ethereum #altcoin #ico https://coinspectator.com/news/1241051/the-complete-checklist-for-your-cryptocurrency-taxes…,0,0,0,False
55,Coin Spectator - Real-time cryptocurrency news@coinspectator,Accenture's focus on business trends shifts from SMAC to DARQ Po... #bitcoin #eth #altcoins SiliconANGLE https://coinspectator.com/news/1241050/accentures-focus-on-business-trends-shifts-from-smac-to-darq-power-siliconangle-news…,1,0,0,False
56,Andreas JP@AndyP089,"It's never too late! 
#Bitcoin #ETH #Binance #Mindset #Business #CoFounder #Living #Lifestyle #Crypto #CTA101Quote TweetCZ  Binance@cz_binance · Feb 8, 2019Replying to @origintokyo @ErikVoorhees and @binanceThat's exactly what I thought back in 2013, ""damn, I am too late. I wish I started early like those other guys.""  and I will say the same thing I heard back then.  We are still early, the beginning of the beginning.",2,1,0,False
57,Coin Spectator - Real-time cryptocurrency news@coinspectator,Financial industry blockchain market hitting $462B by 2030: IHS Markit #btc #eth #ico https://coinspectator.com/news/1241048/financial-industry-blockchain-market-hitting-462b-by-2030-ihs-markit…,0,0,0,False
58,Cryptopay@cryptopay,"It's been a good day for Ethereum; up 3%. Find out why here: https://medium.com/cryptopay/ethereum-shoots-up-the-ranks-d117b8e4c154…
#ethereum #bitcoin #Blockchain #Criptomonedas #GRAMMYs #BTCEthereum Shoots Up The RanksEthereum (ETH)has had good day; its price has increased by approximately 3% within the last 24 hour period to just over $121 per Ether…medium.com",9,2,0,False
59,Coin Spectator - Real-time cryptocurrency news@coinspectator,"Bitcoin, Ether, and XRP Accepted for $5.5 Million Events Venue #ethereum #crypto #altcoins xrp https://coinspectator.com/news/1241047/bitcoin-ether-and-xrp-accepted-for-55-million-events-venue…",4,1,0,False
60,BncProFeed@BncProNewsfeed,$ETH MyEtherWallet Partners With Changelly to Add a Multi-Swap Functionality to Its Platform #Ethereum http://AltcoinNewsfeed.com,1,0,0,False
61,Coin Spectator - Real-time cryptocurrency news@coinspectator,Finablr Brands Unimoni and UAE Exchange Come Onboard The RippleNet B... #cryptocurrency #btc #eth C_Buzz https://coinspectator.com/news/1241046/finablr-brands-unimoni-and-uae-exchange-come-onboard-the-ripplenet-blockchain…,0,0,0,False
62,CoinoMonitor.com@CoinoMonitor,"Top12 from big coins: #TRX 0.97%, #XRP 0.72%, #ETH 0.22%, #LTC 0.18%, #XLM 0.12%, #ADA 0.07%, #XRP -0.02%, #USDT -0.02%, #BSV -0.02%, #BTC -0.05%, #BCH -0.22%, #BNB -0.26%",0,0,0,False
63,booklocker@booklocker,NEW RELEASE: SEVEN DEADLY BITCOIN SINS http://j.mp/2SnBVHE #Business #Professional #Finance #bitcoin #ethereum #cryptocurrency,0,0,0,False
64,Kelly Crypto@kellysiqili,"#CRYPTOCURRENCIES are mooning! With https://cryptolume.co you can FIND where CRYPTOCURRENCIES are moving before others!

#BTC #ETH $MOAC $HT $DASH $KMD $HOT $WAVES $MKR $VERI $IOST $ICX $NEO $BNB $NPXS $XIN $STRAT $ZEC $DENT $XTZ",0,0,0,False
65,bitsmart.ioETHbot@bitsmart_eth,"Ethereum news sentiment changed to Negative in the last hour #ethereum #bitsmartbitsmart :: Ethereum news, price, social media analysis and market sentimentbitsmart monitors the latest Ethereum news, price, social analysis and market sentiment 24/7bitsmart.io",0,0,0,False
66,NWTrader@trader_nw,"Binance Just Launched Their New Fiat exchange Register Now!
http://bit.ly/BinanceJE777
$CPC $ICX $BTC $UUU $ETH $INT $XBT $GRIN $REKT",0,0,0,False
67,Coin Spectator - Real-time cryptocurrency news@coinspectator,Bitcoin Cash [BCH] claims Avalanche Proof-of-Concept Prot... #cryptocurrency #ethereum #eth Bitcoin Cash https://coinspectator.com/news/1241041/bitcoin-cash-bch-claims-avalanche-proof-of-concept-protocol-10-times-faster-than-ethereum…,0,0,0,False
69,Blockchaingamer.net@blockchaingamr,"Previous #ETH game @CryptoDungeons is moving on over to @TRONArcade!

https://blockchaingamer.net/cryptodungeons-announces-intent-to-join-tron-arcade/…
#Blockchain #blockchaintechnology
#crypto #cryptogaming #cryptocurrency #dapps #tron #trx @Tronfoundation #gaming #GamingNews #GamingLifeCryptoDungeons Announces Intent To Join Tron ArcadeMany crypto games have achieved popularity through simple game mechanics that center around blockchain. While we support these forays into making crypto mainstream, we also want to help promote games...blockchaingamer.net",15,9,1,False
70,AMBCrypto@CryptoAmb,"Bitcoin Cash [BCH] claims Avalanche Proof-of-Concept Protocol 10 times faster than Ethereum
https://ambcrypto.com/bitcoin-cash-bch-claims-avalanche-proof-of-concept-protocol-10-times-faster-than-ethereum/…
$BTC #ETH $ETH #Ripple #BTC #Bitcoin #Ethereum $xrp #BitcoinCash #Altcoins",1,0,0,False
71,AlgoryProject@AlgoryProject,"MyEtherWallet (MEW) Partners with Changelly to Add a Multi-Swap Functionality to its Platform

Read more: https://app.algory.io/app/cryptonews/516590/myetherwallet-mew-partners-with…
#cryptocurrency #cryptonews #crypto #algory #ETH #XRP #BCH #Ethereum #Ripple #BitcoinCash #blockchain #myetherwallet",0,0,0,False
72,BitcoinAgile@bitcoinagile,#ethereum triangle on bigger timeframe to form a bear pennant? for BITSTAMP:ETHUSD by Crypto_Boer #ETHUSD https://tradingview.com/chart/ETHUSD/vfnw4j0B-Ethereum-triangle-on-bigger-timeframe-to-form-a-bear-pennant…,0,0,0,False
73,Gresham INTL@GreshamINTL,"There’s good news and bad news for traders monitoring onchain data for signs of a market revival.
#bitcoin #ethereum #cryptocurrency #BTC #tokens #blockchainBTC Transactions Hit 1-Year High But Volume Remains Sluggish – Markets and Prices Bitcoin NewsThere’s good news and bad news for traders monitoring onchain data for signs of a market revival. The number of daily transactions has been rising fornews.bitcoin.com",0,0,0,False
74,Matthew Voke@MatthewVoke,Very interesting developments in $ETH block production. 14s blocks now up to 20s. #Ethereum daily production is decreasing exponentially.,0,0,0,False
75,CryptoPrice@ElPetroPrice,"Actual #Ethereum #ETH price is 
1 ETH = 107,922 € #EUR
1 ETH = 121,711 $ #USD
Change last 24 hours -0.31% 
Change last hour 0.24% 
#PTR #elpetro",0,0,0,False
76,Agatha Ventures@EarlyAdopter23,"Top 5 #cryptocurrencies 
 Alert Time: 2019-02-12 02:30:03
#Bitcoin: $3,647.150
#Ethereum: $121.711
#XRP: $0.303
#Litecoin: $43.491
#EOS: $2.764
#pumpanddump #SecretContracts #BigData #rt #smartmoney
http://coincaps.ai",0,0,0,False
77,ThirdBrainFx@thirdbrainfx,"Check all here --> https://thirdbrainfx.com/crypto.html 
On #Livecoin #ETH to #BTC -- > 0.033487, volume --> 17062 
On #Exmo #ETH to #BTC -- > 0.03332245, volume --> 7083 
On #wexnz #LTC to #BTC -- > 0.01224, volume --> 7293 
On #Exmo #ETH to #USD -- > 122.61669, volume --> 6276",0,0,0,False
78,CryptoDan2k@CryptoDan2k,"Just a quick reminder that @AcoCollective Competition is Live! Make sure you are in! Here are all the rules to keep you right on track http://qoo.ly/vczmr
#FundMyProject
#Crypto #ETH #Crowdfunding #Blockchain #Ethereum #competition #OAK #win #OAKcomp https://pic.twitter.com/2XeXmarzJNView the rules of the Acorn Sharing Competition“View the rules of the Acorn Sharing Competition” is published by Acorn Collective.medium.com",0,0,0,False
83,Grills@CryptoGrills,"This bear market has rekt a lot of people but it has brought good things along too. We are finally seeing projects with real value and actual use case shine.

Keep a lookout for teams who have been building and delivering despite the 

Few examples: $QNT $CHX $FTX
#BTC #ETH",15,2,2,True
84,Bit By Bit@jaxxbase,"Watch out for fake Binance emails asking you to ""Import your ERC20 wallet to Binance""  @binance #scammers #ETH",0,0,0,False
85,AlgoryProject@AlgoryProject,"Casa CEO Says Square Cash App Adding Lightning Network Support Would be Huge

Read more: https://app.algory.io/app/cryptonews/516579/casa-ceo-says-square-cash-app-adding…
#cryptocurrency #cryptonews #crypto #algory #BTC #ETH #XRP #BCH #Bitcoin #Ethereum #Ripple #BitcoinCash",0,0,0,False
86,aWebAnalysis | Crypto@aWebAnalysis,"Ethereum ETH Current Price:
$121.60
1 Hour: 0.33 % | 24 Hours: -0.22 % | 7 Days: 12.84 %
#eth #ethereum",0,0,0,False
87,Solact@solactworkshop,"It's #official, #Solact #001 is now #solidified for the 25th of #February at @alab_AMS's K-Space. All #ages and #backgrounds are welcome, the orientation is an #introduction to #Smart #Contracts, #Solidity, #Truffle, #Web3 and #React
#Amsterdam #Ethereum
https://meetup.com/solact/events/258884757/…",16,12,1,False
88,papa@Cryptocabulary,Free XLM 25$ #Bitcoin #Ethereum #Vechain #Dropil #qlc #followme #ripple #xrp #cryptocurrency #blockchain fun #cash #currency #money #trump #mimblewhimble #investor #bitcoinnews #newyork https://blockchain.com/getcrypto,1,0,0,False
89,AlgoryProject@AlgoryProject,"Can Blockchain Change The Way We Communicate?

Read more: https://app.algory.io/app/cryptonews/516576/can-blockchain-change-the-way-we…
#cryptocurrency #cryptonews #crypto #algory #BTC #ETH #STEEM #EXC #LOKI #Bitcoin #Ethereum #Steem #Eximchain #Loki #blockchain",0,0,0,False
90,Agatha Ventures@EarlyAdopter23,"Top 5 #cryptocurrencies 
 Alert Time: 2019-02-12 02:20:02
#Bitcoin: $3,651.442
#Ethereum: $121.629
#XRP: $0.304
#Litecoin: $43.361
#EOS: $2.768
#newcryptocurrency #dapp #enigma $CNY $JPY
http://coincaps.ai",0,0,0,False
91,Nastaran@turkaghlo90,Replying to @CryptoMagical and @bitcoinbuilI want to be a whale $xmr $eth $neo $ada $xlm $mft $trx $waves $xrp $eos $mtl $iost $hot,0,0,0,False
92,The Cardano Report™@_Cardano_ADA,"SEC Commissioner Dishes On Crypto Guidance And Regulations

https://ethnews.com/sec-commissioner-dishes-on-crypto-guidance-and-regulations…
#Blockchain #Crypto #BTC #EOS #ETH #bitcoin #LTC #XLM #IOTA #NEO #dash #ETC #BCH #XRP #ZeCash #Cardano #ADA #IOHK #TRX #TMT #fintech",4,1,0,False
93,crypto_easybank@crypto_easybank,$neo. You know this is one of my favs coins cause she pumps hard.  keep a look out she might break up.  Looks like it’s forming a bullish flag in the 15m and 30m. Let’s see.  No calls just an observation. $btc $eth $gvt $ltc $vet $xrp $xlm $link,3,1,1,True
94,coinOK@coinok,Order your secure and smart BTC/ETH/Altcoin hardware wallet - Only 94.80 EUR https://ledgerwallet.com/r/4518?path=/products/ledger-nano-s… #bitcoin #btc #eth #altcoin 18:17,0,0,0,False
95,SwapBot@AirSwapBot,2.500000 $ETH traded for 11413.291000 $AST (0.000219 AST/ETH) https://share.airswap.io/ETH/AST/0xe4c99bd491bda284f569681d08be0713142b4cb332aebeac8f2945ace71d6a44?ref=twitter…,0,0,0,False
96,Nastaran@turkaghlo90,Replying to @CryptoMagical and @bitcoinbuilI want to win $xmr $eth $neo $ada $xlm $mft $trx $waves $xrp $eos $mtl $iost $hot,0,0,0,False
97,Virtual Money News@VMoneyNews,"(21 Lectures Offers Bitcoin Developer Courses by Schnelli, Decker and Chiang) has been published on Virtual Money News - https://virtualmoneysnews.com/21-lectures-offers-bitcoin-developer-courses-by-schnelli-decker-and-chiang/…
#crypto #ethereum #bitcoin #litecoin #btc #crypto currency #forex #binance #etc #lotecoin #ripple #finance #markets #m #luxury #LTC",4,1,0,False
98,Coin Spectator - Real-time cryptocurrency news@coinspectator,IBM's successful blockchain trail on cost-effective shipmen... #ethereum #eth #ico Digital Currency News https://coinspectator.com/news/1241023/ibms-successful-blockchain-trail-on-cost-effective-shipment-for-efficient-scm…,0,0,0,False
99,Crypto Millionaire App@eagletwitt3r,It sure would be a shame! Save your wealth in Crypto! #Bitcoin #Cryptocurrency #MAGA #Crypto #Ethereum #Litecoin #Ripple #EOS,1,0,0,False
100,Intelegain.com@Intelegain,"What is Initial Coin Offering: ICOs explained simply

http://bit.ly/2QfMjQm
#initialcoinoffering #blockchain #ico #cryptocurrency #btc #eth #cryptocurrencynews",0,0,0,False
101,ThirdBrainFx@thirdbrainfx,"Check all here --> https://thirdbrainfx.com/crypto.html 
On #Hitbtc #ZEC to #ETH -- > 0.422877, volume --> 426 
On #Hitbtc #XRP to #BTC -- > 0.00008326, volume --> 59295632 
On #Hitbtc #XRP to #EUR -- > 0.277563, volume --> 3160 
On #YoBit #LTC to #BTC -- > 0.01190027, volume --> 12772",1,0,0,False
102,THEWIZARD ARMY LEADER OF $LUNA $FET@CryptoWizardd,"poor people. those are the same people sending 5 $ETH to some scammy bot and waiting to receive  50 eth  back. 

$TOMO $zil $NEO $gas $mtlQuote Tweetcryptoleee@CryptoLeee · Feb 11, 2019Seriously, stop liking his tweets.
You ain't gonna win.",2,0,0,False
103,AlgoryProject@AlgoryProject,"SPiCE VC Acquires a Stake in Archax Digital Securities Exchange as its CEO joins its Advisory Board

Read more: https://app.algory.io/app/cryptonews/516571/spice-vc-acquires-a-stake-in-archax…
#cryptocurrency #cryptonews #crypto #algory #ETH #XRP #BCH #RKT #Ethereum #Ripple #BitcoinCash #Rock #trading #ledger",0,0,0,False
104,Domain Address Info@DomainAddress4u,"We have created a Free Ethereum public file transfer service, hope you like it :) via /r/ethereum http://bit.ly/2GmF18k hot  in #reddit #ethereum #eth #crypto",0,0,0,False
105,SwapBot@AirSwapBot,"1.000000 $ETH traded for 4571.998300 $AST (0.000219 AST/ETH)Trade ETH and AST on AirSwapAirSwap is a peer-to-peer trading network built on Ethereum. Our mission is to empower people through global, frictionless trade. Start trading now.share.airswap.io",0,0,0,False
106,crypto_easybank@crypto_easybank,$btc as each hour passes I’m more skeptical about this “Bart” down formation..... seems the bulls got a lot of firepower and fighting back.  I’m Becoming more bullish onward to 3800-4000 again let’s see.  no TA can predict btc. $eth $ltc $xrp $xlm $ada $neo $gvt $link,1,3,0,True
107,Blockchain tech Fan@bitallcoins,Venezuela’s Socialist Establishment Bares its Ugly Fangs with Parasitic Crypto Tax http://bit.ly/2RWa7VF #bitallcoins #cryptocurrency #bitcoin #blockchain #crypto #ethereum #btc #litecoin #money #trading #forex #bitcoinmining #eth #bitcoins #investing #mining #cryptonews #icos,2,0,0,False
108,Agatha Ventures@EarlyAdopter23,"Top 5 #cryptocurrencies 
 Alert Time: 2019-02-12 02:10:02
#Bitcoin: $3,655.107
#Ethereum: $121.637
#XRP: $0.304
#Litecoin: $43.383
#EOS: $2.773
#instabitcoin #ico #ltc $BTC $JPY
http://coincaps.ai",2,1,0,False
109,Coin Spectator - Real-time cryptocurrency news@coinspectator,Ripple will power two major UAE remittance ser... #ethereum #altcoin #fintech ripple remittance from UAE https://coinspectator.com/news/1241016/ripple-will-power-two-major-uae-remittance-services…,0,0,0,False
110,Agatha Ventures@EarlyAdopter23,"New #crypto-stealing #‘clipper’ #malware found in #google #play #store
#instavenezuela #ico #xrp #SmartContracts #FreeCoin #fintech #BigData $BTC $ETH $LTC #markets #smartmoney
http://bit.ly/2Gl6OWE",1,0,0,False
111,AlgoryProject@AlgoryProject,"Russian Government to Launch iMoscow Blockchain-Based IT Innovation Cluster By Summer 2019

Read more: https://app.algory.io/app/cryptonews/516565/russian-government-to-launch-imoscow…
#cryptocurrency #cryptonews #crypto #algory #ETH #XRP #BCH #Ethereum #Ripple #BitcoinCash #blockchain",0,0,0,False
112,Agatha Ventures@EarlyAdopter23,"#analysts #expect #bitcoin #(btc) to #climb #higher before #hitting #resistance and #dropping
#instaairdrop #blockchain #ethereum #SmartCash #dapp #enigma $LTC $USD $EUR $JPY $BTCUSD $BTCEUR
http://bit.ly/2DtTifv",0,0,0,False
113,darkillus@darkillus,"Replying to @CryptoMagical and @bitcoinbuilTurn your phone into a hardware-like, secure blockchain wallet - https://enjinwallet.io #enjinwallet #ethereum #bitcoin #litecoin #cryptocurrency #cryptowallet https://pic.twitter.com/ylkplNws8OEthereum and ERC-1155 Blockchain Wallet | EnjinMeet your new blockchain wallet! It's impenetrable, feature-packed, and convenient—supporting Bitcoin, Ethereum, Binance Coin, Litecoin, ERC-20, ERC-721, and ERC-1155 tokens.enjin.io",0,0,0,False
116,darkillus@darkillus,"Replying to @CryptoMagical and @bitcoinbuilEnjinX provides users with a fast, simple, intuitive way to explore the #Ethereum blockchain. Check it out - https://enjinx.io #enjinx #ethereum #blockchain",0,0,0,False
117,Agatha Ventures@EarlyAdopter23,"#litecoin #[ltc] #price #analysis: #joy for the #market as #coin #continues to #march into the #bull’s #realm
#instaico #btc #ethereum #altcoin #SecretContracts #FreeCoin #fintech #cryptonews $LTC $ETC $BTCEUR #retweet
http://bit.ly/2DyuaEg",1,0,0,False
118,Cryptoline News@crypto_lines,"For the first time, a Crypto malware has been found on an app that is hosted on the #GooglePlayStore . The #malware-laden app was impersonating #MetaMask, a service that provides access to the #Ethereum #decentralized applications better known as #dApps.

https://cryptolinenews.com/2019/02/crypto-malware/…",0,0,0,False
119,ReadBTC@readbtc,"#Crypto #education is important for the future of #money. Understanding its basics is the first step to realizing its potential.

This video, although old, can still illuminate the people who are in the dark. 
RT if you think it can help!

 #btc #ETH
https://youtu.be/pPgd7Hj3ABQ",0,0,0,False
120,Kumo@KoomoKumo,$btc is probably gonna Bart down unless $ltc or $eth start ripping and pull BTC up with it,0,0,0,False
121,CryptomaQ@CryptomaQ,"Fundstrat With a Positive Outlook on Bitcoin for 2019 https://cryptomaq.com/fundstrat-with-a-positive-outlook-on-bitcoin-for-2019/…
#bitcoin #bitcoinnews #ethereum #ripple #litecoin #crypto #cryptocurrency #cryptoupdate #cryptocurrencynews #blockchain #ltc #btc #xrp #ethFundstrat With a Positive Outlook on Bitcoin for 2019The head analyst of Fundstrat Global Advisors – Tom Lee, has revealed the company’s outlook on the cryptocurrency market for 2019. According to it, positive developments in the industry are staging...cryptomaq.com",0,0,0,False
122,Sargon of Crypto@SargonOfCrypto,"I'm trying to find alternatives for 1broker, So I tried @SimpleFXcom Avoid it at all costs. High overnight fees for Fx market ""Noob trap"" & the calculator only works out the P/L % x leverage without adjusting the profit in USD .  If you have any please do share
#crypto $btc $eth",2,2,0,False
123,Trading Strategist@TradeStrategyCo,"Real-time #bitcoin price + news analysis of 150+ global news sources every hour 24*7*365 

#BTCUSD $3592.21
Price change 1-Hour 0.10% | 1-Day -0.82% | 1-Week 5.48%
2/11/2019 11:03 PM

#BTC #blockchain #ethereum #trading #ico #Crypto #cryptocurrency #news",2,0,0,False
124,RippleBot1h@ripplebot1h,"2019-02-11 23:03:06.843994Z #Ripple #XRP:$0.30, Vol:12662060, High:$0.31, Low:$0.30. #BTC:$3596.44 #ETH:$119.70 #LTC:$42.59",0,0,0,False
125,bitsmart.ioETHbot@bitsmart_eth,"ETH $121.58 Up +$0.33 +0.27% in the last hour #ethereum #bitsmartbitsmart :: Ethereum news, price, social media analysis and market sentimentbitsmart monitors the latest Ethereum news, price, social analysis and market sentiment 24/7bitsmart.io",0,0,0,False
126,The Cardano Report™@_Cardano_ADA,"Stox Responds To Investor Lawsuit By Arguing White Paper Is Not Binding

https://ethnews.com/stox-responds-to-investor-lawsuit-by-arguing-white-paper-is-not-binding…
#Blockchain #Crypto #BTC #EOS #ETH #bitcoin #LTC #XLM #IOTA #NEO #dash #ETC #BCH #XRP #ZeCash #Cardano #ADA #IOHK #TRX #TMT #fintech",1,0,0,False
127,Michael Huntington@cryptoscanner1,"Track OVERSOLD RSI, MACD CROSSOVERS, PRICE INCREASES with https://cryptolume.co see where the market is moving before others!

#BTC #ETH #MOAC #HT #DASH #VERI #KMD #HOT #MKR #IOST #NEO #BNB #WAVES #ICX #NPXS #XIN #STRAT #ZEC #GNT #XTZ",0,0,0,False
133,CoinConsultant@CoinConsultant,"Kind of impressed with a new #masternode coin @ZolexEcosystem .... launched main net and their exchange has already launched. Pretty cool and I recommend everyone to take a look https://masternodes.online/currencies/ZLX/
#masternodes $crypto $btc $eth",2,0,0,False
134,MexWatcher@MexWatcher,"Future / Spot basis as of Tue Feb 12 08:01:37 JST 2019
#BCH : 0.80%
#XRP : 0.95%
#ETH : 0.09%
#EOS : -1.20%
#LTC : -0.25%
#TRX : -4.26%
#XBT : -0.25%
#ADA : 0.69%
(positive means contango.)",1,0,0,False
135,Agatha Ventures@EarlyAdopter23,"#square #ceo #jack #dorsey says #bitcoin’s #lightning is #coming to #cash #app
#instacryptocurrency #blockchain #crypto #airdrop #ripple #AI #trading #enigma $ETH $CNY #retweet #smartmoney
http://bit.ly/2DtxpNo",1,0,0,False
136,AlgoryProject@AlgoryProject,"Bitcoin, Ether, and XRP Accepted for $5.5 Million Events Venue

Read more: https://app.algory.io/app/cryptonews/516552/bitcoin-ether-and-xrp-accepted-for…
#cryptocurrency #cryptonews #crypto #algory #BTC #ETH #XRP #Bitcoin #Ethereum #Ripple",0,0,0,False
137,"BettyBot, Binance TA Scanner@bettycryptobot","Join us on telegram: https://t.me/bettycryptobot
#crypto #bitcoin #cryptocurrency #btc #money #trading #ico #cryptocurrencies #eth #litecoin #investor #trader #cryptonews #bitcoinnews #investment #business #altcoin",0,0,0,False
138,DailyCoin@dailycoinfo,New Ethereum (ETH) Price is $121.61 USD #Ethereum #ETH #DailyCoin https://dailycoin.info/ethereum-price,0,0,0,False
139,Agatha Ventures@EarlyAdopter23,"Top 5 #crypto gainers 
 Alert Time: 2019-02-12 02:00:48
#TRONCLASSIC: $0.000
#BDTToken: $0.009
#Graphcoin: $0.003
#MiloCoin: $0.001
#Knekted: $0.000
#instacryptocurrency #instavenezuela #ethereum #altcoins $BTC
http://coincaps.ai",0,0,0,False
140,Agatha Ventures@EarlyAdopter23,"Top 5 #cryptocurrencies 
 Alert Time: 2019-02-12 02:00:47
#Bitcoin: $3,652.560
#Ethereum: $121.578
#XRP: $0.304
#Litecoin: $43.466
#EOS: $2.778
#instabtc #btcnews #newcryptocurrency #binance $QRL
http://coincaps.ai",0,0,0,False
141,Ethereum Hourly@EthereumHourly,"Price update: 1 #Eth = $121.08 
#cryptocurrency $ETH sourceCryptocurrency API, Historical & Real-Time Market Data | CryptoCompareFree cryptocurrency data APIs. Get high-quality historical & real-time trade, order book and volume data through market-leading REST & WebSocket APIs.min-api.cryptocompare.com",0,0,0,False
142,Daniel Villamizar -Microsoft Azure MVP@CSA_DVillamizar,"This tweet, ""Cryptocurrency &amp; SATOS momenteel zichtbaar op meer dan 200 fietsen in Amsterdam #satos #bitcoin #ethereum #litecoin #ripple #btc #blockchain "" hasn't been tweeted more than 0 times.",0,0,0,False
143,Coinstats@coinstats,"Ethereum - ETH
Price: $121.60
Change in 1h: +0.34%
Market cap: $12,745,833,217.00
Ranking: 2
#Ethereum #ETH",0,0,0,False
144,Crypto Buzz Tracker@TrackThatCrypto,"TOP-12 most-mentioned #crypto this hour:
1. #bitcoin
2. #litecoin
3. #bancor
4. #neo
5. #ethereum
6. #aurora
7. #xrp
8. #quant
9. #nem
10. #steem
11. #monero
12. #dash
#cryptocurrency #altcoin #blockchain #news #CryptoBuzzTracker",0,0,0,False
145,Bobe'bot@Bobe_bot,"1 #BTC = 3665.7814 #CHF
1 #ETH = 122.3534 #CHF
1 #DOGE = 0.00186398944068 #CHF
sources: @cryptonatorcom @hellobity",0,0,0,False
146,Daniel Villamizar -Microsoft Azure MVP@CSA_DVillamizar,"This tweet, ""RT DGB_DoubleT: Join dgb_chilling on IvanOnTech tonight! Set your notifications!

#DigiByte $DGB $BTC $LTC $ETH #blockchain #crypto 

ht…"" hasn't been tweeted more than 2 times.",0,0,0,False
147,ThirdBrainFx@thirdbrainfx,"Check all here --> https://thirdbrainfx.com/crypto.html 
On #YoBit #ETH to #LTC -- > 2.77030979, volume --> 419 
On #Exmo #XRP to #USD -- > 0.30758655, volume --> 15802719 
On #BitFinex #LTC to #BTC -- > 0.011919, volume --> 63408 
On #Hitbtc #PPC to #BTC -- > 0.000141, volume --> 10143",0,0,0,False
148,CoinTrendz.com@CoinTrendz,"Top 10 Mentions on Twitter in the last hour - $BTC $ETH $XRP $BTT $LTC $NEO $TRX $BNB $DASH $BCH 

More on http://CoinTrendz.com ",0,0,0,False
149,Crypto pump island@crypto_pump_1,"Join our pump group : https://t.me/crypto_pump_island… 

Last pump Result : 355%

#bitcoin #eth #xrp #btc #binance #pumpanddump #pnd #cryptocurrency #crypto #cryptopump #cryptotrading #binance #ethereum #cryptopia #bitcoinexchange #cryptoexchange 

 Updated on 2019/02/11 23:00:02Crypto Pump IslandWe are a crypto pump channel conducting pumps on Binance and share binance trading signals For Premium  @APGLOBALS Note : Many channels are copying our signals and pretending to be like us....t.me",0,0,0,False
150,Benjamin Alexander De Mers - Bio@realBenTalks,"IAM Platform Curated Retweet:

Via: https://twitter.com/coinspectator

SendFriend lands funding for Ripple-based remit... #cryptocurrency #blockchain #ethereum Venture funding https://coinspectator.com/news/1240905/sendfriend-lands-funding-for-ripple-based-remittance-service…
#IAMPlatform
#TopInfluence
#CryptoCurrency",0,0,0,False
151,Bitcoin Hacks@bitcoinhacks,#BTC price increased! Buying @ $3637.27 & Selling @ $3637.27  $btc $eth $etc $neo $dgb $dash $strat $eos $omg $pay $xrp $xmr $gas ,0,0,0,False
152,Eth Hourly Price@eth_hourly,"Current #ethereum price is $121.55, an increase of +0.30%, a market cap of $12,741,508,993 and 24 hr. vol. of $3,352,564,064.3",0,0,0,False
153,Daniel Villamizar -Microsoft Azure MVP@CSA_DVillamizar,"This tweet, ""I recommend that everyone pay attention to this project, it promises big profits to investors!
https://yammy.network
#Yammynetwork #crypto #blockchain #ethereum #bitcoin #cryptocurrency #ICO #tokensale"" hasn't been tweeted more than 0 times.Sexy chick posing naked outdooryammy.network",0,0,0,False
154,Carmem Gansta@CarmemGansta,"Long/Short Ethereum movements with up to 100x Leverage at PrimeXBT! 

Sign up straight away and trade your $75 into $5000:

 http://bit.ly/PrimeXBT03 

Make money even if BTC is falling! 
$MKR | $XPX | $VERI | $INB | #Crypto | #ETH | #BTC | $ETH | $BTC",0,0,0,False
155,Bolko Rawicz@Bolko_Rawicz,"deVere CEO: ETF, Lightning, and Halving Drive Recent Bitcoin Rally https://cryptotalkalert.ga/2019/02/devere-ceo-etf-lightning-and-halving.html… #cryptocurrency #Blockchain #bitcoin #ETHEREUM #Altcoins #Cryptoassets #cryptocoins #tokens #Coins #investing #HODL #Hodlers #cryptoinvestor #investor",0,0,0,False
156,Liam Zebedee ⟠@liamzebedee,Friends in #ethereum #zksnarks - please help me on this simple Q - doing some research on zkDAO's :),0,0,0,True
157,I hear your wishes@buywithmetoday,Crypto Bear Market Affecting Venture Capital Valuations http://bit.ly/2tgLwAL * * * * * #blockchain #profit #bitcoin #Crypterium #Electroneum #XLM #NANO #ETH,1,0,0,False
158,AlgoryProject@AlgoryProject,"Bitcoin (BTC) Price Looks Poised to Take on 50-day Moving Average: Expert Analysis

Read more: https://app.algory.io/app/cryptonews/516546/bitcoin-btc-price-looks-poised-to-take…
#cryptocurrency #cryptonews #crypto #algory #BTC #ETH #XRP #BCH #Bitcoin #Ethereum #Ripple #BitcoinCash #trading",0,0,0,False
159,Money Magnet - Jake اًًً@jakelong32years,"ONE YEAR AGO TODAY:
$BTC was $8063
$ETH was $809
$NANO was $9.30
$XRP was $1.02
$LTC was $152
$TRX was $0.046
$XMR was $244
$ADA was $0.39
$BTT was not ",13,2,0,False
160,∞Brian Michael∞@CryptoNaut11,That moment you see shitcoins pumping and everyone told you to stay away.#BTC $BTC #ETH #LTC $ETH #zcash #LitecoinFam #XLM #cryptofam #bitcoin $ltc #ZRX #Monero #Stellar #ICX $icon #XMR #Decred #satoshi #wax $wax #fnatic #twitch #bethebank#LedgerNanoX,2,0,0,False
161,Bolko Rawicz@Bolko_Rawicz,"Why This Technical Analyst Says the Bitcoin Price Rally isn’t Over Yet https://sg.finance.yahoo.com/news/why-technical-analyst-says-bitcoin-204502833.html?soc_src=social-sh&soc_trk=tw… via @YahooSG #cryptocurrency #Blockchain #bitcoin #ETHEREUM #Altcoins #Cryptoassets #cryptocoins #tokens #Coins #investing #HODL #Hodlers #cryptoinvestor #investorWhy This Technical Analyst Says the Bitcoin Price Rally isn’t Over YetThe bitcoin price on Monday showed no significant movements after posting an impressive rally early Friday. That doesn’t mean the flagship cryptocurrency’s rally is over, however. As of the time of...sg.finance.yahoo.com",2,1,0,False
162,Coin Spectator - Real-time cryptocurrency news@coinspectator,XRP Price Analysis: XRP/USD Breakout Out is Now Retesting Wedge Pattern Forma... #eth #altcoins #altcoin https://coinspectator.com/news/1240999/xrp-price-analysis-xrpusd-breakout-out-is-now-retesting-wedge-pattern-formation…,0,0,0,False
163,Bolko Rawicz@Bolko_Rawicz,"Bitcoin Trading in Venezuela Just Hit an All-Time High Despite a 40% Price Premium https://sg.finance.yahoo.com/news/bitcoin-trading-venezuela-just-hit-163808825.html?soc_src=social-sh&soc_trk=tw… via @YahooSG #cryptocurrency #Blockchain #bitcoin #ETHEREUM #Altcoins #Cryptoassets #cryptocoins #tokens #Coins #investing #HODL #Hodlers #cryptoinvestor #investorBitcoin Trading in Venezuela Just Hit an All-Time High Despite a 40% Price PremiumAccording to the data provided by LocalBitcoins, a peer-to-peer cryptocurrency trading platform, the weekly volume of Bitcoin in Venezuela achieved a new all-time high. Measured in Bitcoin, the...sg.finance.yahoo.com",2,0,0,False
164,THE CRYPTO PROFIT@TheCryptoKing5,"And here comes #Etherium $ETH back into 2nd place with a $235 million dollar lead.... I'm sure the @Ripple $XRP community loves this lol.   All good, these market caps will some day be peanuts by comparison.",0,0,0,False
165,EUROPECOIN  (.eu.org)@europecoinEUORG,"Small delay, status and an adjusted timeline:
https://bitcointalk.org/index.php?topic=901605.msg49698199#msg49698199…
#crypto #altcoins #bitcoin #Bittrex $ERC #btc #blockchain #altcoin #cryptocurrency #fintech #iot #cryptocurrencies #startups #eth #smarthome #ai #voiceassistent",9,4,0,False
170,Coin Spectator - Real-time cryptocurrency news@coinspectator,Square CEO Jack Dorsey Says Bitcoin’s Lightning Is Coming to Cash App #crypto #eth #ico https://coinspectator.com/news/1240997/square-ceo-jack-dorsey-says-bitcoins-lightning-is-coming-to-cash-app…,0,0,0,False
171,Cryptoline News@crypto_lines,"There is a recent movement within the cryptocurrency industry giving rise to #cryptocurrencydebitcards. #Cryptocurrency #debitcards for #ether works like any regular prepaid debit card, in terms of depositing #credit on the card in order to do purchases

https://cryptolinenews.com/2019/02/cryptocurrency-debit-cards-available-for-ether/…",0,0,0,False
172,BeLoCroxz@BCroxz,"Lisk $LSK price: $1.15 

Binance is TEMPORARILY accepting new users! GO!  
 http://binance.com/?ref=10078236 

$DBIX $DOPE $ION $BTS $NEO $SEQ $ETH $TCC $PPT $ACE $BCPT $XSPEC $CMT $MYST $PZM $CVC $RNT $BSD $HGT $ETN $TIME $WICC $KIN",0,0,0,False
173,sam cassatt@samcassatt,"It was awesome getting to chat with @APompliano about all things #Ethereum, @ConsenSys, scaling blockchains, emerging business models in #DeFi. Much thanks to their team and excited for the future!Quote TweetPomp @APompliano · Feb 11, 2019New podcast live today!

@samcassatt and I discuss the history of @ConsenSys, how governments look at crypto, why Maker is interesting, and the current scalability debate around Ethereum.

Listen and I promise you’ll learn :)

https://itunes.apple.com/us/podcast/off-the-chain/id1434060078?mt=2#episodeGuid=53744fde-2dbf-11e9-913a-438795ba0a03…",26,4,1,False
174,Agatha Ventures@EarlyAdopter23,"Top 5 #cryptocurrencies 
 Alert Time: 2019-02-12 01:50:02
#Bitcoin: $3,647.922
#Ethereum: $121.492
#XRP: $0.303
#Litecoin: $43.514
#EOS: $2.776
#IoT #BigData #ltc $ETC $QRL
http://coincaps.ai",0,0,0,False
175,Olgicarchy@olgicarchy,"Lisk $LSK price: $1.15 

Binance is TEMPORARILY accepting new users! GO!  
 http://binance.com/?ref=10078236 

$DBIX $DOPE $ION $BTS $NEO $SEQ $ETH $TCC $PPT $ACE $BCPT $XSPEC $CMT $MYST $PZM $CVC $RNT $BSD $HGT $ETN $TIME $WICC $KIN",1,0,0,False
176,KrakenPrices@KrakenPrices," Prices update in $USD (1 hour):

$BTC - 3594.4 $  (+0.1 %)
$ETH - 119.98 $  (+0.54 %)
$XRP - 0.3 $     (+0.41 %)
$BCH - 120.6 $   (-0.41 %)
$BSV - 64.3 $    (-0.16 %)
$LTC - 42.77 $   (+1.64 %)

#BTC #ETH #XRP #BCH #BSV #LTC #Trading #Crypto #Bitcoin",1,0,0,False
177,NoKillZone@ZoneKill,"Lisk $LSK price: $1.15 

Binance is TEMPORARILY accepting new users! GO!  
 http://binance.com/?ref=10078236 

$DBIX $DOPE $ION $BTS $NEO $SEQ $ETH $TCC $PPT $ACE $BCPT $XSPEC $CMT $MYST $PZM $CVC $RNT $BSD $HGT $ETN $TIME $WICC $KIN",0,0,0,False
178,InfinityTFBlade@InfinityTFBlad1,"Lisk $LSK price: $1.15 

Binance is TEMPORARILY accepting new users! GO!  
 http://binance.com/?ref=10078236 

$DBIX $DOPE $ION $BTS $NEO $SEQ $ETH $TCC $PPT $ACE $BCPT $XSPEC $CMT $MYST $PZM $CVC $RNT $BSD $HGT $ETN $TIME $WICC $KIN",0,0,0,False
179,𝐗🅡𝐏 ⓥ ET@XRPVET,"#HODL 
First up... HOLD! 

#cryptocurrency #bitcoin #litecoin #ethereum #blockchain #blockchaintechnology #ripple #xrp #blockchainrevolution #bitcoinmining #bitcoinnews #bitcoinexchange… https://instagram.com/p/BtwkDljgbAU/?utm_source=ig_twitter_share&igshid=1djkmuszk5y6g…",1,1,0,False
180,BitCoinage Xbcn@officialXbcn,"https://youtu.be/Nb4DgRIPwLQ

Do you know what #BitCoinage is doing in #arbitrage yet? Watch this #video to #learn more. 

#Adoption #BitcoinPrice #cryptocurrencynews #CryptocurrencyExchange #investing #stockmarket #BTC #BTCPrice #Ethereum #BitcoinExchange #WhatIsBitcoin #financeWhat is Bitcoinage?Press Release:https://coindelite.com/ico-press-release/bitcoinage-to-airdrop-5-million-exbcn-tokens/Follow us here - Social Communities: Telegram: https://t....youtube.com",3,0,0,False
181,NM@ByteSizeCapital,"MIT-based @Algorand incorporates new blockchain compression technology Vault.

Vault minimises the costs of bootstrapping a node by 90.5% compared to $ETH, broadening the validator base & mitigating the risks of PoS network centralisation.",12,3,2,True
182,Bear Stone@BearStoneHA,I am keeping track of the current #Ethereum prices. It is $122. #ETH #IOT #SmartHome,0,0,0,False
183,ThirdBrainFx@thirdbrainfx,"Check all here --> https://thirdbrainfx.com/crypto.html 
On #Kraken #ETH to #GBP -- > 95.56, volume --> 2 
On #wexnz #ETH to #USD -- > 584.35511, volume --> 4642 
On #Kraken #ETH to #JPY -- > 13227, volume --> 139 
On #Bittrex #BTC to #USD -- > 3629.84926243, volume --> 10101",0,0,0,False
184,Pierre@pierre_crypt0,"Doing a quick review of the coins I'm watching lately, this includes $BTC, $LTC, $ETH, $NEO (done) and $EOS (coming).

For other smaller $alts I'll do it tomorrow.

I'm cleaning up my chart and redefying the levels I'm watching.",1,0,0,True
188,Jerome de Tychey @jdetychey,"Can't wait for @JohBa 's talk at http://EthCC.io 
"" Plasma in the wild ""
#scaling #ethereum #blockchainQuote TweetOptimism@optimismPBC · Feb 11, 2019Plasma Operator Constructing a Merkle Tree (circa 2019, colorized). #art",1,0,0,False
189,Coin Spectator - Real-time cryptocurrency news@coinspectator,Analysis | Security Tokens Are the New Crypto – But You Probably Can't Affor... #ethereum #eth #altcoins https://coinspectator.com/news/1240994/analysis-security-tokens-are-the-new-crypto-but-you-probably-cant-afford-them…,1,1,1,False
190,Coin Spectator - Real-time cryptocurrency news@coinspectator,Five things to know about cryptocurrency exchange Quadriga #cryptocurrency #eth #ico business videos https://coinspectator.com/news/1240993/five-things-to-know-about-cryptocurrency-exchange-quadriga…,0,0,0,False
191,Pierre@pierre_crypt0,"$NEO

I like the way #Antshare, oups I meant Chinese #Ethereum, is behaving here. Especially today, considering the corn and other majors retraced a bit.

All I want to see to maintain this cautious bullish bias is a daily close above $8. Then we'll see.",2,1,1,True
192,PS_Promoter@PS_Promoter,follow please #PrabhuStudio I recommended Crypto Lover From # https://twitter.com/Equaltoken_fan #BTC #ETH #EQL #EQLs #Crypto #Coin #Token #Blockchain #Airdrop #f4f #Cryptofollowback,1,0,0,False
193,Tori Webster@cryptoexp70924,"See January's results!!!

For Free signals, join telegram- https://t.me/phoenixICF
#omisego $ZIL $EOS $XEM #vechain $ICX #binance #cardano #zcash $BNB #monero $TRX $DGB #tron $OCN $BTG $DCR #decred $VET #maker #tether $ZEC #stellar #ethereum $DASH 716856860",0,0,0,False
194,Textile@textileio,Can't wait to meet all the #ETH #BUIDLers at @EthereumDenver this week! Join @andrewxhill & @carsonfarmer Thurs at Sports Castle (http://ethdenver.com/#venue) for some shop talk! #ethereum #dweb #decentralized #den,3,2,0,False
195,Crypto Blood | EOS DETROIT | @cryptoblood_,"Are $ETH #dApps Dead? This Stat Says So... and #Bakkt Exchange Postponed Yet Again #CryptoNewsAre ETH dApps Dead? This Stat Says So... and Bakkt Exchange Postponed...Prevuew********DISCLAIMER: THE COMMENTS AND OPINIONS SHARED IN THIS VIDEO ARE OF MY OWN, AND SHOULD NOT BE TAKEN AS FINANCIAL ADVISE. PASS PERFORMANCE IS NOT...youtube.com",15,3,2,False
197,Blockchain tech Fan@bitallcoins,Will Tencent’s Massive Investment Help $3 Billion Reddit Take Down Facebook & Google’s Ad Duopoly? http://bit.ly/2Ikymxl #bitallcoins #cryptocurrency #bitcoin #blockchain #crypto #ethereum #btc #litecoin #money #trading #forex #bitcoinmining #eth #bitcoins #investing #mining …,1,0,0,False
198,Alexander Morris@tymorapro,"$#ETHUSD: #Ethereum (119.98) 3mAccelBandTrap+ (.8xAvg), lo:119.41, hi:120.10, bars:6, tf:1000001, ch:+0.8%, 37DyChgHi:-25%; TLM:0.1",0,0,0,False
199,Coinboard™@Coinboard_App,Cryptocurrency Was Their Way Out of South Korea’s Lowest Rungs http://bit.ly/2GjcbFX #crypto $btc $neo $ltc $eth $xrp $bch $dash $xmr,0,0,0,False
200,Agatha Ventures@EarlyAdopter23,"Top 5 #cryptocurrencies 
 Alert Time: 2019-02-12 01:40:02
#Bitcoin: $3,650.761
#Ethereum: $121.488
#XRP: $0.303
#Litecoin: $43.633
#EOS: $2.774
#instaico #altcoin #cryptocurrencymarket #bittrex #AI
http://coincaps.ai",1,0,0,False
201,Cryptograf - Real Time Portfolio Tracking@cryptografapp,"our vision #crypto #bitcoin #ethereumQuote Tweetmetamitya@metamitya · Feb 11, 2019.@cryptografapp vision #cryptoShow this thread",1,0,0,False
202,Ethereum West (Not-A-Security)@EthereumWest,shorting #eth at $120?,1,0,0,False
203,Seth Goldfarb@GoldenChaosGod,"I finally tried a handful of the gaming #dapps currently available on #Ethereum yesterday evening and I'm disappointed at how many fail to provide any kind of free starter.

UX > Pay-to-Play all day

@ethermon @WorldofEther @AxieInfinity @Hyper__Dragons #ETH #Blockchain",1,0,0,True
204,Zeak@XTDX_Demonz,"A new #masternode project launched, get some free coins by #airdrops and #bounties Join discord https://discord.gg/RyNZ8eX
#giveaways #contest #win #free #cryptocurrency #crypto #bitcoin #btc #eth #dash #trx #xrp",2,0,0,False
