,user,text,likes,retweets,replies,is_thread
0,GetTheCrypto@GetTheCrypto1,#crypto Cryptocurrencies Is The Solution  #ETH - 0x3BC690c604d170BB53c155cb66074B4DE1172C36,1,0,0,False
1,NewCapital-Community@NewCapital8,"Zermatt Becomes Second Swiss City to Accept Bitcoin Payments

https://dcebrief.com/zermatt-becomes-second-swiss-city-to-accept-bitcoin-payments/…

New Capital website:https://new.capital 
New Capital Community FB - https://facebook.com/NewCapital8/
#BTC #NEM #innovation #blockchain #crypto #technology #bitcoin #security #ETH",5,3,0,False
2,ōjiji sama@SubzWayz,"Login today and get your daily reward.
Visit http://juiice.io for more.
#JUI  #IEO #blockchain #crypto #bitcoin #ethereum",0,0,0,False
3,WorldCoinIndex@WorldCoinIndex,Cryptocurrencies $ETH $LTC $DASH $XMR $ZCASH https://worldcoinindex.com,0,0,0,False
4,venzdi@Nashinka,"RideNode™ (RIDE) is the first American Ride and Transportation blockchain and virtual currency. It can be used to pay for taxi services through the BayRide mobile app.
#RIDE #RideNodeTM #IEO #blockchain #crypto #bitcoin #ethereum",0,0,0,False
5,OhNoCrypto@OhNoCrypto,"#crypto Safe Haven Bitcoin Taps 3 Month High, Is $10,000 On The Cards? #bnb #eth via https://buff.ly/2RzgDo8 #Bitcoinnews #bitcoininspace #trade #forex #wallstreet #tradewar",0,0,0,False
6,Ahonk@Ahonk_asda,Requesting faucet funds into 0x30a7503BcB7A3048F759636c25AC372cE498B7B0 on the #Kotti #Ethereum test network.,1,0,0,False
7,Minting Coins® | mintingcoins.eth @MintingCoins,Paris Saint-Germain F.C. Launches Crypto Voting Scheme For Fans https://upload.news/3455rn | #Bitcoin #BTC #Ethereum #FinTech #Crypto #Blockchain #Cryptocurrency | @GaryPalmerJr #MintingCoinsParis Saint-Germain F.C. Launches Crypto Voting Scheme For FansParis St. Germain Football Club has just launched a crypto-token that allows fans to vote on a number of differentbitcoinist.com,1,1,0,False
8,venzdi@Nashinka,"#Know-What-is-in-food #RIDE #RideNodeTM #IEO #blockchain #crypto #bitcoin #ethereumQuote TweetWyoRAX- The Wyoming Exchange@RideNode · Dec 31, 2019What is going on? RideNode Team",0,0,0,False
9,BlockChainFuture@MultiChainHub,Nimbus Team Gets Big Grant for Key Client Work http://dlvr.it/RP1907 #DLT #Ethereum #Cryptocurrencies #Tokenomics #Hyperledger,0,0,0,False
10,Mike The Hodler @thecryptokeepr,Cosmos founder Jae Kwon is stepping down >>@ https://thecryptokeepers.com/cosmos-founder-jae-kwon-is-stepping-down/… || $btc $eth $ltc $xrp $vetTop 10 Cryptocurrencies By Market CapTop 10 Crypto Rank Symbol Name Price 1 Hour 24 Hours 7 Daysthecryptokeepers.com,0,0,0,False
11,NAPSTY@Napsty,"What is SneakrCred?
 https://link.medium.com/5iYJEoVJE3
#ethereum #sneakers #tokenizeFrequently asked questionsEvery idea needs a Mediumlink.medium.com",0,0,0,False
12,Crypto squawk@SquawkCrypto,"In the evening SmartCash $SMART (chart) moved up the most (+8.38% as of 6 pm). Zcoin $XZC is 1.17% higher. Coins ended +2.04%. Ethereum based tokens ended +0.53%. Bitcoin and Ether also ended higher: $BTC +2.02%, $ETH +0.86%.
http://2100news.com/2020/01/29/movers-of-the-day-29-jan/…
#crypto #cryptotrading",2,0,0,False
13,YA@mickmugsi123,"Replying to @DrEncrypted @CryptoCatPro and @ethereumIt's more or less what I've been doing just in the last few days chipping out of here and they're making what I can I'm a long-term believer in 
$btc
$eth
$dash",1,0,0,False
14,BTCUSD AlgoSignal@BTCUSD_,"#ETHUSD 
Bearish below - 173.41 
Stop-loss - 176.94 
Target 1 - 169.88 
Target 2 - 168.53 
Target 3 - 166.63 
Trailing SL - 1.43 points 
#Ethereum #Crypto #ETH",0,0,0,False
15, Crypto Idea @Cryptoldea,"Replying to @CryptoldeaTestFor $QLCETH I am thinking #NotFinancialAdvice it is Not a good time to do anything on the One Day time frame.
The Typical Price of #QLCETH is: 0.00006979 $ETH.
$QLC #NFA #DYOR
#CryptoldeaReply",0,0,0,False
16,Never Work Again @ Age 43@retiredin2016,"As of January 28, 2020 at 05:53PM, 1 XRP = 0.2372 USD.  https://goo.gl/E2Ee6A  #Investing #fire #ira #401k #money #stock #retirement #trade #NeverWorkAgain #CapitalGain #Savings #PersonalFinance #crypto #ethereum #eth #bitcoin #btc #xrp #ripple",0,0,0,False
17,Rob Licker Ⓥ When Uphold NY @RobLicker,"Replying to @RippleXDev@XpringDev @Ripple would love to have an event in #Brooklyn #Queens , I live right down the road from $ETH HQ and almost no one I bump into knows $XRP #OuterBorough #XRPMeetup nothing would be more awesome than a #Williamsburg event @DevNullProd @auditmeplease @CryptoFinally",3,1,0,False
18,Joe Martin@JoeMartinDE,"Everything in the Bitcoin network is maximally, capitalistically designed. #cryptocurrency #blockchain #bitcoin #ethereum #btc #eth #crypto http://dld.bz/gRnmf",1,2,0,False
19,Ninja@Ninjascalp,"$ETH - Daily candle vs 30 minute candles... We have a pin bar and we have closes below the uptrend and soon to be closes below the 55ema.

As you can see, I'm trying to find all the confluence necessary for my short bias. Number please go down now...

#bitcoin $xbtusd $btc",3,1,0,False
20,Amber Twemlow (Twem)@AmberTwemlow,"#Ethereum, current price (GBP): 135.31
-0.24 (-0.18%)The following media includes potentially sensitive content. Change settingsView",1,1,1,False
21,Z̙̭̜̬͔̗̹͆͐͆͂̓͗͡3͈͇̳̞̈̄͗́R̨̛͖̥͇̦̟̩̃̎̂̽͐̽Ö͖́@CryptoWeb9,"Discussion of growth in #ethereum options and derivatives trading. You usually here about CBOE, Bakkt, CME #Bitcoin options but $ETH trades are growing.
often used to hedge bets against #altcoins when they start trading crazy

#blockchain #crypto #cryptocurrency #BTCQuote TweetBeInCrypto@beincrypto · Jan 29, 2020Ethereum Options Trading Benefiting From January Bitcoin Surge http://zpr.io/ty48L",3,3,0,False
22,Jason Fernandes@TokenJay,MetaMask Is Working to Solve Ethereum Transaction Fees https://cryptobriefing.com/metamask-working-solve-ethereum-transaction-fees/?utm_source=dlvr.it&utm_medium=twitter… #Technology #Ethereum #Scaling,1,0,0,False
23,Crypto Briefing@Crypto_Briefing,"Popular #Ethereum wallet @metamask_io is trying to find a solution to transaction fees, looking for ways to allow DApps to cover fees on behalf of users, improving the user experience.MetaMask Is Working to Solve Ethereum Transaction Fees | Crypto BriefingMetaMask is trying to find a solution to Ethereum transaction fees, looking for ways to allow DApps to cover fees on behalf of users.cryptobriefing.com",29,10,1,False
24,Aitor Fuentes - ⟠ ₿@Aitor_lz,"Replying to @Pilvia_Chain and @Pilvia_OfficialGood luck everybody!! 
@Ayzhunter 
@Trixf4Life1 
@tron0holic
#ETH 0x1DEd04611E3B48F620D42bC97f798cb085403f73",1,0,0,False
25,Marxbys@marxbys,"Replying to @Bit_Faced and @JacksonSatoshiV$BSV #BitcoinSV 
BITCOIN SV [BSV] DEVELOPMENT RAPIDLY GROWS TO NEARLY 400 VENTURES & PROJECTS WORLDWIDE! 
$BSV #BTC #ETH #XRP #BCH",2,1,0,False
26,Dirapa@dirapa90," MY THAERIEL - GOD OF LIGHT vs. GOD OF WAR | OCD TOURNAMENT MEMORIES | GODS UNCHAINED 
https://steemit.com/hive-100421/@dirapa/vcwxwjxv…
#steem #steemit #posh #oc #ilovesteem #gaming #blockchain #crypto #3speak #promo #youtube #promotion #bitcoin #cryptocurrency #video #Steam #streaming #ethereum MY THAERIEL - GOD OF LIGHT vs. GOD OF WAR | OCD TOURNAMENT MEMORIES | GODS UNCHAINED  — Steemit Watch on 3Speak Welcome everyone  I'm Daniel ""Dirapa"" &... It's my Thaeriel - God of Light in Gods… by dirapasteemit.com",6,0,0,False
27,RobinHood_Quant@iOptions_Trade,"Replying to @VitalikButerinHow were the $ETH earnings, anything like $TSLA ?GIF",0,0,0,False
28, Crypto Idea @Cryptoldea,"Replying to @CryptoldeaTestFor $POAETH I am thinking #NotFinancialAdvice it is Not a good time to do anything on the Fifteen Minute time frame.
The Typical Price of #POAETH is: 0.00006865 $ETH.
$POA #NFA #DYOR
#CryptoldeaReply",0,0,0,False
29,ThirdBrainFx@thirdbrainfx,"Check all here --> https://thirdbrainfx.com/crypto.html 
On #Coinbase Pro #BTC to #GBP -- > 7180.66, volume --> 972 
On #Hitbtc #DOGE to #USD -- > 0.00239363, volume --> 24980980 
On #Cex.io #ETH to #EUR -- > 158.61, volume --> 516 
On #YoBit #XRP to #RUB -- > 15.05, volume --> 7919",0,0,0,False
30,GetTheCrypto@GetTheCrypto1,#cryptocurrency Crypto Will Change The World  #ETH - 0x3BC690c604d170BB53c155cb66074B4DE1172C36,0,0,0,False
31,Justin Gesso@justin_gesso,One analyst claims that Bitcoin will adapt to altcoin innovations if they're able to increase the cryptocurrency's core value proposition. #ethereum https://beincrypto.com/bitcoin-will-adopt-altcoin-innovations-they-increase-value-proposition-claims-analyst/…,1,0,0,False
32,Cryptocurrencies / EUR@cryptosEUR," Prices update in $EUR (1 hour):

$BTC   - 8465.3 €  (-0.01 %)
$ETH   - 159.14 €  (+0.03 %)
$XRP   - 0.21 €    (-0.04 %)
$BCH   - 348.0 €   (+0.17 %)
$LTC   - 54.6 €    (+0.33 %)

#EUR #Euro #BTC #ETH #XRP #BCH #LTC #Trading #Bitcoin #Ethereum",0,0,0,False
33,Obi@aaaamhim,"$SSI DOWN 64% AFTERHOURS BOUNCER! OVERPANIC#ethereum #startup #MMJ #pennystocks #luxury #RIPPLE #cryptocurrency #busINESS #finance #realestate #fintech #daytrading #trading #stocks #money #crypto #forex #entrepreneur #rolex #ico #fintech #blockchain #bitcoin #BTC #ltc #techQuote TweetOTCMethod.com@KickoStocks · Jan 29, 2020$SSI $1 fills money http://OTCMethod.com, they didn’t read the whole article ",3,1,0,False
34,Priamos@priamosss,"#BTC #ETH #Crypto #Analyst list (open to recommendation )
https://twitter.com/i/lists/944287112123371522?s=20…",0,0,0,False
35,Obi@aaaamhim,"$SSI DOWN 64% AFTERHOURS BOUNCER! OVERPANIC #Blockchain #btc #LTC #bitcoin #startup #elliottwave #MMJ #pennystocks #luxury #RIPPLE #money #trading #cryptocurrency #business #eth #finance #stockmarket #ethereum #tips #fintech #ico #startup #money #investing $FNMA $MRK $MUQuote TweetOTCMethod.com@KickoStocks · Jan 29, 2020$SSI $1 fills money http://OTCMethod.com, they didn’t read the whole article ",1,0,0,False
36,FTX Rekt@RektFtx,"Hourly price Update :
Bitcoin $BTC: 9300.55 $USDT
Ethereum $ETH: 174.87 $USDT",0,0,0,False
37,PRAKHAR GUPTA@PRAKHAR14110175,Requesting faucet funds into 0x9C862ff8c2868fe24f459E7858D7AaD7af44e0ed the #Rinkeby #Ethereum test network,0,0,0,False
38,Woodsy@Woodsy1983,"Stay tuned for major changes coming over the next week. 
We've completely revamped our look. Exciting times in the #SPRKL camp 
@Sparkletoken @XStephenElliott @CoinTigerEX #crypto #btc #eth #ltc #trx #xlm #xrp #bnb #etc #eos #etn #eca #colx #ADA #IOTA #dash #daps #PIVX #ocn",4,2,0,False
39,Benjamin | offchain.fr @offchainfr,"Replying to @AlexintoshI think it's @tokensets  

Use (and possibly create, in the future) simple investment strategies with just an #ETH wallet. In the background, it uses all the bricks of ETH: @MakerDAO, @compoundfinance, @WrappedBTC... without any particular skill. ",0,0,0,False
40,ChairmanDAO@dao_chairman,$eth going ?,1,0,0,False
41,Ben Fischer@BoersenMedien,#Ethereum Classic #ETC jumps 1.04% in one hour. #Cardano #ADA drops -1.47% in one hour. #Stellar #XLM jumps 1.29% in one hour.,0,0,0,False
42,Jocob Wedzik@Dariuszk94,I get 5 million free tokens by joining here #airdrop #airdrops #airdropalert #btc #eth #tokensale –Wrapped 0xEthereum Token0xEthereum Token launches Wrapped 0xEthereum Token(W0xETH) Wrapped 0xEthereum Token backed 1: 1 with...givelab.com,0,0,0,False
43,Marxbys@marxbys,"$BSV #BitcoinSV 
Yahoo Finance: Bitcoin SV [BSV] Development Rapidly Grows to Nearly 400 Ventures & Projects Worldwide #BTC #ETH #XRP #BCH https://finance.yahoo.com/news/bitcoin-sv-bsv-development-rapidly-184400348.html…",89,43,5,False
44,FinTech News Hub@fintechnewshub,"Our featured article for today! Please don't forget to subscribe to our daily newsletter at http://fintechnewshub.com/?edition_id=15fd0870-42f0-11ea-9ec3-0cc47a0d164b… to receive our daily curated #crypto and #blockchain #news.

#bitcoin #btc #ethereum #eth #ripple #xrp #cardano #ada #litecoin #ltc #eos #xlm #trx #dash #iota #xmr50% of US Departments Fell Victim to Ransomware in 2019, Reportbitcoinist.com Over half of all public and private organizations in the US fell victim to ransomware attacks at some point in 2019. Hackers have continued to employ increasingly advanced techniques...fintechnewshub.com",0,0,0,False
