,real,predicted
0,1.0,0.6050049
1,0.0,0.94882816
2,1.0,0.9382514
3,0.0,0.51349956
4,0.0,0.8947068
5,0.0,0.77697957
6,1.0,0.5205092
7,0.0,0.14606887
8,1.0,0.93579704
9,0.0,0.5235458
10,1.0,0.7447643
11,0.0,0.9278087
12,1.0,0.82668394
13,0.0,0.55172545
14,0.0,0.8359695
15,1.0,0.8335458
16,1.0,0.7554439
17,1.0,0.41812518
18,1.0,0.76960206
19,1.0,0.66057616
20,1.0,0.7262376
21,0.0,0.5523107
22,1.0,0.1761188
23,1.0,0.7230059
24,0.0,0.31864616
25,1.0,0.87768024
26,1.0,0.4710594
27,0.0,0.381314
28,0.0,0.9182222
29,0.0,0.86789095
30,0.0,0.72790307
31,1.0,0.75117123
32,1.0,0.7411966
33,0.0,0.86517555
34,0.0,0.83242935
35,0.0,0.96139854
36,1.0,0.35805467
37,1.0,0.09780616
38,1.0,0.63160616
39,0.0,0.65976775
40,1.0,0.2820078
41,1.0,0.5829344
42,1.0,0.68337595
43,0.0,0.7774843
44,0.0,0.77950174
45,0.0,0.9530342
46,1.0,0.52255094
47,1.0,0.50067437
48,0.0,0.75760865
49,1.0,0.9398708
50,0.0,0.32059908
51,1.0,0.86875737
52,1.0,0.7016812
53,1.0,0.7483474
54,1.0,0.7290589
55,0.0,0.46041468
56,1.0,0.51012725
57,0.0,0.66115594
58,1.0,0.9074691
59,1.0,0.8303798
60,0.0,0.6795452
61,1.0,0.7698764
62,1.0,0.75087863
63,1.0,0.665743
64,0.0,0.31062436
65,1.0,0.6902839
66,0.0,0.8659108
67,1.0,0.8424284
68,1.0,0.5875268
69,0.0,0.62674505
70,0.0,0.81010085
71,1.0,0.83387977
72,0.0,0.47091386
73,0.0,0.7699014
74,0.0,0.88163084
75,1.0,0.58970284
76,0.0,0.8148657
77,1.0,0.68638057
78,1.0,0.8417721
79,0.0,0.504295
80,0.0,0.7393292
81,0.0,0.5120426
82,0.0,0.45375243
83,1.0,0.54917645
84,1.0,0.8213727
85,0.0,0.7451766
86,1.0,0.71412414
87,0.0,0.693219
88,0.0,0.43658936
89,1.0,0.53393763
90,0.0,0.5684761
91,1.0,0.5073501
92,0.0,0.74947095
93,1.0,0.7245825
94,0.0,0.5858955
95,0.0,0.46280295
96,0.0,0.3710262
97,1.0,0.79528445
98,0.0,0.7280436
99,1.0,0.72924846
100,0.0,0.6555025
101,0.0,0.7223022
102,0.0,0.7143435
103,1.0,0.58300805
104,1.0,0.48014843
105,0.0,0.6607644
106,1.0,0.5694417
107,1.0,0.6676959
108,1.0,0.77029663
109,1.0,0.60867846
110,1.0,0.5525837
111,1.0,0.2078988
112,1.0,0.38895753
113,0.0,0.4207758
114,1.0,0.5556062
115,1.0,0.621132
116,1.0,0.6573154
117,1.0,0.58881944
118,0.0,0.4775467
119,1.0,0.779236
120,1.0,0.17522173
121,1.0,0.7207728
122,0.0,0.3539482
123,0.0,0.3360171
124,1.0,0.92588633
125,0.0,0.66323864
126,1.0,0.7068084
127,0.0,0.8994256
128,1.0,0.814208
129,1.0,0.5513766
130,1.0,0.7443907
131,0.0,0.5452965
132,1.0,0.73788416
133,0.0,0.30677387
134,0.0,0.9520159
135,0.0,0.68553334
136,1.0,0.5691952
137,0.0,0.81301486
138,1.0,0.84110665
139,0.0,0.71629745
140,1.0,0.74953353
141,0.0,0.7608962
142,1.0,0.8897064
143,0.0,0.38086292
144,1.0,0.95069826
145,1.0,0.8350505
146,1.0,0.7424094
147,1.0,0.594312
148,1.0,0.5274544
149,0.0,0.3776206
150,0.0,0.6479204
151,1.0,0.98130244
152,0.0,0.20411628
153,1.0,0.57406926
154,0.0,0.2679626
155,0.0,0.16331759
156,1.0,0.7837927
157,1.0,0.8484828
158,1.0,0.6472629
159,1.0,0.3312287
160,0.0,0.7940778
161,1.0,0.76458406
162,0.0,0.78074765
163,1.0,0.82059646
164,1.0,0.802977
165,0.0,0.7158177
166,1.0,0.77294624
167,0.0,0.89301854
168,0.0,0.7384261
169,1.0,0.7342584
170,0.0,0.3479933
171,1.0,0.72467303
172,1.0,0.9547211
173,1.0,0.7985276
174,1.0,0.8978179
175,0.0,0.79891515
176,1.0,0.68824863
177,1.0,0.7387587
178,0.0,0.9015423
179,0.0,0.7798092
180,1.0,0.66126424
181,1.0,0.7938898
182,1.0,0.49466392
183,0.0,0.7361901
184,1.0,0.68842643
185,1.0,0.6569821
186,1.0,0.41550884
187,1.0,0.6104925
188,1.0,0.7965642
189,1.0,0.53240526
190,0.0,0.7755319
191,0.0,0.6649958
192,0.0,0.84438944
193,0.0,0.36647072
194,1.0,0.85882425
