,real,predicted
0,1.0,1.0
1,0.0,1.0
2,1.0,1.0
3,0.0,0.0
4,0.0,0.0
5,0.0,1.0
6,1.0,1.0
7,0.0,1.0
8,1.0,1.0
9,0.0,1.0
10,1.0,1.0
11,0.0,1.0
12,1.0,1.0
13,0.0,0.0
14,0.0,0.0
15,1.0,1.0
16,1.0,1.0
17,1.0,1.0
18,1.0,1.0
19,1.0,1.0
20,1.0,1.0
21,0.0,1.0
22,1.0,1.0
23,1.0,1.0
24,0.0,1.0
25,1.0,1.0
26,1.0,7.568993e-36
27,0.0,0.0
28,0.0,1.0
29,0.0,1.0
30,0.0,1.0
31,1.0,1.0
32,1.0,1.0
33,0.0,0.00070578547
34,0.0,1.0
35,0.0,1.0
36,1.0,0.0
37,1.0,0.0
38,1.0,0.0
39,0.0,1.0
40,1.0,1.0
41,1.0,1.0
42,1.0,1.0
43,0.0,1.0
44,0.0,1.0
45,0.0,1.0
46,1.0,1.0
47,1.0,4.0749223e-34
48,0.0,3.343805e-19
49,1.0,1.0
50,0.0,1.0
51,1.0,1.0
52,1.0,1.0
53,1.0,1.0
54,1.0,0.01934894
55,0.0,1.0
56,1.0,1.0
57,0.0,3.4868237e-11
58,1.0,0.99999905
59,1.0,1.1575331e-20
60,0.0,0.0
61,1.0,1.0
62,1.0,1.0
63,1.0,1.0
64,0.0,1.0
65,1.0,1.0
66,0.0,0.9999728
67,1.0,1.0
68,1.0,0.0
69,0.0,1.2474413e-33
70,0.0,0.0
71,1.0,1.0
72,0.0,1.0
73,0.0,1.0
74,0.0,1.0
75,1.0,1.0
76,0.0,1.0
77,1.0,1.0
78,1.0,1.0
79,0.0,1.0
80,0.0,1.0
81,0.0,1.0
82,0.0,1.6571012e-07
83,1.0,1.0
84,1.0,1.0
85,0.0,1.0
86,1.0,2.2194249e-09
87,0.0,5.121871e-12
88,0.0,3.4114765e-17
89,1.0,1.0
90,0.0,1.0
91,1.0,1.0
92,0.0,1.0
93,1.0,1.0
94,0.0,4.73445e-10
95,0.0,0.9986166
96,0.0,1.0
97,1.0,1.0
98,0.0,1.0
99,1.0,1.0
100,0.0,1.0
101,0.0,1.0
102,0.0,1.0
103,1.0,1.0
104,1.0,1.0
105,0.0,1.0
106,1.0,1.0
107,1.0,1.0
108,1.0,1.0
109,1.0,1.0
110,1.0,2.428612e-18
111,1.0,1.0
112,1.0,1.0
113,0.0,1.0
114,1.0,1.0
115,1.0,1.0
116,1.0,2.7140592e-19
117,1.0,1.0
118,0.0,1.0
119,1.0,1.0
120,1.0,1.0
121,1.0,0.0
122,0.0,5.3131403e-19
123,0.0,1.0
124,1.0,1.0
125,0.0,1.0
126,1.0,1.0
127,0.0,3.9017843e-32
128,1.0,1.0
129,1.0,4.95665e-09
130,1.0,1.0
131,0.0,1.0
132,1.0,1.0
133,0.0,0.0
134,0.0,1.0
135,0.0,1.0
136,1.0,1.0
137,0.0,1.0
138,1.0,1.0
139,0.0,0.0
140,1.0,0.9972806
141,0.0,3.8807386e-07
142,1.0,1.0
143,0.0,0.0
144,1.0,1.0
145,1.0,2.3557002e-08
146,1.0,1.0
147,1.0,1.0
148,1.0,1.0
149,0.0,1.0
150,0.0,1.0
151,1.0,1.0
152,0.0,0.0
153,1.0,1.0
154,0.0,0.0
155,0.0,0.0
156,1.0,1.0
157,1.0,1.0
158,1.0,1.0
159,1.0,1.0
160,0.0,1.0
161,1.0,1.0
162,0.0,1.0
163,1.0,1.0
164,1.0,1.0
165,0.0,1.0
166,1.0,1.0
167,0.0,1.0
168,0.0,0.9998166
169,1.0,1.0
170,0.0,0.0
171,1.0,1.0
172,1.0,1.0
173,1.0,0.0
174,1.0,1.0
175,0.0,1.0
176,1.0,1.0
177,1.0,1.0
178,0.0,1.0
179,0.0,1.0
180,1.0,1.0
181,1.0,1.0
182,1.0,0.9999999
183,0.0,3.7619407e-17
184,1.0,1.0
185,1.0,1.0
186,1.0,1.0
187,1.0,1.0
188,1.0,1.0
189,1.0,0.99998844
190,0.0,1.0
191,0.0,1.0
192,0.0,1.0
193,0.0,1.0
194,1.0,1.0
