,real,predicted
0,1.0,0.52550477
1,0.0,0.48920926
2,1.0,0.52723145
3,0.0,0.49898598
4,0.0,0.5410468
5,0.0,0.52153164
6,1.0,0.5274132
7,0.0,0.51599276
8,1.0,0.506037
9,0.0,0.5184805
10,1.0,0.51203525
11,0.0,0.4908191
12,1.0,0.5262101
13,0.0,0.5036194
14,0.0,0.5031314
15,1.0,0.49679783
16,1.0,0.5432054
17,1.0,0.51965135
18,1.0,0.527062
19,1.0,0.5106677
20,1.0,0.52040046
21,0.0,0.49393246
22,1.0,0.51699567
23,1.0,0.5209333
24,0.0,0.48218066
25,1.0,0.5231241
26,1.0,0.51373714
27,0.0,0.5030272
28,0.0,0.5130355
29,0.0,0.5390742
30,0.0,0.51168436
31,1.0,0.5006947
32,1.0,0.49921957
33,0.0,0.5069316
34,0.0,0.5324914
35,0.0,0.5294995
36,1.0,0.4999522
37,1.0,0.5149228
38,1.0,0.5065604
39,0.0,0.4944926
40,1.0,0.49280277
41,1.0,0.5119998
42,1.0,0.52275145
43,0.0,0.54121614
44,0.0,0.51132226
45,0.0,0.4949925
46,1.0,0.5052559
47,1.0,0.51658446
48,0.0,0.511762
49,1.0,0.525599
50,0.0,0.4881392
51,1.0,0.50181925
52,1.0,0.5020674
53,1.0,0.506959
54,1.0,0.50569975
55,0.0,0.49105108
56,1.0,0.511825
57,0.0,0.50024587
58,1.0,0.53463006
59,1.0,0.51842463
60,0.0,0.5123927
61,1.0,0.5234363
62,1.0,0.50937176
63,1.0,0.505186
64,0.0,0.49204895
65,1.0,0.52172893
66,0.0,0.49340516
67,1.0,0.5076506
68,1.0,0.5220324
69,0.0,0.506706
70,0.0,0.5121964
71,1.0,0.5014276
72,0.0,0.50473493
73,0.0,0.50910544
74,0.0,0.5120301
75,1.0,0.49950957
76,0.0,0.5078371
77,1.0,0.50024265
78,1.0,0.5131892
79,0.0,0.49939528
80,0.0,0.5257111
81,0.0,0.51611656
82,0.0,0.5101269
83,1.0,0.5125239
84,1.0,0.49435037
85,0.0,0.4807024
86,1.0,0.50363344
87,0.0,0.5039501
88,0.0,0.5050341
89,1.0,0.5143792
90,0.0,0.5119544
91,1.0,0.49180454
92,0.0,0.4989837
93,1.0,0.5183042
94,0.0,0.5149311
95,0.0,0.5444728
96,0.0,0.51760215
97,1.0,0.5462778
98,0.0,0.49080527
99,1.0,0.5325276
100,0.0,0.51581544
101,0.0,0.5164756
102,0.0,0.5023334
103,1.0,0.49785748
104,1.0,0.48955652
105,0.0,0.49160638
106,1.0,0.5164275
107,1.0,0.49483955
108,1.0,0.5080836
109,1.0,0.517457
110,1.0,0.51703304
111,1.0,0.50505936
112,1.0,0.5052383
113,0.0,0.51089704
114,1.0,0.520442
115,1.0,0.50540537
116,1.0,0.4934747
117,1.0,0.50776756
118,0.0,0.4928718
119,1.0,0.51606697
120,1.0,0.50038236
121,1.0,0.53437126
122,0.0,0.53106076
123,0.0,0.501796
124,1.0,0.5421546
125,0.0,0.4925036
126,1.0,0.5159851
127,0.0,0.4786591
128,1.0,0.50456303
129,1.0,0.5237543
130,1.0,0.49673817
131,0.0,0.508827
132,1.0,0.5453409
133,0.0,0.50365335
134,0.0,0.5199953
135,0.0,0.5124057
136,1.0,0.5027313
137,0.0,0.4819014
138,1.0,0.5277992
139,0.0,0.50589126
140,1.0,0.5033154
141,0.0,0.50809306
142,1.0,0.5009037
143,0.0,0.5120173
144,1.0,0.52256954
145,1.0,0.51142704
146,1.0,0.4917921
147,1.0,0.5086086
148,1.0,0.49405918
149,0.0,0.5213842
150,0.0,0.51714915
151,1.0,0.5210574
152,0.0,0.5300726
153,1.0,0.5093442
154,0.0,0.5129501
155,0.0,0.51314074
156,1.0,0.4799045
157,1.0,0.49180976
158,1.0,0.5077525
159,1.0,0.5101065
160,0.0,0.54486006
161,1.0,0.5417136
162,0.0,0.48495197
163,1.0,0.5216055
164,1.0,0.52761114
165,0.0,0.49834242
166,1.0,0.5230131
167,0.0,0.4985392
168,0.0,0.5173624
169,1.0,0.5235567
170,0.0,0.5194829
171,1.0,0.5007548
172,1.0,0.5021729
173,1.0,0.52423257
174,1.0,0.50988996
175,0.0,0.49519154
176,1.0,0.51798534
177,1.0,0.50439435
178,0.0,0.5115345
179,0.0,0.5128355
180,1.0,0.5082618
181,1.0,0.5031939
182,1.0,0.5012073
183,0.0,0.5107032
184,1.0,0.5275616
185,1.0,0.51475847
186,1.0,0.5008624
187,1.0,0.5082285
188,1.0,0.51333547
189,1.0,0.507012
190,0.0,0.48375848
191,0.0,0.52292484
192,0.0,0.50183
193,0.0,0.51508373
194,1.0,0.50598884
