,user,text,likes,retweets,replies,is_thread
0,Denny McEnroe@McEnroeDenny,Re: There will be enthusiasm.  Expect it. http://cur.lv/vmc0p #bitcoin #crypto,0,0,0,False
1,Denny McEnroe@McEnroeDenny,Re: Bit3000's [Amazon Refund Service] [Cheap] [Ultra Safe] JUST 5% http://cur.lv/vmc0o #bitcoin #crypto,0,0,0,False
2,Denny McEnroe@McEnroeDenny,Re: Is the number of available bitcoins decreasing? http://cur.lv/vmc0n #bitcoin #crypto,0,0,0,False
3,Denny McEnroe@McEnroeDenny,Re: INCREASED PAYOUT(7/13) ۩۞۩ http://secondstrade.com ★signature campaign★upto 0.0006/post http://cur.lv/vmc0k #bitcoin #crypto,0,0,0,False
4,waystomakesite.com@SagorMamun,"Lisa786352931: RT equalpumps: The spectacular #crypto SHOW!
#Africa #Germany #UnitedStates
> … https://pic.twitter.com/lv6rujIpqw",1,1,0,False
5,CryptoRSS@CryptoRSS,"New Trojan Xbot A Swiss-Army Knife Of Malicious Features: Malware can steal banking and card info, enc... http://bit.ly/1SFStn7 #crypto",0,0,0,False
6,CCN - Capital & Celeb News@CapitalAndCeleb,Asia’s Largest Stock Exchange Operator Partners IBM for Blockchain A https://cryptocoinsnews.com/asias-largest-stock-exchange-operator-partners-ibm-blockchain-applications/… #cryptocurrency,7,0,0,False
7,Paul DL@Paul_Dan,"""Locky"" #crypto #ransomware rides in on #malicious #Word document #macro. #IT #security #cybersecurity http://arstechnica.com/security/2016/02/locky-crypto-ransomware-rides-in-on-malicious-word-document-macro/…",1,0,0,False
8,cryptinsight@cryptinsight,20 Cybersecurity Startups To Watch In 2016 #Security #Startups #Forensics #Crypto #Risk #CSuite http://darkreading.com/endpoint/20-cybersecurity-startups-to-watch-in-2016/d/d-id/1324338…,0,0,0,False
9,HYPER Crypto@HyperCrypto,Read the $HYPER goals and strategy document at: http://goo.gl/cMiHbf?tZRt #bitcoin #gaming #cryptocurrency #fintech #CSGO #TF2 #WoW #crysis,4,2,0,False
10,Crypto Yoyo@cryptoyoyo,Inside Bloq's Bid to Bring Bitcoin's Code to Enterprise Businesses http://bit.ly/1SFQdw8 #bitcoin #crypto #news,0,0,0,False
11,Crypto Yoyo@cryptoyoyo,Locky Bitcoin Ransomware Targets Major Institutions And Companies http://bit.ly/1PY6WVT #bitcoin #crypto #news,0,0,0,False
12,Crypto Yoyo@cryptoyoyo,Bitcoin Regulation: SEC Calls Mining Contracts 'Securities' http://bit.ly/1SFQdfQ #bitcoin #crypto #news,0,0,0,False
13,john papadakis@jonhs22,Win 10 #bitcoin from @MinerGate by participating in the API challenge! #developer #cryptocurrency #MinerGateApi https://minergate.com/contest-api,1,0,0,False
14,Cryptolized™@Cryptolized,Bitcoin Businesses Resilient Despite Price Fluctuations http://twib.in/l/zGE86pqEKyx #cryptocurrency | https://twibble.io,0,0,0,False
15,Eloi Noya@EloiNoya,It's time to start taking #bitcoin serioulsy http://a.msn.com/00/en-us/BBpH06C?ocid=st… #cryptocurrency #fintech #blockchain,2,0,0,False
29,vikrant gupta@Vikrant_ST,Keywords turned in to Digital Assets  #bitcoin #Advertising #crypto #cryptocurrency #invest https://linkedin.com/pulse/keywords-turned-digital-assets-httpswwwsearchtradecom-vikrant-gupta…,3,4,1,False
30, Dr John  #BLM + @jp_dutch,"#ParisAttacks used plain text communication
Most were known to #French & #Belgian #intel
#crypto wasn't the #problemQuote TweetunR̶A̶D̶A̶C̶K̶ted@JesselynRadack · Feb 19, 2016THIS WK:
#CIA sez cudn't stop #ParisAttacks bc of #encryption
#FBI sez encryption limits #SanBernardino inv'n
#NoCoincidence
#FearMongering",0,0,0,False
31,Altsheets Dev@altsheets,"#AltFolio by #AltSheets #crypto software
is ""Affiliate of the Day""
https://bitcointalk.org/index.php?topic=978804.msg13943455#msg13943455…
at SaLuS coin $SLS RT.Thx",2,2,0,False
32,VeriCoin@VeriCoin,Doug is back. Enjoy your weekend and see everyone next week! ;) Thanks for all the support guys! #VeriCoin #Community #Crypto $VRC,10,10,1,False
33,Bitcoin Hourly@bitcoin_hourly,"Price Update: 1 #Bitcoin = $418.9000

#cryptocurrency source http://yhoo.it/1PH2nON (via @Flutter_HQ)",0,0,0,False
34,LocalDayz@localdayz,#auroracoin Download wallet https://github.com/aurarad/auroracoin… and Join the pool on http://pool.laintimes.com #cryptocurrencyaurarad/AuroracoinCurrent Auroracoin source tree. Contribute to aurarad/Auroracoin development by creating an account on GitHub.github.com,0,0,0,False
35,EUROPECOIN  (.eu.org)@europecoinEUORG,@Bitcoin_Rush YEAH POPCORN-READY-SET-GOOO! #crypto #fintech #altcoin #bitcoin #bittrex https://youtu.be/lYJFx4ArD0U,9,7,0,False
36,NE Patriots Dynasty@NEPatsDynasty,What if? http://ilgamosilcoin.com/ilgamos-ilcoin.html… the power of money.  #Money #HomeBusiness #Trading #crypto Register FREE,0,0,0,False
37,GravityCoin - [ Not giving away any ETH ]@GravityCoin_GXX,@ #little #update #currentstatus old code will not be #Updated anymore. Only the #swap @ #cryptocurrency #blockchain #Fintech2016 #hexx #ip,1,0,0,False
38,Team 300FPS ︻╦̵̵̿╤─@300FPSGAMING,Inside Bloq’s Bid to Bring Bitcoin&#039;s Code to Enterprise Businesses http://bit.ly/1UcWMFX #bitcoin #bitcoinnews #btc #cryptocurrency,0,0,0,False
39,Alejandro Sewrjugin@alesew23,#Bitcoin Inside Bloq’s Bid to Bring Bitcoin's Code to Enterprise Businesses http://bit.ly/1QP9jtW #Tech #Crypto,1,0,0,False
40,Ali Güçlü@aliguclu,"CryptoCoinsNews : Bitcoin Price Hovering At $400 https://cryptocoinsnews.com/bitcoin-price-hovering-at-400/… #cryptocurrency … https://twitter.com/CryptoCoinsNews/status/700809102243536896…)Quote TweetCCN - Capital & Celeb News@CapitalAndCeleb · Feb 19, 2016Bitcoin Price Hovering At $400 https://cryptocoinsnews.com/bitcoin-price-hovering-at-400/… #cryptocurrency",0,0,0,False
41,CCN - Capital & Celeb News@CapitalAndCeleb,Ethereum Alternative Lisk Announces ICO With ShapeShift – New Open Source D https://cryptocoinsnews.com/ethereum-alternative-lisk-announces-ico-with-shapeshift-new-open-source-dapp-sidechain-platform/… #cryptocurrency,5,7,1,False
42,Salem Sarieddine@AKASales,Replying to @geekwire@geekwire @realDonaldTrump YOU.DONT.KNOW.WHAT.YOURE.TALKING.ABOUT. <period> #Leaders listen to #Experts. #InfoSec #Crypto #IOS #BadMove,1,0,0,False
43,Denny McEnroe@McEnroeDenny,Re: Can't believe i was able to register this bitcoin domain http://cur.lv/vm9q6 #bitcoin #crypto,0,0,0,False
44,Denny McEnroe@McEnroeDenny,Re: Best selling PSN accounts PS4 and PS3. New games and collections http://cur.lv/vm9q5 #bitcoin #crypto,0,0,0,False
45,Denny McEnroe@McEnroeDenny,"Re: If bitcoin price is $10.000, will fiat be worthless? http://cur.lv/vm9q4 #bitcoin #crypto",0,0,0,False
46,Denny McEnroe@McEnroeDenny,Re: Wall Observer BTC/USD - Bitcoin price movement tracking & discussion http://cur.lv/vm9q3 #bitcoin #crypto,0,0,0,False
47,Defi@DefiFreakyBoo,"So powerful movie ...
#defi #defibitch #bigeyes2014 #bigeyes #timburton #margaretkeane… https://instagram.com/p/BB_Bd03lJLh/",0,0,0,False
48,CCN - Capital & Celeb News@CapitalAndCeleb,Bitcoin Price Hovering At $400 https://cryptocoinsnews.com/bitcoin-price-hovering-at-400/… #cryptocurrency,4,0,0,False
49,CaptainD@IndieGameNews1,"Altcoin News: Snake now eats GoldPieces too:
http://altcoinnews2016.blogspot.com/2016/02/snake-now-eats-goldpieces-too.html…
@HyperCrypto @GPCoin #Altcoins @prodjkc",1,0,0,False
50,Shaukat Mahmood@shaukat_m_ahmad,"John #McAfee will  #BreakIPhoneOrEatShoe for #FBI on #LiveTvShow
#iPhone #crypto #security #hacker #backdoor #iOS http://arstechnica.com/staff/2016/02/mcafee-will-break-iphone-crypto-for-fbi-in-3-weeks-or-eat-shoe-on-live-tv/…",0,0,0,False
51,David Liam@crazydaveorama,Insolvency Claims over VOX Holdings Draws Quick Response from Uphold #fintech #cryptocurrency https://cryptocoinsnews.com/insolvency-claims-vox-holdings-draws-quick-response-uphold/… via @CryptoCoinsNews,1,0,0,False
52,David Liam@crazydaveorama,A #Dogecoin Pump-And-Dump To Start 2016 #altcoin #cryptocurrency https://cryptocoinsnews.com/a-dogecoin-pump-and-dump/… via @CryptoCoinsNews,1,0,0,False
53,Julia Vaingurt@julia_vaingurt,"Feb 23rd #Manila #Philippines #Business Leaders #Seoul Feb 26th http://cur.lv/vm9ej
#Money #Crypto #Bitcoin",0,0,0,False
54,NE Patriots Dynasty@NEPatsDynasty,Feb 23rd #Manila #Philippines #Business Leaders #Seoul Feb 26th http://ilgamosilcoin.com/up-coming-events.html… #Money #Crypto #Bitcoin,0,0,0,False
55,David Liam@crazydaveorama,"College #Cryptocurrency Network Rebrands to #Blockchain #Education Network, Expands Worldwide https://bitcoinmagazine.com/articles/college-cryptocurrency-network-rebrands-to-blockchain-education-network-expands-worldwide-1455904096… via @BitcoinMagazine",1,0,0,False
56,Crypto Yoyo@cryptoyoyo,How to Cut Electricity Bills? With Bitcoin Tech of Course http://bit.ly/213INb1 #bitcoin #crypto #news,0,0,0,False
57,Qbit Federation@QbitFederation,What are Qbits? http://qbitfederation.org/blog/what-are-qbits.html… #blockchain #cryptocurrency #bitcoin,0,0,0,False
58,Load Debit Card@LoadDebitCard,Here’s why you have to start taking bitcoin seriously http://on.mktw.net/1Q4YLdL #Bitcoin #Btc #Altcoins,1,0,0,False
59,Julia Vaingurt@julia_vaingurt,Current #CBX Value is as following: 0.00069 #bitcoin #cryptocurrency 2016-02-19 22:14 http://cur.lv/vm918,0,0,0,False
60,Load Debit Card@LoadDebitCard,Litecoin Debit Card #Litecoin to #debitcard with 40+ #altcoins at #LoadDebitCard #Bitcoin http://bit.ly/debitnow,1,0,0,False
61,Salem Sarieddine@AKASales,@FBI should TOTALLY get #crypto keys to #Apple. If you disagree read this article about how great their #InfoSec is http://motherboard.vice.com/read/hacker-publishes-personal-info-of-20000-fbi-agents…,0,0,0,False
69,FinTech Summary@FinTechSummary,Blythe Masters: Regulators Interested in #Blockchain Tech - CCN: Financial #Bitcoin & #Cryptocurrency News http://buff.ly/1owsBxI #FinTech,1,0,0,False
70,Fintech Prowler@FintechProwler,Australian Political Party Aims to Reinvent Democracy with Blockchain Tech - The Merkle (blog) http://ift.tt/1KvZ94I #altcoin,0,0,0,False
71,Bitcoin Hourly@bitcoin_hourly,"Price Update: 1 #Bitcoin = $418.6000

#cryptocurrency source http://yhoo.it/1PH2nON (via @Flutter_HQ)",0,0,0,False
72,XBTFreelancer.com@XBTFreelancer,Online mystery shopper - repost8 #crypto #bitcoin #career #freelancer http://xbtfreelancer.com/prj/914/online-mystery-shopper… ฿0.358,0,0,0,False
73,notsofast@notsofast,Ant & Drone remain upstanding folks in the #cryptocurrency community. Hope Empo sells to a good buyer. Hodl yr $XEMP https://twitter.com/EmpoExchange/status/700795305592094721…This Tweet is unavailable.,2,1,0,False
75,Team 300FPS ︻╦̵̵̿╤─@300FPSGAMING,Locky Bitcoin Ransomware Targets Major Institutions And Companies http://bit.ly/1oyvnCJ #bitcoin #bitcoinnews #btc #cryptocurrency,3,0,0,False
76,Null TX@nulltxnews,Locky Bitcoin Ransomware Targets Major Institutions And Companies http://goo.gl/OwCNni #bitcoin #bitcoinnews #btc #cryptocurrency,2,5,0,False
77,Bitcoin Hourly@bitcoin_hourly,"Price Update: 1 #Bitcoin = $418.7900

#cryptocurrency source http://yhoo.it/1PH2nON (via @Flutter_HQ)",0,0,0,False
78,JΞSSΞ ℂOUℂH@jessecouch,Replying to @TheSharkDaymond@TheSharkDaymond @ABCSharkTank @kevinolearytv @mcuban @robertherjavec @sacca When will you have a #blockchain tech company on? #crypto,6,0,0,False
79,CryptoRSS@CryptoRSS,"Call For Stories: User Uploads and Takedown Abuse: 

EFF is filing public comments on a series of stu... http://bit.ly/1oQcYkP #crypto",0,0,0,False
80,Fintech Prowler@FintechProwler,Bitcoin Regulation: SEC Calls Mining Contracts 'Securities' - CoinJournal (blog) http://ift.tt/1QqYgqi #altcoin,1,0,0,False
81,Bean Cash@BeanCash_BEAN,$BITB #altcoin #bitcoin Winner of #BitBean 1st Birthday Photo Contest JackPot published: http://BitBean.org/news.html,1,1,0,False
82,GridcoinNetwork@GridcoinNetwork,"Team #Gridcoin nets 6,656,604,093 #Boinc credits on 2016-02-19! 3rd Best Day Ever! http://boincstats.com/en/stats/-1/team/detail/118094994/bestxdays… #fintech #cryptocurrency #crypto",1,0,0,False
83,Team 300FPS ︻╦̵̵̿╤─@300FPSGAMING,Bitcoin Price Passes $420 Mark Amid Institutional Attention http://bit.ly/1oyrIor #bitcoin #bitcoinnews #btc #cryptocurrency,3,0,0,False
84,Christopher Haupt@chaupt,"I love #history, so this is awesome on a meta level. Who would have thunk that we'd be having deep tech discussion about a 1789 law? #crypto",0,0,0,False
85,Alejandro Sewrjugin@alesew23,#Bitcoin Bitcoin Price Passes $420 Mark Amid Institutional Attention http://bit.ly/1QORPOf #Tech #Crypto,0,0,0,False
86,Cyber Security Daily News@CyberSecDN,How White Hat Hackers Stole #Crypto Keys from an Offline Laptop in Another Room http://motherboard.vice.com/read/how-white-hat-hackers-stole-crypto-keys-from-an-offline-laptop-in-another-room… #Hackers via @SecurityNewsbot,0,0,0,False
87,Jeffrey@wagnerfutures,"https://youtube.com/watch?v=cs8OONYf26A… Awesome video showing #Bitcoin and #Altcoin wallets. @TheDailyDecryptMulti-Currency Wallets: What They Do & Which is BestWeb and mobile wallets which support multiple cryptocurrencies make it easy to try a new coin out, or to keep small balances of multiple currencies in one ea...youtube.com",1,0,0,False
88,WARP@warpcoin,"Less than a month after our release, we are already testing the VPN client! #GoodNews #Altcoin #Bitcoin #StayTuned",8,7,0,False
89,BlockChannel@BlockChannel,BCN News: themerklenews: Cryptocompare Review http://goo.gl/rEE3P6 #bitcoin #bitcoinnews #btc #cryptocurrencyCryptocompare ReviewThere are plenty of companies active in the world of Bitcoin and digital currency who want to bring statistical details and real-time exchange rates tot he community. While every site offers somethingthemerkle.com,0,0,0,False
90,Fintech Prowler@FintechProwler,Cryptocompare Review - The Merkle (blog) http://ift.tt/21euaOz #altcoin,0,0,0,False
91,Crypto Yoyo@cryptoyoyo,"Insufficient Backups, Not Bitcoin, at Fault as Hollywood Hospital's Data Held Ransom by Hackers http://bit.ly/1mMGTZs #bitcoin #crypto #…",0,0,0,False
92,Crypto Yoyo@cryptoyoyo,The week bitcoin went all tabloid http://bit.ly/1UcHUYe #bitcoin #crypto #news,0,0,0,False
93,Crypto Yoyo@cryptoyoyo,Bitnation Launches World's First Blockchain-Based Virtual Nation Constitution http://bit.ly/1mMGTZo #bitcoin #crypto #news,1,0,0,False
94,BitcoinAgile@bitcoinagile,CORE Welcomes New Team Member Testdruif #CORE #nxt #btc #crypto #blockchain #tech http://bit.ly/1mMGJ4f,1,2,0,False
95,Martin (mx)@Ergobug,#CORE Welcomes New Team Member Testdruif http://coremedia.info/index.php/bitcoin-2-0/item/222-core-welcomes-new-team-member-testdruif… #nxt #btc #crypto #blockchain #tech #fintech #news,11,2,2,False
97,NE Patriots Dynasty@NEPatsDynasty,#CryptoCurrency is the future of #Money and Payments with NO FEES. Become a new Partner in ILGAMOS. Join FREE. http://GoldNews.ILGamos.com,1,0,0,False
98,Julia Vaingurt@julia_vaingurt,"OpenLedger Lets you Create Cryptocurrencies Backed With Real-World http://cur.lv/vm5b6
#bitcoin #bitcoinnews #btc #cryptocurrency",0,0,0,False
99,Team 300FPS ︻╦̵̵̿╤─@300FPSGAMING,OpenLedger Lets you Create Cryptocurrencies Backed With Real-World http://bit.ly/1QOPvqs #bitcoin #bitcoinnews #btc #cryptocurrency,1,2,0,False
100,Team 300FPS ︻╦̵̵̿╤─@300FPSGAMING,OpenLedger Lets you Create Cryptocurrencies Backed With Real-World http://bit.ly/1QOPsev #bitcoin #bitcoinnews #btc #cryptocurrency,1,2,0,False
101,Team 300FPS ︻╦̵̵̿╤─@300FPSGAMING,Cryptocompare Review http://bit.ly/1QOPrXI #bitcoin #bitcoinnews #btc #cryptocurrency,1,0,0,False
102,Null TX@nulltxnews,Cryptocompare Review http://goo.gl/rEE3P6 #bitcoin #bitcoinnews #btc #cryptocurrencyCryptocompare ReviewThere are plenty of companies active in the world of Bitcoin and digital currency who want to bring statistical details and real-time exchange rates tot he community. While every site offers somethingthemerkle.com,2,3,0,False
103,x0rz@x0rz,"""I am temporarily suspending the Cryptocat service"" https://crypto.cat #crypto",1,0,0,False
104,Defi@DefiFreakyBoo,"Movie nighttt! 
#defi #defibitch #bigeyes #bigeyes2014 #timburton #movienight #bae… https://instagram.com/p/BB-wOoQFJJG/",0,0,0,False
105,Bitcoin Hourly@bitcoin_hourly,"Price Update: 1 #Bitcoin = $418.4000

#cryptocurrency source http://yhoo.it/1PH2nON (via @Flutter_HQ)",0,0,0,False
106,"David Landsman Consulting, LLC@D_Landsman","European Union Plans Imminent Regulation of #Digital #Currency Exchanges...
http://goo.gl/hZIl5x
#NMTA #regulation #cryptocurrency #AML",0,0,0,False
107,TechFlavor@techflavor,"Blockchain-Powered Smart Plug Could Save Electric Costs http://techflavor.io/1KvCWDW via @bitcoinist
#bitcoinrush #crypto #fintech",1,0,0,False
108,Алекс Мел@almel110,I just joined the Altcoin Revolution and got Free Coins @altcoinrev #bitcoin #litecoin #dogecoin #cryptocurrency http://bit.ly/1eiyBF5,1,0,0,False
109,ant@ThisIsNuse,Make your #altcoin life trading easier. $BTC #BTC Coinigy - Professional Tools For Cryptocurrency TradersCoinigy - Professional Bitcoin & Cryptocurrency Trading PlatformTake your bitcoin trading to the next level! Coinigy is your all-in-one platform for digital currency. Trade on 45+ of the most popular bitcoin exchanges from one secure account on both desktop and...coinigy.com,12,10,0,False
110,Matthias Šubik@m0yellow,"poster for @iang_fc, and all the others who tell this #crypto story again and again and again.Quote Tweet Ąż 杏@angealbertini · Jan 25, 2016A history of hard choices
https://imgur.com/tCuu23t
minor fix by @doegox",2,1,0,False
111,Coin Tiny@CoinTiny,Ethereum Price Technical Analysis – Sellers Watch Out - NEWSBTC #CryptoCurrency #Crypto,0,0,0,False
112,Coin Tiny@CoinTiny,"Chip Chap Adds 4,000 Polish ATMs to Its Global Network #CryptoCurrency #Crypto",0,0,0,False
113,Coin Tiny@CoinTiny,"Scotcoin continues to grow despite ""no"" vote on Scotland's independence #CryptoCurrency #Crypto",0,0,0,False
114,Coin Tiny@CoinTiny,"Ethereum Price Technical Analysis – Sell Target Achieved, Now What? - NEWSBTC #CryptoCurrency #Crypto",0,0,0,False
115,BitScan@bitscanner,Chinese Central Bank Goes Full Steam Ahead with its Own #Cryptocurrency http://ow.ly/YuYhY #china,1,1,0,False
116,AlertCo.in@AlertCoin,"#Bitcoin last trade

@bitfinex $418.95
@btcecom $417.63

Set #crypto #price #alerts at http://AlertCo.in",3,0,0,False
117,Eric Sammons@EricRSammons,"ICYMI: Unchaining #Bitcoin by incorporating #altcoins in the cryptocurrency ecosystem:Unchained: Altcoins as Free Market Bitcoin SidechainsAs traffic on the Bitcoin network continues to grow, both Bitcoin proponents and skeptics have expressed doubts regarding its scalability…medium.com",0,0,0,False
118,Aaron Toponce @AaronToponce,Cryptocat temporarily shut down for a rewrite https://crypto.cat #crypto #cryptography #otr #security #messaging,1,0,0,False
119,Golden Gateway@GoldenGatewayUS,Remember to like us on FB at http://facebook.com/officialgoldengateway… #bitcoin news and #cryptocurrency updates (Want this FREE? >> http://bit.ly/tweet_thanks),1,1,0,False
120,Sean Lyngaas@snlyngaas,"In exit interview, @USCERT_gov chief talks #crypto, #OPMhack, & her new #cyber venture w/ Booz & Trend Micro execs: https://fcw.com/articles/2016/02/19/cert-head-future-lyngaas.aspx…",2,0,0,False
121,Florian Wagner@_fl01,"#Europol's European #Cybercrime Centre and #Chainalysis have concluded a Memorandum of Understanding
https://europol.europa.eu/latest_news/europol-and-chainalysis-reinforce-their-cooperation-fight-against-cybercrime… #cryptocurrency",0,0,0,False
122,rssbtc.com@rssbtc,"24 Hours of #Bitcoin 
-0.10% price $418.57 USD 
-9.38% volume $210.M 
0.24% market cap $6.52B

#fintech #btc #crypto #usd #satoshi #finance",0,0,0,False
123,EUROPECOIN  (.eu.org)@europecoinEUORG,@Bitcoin_Rush PUBLISHING v61 + @europecoinEUORG = 1/2 hour  #crypto #fintech #altcoin #bitcoin #bittrex plz RETWEET,4,3,1,False
124,druid andrew@andyypants,@SpellsofGenesis I mean make the evil cards now! one day all #crypto ppl will be figgin paladins. besides start with evil stronger always...,0,0,0,False
125,CryptoFact@CryptoFact,"Blockchain-Powered Smart Plug Could Save Electric Costs http://bitcoinist.net/blockchain-powered-smart-plug-could-save-electric-costs/… via @bitcoinist
#bitcoinrush #crypto #fintech #news",1,1,0,False
126,Gareth Niblett@garethniblett,US DoJ files motion to force Apple to crack iPhone < They really want #crypto #backdoor precedent http://appleinsider.com/articles/16/02/19/us-department-of-justice-files-motion-to-force-apple-to-crack-terrorists-iphone…,0,0,0,False
127,Menno Pietersen 𝕊@MennoPP,Just started to mine #Ethereum with @GenesisMining very excited! Will be nice to mine my own #ETH next to my bought ETH. #cryptocurrency,2,0,0,False
128,BitcoinAgile@bitcoinagile,Bitcoin  cannabis order goes wrong #bitcoin #crypto #news #British #Cannabis #man http://in-cyprus.com/bitcoin-cannabis-order-goes-wrong…,1,0,0,False
129,Crypto Yoyo@cryptoyoyo,"Gweek 168: South Pole diary, 2-page RPG adventures, Bitcoin for the Befuddled http://bit.ly/1Q63jRi #bitcoin #crypto #news",0,0,0,False
130,Crypto Yoyo@cryptoyoyo,Bitcoin cannabis order goes wrong http://bit.ly/1PXoJfM #bitcoin #crypto #news,0,0,0,False
131,CCN - Capital & Celeb News@CapitalAndCeleb,China Central Bank Chief Speaks Digital Currency & Blockchain Tech https://cryptocoinsnews.com/china-central-bank-chief-speaks-digital-currency-blockchain-tech/… #cryptocurrency,3,0,0,False
132,Coinfeed@CoinfeedIO,#Bitcoin #Price Reaches $500 - CCN: Financial #Bitcoin & #Cryptocurrency News http://tinyurl.com/ox3rt6w,0,0,0,False
133,Fintech Prowler@FintechProwler,Australian Political Party Aims to Reinvent Democracy with Blockchain Tech - The Merkle (blog) http://ift.tt/1Ok0tT8 #altcoin,0,0,0,False
134,TechFlavor@techflavor,Great Blog on #crypto #cryptocurrency Click http://techflavor.io/1UTgrc5,0,0,0,False
135,zweispace@zweispace,#Fintech #crypto #Bitcoin #blockchain Residence . Stay for 1 Bitcoin in the biggest city Tokyo! order at #zweispace http://zweispace.com/bitcoin-residence/…,0,0,0,False
136,Bitcoin Hourly@bitcoin_hourly,"Price Update: 1 #Bitcoin = $418.0000

#cryptocurrency source http://yhoo.it/1PH2nON (via @Flutter_HQ)",0,0,0,False
137,Brian D Colwell@BColwell_CTA,RT @cryptoland: Negative #InterestRates Propel #Bitcoin to the Forefront #cryptocurrency http://tinyurl.com/hkhj3tc,0,0,0,False
138,LocalDayz@localdayz,#dash Download wallet https://dashpay.io/downloads/ and Join the pool on http://pool.laintimes.com #DashDc #DigitalCash #Darkcoin #cryptocurrency,0,0,0,False
139,zweispace@zweispace,#VC #venture #fintech #crypto Check out the luxury Lake Side Property at Zweispace Japan site Buy with #Bitcoin http://partner.zweispace.com/properties/lake-side/… …,0,0,0,False
140,x0rz@x0rz,Bitcoin value straight from your watch http://applewatchbitcoin.com/complication.html… #apple #watch #cryptocurrency #bitcoinApple Watch Bitcoinapplewatchbitcoin.com,1,0,0,False
141,Coin Tiny@CoinTiny,Verge Currency - Old Dogecoindark Rebranding A Massive Success #CryptoCurrency #Crypto,0,0,0,False
142,WARP@warpcoin,We just published an update about our development! #WARP $ WARP #Altcoin #Bitcoin #RT http://ow.ly/YwXim,5,4,0,False
143,World Of Hash@WorldOfHash,"WOH devs making huge progress, virtual miner purchase ready. http://ow.ly/Yoy8C
#btc #game #btcgame #bitcoin #cryptocurrency",0,0,0,False
144,Okcash @OkcashCrypto,Join http://Cripto-Pay.com Win #OKCash Get Empowered Today #Crypto #PROMOTION http://bit.ly/CriptoPayOKcash #Bitcoin $OK,178,273,1,False
145,Dr Wendy L Schultz@wendyinfutures,"What Is #Cryptocurrency - How It Works, History & Bitcoin Alternatives http://goo.gl/s8qyg0",0,0,0,False
146,Julio Gil-Pulgar MBA@gil_pulgar,Negative Interest Rates Propel Bitcoin to the Forefront #bitcoin #cryptocurrency #BTC http://tinyurl.com/hkhj3tc,0,0,0,False
147,Farah K. Miraza@farahkaifa,#cryptocurrency #crypto Satoshi Search #57: Could Margaret Runchey Be Satoshi Nakamoto? http://ow.ly/3bw3V1,0,0,0,False
148,NE Patriots Dynasty@NEPatsDynasty,Quadruple your investment.  #Money #stocks #Gold #crypto 4 in 1 trading system for Partners only. http://ilgamosilcoin.com/home.html,0,0,0,False
149,Denny McEnroe@McEnroeDenny,"Re: CryptoNote coins (BCN, Aeon, XMR, Monero...) and blockchain size - Trouble? http://cur.lv/vm1qy #bitcoin #crypto",0,0,0,False
150,Denny McEnroe@McEnroeDenny,Re: have 8 bitcoins want western union. escrow only!!!!! http://cur.lv/vm1qx #bitcoin #crypto,0,0,0,False
151,Denny McEnroe@McEnroeDenny,Re: Starting new Facebook Group: BitcoinCasinos http://cur.lv/vm1qw #bitcoin #crypto,0,0,0,False
152,Denny McEnroe@McEnroeDenny,Re: LuckyBtcCasino sig campaign is to be (paused) http://cur.lv/vm1qt #bitcoin #crypto,0,0,0,False
153,Bitcoin PR Buzz@BitcoinPRBuzz,Massive PR services for all things #bitcoin and #cryptocurrency --> http://bitcoinprbuzz.com  <-- over 3 years experience in crypto marketing,1,2,0,False
154,Bill Lamb@zachvat,"That trial balloon popped very quickly, indeed! #security #crypto #AppleVsFBIQuote TweetArs Technica@arstechnica · Feb 19, 2016Senate intel chief backs off on bill criminalizing refusal to aid decryption http://arstechnica.com/tech-policy/2016/02/senate-intel-chief-backs-off-on-bill-criminalizing-refusal-to-aid-decryption/… by @dmkravets",0,0,0,False
162,Cyber Security Daily News@CyberSecDN,Stray electronic-magnetic #leaks used to harvest PC #crypto keys http://go.theregister.com/feed/www.theregister.co.uk/2016/02/16/em_leak_harvests_crypto_keys/… #TheRegister via @SecurityNewsbot,0,0,0,False
163,Crypto Yoyo@cryptoyoyo,"College Cryptocurrency Network Rebrands to Blockchain Education Network, Expands Worldwide http://bit.ly/1QpdaDK #bitcoin #crypto #news",0,0,0,False
164,Crypto Yoyo@cryptoyoyo,Bitcoins Rapid Growth Likely To Continue Across the Board http://bit.ly/1Lxmii6 #bitcoin #crypto #news,0,0,0,False
165,Crypto Yoyo@cryptoyoyo,Bitcoin Exchange OKCoin Rolls Out New Features For Mobile App http://bit.ly/1Lxmkqp #bitcoin #crypto #news,0,0,0,False
166,Crypto Yoyo@cryptoyoyo,Bitcoin Price Rise: Top Five Reasons http://bit.ly/1Qpdand #bitcoin #crypto #news,0,0,0,False
167,Team 300FPS ︻╦̵̵̿╤─@300FPSGAMING,Satoshi Search #57: Could Margaret Runchey Be Satoshi Nakamoto? http://bit.ly/21e6OZr #bitcoin #bitcoinnews #btc #cryptocurrency,0,0,0,False
168,CryptoRSS@CryptoRSS,"Hollywood Hospital Pays $17K Ransom to Recover Systems: Far from the $3.4 million initially reported, ... http://bit.ly/1QOyBYZ #crypto",0,0,0,False
169,Phronesis™ Partners@Phronesis_inc,#Peru’s #mobile #money network took 5 yrs. to develop. Can intl. standards expedite this? #FinTECH #cryptocurrency,5,4,0,False
170,Farah K. Miraza@farahkaifa,#cryptocurrency #crypto The Top Bitcoin Wallets and Debit Cards http://ow.ly/3bvXwt,1,1,1,False
171,Ahmad Almorabea@almorabea,Maintain your #privacy now  by encrypting your files. no Internet connectivity required Download @crypto_ghost for Android platform #crypto,1,0,0,False
172,CCT@CCTrackerBits,"IBM is Blockchain's Largest Supporter Why? See More http://cryptocurrencytracker.com
#blockchain #cryptocurrency #IBM",1,0,0,False
173,CryptScoutNews@CryptScoutNews,"College #Cryptocurrency Network Rebrands to Blockchain Education Network, Expands Worldwide - http://cryptscout.com/news-portal/?id=20&ref=1152&utm_source=twitter&utm_medium=auto&utm_campaign=news-portal…",0,0,0,False
174,Bitcoin Hourly@bitcoin_hourly,"Price Update: 1 #Bitcoin = $418.3600

#cryptocurrency source http://yhoo.it/1PH2nON (via @Flutter_HQ)",0,0,0,False
175,XBTFreelancer.com@XBTFreelancer,#freelance #bitcoin http://xbtfreelancer.com/prj/916/write-article-for-students-artno-2… #freelancewriter #btc #cryptocurrency Write Article for students . Art.no :- 2 - repost,0,0,0,False
176,Julia Edling@bitcointonic,Forum at Decred the new #cryptocurrency better than #Bitcoin: BEST MINING PLACES IN THE… http://dlvr.it/KYS9B9,2,1,0,False
177,Team 300FPS ︻╦̵̵̿╤─@300FPSGAMING,DASH Technical Analysis for 02/19/2016 – Market Trading Under Key Pivots http://bit.ly/1TqHuwR #bitcoin #bitcoinnews #btc #cryptocurrency,3,0,0,False
178,Team 300FPS ︻╦̵̵̿╤─@300FPSGAMING,DASH Technical Analysis for 02/19/2016 – Market Trading Under Key Pivots http://btcf.co/21e3T2Z #bitcoin #bitcoinnews #btc #cryptocurrency,0,0,0,False
179,Null TX@nulltxnews,DASH Technical Analysis for 02/19/2016 – Market Trading Under Key Pivots http://goo.gl/9Xq6PQ #bitcoin #bitcoinnews #btc #cryptocurrency,3,0,0,False
188,Team 300FPS ︻╦̵̵̿╤─@300FPSGAMING,PwC Hires Ex-UK Regulator for New Blockchain Consultancy http://btcf.co/1TqG7yf #bitcoin #bitcoinnews #btc #cryptocurrency,0,0,0,False
189,BlockChannel@BlockChannel,"BCN News: bitcoinist ""KeepKey Wants to Pay You to Be an Affiliate http://ift.tt/20JbgNE #bitcoin #bitcoinnews #btc #cryptocurrency #altc…",0,0,0,False
190,Bitcoinist.com@bitcoinist,KeepKey Wants to Pay You to Be an Affiliate http://ift.tt/20JbgNE #bitcoin #bitcoinnews #btc #cryptocurrency #altcoins # money #freebitc…,1,1,0,False
191,FREE MONEY@FreeBitcoiners,"@pornsaints I just signed up for a free Bitcoin wallet which paid me $1 for using it - http://goo.gl/HDIs3i
#freebitcoin #altcoin",0,0,0,False
192,Julia Vaingurt@julia_vaingurt,"A real live example for #bitcoin #trading for you to copy #crypto #cryptocurrency http://cur.lv/vm02y
http://cur.lv/vm02z",0,0,0,False
193,x0rz@x0rz,A SSH configuration and policy scanner https://github.com/claudijd/ssh_scan… #ssh #OpenSSH #crypto,0,0,0,False
194,Farah K. Miraza@farahkaifa,#cryptocurrency #crypto Blockchain Smart Plug Could Lower Power Bills http://ow.ly/3bvTYs,0,0,0,False
195,Alejandro Sewrjugin@alesew23,#Bitcoin PwC Hires Ex-UK Regulator for New Blockchain Consultancy http://bit.ly/1QOszrm #Tech #Crypto,0,0,0,False
196,themindscourge.com@themindscourge,The current debate over #crypto is not about politics. It is about trust online (or its absence).,0,0,0,False
197,CCN - Capital & Celeb News@CapitalAndCeleb,Martin Shkreli Tries To Buy “The Life Of Pablo” for $15 Million in Bitcoin https://cryptocoinsnews.com/martin-shkreli-tries-to-buy-the-life-of-pablo-for-15-million-in-bitcoin/… #cryptocurrency,5,1,0,False
198,HARTΞJ SAWNΞY@hartejsawney,Humbled to give a Keynote at #BlackTechWeek. #miami #florida #startup #fintech #payments #crypto… https://instagram.com/p/BB-elw0QG96/,1,0,0,False
199,NE Patriots Dynasty@NEPatsDynasty,Great Blog on #crypto #cryptocurrency Click http://juddbagley.io/bitcoin/blockchain/nasdaq-is-joining-the-blockchain-trading-party/… SHARE,1,0,0,False
200,Defi@DefiFreakyBoo,"Waintin' on baes ...
#defi #defibitch #fridaynight #friday #wineandmovies #movienight… https://instagram.com/p/BB-eAOVFJFr/",0,0,0,False
201,Fardeen Rahaman@frmuses,@Nyceane Total #Transparency By #Design with @UpholdInc http://buff.ly/1QoDyxu #CryptoCurrency #FinTech #Startup #Entrepreneur #Currency,4,0,0,False
202,BitcoinAgile@bitcoinagile,What s Bitcoin?  MANOLO.UK #bitcoin #btc #vanlife #freedom #digitalcurrency #cryptocurrency http://bit.ly/213fbdF,0,0,0,False
203,Team 300FPS ︻╦̵̵̿╤─@300FPSGAMING,Blockchain Smart Plug Could Lower Power Bills http://btcf.co/1TqDQmD #bitcoin #bitcoinnews #btc #cryptocurrency,2,0,0,False
210,Team 300FPS ︻╦̵̵̿╤─@300FPSGAMING,KeepKey Wants to Pay You to Be an Affiliate http://btcf.co/1TqDNHj #bitcoin #bitcoinnews #btc #cryptocurrency,1,0,0,False
211,Crypto Yoyo@cryptoyoyo,Bitcoin Price Watch; Here's What's On http://bit.ly/1QOqGLs #bitcoin #crypto #news,0,0,0,False
212,Crypto Yoyo@cryptoyoyo,$17000 bitcoin ransom paid by hospital to hackers sparks outrage http://bit.ly/1KZuYTw #bitcoin #crypto #news,0,0,0,False
213,Crypto Yoyo@cryptoyoyo,Bitcoin Weekly Recap 2-19-2016 http://bit.ly/1QOqGLq #bitcoin #crypto #news,0,0,0,False
214,Crypto Yoyo@cryptoyoyo,Your Subreddit Usage Tells A Lot About Bitcoin Nodes http://bit.ly/1KZuXih #bitcoin #crypto #news,0,0,0,False
215,Crypto Yoyo@cryptoyoyo,Accenture Smart Plug Leverages Bitcoin Technology To Reduce Electricity Costs http://bit.ly/1QOqGLj #bitcoin #crypto #news,0,0,0,False
216,Crypto Yoyo@cryptoyoyo,Bitcoin Mining Firm Butterfly Labs Agrees To Settle US FTC Charges http://bit.ly/1KZuYTq #bitcoin #crypto #news,0,0,0,False
217,Mooncoin [MOON]@MooncoinItalia,Replying to @MooncoinItalia#Litecoin mkt @BLEUTRADE First! #MOON Buy the future !Make your #friends Millionaire ! #Bitcoin #fintech #Cryptocurrency #altcoin #ethereum,1,1,0,False
218,manolo remiddi@ManoloRemiddi,"here you can learn how to get started with bitcoin http://manolo.uk/whats-bitcoin/
#bitcoin #btc #vanlife #freedom #digitalcurrency #cryptocurrency",3,1,0,False
219,12Joker18@12Joker18,Here you will find many good mining and sides free bitcoin. http://bitcoins-earn.com #bitcoin #bitcoinmining #freebitcoin #BTC #crypto,0,0,0,False
220,Defi@DefiFreakyBoo,"Flashback pic ...
#defi #defibitch #flashbackpic #twin #ilovehim #friendship #baes https://instagram.com/p/BB-c3wvlJDt/",1,0,0,False
221,Mark Lee@Steeler1313,Hotels can integrate and save millions on fees #fintech #cryptocurrency #fiat #fintech #hotels #paymentsystems http://charnawallet.biz,1,0,0,False
222,Mark Lee@Steeler1313,http://Charnawallet.biz  is the perfect compliment to online banks/virtual banks #fintech #banking #crypto,1,0,0,False
223,NE Patriots Dynasty@NEPatsDynasty,#ILGamos and their NEW #ILCoin. 4 in 1 Trading platform. Stock up 35%.  http://INVEST.ilgamos.com/buy?buy_type=1 #Crypto #Nasdaq #ETRADE,0,0,0,False
224,Farah K. Miraza@farahkaifa,#cryptocurrency #crypto New Hampshire: The World’s Most Bitcoin Friendly Community http://ow.ly/3bvQn7,0,0,0,False
225,Bitcoin Hourly@bitcoin_hourly,"Price Update: 1 #Bitcoin = $418.8900

#cryptocurrency source http://yhoo.it/1PH2nON (via @Flutter_HQ)",0,0,0,False
226,LocalDayz@localdayz,#xmr #monero pool avaible. Use http://pool.laintimes.com for join US. #cryptocurrency,0,0,0,False
227,Tom Hand@TomedyComedy,"I want to make my phone a Corporation, so it has the rights of any other Citizen.
#Crypto #Privacy #MyPhonePleadsTheFifth",0,0,0,False
228,CryptoRSS@CryptoRSS,Bacs corporate website still runs obsolete crypto: Months into campaign to get everyone else to upgrad... http://bit.ly/21dTGDR #crypto,0,0,0,False
229,J Trevor Hughes@jtrevorhughes,"Great overview:  ""This is dollars and - ahem - sense for Apple."" #privacy #crypto http://iapp.org/news/a/why-the-apple-crypto-case-goes-beyond-one-companys-privacy-battle/… via @DailyDashboard",4,5,0,False
230,Paul Roche@Paul_J_Roche,"Sent from their iPhone?
#safeharbor #PrivacyShield #cryptoQuote TweetDr. Carlo Piltz@CarloPiltz · Feb 19, 2016EU-US #PrivacyShield: German government demands information & documents from the EU Commission http://euusprivacyshield.de/german-government-demands-information-and-documents-by-the-european-commission/… #privacy #eudatap",1,1,0,False
231,FREE MONEY@FreeBitcoiners,"@alfredmarketi 100% FREE TOP PAYING 'Crypto Faucets & Altcoin Wallets' ALL-IN-ONE PLACE! 
http://freecryptofaucets.com
#freebitcoin #altcoins",0,0,0,False
232,BitcoinAgile@bitcoinagile,Bitcoin Price Watch; Heres Whats On - NEWSBTC #news #crypto #bitcoin #bitcoinprice #btcusd http://bit.ly/1XBXOeD,0,0,0,False
243,Crypto Yoyo@cryptoyoyo,Bitcoin Price: Compulsive Buyers Cool Down http://bit.ly/1TuDgFD #bitcoin #crypto #news,0,0,0,False
244,Crypto Yoyo@cryptoyoyo,"Bitcoin's Hospital Hack, FTC's Bitcoin Scammer Crackdown http://bit.ly/1osHeBG #bitcoin #crypto #news",0,0,0,False
245,Crypto Yoyo@cryptoyoyo,A Dogecoin Pump-And-Dump To Start 2016 http://bit.ly/1TuDgFu #bitcoin #crypto #news,0,0,0,False
246,Crypto Yoyo@cryptoyoyo,Hollywood Presbyterian Medical Center Pays 40 Bitcoin Ransom to Hackers http://bit.ly/1osHeS8 #bitcoin #crypto #news,0,0,0,False
247,Torsten Maus@TorstenMaus,Combination of #Linux and #Windows may have protected a lot of #companies from losen #data to #ransomware #crypto #Trojaner #trojan,0,0,0,False
248,Smar-t Jones@STJonesTDay,@craigrant3 Thank you for helping save the world from tyrannical entity's by spreading the knowledge of #cryptocurrency,0,0,0,False
249,Custom Systems Corp@CustomSys,Worried about #Ransomware and #Crypto attacks? Learn how you can beat them with @Carbonite: http://shrd.vu/biF9g,1,0,0,False
250,CCN - Capital & Celeb News@CapitalAndCeleb,EU Targeting End of 2016 For Virtual Currency Controls To Fight Terrorism https://cryptocoinsnews.com/eu-virtual-currency-terrorism/… #cryptocurrency,6,0,0,False
251,The Paypers@ThePaypers,FTC settles in case against #Bitcoin #mining company @ButterflyLabs #Bitcoin #cryptocurrency http://tinyurl.com/h98mu9m,0,0,0,False
252,Bitcoin Hourly@bitcoin_hourly,"Price Update: 1 #Bitcoin = $418.7500

#cryptocurrency source http://yhoo.it/1PH2nON (via @Flutter_HQ)",0,0,0,False
253,XBTFreelancer.com@XBTFreelancer,#crypto #cryptocurrency Add login functionality to a zen cart external page #programming http://xbtfreelancer.com/prj/924/add-login-functionality-to-a-zen-cart-external-page… #cash #bitcoin,0,0,0,False
254,BitcoinBuzz vega9@BitcoinBuzzV9,http://bitcoinbuzz.vega9.com - Hot topics: #mmmextra #bitcoin #btc #robotcoingame #monstercoingame #cryptocurrency,0,0,0,False
255,sms77@diksms77,#Ethereum [ETH] is listed on #Yobit #ETH #BTC #USD #RUR Happy trading!) #altcoin #exchange https://crd.ht/CJvnoLk,2,1,0,False
256,Bitcoinist.com@bitcoinist,Blockchain-Powered Smart Plug Could Save Electric Costs http://ift.tt/1QObOgb #bitcoin #bitcoinnews #btc #cryptocurrency #altcoins # mon…,1,0,0,False
257,AlertCo.in@AlertCoin,"#Bitcoin last trade

@bitstamp $420.82
@coinbase $418.96

Set #crypto #price #alerts at http://AlertCo.in",3,0,0,False
264,Team 300FPS ︻╦̵̵̿╤─@300FPSGAMING,NXT Technical Analysis for 02/19/2016 – Pivot Level Overview http://btcf.co/2132rUt #bitcoin #bitcoinnews #btc #cryptocurrency,0,0,0,False
265,Null TX@nulltxnews,NXT Technical Analysis for 02/19/2016 – Pivot Level Overview http://goo.gl/qqmJ2W #bitcoin #bitcoinnews #btc #cryptocurrency,1,0,0,False
266,Team 300FPS ︻╦̵̵̿╤─@300FPSGAMING,Blockchain-Powered Smart Plug Could Save Electric Costs http://btcf.co/21312x3 #bitcoin #bitcoinnews #btc #cryptocurrency,2,0,0,False
267,Team 300FPS ︻╦̵̵̿╤─@300FPSGAMING,Bitcoin Price: Compulsive Buyers Cool Down http://btcf.co/21310FJ #bitcoin #bitcoinnews #btc #cryptocurrency,2,0,0,False
268,Team 300FPS ︻╦̵̵̿╤─@300FPSGAMING,Blockchain-Powered Smart Plug Could Save Electric Costs http://btcf.co/1XBQO1r #bitcoin #bitcoinnews #btc #cryptocurrency,2,0,0,False
269,Team 300FPS ︻╦̵̵̿╤─@300FPSGAMING,"Chainalysis Raises $1.6 Million, Signs Cybercrime Deal with Europol http://btcf.co/2130ZS6 #bitcoin #bitcoinnews #btc #cryptocurrency",2,0,0,False
270,Patrick Boake@PatrickBoake,Any #blockchain #cryptocurrency types seen any actual code from @DECENTplatform,1,1,0,False
271,Daily News@Bizzowebnews,New Hampshire: The World’s Most #Bitcoin-Friendly Community - #Overstock #NH #Utah #Cryptocurrency https://bizzoweb.com/8/post/2016/02/new-hampshire-the-worlds-most-bitcoin-friendly-community.html…,0,0,0,False
272,Coin Tiny@CoinTiny,Blockchain-Powered Smart Plug Could Save Electric Costs #CryptoCurrency #Crypto,0,0,0,False
273,Brian Walker@Brian_Walker_UK,Thank for following me @AltcoinsNews #cryptocurrency #bitcoin #news #bitcoinews #altcoin #altcoinnews #Blockchain,0,0,0,False
274,Denny McEnroe@McEnroeDenny,Re: BitcoinPlus(Trading on Poloniex) Encrypted transactions & messaging http://cur.lv/vlu6j #bitcoin #crypto,0,0,0,False
275,Denny McEnroe@McEnroeDenny,Re:  [ANN] [CREDIT] Creditbit Hybrid POS/POW | x11 | 1min blocks | 100M CREDIT http://cur.lv/vlu6i #bitcoin #crypto,1,1,0,False
276,Denny McEnroe@McEnroeDenny,Re: Why Atheists Feel So Threatened http://cur.lv/vlu6g #bitcoin #crypto,0,0,0,False
277,Denny McEnroe@McEnroeDenny,Re: Selling everything for 25 euros http://cur.lv/vlu6f #bitcoin #crypto,0,0,0,False
278,Farah K. Miraza@farahkaifa,#cryptocurrency #crypto Bitcoin Price: Compulsive Buyers Cool Down http://ow.ly/3bvDca,0,0,0,False
279,Tech Junkie@techjunkiejh,A #Bitcoin  Believer’s Crisis of Faith http://buff.ly/1Wc9Avt #cryptocurrency,0,0,0,False
280,rssbtc.com@rssbtc,"The Top Bitcoin Wallets and Debit Cards
http://bit.ly/1UccXUb
#btc #bitcoin #crypto #wallet #finance",1,1,0,False
281,Julia Vaingurt@julia_vaingurt,"Barclays Poised To Bring Bitcoin And FinTech To African Countries http://cur.lv/vltuq
#bitcoin #crypto #news",0,0,0,False
282,Crypto Yoyo@cryptoyoyo,"Dwolla is Back, But Focused on Blockchain, Not Bitcoin http://bit.ly/1TqqYg7 #bitcoin #crypto #news",0,0,0,False
283,Crypto Yoyo@cryptoyoyo,The Top Bitcoin Wallets and Debit Cards http://bit.ly/20IRQsr #bitcoin #crypto #news,0,0,0,False
289,Crypto Yoyo@cryptoyoyo,Barclays Poised To Bring Bitcoin And FinTech To African Countries http://bit.ly/1TqqWF3 #bitcoin #crypto #news,0,0,0,False
290,Crypto Yoyo@cryptoyoyo,Bitcoin Enabled Smart Energy Devices to Save Homeowners Money http://bit.ly/20IRQso #bitcoin #crypto #news,0,0,0,False
291,FREE MONEY@FreeBitcoiners,"@RecicladoTodo I just signed up for a free Bitcoin wallet which paid me $1 for using it - http://goo.gl/HDIs3i
#freebitcoin #altcoin",0,0,0,False
292,"Phil Weldon, CEDS, RCA@philweldon","I hope the bank cards are backed with encryption and 2FA to prevent fraud. #Monopoly #2FA #CryptoQuote TweetFOX Business@FoxBusiness · Feb 18, 2016Monopoly is getting rid of its iconic paper money and replacing it with bank cards. Thoughts?",1,0,0,False
293,CryptoCompare@CryptoCompare,"Let's stop the scammers...

@DigiEconomist #bitcoin #crypto #ethereum #btc @TheDailyDecrypt
https://youtu.be/cZhrSAWqBT0
http://digiconomist.net/fraud-risk-assessment-coince…",3,2,0,False
294,LubatoneCreations@LubaCreations,StealthCoin is #1 Cryptocurrency https://twitter.com/StealthCoin #altcoins #sexy #girl #woman #iphone #ipad http://pbs.twimg.com/media/CGMi4_UUUAAXn0W.png…,0,0,0,False
295,David Liam@crazydaveorama,China considers digital currency (via @bravenewcoin) #cryptocurrency #altcoin http://eepurl.com/bQ_Krb,1,0,0,False
296,HYPER Crypto@HyperCrypto,We now have a rock solid foundation & team and 2016 $HYPER is going to be huge. #indiedev #indiegamer #gamerdev #cryptocurrency #bitcoin,2,1,0,False
297,THiNKTaNK@B2Spirit_TT,"▼ You DON'T HAVE TO ▼ Resource For Home & #Business Protection Against #Crypto-#Ransomware►http://brooklynartproject.com/profiles/blogs/threat-smart-ii-crypto-ransomware…Quote TweetTripwire@TripwireInc · Feb 19, 2016Half of American Ransomware Victims Have Paid the Ransom, Reveals Study http://tripwire.me/1WvHYku via @DMBisson #security #infosec",1,0,0,False
298,BlockChannel@BlockChannel,"BCN News: bitcoinist ""The Vanbex Report: Lines in the Sand http://ift.tt/1mM1SLS #bitcoin #bitcoinnews #btc #cryptocurrency #altcoins # …",0,0,0,False
299,OpenFXMarket@OpenFXMarket,#bitcoin market index: 102.46 #OFXBTC. #altcoin market index (avg): 138.15 #OFXAVG by http://openfxmarket.com. Stay tuned!,0,0,0,False
300,OpenFXMarket@OpenFXMarket,#altcoin market index (avg): #OFXAVG 138.15 #SHA 45.01 #SCRYPT 96.83 #QUARK 58.46 #X 9.05 #HYBRID 7.8 Stay tuned! #OFX,0,0,0,False
301,Neu@neucrypto,"Celebrating for 169 Followers!
Let's go #Crypto Community!
#Bitcoin #BTC #Bitcoins #Cryptocurrency",0,0,0,False
302,Team 300FPS ︻╦̵̵̿╤─@300FPSGAMING,Your Subreddit Usage Tells A Lot About Bitcoin Nodes http://btcf.co/1SWjhA0 #bitcoin #bitcoinnews #btc #cryptocurrency,1,0,0,False
303,Team 300FPS ︻╦̵̵̿╤─@300FPSGAMING,"Dwolla is Back, But Focused on Blockchain, Not Bitcoin http://btcf.co/1PKX43R #bitcoin #bitcoinnews #btc #cryptocurrency",1,0,0,False
304,Bitcoinist.com@bitcoinist,The Vanbex Report: Lines in the Sand http://ift.tt/1mM1SLS #bitcoin #bitcoinnews #btc #cryptocurrency #altcoins # money #freebitcoin,1,0,0,False
305,Bitcoin Hourly@bitcoin_hourly,"Price Update: 1 #Bitcoin = $419.7800

#cryptocurrency source http://yhoo.it/1PH2nON (via @Flutter_HQ)",0,0,0,False
306,BitcoinBuzz vega9@BitcoinBuzzV9,http://bitcoinbuzz.vega9.com - Hot topics: #mmmextra #bitcoin #btc #robotcoingame #cryptocurrency #monstercoingame,0,0,0,False
307,LocalDayz@localdayz,"#CANN #Cannabiscoin avaible, Join the pool on http://pool.laintimes.com #cryptocurrency",0,0,0,False
308,Cody J@CodyJassman,The radical long-term promise of #cryptocurrency: getting government out of our  economic lives and rendering them blind to our real wealth.,0,0,0,False
309,Chris Doerfler@cmdoerfler,"#cryptocurrency potential to revive lagging economiesBitcoin Revolution In Zimbabwe Attracts Attention of Stanford UniversityCryptocurrency startup, BitFinance, has become a subject of interest to one of the world's most respected institutions of research, Stanford University.cointelegraph.com",0,0,0,False
319,FailCommunity@FAILCommunity,"March 8th may be the International Women's Day, but it is also #FAILCoin's 2nd #birthday! #cryptocurrency #fintech",0,0,0,False
320,Chameleon Bit@Chameleon_Bit,"Mainly Page> Side Menu -> UPDATED!Multilanguage and functional.
Next correction -> Menu drop user #bitcoin #chameleon #altcoin",0,0,0,False
321,My free bitcoin@DgColleng,"I love bitcoin 
#bitcoin #crypto. #freebitcoin",1,1,0,False
322,Brain Updates @brainupdates,Tel Aviv team first to reveal stealing high-level PC #crypto keys - through a wall http://scmagazineuk.com/tel-aviv-team-first-to-steal-high-level-pc-crypto--through-a-wall/article/474169/… #hacking,0,0,0,False
323,TommyATX @TommyMackATX,Here’s why you have to start taking bitcoin seriously http://on.mktw.net/1Q4YLdL #bitcoin #cryptocurrency,0,0,0,False
324,SI Capital@sicapital,"The Fifth Amendment and #Bitcoin: Why the Battle is About to Begin
#cryptocurrency
http://coindesk.com/fifth-amendment-bitcoin-private-key-battle/…",1,0,0,False
325,Lisk@LiskHQ,"Lisk PR on @Yahoo and @CNBC! 

http://finance.yahoo.com/news/ethereum-alternative-lisk-announces-ico-194000116.html…
http://cnbc.com/2016/02/15/pr-newswire-ethereum-alternative-lisk-announces-ico-with-shapeshift--new-open-source-dapp-sidechain-platform.html…
#bitcoin #blockchain #cryptocurrency #javascript #nodejs",11,8,0,False
326,Alejandro Sewrjugin@alesew23,"#Bitcoin Dwolla is Back, But Focused on Blockchain, Not Bitcoin http://bit.ly/1PWuYk9 #Tech #Crypto",0,0,0,False
327,Lisk@LiskHQ,"Our first dapp - The Lisk Guestbook - is now listed on @DappsList! Take a look. 

https://dappslist.com/dapp/lisk-guestbook/…
#dapps #cryptocurrency #bitcoin",4,8,0,False
328,ferthee@ariesarcha,"Earn your FREE #CryptoCurrency here >>> http://ift.tt/1RN6Ftm <<<
Get your #Bitcoin EVERY 5 minutes!",0,0,0,False
329,Z. Isadora Hellegren@Zeldazadora,What happened to #Ethereum's old website with all those statements about the future? #blockchain #crypto,2,0,0,False
330,E.A ENKQI Ea CHRIST!@billy_enki,I AM THE HEAVENLY SUPERIOR SUPREME #INTERSTELLAR #ANCIENT #CRYPTO #GLOBAL #ROYALMONARCH #CHIEF #ELITE #INTERNATIONAL #GENERAL UPON #EARTH!,0,0,0,False
331,BitcoinAgile@bitcoinagile,A Conversation with Professor Rakesh Kumar #cryptocurrency https://coinreport.net/conversation-professor-rakesh-kumar…,0,0,0,False
337,Bitcoin@bitcoinpoet,A Conversation with Professor Rakesh Kumar: Bitcoin mining is the cornerstone to the bitcoin f... http://btcs.me/1PWtOF7 #cryptocurrency,1,0,0,False
338,Athamanatha Kitsune@danfoxdavies,Interested in #cryptocurrency & not keeping failed industries on life support for the sake of greed? #YouAreAPirate http://pirateparty.org.uk,1,0,0,False
339,Null TX@nulltxnews,Your Subreddit Usage Tells A Lot About Bitcoin Nodes http://themerkle.com/news/10240/ #bitcoin #bitcoinnews #btc #cryptocurrency,3,1,0,False
340,FXMGM Market Signals@fxmgm,Hi haycrid. Thanks for following our free twitter signals feed. full version there http://fxmgm.com #fx #forex #bitcoin #altcoin,0,0,0,False
341,E.A ENKQI Ea CHRIST!@billy_enki,I AM THE HEAVENLY SUPERIOR SUPREME #INTERSTELLAR #ANCIENT #CRYPTO #GLOBAL #ROYALMAJESTY #CHIEF #ELITE #INTERNATIONAL #GENERAL UPON #PLANETS!,0,0,0,False
342,E.A ENKQI Ea CHRIST!@billy_enki,I AM THE SUPERIOR SUPREME #INTERSTELLAR #ANCIENT #CRYPTO #GLOBAL #ROYALMONARCH #CHIEF #ELITE #INTERNATIONAL #GENERAL UPON #PRIMEMINISTERS!,0,0,0,False
343,ferthee@ariesarcha,Earn your FREE #bitcoin EVERY hour here >>> http://ift.tt/1TKc1pU <<< #CryptoCurrency #OnlineMoney #earningonline,0,0,0,False
344,Crypto Yoyo@cryptoyoyo,Bitcoin Comic Book Has A Story Beyond Its Pages http://bit.ly/1Q5mbQm #bitcoin #crypto #news,0,0,0,False
345,Crypto Yoyo@cryptoyoyo,Lucky Errors Found in Bitcoin http://bit.ly/1Vs0J8b #bitcoin #crypto #news,0,0,0,False
346,Crypto Yoyo@cryptoyoyo,Popcorntime Now Accepting In-App Bitcoin Donations http://bit.ly/1Q5mbQf #bitcoin #crypto #news,0,0,0,False
347,ILbotCrypto@LbotCrypto,Time to check on #edoncoin's development! http://ow.ly/WbHMN #btc #altcoin #ltc #dogecoin #bitcoin #edoncoin #ltc,1,1,0,False
348,E.A ENKQI Ea CHRIST!@billy_enki,I AM THE HEAVENLY SUPERIOR SUPREME #INTERSTELLAR #ANCIENT #CRYPTO #GLOBAL #ROYALMONARCH CHIEF #ELITE #INTERNATIONAL #GENERAL UPON #MONARCHS!,0,0,0,False
349,Fardeen Rahaman@frmuses,@PKGulati Total #Transparency By #Design with @UpholdInc http://buff.ly/1ox4hMm #CryptoCurrency #FinTech #Startup #Entrepreneur #Currency,4,2,0,False
350,GoogleDigest@GoogleDigest,you can download our wallet in the @GooglePlay @Android store now! https://play.google.com/store/apps/details?id=com.verge.wallet… $XVG #android @androidapp #btc #crypto #google,1,0,0,False
351,Bitcoin News@BTCNewsletter,"RT @NumisMaticsDir THE NUMISMATIST PROJECT

#bitcoin #blockchain #cryptocurrency #digital... http://lnkplg.co/RNGJZ https://pic.twitter.com/oTmmlGsofp",1,0,0,False
352,Elena A. Mesropyan@elena_mesropyan,29 #bitcoin wallets supercharging the debatable #cryptocurrency. #fintech #mobile #DigitalWallet #payments29 Bitcoin Wallets That Are Supercharging CryptocurrencyDigital wallets have become so mainstream that a wide range of companies across industries is rushing into the segment. Read moregomedici.com,1,0,0,False
353,ALM in a Minute@ALMinAMinute,"How White Hat #Hackers #Stole #Crypto Keys from an #Offline #laptop in Another Room http://motherboard.vice.com/read/how-white-hat-hackers-stole-crypto-keys-from-an-offline-laptop-in-another-room… via @motherboard
@motherboard",0,0,0,False
354,Bitcoin Hourly@bitcoin_hourly,"Price Update: 1 #Bitcoin = $420.5000

#cryptocurrency source http://yhoo.it/1PH2nON (via @Flutter_HQ)",0,0,0,False
355,XBTFreelancer.com@XBTFreelancer,#programming #freelancing #cryptocurrency #bitcoin http://xbtfreelancer.com/prj/921/create-a-news-site-for-factom-with-built-in-exchange… create a news site for Factom with built in exchange,0,0,0,False
356,Glenn Rumbell@RumbellGlenn,RT @bitcoinagile: Bacs corporate website still runs obsolete crypto #Bacs #Crypto http://bit.ly/20IHbht,0,0,0,False
357,BitcoinAgile@bitcoinagile,Bacs corporate website still runs obsolete crypto #Bacs #Crypto http://bit.ly/20IHbht,0,0,0,False
361,CeptBiro@CeptBiro,#Bacs corporate website still runs obsolete #Crypto http://ow.ly/Yw3eo http://ow.ly/PkwFL http://ow.ly/XTsPi,0,0,0,False
362,Rene Robichaud@ReneRobichaud,"#Bacs corporate website still runs obsolete #Crypto http://ow.ly/Yw3eo http://ow.ly/PkwFLCeptBiro - Sécurité, Cybersécurité et Cyberdéfense de l'information | LinkedInCeptBiro - Sécurité, Cybersécurité et Cyberdéfense de l'information | 1,855 followers on LinkedIn. Sécurité, Cybersécurité, Cyberdéfense et Cybermenace de l'information | Conseils CeptBiro est une...linkedin.com",0,0,0,False
363,Gareth Niblett@garethniblett,Court extends deadline for Apple to break iPhone 5c encryption #crypto #backdoor #precedent http://cultofmac.com/413192/court-extends-deadline-for-apple-to-break-iphone-5c-encryption/…,1,0,0,False
364,Jan Z@Zdvora,Cryptography? Just XOR everything.... LOL :)  #crypto #XOR #everwhere,0,0,0,False
365,Bitcoinist.com@bitcoinist,Barclays Poised To Bring Bitcoin And FinTech To African Countries http://ift.tt/1QoDFJi #bitcoin #bitcoinnews #btc #cryptocurrency #altc…,1,0,0,False
366,BitcoinAgile@bitcoinagile,iPhone-FBI dispute is Crypto Wars all over again: Voices|Latest Iphone News] | IPHONE NEWS #again #Crypto #dispute http://bit.ly/20IFLU2,0,0,0,False
367,Defi@DefiFreakyBoo,"New nailssss! 
#defi #defibitch #newnails #nails #black #crowntattoo #crown #tattoo… https://instagram.com/p/BB-FFEfFJBi/",0,0,0,False
368,VergeCurrency@vergecurrency,you can download our wallet in the @GooglePlay @Android store now! https://play.google.com/store/apps/details?id=com.verge.wallet… $XVG #android @androidapp #btc #crypto #google,35,38,0,False
369,CeptBiro@CeptBiro,#Apple and ‘exceptional access’ to #Crypto protection http://ow.ly/YvZG9 http://ow.ly/PkwFL http://ow.ly/XTsPi,0,0,0,False
370,Rene Robichaud@ReneRobichaud,"#Apple and ‘exceptional access’ to #Crypto protection http://ow.ly/YvZG9 http://ow.ly/PkwFLCeptBiro - Sécurité, Cybersécurité et Cyberdéfense de l'information | LinkedInCeptBiro - Sécurité, Cybersécurité et Cyberdéfense de l'information | 1,855 followers on LinkedIn. Sécurité, Cybersécurité, Cyberdéfense et Cybermenace de l'information | Conseils CeptBiro est une...linkedin.com",0,0,0,False
371,Team 300FPS ︻╦̵̵̿╤─@300FPSGAMING,Barclays Poised To Bring Bitcoin And FinTech To African Countries http://btcf.co/1LwV9fd #bitcoin #bitcoinnews #btc #cryptocurrency,1,0,0,False
372,Farah K. Miraza@farahkaifa,#cryptocurrency #crypto Bitcoin Comic Book Has A Story Beyond Its Pages http://ow.ly/3bvo01,0,0,0,False
373,FinTech Summary@FinTechSummary,Why Microsoft Wants Every #Blockchain on its Azure Platform - CoinDesk http://buff.ly/20IbLrf #FinTech #Cryptocurrency #BitcoinWhy Microsoft Wants 'Every Blockchain' on its Azure Platform - CoinDeskMicrosoft's head of technology strategy opens up about the firm's plans to carve out a market position in the blockchain space.coindesk.com,2,2,0,False
374,adhna1@adhna11,This can change your life #bitcoin #altcoin #cryptocurrency http://docdro.id/UxdpHPY,0,0,0,False
375,Julia Vaingurt@julia_vaingurt,"A step by step guide to firing up your own #bitcoin node #crypto #cryptocurrency http://cur.lv/vlo3k
http://cur.lv/vlo3l",0,0,0,False
376,Aaron Toponce @AaronToponce,"#Vim refuses to use authenticated encryption with ""cryptmethod=blowfish2"". https://github.com/vim/vim/issues/638… #crypto #cryptography #securityVim cryptmethod is not authenticated · Issue #638 · vim/vimWhen using cryptmethod=blowfish2, the saved ciphertext is not authenticated with a message authentication code (""MAC tag""). Consider saving ""Lorem ipsum dolor sit amet, c...github.com",2,0,0,False
377,Bitcoinist.com@bitcoinist,Popcorntime Now Accepting In-App Bitcoin Donations http://ift.tt/21dkljT #bitcoin #bitcoinnews #btc #cryptocurrency #altcoins # money #f…,2,0,0,False
378,Team 300FPS ︻╦̵̵̿╤─@300FPSGAMING,Bitcoin Comic Book Has A Story Beyond Its Pages http://btcf.co/1LwUnz1 #bitcoin #bitcoinnews #btc #cryptocurrency,1,0,0,False
379,rodosboss@hotmail.co@rodos0000,StealthCoin is #1 Cryptocurrency https://twitter.com/StealthCoin #altcoins #sexy #girl #woman #iphone #ipad http://pbs.twimg.com/media/CGMi4_UUUAAXn0W.png…,0,0,0,False
386,Crypto Blockchain Investor@iCryptocurrency,#Cryptocurrency News: Insolvency Claims over VOX Holdings Draws Quick Response from Uphold - http://cryptocurrency.website/insolvency-claims-over-vox-holdings-draws-quick-response-from-uphold/… #News #Bitcoin,0,0,0,False
387,BitcoinAgile@bitcoinagile,Bitcoin Price Testing $420 Resistance Level #BTC #cryptoexchange #CXtrading #Altcoins #Bitcoin http://bitcoinfinancial.info/bitcoin-price-testing-420-resistance-level…,0,0,0,False
388,Bitcoin Trading@btcTradingNET,"For CX traders, #BTC price now testing $420 resistance level, read http://bitcoinfinancial.info/bitcoin-price-testing-420-resistance-level/… #cryptoexchange #CXtrading #Altcoins #Bitcoin",0,0,0,False
389,Bitcoin Financial@btc_Financial,"#Bitcoin price now testing $420 resistance level, read http://bitcoinfinancial.info/bitcoin-price-testing-420-resistance-level/… #cryptoexchanges #CXtrading #Cryptocoins #Altcoins #BTC",0,0,0,False
390,Farah K. Miraza@farahkaifa,#cryptocurrency #crypto Bitcoin Mining Firm Butterfly Labs Settles with FTC for $38.6 Million http://ow.ly/3bvlAD,0,0,0,False
391,Hamed Khoramyar@Khoramyar,How Hackers Stole #Crypto Keys from an Offline Laptop in Another Room: https://motherboard.vice.com/read/how-white-hat-hackers-stole-crypto-keys-from-an-offline-laptop-in-another-room… #infosec #airgapped #security,0,0,0,False
392,John Leyden@jleyden,"By me @TheRegister Bacs corp. website still runs obsolete #crypto, months into camapign to get everyone to upgrade http://theregister.co.uk/2016/02/19/bac_crypto_obsolete_oops/…",1,4,0,False
393,Bitcoin Hourly@bitcoin_hourly,"Price Update: 1 #Bitcoin = $420.3900

#cryptocurrency source http://yhoo.it/1PH2nON (via @Flutter_HQ)",1,0,0,False
394,Security News Bot@SecurityNewsbot,Bacs corporate website still runs obsolete #crypto http://go.theregister.com/feed/www.theregister.co.uk/2016/02/19/bac_crypto_obsolete_oops/… #TheRegister,0,0,0,False
395,Team 300FPS ︻╦̵̵̿╤─@300FPSGAMING,Popcorntime Now Accepting In-App Bitcoin Donations http://btcf.co/1owY8zN #bitcoin #bitcoinnews #btc #cryptocurrency,0,0,0,False
396,John F. McClure@johnmcclure00,Feds Look Left And Right For Support And See Everyone Backing Apple http://bit.ly/24eazR0 #FBI #crypto #privacy #surveillance #infosec,0,0,0,False
397,Denny McEnroe@McEnroeDenny,Re: http://chopcoin.io - The new interactive Bitcoin game! http://cur.lv/vlmx7 #bitcoin #crypto,0,0,0,False
398,Denny McEnroe@McEnroeDenny,Re: [PAYING]DUALBITCOIN-WEBSITE COMING SOON - PROMOTION INSIDE!! 110% in 6 hours!! http://cur.lv/vlmx6 #bitcoin #crypto,0,0,0,False
399,Denny McEnroe@McEnroeDenny,Re: [ANN] (MCASH) MULTIMiLLiONAIRE COIN (X11) ❖❖❖❖❖❖❖❖❖❖❖❖❖❖❖❖❖❖❖❖❖❖❖❖❖❖d http://cur.lv/vlmx4 #bitcoin #crypto,0,0,0,False
400,Denny McEnroe@McEnroeDenny,Re: Wall Observer BTC/USD - Bitcoin price movement tracking & discussion http://cur.lv/vlmx2 #bitcoin #crypto,0,0,0,False
401,Team 300FPS ︻╦̵̵̿╤─@300FPSGAMING,PayPal Mobile Update Adds Better Android Security http://btcf.co/1ospMx5 #bitcoin #bitcoinnews #btc #cryptocurrency,0,0,0,False
402,Null TX@nulltxnews,PayPal Mobile Update Adds Better Android Security http://goo.gl/yRgeXe #bitcoin #bitcoinnews #btc #cryptocurrency,2,2,0,False
403,Defi@DefiFreakyBoo,"""Don't you stop loving me... Must be love on the brain."" 
#defi #defibitch #riri #rihanna… https://instagram.com/p/BB9-ajfFJE0/",2,0,0,False
404,CNXL.STUDIO@CNXLstudio,"pay in bitcoin for your online mixing and mastering service http://online-mixing.com
#btc #bitcoin #crypto #music #musicstudio #onlinemixing",4,0,0,False
405,Team 300FPS ︻╦̵̵̿╤─@300FPSGAMING,Insolvency Claims over VOX Holdings Draws Quick Response from Uphold http://btcf.co/1osp5ns #bitcoin #bitcoinnews #btc #cryptocurrency,0,0,0,False
406,PCN@PaymentsNet,"#EuropeanCentralBank is Open to #Blockchain #Technology: http://ow.ly/Yvy3t
#PCN #payments #cryptocurrency",2,1,0,False
407,Nick VanGilder@nickvangilder,MCAFEE: I'll decrypt San Bernardino phone free #crypto #AppleVsFBI http://businessinsider.com/john-mcafee-ill-decrypt-san-bernardino-phone-for-free-2016-2…,3,1,1,False
408,ferthee@ariesarcha,#OnlineMoney #bitcoin #FREE #earningonline #CryptoCurrency #todays2016 >>> http://ift.tt/1TKc1pU hourly!,0,0,0,False
419,Carlo Donzella@nerissimo,#McAfee will break iPhone #crypto for #FBI in 3 weeks or eat shoe on live TV http://arstechnica.co.uk/staff/2016/02/mcafee-will-break-iphone-crypto-for-fbi-in-3-weeks-or-eat-shoe-on-live-tv/… [heavy stuff indeed],1,0,0,False
420,Sleeping Horse #BRG@Hunting_Bitcoin,Claim your free Doge Coin every one hour just at http://freedoge.co.in/?r=314242 claim up to 900k doge coin #faucet #altcoin,0,0,0,False
421,CloudPay@Nadia_Griffiths,29 #Bitcoin Wallets That Are Supercharging #Cryptocurrency http://bit.ly/1KZ7hLa,2,1,0,False
422,FREE MONEY@FreeBitcoiners,"@lcvov 100% FREE TOP PAYING 'Crypto Faucets & Altcoin Wallets' ALL-IN-ONE PLACE! 
http://freecryptofaucets.com
#freebitcoin #altcoins",1,0,0,False
423,Zeth Couceiro@Zeth_Plexus,29 #Bitcoin #Wallets That Are Supercharging #Cryptocurrency | @LetsTalkPaymnts #payments @coinbase http://letstalkpayments.com/29-bitcoin-wallets-that-are-supercharging-cryptocurrency/…,2,0,0,False
424,coinOK@coinok,Win $150 in Dogecoins every hour! http://freedoge.co.in/?r=98385 #doge #dogecoin #btc #bitcoin #ltc #altcoin #cryptocurrency,1,1,0,False
425,CryptoFact@CryptoFact,"Don't delay - was $DOGED now $XVG - now 26 sats
BTC-XVG $XVG https://bittrex.com/Market/Index?MarketName=BTC-XVG… #XVG #Anonymous #currency #crypto #Bitcoin $BTC",1,3,0,False
426,World Trade Center Dublin@DublinWTC,A great resource for those concerned about #Bitcoin and #cryptocurrency from @Deloitte: http://ow.ly/YsWKw,0,0,0,False
427,Bitcoin Hourly@bitcoin_hourly,"Price Update: 1 #Bitcoin = $418.7000

#cryptocurrency source http://yhoo.it/1PH2nON (via @Flutter_HQ)",0,0,0,False
428,BitcoinBuzz vega9@BitcoinBuzzV9,http://bitcoinbuzz.vega9.com - Hot topics: #bitcoin #robotcoingame #blockchain #cryptocurrency #fintech #digital,1,0,0,False
429,Richard Krivo@RKrivoFX,"Why it’s time to start taking #bitcoin seriously http://marketwatch.com/story/heres-why-you-have-to-start-taking-bitcoin-seriously-2016-02-19?dist=beforebell… #currency #trading #forex #cryptocurrencyOpinion: Here’s why you have to start taking bitcoin seriouslyBitcoin, the digital currency, is no passing fad, writes Brett Arends.marketwatch.com",1,0,0,False
430,djnocide@djnocide,Want to work with crowdfunding and cryptocurrencies? contact @PICISIproject!! #PICISI #crowdfunding #cryptocurrency #future #fintech,2,1,0,False
431,CryptoSolar@Jo4Crypto,"Chip Chap Adds 4,000 Polish ATMs to Its Global Network http://cointelegraph.com/news/chip-chap-adds-4000-polish-atms-to-its-global-network… #Bitcoin #BTC @CryptoCompare #crypto #cryptocurrencyThe following media includes potentially sensitive content. Change settingsView",0,0,0,False
435,PumpingAltcoin@PumpingAltcoin,"#Altcoin News and #Pump Tips is out! http://paper.li/PumpingAltcoin/1399763175?edition_id=08e62750-d6f9-11e5-aacf-0cc47a0d1609… #Freebitcoin #Crypto #BTC #Mintpal Stories via @devnullius @yurimir12#Cryptocurrency #altcoin news dailyInterested in a 24/7 automatic bitcoin and altcoin passive income every day? Have you ever heard about GUNBOT, the fully automated crypto currency trading bo... by PumpingAltcoinpaper.li",0,0,0,False
436,Ellen Kaminski@EllenKaminski,"New ransom ware/malware is infecting via mailed bills in Europe, U.S. too  Don't click, Be safe #crypto locker #Trojan #Krypto #Locky",0,0,0,False
438,BlockChannel@BlockChannel,"BCN News: bitcoinist ""Is Margaret Runchey The Real Satoshi Nakamoto? http://ift.tt/1KZ2NUA #bitcoin #bitcoinnews #btc #cryptocurrency #a…",0,0,0,False
439,Cyber Security Daily News@CyberSecDN,#Hospital pays $17k for ransomware #crypto key http://arstechnica.com/security/2016/02/hospital-pays-17k-for-ransomware-crypto-key/… #Ransomware via @SecurityNewsbot,0,0,0,False
440,rssbtc.com@rssbtc,"A Dogecoin Pump-And-Dump To Start 2016
http://bit.ly/20IolXN
#btc #crypto #bitcoin",2,0,0,False
441,Bitcoin Hourly@bitcoin_hourly,"Price Update: 1 #Bitcoin = $417.4000

#cryptocurrency source http://yhoo.it/1PH2nON (via @Flutter_HQ)",0,0,0,False
442,BitcoinBuzz vega9@BitcoinBuzzV9,http://bitcoinbuzz.vega9.com - Hot topics: #bitcoin #blockchain #cryptocurrency #fintech #digital #numismatics,0,0,0,False
444,Chokri AlGhanmi@GhanmiChokri,"#Casino #Bitcoin #Crypto #Games

BitStarz Casino has been so well designed with a superb… https://instagram.com/p/-zlT6pu-GA/",0,0,0,False
445,rssbtc.com@rssbtc,"Bitcoin Price Watch; Corrective Reversal
http://bit.ly/1oOM90l
#btc #crypto",0,0,0,False
446,Bitcoinist.com@bitcoinist,Is Margaret Runchey The Real Satoshi Nakamoto? http://ift.tt/1KZ2NUA #bitcoin #bitcoinnews #btc #cryptocurrency #altcoins # money #freeb…,1,1,0,False
447,Julia Vaingurt@julia_vaingurt,"New waves of the internet of things #bitcoin #crypto #cryptocurrency http://cur.lv/vljcs
http://cur.lv/vljcv",0,0,0,False
448,Team 300FPS ︻╦̵̵̿╤─@300FPSGAMING,Is Margaret Runchey The Real Satoshi Nakamoto? http://btcf.co/1RbQfZy #bitcoin #bitcoinnews #btc #cryptocurrency,0,0,0,False
449,Julia Vaingurt@julia_vaingurt,"Rubycoin price weekly analysis – monstrous decline #bitcoin #crypto #cryptocurrency http://cur.lv/vlizt
http://cur.lv/vlizu",0,0,0,False
450,BitcoinTalkRadio.com@btctalkradio,Listen to @TheDailyDecrypt on http://BTCTalkRadio.com Weekdays @ 9:30Am & 4:30 Pm #News #bitcoin #Interviews #crypto,1,1,0,False
451,Fintech Prowler@FintechProwler,Bitcoin Technical Analysis for 2/19/16 – Double Cross - The Merkle (blog) http://ift.tt/1LwGYa9 #altcoin,0,0,0,False
452,PwC_Luxembourg@PwC_Luxembourg,How might #Cryptocurrency Technology disrupt the financial sector? https://goo.gl/uMXog7 #fchpwcl,1,1,0,False
453,Nicolas Bombourg@Nbombourg,Time to go further. New #blockchain is coming https://nxtforum.org/general-discussion/(pre-ann)-time-to-go-further-new-chain-is-coming/… #innovation #tech #entrepreneur #crypto #ne…,2,0,0,False
454,NEWSBTC@newsbtc,Ethereum price after collapsing finally managed to find #cryptocurrency #currency #USD http://goo.gl/uFAOf5,1,1,0,False
455,Martin (mx)@Ergobug,Time to go further. New #blockchain is coming https://nxtforum.org/general-discussion/(pre-ann)-time-to-go-further-new-chain-is-coming/… #innovation #tech #entrepreneur #crypto #news,12,14,1,False
458,Denny McEnroe@McEnroeDenny,Re: Burger King Accepts Bitcoin http://cur.lv/vlhwi #bitcoin #crypto,0,0,0,False
459,Denny McEnroe@McEnroeDenny,Re: The lust for banks...WHAT is going on? http://cur.lv/vlhwh #bitcoin #crypto,0,0,0,False
460,Denny McEnroe@McEnroeDenny,Re:  ♛BITCOINSHARES.eu  3% to 20% profit daily  Invest game http://cur.lv/vlhwg #bitcoin #crypto,0,0,0,False
461,Denny McEnroe@McEnroeDenny,Re: What to do with your 13 bitcoins http://cur.lv/vlhwf #bitcoin #crypto,0,0,0,False
462,Denny McEnroe@McEnroeDenny,Re: Best Investments http://cur.lv/vlhwd #bitcoin #crypto,0,0,0,False
463,Crypto Blockchain Investor@iCryptocurrency,#Cryptocurrency News: Smooth Sailing for Altcoins Through Bitcoin’s Block Size Limit Problems - http://cryptocurrency.website/smooth-sailing-for-altcoins-through-bitcoins-block-size-limit-problems/… #News #Bitcoin,0,0,0,False
464,Crypto Blockchain Investor@iCryptocurrency,#Cryptocurrency News: European Central Bank is Open to Blockchain Technology - http://cryptocurrency.website/european-central-bank-is-open-to-blockchain-technology/… #News #Bitcoin,0,0,0,False
465,Crypto Blockchain Investor@iCryptocurrency,#Cryptocurrency News: The Fifth Amendment and Bitcoin: Why the Battle is About to Begin - http://cryptocurrency.website/the-fifth-amendment-and-bitcoin-why-the-battle-is-about-to-begin/… #News #Bitcoin,0,0,0,False
466,Crypto Blockchain Investor@iCryptocurrency,#Cryptocurrency News: Prosecutors Set to Indict Suspect in Bitcoin Mine Stabbing - http://cryptocurrency.website/prosecutors-set-to-indict-suspect-in-bitcoin-mine-stabbing/… #News #Bitcoin,0,0,0,False
467,Crypto Blockchain Investor@iCryptocurrency,#Cryptocurrency News: New Bill May Give a Green Light to Bitcoin Exchanges in Wyoming - http://cryptocurrency.website/new-bill-may-give-a-green-light-to-bitcoin-exchanges-in-wyoming/… #News #Bitcoin,0,0,0,False
468,Crypto Blockchain Investor@iCryptocurrency,#Cryptocurrency News: ISITC: Blockchain Investment Impact 12 to 18 Months Away - http://cryptocurrency.website/isitc-blockchain-investment-impact-12-to-18-months-away/… #News #Bitcoin,0,0,0,False
469,Crypto Blockchain Investor@iCryptocurrency,#Cryptocurrency News: Bitcoin Mining Firm Butterfly Labs Settles with FTC Over Customer Deception - http://cryptocurrency.website/bitcoin-mining-firm-butterfly-labs-settles-with-ftc-over-customer-deception-charges/… #News #Bitcoin,0,0,0,False
470,Crypto Blockchain Investor@iCryptocurrency,#Cryptocurrency News: A Dogecoin Pump-And-Dump To Start 2016 - http://cryptocurrency.website/a-dogecoin-pump-and-dump-to-start-2016/… #News #Bitcoin,0,0,0,False
471,Bitcoin Hourly@bitcoin_hourly,"Price Update: 1 #Bitcoin = $418.5400

#cryptocurrency source http://yhoo.it/1PH2nON (via @Flutter_HQ)",0,0,0,False
472,BitcoinBuzz vega9@BitcoinBuzzV9,http://bitcoinbuzz.vega9.com - Hot topics: #sharktank #bitcoin #blockchain #fintech #cryptocurrency #digital,0,0,0,False
473,Crypto Oz@CryptoOz,"Don't delay - was $DOGED now $XVG - now 26 sats
BTC-XVG $XVG https://bittrex.com/Market/Index?MarketName=BTC-XVG… #XVG
#Anonymous #currency #crypto #Bitcoin $BTC",1,2,0,False
474,International CCC@Int_CCC,Today's Crypto Chronicle! News about #bitcoin #cryptocurrency and more! http://paper.li/Int_CCC/1409392381?edition_id=be973810-d6ee-11e5-bbe0-002590a5ba2d…,0,0,0,False
475,BlockChannel@BlockChannel,"BCN News: themerklenews: End The Satoshi Nakamoto Manhunt Already http://goo.gl/boNZ4F #bitcoin #bitcoinnews #btc #cryptocurrencyEnd The Satoshi Nakamoto Manhunt AlreadyThe mysterious creator of Bitcoin - known by the name of Satoshi Nakamoto - keeps sparking the imagination of people around the world. For some reason, it is of great importance to figure out who creathemerkle.com",1,0,0,False
476,Sentifi Canada@Sentifi_CA,"A #Dogecoin Pump-And-Dump To Start 2016 http://bit.ly/1RbMh36
#cryptocurrency #bitcoin #blockchain",0,0,0,False
477,Andrew Spencer@andrewspencer99,Mining Bitcoin http://andrewspencer.uk.com/mining-bitcoin #crypto #currency via @andrewspencer99,0,0,0,False
478,Crypto Yoyo@cryptoyoyo,Bitcoin could help cut power bills http://bit.ly/1PVJvfI #bitcoin #crypto #news,0,0,0,False
479,DOGE Economist@Dogeeconomist,"Much #economy, so wow made 0.032 #BTC tonight trading, Learn about #altcoins in market
https://yobit.net/en/coinsinfo/?bonus=SpaWh… #Bitcoin #cryptocurrency",2,0,0,False
480,anuncio rocks media@anuncio_rocks,#Bitcoin could help cut power bills - BBC #News #technology #cryptocurrency http://bbc.co.uk/news/technology-35604674…,0,0,0,False
481,Team 300FPS ︻╦̵̵̿╤─@300FPSGAMING,A Dogecoin Pump-And-Dump To Start 2016 http://btcf.co/21cSL6v #bitcoin #bitcoinnews #btc #cryptocurrency,1,0,0,False
482,Team 300FPS ︻╦̵̵̿╤─@300FPSGAMING,A Dogecoin Pump-And-Dump To Start 2016 http://btcf.co/1TpRaYs #bitcoin #bitcoinnews #btc #cryptocurrency,0,0,0,False
483,Dash@Dashpay,"@JuanSGalt on 'The Crypto Show' 
talking about Dash
(segment starts at 23:10)
https://soundcloud.com/heryptohow/roger-ver-vs-joby-weeks-sasha-daygame-juan-galt-jeff-berwick…
#Dash #Cryptocurrency #The_Crypto_ShowRoger Ver Vs Joby Weeks. Sasha DayGame, Juan Galt, Jeff BerwickAs we come live from Anarchapulco Roger Ver and Joby Weeks face off on Bitclub. Sasha DayGame and Joby kick off the show joined by Jeff Berwick and Juan Galt. Then Ernest Hancock joins in to closesoundcloud.com",2,1,0,False
489,Farah K. Miraza@farahkaifa,#cryptocurrency #crypto A Dogecoin Pump-And-Dump To Start 2016 http://ow.ly/3buZii,2,0,0,False
490,Ivan Tuma@IvanTumaJr,"Replying to @TonyRobbins@TonyRobbins Tony, also adding honorable metion 4 unique #altcoins like @CureCoin_Team https://facebook.com/Curecoin",11,2,0,False
491,Team 300FPS ︻╦̵̵̿╤─@300FPSGAMING,End The Satoshi Nakamoto Manhunt Already http://btcf.co/21cRUCU #bitcoin #bitcoinnews #btc #cryptocurrency,0,0,0,False
492,Paul Moore@Paul_Reviews,"Someone give John 3 encrypted #iPhones, 3 different #passwords & 3 weeks.

#SanBernardino #proveIT #cryptoQuote TweetJohn McAfee@officialmcafee · Feb 18, 2016My Message to the FBI

http://businessinsider.com/john-mcafee-ill-decrypt-san-bernardino-phone-for-free-2016-2…",1,3,0,False
493,Null TX@nulltxnews,"End The Satoshi Nakamoto Manhunt Already http://goo.gl/boNZ4F #bitcoin #bitcoinnews #btc #cryptocurrencyEnd The Satoshi Nakamoto Manhunt AlreadyThe mysterious creator of Bitcoin - known by the name of Satoshi Nakamoto - keeps sparking the imagination of people around the world. For some reason, it is of great importance to figure out who creathemerkle.com",0,0,0,False
494,CyberDexter@thecyberdexter,"#Scam Alert: Cryptopolis #Altcoin Exchange Is A @Cryptsy Clone -  http://themerkle.com/news/cryptopolis-altcoin-exchange-cryptsy-clone/… #bitcoin #tradingCryptopolis Altcoin Exchange Is A Cryptsy CloneOn paper, everyone in the world can start their own digital currency exchange, as long as there is no fiat currency involved. In reality, however, that may prove to be a bit more problematic, dependinthemerkle.com",1,1,0,False
495,Six Axis@sixaxisdrones,"How to build your baby: https://youtube.com/watch?v=OFxUgOdeIWs… $SIX #cryptocurrency #droneracing #dronesHow To Build A FPV Racing Quadcopter Part 1 - Parts ListFor all things drone, please visit: http://www.readysetdrone.comIf you have thought about building your own racing quadcopter, this video is a great place to...youtube.com",1,0,0,False
496,HYPER Crypto@HyperCrypto,See all the $HYPER supported game servers at: http://hypercrypto.com/?FrO #gaming #cryptocurrency #bitcoin http://imgur.com/YYnPfsY?kPv29,2,0,0,False
497,Farah K. Miraza@farahkaifa,#cryptocurrency #crypto New Bill May Legalize Bitcoin Exchanges in Wyoming http://ow.ly/3buX8r,1,0,0,False
498,Bitcoin Hourly@bitcoin_hourly,"Price Update: 1 #Bitcoin = $419.0900

#cryptocurrency source http://yhoo.it/1PH2nON (via @Flutter_HQ)",0,0,0,False
499,BitcoinBuzz vega9@BitcoinBuzzV9,http://bitcoinbuzz.vega9.com - Hot topics: #mmmextra #sharktank #bitcoin #blockchain #fintech #cryptocurrency,0,0,0,False
500,Passive Income@PassiveIncoming,"@EnricoVerga Really digging some these FREE BITCOIN FAUCETS!
http://freecryptofaucets.com
#cryptofaucets #bitcoin #altcoin #cryptocurrency",0,0,0,False
501,FinTech Summary@FinTechSummary,JPMorgan Chase & Co. Joins #Blockchain Club http://buff.ly/1TtR6rL #FinTech #Bitcoin #Cryptocurrency,6,4,0,False
502,bitcoinblackjack@btcblackjack,btcblackjack: McEnroeDenny: Re: Would you play in btc casino that doesn't offer Bonus ? http://cur.lv/vlcik #bitcoin #crypto,0,0,0,False
503,Denny McEnroe@McEnroeDenny,Re: New web Wallet Staking system OPEN FOR TESTERS http://JustStake.Online http://cur.lv/vlf3e #bitcoin #crypto,0,0,0,False
504,Denny McEnroe@McEnroeDenny,Re: The future of Bitcoin http://cur.lv/vlf3b #bitcoin #crypto,0,0,0,False
505,Denny McEnroe@McEnroeDenny,Re: Why do you buy Bitcoins? http://cur.lv/vlf3a #bitcoin #crypto,0,0,0,False
506,Denny McEnroe@McEnroeDenny,Re: █ ANN █ SIX █ █ █ █ SIXAXIS █ █ █ █ ADVANCED █ DRONE █ RACING █ http://cur.lv/vlf38 #bitcoin #crypto,2,0,0,False
507,OpenLedger@OpenLedgerDC,#ShareBits gives #Bitcoin users another way to #tip on #Twitter http://po.st/DC9148 via @maxkeiser #OpenLedger #blockchain #BTC #crypto,2,0,0,False
522,Ynef@ynefnet,Head and shoulders forming on Bitcoin 1H: http://ynef.net/is-420-the-new-floor-for-bitcoin/… #Bitcoin #cryptocurrency,0,0,0,False
523,NE Patriots Dynasty@NEPatsDynasty,@wealth Creation The concept of #money http://ilgamosilcoin.com/ilgamos-ilcoin.html… check it out. The Future of Money. #Crypto #Bitcoin,0,0,0,False
524,sonsofliberty2016@Thefedendsnow,#Phillipines #Muecoin #askastoreaday #Vegas and #MontaryUnit meet in #18b #DTVL #TheArtsFactoryLV #BTM #crypto #deals,0,0,0,False
525,The Bestest@BestQuotesPM,The smallest things get bigger if you excite and arouse them enough. #rimbit #cryptocurrency http://rimbit-uk.com,0,0,0,False
526,CryptoRSS@CryptoRSS,Apple Technically Able to Help FBI Crack Shooter’s iPhone: Security expert Dan Guido wrote that Apple ... http://bit.ly/1owprKo #crypto,0,0,0,False
527,Bitcoinist.com@bitcoinist,"Kanye West Doesn’t Understand Digital Distribution, P2P Technology http://ift.tt/1Oj8K9T #bitcoin #bitcoinnews #btc #cryptocurrency #alt…",1,5,0,False
528,STIDIA Security@STIDIA_Security,#McAfee will break #iPhone #crypto for #FBI in 3 weeks or eat shoe on live TV http://goo.gl/fb/y83Esu #secinfo,2,7,0,False
529,Team 300FPS ︻╦̵̵̿╤─@300FPSGAMING,"Kanye West Doesn’t Understand Digital Distribution, P2P Technology http://btcf.co/1TtPkae #bitcoin #bitcoinnews #btc #cryptocurrency",0,0,0,False
530,The Bestest@BestQuotesPM,"""Opportunities are like sunrises. If you wait too long, you miss them.""  #cryptocurrency http://rimbit-uk.com",1,0,0,False
531,BlockChannel@BlockChannel,BCN News: themerklenews: Cryptopolis Altcoin Exchange Is A Cryptsy Clone http://goo.gl/dT0X22 #bitcoin #bitcoinnews #btc #cryptocurrency,0,0,0,False
532,Mailfence@Mailfence,#Encryption Debate: The Issue Isn’t Strong Crypto; It’s Easy #Crypto http://buff.ly/1PN62eD,1,0,0,False
536,Fintech Prowler@FintechProwler,Cryptopolis Altcoin Exchange Is A Cryptsy Clone - The Merkle (blog) http://ift.tt/212hEFf #altcoin,1,0,0,False
537,Bitcoin Hourly@bitcoin_hourly,"Price Update: 1 #Bitcoin = $417.8200

#cryptocurrency source http://yhoo.it/1PH2nON (via @Flutter_HQ)",0,0,0,False
538,BitcoinBuzz vega9@BitcoinBuzzV9,http://bitcoinbuzz.vega9.com - Hot topics: #mmmextra #bitcoin #translation #btc #cryptocurrency #mmmglobal,0,0,0,False
539,bitcoinblackjack@btcblackjack,McEnroeDenny: Re: Would you play in btc casino that doesn't offer Bonus ? http://cur.lv/vlcik #bitcoin #crypto,0,0,0,False
540,Team 300FPS ︻╦̵̵̿╤─@300FPSGAMING,Cryptopolis Altcoin Exchange Is A Cryptsy Clone http://btcf.co/1TtNpCt #bitcoin #bitcoinnews #btc #cryptocurrency,0,0,0,False
541,Null TX@nulltxnews,"Cryptopolis Altcoin Exchange Is A Cryptsy Clone http://goo.gl/dT0X22 #bitcoin #bitcoinnews #btc #cryptocurrencyCryptopolis Altcoin Exchange Is A Cryptsy CloneOn paper, everyone in the world can start their own digital currency exchange, as long as there is no fiat currency involved. In reality, however, that may prove to be a bit more problematic, dependinthemerkle.com",2,0,0,False
542,Gareth Niblett@garethniblett,"Famed iPhone hacker explains why FBI’s backdoor request is such a bad idea #cryptoFamed iPhone hacker explains why FBI’s backdoor request is such a bad ideaWhen it comes to hacking the iPhone, it's hard to find anyone with more …cultofmac.com",2,0,0,False
543,Gareth Niblett@garethniblett,Apple reportedly enlists aid of free-speech attorneys in encryption battle #crypto #backdoor http://iphone.appleinsider.com/articles/16/02/18/apple-reportedly-enlists-aid-of-free-speech-attorneys-in-encryption-battle…,0,0,0,False
544,David Cooper@coolbeansweb23,"RT kmeersch #Crypto-#ransomware, A Growing Threat to #Healthcare http://blog.trendmicro.com/crypto-ransomware-a-growing-threat-to-healthcare/… #healthcare",0,0,0,False
545,M4n B4r@martinboller,"So based on #Apple own admission, the Secure Enclave is not #securebydesign #Crypto #backdoor #FBiOS",0,0,0,False
546,Kevin Meerschaert@kmeersch,"#Crypto-#ransomware, A Growing Threat to #Healthcare http://blog.trendmicro.com/crypto-ransomware-a-growing-threat-to-healthcare/… #healthcare",0,0,0,False
547,Bitcoin@bitcoinpoet,New Bill Seeks To Change Fate Of Digital Currency Businesses In Wyoming: The Act that was intr... http://btcs.me/21cGtuI #cryptocurrency,2,0,0,False
548,The Bestest@BestQuotesPM,Get that Walter White-type chedder with the fastest growing #cryptocurrency in the world http://rimbit-uk.com,0,0,0,False
549,CryptoFact@CryptoFact,ShareBits Let You Tip Anyone #Crypto Tokens via Twitter in Seconds IHB News http://lsh.re/YJWR #OpenLedger #crypto #blockchain #Doge,1,2,0,False
550,Julia Vaingurt@julia_vaingurt,"Burger King in the Netherlands Accepts Bitcoin - newsBTC - http://cur.lv/vlclr
 | #Bitcoin News #cryptocurrency",1,0,0,False
551,Network2Share@Network2share,Backdoors Would Introduce IT Infrastructure Risks: ENISA http://bit.ly/1ovPVvM via @SecurityWeek #crypto,1,2,0,False
552,Denny McEnroe@McEnroeDenny,Re: Would you play in btc casino that doesn't offer Bonus ? http://cur.lv/vlcik #bitcoin #crypto,0,0,0,False
553,Denny McEnroe@McEnroeDenny,Re: want buy Valorbit price @1sat http://cur.lv/vlcih #bitcoin #crypto,0,0,0,False
554,Denny McEnroe@McEnroeDenny,Re: When do you buy Bitcoin ? http://cur.lv/vlcif #bitcoin #crypto,0,0,0,False
555,Denny McEnroe@McEnroeDenny,Re: Valorbit  |  VAL |  https://valorbit.com  | Valorbit coins Distributed By Humans http://cur.lv/vlcie #bitcoin #crypto,0,0,0,False
556,Denny McEnroe@McEnroeDenny,Re: BM's A/B Game http://cur.lv/vlcid #bitcoin #crypto,0,0,0,False
564,The Bestest@BestQuotesPM,"With over 20 million #rimbit (RBT)distributed in over 20 countries, be part of the unstoppable Rimbit train. http://rimbit-uk.com #crypto",0,0,0,False
565,The Bestest@BestQuotesPM,"Solid, dependable, reliable. #Rimbit is an authentic #cryptocurrency with massive potential. http://rimbit-uk.com",1,0,0,False
566,Crypto Yoyo@cryptoyoyo,Bitcoin Technical Analysis for 2/19/16 – Double Cross http://bit.ly/1KtSbxi #bitcoin #crypto #news,0,0,0,False
567,Crypto Yoyo@cryptoyoyo,Burger King in the Netherlands Accepts Bitcoin http://bit.ly/1Oj5ivV #bitcoin #crypto #news,0,0,0,False
568,NE Patriots Dynasty@NEPatsDynasty,"ILGamos 4 in 1 Trading Platform goes live #Crypto #Money #stocks #Gold 
NEW ILCOIN JOIN FREE Click here http://buygold.ilgamos.com/buy?buy_type=1",0,0,0,False
569,Kimmo Vesajoki@vesajoki,"Ransomware has pervasive nature and is easy to use, #crypto #ransomware is most rapidly growing form of this threatCrypto-ransomware, A Growing Threat to Healthcare -With the recent reports of several healthcare organizations being hit with crypto-ransomware, we’ve received many inquiries about the recent trends we’ve seen with this threat. Ransomware is nothing...blog.trendmicro.com",1,0,0,False
570,PinkMona@pinkmona_org,#bitcoin #altcoin #dogecoin Let's Hentai! Come on PinkMona!→http://pinkmona.org,0,0,0,False
571,Julia Vaingurt@julia_vaingurt,"#Bitshares 2.0 released with #OpenLedger http://cur.lv/vlbkh
 … #BitSharesMunich #blockchain #fintech #bitcoin #crypto #BitShares #eco",1,1,0,False
572,OpenLedger@OpenLedgerDC,#Bitshares 2.0 released with #OpenLedger http://cointelegraph.com/news/115408/scalability-privacy-at-forefront-of-bitshares-20-release… … #BitSharesMunich #blockchain #fintech #bitcoin #crypto #BitShares #eco,0,0,0,False
573,Bitcoin Hourly@bitcoin_hourly,"Price Update: 1 #Bitcoin = $418.4500

#cryptocurrency source http://yhoo.it/1PH2nON (via @Flutter_HQ)",0,0,0,False
575,LocalDayz@localdayz,Pool looking for a community manager. Use http://laintimes.com/contact/ for join US. #cryptocurrency,0,0,0,False
576,HYPER Crypto@HyperCrypto,Favorite #MMA @jonfitchdotnet #jonfitch is a #crypto #bitcoin $HYPER Supporter  Thanks Jon!  #esports #GoJonFitchImgurimgur.com,2,0,0,False
577,NEWSBTC@newsbtc,The Netherlands’ Arnhem city is known to be one of the most #bitcoin friend #crypto #EURUSD http://goo.gl/3OIGVH,1,1,1,False
578,Julia Vaingurt@julia_vaingurt,"A NEW #bitcoin #investment project http://cur.lv/vlay0
#cryptocurrency #finance",0,0,0,False
580,Logan Fortier@logan4ta,"I just want to see #McAfee eat a shoe! #AppleVsFBI #crypto Quote TweetArs Technica@arstechnica · Feb 18, 2016McAfee will break iPhone crypto for FBI in 3 weeks or eat shoe on live TV http://arstechnica.com/staff/2016/02/mcafee-will-break-iphone-crypto-for-fbi-in-3-weeks-or-eat-shoe-on-live-tv/… by @Lee_Ars",1,0,0,False
581,OpenLedger@OpenLedgerDC,ShareBits Let You Tip Anyone Crypto Tokens via Twitter in Seconds • IHB News™ http://lsh.re/YJWR #OpenLedger #crypto #blockchain #Doge,2,0,0,False
582,Denny McEnroe@McEnroeDenny,Re: [PAYING]DUALBITCOIN-WEBSITE COMING SOON - PROMOTION INSIDE!! 110% in 6 hours!! http://cur.lv/vlab2 #bitcoin #crypto,0,0,0,False
594,VergeCurrency@vergecurrency,Our #TOR web wallet can be found here: http://vcmlfg3fgsmy2teu.onion #privacy #torproject #btc #crypto @torproject,33,33,0,False
595,NE Patriots Dynasty@NEPatsDynasty,"#Crypto Traders. http://thinkingalpha.com/forum/index.php?qa=1628&qa_1=4-in-1-Trading-Platform-Gold,-Stocks,-Euros,-iLCoins… #Money",0,0,0,False
596,Crypto Yoyo@cryptoyoyo,Africa's big banks are betting on fintech startups and bitcoin to beat disruption http://bit.ly/1VrhhNB #bitcoin #crypto #news,0,0,0,False
597,Konstantinos Tselios@qwerty105s,“#Locky” #crypto-#ransomware rides in on malicious #Word document #macro |“Locky” crypto-ransomware rides in on malicious Word document macroMalware depends on users falling for its pleas—twice if Office macros aren't on.arstechnica.com,0,0,0,False
598,Julia Vaingurt@julia_vaingurt,"Win #bitcoin on http://cur.lv/vla91
 Simple #BTC game, just guess size of next #cryptocurrency block Multiplayer game, first of its kind",0,0,0,False
599,NE Patriots Dynasty@NEPatsDynasty,HERE IT IS. The Next #Crypto #Currency #Bitcoin. It is called #ILCoin Join FREE Today. Click here http://buygold.ilgamos.com/buy?buy_type=1,0,0,0,False
600,Bitcoin Hourly@bitcoin_hourly,"Price Update: 1 #Bitcoin = $419.4500

#cryptocurrency source http://yhoo.it/1PH2nON (via @Flutter_HQ)",0,0,0,False
601,XBTFreelancer.com@XBTFreelancer,Online mystery shopper - repost8  #freelance #btc #crypto #bitcoin http://xbtfreelancer.com/prj/914/online-mystery-shopper… ฿0.356,0,0,0,False
602,Julia Vaingurt@julia_vaingurt,"Hashrate of #mining pools supporting #bitcoin classic reaches 51% #crypto #cryptocurrency http://cur.lv/vl9uw
http://cur.lv/vl9uz",0,0,0,False
603,Fortune. Bit by Bit!@FortuneBitXBit,Bitcoin Watcher : @Bitcoin_Watcher: The Daily #Altcoin News… http://sh.st/W46ne #BitCoin,0,0,0,False
610,CryptoRSS@CryptoRSS,Bitcoin Mining Firm Butterfly Labs Settles with FTC Over Customer Deception Charges: The US Federal Tr... http://bit.ly/1SDuvZQ #crypto,0,0,0,False
611,Julia Vaingurt@julia_vaingurt,"Chery Auto to develop aircraft engine for Austrian firm http://cur.lv/vl9p9
#bitcoin #cryptocurrency",0,0,0,False
612,Markus Peter@MarkusPeter,"What Is Cryptocurrency – How It Works, History & Bitcoin Alternatives: http://bit.ly/1TpzZpY via @MoneyCrashers #cryptocurrency #fintech",1,0,0,False
613,Fintech Prowler@FintechProwler,Bitcoin Technical Analysis for 2/19/16 – Double Cross - The Merkle (blog) http://ift.tt/1TtDJbe #altcoin,0,0,0,False
614,Crypto Yoyo@cryptoyoyo,Bitcoin mining firm Butterfly Labs settles FTC charges http://bit.ly/21crEsn #bitcoin #crypto #news,0,0,0,False
615,Crypto Yoyo@cryptoyoyo,Bitcoin Startup Bridge21 Joins 2016 Techstars Boulder Class http://bit.ly/1Qo075n #bitcoin #crypto #news,2,0,0,False
616,NE Patriots Dynasty@NEPatsDynasty,Gold & #Crypto-Currency in one clever system. Join the Digital Currency Revolution and turn your #PROFITS into GOLD http://dld.bz/dARdH,0,0,0,False
617,Null TX@nulltxnews,Bitcoin Technical Analysis for 2/19/16 – Double Cross http://goo.gl/OYNzkI #bitcoin #bitcoinnews #cryptocurrency,5,0,0,False
618,Bitcoin Hourly@bitcoin_hourly,"Price Update: 1 #Bitcoin = $421.3200

#cryptocurrency source http://yhoo.it/1PH2nON (via @Flutter_HQ)",0,0,0,False
619,BitcoinBuzz vega9@BitcoinBuzzV9,http://bitcoinbuzz.vega9.com - Hot topics: #mmmglobalwww #bitcoin #mmmextra #mmmglobal #btc #cryptocurrency,0,0,0,False
620,LocalDayz@localdayz,#auroracoin Download wallet https://github.com/aurarad/auroracoin… and Join the pool on http://pool.laintimes.com #cryptocurrency,0,0,0,False
621,Denny McEnroe@McEnroeDenny,Re:  No SCAM %100 Guarantee Bitcoin Your investments 48 hours %24 profit Ref %5  http://cur.lv/vl8cb #bitcoin #crypto,0,0,0,False
622,Denny McEnroe@McEnroeDenny,Re: [SELLING] 50$ VOUCHER BING ADS http://cur.lv/vl8ca #bitcoin #crypto,0,0,0,False
623,Denny McEnroe@McEnroeDenny,Re: [ANN][NOTE]DNotes - Company Launch and Book for Small Business Owners in 2016... http://cur.lv/vl8c9 #bitcoin #crypto,1,0,0,False
624,Denny McEnroe@McEnroeDenny,Re: Valorbit  |  VAL |  https://valorbit.com  | Valorbit coins Distributed By Humans http://cur.lv/vl8c7 #bitcoin #crypto,0,0,0,False
625,Team 300FPS ︻╦̵̵̿╤─@300FPSGAMING,Bitcoin Technical Analysis for 2/19/16 – Double Cross http://btcf.co/20HPXfo #bitcoin #bitcoinnews #btc #cryptocurrency,1,0,0,False
626,BitcoinAgile@bitcoinagile,Ethereum Price Technical Analysis  Sellers Watch Out - NEWSBTC #Bitcoin #Crypto http://bit.ly/1SDn4ls,1,0,0,False
627,EUROPECOIN  (.eu.org)@europecoinEUORG,"EUROPECOIN MISSIONSTATEMENT ROADMAP QUICKINFO
http://goo.gl/0qMpy3 PLZ RETWEET #crypto #fintech #altcoin #bittrex",13,12,0,False
628,Coin Tiny@CoinTiny,First Blockchain Payment Processing Platform Launched in Vietnam #CryptoCurrency #CryptoGIF,0,0,0,False
632,Coin Tiny@CoinTiny,"Wargamer? You Can Now Buy Tanks, Fighter Jets and even Warships with Bitcoin #CryptoCurrency #CryptoGIF",0,0,0,False
633,Coin Tiny@CoinTiny,First Global Credit Expands Bitcoin Margin Trading to London Stock Exchange #CryptoCurrency #CryptoGIF,0,0,0,False
634,Coin Tiny@CoinTiny,2016 Bitcoin Price Predictions Are Bullish But Tamer Than Previous Years #CryptoCurrency #CryptoGIF,0,0,0,False
635,Passive Income@PassiveIncoming,"@Adamaus_Smith Really digging some these FREE BITCOIN FAUCETS!
http://freecryptofaucets.com
#cryptofaucets #bitcoin #altcoin #cryptocurrency",1,0,0,False
636,SUPERCOINS REVIVAL@SupercoinR,#Supercoin info https://bitcointalk.org/index.php?topic=1351548.0… #cryptocurrency #altcoins #anonymous #transaction #multisignature #btc #dash #monero #yobit #bitcoin,2,6,0,False
637,BlockChannel@BlockChannel,"BCN News: bitcoinist ""Sharebits.io: Improving Social Media With Crypto http://ift.tt/1QnFI0c #bitcoin #bitcoinnews #btc #cryptocurrency …",0,0,0,False
638,Scripting Future @scriptingfuture,BITCOIN_RUSH 61 EUROPECOIN TODAY #crypto #fintech #altcoin #bitcoin #bittrex #altcoins #iot #blockchain plz RETWEET,12,4,0,False
639,Deborah Grigsby@NoFilmNeeded,"""Hospital pays $17k for ransomware #crypto key"" #tech http://arstechnica.com/security/2016/02/hospital-pays-17k-for-ransomware-crypto-key/…",0,0,0,False
640,Crypto Yoyo@cryptoyoyo,Bitcoin Hardware Company Butterfly Labs Settles with the FTC For Being Crooked http://bit.ly/1mLbt5D #bitcoin #crypto #news,0,0,0,False
641,Crypto Yoyo@cryptoyoyo,Butterfly Labs can't afford the $39M fine to settle charges it duped bitcoin hopefuls http://bit.ly/1ovS1vr #bitcoin #crypto #news,0,0,0,False
642,Bitcoin Hourly@bitcoin_hourly,"Price Update: 1 #Bitcoin = $421.5900

#cryptocurrency source http://yhoo.it/1PH2nON (via @Flutter_HQ)",0,0,0,False
643,XBTFreelancer.com@XBTFreelancer,#bitcoin create a news site for Factom with built in exchange http://xbtfreelancer.com/prj/921/create-a-news-site-for-factom-with-built-in-exchange… #cryptocurrency #cash #programming,0,0,0,False
