,user,text,likes,retweets,replies,is_thread
0,notsofast@notsofast,Replying to @RockyCozzo@RockyCozzo no problem! googling a new #altcoin's mainnode to see if it's been used in scams before is easy research more people should do,0,0,0,False
1,Crypto Yoyo@cryptoyoyo,Buy bitcoins http://bit.ly/1SdKNYA #bitcoin #crypto #news,0,0,0,False
2,Julia Vaingurt@julia_vaingurt,"Keepkey vs trezor – #bitcoin hardware wallet review #crypto #cryptocurrency http://cur.lv/vztc8
http://cur.lv/vztca",0,0,0,False
3,NE Patriots Dynasty@NEPatsDynasty,The New #money system #crypto #Ilcoin #ilgamos #Bitcoin http://ilgamosilcoin.com/ilgamos-oprs-ilcoins.html… future online payment system,0,0,0,False
4,Ali Güçlü@aliguclu,"CryptoCoinsNews : Bitcoin Price Perspective https://cryptocoinsnews.com/bitcoin-price-perspective/… #cryptocurrency … https://twitter.com/CryptoCoinsNews/status/704443474909765633…)Quote TweetCCN - Capital & Celeb News@CapitalAndCeleb · Feb 29, 2016Bitcoin Price Perspective https://cryptocoinsnews.com/bitcoin-price-perspective/… #cryptocurrency",0,0,0,False
5,Crypto Yoyo@cryptoyoyo,"OpEd: In Butterfly Labs Case, FTC Shows Little Regard For Bitcoiners http://bit.ly/1RgIRcY #bitcoin #crypto #news",0,0,0,False
6,CCN - Capital & Celeb News@CapitalAndCeleb,"Bitcoin Consensus, Core vs Classic Debate & Bitcoin Price: An Interview with https://cryptocoinsnews.com/bitcoin-consensus-core-vs-classic-debate-bitcoin-price-interview-btcc-coo-samson-mow/… #cryptocurrency",9,0,0,False
7,Rimbit @rimbit,"Fiat, Inflation and Economic Turmoil on the horizon | Rimbit Crypto Currency #rimbit #altcoins #bitcoin http://buff.ly/1oKkjSz",0,0,0,False
8,Cryptolized™@Cryptolized,New Hampshire: The World’s Most Bitcoin-Friendly Community http://twib.in/l/ypB5n7yxaGE #cryptocurrency | https://twibble.io,0,0,0,False
9,David Liam@crazydaveorama,Will #Bitcoin ever become true currency? It’s already halfway there! #cryptocurrency http://dcebrief.com/will-bitcoin-ever-become-true-currency-its-already-halfway-there/…,0,0,0,False
10,David Liam@crazydaveorama,"The case for #bitcoin #cryptocurrency http://computerworld.com/article/3038065/e-commerce/the-case-for-bitcoin.html… via @computerworldThe case for bitcoinCryptocurrency promises online transactions at lower cost and with better security. Will the current leading cryptocurrency, bitcoin, succeed? The industry needs to get more creative.computerworld.com",1,0,0,False
11,CCN - Capital & Celeb News@CapitalAndCeleb,Bitcoin Price Perspective https://cryptocoinsnews.com/bitcoin-price-perspective/… #cryptocurrency,1,4,0,False
15,David Liam@crazydaveorama,"US Bankruptcy Court's ruling could help #HashFast trustee recover $1.3 million #cryptocurrency #bitcoinUS Bankruptcy Court's ruling could help HashFast trustee recover $1.3 million » Brave New CoinJudge Dennis Montali, presiding over the United States Bankruptcy Court for the Northern District of California, ruled that Bitcoin should be classified as “intangible personal property.”bravenewcoin.com",0,0,0,False
16,Julia Vaingurt@julia_vaingurt,"The #bitcoin round table states its case for core #crypto #cryptocurrency http://cur.lv/vzsi0
http://cur.lv/vzsi1",1,0,0,False
17,Bitcoin Hourly@bitcoin_hourly,"Price Update: 1 #Bitcoin = $435.9500

#cryptocurrency source http://yhoo.it/1PH2nON (via @Flutter_HQ)",0,0,0,False
18,BitcoinBuzz vega9@BitcoinBuzzV9,http://bitcoinbuzz.vega9.com - Hot topics: #bitcoin #blockchain #cryptocurrency #btc #dogecoin #news,0,0,0,False
19,Supernatu Paranormal@supernatuparano,The Crypto Files - Maine Bigfoot Photos #crypto http://dragplus.com/post/id/33725424…,0,0,0,False
20,Bob Carver ✭@cybersecboardrm,"Global Regulators Now Eyeing Fintech #fintech #blockchain #cryptocurrency
http://fortune.com/2016/02/27/global-fintech-regulation/?xid=smartnews…",0,0,0,False
21,Chickee@Chickee,A bowl of @swiftusfunk #SlapyoMamaBeans for $5 or $4usd in #bitcoin spend that magical internet money #cryptocurrency #fintech #food  #yum,5,2,0,False
22,CCN - Capital & Celeb News@CapitalAndCeleb,Spondoolies-Tech Receives Key Approval for Merger with BTCS https://cryptocoinsnews.com/spondoolies-tech-receives-key-approval-for-merger-with-btcs/… #cryptocurrency,3,0,0,False
23,Team 300FPS ︻╦̵̵̿╤─@300FPSGAMING,IBM Exec Elected Chair of Hyperledger Technical Committee http://bit.ly/1T4HIeu #bitcoin #bitcoinnews #btc #cryptocurrency,0,0,0,False
24,Coin Tiny@CoinTiny,Ripple Partners with Crypto Facilities for XRP Derivatives #CryptoCurrency #Crypto,0,0,0,False
25,bigs21024@bigs21024,"Can someone please help me with a little btc if you can. 186DdutcqVoNWEGzzXugjKM9kKTEZv277t
#bitcoin #payitforward #altcoins",1,0,0,False
26,Michael Ryan@SRTceo,Rolling the dice and learning the gritty details of #crypto #tls #Bitcoin #rsac #RSAC2016 @RSAConference,4,0,0,False
27,CCN - Capital & Celeb News@CapitalAndCeleb,Omnidex 1.0 Takes Bitcoin Blockchain Principles as a Decentralized Crypto https://cryptocoinsnews.com/omnidex-bitcoin-blockchain-crypto-exchange/… #cryptocurrency,3,8,0,False
29,Julia Vaingurt@julia_vaingurt,"How Bitcoin Became the Slowest, Most Expensive, Least-Developed Currency #CryptoCurrency #Crypto http://cur.lv/vzr6d",1,2,0,False
30,Coin Tiny@CoinTiny,How Factom is Bringing Digital Currencies To Business & Governments With Paul Snow #CryptoCurrency #Crypto,0,0,0,False
31,Coin Tiny@CoinTiny,"How Bitcoin Became the Slowest, Most Expensive, Least-Developed Currency #CryptoCurrency #Crypto",0,0,0,False
32,Valerie Bubb Fenwick@bubbva,"Also, check out our awesome press release talking about our #pkcs11 interop testing: https://oasis-open.org/news/pr/latest-advances-in-oasis-kmip-and-pkcs-11-encryption-and-cryptographic-token-interface-stand… #pkcs11 #kmip #crypto",4,0,0,False
33,Golden Gateway@GoldenGatewayUS,Remember to like us on FB at http://facebook.com/officialgoldengateway… #bitcoin news and #cryptocurrency updates (Want this FREE? >> https://commun.it/?aid=thankyou5),0,0,0,False
34,Crypto Yoyo@cryptoyoyo,Bitcoin Technical Analysis for 02/29/2016 – Divergence Signaling Overbought Market? http://bit.ly/1LQTscT #bitcoin #crypto #news,0,0,0,False
35,Crypto Yoyo@cryptoyoyo,Bitcoin's 'New Normal' Is Slow and Frustrating http://bit.ly/1TivWgV #bitcoin #crypto #news,0,0,0,False
36,Crypto Yoyo@cryptoyoyo,Lisk Raises Over 1200 Bitcoin for Open Source Dapp & Custom Blockchain Platform http://bit.ly/1LQTukN #bitcoin #crypto #news,0,0,0,False
37,Macca Tweeter@MaccaTweeter,It looks like I have received another #incentive #reward - nice !!! $VNL #RPi #Superpeer #Node #Cryptocurrency #VNL,0,0,0,False
38,The  Canad-Ian Nerd @CaNerdIan,Here’s where you can get one for $9: https://shop.sophos.com/products/mens-dance-t-shirt?variant=1287587139… #WLPC #Crypto,0,0,0,False
39,trendspottr@trendspottr,Share this link for top trending #blockchain news http://bit.ly/blockchaintrends… via @trendspottr #bitcoin #cryptocurrencyGIF,1,0,0,False
40,OpenFXMarket@OpenFXMarket,#altcoin market index (avg): #OFXAVG 138.15 #SHA 45.01 #SCRYPT 96.83 #QUARK 58.46 #X 9.05 #HYBRID 7.8 Stay tuned! #OFX,0,0,0,False
41,Crypto News Day@cryptonewsday,"#Bitcoin clothing ⇉ wear your  of #crypto with pridePro Crypto Clothing | Bitcoin Clothing for the CauseWe make clothing that promotes Bitcoin. Our garments have a snug, soft feel and sport unique, slick designs that are sure to start a few conversations.procrypto.net",0,0,0,False
42,Bitcoin Hourly@bitcoin_hourly,"Price Update: 1 #Bitcoin = $433.4400

#cryptocurrency source http://yhoo.it/1PH2nON (via @Flutter_HQ)",0,0,0,False
43,OpenCryptoPortfolioTracker.org@taoteh1221,Added @maidsafe to my #bitcoin #cryptocurrency #trading #markets #portfolio #php #app: http://dragonfrugal.com/coin-prices/,1,0,0,False
44,Michele Preziuso@mpreziuso,"It doesn't look good
#OpenSSL to release patches for several high severity vulns
#security #crypto #infosec #devops",1,0,0,False
45,Bitcoin NewsBoard@bitcoinewsboard,"Lisk Raises $500,000 in First Week of ICO http://bitcoin.newsprinciples.com/?p=30915 #altcoins #bitcoin #bitcoincommunity #ethereum #ico",0,0,0,False
46,Walter Paley@SafeLogic_Walt,RT if you have a mandate for #FIPS140 #crypto to satisfy #HIPAA! @SafeLogic is going to #HIMSS16 and we can help!,1,0,0,False
47,Denny McEnroe@McEnroeDenny,Re: $350 will be the bottom http://cur.lv/vzpws #bitcoin #crypto,0,0,0,False
48,Denny McEnroe@McEnroeDenny,Re: Unconfirmed transactions http://cur.lv/vzpwr #bitcoin #crypto,0,0,0,False
49,Denny McEnroe@McEnroeDenny,Re: Bitcoin or gold? http://cur.lv/vzpwq #bitcoin #crypto,0,0,0,False
56,Denny McEnroe@McEnroeDenny,"Re: Bitminter bitcoin mining pool - Pays TxFees, Merged Mining, Fair PPLNS rewards http://cur.lv/vzpwp #bitcoin #crypto",0,0,0,False
57,Team 300FPS ︻╦̵̵̿╤─@300FPSGAMING,Bitcoin Technical Analysis for 02/29/2016 – Divergence Signaling O http://bit.ly/1XW9BER #bitcoin #bitcoinnews #btc #cryptocurrency,0,0,0,False
58,Vindyne8@Vindyne8,"""[ANN] Destiny | scrypt | Swap to Expanse asset | Road Map"" #bitcoin #altcoins http://cryptoscene.com/threads/ann-destiny-scrypt-swap-to-expanse-asset-road-map.529/… via @CryptoScene",2,1,0,False
59,Denny McEnroe@McEnroeDenny,"Re: [ANN] - NEW BURST OP - MINE WITH YOUR HDD - ATs, AE, P2P MARKETPLACE, and MORE! http://cur.lv/vzpng #bitcoin #crypto",0,0,0,False
60,Denny McEnroe@McEnroeDenny,Re: DirectBet Basketball Prediction Game *** Win Free Bets ! *** Free to Enter ! http://cur.lv/vzpne #bitcoin #crypto,0,0,0,False
61,Denny McEnroe@McEnroeDenny,(ⓝⓔⓦ) Coin Generator ▲ HYBRID FAUCET ▲ build your city ▲ real business <·´¯`·. http://cur.lv/vzpnd #bitcoin #crypto,0,0,0,False
62,Denny McEnroe@McEnroeDenny,Re:  [ANN][STEPS] Let's make a new altcoin environment http://cur.lv/vzpnc #bitcoin #crypto,1,0,0,False
63,hubskihose@hubskihose,Ethereum: Homestead Release Announced #ethereum #cryptocurrency http://dlvr.it/KfJgxQ,0,0,0,False
64,Chickee@Chickee,Replying to @TheDailyDecrypt@TheDailyDecrypt I  your show!  I recommend it to everyone who wants to learn more about #fintech #cryptocurrencies #bitcoin #altcoin,2,1,1,False
65,CryptoRSS@CryptoRSS,"Poor recruitment processes are causing the great security talent drought: Mind you, applicants aren’t ... http://bit.ly/1TM3ceV #crypto",0,0,0,False
66,CCN - Capital & Celeb News@CapitalAndCeleb,"ChangeTip To Offer ChangeTip Wallet, Decentralized Platform To Send And https://cryptocoinsnews.com/changetip-offer-changetip-wallet-decentralized-platform-send-received-bitcoin/… #cryptocurrency",2,4,0,False
67,Crypto Dood@BitcoinDood,I wish Aliexpress and Alipay took #bitcoin or some other form of #cryptocurrency ...,1,0,0,False
68,Fortune. Bit by Bit!@FortuneBitXBit,"Cancerbola : @bitcoin_dude: #Bitcoin & #Crypto news - ""Report: Bitcoin Wallet… http://sh.st/E5ial #bitcoin",1,0,0,False
69,Ross Cooper@RossDCooper,Get your #crypto skills up to date at date at #SHAREorg,5,2,1,False
70,Arish Dubash@happyarish,"Bitcoin (btcUSD=x) price on February 29, 2016 is 434.06. #bitcoin #toTheMoon #cryptoCurrency #newMoney",0,0,0,False
71,Julia Vaingurt@julia_vaingurt,"BCN News: bitcoinist ""Lisk Raises $500,000 in First Week of ICO http://cur.lv/vzp2i
#bitcoin #bitcoinnews #btc #cryptocurrency #altcoi…",0,0,0,False
72,BlockChannel@BlockChannel,"BCN News: bitcoinist ""Lisk Raises $500,000 in First Week of ICO http://ift.tt/1KZsaGl #bitcoin #bitcoinnews #btc #cryptocurrency #altcoi…",0,0,0,False
73,Bitcoinist.com@bitcoinist,"Lisk Raises $500,000 in First Week of ICO http://ift.tt/1KZsaGl #bitcoin #bitcoinnews #btc #cryptocurrency #altcoins #money #freebitcoin",1,0,0,False
78,Crypto Yoyo@cryptoyoyo,Report: Bitcoin Wallet Providers Failing to Make Privacy a Priority http://bit.ly/1RgrwRp #bitcoin #crypto #news,0,0,0,False
79,Crypto Yoyo@cryptoyoyo,"St. Mary's Law professor dives into blockchain technology research, the fuel of Bitcoin currency http://bit.ly/1KZsqVH #bitcoin #crypto …",0,0,0,False
80,Crypto Yoyo@cryptoyoyo,Mosaic Ventures 'Sidechains Are Not a Theory' http://bit.ly/1RgruZL #bitcoin #crypto #news,0,0,0,False
81,eh shea stone@ehsheastone,How lousy block propagation is more problematic when the Great Firewall of China is factored http://bit.ly/1oIWmuR #Bitcoin #AltCoin,0,0,0,False
82,Vindyne8@Vindyne8,[ANN] Destiny | scrypt (pow/pos) | deflation coin | no premine - https://cryptocointalk.com/topic/45158-ann-destiny-scrypt-powpos-deflation-coin-no-premine/… #altcoin via @cryptocointalk,2,1,0,False
83,Team 300FPS ︻╦̵̵̿╤─@300FPSGAMING,"Lisk Raises $500,000 in First Week of ICO http://bit.ly/1TNbVhZ #bitcoin #bitcoinnews #btc #cryptocurrency",0,0,0,False
84,futuristbot@futuristbot,cryptocurrency #decentralization #brain #crypto2.0 #futrRESource #cloud #crypto,0,0,0,False
85,CCN - Capital & Celeb News@CapitalAndCeleb,Ledger Presents Use Of Segregated Witness For Hardware Wallets https://cryptocoinsnews.com/ledger-presents-use-segregated-witness-hardware-wallets/… #cryptocurrency,2,6,0,False
86,rssbtc.com@rssbtc,"24 Hours of #Bitcoin 
+0.62% price $436.85 USD 
+102.47% volume $633.M 
+0.74% market cap $6.69B 

#fintech #btc #crypto #usd #satoshi",1,0,0,False
87,Dataconomy@DataconomyMedia,WTF Is The Blockchain? Part II: How to send #cryptocurrency and keep it safe  - http://buff.ly/1oIKedj #Blockchain,3,1,0,False
88,Julia Vaingurt@julia_vaingurt,"Mosaic ventures ‘sidechains are not a theory’ #bitcoin #crypto #cryptocurrency http://cur.lv/vzod3
http://cur.lv/vzod5",1,0,0,False
89,Bitcoin Hourly@bitcoin_hourly,"Price Update: 1 #Bitcoin = $434.8600

#cryptocurrency source http://yhoo.it/1PH2nON (via @Flutter_HQ)",0,0,0,False
90,Team 300FPS ︻╦̵̵̿╤─@300FPSGAMING,Report: Bitcoin Wallet Providers Failing to Make Privacy a Priority http://bit.ly/1TNa6BD #bitcoin #bitcoinnews #btc #cryptocurrency,1,0,0,False
91,Team 300FPS ︻╦̵̵̿╤─@300FPSGAMING,Report: Bitcoin Wallet Providers Failing to Make Privacy a Priority http://bit.ly/1oK383j #bitcoin #bitcoinnews #btc #cryptocurrency,0,0,0,False
92,Professor David Nicolas PhD@AnonymousOneToo,Russia’s Central Bank Establishes Blockchain Working Group https://cryptocoinsnews.com/russias-central-bank-establishes-blockchain-working-group/… via @CryptoCoinsNews #bitcoin #blockchain #cryptocurrency,1,0,0,False
93,Alejandro Sewrjugin@alesew23,#Bitcoin Report: Bitcoin Wallet Providers Failing to Make Privacy a Priority http://bit.ly/1KZlxE3 #Tech #Crypto,1,0,0,False
94,Realnextrading@Realnextrading,http://nextrading.fund is a #cryptocurrency trading projects unifying several approaches to achieve low-risk stable profit. #bitcoin #NXT,7,7,0,False
95,Mehdi@m3hdx,"Week in review: #LinuxMint #hack, #crypto #ransomware hits hospitals, and educating policymakers on #cybersecurity https://helpnetsecurity.com/2016/02/29/week-in-review-linux-mint-hack-crypto-ransomware-hits-hospitals-and-educating-policymakers-on-cybersecurity/…",0,0,0,False
96,NE Patriots Dynasty@NEPatsDynasty,@wealth Creation The concept of #money http://ilgamosilcoin.com/ilgamos-ilcoin.html… check it out. The Future of Money. #Crypto #Bitcoin,0,0,0,False
97,Alex Schleber @AlexSchleber,"""But trust us with this encryption thing...""

#crypto -needed, now more than ever (e.g. if there were a Pres. Trump)Quote Tweetgranick@granick · Feb 29, 2016FBI admits flaws in hair analysis over decades: http://wpo.st/3kpG1 
""Flaws"" undersells it.",0,0,0,False
98,Farah K. Miraza@farahkaifa,#cryptocurrency #crypto Red Hat and BlockApps Partnernship Sees Enterprise Level Blockchain Development http://ow.ly/3bTt5F,0,0,0,False
111,Coin Tiny@CoinTiny,Mosaic Ventures ‘Sidechains Are Not a Theory’ #CryptoCurrency #Crypto,0,0,0,False
112,BlockChannel@BlockChannel,"BCN News: bitcoinist ""Mosaic Ventures ‘Sidechains Are Not a Theory’ http://ift.tt/1LQCStw #bitcoin #bitcoinnews #btc #cryptocurrency #al…",0,0,0,False
113,Bitcoinist.com@bitcoinist,Mosaic Ventures ‘Sidechains Are Not a Theory’ http://ift.tt/1LQCStw #bitcoin #bitcoinnews #btc #cryptocurrency #altcoins #money #freebit…,0,0,0,False
114,Crypto Yoyo@cryptoyoyo,New bitcoin ATM comes to South Street shop http://bit.ly/1SdiA41 #bitcoin #crypto #news,0,0,0,False
115,Bob Carver ✭@cybersecboardrm,"Global Regulators Now Eyeing Fintech #fintech #blockchain #cryptocurrency
http://fortune.com/2016/02/27/global-fintech-regulation/?xid=smartnews…",3,0,0,False
116,Fortune. Bit by Bit!@FortuneBitXBit,BitcoinzWoman : @BitcoinzWoman: Noticias que fortalecen a #bitcoin (132) #crypto… http://sh.st/E4MnU #bitcoin,0,0,0,False
117,Team 300FPS ︻╦̵̵̿╤─@300FPSGAMING,Mosaic Ventures ‘Sidechains Are Not a Theory’ http://bit.ly/1RggFH9 #bitcoin #bitcoinnews #btc #cryptocurrency,1,0,0,False
118,Team 300FPS ︻╦̵̵̿╤─@300FPSGAMING,Mosaic Ventures ‘Sidechains Are Not a Theory’ http://bit.ly/1RggHi5 #bitcoin #bitcoinnews #btc #cryptocurrency,0,0,0,False
119,Okcash @OkcashCrypto,#OKCash honored to become an official Partner for the CoinFestUK event. http://coinfestuk.org/#partnerships #Bitcoin #Crypto $OK,6,8,1,False
120,Julia Vaingurt@julia_vaingurt,"#Bitcoin to capitalize on the limitations of financial net#works #crypto #cryptocurrency http://cur.lv/vzn4v
http://cur.lv/vzn4w",0,0,0,False
123,Coinfeed@CoinfeedIO,#Cryptocurrency Exchange CEX.IO enables TradingView Charting - NEWSBTC http://tinyurl.com/pb2u43e,0,0,0,False
124,LoveplusBitcoin@loveplusbitcoin,"RT @bitscanner Russia ranks 5th for number of #cryptocurrency users!  

http://ow.ly/YLIWO
#bitcoin #usebitcoin",2,2,0,False
125,Corner Coin@Corner_Coin,OmniDex 1.0 to launch a completely trustless #cryptocurrency exchange https://goo.gl/9Xygby #bitcoin #fintech,0,0,0,False
126,BlockTribune@BlockTribune,#China: A PBOC-controlled #cryptocurrency offers the country several obvious advantages http://goo.gl/Ju7qvk #fintech #bitcoin,0,0,0,False
127,Team 300FPS ︻╦̵̵̿╤─@300FPSGAMING,South Korean Stock Exchange Developing Blockchain OTC Trading Platform http://bit.ly/1oTAPAo #bitcoin #bitcoinnews #btc #cryptocurrency,2,0,0,False
128,Null TX@nulltxnews,"South Korean Stock Exchange Developing Blockchain OTC Trading Platform http://goo.gl/fawjha #bitcoin #bitcoinnews #btc #cryptocurrencySouth Korean Stock Exchange Developing Blockchain OTC Trading PlatformKRX, South Korea’s only securities marketplace, has unveiled plans to launch a blockchain-powered exchange to service the multi-billion OTC share market in the country.According to statements mathemerkle.com",1,3,0,False
129,ⓅⒶⓉ 9000@IAMAHAL9000,"Replying to @pterion2910@pterion2910 @bitcoin_dad @KryptRichards These 2016 #altcoin pumps are protracted, shaky affairs; not for the faint of heart!",1,0,0,False
130,Farah K. Miraza@farahkaifa,#cryptocurrency #crypto Ethereum Price Technical Analysis – Major Break Looming http://ow.ly/3bTpTz,1,0,0,False
131,Abc@BloombitX,"Check out our LEVELING system that reduces your trading fee and increases your FEE-BACK.
#SpecialFeatures #NewExchange #Bitcoin #Crypto",0,0,0,False
132,Bitcoin Hourly@bitcoin_hourly,"Price Update: 1 #Bitcoin = $435.5800

#cryptocurrency source http://yhoo.it/1PH2nON (via @Flutter_HQ)",0,0,0,False
133,XBTFreelancer.com@XBTFreelancer,http://xbtfreelancer.com/prj/967/advertising-btc-rockcom-on-every-bitcoin-related-site… #bitcoin Advertising http://BTC-Rock.com On every Bitcoin related site #earnmoney #xbt #cryptocurrency,0,0,0,False
134,Team 300FPS ︻╦̵̵̿╤─@300FPSGAMING,How Standard Chartered is Using Ripple to Rethink Trade Finance http://bit.ly/1Rgbgjp #bitcoin #bitcoinnews #btc #cryptocurrency,2,0,0,False
135,Cryptopay@cryptopay,#RT Africa: A Continent Waiting for #Cryptocurrency http://forklog.net/africa-a-continent-waiting-for-cryptocurrency/… #bitcoin #blockchain #crytpopay #fintech,12,9,0,False
136,BitcoinAgile@bitcoinagile,The Chinese Vampire Monkey from Epic Wildlife #vampires #Crypto http://bit.ly/1XVV6Rk,1,0,0,False
137,Alejandro Sewrjugin@alesew23,#Bitcoin How Standard Chartered is Using Ripple to Rethink Trade Finance http://bit.ly/21EfJno #Tech #Crypto,0,0,0,False
138,doc arthur antebury@arthurantebury,The Chinese Vampire Monkey is the cutest vampire in the world! But is it real?  #vampires #Crypto https://curiosity.com/paths/the-chinese-vampire-monkey-epic-wildlife/?ref=shv…,0,0,0,False
139,Load Debit Card@LoadDebitCard,Was MMM Really behind Last Year's Increased Bitcoin Demand among the Chinese? - NEWSBTC http://newsbtc.com/2016/02/29/mmm-really-behind-last-years-increased-bitcoin-demand-among-chinese/… #Bitcoin #Btc #AltcoinsWas MMM Really behind Last Year's Increased Bitcoin Demand?There was a sudden increase in demand for bitcoin from china soon after the Chinese government announced devaluation of the national currency. Read more...newsbtc.com,0,0,0,False
140,Team 300FPS ︻╦̵̵̿╤─@300FPSGAMING,Red Hat and BlockApps Partnernship Sees Enterprise Level Blockchain http://bit.ly/1Rg8Dhi #bitcoin #bitcoinnews #btc #cryptocurrency,1,1,0,False
141,Load Debit Card@LoadDebitCard,Unobtanium Debit Card #Unobtanium to #debitcard with 40+ #altcoins #Bitcoin @unobtanium_uno http://bit.ly/debitnow,2,1,0,False
147,Picasso@cryptopicasso,"$RADS looking strong  
#altcoin #bitcoin $BTC",6,2,0,False
148,Denny McEnroe@McEnroeDenny,Re: Altcoins speculation http://cur.lv/vzl7f #bitcoin #crypto,0,0,0,False
149,Denny McEnroe@McEnroeDenny,Re: [ANN] Destiny | scrypt (pow/pos) | deflation coin | no premine http://cur.lv/vzl7e #bitcoin #crypto,0,0,0,False
150,Denny McEnroe@McEnroeDenny,Re: Is it possible to buy bitcoins by paypal? http://cur.lv/vzl7b #bitcoin #crypto,0,0,0,False
151,Carlos Alvarez  U.S.Veteran @inspiringcarlo,This is one of the problems #cryptocurrency will solve.. #cryptocurrencycommunity http://fb.me/49vfAYpHz,0,0,0,False
152,Carlos R. Muñoz@crmunoz27,Latest #cybersecurity threat: #Locky #crypto #malware https://shar.es/1Ccxa4 @HealthITNews @JessiefDavis,1,1,0,False
153,Crypto Yoyo@cryptoyoyo,LA hospital pays £12000 Bitcoin ransomware demand http://bit.ly/1ncC37Y #bitcoin #crypto #news,1,0,0,False
154,Crypto Yoyo@cryptoyoyo,The case for bitcoin http://bit.ly/1ncC2Ro #bitcoin #crypto #news,1,0,0,False
155,Rasyied@Rasyied,Accept Bitcoin and other crypto in your online store with CoinPayments https://coinpayments.net/index.php?ref=7d9d868c906d702cd138b0cde8661ba3… #bitcoin #altcoins #CoinPayments,0,0,0,False
156,NE Patriots Dynasty@NEPatsDynasty,"ILGamos 4 in 1 Trading Platform goes live #Crypto #Money #stocks #Gold 
NEW ILCOIN JOIN FREE Click here http://buygold.ilgamos.com/buy?buy_type=1",0,0,0,False
157,Denny McEnroe@McEnroeDenny,Re: Sell Paysafecard http://cur.lv/vzktl #bitcoin #crypto,0,0,0,False
158,Denny McEnroe@McEnroeDenny,"Re: [ANN][GEMZ] GetGems - Social Messaging App That Pays - Live on Android, iOS, Web http://cur.lv/vzktj #bitcoin #crypto",0,0,0,False
159,Denny McEnroe@McEnroeDenny,Re: Can you feel the Bern? http://cur.lv/vzkth #bitcoin #crypto,1,0,0,False
160,Denny McEnroe@McEnroeDenny,"Re: [ANN] WildBeastBitcoin [WBB] now on Bittrex, no PREMINE, Honest ! - the wild one http://cur.lv/vzktg #bitcoin #crypto",0,0,0,False
161,Denny McEnroe@McEnroeDenny,Re: altcoin to invest in http://cur.lv/vzktf #bitcoin #crypto,0,0,0,False
162,A-ADS Bitcoin Advertising Network@aads_network,Find us at @SecurityBSides #SF today in San Francisco! #infosec #bitcoin #crypto,3,1,0,False
163,BitStratego@BitStratego,http://Bistratego.com A bitcoin strategy game! Be ready for launch: 4th March! #bitcoin #btc #cryptocurrency,1,3,0,False
164,CryptoRSS@CryptoRSS,Measuring Security: My 'Dwell Time' Obsession: How I discovered the critical metric to fuel my drive t... http://bit.ly/1KYYgC6 #crypto,0,0,0,False
165,MonetaryUnit@MonetaryUnit,"Support $MUE #MonetaryUnit project.
Please use
http://CryptoCoinMarketCap.com
for your crypto info.
#crypto #marketcap #coinmarketcap #alts #btc",0,0,0,False
166,Team 300FPS ︻╦̵̵̿╤─@300FPSGAMING,Habiss Plongee Offers Scuba Diving in Exchange For Bitcoin http://bit.ly/1XVPUwX #bitcoin #bitcoinnews #btc #cryptocurrency,0,0,0,False
167,Julia Vaingurt@julia_vaingurt,#cryptocurrency #crypto Was MMM Really behind Last Year’s Bitcoin Price and Demand Increase among the Chinese? http://cur.lv/vzkgu,0,0,0,False
175,Farah K. Miraza@farahkaifa,#cryptocurrency #crypto Was MMM Really behind Last Year’s Bitcoin Price and Demand Increase among the Chinese? http://ow.ly/3bTil6,0,0,0,False
176,Null TX@nulltxnews,"Habiss Plongee Offers Scuba Diving in Exchange For Bitcoin http://goo.gl/u3L7DZ #bitcoin #bitcoinnews #btc #cryptocurrencyHabiss Plongee Offers Scuba Diving in Exchange For BitcoinIt has become rather difficult to find any business model that does not accept Bitcoin in some way, shape or form. In fact, Bitcoin can be used for just about anything if people bother to keep lookingthemerkle.com",0,0,0,False
177,Bitcoin Hourly@bitcoin_hourly,"Price Update: 1 #Bitcoin = $435.9000

#cryptocurrency source http://yhoo.it/1PH2nON (via @Flutter_HQ)",0,0,0,False
178,Julia Vaingurt@julia_vaingurt,"Europe’s 1st highend jeweler now accepts #bitcoin #crypto #cryptocurrency http://cur.lv/vzkbm
http://cur.lv/vzkbn",1,0,0,False
179,CCN - Capital & Celeb News@CapitalAndCeleb,Hong Kong Lays Financial Groundwork For Robust Fintech Ecosystem https://cryptocoinsnews.com/hong-kong-lays-financial-groundwork-robust-fintech-ecosystem/… #cryptocurrency,6,0,0,False
180,@cedesguin@mamot.fr@Cedesguin,"Le concours continue. #crypto #paranoia
(via @Numerama)",0,0,0,False
181,Alton Drew@altondrew,What if island nations in the #Caribbean could harness #geothermal energy and fuel #cryptocurrency production for every miner on Earth?,0,0,0,False
182,BullBear Analytics@BullBearAnalyst,"@bgcoin, hey! Thanks for the RT. Do you trade any type of #crypto currency?",1,1,0,False
183,BlockChannel@BlockChannel,"BCN News: themerklenews: Bitcoin Ransomware Education – CrypAura http://goo.gl/Ot7dzz #bitcoin #bitcoinnews #btc #cryptocurrencyBitcoin Ransomware Education – CrypAuraThe number of different types of Bitcoin ransomware is scaringly high when taking into consideration how many of them are out there. CrypAura is often overlooked as a malware threat, simply because itthemerkle.com",0,0,0,False
184,Crypto Yoyo@cryptoyoyo,"Bitcoin Classic Drama Hits New Highs, Debate Continues http://bit.ly/1OIIaae #bitcoin #crypto #news",0,0,0,False
185,Crypto Yoyo@cryptoyoyo,BitFury Invests in Pan-African Bitcoin Trading Platform BitPesa http://bit.ly/21wJWYV #bitcoin #crypto #news,0,0,0,False
186,NE Patriots Dynasty@NEPatsDynasty,"#Crypto Traders. http://thinkingalpha.com/forum/index.php?qa=1628&qa_1=4-in-1-Trading-Platform-Gold,-Stocks,-Euros,-iLCoins… #Money",0,0,0,False
187,GridcoinNetwork@GridcoinNetwork,#Gridcoin Pool : Getting rewarded for researching easily https://reddit.com/r/CryptoCurrency/comments/48b96z/gridcoin_pool_getting_rewarded_for_researching/… #blockchain #science #research #cryptocurrencyGridcoin Pool : Getting rewarded for researching easilyPosted in r/CryptoCurrency by u/nctr • 9 points and 2 commentsreddit.com,2,0,0,False
193,BlockChannel@BlockChannel,"BCN News: bitcoinist ""The Vanbex Report: The Future of Fintech http://ift.tt/1T4fP6b #bitcoin #bitcoinnews #btc #cryptocurrency #altcoin…",0,0,0,False
194,QuadraQ@QuadraQ,The built-in Wi-Fi and Bluetooth of the new #RaspberryPi3 is the best new feature. Will make controlling #cryptocurrency miners much easier.,0,0,0,False
195,Bitcoinist.com@bitcoinist,The Vanbex Report: The Future of Fintech http://ift.tt/1T4fP6b #bitcoin #bitcoinnews #btc #cryptocurrency #altcoins #money #freebitcoin,4,0,0,False
196,Team 300FPS ︻╦̵̵̿╤─@300FPSGAMING,The Vanbex Report: The Future of Fintech http://bit.ly/1QgI91x #bitcoin #bitcoinnews #btc #cryptocurrency,2,0,0,False
197,FREE MONEY@FreeBitcoiners,"@CrowdfundingIns 100% FREE TOP PAYING 'Crypto Faucets & Altcoin Wallets' ALL-IN-ONE PLACE! 
http://freecryptofaucets.com
#freebitcoin #altcoins",0,0,0,False
198,Farah K. Miraza@farahkaifa,#cryptocurrency #crypto Bank of Russia to Study Blockchain Tech http://ow.ly/3bT6Xp,0,0,0,False
199,NE Patriots Dynasty@NEPatsDynasty,HERE IT IS. The Next #Crypto #Currency #Bitcoin. It is called #ILCoin Join FREE Today. Click here http://buygold.ilgamos.com/buy?buy_type=1,0,0,0,False
200,Bitcoin Hourly@bitcoin_hourly,"Price Update: 1 #Bitcoin = $435.4700

#cryptocurrency source http://yhoo.it/1PH2nON (via @Flutter_HQ)",0,0,0,False
201,XBTFreelancer.com@XBTFreelancer,http://xbtfreelancer.com/prj/945/online-mystery-shopper… #bitcoin #btc #cryptocurrency Online mystery shopper - repost11  #job #freelancing,2,0,0,False
202,Vindyne8@Vindyne8,[TASK][BitSend][BSD] Giveaway 100 BSD per Person for 150 People! - https://cryptocointalk.com/topic/45154-taskbitsendbsd-giveaway-100-bsd-per-person-for-150-people/… #altcoin via @cryptocointalk,4,3,0,False
203,Edgar Güeto@edgarweto,"Bitcoin Taxis Soon to Become a Norm around the World http://buff.ly/1TKUcql #cryptocurrency #cryptocoin #bitcoinBitcoin Taxis Soon to Become a Norm around the WorldEmniyet Taksi, a Turkish taxi service operating in Marmaris now accepts bitcoin in their taxis. Read more...newsbtc.com",0,0,0,False
204,VeriCoin@VeriCoin,Come join up! *Well over 300 registered members. Learn about #Crypto here - https://vericoinforums.com - #VeriCoin $VRC,8,7,0,False
205,Vortex@theonevortex,"Here are the topics for tonight's #bitcoin news show LIVE at 8pm pst on @blab. http://pastebin.com/T8QVFpAB
#blockchain #crypto #cryptocurrenciesBitcoin News #13 Show Notes - Pastebin.comPastebin.com is the number one paste tool since 2002. Pastebin is a website where you can store text online for a set period of time.pastebin.com",0,0,0,False
206,Farah K. Miraza@farahkaifa,#cryptocurrency #crypto BitFury Invests in Pan-African Bitcoin Trading Platform BitPesa http://ow.ly/3bT1me,0,0,0,False
207,Kevin Osterling@kevin_osterling,"What #cryptocurrency will go mainstream? Well, the one that is distributed among PEOPLE, not CAPITAL #ethereum #bitcoin #blockchain",1,1,0,False
208,Bitcoin@bitcoinpoet,Will Bitcoin ever become true currency? It's already halfway there!: Existing cryptocurrencies... http://btcs.me/1ncdmbI #cryptocurrency,3,3,0,False
209,Coin Tiny@CoinTiny,Gridcoin Pool : Getting rewarded for researching easily #CryptoCurrency #Crypto,0,0,0,False
211,Coin Tiny@CoinTiny,"Bitcoin Classic Drama Hits New Highs, Debate Continues #CryptoCurrency #Crypto",0,0,0,False
212,Team 300FPS ︻╦̵̵̿╤─@300FPSGAMING,BitFury Invests in Pan-African Bitcoin Trading Platform BitPesa http://bit.ly/1TMQI80 #bitcoin #bitcoinnews #btc #cryptocurrency,1,1,0,False
213,Team 300FPS ︻╦̵̵̿╤─@300FPSGAMING,BitFury Invests in Pan-African Bitcoin Trading Platform BitPesa http://bit.ly/1QGOBw1 #bitcoin #bitcoinnews #btc #cryptocurrency,1,1,0,False
214,Team 300FPS ︻╦̵̵̿╤─@300FPSGAMING,"Bitcoin Classic Drama Hits New Highs, Debate Continues http://bit.ly/1TMQFsX #bitcoin #bitcoinnews #btc #cryptocurrency",1,0,0,False
215,CCN - Capital & Celeb News@CapitalAndCeleb,21 Inc’s Bitcoin Computer Available In Europe https://cryptocoinsnews.com/21-incs-bitcoin-computer-available-europe/… #cryptocurrency,2,9,1,False
216,Bitcoinist.com@bitcoinist,"Bitcoin Classic Drama Hits New Highs, Debate Continues http://ift.tt/1ncbEY0 #bitcoin #bitcoinnews #btc #cryptocurrency #altcoins #money…",1,1,0,False
217,Crypto Yoyo@cryptoyoyo,Run A Free Bitcoin Classic Node Courtesy of Google Compute Engine http://bit.ly/21DUp1i #bitcoin #crypto #news,0,0,0,False
218,Crypto Yoyo@cryptoyoyo,New OBPP Report Outlines Troubling State of Privacy in Bitcoin Wallets http://bit.ly/1oTbnuS #bitcoin #crypto #news,0,0,0,False
219,Crypto Yoyo@cryptoyoyo,Bitcoin Ransomware Infects Multiple German Hospitals http://bit.ly/21DUp1c #bitcoin #crypto #news,0,0,0,False
220,Crypto Yoyo@cryptoyoyo,'Bitcoin Always Needed More Than One Body of Developers': An Interview With Libbitcoin's Eric ... http://bit.ly/1oTbnuK #bitcoin #crypto…,0,0,0,False
221,Crypto Yoyo@cryptoyoyo,BITFURY ANNOUNCES INVESTMENT IN BITPESA http://bit.ly/21DUphP #bitcoin #crypto #news,0,0,0,False
222,@cedesguin@mamot.fr@Cedesguin,Download PGP freeware (legacy) http://desguin.net/spip/spip.php?site153… #crypto #stillworking #pgp,1,0,0,False
223,NameBrandAmbassador@TopAmbassador,"@SouthBayBeachC I just got HOOKED UP! http://freecryptofaucets.com
#free #bitcoin #cryptocurrency #freebie #money",0,0,0,False
224,Vortex@theonevortex,"Join us for another LIVE #bitcoin news show tonight at 8pm pst on @blab! https://blab.im/vortex-bitcoin-news-16…
#blockchain #crypto #cryptocurrencies",0,0,0,False
225,Coin Tiny@CoinTiny,Will Bitcoin ever become true currency? It’s already halfway there! #CryptoCurrency #Crypto,0,0,0,False
226,Coin Tiny@CoinTiny,Open Bitcoin Privacy Project’s Top 5 Wallets of 2016 #CryptoCurrency #Crypto,0,0,0,False
227,Coin Tiny@CoinTiny,Digital Space Post wants you to predict the price of BTC for a chance to win a physical LTC #CryptoCurrency #Crypto,0,0,0,False
228,OpenFXMarket@OpenFXMarket,#bitcoin market index: 102.46 #OFXBTC. #altcoin market index (avg): 138.15 #OFXAVG by http://openfxmarket.com. Stay tuned!,0,0,0,False
229,Jonas Wolterstorff@JoFreWo,".@Gartner_inc Do you consider #Blockchain same #hype as #Cryptocurrency, i.e. #Bitcoin? #Application's are extremely diverse. #GartnerCycle",2,0,0,False
230,CryptoCoinsMarket@ccoinmarket,Open Bitcoin Privacy Project’s Top 5 Wallets of 2016 http://ift.tt/1ScO6PC http://ift.tt/1oJxZxc #crypto #bitcoin,0,0,0,False
237,Farah K. Miraza@farahkaifa,#cryptocurrency #crypto Cryptsy Lawsuit Update – Vernon’s Ex-Wife Potentially Involved http://ow.ly/3bSWZx,1,0,0,False
238,OpenLedger@openledger,Open your #free account on the world's first #decentralised #forex #crypto #currency #exchange https://bitshares.openledger.info/?r=ccedkbts#/create-account… … #OpenLedger #CCEDK,0,0,0,False
239,FREE MONEY@FreeBitcoiners,"@l0gistika 100% FREE TOP PAYING 'Crypto Faucets & Altcoin Wallets' ALL-IN-ONE PLACE! 
http://freecryptofaucets.com
#freebitcoin #altcoins",0,0,0,False
240,Bitcoin Hourly@bitcoin_hourly,"Price Update: 1 #Bitcoin = $437.0000

#cryptocurrency source http://yhoo.it/1PH2nON (via @Flutter_HQ)",0,0,0,False
241,Coin Tiny@CoinTiny,CLAIMS VS. TRUTH – ONECOIN & SEBASTIAN GREENWOOD #CryptoCurrency #Crypto,0,0,0,False
242,Denny McEnroe@McEnroeDenny,Re: [ANN][LISK] Lisk | ICO | Decentralized Application & Sidechain Platform http://cur.lv/vzg4h #bitcoin #crypto,0,0,0,False
243,Denny McEnroe@McEnroeDenny,Re: Why Socialism is the key http://cur.lv/vzg4f #bitcoin #crypto,0,0,0,False
244,Denny McEnroe@McEnroeDenny,Re:   zazarb's Micro-Loans & escrow  http://cur.lv/vzg4e #bitcoin #crypto,0,0,0,False
245,Denny McEnroe@McEnroeDenny,Re: Bit Play - Get free bitcoins for playing games http://cur.lv/vzg4b #bitcoin #crypto,0,0,0,False
246,Denny McEnroe@McEnroeDenny,"Re: 10 THINGS 'IDIOCRACY' PREDICTED WOULD HAPPEN, AND SADLY ALREADY HAVE http://cur.lv/vzg49 #bitcoin #crypto",0,0,0,False
247,Team 300FPS ︻╦̵̵̿╤─@300FPSGAMING,Monero Technical Analysis for 02/29/2016 – Break Imminent??? http://bit.ly/1WSeGNb #bitcoin #bitcoinnews #btc #cryptocurrency,0,0,0,False
248,Null TX@nulltxnews,Monero Technical Analysis for 02/29/2016 – Break Imminent??? http://goo.gl/A1mM7A #bitcoin #bitcoinnews #btc #cryptocurrency,0,0,0,False
249,All Things Decentral@btcswag,Check out one of our most popular #bitcoin t-shirts. #crypto #swag #liberty #FreeMarkets #ISFLC16 #FreeRoss #tlot http://allthingsbtc.com/products/silk-road…,1,0,0,False
250,Charles Douthat@creiddouthat,Just found the best #iOS App ever made for keeping up with your #Crypto. It's called @CoinCap_io! Check it out! https://appsto.re/us/4Ylbab.i,2,2,1,False
251,CryptoRSS@CryptoRSS,Russia’s Central Bank Establishes Blockchain Working Group: While Russian authorities and regulators t... http://bit.ly/1KYsUeH #crypto,0,0,0,False
252,Coin Tiny@CoinTiny,SEBASTIAN GREENWOOD TRUTH VIDEO #CryptoCurrency #Crypto,0,0,0,False
260,Coin Tiny@CoinTiny,US Bankruptcy Court's ruling could help HashFast trustee recover $1.3 million (3000 bitcoins) #CryptoCurrency #Cryp…,0,0,0,False
261,12Joker18@12Joker18,Here you will find many good mining and sides free bitcoin. http://bitcoins-earn.com #bitcoin #bitcoinmining #freebitcoin #BTC #crypto,0,0,0,False
262,Team 300FPS ︻╦̵̵̿╤─@300FPSGAMING,Run A Free Bitcoin Classic Node Courtesy of Google Compute Engine http://bit.ly/1WSdUQk #bitcoin #bitcoinnews #btc #cryptocurrency,1,0,0,False
263,Null TX@nulltxnews,"Run A Free Bitcoin Classic Node Courtesy of Google Compute Engine http://goo.gl/SrUjNr #bitcoin #bitcoinnews #btc #cryptocurrencyRun A Free Bitcoin Classic Node Courtesy of Google Compute EngineThe number of Bitcoin Nodes available right now could use a healthy bump even though it can be rather expensive for home users to offer this type of service. Additionally, there is the threat of facithemerkle.com",1,2,0,False
264,Farah K. Miraza@farahkaifa,#cryptocurrency #crypto Bitcoin Price Corrective High http://ow.ly/3bSRyi,0,0,0,False
265,Tech BitCoin@tech_bitcoin,"""Bitcoin Ransomware Infects Multiple German Hospitals"" http://ift.tt/eA8V8J #bitcoin #crypto http://ift.tt/1oT2XDB",0,0,0,False
266,Coin Tiny@CoinTiny,OneCoin Message From OneCoin Master Distributer - Sebastian Greenwood #CryptoCurrency #Crypto,0,0,0,False
267,Coin Tiny@CoinTiny,Subscribe to the Reddheads newsletter for regular cryptocurrency news #CryptoCurrency #Crypto,0,0,0,False
268,Coin Tiny@CoinTiny,Sebastian Greenwood and Charity #CryptoCurrency #Crypto,0,0,0,False
269,BitcoinAgile@bitcoinagile,BITFURY ANNOUNCES INVESTMENT IN BITPESA - NEWSBTC #news #crypto #bitcoin #bitfury #btc http://newsbtc.com/2016/02/29/bitfury-announces-investment-in-bitpesa…,0,0,0,False
272,Team 300FPS ︻╦̵̵̿╤─@300FPSGAMING,Korea&#039;s Securities Exchange Developing Blockchain Trading System http://bit.ly/1UuhIbQ #bitcoin #bitcoinnews #btc #cryptocurrency,1,0,0,False
273,Crypto Yoyo@cryptoyoyo,Will Bitcoin ever become true currency? It's already halfway there! http://bit.ly/1RfzREK #bitcoin #crypto #news,0,0,0,False
274,Crypto Yoyo@cryptoyoyo,BitFury Makes Investment In BitPesa http://bit.ly/1ScG3T4 #bitcoin #crypto #news,0,0,0,False
275,Crypto Yoyo@cryptoyoyo,Bitcoin Price Corrective High http://bit.ly/1RfzRot #bitcoin #crypto #news,0,0,0,False
276,Crypto Yoyo@cryptoyoyo,"The Blockchain Is Hot, But for How Long? – Podcast http://bit.ly/1ScG612 #bitcoin #crypto #news",0,0,0,False
277,Crypto Yoyo@cryptoyoyo,Bitcoin Price Watch; Gearing up for a big move… http://bit.ly/1RfzRoj #bitcoin #crypto #news,0,0,0,False
278,Crypto Yoyo@cryptoyoyo,Lisk Raises Over 1200 Bitcoin During the First Week - Open Source Dapp & Custom Blockchain ... http://bit.ly/1ScG5KG #bitcoin #crypto #n…,0,0,0,False
279,Crypto Yoyo@cryptoyoyo,Growing Mempool Size Creates Huge Bitcoin Transaction Backlog http://bit.ly/1RfzRog #bitcoin #crypto #news,0,0,0,False
280,BitcoinAgile@bitcoinagile,Silver Law Group Files Class Action Against Cryptsy and Paul Vernon #Cryptsy #bitcoin #altcoins http://bit.ly/1QQeCPN,1,0,0,False
281,Julian Parra-Polania@japuneco79,New paper on #Bitcoin: http://econpapers.repec.org/paper/peswpaper/2015_3ano155.htm… #btc #altcoin #cryptocurrency #money #blockchain,2,2,0,False
282,Julia Vaingurt@julia_vaingurt,"Does #bitcoin pose a threat to #china's economic security? #crypto #cryptocurrency http://cur.lv/vzetg
http://cur.lv/vzeti",0,0,0,False
283,Yaroslav Pronin@proninyaroslav,"Encryption still a low priority for too many cloud users http://zdnet.com/article/encryption-still-a-low-priority-for-too-many-cloud-users/#ftag=RSSbaffb68…
#privacy #web #cloudcomputing #cloud #crypto #cryptographyEncryption still a low priority for too many cloud users | ZDNetThe vast majority of businesses will be using cloud to store confidential information by 2018 -- but almost half have no plans to encrypt it.zdnet.com",2,0,0,False
284,Tech BitCoin@tech_bitcoin,"""BITFURY ANNOUNCES INVESTMENT IN BITPESA"" http://ift.tt/eA8V8J #bitcoin #crypto http://ift.tt/1nbVtdd",1,0,0,False
285,Alejandro Sewrjugin@alesew23,#Bitcoin Korea's Securities Exchange Developing Blockchain Trading System http://bit.ly/21DJHb5 #Tech #Crypto,0,0,0,False
286,Crypto Dood@BitcoinDood,"Class action lawsuit link against #Cryptsy and Big Vern. #bitcoin #altcoins
http://silverlaw.com/media/news-releases/silver-law-group-files-class-action-lawsuit-cryptsy-principal-paul-big-vern-vernon/…",1,0,0,False
287,notsofast@notsofast,"Replying to @scambust@scambust you gotta at least name the #altcoin you're talking about, or it just sounds like you're grumping into emptiness",4,1,0,False
288,Coin Tiny@CoinTiny,Build Using Negatives #CryptoCurrency #Crypto,0,0,0,False
289,Coin Tiny@CoinTiny,Bitcoinist Weekly News Re-Hash: Bitcoin Classic Gaining Steam #CryptoCurrency #Crypto,0,0,0,False
290,notsofast@notsofast,"I used to feel (but not act on) #altcoin FOMO. Now my portfolio is so dialed with low-volume accums & dump catches, I don't feel it at all",5,0,0,False
291,Bitcoin Hourly@bitcoin_hourly,"Price Update: 1 #Bitcoin = $436.0200

#cryptocurrency source http://yhoo.it/1PH2nON (via @Flutter_HQ)",0,0,0,False
292,BitcoinBuzz vega9@BitcoinBuzzV9,http://bitcoinbuzz.vega9.com - Hot topics: #mmmglobal #bitcoin #cryptocurrency #btc #robotcoingame #dogecoin,1,0,0,False
293,Miss Pascale@MisssPascale,#DéFI (@ My Office  ~ Home sweet home working :)) https://swarmapp.com/c/fHoxERdx0Eq,0,0,0,False
300,Julia Vaingurt@julia_vaingurt,"BitFury Makes Investment In BitPesa http://cur.lv/vze8d
#bitcoin #bitcoinnews #btc #cryptocurrency",0,0,0,False
301,Team 300FPS ︻╦̵̵̿╤─@300FPSGAMING,Ethereum Technical Analysis for 02/29/2016 – Pivot Zone Overview http://bit.ly/1QgjRom #bitcoin #bitcoinnews #btc #cryptocurrency,0,0,0,False
302,Team 300FPS ︻╦̵̵̿╤─@300FPSGAMING,Ethereum Technical Analysis for 02/29/2016 – Pivot Zone Overview http://bit.ly/1UueSDD #bitcoin #bitcoinnews #btc #cryptocurrency,0,0,0,False
303,Team 300FPS ︻╦̵̵̿╤─@300FPSGAMING,Ethereum Technical Analysis for 02/29/2016 – Pivot Zone Overview http://bit.ly/1QgjREP #bitcoin #bitcoinnews #btc #cryptocurrency,0,0,0,False
304,Team 300FPS ︻╦̵̵̿╤─@300FPSGAMING,BitFury Makes Investment In BitPesa http://bit.ly/1UueS6L #bitcoin #bitcoinnews #btc #cryptocurrency,0,0,0,False
305,Team 300FPS ︻╦̵̵̿╤─@300FPSGAMING,BitFury Makes Investment In BitPesa http://bit.ly/1QgjSZD #bitcoin #bitcoinnews #btc #cryptocurrency,0,0,0,False
306,Coin Tiny@CoinTiny,Value Vs Success #CryptoCurrency #Crypto,0,0,0,False
307,Cyber Security Daily News@CyberSecDN,"#Crypto #ransomware hits German hospitals http://feedproxy.google.com/~r/HelpNetSecurity/~3/oB9ZIzA8Bto/… #HelpNetSecuritytruncated:false, via @SecurityNewsbot",0,0,0,False
308,BlockChannel@BlockChannel,"BCN News: bitcoinist ""BitFury Makes Investment In BitPesa http://ift.tt/1RAdjRO #bitcoin #bitcoinnews #btc #cryptocurrency #altcoins #mo…",1,1,0,False
309,Null TX@nulltxnews,Ethereum Technical Analysis for 02/29/2016 – Pivot Zone Overview http://goo.gl/nOYVCp #bitcoin #bitcoinnews #btc #cryptocurrency,1,0,0,False
310,Bitcoinist.com@bitcoinist,BitFury Makes Investment In BitPesa http://ift.tt/1RAdjRO #bitcoin #bitcoinnews #btc #cryptocurrency #altcoins #money #freebitcoin,1,0,0,False
311,reddibrek@reddibrek,"Reddheads newsletter out tomorrow. Get the latest on #reddcoin, #bitcoin and #cryptocurrency, straight to your inbox https://cards.twitter.com/cards/18ce53wswe4/1idv5…",2,2,0,False
312,half vaccinated overcaffinated bat@mzbat,I  working at @18F. I actually feel like I'm making a difference in gov't. #github #opensource #crypto https://pages.18f.gov/joining-18f/,11,3,2,False
313,Cryptolized™@Cryptolized,#rimbit #bitcoin Increasing Rimbit's Profile - Idea 4: I have been busy the last couple of wee... http://bit.ly/21DFBQ8 #cryptocurrency,0,0,0,False
314,Team 300FPS ︻╦̵̵̿╤─@300FPSGAMING,Bitcoin Price Corrective High http://bit.ly/1QghCBo #bitcoin #bitcoinnews #btc #cryptocurrency,0,0,0,False
315,Alvis Cheng@AlvisMiner,Get 23% off Parallels Desktop 11 and the fastest portable drive on the market: The Parall... http://sh.st/E3OsB #bitcoin #crypto #IT,0,0,0,False
316,Alvis Cheng@AlvisMiner,Meet the internet-connected water jug that orders its own filters from Amazon: You’ve alw... http://sh.st/E3OsO #bitcoin #crypto #IT,0,0,0,False
317,Alvis Cheng@AlvisMiner,Microsoft HoloLens comes with these holographic games: It’s official: Microsoft’s HoloLen... http://sh.st/E3Osg #bitcoin #crypto #IT,0,0,0,False
318,Alvis Cheng@AlvisMiner,"Custom, template and the new block builder trend: What you should know before creating yo... http://sh.st/E3Os0 #bitcoin #crypto #IT",0,0,0,False
319,Alvis Cheng@AlvisMiner,"Microsoft HoloLens available for pre-order if you have $3,000 to spare, ships March 30: T... http://sh.st/E3OaH #bitcoin #crypto #IT",0,0,0,False
331,Crypto Blockchain Investor@iCryptocurrency,#Cryptocurrency News: Will a New Medium-Term Trend Appear This Week? - http://cryptocurrency.website/will-a-new-medium-term-trend-appear-this-week/… #News #Bitcoin,0,0,0,False
332,Crypto Blockchain Investor@iCryptocurrency,#Cryptocurrency News: Sequoia Fund Says Blockchain Could Cut MasterCard Earnings - http://cryptocurrency.website/sequoia-fund-says-blockchain-could-cut-mastercard-earnings/… #News #Bitcoin,0,0,0,False
333,Crypto Blockchain Investor@iCryptocurrency,#Cryptocurrency News: Russia’s Central Bank to Study Blockchain Tech - http://cryptocurrency.website/russias-central-bank-to-study-blockchain-tech/… #News #Bitcoin,0,0,0,False
334,Crypto Blockchain Investor@iCryptocurrency,#Cryptocurrency News: Russia’s Central Bank Establishes Blockchain Working Group - http://cryptocurrency.website/russias-central-bank-establishes-blockchain-working-group/… #News #Bitcoin,0,0,0,False
335,Crypto Blockchain Investor@iCryptocurrency,#Cryptocurrency News: Bitcoin Price Corrective High - http://cryptocurrency.website/bitcoin-price-corrective-high/… #News #Bitcoin,0,0,0,False
336,Coin Tiny@CoinTiny,Sebastian Greenwood and OneCoin the Future of Cryptocurrency #CryptoCurrency #Crypto,0,0,0,False
337,Coin Tiny@CoinTiny,Innovation is key – Sebastian Greenwood #CryptoCurrency #Crypto,0,0,0,False
338,Julia Vaingurt@julia_vaingurt,"Russia’s Central Bank Establishes Blockchain Working Group: While Russian authorities and reg... http://cur.lv/vzdmb
#Bitcoin #Crypto",0,0,0,False
339,Chaotic Granola @jmgranola,"these sheep seem 2 want some #bangas
#jumbucks #crypto #banga #moon #bitcoin #ethereum #dogecoin #monero #litecoinQuote TweetMax Phillips@maxphillips · Feb 29, 20162,000 super smart sheep form the words ""Ban Gas"" in a paddock. #csg #nswpol #springst #auspol",3,0,0,False
340,Tech BitCoin@tech_bitcoin,"""Bitcoin Price Watch; Gearing up for a big move…"" http://ift.tt/1OIalWO #bitcoin #crypto http://ift.tt/1Uuc7Ca",1,0,0,False
341,NE Patriots Dynasty@NEPatsDynasty,#Crypto #Money #WallStreet The Future of Payments and making Money. http://ilgamosilcoin.com/ilgamos-oprs-ilcoins.html… Please SHARE,0,0,0,False
342,Crypto Yoyo@cryptoyoyo,BitFury Invests in African Currencies Bitcoin Exchange BitPesa http://bit.ly/21w5l4o #bitcoin #crypto #news,0,0,0,False
343,Crypto Yoyo@cryptoyoyo,Securing the City of the Future with Bitcoin http://bit.ly/1RA8aJt #bitcoin #crypto #news,0,0,0,False
345,Crypto Yoyo@cryptoyoyo,Russia's Central Bank Establishes Blockchain Working Group http://bit.ly/21w5l4f #bitcoin #crypto #news,0,0,0,False
346,Actual Advice Bitcoin@ActualAdviceBTC,"""I could've made so much money but the whales cheated!!"" 
#trading #bitcoin #crypto #ethereum #forex",15,3,0,False
347,NE Patriots Dynasty@NEPatsDynasty,Gold & #Crypto-Currency in one clever system. Join the Digital Currency Revolution and turn your #PROFITS into GOLD http://dld.bz/dARdH,1,0,0,False
348,Just Security@just_security,Check out @normative in @the_intercept article on #crypto wars http://bit.ly/1WRPbLX,2,3,1,False
349, Amitav Bhattacharjee @bamitav,"""The challenges of using #blockchain #technology"" http://cnbc.com/2016/02/29/the-challenges-of-using-blockchain-technology.html… #Bitcoin #Cryptocurrency #FinTech #FinancialServicesThe challenges of using blockchain technologyBlockchain technology has the potential to revolutionize financial transactions but companies will have to overcome several challenges to use it.cnbc.com",0,0,0,False
350, Amitav Bhattacharjee @bamitav,"""Securing the City of the Future with . . . #Bitcoin? - Fortune"" http://fortune.com/2016/02/29/city-future-bitcoin/… #tech #SmartCities #DigitalCurrency #cryptocurrencySecuring the City of the Future with BitcoinBlockchain startup Factom is linking with tech consultants iSoftStone to explore smart cities applications.fortune.com",0,0,0,False
351,Julia Vaingurt@julia_vaingurt,"Tendermint thinks it will be better than #bitcoin #crypto #cryptocurrency http://cur.lv/vzcao
http://cur.lv/vzcar",1,0,0,False
352,Bitcoin Hourly@bitcoin_hourly,"Price Update: 1 #Bitcoin = $437.8000

#cryptocurrency source http://yhoo.it/1PH2nON (via @Flutter_HQ)",0,0,0,False
353,BitcoinBuzz vega9@BitcoinBuzzV9,http://bitcoinbuzz.vega9.com - Hot topics: #mmmglobal #bitcoin #cryptocurrency #robotcoingame #btc #monstercoingame,0,0,0,False
354,Jana@Nanobitcoin@NanoBitcoin,Daily Bitcoin News Ticker is out! http://ln.is/paper.li/NanoBitcoin/zzvfX… #bitcoin #crypto #markets #cryptocurrency #blockchain #EU #FinTech @NanoBitcoin,0,0,0,False
355,WINC@WINC_ev,"#WLC a basic income in #cryptocurrency for everyone.Quote TweetN Herts Green Party@nhgp · Feb 29, 2016These are the simple reasons why a basic income for all could transform our society for the better http://fb.me/714W3C2tj",0,0,0,False
356,Robyn Greene@Robyn_Greene,".@DarrellIssa takes a strong stand, leads on tech issues & #crypto. Hopefully more members of Congress heed his call http://wired.com/2016/02/forcing-apple-hack-iphone-sets-dangerous-precedent/?mbid=social_twitter…",0,0,0,False
357,Larry Akey@LarryAkey,".@RepMcCaul & @MarkWarner want a bipartisan commission to figure out #crypto issue,  @mmasnick has details - http://bit.ly/1XVa0HF",0,0,0,False
358,ferthee@ariesarcha,"Earn your FREE #CryptoCurrency here >>> http://ift.tt/1RN6Ftm <<<
Get your #Bitcoin EVERY 5 minutes!",0,0,0,False
359,Farah K. Miraza@farahkaifa,#cryptocurrency #crypto Russia’s Central Bank Establishes Blockchain Working Group http://ow.ly/3bSynw,1,1,0,False
360,Team 300FPS ︻╦̵̵̿╤─@300FPSGAMING,Growing Mempool Size Creates Huge Bitcoin Transaction Backlog http://bit.ly/1XV9idb #bitcoin #bitcoinnews #btc #cryptocurrency,0,0,0,False
361,Null TX@nulltxnews,Growing Mempool Size Creates Huge Bitcoin Transaction Backlog http://themerkle.com/news/growing-mempool-size-creates-huge-bitcoin-transaction-backlog/… #bitcoin #bitcoinnews #btc #cryptocurrencyGrowing Mempool Size Creates Huge Bitcoin Transaction BacklogOne of the things affecting Bitcoin users from all over the world is the amount of time it takes until transactions receive network confirmations. Considering how Bitcoin blocks are generated roughlythemerkle.com,1,2,0,False
368,Mark Lee@Steeler1313,CHC charna coin http://github.com/Charnasol/charnacoin… … #fintech #projects #farming #trade #crypto #countries #banking #emergingmarkets,2,0,0,False
369,Team 300FPS ︻╦̵̵̿╤─@300FPSGAMING,Russia&#039;s Central Bank to Study Blockchain Tech http://bit.ly/1Uu3ZBG #bitcoin #bitcoinnews #btc #cryptocurrency,0,0,0,False
370,Team 300FPS ︻╦̵̵̿╤─@300FPSGAMING,Russia&#039;s Central Bank to Study Blockchain Tech http://bit.ly/1Uu3Z4N #bitcoin #bitcoinnews #btc #cryptocurrency,0,0,0,False
371,Team 300FPS ︻╦̵̵̿╤─@300FPSGAMING,Russia’s Central Bank Establishes Blockchain Working Group http://bit.ly/1Uu3Z4K #bitcoin #bitcoinnews #btc #cryptocurrency,0,0,0,False
372,Alejandro Sewrjugin@alesew23,#Bitcoin Russia's Central Bank to Study Blockchain Tech http://bit.ly/1KXZ0qZ #Tech #Crypto,0,0,0,False
373,Crypto Yoyo@cryptoyoyo,Russia's Central Bank Creates Blockchain Working Group http://bit.ly/1LPFQyo #bitcoin #crypto #news,0,0,0,False
374,Crypto Yoyo@cryptoyoyo,The challenges of using blockchain technology http://bit.ly/1TKKFj9 #bitcoin #crypto #news,0,0,0,False
375,Crypto Yoyo@cryptoyoyo,Dealers on notorious Silk Road drugs website sentenced to 10 years for Bitcoin racket http://bit.ly/1LPFQhR #bitcoin #crypto #news,0,0,0,False
376,ferthee@ariesarcha,Earn your FREE #bitcoin EVERY hour here >>> http://ift.tt/1TKc1pU <<< #CryptoCurrency #OnlineMoney #earningonline,0,0,0,False
377,Mooncoin [MOON]@MooncoinItalia,Cryptsy Lawsuit Update - Vernon's Ex-Wife Potentially Involved With Lost Funds #altcoin #bitcoin #crypto https://cryptocoinsnews.com/class-action-lawsuit-cryptsy-update-ex-wife-potentially-involved-lost-funds/…,0,0,0,False
378,Chokri AlGhanmi@GhanmiChokri,"Valorbit is a #Cryptocurrency Similar with #Bitcoin, Receive Premined Valorbits Using Facebook and By Sharing Valorb…https://lnkd.in/dr4ip9p",0,0,0,False
379,Whitewood@WhitewoodCrypto,Take the #Entropy Challenge and discover just how much Entropy you can make! North Hall Booth 4915 #RNG #crypto #security #RSA2016,0,0,0,False
380,ILbotCrypto@LbotCrypto,Time to check on #edoncoin's development! http://ow.ly/WbHMN #btc #altcoin #ltc #dogecoin #bitcoin #edoncoin #ltc,0,0,0,False
381,Julia Vaingurt@julia_vaingurt,"Report: backup software firm acronis will use #blockchain technology #bitcoin #crypto http://cur.lv/vzal6
http://cur.lv/vzal8",0,0,0,False
382,Bob Carver ✭@cybersecboardrm,"Global Regulators Now Eyeing Fintech #fintech #blockchain #cryptocurrency
http://fortune.com/2016/02/27/global-fintech-regulation/?xid=smartnews…",1,0,0,False
383,Julia Vaingurt@julia_vaingurt,"Changetip launches ‘decentralised’ wallet in bid for new #bitcoin users #crypto http://cur.lv/vzacd
http://cur.lv/vzacf",0,0,0,False
384,CryptoTradeADay@CryptoTradeADay,Wealthy people invest first and spend what's left and broke people spend first and invest what's left #Bitcoin #Cryptocurrency #Investing,1,0,0,False
385,Bitcoin Hourly@bitcoin_hourly,"Price Update: 1 #Bitcoin = $435.9600

#cryptocurrency source http://yhoo.it/1PH2nON (via @Flutter_HQ)",0,0,0,False
386,BitcoinBuzz vega9@BitcoinBuzzV9,http://bitcoinbuzz.vega9.com - Hot topics: #mmmglobal #bitcoin #btc #monstercoingame #crypto #robotcoingame,0,0,0,False
387,NE Patriots Dynasty@NEPatsDynasty,What if? http://ilgamosilcoin.com/ilgamos-ilcoin.html… the power of money.  #Money #HomeBusiness #Trading #crypto Register FREE,0,0,0,False
388,fxpipsofficial@FxPipsofficial,"Services Stocks Biggest Losers, Gainers #USD #crypto #US http://okt.to/wL7900",0,0,0,False
396,TechFlavor@techflavor,Great Blog on #crypto #cryptocurrency Click http://bit.ly/1UTgrc5,0,0,0,False
397,Denny McEnroe@McEnroeDenny,Re: [SPECULAZIONE] BITCOIN PUMP! http://cur.lv/vz9kr #bitcoin #crypto,0,0,0,False
398,Denny McEnroe@McEnroeDenny,"Re: Crazy shit Bible says, crazy shit Christians say http://cur.lv/vz9kp #bitcoin #crypto",0,0,0,False
399,Denny McEnroe@McEnroeDenny,MOVED: [ANN]Invest In advertising Satoshiclaims/InvestingBit.co.in +6.9 BTC paid http://cur.lv/vz9ko #bitcoin #crypto,0,0,0,False
400,Denny McEnroe@McEnroeDenny,"Re: [XMR] Monero - A secure, private, untraceable cryptocurrency http://cur.lv/vz9km #bitcoin #crypto",0,0,0,False
401,Bob Bobert@Bob_Helensburgh,New RaspberryPi out http://raspberrypi.org/blog/raspberry-pi-3-on-sale… @RimbitCrypto @Rimbits will ur RimbitPi software run on this? #crypto #cryptocurrency #rimbit,0,0,0,False
402,XBTmoney@xbtmoney,Lisk - Changing the way you DAPP https://youtu.be/Rk_0TjP1gjY @Liskhq #Altcoins #Cryptocurrency #BTC,1,0,0,False
403,ferthee@ariesarcha,#CryptoCurrency You can join as well and collect your #Bitcoin for FREE >>> http://ift.tt/1TKc1pU,0,0,0,False
404,TheCoinWarrior@TheCoinWarrior,"""The Bitcoin Covenant — Defense Against Bitcoin Theft !"" https://google.com/url?rct=j&sa=t&url=http://www.newsbtc.com/2016/02/28/bitcoin-covenant-defense-bitcoin-theft/&ct=ga&cd=CAIyGjk4NmJlZGI4MDE2OTU4NGU6Y29tOmVuOlVT&usg=AFQjCNHanwUgomU2mWR3Z3ywDwTT5wQPZw… #cryptocurrency #feedly",0,0,0,False
405,TheCoinWarrior@TheCoinWarrior,"""Japan could be the first country to certify Bitcoin as legal currency"" https://google.com/url?rct=j&sa=t&url=http://www.globallegalpost.com/global-view/japan-could-be-the-first-country-to-certify-bitcoin-as-legal-currency-76232607/&ct=ga&cd=CAIyGjk4NmJlZGI4MDE2OTU4NGU6Y29tOmVuOlVT&usg=AFQjCNEt1r7EC1aXE5Oa4v0r2b3OoT2vNA… #cryptocurrency #feedly",0,0,0,False
406,TheCoinWarrior@TheCoinWarrior,"""Bitcoin Hating Bank of Russia Shows Love for Blockchain (10:24 am)"" https://google.com/url?rct=j&sa=t&url=http://www.financemagnates.com/cryptocurrency/news/bitcoin-hating-bank-of-russia-shows-love-for-blockchain/&ct=ga&cd=CAIyGjk4NmJlZGI4MDE2OTU4NGU6Y29tOmVuOlVT&usg=AFQjCNFBfYL9G-qtbu8n9l7OXVC_4MiK7g… #cryptocurrency #feedly",0,0,0,False
407,Jana@Nanobitcoin@NanoBitcoin,@BitcoinzMachine: Former #bitcoin insurance advisor accused of securities fraud #crypto #cryptocurrencyFormer Bitcoin Insurance Advisor Accused of Securities Fraud - CoinDeskThe founder and former president of an insurance consultancy that is focused on the bitcoin industry has been accused of securities fraud.coindesk.com,0,0,0,False
408,Coin Tiny@CoinTiny,Lisk Raises Over 1200 Bitcoin During The First Week – Open Source Dapp & Custom Blockchain Platform #CryptoCurrency…,0,0,0,False
409,Coin Tiny@CoinTiny,Lisk - Changing the way you DAPP #CryptoCurrency #Crypto,0,0,0,False
410,Crypto Yoyo@cryptoyoyo,Everything you need to know about the MMM Bitcoin scam http://bit.ly/1Qn4XOz #bitcoin #crypto #news,0,0,0,False
411,Crypto Yoyo@cryptoyoyo,http://247exchange.com covers Canada with instant ways of buying Bitcoin http://bit.ly/1VMNZt6 #bitcoin #crypto #news,1,1,0,False
416,Crypto Yoyo@cryptoyoyo,Blockchain is a zero-sum game for investment banks http://bit.ly/1Qn4XOw #bitcoin #crypto #news,0,0,0,False
417,CryptoRSS@CryptoRSS,Sequoia Capital Says Blockchain Could Cut MasterCard Earnings: Sequoia Capital has predicted that the ... http://bit.ly/21vIFkE #crypto,1,0,0,False
418,Gabor Venczel@ujtrend,"Does Bitcoin Pose a Threat to China's Economic Security? #cryptocurrency, bitcoin, octacoin, http://webogi.com/bVz6-j",0,0,0,False
419,Bitcoin Hourly@bitcoin_hourly,"Price Update: 1 #Bitcoin = $436.4000

#cryptocurrency source http://yhoo.it/1PH2nON (via @Flutter_HQ)",1,0,0,False
420,BitcoinBuzz vega9@BitcoinBuzzV9,http://bitcoinbuzz.vega9.com - Hot topics: #mmmglobal #bitcoin #crypto #btc #monstercoingame #robotcoingame,0,0,0,False
421,TechFlavor@techflavor,Math denialism: #crypto backdoors and #DRM are the alternative medicine of computer science - http://bit.ly/1Sc89Oe good,0,0,0,False
422,Julia Vaingurt@julia_vaingurt,"Gaming on the #blockchain: the huntercoin saga #bitcoin #crypto #cryptocurrency http://cur.lv/vz738
http://cur.lv/vz739",0,0,0,False
423,XAYA@XAYA_tech,#Huntercoin has an active community on #Facebook. Join the #gaming revolution at https://facebook.com/groups/467303256806059/… #cryptocurrency,1,4,0,False
424,Farah K. Miraza@farahkaifa,#cryptocurrency #crypto Cryptsy Lawsuit Update – Vernon’s Ex-Wife Potentially Involved With Lost Funds http://ow.ly/3bSiRY,0,0,0,False
425,Julia Vaingurt@julia_vaingurt,"Cryptsy Lawsuit Update – Vernon’s Ex-Wife Potentially Involved With Lost Funds: In what has b... http://cur.lv/vz6xh
#Bitcoin #Crypto",0,0,0,False
426,Coin Tiny@CoinTiny,Feedzai CTO On How Blockchain Technology Can Enhance Fraud Detection #CryptoCurrency #Crypto,0,0,0,False
427,Crypto Yoyo@cryptoyoyo,Jan Hubík: Why I became one of Czech Republic's first cyborgs http://bit.ly/1QfKXff #bitcoin #crypto #news,0,0,0,False
428,Crypto Yoyo@cryptoyoyo,Bitcoinist Weekly News Re-Hash: Bitcoin Classic Gaining Steam http://bit.ly/1Sc4ZKd #bitcoin #crypto #news,0,0,0,False
429,Coinfeed@CoinfeedIO,#Cryptocurrency Exchange CEX.IO enables TradingView Charting - NEWSBTC Error,0,0,0,False
430,Sleeping Horse #BRG@Hunting_Bitcoin,Claim your free Doge Coin every one hour just at http://freedoge.co.in/?r=314242 claim up to 900k doge coin #faucet #altcoin,1,0,0,False
431,Alvin Moon   @onemanatatime,Replying to @onemanatatimeAlso made a full poll on Bitcointalk: Potentially Most Profitable #Altcoin of 2016 @onemanatatime https://bitcointalk.org/index.php?topic=1381251.0… #altsareback,1,0,0,False
432,Robin Gringelstam@RGringelstam,"How to make easy money.
#onecoin #cryptocurrency #networkmarketing #money #helpothersmakemoney… https://instagram.com/p/BCXqlbUkW3p/",0,0,0,False
433,sonsofliberty2016@Thefedendsnow,#Phillipines #Muecoin #askastoreaday #Vegas and #MontaryUnit meet in #18b #DTVL #TheArtsFactoryLV #BTM #crypto #deals,0,0,0,False
434,HYPER Crypto@HyperCrypto,Skins for #CSGO with $HYPER: https://cashncarry.info/store/skins?enasm… #gaming #bitcoin #fintech #cryptocurrencyImgurimgur.com,2,1,0,False
444,coinOK@coinok,Win $150 in Dogecoins every hour! http://freedoge.co.in/?r=98385 #doge #dogecoin #btc #bitcoin #ltc #altcoin #cryptocurrency,0,0,0,False
445,Bitcoin Hourly@bitcoin_hourly,"Price Update: 1 #Bitcoin = $434.9800

#cryptocurrency source http://yhoo.it/1PH2nON (via @Flutter_HQ)",0,0,0,False
446,BitcoinBuzz vega9@BitcoinBuzzV9,http://bitcoinbuzz.vega9.com - Hot topics: #mmmglobal #bitcoin #crypto #monstercoingame #cryptocurrency #btc,0,0,0,False
447,Neu@neucrypto,"Invest in the future of Biotech and Fintech.
Buy, Trade or Stake #EvoPoints #Cryptocurrency
http://bit.ly/1TeA1mc | $XEV",1,0,0,False
448,Alvin Moon   @onemanatatime,"Replying to @onemanatatimeAnd let's not forget about these old school #Altcoins. At current prices, potentially most profitable coin of 2016:LTC46.9%PPC37.5%NMC9.4%NVC/XPM6.3%64 votes·Final results",3,3,0,False
449,Bitcoinist.com@bitcoinist,Bitcoinist Weekly News Re-Hash: Bitcoin Classic Gaining Steam http://ift.tt/1RzuoLV #bitcoin #bitcoinnews #btc #cryptocurrency #altcoins…,0,0,0,False
450,Alvin Moon   @onemanatatime,"Replying to @onemanatatimeWhich of these #Altcoins would you choose, at current prices, as potentially most profitable coin of 2016?XVG25.9%CYG38.9%WARP11.1%DNET24.1%54 votes·Final results",2,1,0,False
451,Julia Vaingurt@julia_vaingurt,"How the energy #blockchain will create a distributed grid #bitcoin #crypto #cryptocurrency http://cur.lv/vz5jz
http://cur.lv/vz5k1",0,0,0,False
452,Alvin Moon   @onemanatatime,"Replying to @onemanatatimeWhich of these #Altcoin veterans would you choose, at current prices, as potentially most profitable coin of 2016?DGB35.4%VRC20.8%BTS/XRP25%BLK/DOGE18.8%48 votes·Final results",1,1,0,False
453,Alvin Moon   @onemanatatime,"Replying to @onemanatatimeWhich of these #Altcoin would you choose, at current prices, as potentially most profitable coin of 2016?VNL42.9%SYS21.4%DCR22.9%RADS12.9%70 votes·Final results",2,2,0,False
454,You Love Bitcoin@nexuscrypto,"Who do you trust?
#cryptocurrency #litecoin #bitcoin",1,0,0,False
458,Alvin Moon   @onemanatatime,"Replying to @onemanatatimeWhich of these #Altcoin powerhouses would you choose, at current prices, as potentially most profitable coin of 2016ETH35.2%FCT14.1%MAID23.9%XMR26.8%71 votes·Final results",1,1,0,False
459,BitcoinAgile@bitcoinagile,Data Ownership #maidsafe #socialdatawallet #crypto http://bit.ly/1QnJjq3,0,0,0,False
460,Passive Income@PassiveIncoming,"@BitchainATM Really digging some these FREE BITCOIN FAUCETS!
http://freecryptofaucets.com
#cryptofaucets #bitcoin #altcoin #cryptocurrency",0,0,0,False
461,Crypto Yoyo@cryptoyoyo,Bank of Russia Sets Up Taskforce to Explore Bitcoin and FinTech http://bit.ly/1naVApr #bitcoin #crypto #news,0,0,0,False
462,Crypto Yoyo@cryptoyoyo,Wealth of Me Lets Users Manage Their Digital Currency Portfolio http://bit.ly/1TKf2WR #bitcoin #crypto #news,0,0,0,False
463,Crypto Yoyo@cryptoyoyo,How The Energy Blockchain Will Create A Distributed Grid http://bit.ly/1naVC0g #bitcoin #crypto #news,0,0,0,False
464,Crypto Yoyo@cryptoyoyo,Bitcoin Hating Bank of Russia Shows Love for Blockchain http://bit.ly/1TKf411 #bitcoin #crypto #news,1,0,0,False
465,Crypto Yoyo@cryptoyoyo,Japan could be the first country to certify Bitcoin as legal currency http://bit.ly/1naVA8U #bitcoin #crypto #news,0,0,0,False
466,Crypto Yoyo@cryptoyoyo,KRX seeks share trading through blockchain http://bit.ly/1TKf40V #bitcoin #crypto #news,0,0,0,False
467,Team 300FPS ︻╦̵̵̿╤─@300FPSGAMING,Bitcoinist Weekly News Re-Hash: Bitcoin Classic Gaining Steam http://bit.ly/1LPmF82 #bitcoin #bitcoinnews #btc #cryptocurrency,0,0,0,False
468,Sara Rodríguez Marín@ChuritaSRM,The best free #research papers on #fintech and #blockchain http://banknxt.com/55778/research-fintech-blockchain/… #bitcoin #cryptocurrency,0,0,0,False
469,BitcoinAgile@bitcoinagile,Bank of Russia Sets Up Taskforce to Explore Bitcoin and FinTech - NEWSBTC #bitcoin #crypto http://bit.ly/1QnHHMO,1,0,0,False
470,Tech BitCoin@tech_bitcoin,"""Bank of Russia Sets Up Taskforce to Explore Bitcoin and FinTech"" http://ift.tt/eA8V8J #bitcoin #crypto http://ift.tt/1RzsCtY",0,0,0,False
471,Denny McEnroe@McEnroeDenny,Re: Twitter and Facebook Posting Job http://cur.lv/vz2bg #bitcoin #crypto,0,0,0,False
472,Denny McEnroe@McEnroeDenny,Re: [ANN] [DRZ-V3] [DROIDZ-V3] [ANTI-INSTAMINE] - A FRESH NEW START - WALLET 3.0.1 http://cur.lv/vz2bf #bitcoin #crypto,0,0,0,False
473,Denny McEnroe@McEnroeDenny,Re: How to stay away from gambling? suggestions ? http://cur.lv/vz2be #bitcoin #crypto,0,0,0,False
474,Denny McEnroe@McEnroeDenny,"Re: $25 for referral, OK for newbies http://cur.lv/vz2bc #bitcoin #crypto",0,0,0,False
475,Denny McEnroe@McEnroeDenny,Re: BetCoin.TM Bitcoin Casino | Poker | Slots | Sports | Live Dealers | And More! http://cur.lv/vz2b9 #bitcoin #crypto,0,0,0,False
476,Bitcoin Hourly@bitcoin_hourly,"Price Update: 1 #Bitcoin = $439.4800

#cryptocurrency source http://yhoo.it/1PH2nON (via @Flutter_HQ)",0,0,0,False
489,BitcoinBuzz vega9@BitcoinBuzzV9,http://bitcoinbuzz.vega9.com - Hot topics: #mmmglobal #bitcoin #crypto #cryptocurrency #btc #monstercoingame,1,0,0,False
490,Bob Bobert@Bob_Helensburgh,A good article on the rise of Ethereum http://newsbtc.com/2016/02/14/factors-behind-the-rise-of-ethereum/… #rimbit #bitcoin #crypto #cryptocurrency,0,0,0,False
491,Team 300FPS ︻╦̵̵̿╤─@300FPSGAMING,Sequoia Capital Says Blockchain Could Cut MasterCard Earnings http://bit.ly/1oSk2xz #bitcoin #bitcoinnews #btc #cryptocurrency,0,0,0,False
492,Megabyte@megabyte101,@timothysykes would love to see you read the charts and speculate on #cryptocurrency trading: https://poloniex.com/exchange#btc_eth… @ethereumproject,0,0,0,False
493,Alejandro Sewrjugin@alesew23,#Bitcoin Sequoia Capital Says Blockchain Could Cut MasterCard Earnings http://bit.ly/1KXplW9 #Tech #Crypto,1,0,0,False
494,Crypto Yoyo@cryptoyoyo,Never want to use another Bitcoin plugin http://bit.ly/1QGdF6e #bitcoin #crypto #news,0,0,0,False
495,Mark@UnNamedCoin,Rimbit in the future - What Hypercar will you get? | Rimbit Crypto Currency #rimbit #altcoins #bitcoin http://buff.ly/1XUA45J,0,0,0,False
496,CryptoKaiserParabolica@iz_me_alex,"What #blockchain technology can do for #India s underbanked
#finance #fintech #cryptocurrency http://fb.me/82bNUflyh",1,1,0,False
497,Team 300FPS ︻╦̵̵̿╤─@300FPSGAMING,Wealth of Me Lets Users Manage Their Digital Currency Portfolio http://bit.ly/1oSiSSN #bitcoin #bitcoinnews #btc #cryptocurrency,0,0,0,False
498,Mike Green@MikeGreenSec,Reinvented ransomware shifts from pwning PC to wrecking websites #cybercrime #crypto http://ow.ly/YS4OK,0,0,0,False
499,Null TX@nulltxnews,Wealth of Me Lets Users Manage Their Digital Currency Portfolio http://goo.gl/EVp3l5 #bitcoin #bitcoinnews #btc #cryptocurrency,1,0,0,False
500,BitcoinAgile@bitcoinagile,Russia ranks 5th for number of cryptocurrency users #Russia #cryptocurrency #users #bitcoin http://onestopbrokers.com/2016/02/29/russia-ranks-5th-number-cryptocurrency-users…,0,0,0,False
501,onestopbrokers@onestopbrokers,"#Russia ranks 5th for number of #cryptocurrency #users | #virtualCurrency #bitcoin
http://bit.ly/1TK8pUn",1,0,0,False
502,Team 300FPS ︻╦̵̵̿╤─@300FPSGAMING,How The Energy Blockchain Will Create A Distributed Grid http://bit.ly/1WS03JO #bitcoin #bitcoinnews #btc #cryptocurrency,0,0,0,False
503,Farah K. Miraza@farahkaifa,#cryptocurrency #crypto How The Energy Blockchain Will Create A Distributed Grid http://ow.ly/3bS4JQ,0,0,0,False
504,Scott @ScottaBeTrue,@timothysykes would love to see you read the charts and speculate on #cryptocurrency trading: https://poloniex.com/exchange#btc_eth… @ethereumproject,0,0,0,False
505,Julia Vaingurt@julia_vaingurt,Valorbit is a #cryptocurrency similar with #Bitcoin! Receive premined valorbits using Facebook and by sharing... http://cur.lv/vz17u,1,0,0,False
518,Chokri AlGhanmi@GhanmiChokri,Valorbit is a #cryptocurrency similar with #Bitcoin! Receive premined valorbits using Facebook and by sharing... http://fb.me/7bmdQVMkM,0,0,0,False
519,ForexMinute.com News@ForexMinuteNews,#BTCUSD Price Technical Analysis – Aiming for Channel Resistance? #crypto #btc http://forexminute.com/btcusd-price-technical-analysis-aiming-for-channel-resistance/…,0,0,0,False
520,Crypto Yoyo@cryptoyoyo,Five things you should know before you start your workday on Feb. 29 http://bit.ly/21vghiy #bitcoin #crypto #news,0,0,0,False
521,Crypto Yoyo@cryptoyoyo,LocalBitcoins Volume In South Africa Shows 50-fold Growth In One Year http://bit.ly/1QGbFuS #bitcoin #crypto #news,1,0,0,False
522,Crypto Yoyo@cryptoyoyo,Bitcoin Price Watch; In For A Volatile Week http://bit.ly/21vgiDc #bitcoin #crypto #news,0,0,0,False
523,Crypto Yoyo@cryptoyoyo,Less Than a Month Left Till London Bitcoin Forum Will Take Place http://bit.ly/1QGbFuM #bitcoin #crypto #news,0,0,0,False
524,Crowdify Cleantech@CrowdifyGreen,Africa Debuts Academy that Will Teach #Bitcoin http://smq.tc/1PxG5RE via @moneyandtech #CryptoCurrency #EdTech,0,0,0,False
525,Julia Vaingurt@julia_vaingurt,"#Bitcoin & #Crypto news - ""Russia’s Central Bank Officially Announces Blockchain ‘Work Group’"" More details at http://cur.lv/vz0xf
.",0,0,0,False
526,CryptoCoinsMarket@ccoinmarket,Russia’s Central Bank Officially Announces Blockchain ‘Work Group’ http://ift.tt/1RznXsa http://ift.tt/1XUGhyz #crypto #bitcoin,0,0,0,False
527,TechFlavor@techflavor,"#Bitcoin last trade

@bitstamp $437.92
@coinbase $438.10

Set #crypto #price #alerts at http://bit.ly/1mNnAQc",0,0,0,False
528,BCB ATM@bcb_atm,"Is 2016 the Year #Russia Legalizes #Bitcoin? - http://bit.ly/1Q84Bdf
#Finance #Banking #ATM #Currency #Cryptocurrency #Blockchain #Mining",0,0,0,False
529,Bitcoinist.com@bitcoinist,LocalBitcoins Volume In South Africa Shows 50-fold Growth In One Year http://ift.tt/1naIDM6 #bitcoin #bitcoinnews #btc #cryptocurrency #…,1,1,0,False
530,HaShForce101@HaShForce101,"Search for ""Holiday Packages"" on http://Searchtrade.com and get Paid for your searchers in #Bitcoin #altcoins #BTC",0,0,0,False
535,Gabor Venczel@ujtrend,"Lightning’s Balancing Act: Challenges Face Bitcoin’s #cryptocurrency, bitcoin, octacoin, http://webogi.com/-T6E0H",0,0,0,False
536,Team 300FPS ︻╦̵̵̿╤─@300FPSGAMING,LocalBitcoins Volume In South Africa Shows 50-fold Growth In One Year http://bit.ly/1oIIlxl #bitcoin #bitcoinnews #btc #cryptocurrency,0,0,0,False
537,Tech BitCoin@tech_bitcoin,"""Bitcoin Price Watch; In For A Volatile Week"" http://ift.tt/1QmPcqW #bitcoin #crypto http://ift.tt/1OHnT52",0,0,0,False
538,Bitcoin Hourly@bitcoin_hourly,"Price Update: 1 #Bitcoin = $437.5000

#cryptocurrency source http://yhoo.it/1PH2nON (via @Flutter_HQ)",0,0,0,False
539,BitcoinBuzz vega9@BitcoinBuzzV9,http://bitcoinbuzz.vega9.com - Hot topics: #mmmglobal #bitcoin #crypto #cryptocurrency #btc #robotcoingame,0,0,0,False
540,International CCC@Int_CCC,Today's Crypto Chronicle! News about #bitcoin #cryptocurrency and more! http://paper.li/Int_CCC/1409392381?edition_id=641d73c0-deca-11e5-ad74-002590a5ba2d…,0,0,0,False
541,Julia Vaingurt@julia_vaingurt,"#Bitcoin price sentiment not high #crypto #cryptocurrency http://cur.lv/vyzww
http://cur.lv/vyzwx",1,0,0,False
542,Gabor Venczel@ujtrend,"Artists Turn to Bitcoin for Inspiration, Not Personal #cryptocurrency, bitcoin, octacoin, http://webogi.com/zw1WaI",0,0,0,False
543,Julia Vaingurt@julia_vaingurt,"Omnidex 10 takes #bitcoin #blockchain principles as a decentralized #crypto #exchange http://cur.lv/vyziz
http://cur.lv/vyzj0",1,0,0,False
544,SI Capital@sicapital,"Lightning Network Maybe the Future of Bitcoin #Micropayments
#bitcoin #cryptocurrency
http://newsbtc.com/2016/02/27/lightning-network-bitcoin-micropayments/…",4,0,0,False
545,Fortune. Bit by Bit!@FortuneBitXBit,Richard Keane : @SiriusNews_com: The New #money system #crypto #Ilcoin #ilgamos… http://sh.st/E14SD #bitcoin,0,0,0,False
546,NE Patriots Dynasty@NEPatsDynasty,Quadruple your investment.  #Money #stocks #Gold #crypto 4 in 1 trading system for Partners only. http://ilgamosilcoin.com/home.html,0,0,0,False
547,Crypto Yoyo@cryptoyoyo,Bitcoin and The Big Short: Can Blockchain Avert the Next Financial Meltdown? (8:36 am) http://bit.ly/1oIFfJC #bitcoin #crypto #news,1,0,0,False
548,Crypto Yoyo@cryptoyoyo,Bank of Russia sets up working group on blockchain technologies http://bit.ly/1ThbTzn #bitcoin #crypto #news,0,0,0,False
549,Crypto Yoyo@cryptoyoyo,34 Bytes Announces New Bitcoin Point of Sale Payment Terminal http://bit.ly/1oIFeFr #bitcoin #crypto #news,0,0,0,False
550,The Bestest@BestQuotesPM,"Exciting yet reliable, #Rimbit stands out in the world of #cryptocurrency http://rimbit-uk.com",0,0,0,False
552,Rimbit @rimbit,Rimbit in the future - What Hypercar will you get? | Rimbit Crypto Currency #rimbit #altcoins #bitcoin http://buff.ly/1XUA3P5,0,0,0,False
553,BitcoinAgile@bitcoinagile,No Consensus Reached During Satoshi Roundtable San Francisco #satoshi #sanfrancisco #crypto http://bitcoinschannel.com/no-consensus-reached-during-satoshi-roundtable-san-francisco…,0,0,0,False
554,Coin Tiny@CoinTiny,An Ethical AdBlocker - a Bitcoin killer app? #CryptoCurrency #Crypto,0,0,0,False
555,Denny McEnroe@McEnroeDenny,Re: (ⓝⓔⓦ) Coin Generator ▲ HYBRID FAUCET ▲ build your city ▲ real business <·´¯`·. http://cur.lv/vyy9u #bitcoin #crypto,0,0,0,False
556,Denny McEnroe@McEnroeDenny,Re:  Shocking Times: Movement for Pedophile Rights Marches On http://cur.lv/vyy9t #bitcoin #crypto,0,0,0,False
557,Denny McEnroe@McEnroeDenny,"Re: [BATA][BTA] 21st Century Barter. Optional i2P & TOR, No Digital DNA -SCRYPT POW http://cur.lv/vyy9r #bitcoin #crypto",1,2,0,False
558,Denny McEnroe@McEnroeDenny,Re: Vanitygen: Vanity bitcoin address generator/miner [v0.22] http://cur.lv/vyy9p #bitcoin #crypto,0,0,0,False
559,Cryptolized™@Cryptolized,"#rimbit #bitcoin Rimbit in the future - What Hypercar will you get?: For some Rimbit users, yo... http://bit.ly/1TJVVME #cryptocurrency",0,0,0,False
560,CryptoRSS@CryptoRSS,"Was MMM Really behind Last Year’s Increased Bitcoin Demand among the Chinese?: In late last year, Bitc... http://bit.ly/21CW5bn #crypto",0,0,0,False
561,Cryptolized™@Cryptolized,#rimbit #bitcoin When Rimbits get big is it going to be a security threat?: We all know the ad... http://bit.ly/1ReAPBl #cryptocurrency,0,0,0,False
562,Bitcoin Hourly@bitcoin_hourly,"Price Update: 1 #Bitcoin = $436.8800

#cryptocurrency source http://yhoo.it/1PH2nON (via @Flutter_HQ)",0,0,0,False
563,BitcoinBuzz vega9@BitcoinBuzzV9,http://bitcoinbuzz.vega9.com - Hot topics: #mmmglobal #bitcoin #crypto #btc #cryptocurrency #monstercoingame,0,0,0,False
564,Mark@UnNamedCoin,When Rimbits get big is it going to be a security threat? | Rimbit Crypto Currency #rimbit #altcoins #bitcoin http://buff.ly/1QmHrkJ,0,0,0,False
565,Team 300FPS ︻╦̵̵̿╤─@300FPSGAMING,34 Bytes Announces New Bitcoin Point of Sale Payment Terminal http://bit.ly/1KX7Rct #bitcoin #bitcoinnews #btc #cryptocurrency,0,0,0,False
566,Team 300FPS ︻╦̵̵̿╤─@300FPSGAMING,34 Bytes Announces New Bitcoin Point of Sale Payment Terminal http://bit.ly/1KX7S00 #bitcoin #bitcoinnews #btc #cryptocurrency,0,0,0,False
567,Null TX@nulltxnews,34 Bytes Announces New Bitcoin Point of Sale Payment Terminal http://goo.gl/RPi8Yx #bitcoin #bitcoinnews #btc #cryptocurrency,0,0,0,False
568,Coinfeed@CoinfeedIO,"UniPAY Offers #Cryptocurrency Payment Solution In Georgia, Partnering Wi... http://tinyurl.com/pm3qglo",0,0,0,False
569,Alvin Moon   @onemanatatime,Replying to @onemanatatime$MAID pump stalled at 24-16k perhaps for 1-2 weeks. All eyes on $BTC now. Which also means #Altcoin shopping coz flash sales coming up.,4,1,0,False
570,NE Patriots Dynasty@NEPatsDynasty,Great Blog on #crypto #cryptocurrency Click http://juddbagley.io/bitcoin/blockchain/nasdaq-is-joining-the-blockchain-trading-party/… SHARE,1,0,0,False
571,Crypto Yoyo@cryptoyoyo,"Ransomware Incident Response – Prevention, Readiness and Strategy http://bit.ly/21uYzvP #bitcoin #crypto #news",1,0,0,False
572,Crypto Yoyo@cryptoyoyo,Hollywood hospital pays $17K bitcoin ransom to cyberattackers http://bit.ly/1OHdCpz #bitcoin #crypto #news,0,0,0,False
573,Julia Vaingurt@julia_vaingurt,"Why the great firewall of #china is causing serious issues for #bitcoin miners #crypto http://cur.lv/vywej
http://cur.lv/vywek",0,0,0,False
574,Altcoinix[KLKS]@Yavuzcetinkaya3,Factors Behind the Rise of Ethereum http://altcoinix.com/2016/02/29/factors-behind-the-rise-of-ethereum/… #eth #ethereum #altcoins #bitcoinnews #bitcoin,0,0,0,False
575,FREE MONEY@FreeBitcoiners,"@gblclassifieds 100% FREE TOP PAYING 'Crypto Faucets & Altcoin Wallets' ALL-IN-ONE PLACE! 
http://freecryptofaucets.com
#freebitcoin #altcoins",0,0,0,False
576,CryptoCoinsMarket@ccoinmarket,No Consensus Reached During Satoshi Roundtable San Francisco http://ift.tt/1Th70WY http://ift.tt/215y4Ye #crypto #bitcoin,0,0,0,False
577,BTCremix@BTC_remix,#bitcoin #BTC Was MMM Really behind Last Year’s Increased Bitcoin Demand among the Chinese? http://cur.lv/vyw48 #cryptocurrency,0,0,0,False
588,BTCremix@BTC_remix,#bitcoin #BTC Ethereum Price Technical Analysis – Major Break Looming http://cur.lv/vyw47 #cryptocurrency,0,0,0,False
589,BTCremix@BTC_remix,#bitcoin #BTC Bitcoin Price Technical Analysis for 29/02/2016 – Slow Crawl for Bulls http://cur.lv/vyw45 #cryptocurrency,0,0,0,False
590,NE Patriots Dynasty@NEPatsDynasty,#ILGamos and their NEW #ILCoin. 4 in 1 Trading platform. Stock up 35%.  http://INVEST.ilgamos.com/buy?buy_type=1 #Crypto #Nasdaq #ETRADE,0,0,0,False
591,Rimbit @rimbit,When Rimbits get big is it going to be a security threat? | Rimbit Crypto Currency #rimbit #altcoins #bitcoin http://buff.ly/1QmHsoR,0,0,0,False
593,Bitcoin Hourly@bitcoin_hourly,"Price Update: 1 #Bitcoin = $434.3800

#cryptocurrency source http://yhoo.it/1PH2nON (via @Flutter_HQ)",0,0,0,False
594,Security News Bot@SecurityNewsbot,"Week in review: #Linux Mint hack, #crypto #ransomware hits hospitals, and educating policymakers... http://feedproxy.google.com/~r/HelpNetSecurity/~3/Etcdu6xz9TM/… #HelpNetSecurity",0,0,0,False
595,BitcoinBuzz vega9@BitcoinBuzzV9,http://bitcoinbuzz.vega9.com - Hot topics: #mmmglobal #bitcoin #cryptocurrency #crypto #btc #mmmextra,0,0,0,False
596,Julia Vaingurt@julia_vaingurt,"Coinbase is ‘building a retail #exchange’ not a wallet #bitcoin #crypto #cryptocurrency http://cur.lv/vyvcx
http://cur.lv/vyvcy",0,0,0,False
597,The Bestest@BestQuotesPM,Buying $100 of #Rimbit #cryptocurrency is not expensive. Missing this opportunity is! http://Rimbit-uk.com,0,0,0,False
598,The Bestest@BestQuotesPM,"#Rimbit #cryptocurrency is ONLY 1-cent per RBT, but not for long. Get it today at http://rimbit-uk.com",0,0,0,False
599,OpenLedger@OpenLedgerDC,"Double #profits of the DEX #OpenLedger is double value of #crypto #OBITS with #BTS 2.0 Gui open source #NEWS @forbesBitcoin Exchange 'Ramps-Up' OBITS Cryptocurrency Profits For Future BuybackThe cryptocurrency exchange behind the recently launched OBITS currency initiative, CCEDK, is increasing the future payouts derived from profits and fees generated through user registrations on...forbes.com",2,1,0,False
600,Crypto ― logen@cryptologen,"Will a New Medium-Term Trend Appear This Week? http://cointelegraph.com/ref5281/news/will-a-new-medium-term-trend-appear-this-week…
#bitcoin #cryptocurrency #exchange #marketWill a New Medium-Term Trend Appear This Week?The current Bitcoin price trend is caused by the split in opinions among traders.cointelegraph.com",2,2,0,False
601,Chito Mustapah 7@ChitoRizz,"Meanwhile Bitcoin Rate. XBT-MYR.
#Bitcoin #cryptocurrency #malaysia",1,0,0,False
602,The Bestest@BestQuotesPM,At http://Rimbit-uk.com RBT is currently ONLY 1-cent per RBT. The lowest you will find. #cryptocurrency #rimbit,0,0,0,False
603,Crypto ― logen@cryptologen,"Will the BTC/USD Pair Continue Its Decline? http://cointelegraph.com/ref5281/news/will-the-btcusd-pair-continue-its-decline…
#bitcoin #exchange #usd #cryptocurrencyWill the BTC/USD Pair Continue Its Decline?Bitcoin price was fluctuating between two critical points. The market must decide upon further direction.cointelegraph.com",2,2,0,False
604,Julia Vaingurt@julia_vaingurt,"#Bitcoin alternative z#cash promises to offer better user anonymity #crypto #cryptocurrency http://cur.lv/vyu8e
http://cur.lv/vyu8h",1,0,0,False
605,Denny McEnroe@McEnroeDenny,Re: [ANN] QIBUCK COIN - X13 - POS/POBH - 1st Proof of Baghold http://cur.lv/vyu64 #bitcoin #crypto,0,0,0,False
606,Denny McEnroe@McEnroeDenny,"Re: AMA on HK roundtable consensus:Adam Back, Jihan Wu and Samson Mow (29th Feb) http://cur.lv/vyu63 #bitcoin #crypto",0,0,0,False
607,Denny McEnroe@McEnroeDenny,Re: At what price is bitcoin a good buy? http://cur.lv/vyu61 #bitcoin #crypto,0,0,0,False
608,Denny McEnroe@McEnroeDenny,Re: Let's Be Honest. We Are Waiting for $100/BTC to buy http://cur.lv/vyu60 #bitcoin #crypto,0,0,0,False
609,Crypto Yoyo@cryptoyoyo,Bank of Russia softens stance on crypto currency tech http://bit.ly/1UttXW4 #bitcoin #crypto #news,0,0,0,False
610,TechFlavor@techflavor,"Visit -> http://bit.ly/1YtBVNv  Instant #cryptocurrency exchange, #crypto to fiat transfers, cryptoassets. #bitcoin #dash #doge",1,0,0,False
611,Crypto ― logen@cryptologen,"ChangeTip Launches ‘Decentralised’ Wallet in Bid for New #Bitcoin Users http://bit.ly/1T0gcPe via @CoinDesk
#cryptocurrency",2,2,0,False
612,Julia Vaingurt@julia_vaingurt,"How to make #money by spreading the word about #bitcoin #crypto #cryptocurrency http://cur.lv/vytz9
http://cur.lv/vytza",0,0,0,False
613,Denny McEnroe@McEnroeDenny,Re: CRYPTOBOOST ⇧ LIVE WALLET BALANCE ⇧ 77 BTC+ PAID ⇧ WEEKLY BONUS ⇧ TRANSPARENT http://cur.lv/vytsk #bitcoin #crypto,0,0,0,False
614,Denny McEnroe@McEnroeDenny,Re: [ANN] Bitcoin Web Hosting Philippines http://cur.lv/vytsi #bitcoin #crypto,0,0,0,False
615,Denny McEnroe@McEnroeDenny,Re: http://Bitcoins.work is Scam! http://cur.lv/vytse #bitcoin #crypto,0,0,0,False
616,Denny McEnroe@McEnroeDenny,Re: best signature campaign for full member http://cur.lv/vytsc #bitcoin #crypto,0,0,0,False
617,PinkMona@pinkmona_org,#bitcoin #altcoin #dogecoin Let's Hentai! Come on PinkMona!→http://pinkmona.org,0,0,0,False
618,CryptoRSS@CryptoRSS,Worldpay outs self as provider of easy-to-crack payment services: Symantec asked for new SHA-1 certs t... http://bit.ly/21uPnHH #crypto,0,0,0,False
620,Mark@UnNamedCoin,Bitcoins darkest code error - They know about it too! #rimbit #altcoins #bitcoin http://buff.ly/1QmtFyt,0,0,0,False
621,Tech Junkie@techjunkiejh,A gentle introduction to immutability of blockchains http://buff.ly/1VMqctp #blockchain #cryptocurrency,1,0,0,False
622,Crypto Trader Pro @CryptoTraderPro,Bitcoin Price Technical Analysis for 29/02/2016 – Slow Crawl for Bulls #btc… http://dlvr.it/Kdz7SS #btc #crypto,0,0,0,False
625,Bitcoin Sportsbook @SportsbookBTC,Bitcoin Price Technical Analysis for 29/02/2016 – Slow Crawl for Bulls #btc… http://dlvr.it/Kdz6m8 #btc #crypto,0,0,0,False
626,Bitcoin Hourly@bitcoin_hourly,"Price Update: 1 #Bitcoin = $435.4200

#cryptocurrency source http://yhoo.it/1PH2nON (via @Flutter_HQ)",0,0,0,False
627,BitcoinBuzz vega9@BitcoinBuzzV9,http://bitcoinbuzz.vega9.com - Hot topics: #mmmglobal #bitcoin #cryptocurrency #mmmextra #crypto #btc,0,0,0,False
628,NEWSBTC@newsbtc,Bitcoin Price Technical Analysis for 29/02/2016 – Slow Crawl for Bulls #btc #crypto #USD http://newsbtc.com/2016/02/29/bitcoin-price-technical-analysis-for-29022016-slow-crawl/…,1,0,0,False
629,Crypto Yoyo@cryptoyoyo,Trade bitcoin futures http://bit.ly/1UtrScN #bitcoin #crypto #news,1,1,0,False
630,Julia Edling@bitcointonic,What is #Cryptocurrency and what is #Bitcoin and LEOcoin?: What is Cryptocurrency and what… http://dlvr.it/KdykgC,2,1,0,False
631,Crypto Yoyo@cryptoyoyo,Was MMM Really behind Last Year's Increased Bitcoin Demand among the Chinese? http://bit.ly/1oRV80Q #bitcoin #crypto #news,0,0,0,False
632,Crypto Yoyo@cryptoyoyo,"Kraken reports steep increase in number of new accounts, changes fees, expands offering http://bit.ly/1OH3zAN #bitcoin #crypto #news",0,0,0,False
633,Julia Vaingurt@julia_vaingurt,Instant #bank transfer and 12% more for #bitcoin sellers #crypto #cryptocurrency http://cur.lv/vyrnd,0,0,0,False
634,Coin Tiny@CoinTiny,Was MMM Really behind Last Year's Increased Bitcoin Demand among the Chinese? #CryptoCurrency #Crypto,0,0,0,False
635,Mark@UnNamedCoin,Bilderberg Group taking over Bitcoin | Rimbit Crypto Currency #rimbit #altcoins #bitcoin http://buff.ly/1RyNKk1,0,0,0,False
636,Bitcoin Hourly@bitcoin_hourly,"Price Update: 1 #Bitcoin = $436.9800

#cryptocurrency source http://yhoo.it/1PH2nON (via @Flutter_HQ)",0,0,0,False
638,XBTFreelancer.com@XBTFreelancer,#programming Simple auction website #bitcoin #workfromhome #crypto http://xbtfreelancer.com/prj/953/simple-auction-website… ฿0.343,0,0,0,False
642,BitcoinBuzz vega9@BitcoinBuzzV9,http://bitcoinbuzz.vega9.com - Hot topics: #mmmglobal #bitcoin #crypto #mmmextra #cryptocurrency #btc,0,0,0,False
643,Julia Vaingurt@julia_vaingurt,"Blythe masters: wall street has advantage over #blockchain #startups #bitcoin #crypto http://cur.lv/vyqvh
http://cur.lv/vyqvi",3,1,0,False
644,Crypto Yoyo@cryptoyoyo,Bitcoin Price Technical Analysis: BTCUSD D1 Chart Signals Warning http://bit.ly/1LpeqV2 #bitcoin #crypto #news,0,0,0,False
645,Democracy 2.0@democracy_two_0,United Democratic Commonwealth 2016 Plenum completed today. Bitcoin economy and liquidfeedback coming! #democracy2.0 #cryptocurrency,5,2,0,False
646,Julia Vaingurt@julia_vaingurt,"Bitcoins darkest code error - They know about it too! #rimbit #altcoins #bitcoin http://cur.lv/vyqh1
http://cur.lv/vyqh3",0,0,0,False
647,Denny McEnroe@McEnroeDenny,Re: Wall Observer BTC/USD - Bitcoin price movement tracking & discussion http://cur.lv/vyq7g #bitcoin #crypto,0,0,0,False
648,Denny McEnroe@McEnroeDenny,Re: [DC's Exchange Service] PM/WU/Neteller/Payeer/Payza/Paypal/Cash by mail <BUY SELL> @ http://cur.lv/vyq7e #bitcoin #crypto,0,0,0,False
649,Denny McEnroe@McEnroeDenny,Re: [FAUCET] 500 SATOSHIS/HOUR + 100% REFER COMM. http://cur.lv/vyq7c #bitcoin #crypto,0,0,0,False
650,Denny McEnroe@McEnroeDenny,Re: need HELP recovering ALT coins http://cur.lv/vyq7b #bitcoin #crypto,0,0,0,False
651,Julia Vaingurt@julia_vaingurt,"Litecoin price technical analysis for 01/26/2016 – perfect sell call #bitcoin #crypto http://cur.lv/vyq4r
http://cur.lv/vyq4v",0,0,0,False
652,Ivette Means@IvetteMeans,#US #Patent&Trademark Off published patent submission 4 1st #cryptocurrency #mining circuitry #bitcoin Here's filing http://appft.uspto.gov/netacgi/nph-Parser?Sect1=PTO2&Sect2=HITOFF&p=1&u=%2Fnetahtml%2FPTO%2Fsearch-bool.html&r=1&f=G&l=50&co1=AND&d=PG01&s1=20150294308.PGNR.&OS=DN/20150294308&RS=DN/20150294308?p=cite_Brian_Cohen_or_CoinTelegraph…,0,0,0,False
653,NE Patriots Dynasty@NEPatsDynasty,10 new Bank of America #Cryptocurrency Patents. The Future of #Money and Payment. JOIN FREE Click here http://buygold.ilgamos.com/buy?buy_type=1,1,0,0,False
655,OpenLedger@OpenLedgerDC,Why use #bitcoin ATM's when you have #crypto debitcard from #CCEDK? ByeBye cash - Hello #NanoCard @CCEDK_ https://cryptocoinsnews.com/bitcoin-atms-101-need-know-growing-business-opportunity/#comme…,1,0,0,False
656, Michael Q Todd CHO of BirdieChances.Golf@michaelqtodd,#Bitcoin in the Emerging Economy - @RandyHilarski - http://go.shr.lc/1OybZgW #NewMoney #CryptoCurrency,3,4,0,False
657,Eclipse@EclipseCrypto,Links to Qt's can be found in our bitcointalk thread! Get yours for the giveaway! https://bitcointalk.org/index.php?topic=1378922… #cryptocurrency #altcoin #bitcoin,2,0,0,False
658,Bitcoin Hourly@bitcoin_hourly,"Price Update: 1 #Bitcoin = $436.1100

#cryptocurrency source http://yhoo.it/1PH2nON (via @Flutter_HQ)",0,0,0,False
659,BitcoinBuzz vega9@BitcoinBuzzV9,http://bitcoinbuzz.vega9.com - Hot topics: #mmmglobal #bitcoin #mmmextra #crypto #btc #cryptocurrency,0,0,0,False
660,MicroCash News@MicroCashNews,"*NEW* MicroCash Forums, Stop By And EARN FREE MicroCash: https://forums.microcash.org/threads/how-to-get-microcash-initial-economic-seeding.27/… #cryptocurrency #free",3,0,0,False
661,Crypto Yoyo@cryptoyoyo,US Bankruptcy Court's ruling could help HashFast liquidator recover $1.3 million http://bit.ly/1LOQJQX #bitcoin #crypto #news,1,0,0,False
662,Crypto Yoyo@cryptoyoyo,Bitcoin Price Technical Analysis for 29/02/2016 – Slow Crawl for Bulls http://bit.ly/1pjBriE #bitcoin #crypto #news,1,0,0,False
663,Rimbit @rimbit,Bitcoins darkest code error - They know about it too! #rimbit #altcoins #bitcoin http://buff.ly/1QmtFym,1,0,0,False
665,Rimbit @rimbit,Bilderberg Group taking over Bitcoin | Rimbit Crypto Currency #rimbit #altcoins #bitcoin http://buff.ly/1RyNK3B,0,0,0,False
666,TechFlavor@techflavor,Great Blog on #crypto #cryptocurrency Click http://bit.ly/1UTgrc5,1,0,0,False
667,Julia Vaingurt@julia_vaingurt,"Hong kong lays financial ground#work for robust fintech ecosystem #bitcoin #crypto http://cur.lv/vyo6l
http://cur.lv/vyo6m",0,0,0,False
668,Fintech Prowler@FintechProwler,"Problems with withdrawals, support reported at Bitcoin/ altcoin exchange Yobit - SiliconANGLE (blog) http://ift.tt/1n9Wl1O #altcoin",0,0,0,False
669,Tech BitCoin@tech_bitcoin,"""Ethereum Price Technical Analysis – Major Break Looming"" http://ift.tt/21Cyl7a #bitcoin #crypto http://ift.tt/1TgOZbi",0,0,0,False
670,BitcoinAgile@bitcoinagile,Eclipse Twitter Promotion $EC #cryptocurrency #bitcoin http://bit.ly/1pjyTkz,1,0,0,False
671,Eclipse@EclipseCrypto,Earn 15 $EC by following and completing the form to submit your address for bounty payment! http://goo.gl/forms/ga2gcFsUsO… #cryptocurrency #bitcoin,4,16,1,False
672,sea austin@edgy4sst2010,1000000000000000000.000000000000000000 #Zerohedge #crypto-currency http://zerohedge.com/news/2016-02-24/exposing-hidden-agenda-davos-2016…,0,0,0,False
673,NameBrandAmbassador@TopAmbassador,"@quantifiedcode FREE BITCOINS EVERY 24 HOURS! 
No joke & absolutely FREE; http://goo.gl/FSJFQt
#free #money #paid #bitcoin #altcoin",0,0,0,False
674,Denny McEnroe@McEnroeDenny,"Re: [25 PH] ** 5x AVALON6 GIVEAWAY ** Kano CKPool (kano.is) [0.9% PPLNS] US,DE,SG,JP http://cur.lv/vymym #bitcoin #crypto",0,0,0,False
675,Denny McEnroe@McEnroeDenny,Re: Part II: Here we go again! What color is the ... http://cur.lv/vymyl #bitcoin #crypto,0,0,0,False
676,Denny McEnroe@McEnroeDenny,"Re: [25 PH] ** 5x AVALON6 GIVEAWAY ** Kano CKPool (kano.is) [0.9% PPLNS] US,DE,SG,JP http://cur.lv/vymyi #bitcoin #crypto",0,0,0,False
677,Denny McEnroe@McEnroeDenny,Re: DASH scam exposed at the Satoshi Roundtable retreat! http://cur.lv/vymyh #bitcoin #crypto,0,0,0,False
678,Tech BitCoin@tech_bitcoin,"""Bitcoin Price Technical Analysis for 29/02/2016 – Slow Crawl for Bulls"" http://ift.tt/1QmqsyY #bitcoin #cryptoBitcoin Price Analysis for 29/02/2016 - Slow Crawl for BullsBitcoin price is gradually trading higher inside an ascending channel and might be due to test the resistance near $445.newsbtc.com",0,0,0,False
679,CryptoRSS@CryptoRSS,Bitcoin Price Fundamentals: Bitcoin price is pushing toward its three-month resistance ceiling. Techni... http://bit.ly/21CvXxg #crypto,0,0,0,False
680,Bitcoin Hourly@bitcoin_hourly,"Price Update: 1 #Bitcoin = $436.5600

#cryptocurrency source http://yhoo.it/1PH2nON (via @Flutter_HQ)",0,0,0,False
681,XBTFreelancer.com@XBTFreelancer,#programming #crypto #cryptocurrency #bitcoin http://xbtfreelancer.com/prj/953/simple-auction-website… Simple auction website #earn #income,0,0,0,False
682,BitcoinBuzz vega9@BitcoinBuzzV9,http://bitcoinbuzz.vega9.com - Hot topics: #bitcoin #mmmextra #crypto #btc #cryptocurrency #dogecoin,0,0,0,False
