,user,text,likes,retweets,replies,is_thread
0,Sean Lyngaas@snlyngaas,"McCain calls on tech firms 2 play ball on #crypto: https://fcw.com/articles/2016/02/05/mccain-encryption-dark.aspx…, @peterwsinger reacts, & @jus10j discusses broader SV outreach",2,4,0,False
1,Crypto Price Ticker@TickerCrypto,"#TrinityCoin #TTY $ 0.000012 (-0.76 %) 0.00000003 BTC (-0.00 %) via #TrinityCoinBot
#Bitcoin #BTC #AltCoin #BlockCh…",0,0,0,False
2,Crypto Price Ticker@TickerCrypto,"#SativaCoin #STV $ 0.001175 (32.88 %) 0.00000304 BTC (33.92 %) via #SativaCoinBot
#Bitcoin #BTC #AltCoin #BlockChai…",0,0,0,False
3,Julia Vaingurt@julia_vaingurt,"German socialist democrats’ proposed war on #cash will not affect #bitcoin #crypto http://cur.lv/v2nzw
http://cur.lv/v2nzx",1,0,0,False
4,Crypto Price Ticker@TickerCrypto,"#PopularCoin #POP $ 0.000004 (-0.59 %) 0.00000001 BTC (0.17 %) via #PopularCoinBot
#Bitcoin #BTC #AltCoin #BlockCha…",0,0,0,False
5,Crypto Price Ticker@TickerCrypto,"#MonetaVerde #MCN $ 0.000186 (19.08 %) 0.00000048 BTC (20.00 %) via #MonetaVerdeMCN
#Bitcoin #BTC #AltCoin #BlockCh…",0,0,0,False
6,Crypto Price Ticker@TickerCrypto,"#CanadaeCoin #CDN $ 0.000457 (-9.50 %) 0.00000118 BTC (-8.79 %) via #CanadaeCoinCDN
#Bitcoin #BTC #AltCoin #BlockCh…",0,0,0,False
7,Crypto Price Ticker@TickerCrypto,"#SexCoin #SXC $ 0.000464 (0.26 %) 0.00000120 BTC (0.98 %) via #SexCoinSXC
#Bitcoin #BTC #AltCoin #BlockChain #BOT",1,0,0,False
8,Crypto Price Ticker@TickerCrypto,"#Ripple #XRP $ 0.007265 (4.16 %) 0.00001878 BTC (4.91 %) via #RippleXRPbot
#Bitcoin #BTC #AltCoin #BlockChain #BOT",1,0,0,False
9,Crypto Price Ticker@TickerCrypto,"#EuroCoin #EUC $ 0.000093 (32.40 %) 0.00000024 BTC (33.36 %) via Twitter #EuroCoinBot
#Bitcoin #BTC #AltCoin #Block…",1,0,0,False
10,Crypto Price Ticker@TickerCrypto,"#MaryJane #MARYJ $ 0.002239 (6.42 %) 0.00000579 BTC (7.20 %) via #MaryJaneCoinBot
#Bitcoin #BTC #AltCoin #BlockChai…",0,0,0,False
11,Crypto Price Ticker@TickerCrypto,"#CannaCoin #CCN $ 0.015467 (-19.15 %) 0.00003999 BTC (-18.57 %) via #CannaCoinCCN
#Bitcoin #BTC #AltCoin #BlockChai…",0,0,0,False
12,Crypto Price Ticker@TickerCrypto,"#Triangles #TRI $ 0.206516 (-19.31 %) 0.00053395 BTC (-18.73 %) via #TrianglesTRI
#Bitcoin #BTC #AltCoin #BlockChai…",0,0,0,False
13,Julia Vaingurt@julia_vaingurt,"The checks and balances of #bitcoin governance #crypto #cryptocurrency http://cur.lv/v2ndg
http://cur.lv/v2ndh",0,0,0,False
14,Organic Social@OrganicSocial,Why Bitcoin Is More Risky Than You Think  http://bit.ly/1Licw1H #Bitcoin #cryptocurrency #money #os,0,0,0,False
15,Julia Vaingurt@julia_vaingurt,"Alaskan &#039;Judge&#039; Wants Pope Francis to Endorse the Blockchain http://cur.lv/v2n6i
#bitcoin #bitcoinnews #btc #cryptocurrency",0,0,0,False
16,Team 300FPS ︻╦̵̵̿╤─@300FPSGAMING,Alaskan &#039;Judge&#039; Wants Pope Francis to Endorse the Blockchain http://btcf.co/1Q09Vm1 #bitcoin #bitcoinnews #btc #cryptocurrency,1,0,0,False
17,Uphold@UpholdInc,#VirtualReality and #Cryptocurrency: @Voxelus and #Uphold Digital currency and Virtual reality – the perfect synergy http://bit.ly/1nJDewJ,1,3,0,False
18,DatLulz@DatLulz,"Yes, #eth is nothing but whales manipulation on fake volume and fake walls just like the old #bittrex game. #altcoin #scam #fake #bitcoin",0,0,0,False
19,Alejandro Sewrjugin@alesew23,#Bitcoin Alaskan 'Judge' Wants Pope Francis to Endorse the Blockchain http://bit.ly/1VWCNty #Tech #Crypto,1,0,0,False
20,All Things Decentral@btcswag,Did you know you can look at all the different #bitcoin #nodes here? https://coin.dance/nodes #crypto #blockchain #decentralize @coindesk,0,0,0,False
21,Bitcoin@bitcoinpoet,"AutoPartsWay Starts Accepting Bitcoin Payments: AutoPartsWay, one of the most popular online a... http://btcs.me/1Ppv17J #cryptocurrency",1,0,0,False
22,Fintech Prowler@FintechProwler,AutoPartsWay Starts Accepting Bitcoin Payments - The Merkle (blog) http://ift.tt/20MA3lU #altcoin,0,0,0,False
23,Crypto Price Ticker@TickerCrypto,"#WorldCoin #WDC $ 0.009363 (10.04 %) 0.00002421 BTC (10.84 %) via #WorldCoinBot
#Bitcoin #BTC #AltCoin #BlockChain …",0,0,0,False
24,Crypto Price Ticker@TickerCrypto,"#CannabisCoin #CANN $ 0.001939 (-6.36 %) 0.00000501 BTC (-5.67 %) via #CannabisCoinBot
#Bitcoin #BTC #AltCoin #Bloc…",0,0,0,False
25,Cryptolized™@Cryptolized,"Daily Bitcoin Price Analysis: Bitcoin Sideways Trend Continues http://twib.in/l/bAjoynpA8kd #cryptocurrency | https://twibble.ioDaily Bitcoin Price Analysis: Bitcoin Sideways Trend ContinuesAt the time of publication of the Fed's decision, the position of the US Dollar could increase, which will apply some pressure to Bitcoin.cointelegraph.com",0,0,0,False
26,Crypto Price Ticker@TickerCrypto,"#MonaCoin #MONA $ 0.059804 (-0.96 %) 0.00015464 BTC (-0.28 %) via #MonaCoinBot
#Bitcoin #BTC #AltCoin #BlockChain #…",0,0,0,False
27,Team 300FPS ︻╦̵̵̿╤─@300FPSGAMING,Russian Presidential Adviser Says Using Bitcoin is a Crime in Russia http://btcf.co/1Q07kIS #bitcoin #bitcoinnews #btc #cryptocurrency,1,0,0,False
28,Crypto Price Ticker@TickerCrypto,"#Monero #XMR $ 0.493132 (-2.91 %) 0.00127515 BTC (-2.23 %) via #MoneroXMRbot
#Bitcoin #BTC #AltCoin #BlockChain #BOT",0,0,0,False
29,Crypto Price Ticker@TickerCrypto,"#MarsCoin #MARS #MRS $ 0.000538 (2.25 %) 0.00000139 BTC (2.96 %) via #MarsCoinBot
#Bitcoin #BTC #AltCoin #BlockChai…",0,0,0,False
30,Crypto Price Ticker@TickerCrypto,"#TrollCoin #TROLL $ 0.000044 (2.41 %) 0.00000011 BTC (3.13 %) via #TrollCoinPrice
#Bitcoin #BTC #AltCoin #BlockChai…",0,0,0,False
31,Crypto Price Ticker@TickerCrypto,"#UFOCoin #UFO $ 0.000008 (-22.44 %) 0.00000002 BTC (-21.88 %) via #UFOCoinBot
#Bitcoin #BTC #AltCoin #BlockChain #B…",0,0,0,False
32,Crypto Price Ticker@TickerCrypto,"$ 0.012374 (-68.21 %) 0.00003200 BTC (-67.99 %) #WHIPPED #FETISH #BDSM via #BDSMFetishCoin
#Bitcoin #BTC #AltCoin #…",0,0,0,False
33,Julia Vaingurt@julia_vaingurt,"#Dotcoin #DOT $ 0.000046 (-10.95 %) 0.00000012 BTC (-10.32 %) via #DotCoinBot
#Bitcoin #BTC #AltCoin #BlockChain #B… http://cur.lv/v2lvw",0,0,0,False
34,Crypto Price Ticker@TickerCrypto,"#Dotcoin #DOT $ 0.000046 (-10.95 %) 0.00000012 BTC (-10.32 %) via #DotCoinBot
#Bitcoin #BTC #AltCoin #BlockChain #B…",0,0,0,False
35,Crypto Price Ticker@TickerCrypto,"#Unobtanium #UNO $ 1.21 (-2.99 %) 0.00312906 BTC (-2.33 %) via Twitter #UnobtaniumBot
#Bitcoin #BTC #AltCoin #Block…",0,0,0,False
36,Crypto Price Ticker@TickerCrypto,"#PopularCoin #POP $ 0.000004 (-0.42 %) 0.00000001 BTC (0.25 %) via #PopularCoinBot
#Bitcoin #BTC #AltCoin #BlockCha…",0,0,0,False
37,Crypto Price Ticker@TickerCrypto,"#MonetaVerde #MCN $ 0.000186 (19.20 %) 0.00000048 BTC (20.00 %) via #MonetaVerdeMCN
#Bitcoin #BTC #AltCoin #BlockCh…",0,0,0,False
38,Crypto Price Ticker@TickerCrypto,"#CanadaeCoin #CDN $ 0.000457 (-15.29 %) 0.00000118 BTC (-14.72 %) via #CanadaeCoinCDN
#Bitcoin #BTC #AltCoin #Block…",0,0,0,False
39,Denny McEnroe@McEnroeDenny,Re: Signature spammer admit it !! http://cur.lv/v2lol #bitcoin #crypto,0,0,0,False
40,Denny McEnroe@McEnroeDenny,Re: Why do you have Bitcoin? http://cur.lv/v2lok #bitcoin #crypto,0,0,0,False
41,Denny McEnroe@McEnroeDenny,Re: Urgent-ish: NEED SKRILL! http://cur.lv/v2loi #bitcoin #crypto,0,0,0,False
42,Denny McEnroe@McEnroeDenny,Re: Wall Observer BTC/USD - Bitcoin price movement tracking & discussion http://cur.lv/v2log #bitcoin #crypto,0,0,0,False
43,Null TX@nulltxnews,Russian Presidential Adviser Says Using Bitcoin is a Crime in Russia http://goo.gl/zbkx3S #bitcoin #bitcoinnews #btc #cryptocurrency,1,5,0,False
44,eUnisol@eUnisol,"@FollowRocket_NY What Digital Currencies are you invested in?
http://goo.gl/FSJFQt #altcoin #crypto #bitcoin via http://uapp.ly",0,0,0,False
45,Ross Morley@RossMorley,"Update: #Magic #ransomware creator fumbled it badly https://lnkd.in/egQAsgH #malware #virus #encryption #hack #security #intruder #cryptoA security researcher created a dangerous virus as an experiment — and then chaos broke loose“[The hacker's] plan was damaging my career and reputation. Unfortunately, I couldn't risk my career and accepted their demand.”businessinsider.com",8,0,0,False
46,TerrorTrack@TerrorsTrack,"Twitter KILLS 125,000 #Terrorist #SocialMedia Accounts►http://a.msn.com/00/en-us/BBpbaf1?ocid=st… #Security #FBI #Terrorism #NationalSecurity #Crypto #Law #NSA",0,0,0,False
47,Crypto Price Ticker@TickerCrypto,"#GeoCoin #GEO $ 0.018274 (-1.15 %) 0.00004731 BTC (-0.49 %) via #GeoCoinBot
#Bitcoin #BTC #AltCoin #BlockChain #BOT",1,0,0,False
48,Coinfeed@CoinfeedIO,#Bitcoin #Price Hedge Pledge - CCN: Financial #Bitcoin & #Cryptocurrency News http://tinyurl.com/okwegla,0,0,0,False
49,Crypto Yoyo@cryptoyoyo,Rudimental Media to launch Ethereum Based Equity Crowdfunding Site http://bit.ly/1nN0Xvm #bitcoin #crypto #news,4,2,0,False
50,Crypto Yoyo@cryptoyoyo,MIT Enterprise Forum Of NYC To Hold Blockchain Event On February 09 http://bit.ly/1nN0Wrs #bitcoin #crypto #news,0,0,0,False
51,Crypto Yoyo@cryptoyoyo,WTF Is The Blockchain? Part II: How to send cryptocurrency and keep it safe http://bit.ly/1K3p6Zb #bitcoin #crypto #news,0,0,0,False
52,BitcoinAgile@bitcoinagile,Bitcoin Classic Beta Now Released For Testing #blockchain #BitcoinClassic #fintech #crypto https://btcmanager.com/news/tech/bitcoin-classic-beta-now-released-for-testing…,1,0,0,False
53,Crypto Price Ticker@TickerCrypto,"#HamRadioCoin #HAM $ 0.001499 (7.00 %) 0.00000388 BTC (7.73 %) via #HAMRadioCoinBot
#Bitcoin #BTC #AltCoin #BlockCh…",1,0,0,False
54,Crypto Price Ticker@TickerCrypto,"#Ripple #XRP $ 0.007250 (3.93 %) 0.00001877 BTC (4.61 %) via #RippleXRPbot
#Bitcoin #BTC #AltCoin #BlockChain #BOT",1,0,0,False
55,Crypto Price Ticker@TickerCrypto,"#8BitCoin #8BIT $ 0.000004 (-0.33 %) 0.00000001 BTC (0.34 %) via #8BitCoinBot
#Bitcoin #BTC #AltCoin #BlockChain #B…",0,0,0,False
56,Crypto Price Ticker@TickerCrypto,"#EuroCoin #EUC $ 0.000093 (32.54 %) 0.00000024 BTC (33.43 %) via Twitter #EuroCoinBot
#Bitcoin #BTC #AltCoin #Block…",0,0,0,False
57,Crypto Price Ticker@TickerCrypto,"#SexCoin #SXC $ 0.000471 (2.84 %) 0.00000122 BTC (3.54 %) via #SexCoinSXC
#Bitcoin #BTC #AltCoin #BlockChain #BOT",0,0,0,False
58,Crypto Price Ticker@TickerCrypto,"#CannaCoin #CCN $ 0.015446 (-19.12 %) 0.00003999 BTC (-18.57 %) via #CannaCoinCCN
#Bitcoin #BTC #AltCoin #BlockChai…",0,0,0,False
59,Crypto Price Ticker@TickerCrypto,"#Triangles #TRI $ 0.206229 (-19.27 %) 0.00053395 BTC (-18.73 %) via #TrianglesTRI
#Bitcoin #BTC #AltCoin #BlockChai…",0,0,0,False
60,Crypto Price Ticker@TickerCrypto,"#MaryJane #MARYJ $ 0.002236 (6.47 %) 0.00000579 BTC (7.18 %) via #MaryJaneCoinBot
#Bitcoin #BTC #AltCoin #BlockChai…",2,0,0,False
61,THiNKTaNK@B2Spirit_TT,"Twitter KILLS 125,000 #Terrorist #SocialMedia Accounts►http://a.msn.com/00/en-us/BBpbaf1?ocid=st… #Security #FBI #Terrorism #NationalSecurity #Crypto #Law #NSA",2,2,1,False
62,Crypto Price Ticker@TickerCrypto,"#CannabisCoin #CANN $ 0.001878 (-9.08 %) 0.00000487 BTC (-8.39 %) via #CannabisCoinBot
#Bitcoin #BTC #AltCoin #Bloc…",0,0,0,False
63,Crypto Price Ticker@TickerCrypto,"#NetCoin #NET $ 0.000281 (29.59 %) 0.00000073 BTC (30.58 %) via #NetCoinBot
#Bitcoin #BTC #AltCoin #BlockChain #BOT",0,0,0,False
64,Crypto Price Ticker@TickerCrypto,"#TrollCoin #TROLL $ 0.000041 (-3.87 %) 0.00000011 BTC (-3.23 %) via #TrollCoinPrice
#Bitcoin #BTC #AltCoin #BlockCh…",0,0,0,False
65,Maksym Byňkovskyj@TheMuksym,#scam #altcoin is #startcoin with 27 million premined while giving out 10/20 to hype #CROOK of #crypto #bitcoin #btc #litecoin goo.g,0,0,0,False
66,Crypto Price Ticker@TickerCrypto,"#Monero #XMR $ 0.493310 (-3.05 %) 0.00127741 BTC (-2.40 %) via #MoneroXMRbot
#Bitcoin #BTC #AltCoin #BlockChain #BOT",1,0,0,False
67,BlockChannel@BlockChannel,BCN News: themerklenews: AutoPartsWay Starts Accepting Bitcoin Payments http://goo.gl/IsTPp2 #bitcoin #bitcoinnews #btc #cryptocurrency,0,0,0,False
68,Crypto Price Ticker@TickerCrypto,"#MarsCoin #MARS #MRS $ 0.000537 (2.29 %) 0.00000139 BTC (2.96 %) via #MarsCoinBot
#Bitcoin #BTC #AltCoin #BlockChai…",1,0,0,False
69,Fintech Prowler@FintechProwler,Chilean Bitcoin Exchange SurBTC Raises $300000 in Seed Funding - The Merkle (blog) http://ift.tt/1Rb3Dii #altcoin,1,0,0,False
70,Team 300FPS ︻╦̵̵̿╤─@300FPSGAMING,"Putin’s Counselor: Accepting Bitcoin Payments Unacceptable, a Crime http://btcf.co/1odxifm #bitcoin #bitcoinnews #btc #cryptocurrency",1,0,0,False
71,Bitcoin Hourly@bitcoin_hourly,"Price Update: 1 #Bitcoin = $384.7600

#cryptocurrency source http://yhoo.it/1PH2nON (via @Flutter_HQ)",0,0,0,False
72,Team 300FPS ︻╦̵̵̿╤─@300FPSGAMING,AutoPartsWay Starts Accepting Bitcoin Payments http://btcf.co/1PYhIKX #bitcoin #bitcoinnews #btc #cryptocurrency,1,0,0,False
73,Null TX@nulltxnews,AutoPartsWay Starts Accepting Bitcoin Payments http://goo.gl/IsTPp2 #bitcoin #bitcoinnews #btc #cryptocurrency,1,1,0,False
74,Seduced@NippleRubber,StealthCoin is #1 Cryptocurrency https://twitter.com/StealthCoin #altcoins #sexy #girl #woman #iphone #ipad http://pbs.twimg.com/media/CGMi4_UUUAAXn0W.png…,0,0,0,False
75,Julia Vaingurt@julia_vaingurt,"How To Convert a Visa Gift Card to Bitcoin http://cur.lv/v2j11
#bitcoin #bitcoinnews #cryptocurrency #btc #xbt http://cur.lv/v2j12",0,0,0,False
76,Team 300FPS ︻╦̵̵̿╤─@300FPSGAMING,How To Convert a Visa Gift Card to Bitcoin http://goo.gl/pRxKCU #bitcoin #bitcoinnews #cryptocurrency #btc #xbt,2,0,0,False
77,Coin Tiny@CoinTiny,Simple HTML5 Cryptocoin Ticker #CryptoCurrency #Crypto,0,0,0,False
78,Crypto Price Ticker@TickerCrypto,"#PopularCoin #POP $ 0.000004 (-0.53 %) 0.00000001 BTC (0.17 %) via #PopularCoinBot
#Bitcoin #BTC #AltCoin #BlockCha…",0,0,0,False
79,Crypto Price Ticker@TickerCrypto,"#CanadaeCoin #CDN $ 0.000456 (-15.51 %) 0.00000118 BTC (-14.88 %) via #CanadaeCoinCDN
#Bitcoin #BTC #AltCoin #Block…",0,0,0,False
80,Bitcoin News@BTCNewsletter,"Europecoin on Twitter: ""#GOV #transformation through #blockchain may happen earlyer then a #centralbanks #altcoin... http://btc.posthaven.com/europecoin-on-twitter-number-gov-number-transformation-through-number-blockchain-may-happen-earlyer-then-a-number-centralbanks-number-altcoin-and-number-bitcoin-number-crypto-calypse-https-slash-slash…",2,1,0,False
81,Crypto Price Ticker@TickerCrypto,"#MonetaVerde #MCN $ 0.000185 (19.16 %) 0.00000048 BTC (20.00 %) via #MonetaVerdeMCN
#Bitcoin #BTC #AltCoin #BlockCh…",1,0,0,False
82,Seduced@NippleRubber,"Yes, #eth is nothing but whales manipulation on fake volume and fake walls just like the old #bittrex game. #altcoin #scam #fake #bitcoin",0,0,0,False
83,dinbits@2dinbits,"ZCash Outlines Specifics on Incentives and Other Details 
http://news.dinbits.com/2016/02/zcash-outlines-specifics-on-incentives.html…
#bitcoin #cryptocurrency #zcash",0,0,0,False
84,Sean Lyngaas@snlyngaas,McCain exhorts Silicon Valley to play ball on 'going dark' issue -- FCW https://fcw.com/articles/2016/02/05/mccain-encryption-dark.aspx… via @FCWnow #crypto,0,0,0,False
85,Going Crypto@GoingCrypto,"#Bitcoin #Cryptocurrency http://goingcrypto.co.uk/recyclyourbitcoin/…
We've Been Given Free Money To Help BUILD our TEAM CHECK THIS OUT!",1,1,0,False
86,Liberation Technology@Liberationtech,The @FBI is deadly serious about #crypto #backdoors http://blog.erratasec.com/2016/02/they-are-deadly-serious-about-crypto.html#.VrO3pPkrJhE…,3,4,0,False
87,Crypto Price Ticker@TickerCrypto,"#Triangles #TRI $ 0.206279 (-19.18 %) 0.00053395 BTC (-18.72 %) via #TrianglesTRI
#Bitcoin #BTC #AltCoin #BlockChai…",0,0,0,False
88,Julia Edling@bitcointonic,"The #Bitcoin Group #85 – #Altcoins are Back? – Classic, Core, Unlimited and #Ethereum:… http://dlvr.it/KQnFD9",1,0,0,False
89,Crypto Price Ticker@TickerCrypto,"#HamRadioCoin #HAM $ 0.001499 (4.61 %) 0.00000388 BTC (5.21 %) via #HAMRadioCoinBot
#Bitcoin #BTC #AltCoin #BlockCh…",0,0,0,False
90,Crypto Price Ticker@TickerCrypto,"#AudioCoin #ADC $ 0.000158 (1.77 %) 0.00000041 BTC (2.25 %) via #AudioCoinBot
#Bitcoin #BTC #AltCoin #BlockChain #B…",0,0,0,False
91,Damien S Dessinateur@DamienSDessins,@LesBodins aller sur le plateaux @TF1 @vtep_ #VTEP #enDirect #Défi #TF1 @Arthur_Officiel,1,1,0,False
92,Crypto Price Ticker@TickerCrypto,"#SexCoin #SXC $ 0.000471 (5.84 %) 0.00000122 BTC (6.43 %) via #SexCoinSXC
#Bitcoin #BTC #AltCoin #BlockChain #BOT",0,0,0,False
93,Crypto Price Ticker@TickerCrypto,"#EuroCoin #EUC $ 0.000093 (32.38 %) 0.00000024 BTC (33.13 %) via Twitter #EuroCoinBot
#Bitcoin #BTC #AltCoin #Block…",0,0,0,False
94,First-World Security@1stWorldSecure,"Update: #Magic #ransomware creator fumbled it badly https://lnkd.in/egQAsgH #malware #virus #encryption #hack #security #intruder #cryptoA security researcher created a dangerous virus as an experiment — and then chaos broke loose“[The hacker's] plan was damaging my career and reputation. Unfortunately, I couldn't risk my career and accepted their demand.”businessinsider.com",6,0,0,False
95,Maria SB@MariaSB88628153,"Yes, #eth is nothing but whales manipulation on fake volume and fake walls just like the old #bittrex game. #altcoin #scam #fake #bitcoin",0,0,0,False
96,Coin Tiny@CoinTiny,South Korea’s Korbit Introduces ‘Aggregator for Cross-Border Payouts’ #CryptoCurrency #Crypto,0,0,0,False
97,Dima Nosov@Fermani16,"Yes, #eth is nothing but whales manipulation on fake volume and fake walls just like the old #bittrex game. #altcoin #scam #fake #bitcoin",0,0,0,False
98,BitScan@bitscanner,Wyoming Lawmakers Propose Equality For #Cryptocurrency Transmitters http://ow.ly/XYijg #money,1,0,0,False
99,Crypto Price Ticker@TickerCrypto,"#NetCoin #NET $ 0.000206 (-3.98 %) 0.00000053 BTC (-3.74 %) via #NetCoinBot
#Bitcoin #BTC #AltCoin #BlockChain #BOT",0,0,0,False
100,CCN - Capital & Celeb News@CapitalAndCeleb,Japanese Banking Giant Reveals Plans for a Digital Currency https://cryptocoinsnews.com/japanese-banking-giant-reveals-plans-for-a-digital-currency/… #cryptocurrency,3,7,0,False
101,David Liam@crazydaveorama,DarkWallet Returns #bitcoin #cryptocurrency #darkweb #darkmarket #DarkNet https://deepdotweb.com/2016/02/05/darkwallet-returns/…,0,0,0,False
102,Steffen Christensen@Wikisteff,"#NSA updates its enigmatic comments about #QuantumComputers and cryptography. #crypto #infosecQuote TweetVivek Wadhwa@wadhwa · Feb 5, 2016NSA Says It “Must Act Now” Against the Quantum Computing Threat https://technologyreview.com/s/600715/nsa-says-it-must-act-now-against-the-quantum-computing-threat/#.VrUP4lV9J0g.twitter… by @tsimonite",0,0,0,False
103,CryptoRSS@CryptoRSS,"Threatpost News Wrap, February 5, 2016: Mike Mimoso and Chris Brook discuss the news of the week inclu... http://bit.ly/1SQubFq #crypto",0,0,0,False
104,Popi Nodi@PopiNodi,"Yes, #eth is nothing but whales manipulation on fake volume and fake walls just like the old #bittrex game. #altcoin #scam #fake #bitcoin",0,0,0,False
105,Lisk@LiskHQ,"Introducing our multi-lingual UI for Lisk.

Take a look at: 

https://blog.lisk.io/introducing-our-multi-lingual-ui-d8f515e95f19…
#blockchain #cryptocurrency",4,6,1,False
106,Team 300FPS ︻╦̵̵̿╤─@300FPSGAMING,Mobile Bitcoin Geocaching Game Takara Releases iOS Update http://btcf.co/1K3gLow #bitcoin #bitcoinnews #btc #cryptocurrency,0,0,0,False
107,Crypto Price Ticker@TickerCrypto,"#TrollCoin #TROLL $ 0.000045 (5.04 %) 0.00000012 BTC (5.22 %) via #TrollCoinPrice
#Bitcoin #BTC #AltCoin #BlockChai…",1,0,0,False
108,OpenFXMarket@OpenFXMarket,#bitcoin market index: 102.46 #OFXBTC. #altcoin market index (avg): 138.15 #OFXAVG by http://openfxmarket.com. Stay tuned!,0,0,0,False
109,AurianeLouise@panapassion,Replying to @panapassion#VTEP #cestquedubonheur #defi On vous attend @GeraldineNakach @Nanty_Isabelle,0,0,0,False
110,AurianeLouise@panapassion,Replying to @panapassion#VTEP #cestquedubonheur #defi On vous attend @ceruttiofficiel @cauetofficiel @CamilleCombal @KeenvOfficiel @Nagui,0,0,0,False
111,The Crypto World@TheCryptoWorld,Check our articles about #Altcoin ! #Bitcoin #BTC #CryptoCurrencyCategory: Altcointhecryptoworld.org,1,0,0,False
112,Lisk@LiskHQ,"Attend our first Lisk community get-together on 7th February!

All infos on:

https://blog.lisk.io/first-lisk-community-get-together-on-7th-february-3ef19b5748b5…
#bitcoin #blockchain #cryptocurrency",2,1,0,False
114,AurianeLouise@panapassion,Replying to @panapassion#VTEP #cestquedubonheur #defi On vous attend @MenardMalika @MarineLorphelin @MichaelYoun @WalyDIA @cvigneaux,1,0,0,False
115,Louisa Johnson Bra@louisajhnbr,"Yes, #eth is nothing but whales manipulation on fake volume and fake walls just like the old #bittrex game. #altcoin #scam #fake #bitcoin",0,0,0,False
116,Bitcoin Hourly@bitcoin_hourly,"Price Update: 1 #Bitcoin = $385.2100

#cryptocurrency source http://yhoo.it/1PH2nON (via @Flutter_HQ)",0,0,0,False
117,LocalDayz@localdayz,#auroracoin Download wallet https://github.com/aurarad/auroracoin… and Join the pool on http://pool.laintimes.com #cryptocurrencyaurarad/AuroracoinCurrent Auroracoin source tree. Contribute to aurarad/Auroracoin development by creating an account on GitHub.github.com,0,0,0,False
118,AurianeLouise@panapassion,Replying to @panapassion#VTEP #CEKEDUBONHEUR #defi On vous attend @JustJaciJax @kavanaghanthony @kyank @KevinRazy @LeChrisMarques,0,0,0,False
119,AurianeLouise@panapassion,Replying to @panapassion#VTEP #cestquedubonheur #defi On vous attend @GregoireLyonnet @Cyrilhanouna @JohnnySjh @DebbouzeJamel @JeanLucLemoine,0,0,0,False
120,Coin Tiny@CoinTiny,Betcoin is a Pioneer in Bitcoin Gaming #CryptoCurrency #Crypto,0,0,0,False
121,Coinfeed@CoinfeedIO,"UniPAY Offers #Cryptocurrency Payment Solution In Georgia, Partnering Wi... http://tinyurl.com/pm3qglo",0,0,0,False
122,AurianeLouise@panapassion,Replying to @panapassion#VTEP #cestquedubonheur #defi On vous attend @JeremyFerrari @KarineFerri @florenceforesti @FABIENNE_CARAT @JMGenereux,3,0,0,False
123,AurianeLouise@panapassion,Replying to @panapassion#VTEP #cestquedubonheur #defi On vous attend @DebbouzeJamel @JeanDujardinOff @patrickfiorioff @FauveHautot,1,0,0,False
124,AurianeLouise@panapassion,Replying to @panapassion#VTEP #cestquedubonheur #defi On vous attend @shymofficiel @SilviaNofficiel @Stromae @maximedereymez @dubosc_franck,0,0,0,False
125,Null TX@nulltxnews,Mobile Bitcoin Geocaching Game Takara Releases iOS Update http://goo.gl/omYJif #bitcoin #bitcoinnews #btc #cryptocurrency,0,0,0,False
126,Megabyte@megabyte101,Bitcoin Price Scales Beyond $390 in February - CryptoCoinsNews - http://bit.ly/1SQespW | #Bitcoin News #cryptocurrency,1,1,0,False
127,AurianeLouise@panapassion,Replying to @panapassion#VTEP #cestquedubonheur #defi On vous attend @katrinapatchett @MPokora @CandicePascal @patrickfiorioff @SandQuetierOff,0,0,0,False
128,AurianeLouise@panapassion,Replying to @panapassion#defi #cestquedubonheur #VTEP On vous attend @LaurentOurnac @ObispoPascal @ODB_Officiel @LoriePester @MCPietragalla,0,0,0,False
129,AurianeLouise@panapassion,Replying to @panapassion#VTEP #cestquedubonheur #defi On vous attend @SylvieTellier @Titoff_ @ClaudiaTagbo @DenitsaOff @Ibra_official,0,0,0,False
130,AurianeLouise@panapassion,Replying to @panapassion#VTEP #cestquedubonheur #defi On vous attend @emmacakecup @SemounElie @EmoireOff @BensettiRayane @NormanDesVideos,0,0,0,False
131,AurianeLouise@panapassion,Replying to @panapassion#defi #cestquedubonheur #VTEP On vous attend @kevadamsss @VictorArtus @eric_antoine @amel_bent @juliezenattioff,0,0,0,False
132,AurianeLouise@panapassion,Replying to @panapassion#VTEP #cestquedubonheur #defi on vous attend @Alex_Rosenfeld @mellealizee @AudreyLamy @Alexandra_Lamy @kavanaghanthony,1,0,0,False
133,AurianeLouise@panapassion,#VTEP #cestquedubonheur #defi On vous attend! ;-) @PriscillaBetti @DALS_TF1 @Alex_Rosenfeld @YannAlrick @tsamere @,14,0,0,False
134,Crypto Price Ticker@TickerCrypto,"#AudioCoin #ADC 0.00000041 BTC via #AudioCoinBot
#Bitcoin #BTC #AltCoin #BlockChain #BOT",0,0,0,False
135,Team 300FPS ︻╦̵̵̿╤─@300FPSGAMING,Cryptsy served us a Cease and Desist when we tried warning users of http://btcf.co/1PY7Q3E #bitcoin #bitcoinnews #btc #cryptocurrency,0,0,0,False
136,Zack@cerebralbosons,"CryptoBeats w/ @buchmanster
#crypto #PoetryFriday #bitcoin #blockchain #hashing #merkle",4,1,0,False
138,pieter peter@PeterA243914,"Yes, #eth is nothing but whales manipulation on fake volume and fake walls just like the old #bittrex game. #altcoin #scam #fake #bitcoin",0,0,0,False
139,Julia Edling@bitcointonic,#Everyone #needs to #diversify into #crypto and #Bitcoin NOW!! | Ryan #Conley #BitClub… http://dlvr.it/KQmFWw,0,0,0,False
140,Developer Angst@developerangst,Why the World needs Bitcoin http://buff.ly/20ePIs0 #money #cryptocurrency #bitcoinWhy the World Needs BitcoinA look at the history of Bitcoin and what it means to the world -- A Review of Bitcoin: The Future of Money? by Dominic Frisbydevangst.com,1,0,0,False
141,Liberation Technology@Liberationtech,#Cryptography: Going Post- #Quantum | #encryption #crypto http://miracl.com/blog/going-post-quantum…,3,2,0,False
142,Project FILTER@PROJECT_FILTER,"intriguing...
https://keybase.io/introducing-the-keybase-filesystem…
#filesharing #crypto #data",0,0,0,False
143,Alvis Cheng@AlvisMiner,Google filings suggest it wants its self-driving cars to charge wirelessly: According to ... http://sh.st/QUiCj #bitcoin #crypto #IT,0,0,0,False
144,Alvis Cheng@AlvisMiner,Apple’s CloudKit update makes it a fantastic Parse replacement for developers: Apple has ... http://sh.st/QUiCw #bitcoin #crypto #IT,0,0,0,False
145,Alvis Cheng@AlvisMiner,Google Hangouts is getting better call quality thanks to p2p networks: Google Hangouts is... http://sh.st/QUiXb #bitcoin #crypto #IT,0,0,0,False
146,Alvis Cheng@AlvisMiner,How Tinsel founder Aniyia Williams built a hardware startup from scratch while pregnant: ... http://sh.st/QUiZ9 #bitcoin #crypto #IT,0,0,0,False
147,Alvis Cheng@AlvisMiner,Study shows Apple may be making a new 4-inch iPhone 5se to please those resistant to chan... http://sh.st/QUiZG #bitcoin #crypto #IT,0,0,0,False
148,Nikolai Hampton@NikolaiHampton,"Fuel for the #cryptocurrency  cause? - #PayPal blocks #VPN provider’s payments over copyright concerns...PayPal blocks VPN, SmartDNS provider’s payments over copyright concernsPayPal cuts off UnoTelly, which touts geo-blocking circumvention to customers.arstechnica.com",0,0,0,False
149,NOAH@NoahPierau,Sign up @MScDigital for a free #MOOC in #cryptocurrency. Gain knowledge of popular and innovative currencies @Bitcoin @decredproject,1,0,0,False
150,Papajinn@papajinn,Putri started the topic Kolorbit in the forum Giveaway http://twib.in/l/ok58Ab5AM4a #cryptocurrency | https://twibble.io,0,0,0,False
151,#InnocentCryptoKitty@NaughtyCatzilla,"Replying to @NaughtyCatzilla#Bitcoin is designed to be ""Lame as Hell"" if there are too many transactions ;)
Solution: new #CryptoCurrency #FlatEarthCoin ;) @YouMeAndBTC",1,0,0,False
152,Denny McEnroe@McEnroeDenny,Re: Take it from me: Bitcoin will NOT die in our lifetime. http://cur.lv/v2dec #bitcoin #crypto,0,0,0,False
153,Denny McEnroe@McEnroeDenny,Re: █ ★☆★777Coin★☆★ █  Full Range of Games  Instant Withdraw  Free mBTC! http://cur.lv/v2dea #bitcoin #crypto,0,0,0,False
154,Denny McEnroe@McEnroeDenny,Re: What is the safest way to store Bitcoins? http://cur.lv/v2de9 #bitcoin #crypto,0,0,0,False
155,Denny McEnroe@McEnroeDenny,Re: ✰ [ANN] BITMIXER.IO ✰ High Volume Bitcoin Mixer ✰ http://cur.lv/v2de5 #bitcoin #crypto,0,0,0,False
156,Coinfeed@CoinfeedIO,#Bitcoin #Price Double Top - CCN: Financial #Bitcoin & #Cryptocurrency News http://tinyurl.com/o4fzh8j,0,0,0,False
157,hicda easn@EasnHicda,"Yes, #eth is nothing but whales manipulation on fake volume and fake walls just like the old #bittrex game. #altcoin #scam #fake #bitcoin",0,0,0,False
163,Bitcoin Hourly@bitcoin_hourly,"Price Update: 1 #Bitcoin = $385.0700

#cryptocurrency source http://yhoo.it/1PH2nON (via @Flutter_HQ)",0,0,0,False
164,XBTFreelancer.com@XBTFreelancer,#bitcoin #freelancewriter #crypto #cryptocurrency http://xbtfreelancer.com/prj/847/transcribe-and-edit… #career Transcribe and Edit,0,0,0,False
165,RCX@rockandcx,"Yes, #eth is nothing but whales manipulation on fake volume and fake walls just like the old #bittrex game. #altcoin #scam #fake #bitcoin",0,0,0,False
166,Passive Income@PassiveIncoming,"@lekwilliams EARN BITCOIN ON AUTOPILOT. NO GAMES & NO MINING! The way it should be 100% FREE! http://goo.gl/FSJFQt
#altcoin #bitcoin",1,0,0,False
168,rssbtc.com@rssbtc,"24 Hours of #Bitcoin 
-0.35% price $386.20 USD 
-1.45% volume $193.M 
0.54% market cap $5.95B

#fintech #btc #crypto #usd #satoshi",1,1,0,False
169,Molly Schwartz@mollyfication,Alpha releases of the Keybase app are coming with a cryptographically secure file mount https://keybase.io/introducing-the-keybase-filesystem… #crypto cc: @rasmusvuori,1,1,1,False
170,rssbtc.com@rssbtc,"Alleged Corruption of Chinese Financial Institutions Show How Bitcoin is Better - http://bit.ly/1VVS11Z
#finance #bitcoin #cryptoAlleged Corrtion Chinese Financial Institutions S Bitcoin is BetterCorruption has been plaguing all countries in the world for far too long, and it is more than due time to weed out the corrupted elements in a seat of power.newsbtc.com",1,1,0,False
171,#InnocentCryptoKitty@NaughtyCatzilla,"Replying to @YouMeAndBTCI'd prefer as title ""Increasing the #Blocksize of #Bitcoin means to reduce #Decentralization"" https://youtu.be/80-QXMTHLQA @YouMeAndBTC #Crypto",1,1,1,False
172,EUROPECOIN  (.eu.org)@europecoinEUORG,"LEARN FROM ERRORS its important most #ioT & #fintech madeof #blockchain & open&""NSAfree"" hard&softw #crypto #altcoinQuote TweetEUROPECOIN  (.eu.org)@europecoinEUORG · Feb 5, 2016Replying to @metamorphin@metamorphin @execfintech BALL CATCHED I'll dive into ur program & come witha catalog #fintech #iot #altcoin #crypto",13,6,0,False
173,ComSec@comsec,#crypto flaw was so glaring it may be intentional eavesdropping backdoor http://bit.ly/1SWds4T #security,0,0,0,False
174,amardeep kaushal@amardeepkaushal,@PwC_LLP Consumer #Cryptocurrency Survey http://buff.ly/1SLL2JN #corpgov #CEO #CFO #fintech #blockchain #bitcoin,2,0,0,False
175,OpenCryptoPortfolioTracker.org@taoteh1221,Updated the #Ethereum #Mining Calculator in my #php #cryptocurrency #portfolio #app to use the @etherscan #API: http://dragonfrugal.com/coin-prices/index.php#tab4…,2,0,0,False
176,sonsofliberty2016@Thefedendsnow,#Phillipines #Muecoin #askastoreaday #Vegas and #MontaryUnit meet in #18b #DTVL #TheArtsFactoryLV #BTM #crypto #deals,0,0,0,False
177,BitcoinTalkRadio.com@btctalkradio,Listen to @BitcoinsNGravy Every Sunday morning @ 11Am on http://Btctalkradio.com #bitcoin #interviews #music #crypto,2,1,0,False
178,Team 300FPS ︻╦̵̵̿╤─@300FPSGAMING,Putin Advisor: Accepting Bitcoin Payments in Russia is a Crime http://btcf.co/1odditz #bitcoin #bitcoinnews #btc #cryptocurrency,2,0,0,False
181,random82jf@robwer5,StealthCoin is #1 Cryptocurrency https://twitter.com/StealthCoin #altcoins #sexy #girl #woman #iphone #ipad http://pbs.twimg.com/media/CGMi4_UUUAAXn0W.png…,1,0,0,False
182,Just Security@just_security,"When it comes to knowing whether law enforcement is truly “going dark"" examples offered are pretty useless http://bit.ly/1R9H0uJ #Crypto",3,4,0,False
183,BitcoinAgile@bitcoinagile,Simplex Brings Total Funding to $8.4 Million with Latest Round - NEWSBTC #news #crypto http://bit.ly/1PFiu3C,0,0,0,False
184,Alejandro Sewrjugin@alesew23,#Bitcoin Putin Advisor: Accepting Bitcoin Payments in Russia is a Crime http://bit.ly/20xtYx9 #Tech #Crypto,1,0,0,False
185,Bitcoin Hourly@bitcoin_hourly,"Price Update: 1 #Bitcoin = $386.7000

#cryptocurrency source http://yhoo.it/1PH2nON (via @Flutter_HQ)",0,0,0,False
186,ISARA Corporation@ISARACorp,Our new #crypto #dev job posting is on the @Communitech board. https://lnkd.in/eP7_HXn Tell your friends! #KW #quantumcrypto #WIT_WR,4,0,0,False
187,LocalDayz@localdayz,#dash Download wallet https://dashpay.io/downloads/ and Join the pool on http://pool.laintimes.com #DashDc #DigitalCash #Darkcoin #cryptocurrency,0,0,0,False
188,random82jf@robwer5,"Yes, #eth is nothing but whales manipulation on fake volume and fake walls just like the old #bittrex game. #altcoin #scam #fake #bitcoin",1,0,0,False
189,Denny McEnroe@McEnroeDenny,Re: [http://Primedice.com] The Primedice Palindrome Hunt! [Up to 5 BTC in prizes!] http://cur.lv/v2961 #bitcoin #crypto,0,0,0,False
190,Denny McEnroe@McEnroeDenny,Re: Altcoin blockchain experts - can anyone explain this semi-missing transaction? http://cur.lv/v295z #bitcoin #crypto,0,0,0,False
191,Denny McEnroe@McEnroeDenny,Re: Where get information for fundamental analysis to btc trading? http://cur.lv/v295w #bitcoin #crypto,0,0,0,False
192,Denny McEnroe@McEnroeDenny,Re: Wall Observer BTC/USD - Bitcoin price movement tracking & discussion http://cur.lv/v295u #bitcoin #crypto,0,0,0,False
193,akoenkunan@akoenkunan,"Yes, #eth is nothing but whales manipulation on fake volume and fake walls just like the old #bittrex game. #altcoin #scam #fake #bitcoin",0,0,0,False
194,Elena A. Mesropyan@elena_mesropyan,19 #bitcoin #Remittance #startups that won't let the #cryptocurrency die. #fintech #blockchain #payments19 Bitcoin Remittance Startups That Won't Let the Cryptocurrency DieBitcoin has recently become quite a debatable topic as the opinions are diverse when it comes to the question of whether bitcoin use in terms of security and other risks related to cryptocurrency....gomedici.com,3,1,0,False
195,Zeth Couceiro@Zeth_Plexus,19 #Bitcoin #Remittance #Startups That Won’t Let the #Cryptocurrency Die | Let's Talk Payments #blockchain #payments19 Bitcoin Remittance Startups That Won't Let the Cryptocurrency DieBitcoin has recently become quite a debatable topic as the opinions are diverse when it comes to the question of whether bitcoin use in terms of security and other risks related to cryptocurrency....gomedici.com,2,0,0,False
196,BrianDColwell (Quotidian Marketing)@BrianDColwell,#Bitcoin solves #Argentina 's problems? #cryptocurrency #LatAm #fintech $FM  http://ow.ly/XR53l @BColwell_EMGMKT,0,0,0,False
197,NE Patriots Dynasty@NEPatsDynasty,Quadruple your investment.  #Money #stocks #Gold #crypto 4 in 1 trading system for Partners only. http://ilgamosilcoin.com/home.html,0,0,0,False
198,gratiaeizenstatbcs@y@gratiaeizensta2,"Yes, #eth is nothing but whales manipulation on fake volume and fake walls just like the old #bittrex game. #altcoin #scam #fake #bitcoin",2,1,0,False
199,#InnocentCryptoKitty@NaughtyCatzilla,"Replying to @NaughtyCatzillaAnyway, i told myself to not get #euphoric because always #BitcoinDog blocks #Cryptocurrency-Cat ;) #CryptoArt Humor",1,1,0,False
201,CryptoRSS@CryptoRSS,"Comodo Chromodo Browsers Vulnerable to Cross-Domain Attacks: Original release date: February 04, 201... http://bit.ly/1PoDLLf #crypto",0,0,0,False
202,*NormalGamer*@ng_480,UN Commission Calls On #Caribbean to Become #DigitalCurrency Hub http://coinde.sk/23NuRRi via @CoinDesk #cryptocurrency #latinamerica,0,0,0,False
203,akoenkunan@akoenkunan,#eth is nothing but whales manipulation on fake volume and fake walls just like the old #bittrex game. #altcoin #scam #fake #bitcoin,1,0,0,False
204,Kaushali Subodha@kaushalisubodha,"Yes, #eth is nothing but whales manipulation on fake volume and fake walls just like the old #bittrex game. #altcoin #scam #fake #bitcoin",0,0,0,False
205,bitcoinfly@bitcoinfly,Does #EU Go Full #NY Retard Style on #Bitcoin? http://bitcoinpit.net/?p=20480 #cryptocurrency #RegulationDoes EU Go Full NY Retard Style on Bitcoin? | BITCOIN PITWhenever some global institution publishes a report immediately before an important political/bank/business meeting you can be sure of that well-being of common people is at stake. So first there was...bitcoinpit.net,1,0,0,False
206,Bitcoin Updater@BitcoinUpdater,RT @CryptoPromote: Promote your #cryptocurrency related projects through our service. 24k+ #crypto related followers network. #BTC #DogeCoi…,0,0,0,False
207,Bitcoin Hourly@bitcoin_hourly,"Price Update: 1 #Bitcoin = $386.9800

#cryptocurrency source http://yhoo.it/1PH2nON (via @Flutter_HQ)",0,0,0,False
208,Prathamesh Bhosale@PB_Prathamesh_B,Bitcoin Community’s Scorn – Mike Hearn https://cryptocoinsnews.com/leave-mike-hearn-alone/… #cryptocurrency,0,0,0,False
209,Cryptor Trust@CryptorTrust,Buy #Crypto Shares with #Bitcoin→ #Investment Prospectus for #Blockchain #Investor #Asia at #CryptorTrust https://cryptortrust.com #AltcoinCryptor TrustShaping Crypto Evolutioncryptortrust.com,12,10,0,False
210,Team 300FPS ︻╦̵̵̿╤─@300FPSGAMING,UN for Latin America and the Caribbean Releases Report on Digital http://btcf.co/1od20oX #bitcoin #bitcoinnews #btc #cryptocurrency,1,0,0,False
211,CCN - Capital & Celeb News@CapitalAndCeleb,Bitcoin Community’s Scorn – Mike Hearn https://cryptocoinsnews.com/leave-mike-hearn-alone/… #cryptocurrency,1,6,0,False
212,Lemo@LetsMakeEzMoney,Big things are coming soon for #StartPeeps Join now and start earning! #adzcoin #cryptocurrency https://startpeeps.com/index.php?tab1=welcome&affid=Koen…,0,0,0,False
213,mohmed.ahmed@mohmeda25761785,"Yes, #eth is nothing but whales manipulation on fake volume and fake walls just like the old #bittrex game. #altcoin #scam #fake #bitcoin",0,0,0,False
214,The Third Wave@metamorphin,#altcoins #bitcoin #fintech #ALL COINS should mke a registration and description immediately #BTC #altcoin #forum RT,4,1,0,False
215,Tower Fasteners@TowerFasteners,"Tech innovations for 2016: #3Dprinting, ambient interfaces, i.e. @googlenow, social payment services, i.e. @Venmo & #cryptocurrency software",0,0,0,False
217,bitcoinblackjack@btcblackjack,"getintocoin: Bitcoin Video Casino, The Retro Video Poker Platform http://ift.tt/1NUgwH5 http://ift.tt/1WSNQsL #Bitcoin #Crypto",0,0,0,False
218,The Crypto World@TheCryptoWorld,#TransferCoin is actually rank 162th on @coinofview with a market cap of 48k$! @Transfer_dev $TX #CryptoCurrency #Altcoin #Bitcoin,2,3,0,False
219,Namoro Internacional@NamoroInter,"Yes, #eth is nothing but whales manipulation on fake volume and fake walls just like the old #bittrex game. #altcoin #scam #fake #bitcoin",0,0,0,False
220,Mike Sandoval @MikeSandovalS,"Yes, #eth is nothing but whales manipulation on fake volume and fake walls just like the old #bittrex game. #altcoin #scam #fake #bitcoin",1,0,0,False
221,NE Patriots Dynasty@NEPatsDynasty,Great Blog on #crypto #cryptocurrency Click http://juddbagley.io/bitcoin/blockchain/nasdaq-is-joining-the-blockchain-trading-party/… SHARE,0,0,0,False
222,Liaqat Ali Shah@coinspacepk1,coinspace - One World One Currency Business Plan #altcoin #bitcoin http://slideshare.net/alexanderschuette/coinspace-one-world-one-currency-business-plan… via @SlideSharecoinspace - One World One Currency Business PlanRegister here for free: http://register.coin-space.biz Coinspace is a unique business opportunity and it is the only one of its kind. The concept behind Coinsp…slideshare.net,1,0,0,False
223,Martin Vidler@vids76,"#Ethereum It can't fail, be stopped or be censored - http://bit.ly/23NIuQq #cryptocurrency #eth #blockchain",0,0,0,False
224,Alejandro Sewrjugin@alesew23,#EU Wants to End #Bitcoin #Anonymity http://news.softpedia.com/news/eu-wants-to-end-bitcoin-anonymity-499851.shtml… #Security #Privacy #Blockchain #Tech #Digital #Finance #Banking #News #CryptoEU Wants to End Bitcoin AnonymityEuropean Commission wants to de-anonymize Bitcoin transfers so it could fight new-age terrorist groupsnews.softpedia.com,0,0,0,False
225,Denny McEnroe@McEnroeDenny,Re: [ANN] New Improved altcoin CPU miner with support for AES-NI http://cur.lv/v259g #bitcoin #crypto,0,0,0,False
226,Denny McEnroe@McEnroeDenny,Re: DirectBet Ice Hockey Prediction Game *** Win Free Bets ! *** Free to Enter ! http://cur.lv/v259d #bitcoin #crypto,0,0,0,False
227,Denny McEnroe@McEnroeDenny,Re: CRYPTSY stopping withdraw locking accounts without notifying users! Class Action http://cur.lv/v2599 #bitcoin #crypto,0,0,0,False
228,Denny McEnroe@McEnroeDenny,Re: Looking for someone to mentor me in trading http://cur.lv/v2597 #bitcoin #crypto,0,0,0,False
229,Brian D Colwell@BColwell_CTA,RT @BitPay: #Bitcoin Comes 2 Online Multiplayer #Gaming Giant #Wargaming https://blog.bitpay.com/bitcoin-comes-to-online-multiplayer-gaming-giant-wargaming/… #GamingNews  #crypto,0,0,0,False
230,NE Patriots Dynasty@NEPatsDynasty,#ILGamos and their NEW #ILCoin. 4 in 1 Trading platform. Stock up 35%.  http://INVEST.ilgamos.com/buy?buy_type=1 #Crypto #Nasdaq #ETRADE,0,0,0,False
231,12Joker18@12Joker18,"Here you will find many good mining and sides free bitcoin, http://bitcoins-earn.com #bitcoin #bitcoinmining #freebitcoin #BTC #crypto",0,0,0,False
232,Bitcoin Hourly@bitcoin_hourly,"Price Update: 1 #Bitcoin = $385.4900

#cryptocurrency source http://yhoo.it/1PH2nON (via @Flutter_HQ)",0,0,0,False
233,cryptovalue.com@cryptovalue,Best performing #altcoin: jl777hodl(JLH) with a 118.42% 24h change - #marketcap $297 126 - http://cryptovalue.com,0,0,0,False
234,Load Debit Card@LoadDebitCard,Bitcoin Debit Card #Bitcoin to #debitcard with 40+ #altcoins at #LoadDebitCard #bitcoinnews http://bit.ly/debitnow,1,0,0,False
235,Team 300FPS ︻╦̵̵̿╤─@300FPSGAMING,Bitcoin Price Hovering After Mini-Surge http://btcf.co/1QKJRIk #bitcoin #bitcoinnews #btc #cryptocurrency,0,0,0,False
236,IBS Intelligence@IBSIntelligence,#ICYMI - D+H Corporation completes #blockchain integration plan: https://ibsintelligence.com/ibs-journal/ibs-news/dh-completes-blockchain-integration-project-for-payments-systems/… - #fintech #cryptocurrency,1,1,0,False
237,C.A.T. Crypto Trader@CAT_trader,@Transfer_dev #Transfer #Coin is accepted as #CAT #Cryptocurrency #Automatic #Trader payment method.Official topic: https://bitcointalk.org/index.php?topic=507103.0…,3,3,0,False
238,Viralizate@insurancembafor,"Yes, #eth is nothing but whales manipulation on fake volume and fake walls just like the old #bittrex game. #altcoin #scam #fake #bitcoin",1,0,0,False
239,JENNIFER_PERRA@JENNIFER_PERRA,"Yes, #eth is nothing but whales manipulation on fake volume and fake walls just like the old #bittrex game. #altcoin #scam #fake #bitcoin",2,0,0,False
240,David Liam@crazydaveorama,"CoinTelegraph: Aspiring Authors and Bloggers – Get Involved! #cryptocurrency #journalism #blockchain #bitcoinCointelegraph: Aspiring Authors and Bloggers – Get Involved!Starting today, Cointelegraph is truly becoming the Community’s voice. If you have a post, article or editorial and you want to get heard, Cointelegraph can make it happen.cointelegraph.com",0,0,0,False
247,CryptoPot@CryptoPotGame,"http://CryptoPot.com official release real soon! Will it be the next big thing? YES

#bitcoin #cryptocurrency",3,0,0,False
248,Maksym Byňkovskyj@TheMuksym,"Yes, #eth is nothing but whales manipulation on fake volume and fake walls just like the old #bittrex game. #altcoin #scam #fake #bitcoin",1,0,0,False
249,Global Drug Policy Observatory@Gdpo_Swan,Bitcoin does more than buy drugs: Blockchain / distributed ledger discussed: http://tinyurl.com/jrac8mj #bitcoin #policy #blockchain #altcoins,1,1,0,False
250,HYPER Crypto@HyperCrypto,Cloud Stake $HYPER https://stakeminers.com/?GGUDa The Future of Proof of Stake #Crypto by @nigeldollentas @stakeminers http://imgur.com/CtW1BE2?mux1G,3,2,0,False
251,Julia Vaingurt@julia_vaingurt,"The Ether Review #14 - Juan Benet, IPFS - http://cur.lv/v239a
 | #Bitcoin News #cryptocurrency",0,0,0,False
252,BitScan@bitscanner,CureCoin Founder Talks about the #Currency that is a 100-Year Project to End Disease @CureCoin_Team http://ow.ly/XYhKr #cryptocurrencyCureCoin Founder: My Cryptocurrency Can End All Disease in 100 Years | Finance Magnates“CureCoin is a yet to be discovered gem is the general consensus. It feels good to know how much advancement to medical research we bring to the table.”financemagnates.com,2,2,0,False
253,#bitcoinsulting@bitcoinsulting,AWEEK @europecoinEUORG websiterepair TrustchainTechnologieFound ExchaingeEUcomplianceDone Multipool #crypto #altcoin,7,7,0,False
254,OpenFXMarket@OpenFXMarket,#altcoin market index (avg): #OFXAVG 138.15 #SHA 45.01 #SCRYPT 96.83 #QUARK 58.46 #X 9.05 #HYBRID 7.8 Stay tuned! #OFX,0,0,0,False
255,Team 300FPS ︻╦̵̵̿╤─@300FPSGAMING,In Defense of Bitcoin Transaction Fees http://btcf.co/20LFZvp #bitcoin #bitcoinnews #btc #cryptocurrency,0,0,0,False
256,Team 300FPS ︻╦̵̵̿╤─@300FPSGAMING,In Defense of Bitcoin Transaction Fees http://btcf.co/20LFZf9 #bitcoin #bitcoinnews #btc #cryptocurrency,0,0,0,False
257,Team 300FPS ︻╦̵̵̿╤─@300FPSGAMING,"Chilean Bitcoin Exchange SurBTC Raises $300,000 in Seed Funding http://btcf.co/20LFYI3 #bitcoin #bitcoinnews #btc #cryptocurrency",0,0,0,False
258,Bitcoin Hourly@bitcoin_hourly,"Price Update: 1 #Bitcoin = $388.5000

#cryptocurrency source http://yhoo.it/1PH2nON (via @Flutter_HQ)",0,0,0,False
259,XBTFreelancer.com@XBTFreelancer,#job Transcribe and Edit #writing #translation #bitcoin http://xbtfreelancer.com/prj/847/transcribe-and-edit… #xbt #cryptocurrency,1,0,0,False
260,BitcoinBuzz vega9@BitcoinBuzzV9,http://bitcoinbuzz.vega9.com - Hot topics: #bitcoin #btc #terpercaya #fintech #robotcoingame #cryptocurrency,0,0,0,False
261,Null TX@nulltxnews,"Chilean Bitcoin Exchange SurBTC Raises $300,000 in Seed Funding http://goo.gl/ekcTvM #bitcoin #bitcoinnews #btc #cryptocurrency",0,0,0,False
262,#5 markiplier fanboy@tuff_lover,Win 10 #bitcoin from @MinerGate by participating in the API challenge! #developer #cryptocurrency #MinerGateApi https://minergate.com/contest-api,2,0,0,False
263,Coin Tiny@CoinTiny,Groestlcoin SGminer5 released #CryptoCurrency #Crypto,0,0,0,False
270,Namir Anani@NamirAnani_ICTC,"Signs of rapid & OTT #digital disruption to legacy financial systems, banks are weighing the odds #cryptocurrency http://tinyurl.com/hhcca98",0,0,0,False
271,Denny McEnroe@McEnroeDenny,Re: Jonny's Mining Emporium (http://bravo-mining.com) http://cur.lv/v22al #bitcoin #crypto,0,0,0,False
272,Denny McEnroe@McEnroeDenny,Re: Giving Out Loans - Sarahiko Bitcoin Loan Service http://cur.lv/v22ak #bitcoin #crypto,0,0,0,False
273,Denny McEnroe@McEnroeDenny,Re: DirectBet American Football Prediction Game ! Win Free Bets ! Free to Enter ! http://cur.lv/v22ai #bitcoin #crypto,0,0,0,False
274,Denny McEnroe@McEnroeDenny,Re: Could I start an escrow service? http://cur.lv/v22ag #bitcoin #crypto,0,0,0,False
275,Denny McEnroe@McEnroeDenny,Re: If Bitcoin goes up very high should i buy a house? http://cur.lv/v22af #bitcoin #crypto,0,0,0,False
276,CCT@CCTrackerBits,"Dogecoin making waves. Current value & Why should you invest now?
http://cryptocurrencytracker.com #Dogecoin #cryptocurrency",1,0,0,False
277,Denny McEnroe@McEnroeDenny,Re: [W] 0.026BTC [O] Skrill http://cur.lv/v225i #bitcoin #crypto,0,0,0,False
278,Denny McEnroe@McEnroeDenny,hacked account in fortunejack http://cur.lv/v225h #bitcoin #crypto,0,0,0,False
279,Denny McEnroe@McEnroeDenny,Re: why there are very less xapo faucets ? http://cur.lv/v225f #bitcoin #crypto,0,0,0,False
280,Denny McEnroe@McEnroeDenny,Re: Urgent-ish: NEED SKRILL! http://cur.lv/v225e #bitcoin #crypto,0,0,0,False
281,peter henk@A226683Henk,"Yes, #eth is nothing but whales manipulation on fake volume and fake walls just like the old #bittrex game. #altcoin #scam #fake #bitcoin",0,0,0,False
282,Team 300FPS ︻╦̵̵̿╤─@300FPSGAMING,Bitcoin Mining Platform Bitminer.eu Guarantee 99.9% Up Time and http://btcf.co/1R9Q8Q5 #bitcoin #bitcoinnews #btc #cryptocurrency,1,0,0,False
283,Team 300FPS ︻╦̵̵̿╤─@300FPSGAMING,Bitcoin Mining Platform Bitminer.eu Guarantee 99.9% Up Time and http://btcf.co/20LDh9n #bitcoin #bitcoinnews #btc #cryptocurrency,1,0,0,False
284,Team 300FPS ︻╦̵̵̿╤─@300FPSGAMING,UN Commission Calls On Caribbean to Become Digital Currency Hub http://btcf.co/1R9Q8zp #bitcoin #bitcoinnews #btc #cryptocurrency,2,0,0,False
285,Passive Income@PassiveIncoming,"@aoyora1 Really digging some these FREE BITCOIN FAUCETS!
http://freecryptofaucets.com
#cryptofaucets #bitcoin #altcoin #cryptocurrency",0,0,0,False
286,Alejandro Sewrjugin@alesew23,#Bitcoin UN Commission Calls On Caribbean to Become Digital Currency Hub http://bit.ly/1L37s2x #Tech #Crypto,0,0,0,False
287,Markus Ueberall@m_ueberall,"#fswatch: Work on highly anticipated clean-room #ZFS #Crypto support for #ZFSonLinux is progressing: http://bit.ly/zol0494 #ZOLZFS Crypto support · Issue #494 · openzfs/zfsAs of ZFS Pool Version 30, there is support for encryption. This part is unfortunatly closed source, so an opensource implementation would be required. That means it would probably not be compatibl...github.com",1,0,0,False
288,Carlos Manuel@Mani120683,"https://youtu.be/nXbQTfedDpU
One of my favorite dinosaurs
#mokelemembe #congo #livingdino #crypto",0,0,0,False
289,CoinWallet.co@coinwalletco,"Warpcoin (WARP) has now been added to the https://CoinWallet.co online wallet, POS pool and Twitter tipping service $WARP #WARP #Altcoin",6,4,1,False
290,Steven Rollins@steven_r55,StealthCoin is #1 Cryptocurrency https://twitter.com/StealthCoin #altcoins #sexy #girl #woman #iphone #ipad http://pbs.twimg.com/media/CGMi4_UUUAAXn0W.png…,0,0,0,False
291,Golden Gateway@GoldenGatewayUS,Remember to like us on FB at http://facebook.com/officialgoldengateway… #bitcoin news and #cryptocurrency updates (FREE Automation >> http://bit.ly/free_twitter_automation…),1,0,0,False
300,Agrobazaar Online@agrobazaar_msia,#startupXcel: RT metamorphin: europecoinEUORG execfintech its very exciting #fintech #altcoins #bitcoin #cryptocurrency #Inno #IoT #startup,0,0,0,False
301,Scripting Future @scriptingfuture,Replying to @CryptonitDMD@CryptonitDMD O.K: #legendary i got it :-) all in all the only the only #altcoin growing without interruption throughout alt its time,0,0,0,False
302,Just Security@just_security,"If the evidence cited doesn’t suffice, how would we know if law enforcement really has a #GoingDark problem?
http://bit.ly/1R9H0uJ #crypto",3,7,0,False
303,Mayur Agnihotri@I_AM_Mayur0021,"I have a brand-new-super-duper-secret-totally-unbreakable encryption algorithm!
#encryption infosec #crypto
https://lnkd.in/eM5tsxb",0,0,0,False
304,Scripting Future @scriptingfuture,"#EUROPECOIN gets AttentEntion #frankfurtt #crypto #fintech #altcoin #execfintech RETWEET
https://twitter.com/europecoinEUORG/status/695625169780527105…Quote TweetEUROPECOIN  (.eu.org)@europecoinEUORG · Feb 5, 2016Replying to @metamorphin@metamorphin @execfintech BALL CATCHED I'll dive into ur program & come witha catalog #fintech #iot #altcoin #crypto",10,6,0,False
305,CryptoRSS@CryptoRSS,New Hampshire Passes on Plan to Take Bitcoin for Tax Payments: http://paymentweek.com / Steven Anderson... http://bit.ly/1L359wp #crypto,0,0,0,False
306,Paul DL@Paul_Dan,#Crypto #flaw was so glaring it may be intentional #eavesdropping #backdoor. #IT #security #cybersecurity http://arstechnica.com/security/2016/02/crypto-flaw-was-so-glaring-it-may-be-intentional-eavesdropping-backdoor/…,0,0,0,False
307,The Third Wave@metamorphin,Replying to @europecoinEUORG@europecoinEUORG @execfintech its very exciting #fintech #altcoins #bitcoin #cryptocurrency #Inno #IoT #startup,6,2,0,False
308,SJ Charles@SJCharles1,#GCHQ: Nobody got #crypto Christmas #puzzle correct (Wired UK) http://wired.co.uk/news/archive/2016-02/05/gchq-christmas-puzzle…,0,0,0,False
309,Coin Tiny@CoinTiny,How to : Setup your masternode - @TheCryptoWorld #CryptoCurrency #Crypto,0,0,0,False
310,EUROPECOIN  (.eu.org)@europecoinEUORG,Replying to @metamorphin@metamorphin @execfintech BALL CATCHED I'll dive into ur program & come witha catalog #fintech #iot #altcoin #crypto,10,5,2,False
311,The Crypto World@TheCryptoWorld,"4 coins, one Faucet! @DigiByteCoin @Transfer_Dev @warpcoin #Digibyte #WarpCoin #TransferCoin #CryptoCurrency http://ow.ly/XY7wU",1,3,0,False
312,Fintech Prowler@FintechProwler,NXT Announces Version 1.7.4! - http://Bitcoinist.net http://ift.tt/1S57eja #altcoin,0,0,0,False
313,BitcoinBuzz vega9@BitcoinBuzzV9,http://bitcoinbuzz.vega9.com - Hot topics: #fintech #bitcoin #btc #terpercaya #cryptocurrency #robotcoingame,0,0,0,False
314,Bitcoin Hourly@bitcoin_hourly,"Price Update: 1 #Bitcoin = $386.4000

#cryptocurrency source http://yhoo.it/1PH2nON (via @Flutter_HQ)",0,0,0,False
316,Prathamesh Bhosale@PB_Prathamesh_B,Remittance &Amp; Mobile Money Expo Will Address Remittance Challenges in https://cryptocoinsnews.com/remittance-mobile-money-expo-feb-2-3-address/… #cryptocurrency,0,0,0,False
317,Angel Ramboi@angelramboi,"This looks very promising, especially UX wise - Introducing the Keybase filesystem https://keybase.io/introducing-the-keybase-filesystem… #keybase #crypto",0,0,0,False
318,Team 300FPS ︻╦̵̵̿╤─@300FPSGAMING,Cash is An Interesting Investor Portfolio Diversification Tool Next to http://btcf.co/1Pb7gSZ #bitcoin #bitcoinnews #btc #cryptocurrency,0,0,0,False
319,PCN@PaymentsNet,"The heart of the# blockchain use case: #digital proof - http://ow.ly/XYCO7
#PCN #cryptocurrency #tech",0,0,0,False
320,CCN - Capital & Celeb News@CapitalAndCeleb,Remittance &Amp; Mobile Money Expo Will Address Remittance Challenges in https://cryptocoinsnews.com/remittance-mobile-money-expo-feb-2-3-address/… #cryptocurrency,1,3,0,False
321,ILbotCrypto@LbotCrypto,Time to check on #edoncoin's development! http://ow.ly/WbHMN #btc #altcoin #ltc #dogecoin #bitcoin #edoncoin #ltc,1,0,0,False
322,Ribeiro Nascimento S@yanklocutor,"Yes, #eth is nothing but whales manipulation on fake volume and fake walls just like the old #bittrex game. #altcoin #scam #fake #bitcoin",0,0,0,False
323,HYPER Crypto@HyperCrypto,Read the $HYPER goals and strategy document at: http://goo.gl/cMiHbf?6C6c … #bitcoin #gaming #cryptocurrency #fintech #CSGO #TF2 #WoW #crysis,3,1,0,False
324,CryptoRaptor@Cryptopoly,#Commonwealth Encourages Member Nations to Deem #Bitcoin #Legal https://cryptocoinsnews.com/commonwealth-encourages-member-nations-to-deem-bitcoin-legal/… via @CryptoCoinsNews #btc #cryptocurrency #crypto,0,0,0,False
325,Denny McEnroe@McEnroeDenny,Re: need a hacker http://cur.lv/v1zcm #bitcoin #crypto,0,0,0,False
326,Denny McEnroe@McEnroeDenny,Re: ASICMINER: Entering the Future of ASIC Mining by Inventing It http://cur.lv/v1zcl #bitcoin #crypto,0,0,0,False
327,Denny McEnroe@McEnroeDenny,Re: Lucky coin Idea http://cur.lv/v1zci #bitcoin #crypto,0,0,0,False
328,bitcoinfly@bitcoinfly,This is why #cryptocurrency #btc regulators are helpless in reality,0,0,0,False
329,Team 300FPS ︻╦̵̵̿╤─@300FPSGAMING,Bitcoin Price Scales Beyond $390 in February http://btcf.co/1Pb4ptj #bitcoin #bitcoinnews #btc #cryptocurrency,0,0,0,False
330,Alvis Cheng@AlvisMiner,BBC takes the RBS Six Nations to new heights by live streaming it in space: More than 20 ... http://sh.st/QRNLB #bitcoin #crypto #IT,0,0,0,False
331,Alvis Cheng@AlvisMiner,This Android app is a simple and useful way to get news on your lock screen: As you might... http://sh.st/QRNLn #bitcoin #crypto #IT,0,0,0,False
332,Alvis Cheng@AlvisMiner,"The Super Bowl is no longer the touchdown of advertising: Last year, the largest televise... http://sh.st/QRNK5 #bitcoin #crypto #IT",0,0,0,False
333,Alvis Cheng@AlvisMiner,Don’t forget anything with Remember the Milk’s overhauled app: Remember the Milk was one ... http://sh.st/QRNKY #bitcoin #crypto #IT,0,0,0,False
334,Alvis Cheng@AlvisMiner,The Malware Museum is an epic collection of old-school viruses: MS-DOS viruses were so mu... http://sh.st/QRNKj #bitcoin #crypto #IT,0,0,0,False
335,Kurt Westh Nielsen@kwesth,Here's why I propose Danish Journalists should be offered secure email #DJ #Crypto #Dataretention #PKI http://journalisten.dk/sikker-mail-til-alle-medlemmer…,0,0,0,False
336,Bitcoin Hourly@bitcoin_hourly,"Price Update: 1 #Bitcoin = $387.1100

#cryptocurrency source http://yhoo.it/1PH2nON (via @Flutter_HQ)",0,0,0,False
337,MonetaryUnit@MonetaryUnit,"$MUE is THE #crypto payment in two entire shopping malls in #Vegas.
Over 90+ stores, 1 roof
#Bitcoin #dash #ethereum
https://bitcointalk.org/index.php?topic=778322.msg13670018#msg13670018…",2,0,0,False
338,Blockchain Works@BlockchainWorks,So do you believe it will change everything? http://bit.ly/1PnLGbN #wedo #blockchain #yourthoughts #cryptocurrency,1,0,0,False
339,Megabyte@megabyte101,"Price Update: 1 #Bitcoin = $388.7000

#cryptocurrency source http://yhoo.it/1PH2nON (via @Flutter_HQ)",1,0,0,False
340,The Time Machine @MachineBlock33,buy #bitcoin #cryptocurrency for investment buying #bleutrade @BLEUTRADE share coin get BTC DOGE LTC 2x's a day o_O,0,0,0,False
354,Adam Meister@TechBalt,#Altcoin & #Bitcoin fans need to learn the #Auroracoin mania lesson @Tone_LLT inspired this vid: https://youtube.com/watch?v=FA1ZKWdbwBU… #ethereum #fintechAltcoin and Bitcoin fans need to learn the Auroracoin mania lessonThanks to @Tone_LLT for inspiring this video! In 2014 the world was introduced to the concept of country specific altcoins and in March the price of Iceland'...youtube.com,3,0,0,False
355,Coin Tiny@CoinTiny,Paypal’s Super Bowl Commercial Heralds ‘New Money’ – Ignores Bitcoin #CryptoCurrency #Crypto,0,0,0,False
356,Chiiz Application@chiizapp,New challenge on Chiiz app ! Download for free on http://goo.gl/VTFzaT #chiiz #defi #challenge,0,0,0,False
357,FREE MONEY@FreeBitcoiners,"@Fix_Stress I just signed up for a free Bitcoin wallet which paid me $1 for using it - http://goo.gl/HDIs3i
#freebitcoin #altcoin",0,0,0,False
358,John F. McClure@johnmcclure00,Box giving its users more encryption powers http://bit.ly/1SOMwD4 #cloudcomputing #infosec #crypto #privacy,0,0,0,False
359,Christian Geschkat-Stadie@cgeschkat,"http://bit.ly/1PdZvtk very interesting report on the ""going dark"" debate #weekendread #crypto #security",0,0,0,False
360,BitcoinAgile@bitcoinagile,Military grade security without a password comes to your smartphone  ITProPortalcom #crypto http://itproportal.com/2016/02/05/military-grade-security-without-password-comes-your-smartphone…,0,0,0,False
361,John F. McClure@johnmcclure00,Military grade security without a password comes to your smartphone http://bit.ly/1X81Jjc #mobilesecurity #infosec #crypto #IDM #PKI,0,0,0,False
362,BitcoinAgile@bitcoinagile,The National-Security Needs for Ubiquitous Encryption #Encryption #crypto #cyberpolicy #security #infosec http://bit.ly/1PYLKo6,0,0,0,False
363,Alessandro Guarino@alexsib17,The National-Security Needs for Ubiquitous #Encryption http://lawfareblog.com/national-security-needs-ubiquitous-encryption… #crypto #cyberpolicy #security #infosec,0,0,0,False
364,Defi@DefiFreakyBoo,"Flashaback pic ... Year 1999.
#defi #defibitch #iwassougly #omfg #fuckbullying #marfuša https://instagram.com/p/BBZ-uH7FJLa/",1,0,0,False
365,BlockChannel@BlockChannel,BCN News: themerklenews: Bitcoin Is A Perfect Payment Soluton For VPN Providers http://goo.gl/LfFJ39 #bitcoin #bitcoinnews #btc #crypto…Bitcoin Is A Perfect Payment Soluton For VPN ProvidersThere are plenty of reasons as to why using traditional financial systems are not working properly in this day and age. One of the reasons is how these centralized authorities can take action affectinthemerkle.com,0,0,0,False
366,Team 300FPS ︻╦̵̵̿╤─@300FPSGAMING,Bitcoin Is A Perfect Payment Soluton For VPN Providers http://btcf.co/1L2QGR8 #bitcoin #bitcoinnews #btc #cryptocurrency,1,0,0,False
367,Null TX@nulltxnews,Bitcoin Is A Perfect Payment Soluton For VPN Providers http://goo.gl/LfFJ39 #bitcoin #bitcoinnews #btc #cryptocurrencyBitcoin Is A Perfect Payment Soluton For VPN ProvidersThere are plenty of reasons as to why using traditional financial systems are not working properly in this day and age. One of the reasons is how these centralized authorities can take action affectinthemerkle.com,5,8,1,False
368,BitcoinAgile@bitcoinagile,2015 PwC Consumer Cryptocurrency Survey #bitcoin #Cryptocurrency #corpgov #CEO #CFO #fintech #blockchain https://pwc.com/us/en/financial-services/publications/consumer-cryptocurrency-survey.html#/A/0/stackedbars?cut=Gender&.com…,1,1,1,False
369,Mark P. Borman@MPBorman,.@PwC_LLP Consumer #Cryptocurrency Survey http://buff.ly/1SLL2JN #corpgov #CEO #CFO #fintech #blockchain #bitcoin,2,7,1,False
370,Bitcoin Hourly@bitcoin_hourly,"Price Update: 1 #Bitcoin = $388.7000

#cryptocurrency source http://yhoo.it/1PH2nON (via @Flutter_HQ)",0,0,0,False
371,LocalDayz@localdayz,"#CANN #Cannabiscoin avaible, Join the pool on http://pool.laintimes.com #cryptocurrency",0,0,0,False
372,Apostolle@FitssHarmony,"Yes, #eth is nothing but whales manipulation on fake volume and fake walls just like the old #bittrex game. #altcoin #scam #fake #bitcoin",0,0,0,False
373,CCN - Capital & Celeb News@CapitalAndCeleb,UNICEF Innovation Fund Courts Blockchain Startups https://cryptocoinsnews.com/unicef-innovation-fund-courts-blockchain-startups/… #cryptocurrency,1,0,0,False
374,ahmet ozol@ahmetvefener,"Yes, #eth is nothing but whales manipulation on fake volume and fake walls just like the old #bittrex game. #altcoin #scam #fake #bitcoin",0,0,0,False
375,Megabyte@megabyte101,"#European Commission releases Action Plan, which includes virtual #currencies - https://cryptocointalk.com/topic/44593-bravenewcoin-european-commission-releases-action-plan-which-includes-virtual-currencies/… #cryptocurrency #law #gov",0,0,0,False
376,Denny McEnroe@McEnroeDenny,Re: Earn Satoshi || Up to 50K every 10 Minutes! || http://InstantSatoshi.com http://cur.lv/v1wc0 #bitcoin #crypto,0,0,0,False
377,Denny McEnroe@McEnroeDenny,Re: Which one is more profitable? Skill-based games or Lucky-based games? http://cur.lv/v1wbz #bitcoin #crypto,0,0,0,False
378,ASDAMDASDM SAD AMDSA@SadAmdsa,"Yes, #eth is nothing but whales manipulation on fake volume and fake walls just like the old #bittrex game. #altcoin #scam #fake #bitcoin",0,0,0,False
379,Alberto Davidson@twisted__nerve,"RT 19 #Bitcoin Remittance #Startups That Won’t Let the #Cryptocurrency Die http://bit.ly/1PnxKi5 …Quote TweetCloudPay@Nadia_Griffiths · Feb 5, 201619 #Bitcoin Remittance #Startups That Won’t Let the #Cryptocurrency Die http://bit.ly/1PnxKi5",0,0,0,False
380,Virat Kohli@viratkohli10003,"Yes, #eth is nothing but whales manipulation on fake volume and fake walls just like the old #bittrex game. #altcoin #scam #fake #bitcoin",1,0,0,False
381,CloudPay@Nadia_Griffiths,19 #Bitcoin Remittance #Startups That Won’t Let the #Cryptocurrency Die http://bit.ly/1PnxKi5,1,2,0,False
382,Gabor Venczel@ujtrend,"Bank of England Economist Joins Ledger Journal Editoria #cryptocurrency, bitcoin, octacoin, http://webogi.com/Kxb1fY",0,0,0,False
386,BitcoinAgile@bitcoinagile,An Out of the Box Approach to the Going Dark Problem #blockchain #crypto http://bit.ly/1QhpO1v,1,0,0,False
387,Robyn Greene@Robyn_Greene,.@benjaminwittes #crypto idea = coerce companies to not use crypto & massively harm users while helping criminals http://ow.ly/XYY8Z,1,0,0,False
388,Passive Income@PassiveIncoming,"@FX_Training_Grp Really digging some these FREE BITCOIN FAUCETS!
http://freecryptofaucets.com
#cryptofaucets #bitcoin #altcoin #cryptocurrency",0,0,0,False
389,Sleeping Horse #BRG@Hunting_Bitcoin,Claim your free Doge Coin every one hour just at http://freedoge.co.in/?r=314242 claim up to 900k doge coin #faucet #altcoin,0,0,0,False
390,CryptoRSS@CryptoRSS,"Bitcoin Price Breaks Upside; 400 Upside Target: Sometimes, when we publish or analysis, things go wron... http://bit.ly/20woSkF #crypto",0,0,0,False
391,HYPER Crypto@HyperCrypto,See all the $HYPER supported game servers at: http://hypercrypto.com/?K5Z #gaming #cryptocurrency #bitcoinImgurimgur.com,2,4,0,False
392,coinOK@coinok,Win $150 in Dogecoins every hour! http://freedoge.co.in/?r=98385 #doge #dogecoin #btc #bitcoin #ltc #altcoin #cryptocurrency,0,0,0,False
393,TheAKALoLiger2002@TheLiger2002,"Yes, #eth is nothing but whales manipulation on fake volume and fake walls just like the old #bittrex game. #altcoin #scam #fake #bitcoin",1,0,0,False
394,The Crypto World@TheCryptoWorld,#Digibyte is actually rank 33th on @coinofview with a market cap of 918k$! @DigiByteCoin $DGB #CryptoCurrency #Altcoin #Bitcoin,1,0,0,False
395,Bitcoin Hourly@bitcoin_hourly,"Price Update: 1 #Bitcoin = $388.8900

#cryptocurrency source http://yhoo.it/1PH2nON (via @Flutter_HQ)",0,0,0,False
396,Bohdan Zabawskyj@bzaba,The State of #Bitcoin and #Blockchain in 2016. http://bit.ly/1nRux3w #cryptocurrency #cryptoconomy,1,0,0,False
397,zweispace@zweispace,#Fintech #crypto #Bitcoin #blockchain Residence . Stay for 1 Bitcoin in the biggest city Tokyo! order at #zweispace http://zweispace.com/bitcoin-residence/…,0,0,0,False
398,zweispace@zweispace,#Bitcoin Residence . Stay for 1 Bitcoin in the biggest city Tokyo!  Order through #Crypto friendly #zweispace http://zweispace.com/bitcoin-residence/…,0,0,0,False
399,Serg Serg@toropsss1,"Yes, #eth is nothing but whales manipulation on fake volume and fake walls just like the old #bittrex game. #altcoin #scam #fake #bitcoin",0,0,0,False
400,Julia Vaingurt@julia_vaingurt,"miracle-bust-scam http://cur.lv/v1ui2
#bitcoin #cryptocurrency #altcoins #dogecoin #freebitcoin",0,0,0,False
401,China BTC trader@BITCOIN_Forex,miracle-bust-scam http://ift.tt/20wgH81 #bitcoin #cryptocurrency #altcoins #dogecoin #freebitcoin,0,0,0,False
402,Julia Vaingurt@julia_vaingurt,"Terrorists not Using Bitcoin? Politicians Want to Regulate It Anyway
http://cur.lv/v1ugb
#btc #crypto #politics #terrorists #finance",0,0,0,False
403,rssbtc.com@rssbtc,"Terrorists not Using Bitcoin? Politicians Want to Regulate It Anyway
http://bit.ly/1NTS0pt
#btc #crypto #politics #terrorists #finance",1,1,0,False
404,"Cryptocurrency, yo.@BitcoinYo",miracle-bust-scam http://ift.tt/20wgH81 #bitcoin #cryptocurrency #altcoins #dogecoin #freebitcoin,0,0,0,False
405,Bulls & BRRRRRRRRRRs@bllsnbrs,"Single tradeable object asset. #NXT has it!
http://nxter.org/nxt-1-7-4-hardfork-update-immediately/…
$nxt #bitcoin #innovative #altcoin #fintech #updateyournxt #hardfork",2,1,0,False
406,YouSee@youseethedj,Replying to @youseethedj@Crypt0Trader will #cryptos #altcoins #encryption help assist in the #Anonymous future of whistle blowing? #ASSANGE #RT #veritas #mandax,1,0,0,False
415,hafid Madrid@hafidMadrid12,"Yes, #eth is nothing but whales manipulation on fake volume and fake walls just like the old #bittrex game. #altcoin #scam #fake #bitcoin",0,0,0,False
416,NameBrandAmbassador@TopAmbassador,"@jaimebermejocm I just got HOOKED UP! http://freecryptofaucets.com
#free #bitcoin #cryptocurrency #freebie #money",1,0,0,False
417,Coin Tiny@CoinTiny,The Blockchain Explained #CryptoCurrency #Crypto,0,0,0,False
418,Wheel of Doge@WheelofDoge,"Learn more about the history of #Dogecoin! Such timeline, very #crypto
http://dogecointimeline.com",3,3,0,False
419,Bitcoin PromoX@Bitcoin_PromoX,Should BTM Companies Offer Altcoins In Their ATMs? http://cointelegraph.com/news/should-btm-companies-offer-altcoins-in-their-atms… #cryptocurrency #bitcoin #altcoin,1,0,0,False
420,Vishal Sharma@vishne0,Choosing safe curves for elliptic-curve cryptography #crypto #infosec https://safecurves.cr.yp.to/rigid.html,0,0,0,False
421,mustafau@mustafaumutakc3,"Yes, #eth is nothing but whales manipulation on fake volume and fake walls just like the old #bittrex game. #altcoin #scam #fake #bitcoin",0,0,0,False
422,NE Patriots Dynasty@NEPatsDynasty,Gold & #Crypto-Currency in one clever system. Join the Digital Currency Revolution and turn your #PROFITS into GOLD http://dld.bz/dARdH,0,0,0,False
423,Denny McEnroe@McEnroeDenny,Re: Why do Atheists hate Religion ? http://cur.lv/v1tea #bitcoin #crypto,0,0,0,False
424,Denny McEnroe@McEnroeDenny,"Re: Bitmain Antminer S1, CONNECTION TIMED OUT!!! http://cur.lv/v1te7 #bitcoin #crypto",0,0,0,False
425,Denny McEnroe@McEnroeDenny,Re: Which one is more profitable? Skill-based games or Lucky-based games? http://cur.lv/v1te6 #bitcoin #crypto,0,0,0,False
426,Denny McEnroe@McEnroeDenny,Re: Your first bitcoins came from.. (faucets aside) http://cur.lv/v1te5 #bitcoin #crypto,0,0,0,False
427,Denny McEnroe@McEnroeDenny,Re: paypal or bitcoin? http://cur.lv/v1te4 #bitcoin #crypto,0,0,0,False
428,Denny McEnroe@McEnroeDenny,Re: How can we encourage local businesses to accept BTC? http://cur.lv/v1tai #bitcoin #crypto,0,0,0,False
429,Denny McEnroe@McEnroeDenny,Re: Coinmine.io will open saturday http://cur.lv/v1tah #bitcoin #crypto,0,0,0,False
430,Denny McEnroe@McEnroeDenny,Re: ➫ ➬ LuckyBit Twitter Campaign ★ HIGH RATES ★ Up to 0.03 BTC per week! ★ OPEN ★ http://cur.lv/v1tag #bitcoin #crypto,0,0,0,False
431,HYPER Crypto@HyperCrypto,Favorite #MMA @jonfitchdotnet #jonfitch is a #crypto #bitcoin $HYPER Supporter  Thanks Jon!  #esports #GoJonFitchImgurimgur.com,3,1,0,False
432,(Evil Nit-Picker)² @evil_nit_picker,"#Crypto Wars 3.0: #Verfassungsschutzchef fordert #Hintertüren in #Krypto-#Messengern --> http://heise.de/security/meldung/Crypto-Wars-3-0-Thueringens-Verfassungsschutzchef-fordert-Hintertueren-in-Krypto-Messengern-3095311.html… #security #MEGAfailCrypto Wars 3.0: Thüringens Verfassungsschutzchef fordert Hintertüren in Krypto-MessengernSicherheitsbehörden können Chats auf Diensten wie Threema nicht umfassend überwachen, beklagt Thüringens Verfassungsschutzchef. Deswegen müsse geklärt werden, wie Behörden Zugriff bekommen und...heise.de",0,0,0,False
436,Julia Vaingurt@julia_vaingurt,"The state of fintech #industry as we know it [infographic] #bitcoin #crypto #cryptocurrency http://cur.lv/v1t4b
http://cur.lv/v1t4c",0,0,0,False
437,PumpingAltcoin@PumpingAltcoin,"#Altcoin News and #Pump Tips is out! http://paper.li/PumpingAltcoin/1399763175?edition_id=b6f4e9a0-cbf8-11e5-a5cc-0cc47a0d1609… #Freebitcoin #Crypto #BTC #Mintpal Stories via @bryan8winter @theymakedesign#Cryptocurrency #altcoin news dailyInterested in a 24/7 automatic bitcoin and altcoin passive income every day? Have you ever heard about GUNBOT, the fully automated crypto currency trading bo... by PumpingAltcoinpaper.li",0,0,0,False
438,Alberto Davidson@twisted__nerve,"RT 19 #Bitcoin #Startups That Won't Let the #Cryptocurrency Die
#fintech LetsTalkPaymnts http://bit.ly/1PaKWsH … https://twitter.com/andi_staub/status/695562314712510464…This Tweet is unavailable.",0,0,0,False
439,classe TE@ClasseTe,Visite incroyable ce matin en classe. #twittclasse #defi,1,1,0,False
440,Team 300FPS ︻╦̵̵̿╤─@300FPSGAMING,Private Retreat to Unite Bitcoin Execs for Scaling Debate http://btcf.co/1PEwF9c #bitcoin #bitcoinnews #btc #cryptocurrency,1,1,0,False
441,Cibo@AcidRampage,Choosing safe curves for elliptic-curve cryptography #crypto #infosec https://safecurves.cr.yp.to/rigid.html,4,4,0,False
442,Julia Vaingurt@julia_vaingurt,"#Bitcoin price technical analysis for 28/12/2015 – watch these resistances #crypto http://cur.lv/v1rgx
http://cur.lv/v1rgz",0,0,0,False
443,ALL Sports Live TV@alllivetvfree,"Yes, #eth is nothing but whales manipulation on fake volume and fake walls just like the old #bittrex game. #altcoin #scam #fake #bitcoin",1,0,0,False
444,Alejandro Sewrjugin@alesew23,#Bitcoin Private Retreat to Unite Bitcoin Execs for Scaling Debate http://bit.ly/1L2yF5q #Tech #Crypto,0,0,0,False
445,HashGoal #@HashGoal_Pool,Added $FRN $MND $NEOS $SWING $KATZ $QTL to mining pool. #scrypt #x11 #sha256 @miningrigrental #bitcoin #litecoin #cryptocurrency,1,0,0,False
446,Coin Tiny@CoinTiny,Grab your giveaway before it to late! #CryptoCurrency #Crypto,0,0,0,False
447,Julia Vaingurt@julia_vaingurt,"Account control: multi-signature? #NXT has it!
http://cur.lv/v1r60
$nxt #bitcoin #innovative #altcoin #fintech #updateyournxt #hardfork",0,0,0,False
448,Bulls & BRRRRRRRRRRs@bllsnbrs,"Account control: multi-signature? #NXT has it!
http://nxter.org/nxt-1-7-4-hardfork-update-immediately/…
$nxt #bitcoin #innovative #altcoin #fintech #updateyournxt #hardfork",3,3,0,False
449,jokl@JoklZuxojat,StealthCoin is #1 Cryptocurrency https://twitter.com/StealthCoin #altcoins #sexy #girl #woman #iphone #ipad http://pbs.twimg.com/media/CGMi4_UUUAAXn0W.png…,0,0,0,False
450,Team 300FPS ︻╦̵̵̿╤─@300FPSGAMING,Bitcoin Casino BetCoin Launches Tor Enabled Anonymous E-Gambling on http://btcf.co/1PWEdjc #bitcoin #bitcoinnews #btc #cryptocurrency,0,0,0,False
451,Bitcoin Hourly@bitcoin_hourly,"Price Update: 1 #Bitcoin = $385.7600

#cryptocurrency source http://yhoo.it/1PH2nON (via @Flutter_HQ)",0,0,0,False
452,Travis Ebel@travisebel,"Top #Cryptocurrency Info - http://paper.li/travisebel/1437785689?edition_id=9fb9b130-cbee-11e5-b9fb-0cc47a0d164b… by @mundobtc @Karmacrypto @Jake__WiserBlockchain, Bitcoin, and Cryptocurrency NewsA selection of articles, blog posts, videos and photos recommended by Travis Ebelpaper.li",1,1,0,False
454,International CCC@Int_CCC,Today's Crypto Chronicle! News about #bitcoin #cryptocurrency and more! http://paper.li/Int_CCC/1409392381?edition_id=6aadfaf0-cbee-11e5-9e3d-002590a5ba2d… Articles thanks to @BitcoinMad,0,0,0,False
455,Denny McEnroe@McEnroeDenny,Re: What's your opinion of gun control? http://cur.lv/v1qq4 #bitcoin #crypto,0,0,0,False
456,Denny McEnroe@McEnroeDenny,Re: FREE Virtual Bitcoin Card From E-Coin http://cur.lv/v1qq3 #bitcoin #crypto,0,0,0,False
457,Denny McEnroe@McEnroeDenny,Re: It is Buy time! http://cur.lv/v1qq2 #bitcoin #crypto,0,0,0,False
458,Denny McEnroe@McEnroeDenny,Re: [ANN][MINT] Mintcoin - New Wallet  v2.0.1.0 - CPU & Bandwidth Optimization http://cur.lv/v1qq1 #bitcoin #crypto,0,0,0,False
459,CryptoRaptor@Cryptopoly,Here's why #Europe is about to crack down on #Bitcoin #anonymity via @FortuneMagazine http://for.tn/1UJb3s2 #btc #crypto #cryptocurrency,0,0,0,False
460,Denny McEnroe@McEnroeDenny,"Re:  HYPERGEN | PSN, Hulu, UFC, WWE, Netflix, Spotify, MC! | 50+ Types! http://cur.lv/v1qhc #bitcoin #crypto",0,0,0,False
461,Emre Yılmaz@emrecan27444,#scam #altcoin is #startcoin with 27 million premined while giving out 10/20 to hype #CROOK of #crypto #bitcoin #btc #litecoin goo.gl,0,0,0,False
462,Denny McEnroe@McEnroeDenny,Re: Is their any safe methods to gamble? http://cur.lv/v1qh9 #bitcoin #crypto,0,0,0,False
463,Denny McEnroe@McEnroeDenny,Re: Pictures from Russia.  NSFW!!! http://cur.lv/v1qh8 #bitcoin #crypto,0,0,0,False
464,Denny McEnroe@McEnroeDenny,Re: i hope i can much learn about bitcoin http://cur.lv/v1qh7 #bitcoin #crypto,0,0,0,False
465,Denny McEnroe@McEnroeDenny,Re: Gambling can be profitable in the long run! It is possible! http://cur.lv/v1qh6 #bitcoin #crypto,0,0,0,False
466,Nick Arcovio@arcovio_3,"Yes, #eth is nothing but whales manipulation on fake volume and fake walls just like the old #bittrex game. #altcoin #scam #fake #bitcoin",1,0,0,False
476,Emre Yılmaz@emrecan27444,"Yes, #eth is nothing but whales manipulation on fake volume and fake walls just like the old #bittrex game. #altcoin #scam #fake #bitc",0,0,0,False
477,CryptoRaptor@Cryptopoly,#Blockstream #Investors See Commercial Use Cases for #Bitcoin #Blockchain http://coinde.sk/1QfAo9c via @CoinDesk #crypto #cryptocurrency,0,0,0,False
478,Gabor Venczel@ujtrend,"Digital Asset Funding Tops $60 Million With IBM, Goldma #cryptocurrency, bitcoin, octacoin, http://webogi.com/EKaVfx",0,0,0,False
479,Damon Salvatore@hinraell2,"Yes, #eth is nothing but whales manipulation on fake volume and fake walls just like the old #bittrex game. #altcoin #scam #fake #bitcoin",1,0,0,False
480,Bulls & BRRRRRRRRRRs@bllsnbrs,"One minute average block time? #NXT has it!
http://nxter.org/nxt-1-7-4-hardfork-update-immediately/…
$nxt #bitcoin #innovative #altcoin #fintech #updateyournxt #hardfork",1,2,0,False
481,CryptoRSS@CryptoRSS,Here's How To Protect Against A Ransomware Attack: Recovering data encrypted by a ransomware attack is... http://bit.ly/1SO69Lp #crypto,0,0,0,False
482,Team 300FPS ︻╦̵̵̿╤─@300FPSGAMING,"Some Sanctions Still Apply to Iran, Posing Legal Problems for Bitcoin http://btcf.co/1Ku3yF6 #bitcoin #bitcoinnews #btc #cryptocurrency",0,0,0,False
483,Pranesh Prakash@pranesh,"""Cryptopolitik & the Darknet"": @RidT & @ILDannyMoore's must-read paper on #crypto & #Tor Hidden Services: http://tandfonline.com/doi/full/10.1080/00396338.2016.1142085#abstract… #anonymityCryptopolitik and the Darknet(2016). Cryptopolitik and the Darknet. Survival: Vol. 58, No. 1, pp. 7-38.tandfonline.com",11,13,1,False
484,Decentrali$ed Money@Decentralised_M,Banks Must Partner with #Fintech and Digital Currency Businesses https://goo.gl/VRtm2k #bitcoin #cryptocurrency,1,0,0,False
485,First For Bitcoin@1stForBitcoin,Get your $50 FREE NOW! http://bit.ly/1lsdPWv #bitcoin #freebitcoin #btc #money #cryptocurrency #crypto #faucet,0,0,0,False
486,HYPER Crypto@HyperCrypto,New $HYPER game servers competitions go to https://cashncarry.info/servers?qleIs :) #gaming #bitcoin #cryptocurrencyImgurimgur.com,2,3,0,False
487,Julia Vaingurt@julia_vaingurt,"Train technicians ensuring safe journey home http://cur.lv/v1pla
#bitcoin #cryptocurrency",0,0,0,False
488,OpenLedger@OpenLedgerDC,"#Bitshares Fiat #Gateway on #CCEDK to #BITUSD #BITEUR #bitshares #BTS #crypto https://bitsharestalk.org/index.php/topic,16736.0.html… … … … @_bitshares @CryptoOz #finance",2,0,0,False
489,LocalDayz@localdayz,Pool looking for a community manager. Use http://laintimes.com/contact/ for join US. #cryptocurrency,0,0,0,False
490,Crypto Yoyo@cryptoyoyo,Simplex Offers Bitcoin Exchanges Risk-Free Credit Card Purchase Solution http://bit.ly/1SO0HrT #bitcoin #crypto #news,0,0,0,False
491,Crypto Yoyo@cryptoyoyo,Simplex launches to allow people to buy bitcoin via credit cards http://bit.ly/1SO0Ewj #bitcoin #crypto #news,0,0,0,False
492,Crypto Yoyo@cryptoyoyo,Bitcoin Can Benefit From New Visa Developer Platform http://bit.ly/1PWvVb0 #bitcoin #crypto #news,0,0,0,False
493,Fintech Prowler@FintechProwler,Simplex launches to allow people to buy bitcoin via credit cards - The Merkle (blog) http://ift.tt/1nRdD54 #altcoin,0,0,0,False
494,The Perfect Coin@theperfectcoin,#Capricoin 9 months after inception #10 in the world. #cryptocurrency #blockchain #fintech https://worldcoinindex.com,2,0,0,False
495,Team 300FPS ︻╦̵̵̿╤─@300FPSGAMING,Simplex Offers Bitcoin Exchanges Risk-Free Credit Card Purchase Solution http://btcf.co/1VTvJOi #bitcoin #bitcoinnews #btc #cryptocurrency,1,0,0,False
496,bitcoinhunters@bitcoinhunterss,Join the trusted cloud mining that pay until today! http://bit.ly/1mgVHQj #bitcoin #cryptocurrency,0,0,0,False
497,NE Patriots Dynasty@NEPatsDynasty,@wealth Creation The concept of #money http://ilgamosilcoin.com/ilgamos-ilcoin.html… check it out. The Future of Money. #Crypto #Bitcoin,0,0,0,False
498,reddibrek@reddibrek,Building the reddiverse! Go @ink_redd! #reddcoin #cryptocurrency @Oliver_Redd @ReddcoinRocks,6,5,0,False
499,SportMr@SportMr,"Yes, #eth is nothing but whales manipulation on fake volume and fake walls just like the old #bittrex game. #altcoin #scam #fake #bitcoin",1,0,0,False
500,Veritrader@VeriTrader,"@Vericoin set to move higher...
$vrc #crypto #bitcoin",2,1,0,False
501,Eng Aseam Khalil@AseamEng,"Yes, #eth is nothing but whales manipulation on fake volume and fake walls just like the old #bittrex game. #altcoin #scam #fake #bitcoin",1,1,0,False
502,Jason Mutual Willard@jkw_iii,Replying to @prestonjbyrne@prestonjbyrne I don't get #crypto being co-opted by the Borg. (İBM etux).,0,0,0,False
503,Denny McEnroe@McEnroeDenny,Re: How do you earn a lot of free bitcoins fast? http://cur.lv/v1nzc #bitcoin #crypto,0,0,0,False
504,Denny McEnroe@McEnroeDenny,Re: ★★★ GameCredits - The future of in-game monetization ★★★ http://cur.lv/v1nzb #bitcoin #crypto,0,0,0,False
505,Denny McEnroe@McEnroeDenny,Re: CRYPTSY stopping withdraw locking accounts without notifying users! Class Action http://cur.lv/v1nza #bitcoin #crypto,0,0,0,False
506,Denny McEnroe@McEnroeDenny,Re: Which is most active escrow on this forum? http://cur.lv/v1nz9 #bitcoin #crypto,0,0,0,False
507,Magda Borowik@magdaborowik,Blockshit bingo! http://bit.ly/1SFFB08 #blockchain #crypto #bitcoin #fintech,1,1,0,False
509,Null TX@nulltxnews,Simplex launches to allow people to buy bitcoin via credit cards http://goo.gl/I2VBKZ #bitcoin #bitcoinnews #btc #cryptocurrency,1,1,0,False
515,Crypto Yoyo@cryptoyoyo,"The Deep Web, darknets, Bitcoin and brand protection http://bit.ly/1S4vQbN #bitcoin #crypto #news",0,0,0,False
516,davide@ddddaveede,How does a non-prime modulus for Diffie-Hellman allow for a backdoor? http://crypto.stackexchange.com/q/32415/7777?stw=2… #crypto #socat #backdoor,1,0,0,False
517,Null TX@nulltxnews,Bitcoin Can Benefit From New Visa Developer Platform http://goo.gl/BeI8yx #bitcoin #bitcoinnews #btc #cryptocurrency,1,0,0,False
518,Bitcoin Hourly@bitcoin_hourly,"Price Update: 1 #Bitcoin = $384.1100

#cryptocurrency source http://yhoo.it/1PH2nON (via @Flutter_HQ)",0,0,0,False
519,BitcoinBuzz vega9@BitcoinBuzzV9,http://bitcoinbuzz.vega9.com - Hot topics: #anonymous #datasec #bitcoin #cryptocurrency #startupindia #btc,0,0,0,False
520,Julia Vaingurt@julia_vaingurt,"Six ethereum projects and its five competitors #bitcoin #crypto #cryptocurrency http://cur.lv/v1mrx
http://cur.lv/v1mry",1,0,0,False
521,banana@savebhumish,"Yes, #eth is nothing but whales manipulation on fake volume and fake walls just like the old #bittrex game. #altcoin #scam #fake #bitcoin",0,0,0,False
522,Prathamesh Bhosale@PB_Prathamesh_B,Judge Sentences Silk Road Administrator; Corrupt Agent Gets Rearrested https://cryptocoinsnews.com/judge-sentences-silk-road-administrator-corrupt-agent-gets-rearrested/… #cryptocurrency,0,0,0,False
523,CCN - Capital & Celeb News@CapitalAndCeleb,Judge Sentences Silk Road Administrator; Corrupt Agent Gets Rearrested https://cryptocoinsnews.com/judge-sentences-silk-road-administrator-corrupt-agent-gets-rearrested/… #cryptocurrency,1,0,0,False
524,Julia Vaingurt@julia_vaingurt,"German socialist democrats’ proposed war on #cash will not affect #bitcoin #crypto http://cur.lv/v1lsa
http://cur.lv/v1lsb",1,0,0,False
525,bitcoinblackjack@btcblackjack,BitcoinMad: Bitcoin Casino BetCoin Launches Tor Enabled Anonymous E-Gambling on Darknet http://bit.ly/1VTgNzK #bitcoin #crypto #news,0,0,0,False
526,rssbtc.com@rssbtc,"Bitcoin Mixing Services Were Never Meant to Be A Part of Digital Currency http://bit.ly/1T1Tp5g
#btc #bitcoin #digitalcurrency #crypto",2,1,0,False
527,Евдоким Лындин@osseKluge,Hi @Marca_Madrid_.Are you tired of risking and losing money?Passive Income https://goo.gl/vZNiSA #crypto #ff via http://uapp.ly,0,0,0,False
528,Раб Божий@Diener_Gottes,"#NXT Announces Version 1.7.4!: NXT is one of Bitcoins biggest #altcoin competitors, quickly… http://goo.gl/fb/YVSlu3",1,0,0,False
529,AndrewSymond@andrewsimond2,"Yes, #eth is nothing but whales manipulation on fake volume and fake walls just like the old #bittrex game. #altcoin #scam #fake #bitcoin",0,0,0,False
531,DMAFinTech@DMAFinTech,WTF is blockchain? How to send #cryptocurrency and keep it safe. http://dataconomy.com/wtf-is-the-blockchain-cryptocurrency/… #FinTech #cybersecurity,0,0,0,False
533,Crypto Yoyo@cryptoyoyo,Bitcoin Casino BetCoin Launches Tor Enabled Anonymous E-Gambling on Darknet http://bit.ly/1VTgNzK #bitcoin #crypto #news,0,0,0,False
534,Crypto Yoyo@cryptoyoyo,Bitcoin Technical Analysis 2/5/16 – end of the week pump http://bit.ly/1SNMYkW #bitcoin #crypto #news,0,0,0,False
535,BitcoinTalkRadio.com@btctalkradio,Listen to @BitcoinsNGravy Every Sunday morning @ 11Am on http://Btctalkradio.com #bitcoin #interviews #music #crypto,1,1,0,False
536,NE Patriots Dynasty@NEPatsDynasty,"ILGamos 4 in 1 Trading Platform goes live #Crypto #Money #stocks #Gold 
NEW ILCOIN JOIN FREE Click here http://buygold.ilgamos.com/buy?buy_type=1",0,0,0,False
537,PinkMona@pinkmona_org,#bitcoin #altcoin #dogecoin Let's Hentai! Come on PinkMona!→http://pinkmona.org,0,0,0,False
538,BlockChannel@BlockChannel,"BCN News: bitcoinist ""NXT Announces Version 1.7.4! http://ift.tt/1R8vorY #bitcoin #bitcoinnews #btc #cryptocurrency #altcoins # money #f…",0,0,0,False
540,Bitcoinist.com@bitcoinist,NXT Announces Version 1.7.4! http://ift.tt/1R8vorY #bitcoin #bitcoinnews #btc #cryptocurrency #altcoins # money #freebitcoin,1,1,0,False
541,Team 300FPS ︻╦̵̵̿╤─@300FPSGAMING,NXT Announces Version 1.7.4! http://btcf.co/1PmPXfz #bitcoin #bitcoinnews #btc #cryptocurrency,0,0,0,False
542,osint-crew@OsintCrew,Year-old #crypto flaw in Socat created a potentially intentional #backdoor - http://bit.ly/1P8upFC via @helpnetsecurity,0,0,0,False
543,YOᗪI ᕼEᖇᗰᗩᗯᗩᑎ@YodiHermawan,#NXT Announces Version 1.7.4!: NXT is one of Bitcoins biggest #altcoin competitors… http://goo.gl/fb/dQs1Jp #vk,0,0,0,False
544,rssbtc.com@rssbtc,"Is it worth Mining Bitcoin yourself or with a Mining Contract – Beware of Scams! - http://bit.ly/1KtPBqx
#bitcoin #crypto #btc #mining",0,0,0,False
545,Bitcoin Hourly@bitcoin_hourly,"Price Update: 1 #Bitcoin = $383.2900

#cryptocurrency source http://yhoo.it/1PH2nON (via @Flutter_HQ)",0,0,0,False
546,BitcoinBuzz vega9@BitcoinBuzzV9,http://bitcoinbuzz.vega9.com - Hot topics: #anonymous #panama #bitcoin #cryptocurrency #startupindia #btc,0,0,0,False
547,HYPER Crypto@HyperCrypto,We now have a rock solid foundation & team and 2016 $HYPER is going to be huge. #indiedev #indiegamer #gamerdev #cryptocurrency #bitcoin,3,3,0,False
548,Denny McEnroe@McEnroeDenny,Re: [New] What is a Sig Campaign? http://cur.lv/v1jxk #bitcoin #crypto,0,0,0,False
549,Denny McEnroe@McEnroeDenny,Re: http://BitcoinTalkRadio.com - Is up and running !! Come listen anytime!! http://cur.lv/v1jxh #bitcoin #crypto,0,0,0,False
550,Denny McEnroe@McEnroeDenny,Re: CRYPTSY stopping withdraw locking accounts without notifying users! Class Action http://cur.lv/v1jxe #bitcoin #crypto,0,0,0,False
551,Denny McEnroe@McEnroeDenny,Re: Estranged Core Developer Gavin Andresen Finally Makes Sensible 2MB BIP Proposal! http://cur.lv/v1jxc #bitcoin #crypto,0,0,0,False
552,Denny McEnroe@McEnroeDenny,Re: Just created a bitcoin blog http://cur.lv/v1jxa #bitcoin #crypto,0,0,0,False
553,Prathamesh Bhosale@PB_Prathamesh_B,Bitcoin Exchange Kraken Secures Investment from Japan’s Leading VC Firm https://cryptocoinsnews.com/bitcoin-exchange-kraken-secures-investment-from-japans-leading-vc-firm/… #cryptocurrency,0,0,0,False
555,CCN - Capital & Celeb News@CapitalAndCeleb,Bitcoin Exchange Kraken Secures Investment from Japan’s Leading VC Firm https://cryptocoinsnews.com/bitcoin-exchange-kraken-secures-investment-from-japans-leading-vc-firm/… #cryptocurrency,5,5,0,False
556,CryptoRSS@CryptoRSS,Dell Adds BIOS Verification Technology to Business PCs: Dell announced the availability of a new enter... http://bit.ly/1obEBUT #crypto,0,0,0,False
557,Crypto Yoyo@cryptoyoyo,Is it worth Mining Bitcoin yourself or with a Mining Contract - Beware of Scams! http://bit.ly/1QgSurE #bitcoin #crypto #news,0,0,0,False
563,Alejandro Reyes@Alex69Rey,"Buy into StealthCoin and making 100x your money. XST is a cheap altcoin lst #altcoin #bitcoin @stealthcoin
http://goo.gl/0WcTnq",0,0,0,False
564,bitcoinblackjack@btcblackjack,BTC4worldpeace: RT BitcoinzMan: Mbit casino: player wins #bitcoin worth $119k on dragon king slot #crypto #cryptoc… https://pic.twitter.com/KvNV4AipRv,0,0,0,False
565,rssbtc.com@rssbtc,"Chilean Bitcoin Exchange SurBTC Raises $300k - http://bit.ly/1KtPoDX
#funding #bitcoin #echange #finance #blockchain #cryptocurrency",1,1,0,False
566,bitcoinblackjack@btcblackjack,btcblackjack: btcblackjack: BitcoinzMan: Mbit casino: player wins #bitcoin worth $119k on dragon king slot #crypto… https://pic.twitter.com/KvNV4AipRv,0,0,0,False
567,Julia Vaingurt@julia_vaingurt,"BNY Exec: Lack of Industry Standards Hurting Blockchain #cryptocurrency, bitcoin, octacoin, http://cur.lv/v1iag
http://cur.lv/v1iaj",0,0,0,False
568,Gabor Venczel@ujtrend,"BNY Exec: Lack of Industry Standards Hurting Blockchain #cryptocurrency, bitcoin, octacoin, http://webogi.com/LOyvwF",0,0,0,False
569,NE Patriots Dynasty@NEPatsDynasty,HERE IT IS. The Next #Crypto #Currency #Bitcoin. It is called #ILCoin Join FREE Today. Click here http://buygold.ilgamos.com/buy?buy_type=1,1,0,0,False
570,Bitcoin Hourly@bitcoin_hourly,"Price Update: 1 #Bitcoin = $385.9300

#cryptocurrency source http://yhoo.it/1PH2nON (via @Flutter_HQ)",0,0,0,False
571,XBTFreelancer.com@XBTFreelancer,#marketing http://xbtfreelancer.com/prj/846/digi-dawncom-an-opportunity… #job #money #cryptocurrency #bitcoin http://Digi-Dawn.com an opportunity,0,0,0,False
572,BitcoinBuzz vega9@BitcoinBuzzV9,http://bitcoinbuzz.vega9.com - Hot topics: #gameofthrones #panama #bitcoin #robotcoingame #crypto #blockchain,0,0,0,False
573,druid andrew@andyypants,So i have 2 jobs to work from home calling ppl wow so perfect for #crypto trader. Its like free money in that boring time waiting between tr,1,0,0,False
574,Johannes Tschesche@smallcapservice,"#Bitcoin, #Blockchain, the SEC and #Equity #Crowdfunding
http://newsbtc.com/2016/02/04/bitcoin-blockchain-the-sec-and-equity-crowdfunding/… #Crowdinvesting #cryptocurrency #Schwarmfinanzierung",0,0,0,False
575,8th@8th_Dev,"Convert a buffer to a number (in 8th)
https://lnkd.in/e8Y98Di
#8thdev #encryption #programming #crossplatform #coding #crypto #forth",0,0,0,False
576,bitcoinblackjack@btcblackjack,btcblackjack: BitcoinzMan: Mbit casino: player wins #bitcoin worth $119k on dragon king slot #crypto #cryptocurren… https://pic.twitter.com/KvNV4AipRv,0,0,0,False
577,Satoshi Hoard@satoshi_hoard,We have restored the balance in our #bitcoinfaucet http://satoshihoard.com and http://satoshihoard2.com! #faucetbox #bitcoin #cryptocurrency,0,0,0,False
578,LoveplusBitcoin@loveplusbitcoin,"Bitcoin Price Breaks Above Resistance
 http://ow.ly/XYjQc #bitcoin #cryptocurrency",0,0,0,False
579,bitcoinblackjack@btcblackjack,BitcoinzMan: Mbit casino: player wins #bitcoin worth $119k on dragon king slot #crypto #cryptocurrency … https://pic.twitter.com/KvNV4AipRv,0,0,0,False
580,Denny McEnroe@McEnroeDenny,Re: why would i like bitcoin? http://cur.lv/v1gv0 #bitcoin #crypto,0,0,0,False
581,Denny McEnroe@McEnroeDenny,Re: Bitcointalk Signature-Ad Campaigns http://cur.lv/v1gux #bitcoin #crypto,0,0,0,False
596,OpenLedger@openledger,Open your #free account on the world's first #decentralised #forex #crypto #currency #exchange https://bitshares.openledger.info/?r=ccedkbts#/create-account… … #OpenLedger #CCEDK,2,0,0,False
597,Crypto Yoyo@cryptoyoyo,Bitcoin Price Technical Analysis for 05/02/2016 - Bulls Regaining Control! http://bit.ly/1UPB4pG #bitcoin #crypto #news,0,0,0,False
598,Primechain@primechaintech,Bank of America Drawing up 20 More #Cryptocurrency & #Blockchain Patents - CCN https://cryptocoinsnews.com/bank-of-america-20-more-cryptocurrency-blockchain-patents/…,0,0,0,False
599,Primechain@primechaintech,CureCoin Founder: My #Cryptocurrency Can End All Disease in 100 Years | Finance Magnates http://financemagnates.com/cryptocurrency/interview/curecoin-founder-my-cryptocurrency-can-end-all-disease-in-100-years/…,0,0,0,False
600,Bitcoin Hourly@bitcoin_hourly,"Price Update: 1 #Bitcoin = $385.8300

#cryptocurrency source http://yhoo.it/1PH2nON (via @Flutter_HQ)",0,0,0,False
602,BitcoinBuzz vega9@BitcoinBuzzV9,http://bitcoinbuzz.vega9.com - Hot topics: #gameofthrones #bitcoin #robotcoingame #btc #crypto #blockchain,0,0,0,False
603,Crypto Caleb@cryptocaleb802,Watch the #FutureWealthCreators #cryptocurrency #hangout! We discuss #fintech & #Capricoin > http://bit.ly/1L27BU3,1,0,0,False
604,Crypto Caleb@cryptocaleb802,#Congrats Kathy Kordova for joining the #cryptocurrency #revolution at #Vizionary: http://bit.ly/1QpbGqu #fintech,0,0,0,False
605,Julie Philippon@juliephilippon_,Petits fruits. #flow29jours #beau #bon #défi #défiphoto https://instagram.com/p/BBZEtVotzz9/,0,0,0,False
606,12Joker18@12Joker18,"http://premiumfaucet.xyz/?r=38KoLRp73uegKET1WqUWMK9wg9Gs7CUQcP… 
Win 222 to 3 Million Satoshis Every 60 Seconds! + 80% Referral bonus! #bitcoin #freebitcoin #BTC #crypto",0,0,0,False
612,Prathamesh Bhosale@PB_Prathamesh_B,What Does The Future Look Like Without Cash? https://cryptocoinsnews.com/future-look-like-without-cash/… #cryptocurrency,0,0,0,False
613,Dagmar Sabat@DagmarSabat1,Replying to @CapitalAndCeleb“@CryptoCoinsNews: What Does The Future Look Like Without Cash? https://cryptocoinsnews.com/future-look-like-without-cash/… #cryptocurrency ” ask me!,0,0,0,False
614,Crypto Yoyo@cryptoyoyo,$7.6 Billion P2P Lending Scam Flames Out In China http://bit.ly/1T1D5kS #bitcoin #crypto #news,0,0,0,False
615,Евдоким Лындин@osseKluge,Are you tired of risking and losing money? Passive Income   https://goo.gl/F05p6D   ! #crypto #bitcoin #ff https://pic.twitter.com/2mV8zH3M59,0,0,0,False
616,ShapeShift @ShapeShift_io,Want to allow your customers to pay with #altcoins easily? Check out our #ShiftyButton http://ow.ly/XUJvY,0,0,0,False
617,Liberation Technology@Liberationtech,More Details on the @NSAgov Switching to #Quantum-Resistant #Cryptography | #crypto #techpolicy #cryptopolicy https://schneier.com/blog/archives/2016/02/more_details_on_2.html…,4,1,0,False
618,CCN - Capital & Celeb News@CapitalAndCeleb,What Does The Future Look Like Without Cash? https://cryptocoinsnews.com/future-look-like-without-cash/… #cryptocurrency,1,6,1,False
619,Eiza Gonzalez@eizagonzalez702,"Yes, #eth is nothing but whales manipulation on fake volume and fake walls just like the old #bittrex game. #altcoin #scam #fake #bitcoin",1,0,0,False
620,SushiNoTomato@BitBronze,"BitBronze Exchanges @YobitExchange https://yobit.net/en/trade/BRONZ/BTC…
@YAAMP1 http://safecex.com/market?q=BRONZ/BTC… #BTC #LTC #DOGE #cryptocoin #altcoin #ethereum",0,0,0,False
622,Julia Vaingurt@julia_vaingurt,"#Bitcoin price watch; volatility dominates #crypto #cryptocurrency http://cur.lv/v1eo9
http://cur.lv/v1eof",0,0,0,False
623,Denny McEnroe@McEnroeDenny,Re: Warning : http://FOREXBITS.BIZ http://cur.lv/v1enm #bitcoin #crypto,0,0,0,False
624,Denny McEnroe@McEnroeDenny,Re: Ethereum mining still profitable? http://cur.lv/v1enl #bitcoin #crypto,1,0,0,False
625,Denny McEnroe@McEnroeDenny,Re: Netflix| Spotify| Hulu |BT Sport |Optimum| Lynda and 40+ more http://cur.lv/v1enk #bitcoin #crypto,0,0,0,False
626,Denny McEnroe@McEnroeDenny,Re: What Song are you Listening To? http://cur.lv/v1enj #bitcoin #crypto,0,0,0,False
627,Denny McEnroe@McEnroeDenny,Re: HYIP 102 - Typical scammers playbook http://cur.lv/v1eni #bitcoin #crypto,0,0,0,False
628,Brave New Coin@bravenewcoin,Precision #cryptocurrency marketplace information & #tools http://ow.ly/XtoqN,0,0,0,False
629,Bitcoin Hourly@bitcoin_hourly,"Price Update: 1 #Bitcoin = $387.3300

#cryptocurrency source http://yhoo.it/1PH2nON (via @Flutter_HQ)",0,0,0,False
630,XBTFreelancer.com@XBTFreelancer,#bitcoin #programming http://xbtfreelancer.com/prj/849/need-quick-help-with-wordpress-upload-custom-theme-to-bluehost-installation… Need quick help with Wordpress - Upload custom theme to Bluehost installation #crypto #cash,0,0,0,False
638,BitcoinBuzz vega9@BitcoinBuzzV9,http://bitcoinbuzz.vega9.com - Hot topics: #wallet #bitcoin #btc #cryptocurrency #crypto #money,0,0,0,False
