,user,text,likes,retweets,replies,is_thread
0,Okcash @OkcashCrypto,Congratulations @MrChrisEllis @sambiohazard @gfiroja for being top #crypto community members this week :) (Via http://bit.ly/_free_tweet_via_commun_it…),1,2,0,False
1,CryptoRSS@CryptoRSS,Web Users Must Stay Extra Wary to Fend Off Stealthy 'Malvertising': NEWS ANALYSIS: Computer users have... http://bit.ly/1qeEauu #crypto,1,0,0,False
2,Denny McEnroe@McEnroeDenny,Re: Method for free xbox live 12 month codes http://cur.lv/x24si #bitcoin #crypto,0,0,0,False
3,Denny McEnroe@McEnroeDenny,"Re: [30 PH] ** 5x AVALON6 GIVEAWAY ** Kano CKPool (kano.is) [0.9% PPLNS] US,DE,SG http://cur.lv/x24sh #bitcoin #crypto",0,0,0,False
4,Denny McEnroe@McEnroeDenny,Re: How much can you earn with gambling? http://cur.lv/x24sg #bitcoin #crypto,0,0,0,False
5,Denny McEnroe@McEnroeDenny,Re: Tau-Chain and Agoras Official Thread: Generalized P2P Network http://cur.lv/x24sf #bitcoin #crypto,0,0,0,False
6,Denny McEnroe@McEnroeDenny,Re: Patel's Mining pool (http://patelsminingpool.com) http://cur.lv/x24se #bitcoin #crypto,0,0,0,False
7,Coin Tiny@CoinTiny,Altcoin takes the chinese knockoff approach to garner interest #CryptoCurrency #Crypto,0,0,0,False
8,Howard Fuhs@Hfuhs,#FBI offers #crypto assistance to local cops: “We are in this together” http://fuhs.eu/u78 #cryptowars #privacy,0,0,0,False
9,bigs21024@bigs21024,cant wait to see what $WARP @warpcoin has in store now this coin could easily reach $1 each or more #bitcoin #altcoin #Cryptocurrency,1,0,0,False
10,Altcoin Promotor@AltcoinPromotor,Joining us means wishing you bought more #altcoins before the #pump started. Limited seats available! #rt,1,0,0,False
11,Team 300FPS ︻╦̵̵̿╤─@300FPSGAMING,Bitcoin Technical Analysis for 04/02/2016 – Fundamental Questions http://btcf.co/1V1mNcM #bitcoin #bitcoinnews #btc #cryptocurrency,0,0,0,False
12,JC@Cryptoelite,Crypto Elite News is out! http://paper.li/Cryptoelite/1426551318?edition_id=2cc324f0-f929-11e5-a9d4-0cc47a0d1605… #Bitcoin #Altcoin #Cryptocurrency @coinigy,1,0,0,False
13,Cryptolized™@Cryptolized,Decentralized Tech Could Help with South Af... http://twib.in/l/LGjjrL9XMMR #cryptocurrency | https://twibble.io,0,0,0,False
14,Crypto Yoyo@cryptoyoyo,Ethereum and Bitcoin Are Market Leaders But Not Competitors http://bit.ly/1pV8Vnl #bitcoin #crypto #news,0,0,0,False
20,Crypto Yoyo@cryptoyoyo,Buy bitcoins using Serve2Serve with US Dollar (USD) http://bit.ly/1MKtspg #bitcoin #crypto #news,0,0,0,False
21,VIP Music Promotion@RT2EAT,"Awesome NEW track from 'The Sound Position'
#EDM #cryptocurrency #gamecredits #cypherfunks https://soundcloud.com/soundposition/the-cypherfunks-someone… …Quote TweetThe Sound Position@soundposition · Apr 2, 2016@rt2eat @radiodiego #cryptocurrency #gamecredits #cypherfunks #soundposition #rt2eat #radiodiego My new sounds: https://soundcloud.com/soundposition/the-cypherfunks-someone…",1,1,0,False
22,Kobocoin@kobocoindev,"Yes. Thanks for sharing. We hope to hit more all time highs as the year progresses! #Kobocoin #cryptocurrency #naijaQuote TweetStocks Philippines@philstock · Apr 1, 2016Kobocoin hits all-time high! https://twitter.com/kobocoindev/status/716082746666430464…",1,0,0,False
23,Tech BitCoin@tech_bitcoin,"""Ethereum and Bitcoin Are Market Leaders But Not Competitors"" http://ift.tt/eA8V8J #bitcoin #cryptoEthereum and Bitcoin Are Market Leaders But Not CompetitorsBitcoin and Ethereum can peacefully coexist, and they are competing against something. Yet that something is not each other.newsbtc.com",0,0,0,False
24,OpenFXMarket@OpenFXMarket,#altcoin market index (avg): #OFXAVG 155.78 #SHA 58.44 #SCRYPT 96.84 #QUARK 87.72 #X 15.41 #HYBRID 23.15 Stay tuned! #OFX,0,0,0,False
25,NE Patriots Dynasty@NEPatsDynasty,HERE IT IS. The Next #Crypto #Currency #Bitcoin. It is called #ILCoin Join FREE Today. Click here http://buygold.ilgamos.com/buy?buy_type=1,0,0,0,False
26,Abderraouf Adjal@AbderraoufAdjal,"Two OCB Block #Cipher Mode #Patents Expired Due To Nonpayment - 
https://pthree.org/2016/03/31/two-ocb-block-cipher-mode-patents-expired-due-to-nonpayment… #crypto #cryptography",0,0,0,False
27,Cryptocoin Radar@cryptocoinradar,"vox/btc: +3% value, +8% volume in 1 hour (http://cryptocoinradar.com monitored #trading #altcoin #cryptocoin)",0,0,0,False
28,The Sound Position@soundposition,@rt2eat @radiodiego #cryptocurrency #gamecredits #cypherfunks #soundposition #rt2eat #radiodiego My new sounds:The Cypherfunks - SomeoneFREE DOWNLOAD! Please re-post if you like this song. Thank you for listening!soundcloud.com,34,4,0,False
29,Kevin McConnell@kevinpmcconnell,Bought some #bitcoin in Portland at Pioneer Square! #bitcoinnw #cryptocurrency #portland #oregon… https://instagram.com/p/BDtvwA9t8hz/,2,0,0,False
30,BitcoinAgile@bitcoinagile,MiG-29 Vertical Takeoff Is Jaw-Droppingly Awesome #rimbit #cryptocurrency #altcoin http://damn.com/mig-29-vertical-takeoff-is-jaw-droppingly-awesome…,1,0,0,False
31,Bob Bobert@Bob_Helensburgh,"I want one! http://damn.com/mig-29-vertical-takeoff-is-jaw-droppingly-awesome/… when #rimbit takes off, so will I. #cryptocurrency #altcoin #cooltoys",0,0,0,False
32,Denny McEnroe@McEnroeDenny,Re: DirectBet Ice Hockey Prediction Game *** Win Free Bets ! *** Free to Enter ! http://cur.lv/x22g0 #bitcoin #crypto,0,0,0,False
33,Denny McEnroe@McEnroeDenny,Re: Do you actively spend your bitcoins? http://cur.lv/x22fz #bitcoin #crypto,0,0,0,False
34,Denny McEnroe@McEnroeDenny,Re: coin cloning guide http://cur.lv/x22fx #bitcoin #crypto,0,0,0,False
35,Denny McEnroe@McEnroeDenny,Re: [Hiring: Update 2 ]Data Entry/Captha Work at 0.0001 BTC  for 1 Captha http://cur.lv/x22fv #bitcoin #crypto,0,0,0,False
36,BitcoinBuzz vega9@BitcoinBuzzV9,http://bitcoinbuzz.vega9.com - Hot topics: #bitcoin #btc #blockchain #cryptocurrency #crypto #robotcoingame,0,0,0,False
37,Julia Vaingurt@julia_vaingurt,"Ethereum clim#bing 1000 percent over the last three months #bitcoin #crypto #cryptocurrency http://cur.lv/x2241
http://cur.lv/x2242",1,0,0,False
38,Julia Vaingurt@julia_vaingurt,"Fintech digitally disrupting financial world [infographic] #bitcoin #crypto #cryptocurrency http://cur.lv/x221q
http://cur.lv/x221s",3,2,0,False
39,Purism@Puri_sm,"Yes, @crowd_supply will take #Bitcoin. #CryptocurrencyQuote TweetJohn Gerryts@phonikg · Apr 2, 2016Replying to @Puri_sm@Puri_sm I forget if I have asked before, can I pay with crypto-currency?",3,0,0,False
48,CCN - Capital & Celeb News@CapitalAndCeleb,Canadian Bitcoin Exchange CoinTrader Shuts Down https://cryptocoinsnews.com/bitcoin-exchange-cointrader-shutdown/… #cryptocurrency,2,9,1,False
49,Julia Vaingurt@julia_vaingurt,"The top 10 biggest names in #bitcoin and #blockchain #industries #crypto #cryptocurrency http://cur.lv/x21n2
http://cur.lv/x21n4",0,0,0,False
50,HOdlModstache@HOdlModstache,"@HOdlcoin now has 3 pools! https://hodl.suprnova.cc
https://hodl.blockquarry.com https://hodl.maxminers.net #Cryptocurrency #Altcoin",1,1,0,False
51,Golden Gateway@GoldenGatewayUS,Remember to like us on FB at http://facebook.com/officialgoldengateway… #bitcoin news and #cryptocurrency updates (FREE Automation >> http://bit.ly/free_twitter_automation…),0,0,0,False
52,Cryptocoin Radar@cryptocoinradar,"diem/btc: +33% value, +1127% volume (http://cryptocoinradar.com monitored #trading #altcoin #cryptocoin)",0,0,0,False
53,Julia Vaingurt@julia_vaingurt,"Industry speaks out as coindesk's text size turmoil continues #bitcoin #crypto http://cur.lv/x20y9
http://cur.lv/x20ya",0,0,0,False
54,Crypto Yoyo@cryptoyoyo,Andreas Antonopoulos On The Non-existent Bitcoin Demise http://bit.ly/1pUUvUl #bitcoin #crypto #news,0,0,0,False
55,John F. McClure@johnmcclure00,FBI offers crypto assistance to local cops: “We are in this together” http://bit.ly/1ZUhewq #crypto #infosec #FBI,0,0,0,False
56,Denny McEnroe@McEnroeDenny,Re: DirectBet Ice Hockey Prediction Game *** Win Free Bets ! *** Free to Enter ! http://cur.lv/x20t3 #bitcoin #crypto,0,0,0,False
57,Denny McEnroe@McEnroeDenny,Re: Spanish League Prediction Thread (La Liga) http://cur.lv/x20t1 #bitcoin #crypto,0,0,0,False
58,Denny McEnroe@McEnroeDenny,Re: Weboas.is invite and http://Sitedev.club (like Templatep2p) http://cur.lv/x20sy #bitcoin #crypto,0,0,0,False
59,Denny McEnroe@McEnroeDenny,Re: [ANN][LISK] Lisk | ICO | Decentralized Application & Sidechain Platform http://cur.lv/x20sw #bitcoin #crypto,0,0,0,False
60,Denny McEnroe@McEnroeDenny,Re: Is it better to save money or invest it? http://cur.lv/x20sv #bitcoin #crypto,0,0,0,False
61,Cryptolized™@Cryptolized,"#rimbit #bitcoin ""CREATE THE CAPTION"" CONTEST:   VOTING NOW OPEN: A big thanks to everyone who... http://bit.ly/22ZH07F #cryptocurrency",0,0,0,False
62,BitcoinBuzz vega9@BitcoinBuzzV9,http://bitcoinbuzz.vega9.com - Hot topics: #bitcoin #btc #blockchain #crypto #monstercoingame #robotcoingame,0,0,0,False
63,Tech BitCoin@tech_bitcoin,"""Andreas Antonopoulos On The Non-existent Bitcoin Demise"" http://ift.tt/eA8V8J #bitcoin #crypto http://ift.tt/1ZUfnrn",0,0,0,False
64,Steve Schulin@GrandStrander,Replying to @le_brault@le_brault #cryptocurrency can provide huge benefits to multitudes of folks. Competition is important part of that http://cryptocurrency.education,0,0,0,False
65,AlertCo.in@AlertCoin,"Last trade for $ETH / BTC at #Poloniex was 0.02770000

Create your own #crypto price alerts at http://AlertCo.in!

#Bitcoin #SMS",2,0,0,False
66,BitcoinAgile@bitcoinagile,Andreas Antonopoulos On The Non-existent #bitcoin Demise #ethereum #altcoin #Demise http://newsbtc.com/2016/04/02/andreas-m-antonopoulos-non-existent-bitcoin-demise…,0,0,0,False
82,CCN - Capital & Celeb News@CapitalAndCeleb,CFTC Commissioner: Blockchain Tech Could Have Averted Lehman Collapse https://cryptocoinsnews.com/cftc-commissioner-blockchain-tech-averted-lehman-collapse/… #cryptocurrency,3,7,0,False
83,CryptoRSS@CryptoRSS,"Forget How Blockchain Works, Talk About What It Does: CoinDesk contributor Martin Hagelstrom talks abo... http://bit.ly/1qecupv #crypto",0,0,0,False
84,Arish Dubash@happyarish,"Bitcoin (btcUSD=x) price on April 02, 2016 is 418.45. #bitcoin #toTheMoon #cryptoCurrency #newMoney",0,0,0,False
85,''@Stefx00,RT rickborden13: UK cops tell suspect to hand over #crypto keys in US #hacking case http://news360.com/article/343562460…,0,0,0,False
86,ILbotCrypto@LbotCrypto,RT Edoncoin: BittrexExchange will soon host Edoncoin's Decreasing Bonus #ICO #altcoin #bitcoin #crypto #blockchain… https://pic.twitter.com/AM5SQaqFT2,0,0,0,False
87,Ab Adalumo@cashflowkid,At a private #onecoin #cryptocurrency event with #mauricekatz @drbreakthrough #adelefoster https://instagram.com/p/BDtgrEinxLH/,0,0,0,False
88,Crypto Yoyo@cryptoyoyo,Creation of a Brave New World with Bitcoin http://bit.ly/1V175OR #bitcoin #crypto #news,0,0,0,False
89,Denny McEnroe@McEnroeDenny,Re: [CHEAP] Netflix 4K | Spotify | Hulu | HBO | WWE | MORES.......{AutoBuy}#PAY1GET2 http://cur.lv/x1z0d #bitcoin #crypto,0,0,0,False
90,Denny McEnroe@McEnroeDenny,"Re: The price is below 400$, What next? http://cur.lv/x1z0c #bitcoin #crypto",0,0,0,False
91,Denny McEnroe@McEnroeDenny,[2016-034-02]FortuneJack Casino  Why look for FORTUNE elsewhere? http://cur.lv/x1z09 #bitcoin #crypto,0,0,0,False
92,Denny McEnroe@McEnroeDenny,Re: 1 year from now 2MB HF will be proposed will you support it? http://cur.lv/x1z08 #bitcoin #crypto,0,0,0,False
93,Farah K. Miraza@farahkaifa,#cryptocurrency #crypto Mainstream Media Thinks Ethereum and Bitcoin Are Competitors http://ow.ly/3d7mYr,0,0,0,False
94,BitcoinBuzz vega9@BitcoinBuzzV9,http://bitcoinbuzz.vega9.com - Hot topics: #bitcoin #btc #crypto #blockchain #monstercoingame #robotcoingame,0,0,0,False
108,Megabyte@megabyte101,"#Mooncoin Total funded addresses: 37710
#altcoin #cryptocurrency",1,2,0,False
111,Gamebet@GamebetGG,"Rolling out a new way to earn #GameBet coin. 
http://bit.ly/1MIsIkz
Get paid to play #CSGO and #dota2 in #Cryptocurrency
$gbt $hyper $btc",3,6,0,False
112,Mooncoin [MOON]@MooncoinItalia,"#Mooncoin Total funded addresses: 37710
#altcoin #cryptocurrency",0,0,0,False
113,Julia Vaingurt@julia_vaingurt,"""Creation of a Brave New World with Bitcoin"" http://cur.lv/x1yh1
#bitcoin #crypto http://cur.lv/x1yh2",0,0,0,False
114,Tech BitCoin@tech_bitcoin,"""Creation of a Brave New World with Bitcoin"" http://ift.tt/1TrqkzY #bitcoin #crypto http://ift.tt/21ZJg9o",0,0,0,False
115,Christopher Carruthers@TaoOfSatoshi,"I got excited! Then sadly I realized that this was just a display of Fiat Maximalism...
#DASH #Bitcoin #Altcoin",1,1,0,False
116,ILbotCrypto@LbotCrypto,BittrexExchange will soon host Edoncoin's Decreasing Bonus #ICO #altcoin #bitcoin #crypto #blockchain coindesk https://pic.twitter.com/AM5SQaqFT2,0,0,0,False
117,Wendell Bulbaai@wendellbulbaai,"To those in the #cryptocurrency space, what is your thought about Ethereum? Share with me....",0,0,0,False
118,DOGE Economist@Dogeeconomist,"Ohhhh, so this is how it REALLY works...

#BTC #Bitcoin #CryptoCurrency #Crypto #Mining http://fb.me/3X96iHyUz",2,1,1,False
119,Coin Tiny@CoinTiny,Arcade City run by a con man? Will it impact Ethereum? #CryptoCurrency #Crypto,0,0,0,False
120,CCN - Capital & Celeb News@CapitalAndCeleb,"Bitit Sells Bitcoin at 100,000 Stores https://cryptocoinsnews.com/bitit-sells-bitcoin-100000-stores/… #cryptocurrency",14,13,0,False
127,Crypto Yoyo@cryptoyoyo,Andreas Antonopoulos on Ethereum and Bitcoin at Blockchain Meetup Berlin http://bit.ly/21ZG1yF #bitcoin #crypto #news,0,0,0,False
129,Brandon Terry@brandonterry909,60k  #cinderella #itsasubiething #dash #arizona #sti #defi @ Bartlett Lake https://instagram.com/p/BDtXqtxn7-H/,0,0,0,False
130,BitcoinBuzz vega9@BitcoinBuzzV9,http://bitcoinbuzz.vega9.com - Hot topics: #bitcoin #btc #crypto #blockchain #robotcoingame #dogecoin,0,0,0,False
131,CryptoTorNews@CryptoTorNews,Bitcoin vs. Gold Bullion - Which Is The Better Investment? http://dlvr.it/Ky7v9t #crypto #bitcoin,0,0,0,False
132,Bitcoin Press@BitcoinPressX,Bitcoin vs. Gold Bullion - Which Is The Better Investment? http://dlvr.it/Ky7v9f #crypto #bitcoin,0,0,0,False
133,Denny McEnroe@McEnroeDenny,Re: Best Altcoin to invest in for 2016 and WHY http://cur.lv/x1x75 #bitcoin #crypto,0,0,0,False
134,Denny McEnroe@McEnroeDenny,Re: Feature request - refresh button http://cur.lv/x1x72 #bitcoin #crypto,0,0,0,False
135,Denny McEnroe@McEnroeDenny,Re: NovaCoin (scrypt PoW + PoS hybrid) [self-mod] http://cur.lv/x1x6z #bitcoin #crypto,0,0,0,False
136,Denny McEnroe@McEnroeDenny,Re: [ANNOUNCE] paccoin a new SHA256D coin is being introduced http://cur.lv/x1x6y #bitcoin #crypto,0,0,0,False
137,NE Patriots Dynasty@NEPatsDynasty,What if? http://ilgamosilcoin.com/ilgamos-ilcoin.html… the power of money.  #Money #HomeBusiness #Trading #crypto Register FREE,1,0,0,False
140,AlertCo.in@AlertCoin,"#Bitcoin last trade

@bitstamp $418.81
@coinbase $419.90

Set #crypto #price #alerts at http://AlertCo.in",2,0,0,False
141,AlertCo.in@AlertCoin,"#Bitcoin last trade

@bitfinex $420.49
@btcecom $416.25

Set #crypto #price #alerts at http://AlertCo.in",1,3,0,False
142,[Jz]@sjzaib,British Authorities Demand Encryption Keys In Case With “Huge Implications” http://bit.ly/1qdTQy2 #crypto #infosec,2,0,0,False
145,BTCremix@BTC_remix,#bitcoin #BTC Andreas Antonopoulos on Ethereum and Bitcoin at Blockchain Meetup Berlin http://cur.lv/x1wis #cryptocurrency,0,0,0,False
146,BTCremix@BTC_remix,#bitcoin #BTC Microsoft Adds Ethereum Solidity Dapp To Visual Studio http://cur.lv/x1wir #cryptocurrency,0,0,0,False
147,Bitcoin@bitcoinpoet,"Syscoin Releases Final 2.0 Beta, Cuts Supply by More than Half: Syscoin, the first cryptocurre... http://btcs.me/22Zhe3s #cryptocurrency",0,0,0,False
148,Amanda Russell@overloadbuzz,http://adzcoin.com/free-extension #ADZcoin Extension released today for #Chrome. Good changes are coming!  #Crypto,1,0,0,False
149,Iyke Aru@iykearu,"Eight Months Since Release, Ethereum Is Second Only To Bitcoin http://coint.co/2vnL #Ethereum #Ether #Bitcoin #Cryptocurrency",1,0,0,False
150,Lisk@LiskHQ,"Lisk v0.1.2 released - Testnet now public for testing!

https://blog.lisk.io/lisk-v0-1-2-release-announcement-f91c2c57d96c…
#lisk #blockchain #cryptocurrency",43,62,1,False
151,Julia Vaingurt@julia_vaingurt,"Investment firm pegs #bitcoin value at $655 #crypto #cryptocurrency http://cur.lv/x1w5w
http://cur.lv/x1w5x",0,0,0,False
152,Coin Tiny@CoinTiny,Brave Browser reveals details about bitcoin micropayments and user earnings #CryptoCurrency #Crypto,0,0,0,False
153,Crypto Yoyo@cryptoyoyo,"Syscoin Releases Final 2.0 Beta, Cuts Supply by More than Half http://bit.ly/1qdQcnQ #bitcoin #crypto #news",0,0,0,False
154,Crypto Yoyo@cryptoyoyo,Checking The Bitcoin Price On Your Apple Watch http://bit.ly/1X6K8rp #bitcoin #crypto #news,0,0,0,False
155,OpenFXMarket@OpenFXMarket,#bitcoin market index: 95.53 #OFXBTC. #altcoin market index (avg): 155.78 #OFXAVG by http://openfxmarket.com. Stay tuned!,0,0,0,False
156,cynthia williams@cawilliams535,"@ContrarianDude Looking forward to following you...
#Bitcoin2016
#GCRCOIN
#Cryptocurrency
#COINXIONEXCHANGE",0,0,0,False
157,CLMarkets@CLMarkets,ARE #BITCOIN AND THE #CRYPTOCURRENCY WORLD STARTING TO LOSE THEIR LUSTER? http://ow.ly/109ZXG,0,0,0,False
158,XBTFreelancer.com@XBTFreelancer,#cryptocurrency #earn http://xbtfreelancer.com/prj/1133/online-mystery-shopper-repost19… Online mystery shopper - repost19 #bitcoin ฿0.358,0,0,0,False
159,BitcoinBuzz vega9@BitcoinBuzzV9,http://bitcoinbuzz.vega9.com - Hot topics: #bitcoin #btc #blockchain #crypto #robotcoingame #dogecoin,0,0,0,False
160,Bitcoinist.com@bitcoinist,"Syscoin Releases Final 2.0 Beta, Cuts Supply by More than Half http://ift.tt/1ULawd0 #bitcoin #blockchain #btc #cryptocurrency #altcoins…",3,2,0,False
161,Bitcoin NewsBoard@bitcoinewsboard,"Syscoin Releases Final 2.0 Beta, Cuts Supply by More than Half http://bitcoin.newsprinciples.com/?p=31608 #altcoins #betatesting #bitcoin #deflation #news",0,0,0,False
162,Null TX@nulltxnews,http://ift.tt/1Y6wogH Is The Bitcoin Price Being Suppressed Right Now? #bitcoin #bitcoinnews #cryptocurrency,3,3,1,False
163,Steve Schulin@GrandStrander,"#econ - #cryptocurrency advantages in huge remittances market - in 2014, $25 billion was sent to #Mexico from #US http://cryptocurrencyNOW.us",0,0,0,False
171,Team 300FPS ︻╦̵̵̿╤─@300FPSGAMING,Is The Bitcoin Price Being Suppressed Right Now? http://btcf.co/25D1LFc #bitcoin #bitcoinnews #btc #cryptocurrency,0,0,0,False
172,Denny McEnroe@McEnroeDenny,"Re: cryptoGlance [v2.1] :: Open-source, self-hosted, multi-rig monitoring tool! http://cur.lv/x1v0l #bitcoin #crypto",0,0,0,False
173,Denny McEnroe@McEnroeDenny,Re: [PRE-ANN] WAVES. Ultimate crypto-tokens blockchain platform. http://cur.lv/x1v0k #bitcoin #crypto,0,0,0,False
174,Denny McEnroe@McEnroeDenny,Re: [ANN] POSEX PEX Hybrid POW/POS With HIPOS SHA256D [ANN] http://cur.lv/x1v0h #bitcoin #crypto,0,0,0,False
175,Denny McEnroe@McEnroeDenny,Re: EL CLASICO PREDICTION GAME TONIGHT http://cur.lv/x1v0f #bitcoin #crypto,0,0,0,False
176,Fintech Prowler@FintechProwler,Checking The Bitcoin Price On Your Apple Watch - The Merkle (blog) http://ift.tt/1Tra95I #altcoin,1,0,0,False
177,Denny McEnroe@McEnroeDenny,Re: BREAKING NEWS! http://GAMEBET.GG Launches GameBet Coin (GBT) Sale on now!! http://cur.lv/x1uvg #bitcoin #crypto,0,0,0,False
178,Denny McEnroe@McEnroeDenny,"Re: Gamblers, be careful with Coinbase! http://cur.lv/x1uvf #bitcoin #crypto",0,0,0,False
179,Denny McEnroe@McEnroeDenny,Re: http://FaucetBOX.com Discussion http://cur.lv/x1uvd #bitcoin #crypto,0,0,0,False
180,Denny McEnroe@McEnroeDenny,"Re: [WTS][Bulk] Crack of Clans TH7(Maxed), TH8(Semi-Maxed)[Proof][Pics] http://cur.lv/x1uvc #bitcoin #crypto",0,0,0,False
181,Denny McEnroe@McEnroeDenny,Re: How to motivate women to use Bitcoin? http://cur.lv/x1uvb #bitcoin #crypto,0,0,0,False
182,tekybot@tekypromo,"Syscoin Releases Final 2.0 Beta, Cuts Supply by More than Half http://ift.tt/1Sv2ZZp #tekypromo #TP #NEWS #cryptocurrency",0,0,0,False
183,Coin Tiny@CoinTiny,Curated Blockchain Newsletter #2 #CryptoCurrency #Crypto,0,0,0,False
184,Coin Tiny@CoinTiny,Ethereum Price Prediction April 2nd #CryptoCurrency #Crypto,0,0,0,False
185,Team 300FPS ︻╦̵̵̿╤─@300FPSGAMING,"Syscoin Releases Final 2.0 Beta, Cuts Supply by More than Half http://btcf.co/1RU5p30 #bitcoin #bitcoinnews #btc #cryptocurrency",0,0,0,False
186,craig beattie@cgbeattie,Ty for the mention @bradjaybailey: Looking at #FX #Cryptocurrency #trading @Celent_Research @cgbeattie @euromoney http://buff.ly/1UKKnen,0,0,0,False
187,CryptoTorNews@CryptoTorNews,"Syscoin Releases Final 2.0 Beta, Cuts Supply by More than Half http://dlvr.it/Ky6ccw #bitcoin #bitcoinnews #crypto",0,0,0,False
189,Born Pitcoin@PornBitcoin,"Syscoin Releases Final 2.0 Beta, Cuts Supply by More than Half http://dlvr.it/Ky6ccV #bitcoin #bitcoinnews #crypto",0,0,0,False
190,Jesse James@btce4,"Syscoin Releases Final 2.0 Beta, Cuts Supply by More than Half http://dlvr.it/Ky6ccW #bitcoin #bitcoinnews #crypto",0,0,0,False
191,Bitcoin Press@BitcoinPressX,"Syscoin Releases Final 2.0 Beta, Cuts Supply by More than Half http://dlvr.it/Ky6cKM #bitcoin #bitcoinnews #crypto",0,0,0,False
192,Crypto Yoyo@cryptoyoyo,"Forget How Blockchain Works, Talk About What It Does http://bit.ly/1Y6rIY6 #bitcoin #crypto #news",0,0,0,False
193,Crypto Yoyo@cryptoyoyo,Bitcoin vs. Gold Bullion - Which Is The Better Investment? http://bit.ly/1RTzMwT #bitcoin #crypto #news,0,0,0,False
194,Crypto Yoyo@cryptoyoyo,Can The Blockchain Make Refugee Lives Easier? http://bit.ly/1Y6rHmW #bitcoin #crypto #news,0,0,0,False
195,Crypto Yoyo@cryptoyoyo,Bitcoin vs. Gold Bullion - Which Is The Better Investment? http://bit.ly/1RTzMwO #bitcoin #crypto #news,0,0,0,False
196,Crypto Yoyo@cryptoyoyo,Bitcoin investment fraud scheme busted: CIB http://bit.ly/1Y6rH6u #bitcoin #crypto #news,0,0,0,False
197,Crypto Yoyo@cryptoyoyo,Using A Bitcoin Smart Contract To Transfer Domain Ownership http://bit.ly/1RTzLsJ #bitcoin #crypto #news,0,0,0,False
198,Brian Fink@thebrianfink,"Ethereum, a Virtual #Currency, Enables Transactions That Rival #Bitcoin’s http://nyti.ms/1RvqSAb #cryptocurrency #fintech #blockchain",0,0,0,False
199,฿TF%$Brrrrrr!@CryptoHustle,PSA: If you're trading #bitcoin and #altcoins you MUST activate 2FA. I still see people getting hacked because they forgot or were too lazy.,7,3,0,False
200,tekybot@tekypromo,"Forget How Blockchain Works, Talk About What It Does http://ift.tt/1Tr61mf #tekypromo #TP #NEWS #cryptocurrency",0,0,0,False
201,BitcoinBuzz vega9@BitcoinBuzzV9,http://bitcoinbuzz.vega9.com - Hot topics: #gopestablishment #bitcoin #btc #crypto #blockchain #cryptocurrency,0,0,0,False
202,[Jz]@sjzaib,Alan M. Turing: The Applications of Probability to Cryptography. (recently released) http://bit.ly/1VjT0Lm #crypto #infosec,1,0,0,False
203,BitWaRRior@bitwarriorX,#syscoin getting on the #news at #bbcnews http://bbc.com/news/business-35890616… #btc #altcoins Its Buy time Folks! :) #siacoin #ethereum,1,0,0,False
204,Team 300FPS ︻╦̵̵̿╤─@300FPSGAMING,"Forget How Blockchain Works, Talk About What It Does http://btcf.co/1UL5xZY #bitcoin #bitcoinnews #btc #cryptocurrency",0,0,0,False
205,Cryptocoin Radar@cryptocoinradar,"xdn/btc: +6% value, +6% volume in 12 minutes (http://cryptocoinradar.com monitored #trading #altcoin #cryptocoin)",0,0,0,False
206,Alejandro Sewrjugin@alesew23,"#Bitcoin Forget How Blockchain Works, Talk About What It Does http://bit.ly/1ZTMxrg #Tech #Crypto",0,0,0,False
207,BlockChannel@BlockChannel,"BCN News: bitcoinist ""Can The Blockchain Make Refugee Lives Easier? http://ift.tt/1RTs3Px #bitcoin #blockchain #btc #cryptocurrency #alt…",0,0,0,False
208,BlockChannel@BlockChannel,"BCN News: bitcoinist ""Voxelus Marketplace & Voxel Cryptocurrency Go Live http://ift.tt/1pUchH7 #bitcoin #blockchain #btc #cryptocurrency…",0,0,0,False
209,Cryptocoin Radar@cryptocoinradar,"dgb/btc: +10% value, +9% volume in 1 hour (http://cryptocoinradar.com monitored #trading #altcoin #cryptocoin)",0,0,0,False
210,Bitcoinist.com@bitcoinist,Can The Blockchain Make Refugee Lives Easier? http://ift.tt/1RTs3Px #bitcoin #blockchain #btc #cryptocurrency #altcoins #money #freebitc…,0,0,0,False
211,Bitcoinist.com@bitcoinist,Voxelus Marketplace & Voxel Cryptocurrency Go Live http://ift.tt/1pUchH7 #bitcoin #blockchain #btc #cryptocurrency #altcoins #money #fre…,1,0,0,False
212,CryptoRSS@CryptoRSS,Bitcoin Price Up And Down: Bitcoin price climbed $6 in a quick move earlier today. Whatever price does... http://bit.ly/1PNHIIj #crypto,0,0,0,False
228,Null TX@nulltxnews,http://ift.tt/1pUjpn1 Checking The Bitcoin Price On Your Apple Watch #bitcoin #bitcoinnews #cryptocurrency,2,0,0,False
229,Load Debit Card@LoadDebitCard,Is Bitcoin A Safe Asset? https://cryptocoinsnews.com/bitcoin-safe-asset/… via @CryptoCoinsNews #Bitcoin #Btc #Altcoins,0,0,0,False
230,Team 300FPS ︻╦̵̵̿╤─@300FPSGAMING,Checking The Bitcoin Price On Your Apple Watch http://btcf.co/1SuWKVk #bitcoin #bitcoinnews #btc #cryptocurrency,0,0,0,False
231,Julia Vaingurt@julia_vaingurt,"Bitcoin Price Up And Down: Bitcoin price climbed $6 in a quick move earlier today. Whatever p... http://cur.lv/x1tfg
#Bitcoin #Crypto",1,0,0,False
232,tekybot@tekypromo,Can The Blockchain Make Refugee Lives Easier http://ift.tt/1W15JmG #tekypromo #TP #NEWS #cryptocurrency,0,0,0,False
233,Load Debit Card@LoadDebitCard,Monero Debit Card #Monero to #debitcard with 40+ #altcoins #Bitcoin #XMR @monerocurrency http://bit.ly/debitnow,1,0,0,False
234,Born Pitcoin@PornBitcoin,Can The Blockchain Make Refugee Lives Easier? http://dlvr.it/Ky5w24 #bitcoin #bitcoinnews #crypto,1,1,0,False
235,CryptoTorNews@CryptoTorNews,Can The Blockchain Make Refugee Lives Easier? http://dlvr.it/Ky5w1j #bitcoin #bitcoinnews #crypto,0,0,0,False
236,Jesse James@btce4,Can The Blockchain Make Refugee Lives Easier? http://dlvr.it/Ky5w19 #bitcoin #bitcoinnews #crypto,0,0,0,False
237,Bitcoin Press@BitcoinPressX,Can The Blockchain Make Refugee Lives Easier? http://dlvr.it/Ky5w0p #bitcoin #bitcoinnews #crypto,0,0,0,False
238,Nirmal@nirmal_ghorawat,@CalikoGames #Advertising #CryptoCurrency through #Mobile #Games https://linkedin.com/pulse/advertising-crypto-currencies-through-mobile-games-nirmal-ghorawat… #startup #bitcoin #litecoin #digital #currency,1,1,0,False
239,Nirmal@nirmal_ghorawat,Replying to @sguidoz@sguidoz #Advertising #CryptoCurrency through #Mobile #Games https://linkedin.com/pulse/advertising-crypto-currencies-through-mobile-games-nirmal-ghorawat… #startup #bitcoin #litecoin #digital #currency,1,0,0,False
240,Nirmal@nirmal_ghorawat,@DeepeshGidwani #Advertising #CryptoCurrency through #Mobile #Games https://linkedin.com/pulse/advertising-crypto-currencies-through-mobile-games-nirmal-ghorawat… #startup #bitcoin #litecoin #digital #currency,1,0,0,False
241,Game Of Bitcoins@GameofBitcoins,"Find best paying #bitcoinfaucets #freebtc #dogecoin #litecoin #dashcoin daily updated #CryptocurrencyGame Of BitcoinsClaim Free Coins, Your Way To Get Free Cryptocurrencygameofbitcoins.com",1,0,0,False
242,Bitcoin NewsBoard@bitcoinewsboard,Voxelus Marketplace & Voxel Cryptocurrency Go Live http://bitcoin.newsprinciples.com/?p=31605 #altcoins #bitcoin #blockchaintechnology #companies,0,0,0,False
243,Nirmal@nirmal_ghorawat,@lofwyrm #Advertising #CryptoCurrency through #Mobile #Games https://linkedin.com/pulse/advertising-crypto-currencies-through-mobile-games-nirmal-ghorawat… #startup #bitcoin #litecoin #digital #currency,1,0,0,False
244,Nirmal@nirmal_ghorawat,Replying to @_pratiksha_geek@_pratiksha_geek #Advertising #CryptoCurrency through #Mobile #Games https://linkedin.com/pulse/advertising-crypto-currencies-through-mobile-games-nirmal-ghorawat… #startup #bitcoin #litecoin #digital #currency,1,0,0,False
245,Team 300FPS ︻╦̵̵̿╤─@300FPSGAMING,Can The Blockchain Make Refugee Lives Easier? http://btcf.co/1VjLa4m #bitcoin #bitcoinnews #btc #cryptocurrency,0,0,0,False
246,tekybot@tekypromo,Bitcoin vs. Gold Bullion - Which Is The Better Investment http://ift.tt/1ZTIdrS #tekypromo #TP #NEWS #cryptocurrency,1,0,0,False
247,Crypto Yoyo@cryptoyoyo,Bitcoin Price Up And Down http://bit.ly/1TqYELN #bitcoin #crypto #news,0,0,0,False
248,BitcoinBuzz vega9@BitcoinBuzzV9,http://bitcoinbuzz.vega9.com - Hot topics: #gopestablishment #bitcoin #btc #crypto #blockchain #robotcoingame,0,0,0,False
249,CryptoTorNews@CryptoTorNews,Bitcoin Price Up And Down http://dlvr.it/Ky5SvD #crypto #bitcoin,0,0,0,False
250,CryptoTorNews@CryptoTorNews,Bitcoin Gambling is Exploding http://dlvr.it/Ky5Sv8 #crypto #bitcoin,0,0,0,False
251,CryptoTorNews@CryptoTorNews,The Mainstream Media Thinks Ethereum & Bitcoin Are Competitors http://dlvr.it/Ky5Sv4 #crypto #bitcoin,0,0,0,False
252,CryptoTorNews@CryptoTorNews,"Drug Dealing, Remittances, Poverty Factor in Bitcoin ATMs Placement in NYC http://dlvr.it/Ky5Stt #crypto #bitcoin",0,0,0,False
253,Bitcoin Press@BitcoinPressX,Bitcoin Price Up And Down http://dlvr.it/Ky5Str #crypto #bitcoin,0,0,0,False
254,Bitcoin Press@BitcoinPressX,Bitcoin Gambling is Exploding http://dlvr.it/Ky5Stq #crypto #bitcoin,0,0,0,False
255,Bitcoin Press@BitcoinPressX,"Drug Dealing, Remittances, Poverty Factor in Bitcoin ATMs Placement in NYC http://dlvr.it/Ky5Stm #crypto #bitcoin",0,0,0,False
256,Rodrigo Paulo Gomes []@bgcoin,"Eyeing Volume, Asian Exchanges Add Support for Ether Trading
http://bit.ly/1X06PNP
#ethereum #trading #cryptocurrency #Asia #exchangeEyeing Volume, Asian Exchanges Add Support for Ether Trading - CoinDeskCoincheck, CHBTC, Korbit and Quoine are among a new group of exchanges that have added support for Ethereum's digital currency ether.coindesk.com",0,0,0,False
257,Denny McEnroe@McEnroeDenny,Re: DirectBet Soccer Prediction Game *** Win Free Bets ! *** Free to Enter ! http://cur.lv/x1sln #bitcoin #crypto,0,0,0,False
258,Denny McEnroe@McEnroeDenny,Re: [ANN] [ADZ]Adzcoin - A Decentralized Replacement For The Ad-Supported Web http://cur.lv/x1slm #bitcoin #crypto,0,0,0,False
259,Denny McEnroe@McEnroeDenny,Re: *Bitcoin Revolvers*The Ultimate Multiplayer Gambling Experience! Free 2mBTC http://cur.lv/x1sll #bitcoin #crypto,0,0,0,False
260,Denny McEnroe@McEnroeDenny,Re: [5 OPEN SLOTS] Rollin.io Signature & Avatar Campaign http://cur.lv/x1slj #bitcoin #crypto,0,0,0,False
261,Denny McEnroe@McEnroeDenny,Re: *Bitcoin Revolvers*The Ultimate Multiplayer Gambling Experience! Free 2mBTC http://cur.lv/x1slh #bitcoin #crypto,1,0,0,False
262,Team 300FPS ︻╦̵̵̿╤─@300FPSGAMING,Voxelus Marketplace & Voxel Cryptocurrency Go Live http://btcf.co/1SIFtuy #bitcoin #bitcoinnews #btc #cryptocurrency,0,0,0,False
263,Team 300FPS ︻╦̵̵̿╤─@300FPSGAMING,Voxelus Marketplace & Voxel Cryptocurrency Go Live http://btcf.co/1VjHuj8 #bitcoin #bitcoinnews #btc #cryptocurrency,0,0,0,False
264,Cryptocoin Radar@cryptocoinradar,"yacc/btc: -43% value, +19% volume in 12 minutes (http://cryptocoinradar.com monitored #trading #altcoin #cryptocoin)",0,0,0,False
265,Team 300FPS ︻╦̵̵̿╤─@300FPSGAMING,Using A Bitcoin Smart Contract To Transfer Domain Ownership http://btcf.co/1VjHsrx #bitcoin #bitcoinnews #btc #cryptocurrency,0,0,0,False
266,Team 300FPS ︻╦̵̵̿╤─@300FPSGAMING,Using A Bitcoin Smart Contract To Transfer Domain Ownership http://btcf.co/1SIFsqs #bitcoin #bitcoinnews #btc #cryptocurrency,0,0,0,False
267,Team 300FPS ︻╦̵̵̿╤─@300FPSGAMING,Why Smart Contracts Need Shrewder People http://btcf.co/1VjHsb5 #bitcoin #bitcoinnews #btc #cryptocurrency,0,0,0,False
268,tekybot@tekypromo,Voxelus Marketplace & Voxel Cryptocurrency Go Live http://ift.tt/1RTNtWg #tekypromo #TP #NEWS #cryptocurrency,0,0,0,False
269,tekybot@tekypromo,Why Smart Contracts Need Shrewder People http://ift.tt/1TqX0K2 #tekypromo #TP #NEWS #cryptocurrency,0,0,0,False
270,Bitcoin Press@BitcoinPressX,Voxelus Marketplace & Voxel Cryptocurrency Go Live http://dlvr.it/Ky5QKc #bitcoin #bitcoinnews #crypto,0,0,0,False
271,Born Pitcoin@PornBitcoin,Voxelus Marketplace & Voxel Cryptocurrency Go Live http://dlvr.it/Ky5QKs #bitcoin #bitcoinnews #crypto,0,0,0,False
272,CryptoTorNews@CryptoTorNews,Voxelus Marketplace & Voxel Cryptocurrency Go Live http://dlvr.it/Ky5QKb #bitcoin #bitcoinnews #crypto,0,0,0,False
273,Jesse James@btce4,Voxelus Marketplace & Voxel Cryptocurrency Go Live http://dlvr.it/Ky5QKZ #bitcoin #bitcoinnews #crypto,0,0,0,False
274,Macca Tweeter@MaccaTweeter,It looks like I have received another #incentive #reward $XVC #RPi #Incentivized #Node #Cryptocurrency #XVC,0,0,0,False
275,CryptScoutNews@CryptScoutNews,Voxelus Marketplace & Voxel #Cryptocurrency Go Live - http://cryptscout.com/news-portal/?id=1&ref=2070&utm_source=twitter&utm_medium=auto&utm_campaign=news-portal…,0,0,0,False
276,heyrobok@heyrobok,"As of now, 4 #TRI equals 1.07 $USD. RARE! only 120,000 supply! Check it out @ https://bittrex.com/Market/Index?MarketName=BTC-TRI… #BTC #ALTCOIN #ETH #DGB #LTC #DOGE",1,0,0,False
277,Alejandro Sewrjugin@alesew23,#Bitcoin Why Smart Contracts Need Shrewder People http://bit.ly/1UzHNHM #Tech #Crypto,0,0,0,False
278,Julia Vaingurt@julia_vaingurt,"Transaction fees increase as #bitcoin blocks get full #crypto #cryptocurrency http://cur.lv/x1s31
http://cur.lv/x1s32",0,0,0,False
279,bigs21024@bigs21024,Hurry @wavesplatform I'm ready to ride the ico #waves $#WAVES $#CRYPTO $#BTC $#Bitcoin,0,0,0,False
280,Lise Estelle Brault@le_brault,"Competition in the #Cryptocurrency space.  Is that good for financial stability?Quote Tweetethereum.network@EthereumNetw · Apr 2, 2016What #Ethereum Offers That #Bitcoin Doesn't",1,0,0,False
281,tekybot@tekypromo,Bitcoin Price Up And Down http://ift.tt/1SuNZuz #tekypromo #TP #NEWS #cryptocurrency,0,0,0,False
282,Farah K. Miraza@farahkaifa,#cryptocurrency #crypto Bitcoin Price Up And Down http://ow.ly/3d71yc,0,0,0,False
283,Marko Sakal@markosakal,#Cryptocurrency Competition: What’s Next in Alt Spending #Bitcoin vs #Ethereum explained. http://wallstreetdaily.com/2016/04/01/ethereum-bitcoin-cryptocurrency/#.Vv_mDqMyULg.twitter…,1,0,0,False
284,Team 300FPS ︻╦̵̵̿╤─@300FPSGAMING,Bitcoin Price Up And Down http://btcf.co/1VjCD1t #bitcoin #bitcoinnews #btc #cryptocurrency,0,0,0,False
285,Jørn Lydolff Madsen@lydolffmadsen,"In the New York Times, it is argued that the #cryptocurrency #Ether could rival #Bitcoin.Cryptocurrency Highlights Of The Week - DigiconomistThe cryptocurrency highlights week 13 include: Ethereum added to Microsoft Visual Studio, and Bitcoin Core developers releasing SegNet 4.digiconomist.net",0,0,0,False
286,bigs21024@bigs21024,Never lost faith in @warpcoin #warp $warp and now you see why @YobitExchange #Bitcoin #crypto #altcoin. Keep me trading yes!,0,0,0,False
287,Juan Carlos Murillo@jaycmurillo,Blockchain Technology Predictions For 2016 #Bitcoin #BTC #BitcoinNews #News #Cryptocurrency http://bit.ly/237FInR,1,0,0,False
288,Monkam@CryptoMonkam,"Saturday #Shitcoins pumps at polo, someone will regret if enter on some of them #altcoinsGIF",1,0,0,False
289,Julia Vaingurt@julia_vaingurt,"Drug Dealing, Remittances, Poverty Factor in Bitcoin ATMs… http://cur.lv/x1rcq
#bitcoin #fintech #btc #crypto http://cur.lv/x1rcr",2,0,0,False
290,bigs21024@bigs21024,Watch out $WARP @warpcoin is back on track time for lift off #Bitcoin #altcoin #crypto,1,0,0,False
291,Marko Sakal@markosakal,"Jason Attar Releases Worlds First Movie Profit Share #Cryptocurrency Kevcoin Bitcoin blockchain.
 - EconoTimes http://econotimes.com/Jason-Attar-Releases-Worlds-First-Movie-Profit-Share-Cryptocurrency-Kevcoin-187179… via @Jason Attar Releases World’s First Movie Profit Share Cryptocurrency ‘Kevcoin’ - EconoTimesActor and writer Jason Attar has come up with a completely new way of funding a film. In order to fund his new UK independent film, Attar has started the release of a film profit share cryptographic...econotimes.com",0,0,0,False
292,Crypto Yoyo@cryptoyoyo,Bitcoin Gambling is Exploding http://bit.ly/1W0U7Ah #bitcoin #crypto #news,1,0,0,False
293,Crypto Yoyo@cryptoyoyo,"Drug Dealing, Remittances, Poverty Factor in Bitcoin ATMs Placement in NYC http://bit.ly/1ZTBbTZ #bitcoin #crypto #news",1,0,0,False
294,tekybot@tekypromo,Bitcoin Gambling is Exploding http://ift.tt/1UKMC1e #tekypromo #TP #NEWS #cryptocurrency,0,0,0,False
295,BitcoinBuzz vega9@BitcoinBuzzV9,http://bitcoinbuzz.vega9.com - Hot topics: #gopestablishment #bitcoin #btc #robotcoingame #monstercoingame #crypto,0,0,0,False
296,BitcoinAgile@bitcoinagile,Cryptocurrency Highlights Of The Week - Digiconomist #bitcoin #Cryptocurrency #Ethereum #R3 http://bit.ly/1SuJ2C7,1,0,0,False
297,Digiconomist@DigiEconomist,"#Cryptocurrency highlights week 13, including: #Ethereum added to #Microsoft #VisualStudio http://digiconomist.net/cryptocurrency-highlights-week-13-2016…",1,0,0,False
302,AlertCo.in@AlertCoin,"#Bitcoin last trade

@bitstamp $418.47
@coinbase $419.88

Set #crypto #price #alerts at http://AlertCo.in",2,0,0,False
303,AlertCo.in@AlertCoin,"#Bitcoin last trade

@bitfinex $419.62
@btcecom $416.09

Set #crypto #price #alerts at http://AlertCo.in",2,0,0,False
304,Josiah Viergutz @jdvier,The Age of #Cryptocurrency http://buff.ly/1USLGGi,0,0,0,False
305,ferthee@ariesarcha,"Earn your FREE #CryptoCurrency here >>> http://ift.tt/1RN6Ftm <<<
Get your #Bitcoin EVERY 5 minutes!",0,0,0,False
306,Ronen Shnidman@TABerlioz,"Dutch central bank looking to create #digitalcurrency,  amber-backed #cryptocurrency turns out to be Ponzi scheme http://buff.ly/1M89TXQ",1,0,0,False
307,Pipl@pipl_com,"Dutch central bank looking to create #digitalcurrency,  amber-backed #cryptocurrency turns out to be Ponzi scheme http://buff.ly/1M89Vz6",1,0,0,False
308,NE Patriots Dynasty@NEPatsDynasty,Quadruple your investment.  #Money #stocks #Gold #crypto 4 in 1 trading system for Partners only. http://ilgamosilcoin.com/home.html,0,0,0,False
309,Denny McEnroe@McEnroeDenny,Re: V FREE Tipster Competition -sponsored by DirectBet- (Discussion Thread) http://cur.lv/x1q4h #bitcoin #crypto,0,0,0,False
310,Denny McEnroe@McEnroeDenny,Re: Premier League Prediction Thread (EPL) http://cur.lv/x1q4e #bitcoin #crypto,0,0,0,False
311,Denny McEnroe@McEnroeDenny,"Re: If gambling never existed, would you be who you are today? http://cur.lv/x1q4b #bitcoin #crypto",0,0,0,False
312,Denny McEnroe@McEnroeDenny,Re: Slide to unlock http://cur.lv/x1q4a #bitcoin #crypto,0,0,0,False
313,Denny McEnroe@McEnroeDenny,"Re: When to hit $10,000? http://cur.lv/x1q49 #bitcoin #crypto",0,0,0,False
314,Cryptocoin Radar@cryptocoinradar,"bcn/btc: -6% value, +19% volume in 12 minutes (http://cryptocoinradar.com monitored #trading #altcoin #cryptocoin)",0,0,0,False
315,Crypto Yoyo@cryptoyoyo,The Mainstream Media Thinks Ethereum & Bitcoin Are Competitors http://bit.ly/1oqTfr0 #bitcoin #crypto #news,1,0,0,False
316,ferthee@ariesarcha,Earn your FREE #bitcoin EVERY hour here >>> http://ift.tt/1TKc1pU <<< #CryptoCurrency #OnlineMoney #earningonline,1,0,0,False
317,Cornell Tech@cornell_tech,"Professor Vitaly Shmatikov explains why #crypto experts are the pranksters of computer science:Cornell Tech - Vitaly Shmatikov: Computer Security TroublemakerProfessor Vitaly Shmatikov discusses the notion of anonymous data, privacy in machine learning and teaching computer security.tech.cornell.edu",1,0,0,False
318,WINC@WINC_ev,@nuitdebout Its time for a global basic income.. Lets start today with our #cryptocurrency #worldleadcurrency - the social money,0,0,0,False
319,Brad Bailey@bradjaybailey,"Looking at #FX #Cryptocurrency #trading @Celent_Research @cgbeattie @euromoneyQuote Tweetcraig beattie@cgbeattie · Apr 2, 2016#FX: #Cryptocurrency trading venues snowball http://buff.ly/1Vg5HXA via @euromoney featuring @bradjaybailey #forex via @Celent_Research",1,1,0,False
320,Farah K. Miraza@farahkaifa,#cryptocurrency #crypto Blockchain Technology Predictions For 2016 http://ow.ly/3d6UnE,1,0,0,False
321,Satoshi Nakamoto@BlockchainEra,"Looking to bet on LOL, CS:GO with #bitcoin & #altcoin ? Checkout http://goo.gl/JsXK1z
@Gamer_RTweets @GamerRTer",1,0,0,False
330,XBTFreelancer.com@XBTFreelancer,#freelancer #cash http://xbtfreelancer.com/prj/1133/online-mystery-shopper-repost19… #bitcoin #xbt #cryptocurrency Online mystery shopper - repost19,0,0,0,False
331,BitcoinBuzz vega9@BitcoinBuzzV9,http://bitcoinbuzz.vega9.com - Hot topics: #bitcoin #gopestablishment #btc #blockchain #crypto #monstercoingame,0,0,0,False
332,Bitcoin City™#฿TC@Bitcoin_City,"Free BTC http://bit.ly/1_BITCOIN
Free Wallet http://bit.ly/BTCxapo
#bitcoin #CryptoCurrency
@JackTennisGo via https://Statusbrew.com/?r=wl",0,0,0,False
333,Bitcoin City™#฿TC@Bitcoin_City,"Free BTC http://bit.ly/1_BITCOIN
Free Wallet http://bit.ly/BTCxapo
#bitcoin #CryptoCurrency
@dinostylian via https://Statusbrew.com/?r=wl",0,0,0,False
334,Bitcoin City™#฿TC@Bitcoin_City,"Free BTC http://bit.ly/1_BITCOIN
Free Wallet http://bit.ly/BTCxapo
#bitcoin #CryptoCurrency
@TrumpPrediction via https://Statusbrew.com/?r=wl",0,0,0,False
335,Bitcoin City™#฿TC@Bitcoin_City,"Free BTC http://bit.ly/1_BITCOIN
Free Wallet http://bit.ly/BTCxapo
#bitcoin #CryptoCurrency
@eric_breizh via https://Statusbrew.com/?r=wl",0,0,0,False
336,Bitcoin City™#฿TC@Bitcoin_City,"Free BTC http://bit.ly/1_BITCOIN
Free Wallet http://bit.ly/BTCxapo
#bitcoin #CryptoCurrency
@Nobody72814641 via https://Statusbrew.com/?r=wl",0,0,0,False
337,Bitcoin City™#฿TC@Bitcoin_City,"Free BTC http://bit.ly/1_BITCOIN
Free Wallet http://bit.ly/BTCxapo
#bitcoin #CryptoCurrency
@FinTechProfiles via https://Statusbrew.com/?r=wl",0,0,0,False
338,Bitcoin City™#฿TC@Bitcoin_City,"Free BTC http://bit.ly/1_BITCOIN
Free Wallet http://bit.ly/BTCxapo
#bitcoin #CryptoCurrency
@GetMeOnRadio via https://Statusbrew.com/?r=wl",0,0,0,False
339,Bitcoin City™#฿TC@Bitcoin_City,"Free BTC http://bit.ly/1_BITCOIN
Free Wallet http://bit.ly/BTCxapo
#bitcoin #CryptoCurrency
@DellaTruax via https://Statusbrew.com/?r=wl",0,0,0,False
340,Bitcoin City™#฿TC@Bitcoin_City,"Free BTC http://bit.ly/1_BITCOIN
Free Wallet http://bit.ly/BTCxapo
#bitcoin #CryptoCurrency
@Backfeed_cc via https://Statusbrew.com/?r=wl",0,0,0,False
341,Bitcoin City™#฿TC@Bitcoin_City,"Free BTC http://bit.ly/1_BITCOIN
Free Wallet http://bit.ly/BTCxapo
#bitcoin #CryptoCurrency
@Tarnews365 via https://Statusbrew.com/?r=wl",0,0,0,False
342,CryptoRSS@CryptoRSS,DoD Picks HackerOne To Run Its Historic Bug Bounty Pilot: HackerOne will run US federal government's f... http://bit.ly/1qdabmy #crypto,0,0,0,False
343,ferthee@ariesarcha,#CryptoCurrency You can join as well and collect your #Bitcoin for FREE >>> http://ift.tt/1TKc1pU,0,0,0,False
344,Farah K. Miraza@farahkaifa,#cryptocurrency #crypto The Mainstream Media Thinks Ethereum & Bitcoin Are Competitors http://ow.ly/3d6S9y,0,0,0,False
345,NE Patriots Dynasty@NEPatsDynasty,Great Blog on #crypto #cryptocurrency Click http://juddbagley.io/bitcoin/blockchain/nasdaq-is-joining-the-blockchain-trading-party/… SHARE,1,0,0,False
346,Team 300FPS ︻╦̵̵̿╤─@300FPSGAMING,The Mainstream Media Thinks Ethereum & Bitcoin Are Competitors http://btcf.co/1PNekC3 #bitcoin #bitcoinnews #btc #cryptocurrency,0,0,0,False
347,tekybot@tekypromo,The Mainstream Media Thinks Ethereum & Bitcoin Are Competitors http://ift.tt/1UKCxS2 #tekypromo #TP #NEWS #cryptocurrency,0,0,0,False
348,Wheel of Doge@WheelofDoge,"Review for http://wheelofdoge.com from @bitcoinist! Take a look! #dogecoin #bitcoin #altcoin #crypto #ethereum
http://bitcoinist.net/wheel-doge-any-coin-shapeshift/…",1,0,0,False
357,ILbotCrypto@LbotCrypto,Time to check on #edoncoin's development! http://ow.ly/WbHMN #btc #altcoin #ltc #dogecoin #bitcoin #edoncoin #ltc,0,0,0,False
358,sonsofliberty2016@Thefedendsnow,#Phillipines #Muecoin #askastoreaday #Vegas and #MontaryUnit meet in #18b #DTVL #TheArtsFactoryLV #BTM #crypto #deals,0,0,0,False
359,CryptoTorNews@CryptoTorNews,Blockchain Technology Predictions For 2016 http://dlvr.it/Ky2vNh #crypto #bitcoin,0,0,0,False
360,Bitcoin Press@BitcoinPressX,Blockchain Technology Predictions For 2016 http://dlvr.it/Ky2vGY #crypto #bitcoin,0,0,0,False
361,CryptoTorNews@CryptoTorNews,Investment Firm Pegs Bitcoin Value at $655 http://dlvr.it/Ky2v6R #crypto #bitcoin,0,0,0,False
362,Bitcoin Press@BitcoinPressX,Investment Firm Pegs Bitcoin Value at $655 http://dlvr.it/Ky2v5k #crypto #bitcoin,0,0,0,False
363,Stéphane Bortzmeyer@bortzmeyer,Randy Bush on stage at #PROTOSEC on the #Cryptech project. https://cryptech.is #HSM #crypto #DNSSEC,3,3,1,False
364,CryptRoller@CryptRoller,"Refilled #doge #faucets. Much like!
http://cryptroller.com/faucets/dogecoin/… and
http://cryptroller.com/faucets/black/dogecoin/… #free #dogecoin #cryptocurrency",0,0,0,False
365,NE Patriots Dynasty@NEPatsDynasty,#ILGamos and their NEW #ILCoin. 4 in 1 Trading platform. Stock up 35%.  http://INVEST.ilgamos.com/buy?buy_type=1 #Crypto #Nasdaq #ETRADE,1,0,0,False
366,tekybot@tekypromo,"Drug Dealing, Remittances, Poverty Factor in Bitcoin ATMs Placement in NYC http://ift.tt/1PNbZad #tekypromo #TP #NEWS #cryptocurrency",0,0,0,False
367,Team 300FPS ︻╦̵̵̿╤─@300FPSGAMING,Finding A Bank Partner As a Bitcoin Startup http://btcf.co/1qd4G7j #bitcoin #bitcoinnews #btc #cryptocurrency,0,0,0,False
368,Denny McEnroe@McEnroeDenny,"Re: When to hit $10,000? http://cur.lv/x1ntu #bitcoin #crypto",0,0,0,False
369,Denny McEnroe@McEnroeDenny,Re: Why the darkcoin/dash instamine matters http://cur.lv/x1ntt #bitcoin #crypto,0,0,0,False
370,Denny McEnroe@McEnroeDenny,Re: Bump Bot : Automatically bumps your topic to keep it on top http://cur.lv/x1nts #bitcoin #crypto,0,0,0,False
371,Denny McEnroe@McEnroeDenny,Re: April Fools Day!!!! http://cur.lv/x1ntp #bitcoin #crypto,0,0,0,False
372,The Third Wave@metamorphin,#GRS #Groestlcoin spiked again! #bittrex! #altcoins #btc,1,0,0,False
378,BitcoinBuzz vega9@BitcoinBuzzV9,http://bitcoinbuzz.vega9.com - Hot topics: #bitcoin #btc #opreturn #blockchain #crypto #monstercoingame,0,0,0,False
379,Crypto Yoyo@cryptoyoyo,21 Marketplace Now Offers Paid APIs For Bitcoin http://bit.ly/1RTgRw2 #bitcoin #crypto #news,0,0,0,False
380,Crypto Yoyo@cryptoyoyo,Investment Firm Pegs Bitcoin Value at $655 http://bit.ly/1TqA6SS #bitcoin #crypto #news,0,0,0,False
381,Null TX@nulltxnews,http://ift.tt/25CEhQr Finding A Bank Partner As a Bitcoin Startup #bitcoin #bitcoinnews #cryptocurrency,1,1,0,False
382,Julia Vaingurt@julia_vaingurt,"Here’s how to get a free #bitcoin t-shirt! #crypto #cryptocurrency http://cur.lv/x1nc2
http://cur.lv/x1nc3",0,0,0,False
383,Bob Bobert@Bob_Helensburgh,US Prosecutors Unseal Charges Against Alleged Silk Road Advisor http://coinde.sk/1lgrUap first brought to the world by #rimbit. #altcoin #btc,1,0,0,False
384,bigs21024@bigs21024,@GetFreeAdz how can I get some looking good @YobitExchange @AdzcoinWorld @adzcoinslover @adzcoin need some @YobitExchange $BTC #altcoin,2,1,2,False
385,bigs21024@bigs21024,@wavesplatform I'm so ready to ride the #wave bring it on #Bitcoin #altcoin #crypto,5,3,0,False
386,Sleeping Horse #BRG@Hunting_Bitcoin,Claim your free Doge Coin every one hour just at http://freedoge.co.in/?r=314242 claim up to 900k doge coin #faucet #altcoin,0,0,0,False
387,FXMGM Market Signals@fxmgm,Hi PoshZel. Thanks for following our free twitter signals feed. full version there http://fxmgm.com #fx #forex #bitcoin #altcoin,0,0,0,False
388,NE Patriots Dynasty@NEPatsDynasty,Gold & #Crypto-Currency in one clever system. Join the Digital Currency Revolution and turn your #PROFITS into GOLD http://dld.bz/dARdH,0,0,0,False
389,BlockChannel@BlockChannel,"BCN News: bitcoinist ""21 Marketplace Now Offers Paid APIs For Bitcoin http://ift.tt/1X5RMT0 #bitcoin #blockchain #btc #cryptocurrency #a…",0,0,0,False
390,Bitcoinist.com@bitcoinist,21 Marketplace Now Offers Paid APIs For Bitcoin http://ift.tt/1X5RMT0 #bitcoin #blockchain #btc #cryptocurrency #altcoins #money #freebi…,1,0,0,False
391,tekybot@tekypromo,Blockchain Technology Predictions For 2016 http://ift.tt/1pTIRci #tekypromo #TP #NEWS #cryptocurrency,0,0,0,False
392,BitcoinBuzz vega9@BitcoinBuzzV9,http://bitcoinbuzz.vega9.com - Hot topics: #bitcoin #btc #opreturn #blockchain #monstercoingame #crypto,0,0,0,False
393,Crypto Yoyo@cryptoyoyo,C-Bit Altcoin Highlights Everything Wrong With the Bitcoin Community http://bit.ly/1N3IEsm #bitcoin #crypto #news,0,0,0,False
394,Crypto Yoyo@cryptoyoyo,Report Finds Vulnerabilities in 90% of Mobile Applications http://bit.ly/1UzoL4h #bitcoin #crypto #news,0,0,0,False
395,Team 300FPS ︻╦̵̵̿╤─@300FPSGAMING,21 Marketplace Now Offers Paid APIs For Bitcoin http://btcf.co/1RT5YKs #bitcoin #bitcoinnews #btc #cryptocurrency,1,0,0,False
396,Vallum Software@vallumsoftware,Fear or greed: Why are Australian banks cutting off #Bitcoin businesses? - http://buff.ly/25wDtg0 #cryptocurrency,0,0,0,False
397,tekybot@tekypromo,21 Marketplace Now Offers Paid APIs For Bitcoin http://ift.tt/1pTHjix #tekypromo #TP #NEWS #cryptocurrency,0,0,0,False
398,Jesse James@btce4,21 Marketplace Now Offers Paid APIs For Bitcoin http://dlvr.it/Ky1SKh #bitcoin #bitcoinnews #crypto,0,0,0,False
399,Born Pitcoin@PornBitcoin,21 Marketplace Now Offers Paid APIs For Bitcoin http://dlvr.it/Ky1SJg #bitcoin #bitcoinnews #crypto,0,0,0,False
402,Bitcoin Press@BitcoinPressX,21 Marketplace Now Offers Paid APIs For Bitcoin http://dlvr.it/Ky1SKg #bitcoin #bitcoinnews #crypto,0,0,0,False
403,CryptoTorNews@CryptoTorNews,21 Marketplace Now Offers Paid APIs For Bitcoin http://dlvr.it/Ky1SHg #bitcoin #bitcoinnews #crypto,0,0,0,False
404,notsofast@notsofast,@KryptRichards we're in a phase of ninja pumping every single #altcoin that ever existed. It's baffling!,5,1,0,False
405,BARFSTEW - THE DEBRIS OF EARTH'S STEW@Barfstew,The ETHEREUM PRICE blog - facts for your ETH trades today - http://ethereumprice.blogspot.com/2016/04/eth-0272-btc-april-2nd-2016.html… #bitcoin #ethereum @trutherbotpink @mtbit_imtc #crypto,0,0,0,False
406,Denny McEnroe@McEnroeDenny,"Re: [30 PH] ** 5x AVALON6 GIVEAWAY ** Kano CKPool (kano.is) [0.9% PPLNS] US,DE,SG http://cur.lv/x1llt #bitcoin #crypto",0,0,0,False
407,Denny McEnroe@McEnroeDenny,Re: http://YoBit.Net - Signature Campaign - Realtime Payouts (daily) http://cur.lv/x1lls #bitcoin #crypto,0,0,0,False
408,Denny McEnroe@McEnroeDenny,Re: Bleutrade Cryptocurrency Exchange [OFFICIAL THREAD] http://cur.lv/x1llr #bitcoin #crypto,0,0,0,False
409,Gabor Venczel@ujtrend,"Bank of Canada Researcher: Bitcoin Monetary Standard #cryptocurrency, bitcoin, octacoin, http://webogi.com/numT7i",0,0,0,False
410,Denny McEnroe@McEnroeDenny,Re: [ANN] [ZEIT] ★ZeitCoin★ COMMUNITY [FULLY POS | 15%] [ZEIT KNIGHTS] http://cur.lv/x1llp #bitcoin #crypto,0,0,0,False
411,Denny McEnroe@McEnroeDenny,Re:  JETWIN.PS Signature Campaign  http://cur.lv/x1llo #bitcoin #crypto,0,0,0,False
412,Farah K. Miraza@farahkaifa,#cryptocurrency #crypto Investment Firm Pegs Bitcoin Value at $655 http://ow.ly/3d6ISa,0,0,0,False
413,psygambler ₿@sajklan,Accept Bitcoin and other crypto in your online store with CoinPayments https://coinpayments.net/index.php?ref=91a7db4c589a0a50a1a81998ed2f024b… #bitcoin #altcoins #CoinPayments,0,0,0,False
414,Julia Vaingurt@julia_vaingurt,"Google wallet becomes centralized #bitcoin “competitor” #crypto #cryptocurrency http://cur.lv/x1lkh
http://cur.lv/x1lki",0,0,0,False
415,Kevin Müller@downunder2310,Accept Bitcoin and other crypto in your online store with CoinPayments https://coinpayments.net/index.php?ref=d625e339a0973be3383c135659ee1928… #bitcoin #altcoins #CoinPayments,0,0,0,False
416,Monkam@CryptoMonkam,could $RDD repeat $QORA pattern? time will tell us #altcoinsGIF,1,0,0,False
417,Charly Highnoise@CharlyHighnoise,"An issue that will require a good chunk of effort to straighten out for mass adoption of #cryptocurrency is #itsecQuote TweetCoinDesk@CoinDesk · Apr 2, 2016Another bitcoin exchange service has closed its doors following an alleged hack http://bit.ly/1MCe9in",1,0,0,False
418,Bitcoinist.com@bitcoinist,C-Bit Altcoin Highlights Everything Wrong With the Bitcoin Community http://ift.tt/1qcKeUl #bitcoin #blockchain #btc #cryptocurrency #al…,1,2,0,False
419,craig beattie@cgbeattie,#FX: #Cryptocurrency trading venues snowball http://buff.ly/1Vg5HXA via @euromoney featuring @bradjaybailey #forex via @Celent_Research,0,0,0,False
425,coinOK@coinok,Win $150 in Dogecoins every hour! http://freedoge.co.in/?r=98385 #doge #dogecoin #btc #bitcoin #ltc #altcoin #cryptocurrency,0,0,0,False
426,tekybot@tekypromo,Investment Firm Pegs Bitcoin Value at $655 http://ift.tt/1X5NYRz #tekypromo #TP #NEWS #cryptocurrency,0,0,0,False
427,The Third Wave@metamorphin,#GRS dries out on #bittrex #Groestlcoin is preparing a big jump? #altcoins #btx,1,0,0,False
428,BitcoinBuzz vega9@BitcoinBuzzV9,http://bitcoinbuzz.vega9.com - Hot topics: #bitcoin #btc #blockchain #monstercoingame #robotcoingame #cryptocurrency,0,0,0,False
429,Team 300FPS ︻╦̵̵̿╤─@300FPSGAMING,Investment Firm Pegs Bitcoin Value at $655 http://btcf.co/1PMVECD #bitcoin #bitcoinnews #btc #cryptocurrency,0,0,0,False
430,Coin Tiny@CoinTiny,Caribbean Startup Bitt Receives $4 Million #CryptoCurrency #Crypto,1,0,0,False
431,AlertCo.in@AlertCoin,"#Bitcoin last trade

@bitfinex $420.08
@btcecom $416.48

Set #crypto #price #alerts at http://AlertCo.in",1,2,0,False
432,AlertCo.in@AlertCoin,"#Bitcoin last trade

@bitstamp $418.60
@coinbase $419.37

Set #crypto #price #alerts at http://AlertCo.in",1,2,0,False
433,CryptoRSS@CryptoRSS,The Terrorist Justification for Mass Surveillance: The UK government's attempts to ease the passage of... http://bit.ly/1qcMOte #crypto,1,0,0,False
434,Fintech Prowler@FintechProwler,C-Bit Altcoin Highlights Everything Wrong With the Bitcoin Community - http://Bitcoinist.net http://ift.tt/25CtCp2 #altcoin,0,0,0,False
435,Bitcoin Press@BitcoinPressX,C-Bit Altcoin Highlights Everything Wrong With the Bitcoin… http://dlvr.it/Ky04zX #bitcoin #bitcoinnews #crypto,1,0,0,False
436,Born Pitcoin@PornBitcoin,C-Bit Altcoin Highlights Everything Wrong With the Bitcoin… http://dlvr.it/Ky04zl #bitcoin #bitcoinnews #crypto,0,0,0,False
437,Jesse James@btce4,C-Bit Altcoin Highlights Everything Wrong With the Bitcoin… http://dlvr.it/Ky04zZ #bitcoin #bitcoinnews #crypto,0,0,0,False
438,CryptoTorNews@CryptoTorNews,C-Bit Altcoin Highlights Everything Wrong With the Bitcoin… http://dlvr.it/Ky04zY #bitcoin #bitcoinnews #crypto,0,0,0,False
439,Stéphane Bortzmeyer@bortzmeyer,"Good morning, Buenos Aires! Today is #PROTOSEC https://protosec.org #DNS #IPv6 #HSM #crypto",1,1,0,False
442,Team 300FPS ︻╦̵̵̿╤─@300FPSGAMING,C-Bit Altcoin Highlights Everything Wrong With the Bitcoin Community http://btcf.co/1oqIpRM #bitcoin #bitcoinnews #btc #cryptocurrency,1,0,0,False
443,tekybot@tekypromo,C-Bit Altcoin Highlights Everything Wrong With the Bitcoin Community http://ift.tt/1MJ8cjF #tekypromo #TP #NEWS #cryptocurrency,0,0,0,False
444,NE Patriots Dynasty@NEPatsDynasty,10 new Bank of America #Cryptocurrency Patents. The Future of #Money and Payment. JOIN FREE Click here http://buygold.ilgamos.com/buy?buy_type=1,1,0,0,False
445,BitcoinAgile@bitcoinagile,Caribbean Startup Bitt Receives $4 Million - #bitcoin News #Crypto #Bitcoinstartups #Bitit https://news.bitcoin.com/caribbean-startup-receives-4-million…,3,2,0,False
446,Denny McEnroe@McEnroeDenny,Re: Is there a country you would love to move to? http://cur.lv/x1jkv #bitcoin #crypto,0,0,0,False
447,Denny McEnroe@McEnroeDenny,Re: [ANN][EST 2014] Rimbit - We removed mining so its just the community and coin http://cur.lv/x1jku #bitcoin #crypto,0,0,0,False
448,Denny McEnroe@McEnroeDenny,Re: Full Member account Going Cheap http://cur.lv/x1jkt #bitcoin #crypto,0,0,0,False
449,Denny McEnroe@McEnroeDenny,Re: Execoin: | First Open-Source Stealth Wallet Released! | Fast | ASIC-proof http://cur.lv/x1jks #bitcoin #crypto,0,0,0,False
450,CryptoCoinsMarket@ccoinmarket,Caribbean Startup Bitt Receives $4 Million http://ift.tt/21YwO9N http://ift.tt/1qcIH0s #crypto #bitcoin,0,0,0,False
451,DigitalNote@DigitalNote_XDN,"#DigitalNote is a blockchain based system: #cryptocurrency, №1 #encrypted messenger, decentralized p2p #banking, ...
http://digitalnote.org",3,0,0,False
452,OpenLedger@OpenLedgerDC,Meet #Cryptonomex's Dan #Larimer And His Four Horsemen Of #Crypto-Economics @forbes http://onforb.es/1RCPBUk #OpenLedger #BitShares #fintech,3,0,0,False
453,XBTFreelancer.com@XBTFreelancer,#earnmoney http://xbtfreelancer.com/prj/1132/setting-up-a-to-z-hosting-website… #bitcoin Setting up  A to Z Hosting website #programming #crypto,0,0,0,False
454,BitcoinBuzz vega9@BitcoinBuzzV9,http://bitcoinbuzz.vega9.com - Hot topics: #bitcoin #btc #blockchain #robotcoingame #crypto #cryptocurrency,0,0,0,False
455,International CCC@Int_CCC,Today's Crypto Chronicle! News about #bitcoin #cryptocurrency and more! http://paper.li/Int_CCC/1409392381?edition_id=05554260-f8b9-11e5-868f-002590a5ba2d…,0,0,0,False
456,Zero Cost Marketing@ZeroCostProfit,What is #Startpeeps and How to Profit From Your Membership : http://bit.ly/startpeepsreporten… #mmo #marketing #crypto #altcoin,2,0,0,False
457,BitcoinBuzz vega9@BitcoinBuzzV9,http://bitcoinbuzz.vega9.com - Hot topics: #bitcoin #congress #btc #blockchain #crypto #cryptocurrency,0,0,0,False
458,SatoshiPoint@SatoshiPoint,"At #SatoshiPoint the customer comes 1st
Is there something we could be doing better? Let us know #bitcoinATM #cryptoQuote TweetKazama888@KKazama888 · Apr 2, 2016Machines are rarely the problem, but the people operating them though....
#bcbanking #bitcoin #horrorstories",3,2,0,False
459,Omar Khan@66owls,"#Trump  Calls To Make All Campaign Donations #crypto , Launches #TrumpCoin http://cointelegraph.com/news/trump-calls-to-make-all-campaign-donations-crypto-launches-trumpcoin… #fintechTrump Calls To Make All Campaign Donations Crypto, Launches TrumpCoinUS Presidential candidate Donald Trump calls for mandating that elections be exclusively funded by cryptocurrency, drawing harsh criticism from his rivals, from Ted Cruz to Bernie Sanderscointelegraph.com",1,0,0,False
460,Crypto Yoyo@cryptoyoyo,Brave Software reveals details about browser bitcoin micropayments and user earnings http://bit.ly/21Yrrre #bitcoin #crypto #news,1,0,0,False
461,Crypto Yoyo@cryptoyoyo,The Airbitz Developer SDK Is Now Available http://bit.ly/1MJ0I09 #bitcoin #crypto #news,1,0,0,False
462,Cryptocoin Radar@cryptocoinradar,"gmc/btc: +17% value, -24% volume in 6 hours (http://cryptocoinradar.com monitored #trading #altcoin #cryptocoin)",0,0,0,False
463,Denny McEnroe@McEnroeDenny,"Re: Need review on http://FreeBitcoinTalk.org forum, lowest bid wins, multi-lang http://cur.lv/x1hdq #bitcoin #crypto",0,0,0,False
464,Denny McEnroe@McEnroeDenny,Re: █▓▒░-< [ZPOOL.CA][BTC Multipool] The miners multipool >-░▒▓█ Decred (DCR) Mining http://cur.lv/x1hdp #bitcoin #crypto,0,0,0,False
465,Denny McEnroe@McEnroeDenny,Re: [RaiBlocks] RaiBlocks trading thread http://cur.lv/x1hdo #bitcoin #crypto,0,0,0,False
473,Denny McEnroe@McEnroeDenny,Re: █▓▒░-< [ZPOOL.CA][BTC Multipool] The miners multipool >-░▒▓█ Decred (DCR) Mining http://cur.lv/x1hdn #bitcoin #crypto,0,0,0,False
474,Denny McEnroe@McEnroeDenny,Re: Why is gambling so addicting? http://cur.lv/x1hdm #bitcoin #crypto,0,0,0,False
475,Defi@DefiFreakyBoo,"Shopping ...
#defi #defibitch #defifreakyboo #shopping #gosh #saturday #wearehungry #snapchatme… https://instagram.com/p/BDsQv9VlJNG/",3,0,0,False
476,Defi@DefiFreakyBoo,"Oldies / Lidl 
#defi #defibitch #defifreakyboo #granko #retro #lidl #yas #imold #saturday… https://instagram.com/p/BDsQdy9lJMo/",2,0,0,False
477,Zero Cost Marketing@ZeroCostProfit,ADZcoin About To Explode In Value? Browser Extension Launching Today : http://ow.ly/10cNKQ #altcoin #chrom,0,0,0,False
478,Chris Doerfler@cmdoerfler,"@ThaiDCA is a great Thailand, and ultimately #SEAsia #asean, #cryptocurrency #bitcoin & #blockchain awareness initiative",0,0,0,False
479,Cryptocoin Radar@cryptocoinradar,"myr/btc: 0% value, +26% volume in 12 minutes (http://cryptocoinradar.com monitored #trading #altcoin #cryptocoin)",0,0,0,False
480,BitcoinAgile@bitcoinagile,Electricity backed currency #fintech #crypto #payments #cryptocurrency https://medium.com/@crypto_future/electricity-backed-currency-2a43b7a936d6…,0,0,0,False
481,bitwagePaolo@NatSecCyberWonk,“Electricity backed currency” by crypto_future https://medium.com/@crypto_future/electricity-backed-currency-2a43b7a936d6#.6qyjn54al… #crypto #fintech #payments #cryptocurrency,0,0,0,False
482,AdzCoin Newsstories@GetFreeAdz,ADZcoin About To Explode In Value? Browser Extension Launching Today : http://ow.ly/10cNKQ #adz #altcoin #chrom,0,0,0,False
483,NE Patriots Dynasty@NEPatsDynasty,JOIN FREE now. #MONEY #Bitcoin The Next NEW #Crypto #Currency. It is called #ILCoin  JOIN Click here http://buygold.ilgamos.com/buy?buy_type=1,0,0,0,False
484,Farah K. Miraza@farahkaifa,#cryptocurrency #crypto Is Bitcoin A Safe Asset? - Is Bitcoin A Safe Asset?   Is bitcoin a safe asset? David An... http://ow.ly/3d6wFK,0,0,0,False
485,CryptoRSS@CryptoRSS,Apple and Google have been asked to crack phones at least 63 times: Since 2008 the US government has u... http://bit.ly/22XEUFz #crypto,0,0,0,False
486,BitcoinBuzz vega9@BitcoinBuzzV9,http://bitcoinbuzz.vega9.com - Hot topics: #bitcoin #congress #btc #crypto #cryptocurrency #blockchain,0,0,0,False
487,Night Witch@tothemoonwitch,Take thought to buy some #EXP #altcoins,0,0,0,False
488,Natmccoy@natmcmolecule,Interested in #poker #altcoin /#bitcoin trading or supporting & following my journey? Subscribe to https://reddit.com/r/cryptopoker #redditdigital currency poker • r/cryptopokerOnline poker using cryptocurrencyreddit.com,1,0,0,False
489,Denny McEnroe@McEnroeDenny,Re: We are down again? http://cur.lv/x1ebw #bitcoin #crypto,0,0,0,False
490,Denny McEnroe@McEnroeDenny,Re: [Lotto - #1] Win full member account http://cur.lv/x1ebv #bitcoin #crypto,0,0,0,False
491,Denny McEnroe@McEnroeDenny,Re: I want to start trading http://cur.lv/x1ebt #bitcoin #crypto,0,0,0,False
492,Denny McEnroe@McEnroeDenny,Re: Test ethereum http://cur.lv/x1ebs #bitcoin #crypto,0,0,0,False
493,PinkMona@pinkmona_org,#bitcoin #altcoin #dogecoin Let's Hentai! Come on PinkMona!→http://pinkmona.org,0,0,0,False
494,Cryptocoin Radar@cryptocoinradar,"ReddCoin/Bitcoin: +11% value, +6% volume in 30 minutes (http://cryptocoinradar.com monitored #trading #altcoin #cryptocoin)",0,0,0,False
508,MonetaryUnit@MonetaryUnit,"$MUE is THE #crypto payment in two entire shopping malls in #Vegas.
Over 90+ stores, 1 roof
#Bitcoin #dash #ethereum
https://bitcointalk.org/index.php?topic=778322.msg13670018#msg13670018…",1,0,0,False
509,On-Chain@OnChainVentures,Aussie Government to outlaw cryptocurrency tax http://cointelegraph.com/news/australian-treasurer-scott-morrison-we-wont-be-taxing-digital-currencies… #cryptocurrency #australia #taxes #bitcoinAustralian Treasurer Scott Morrison: “We Won’t be Taxing Digital Currencies”The Australian Government announced that the current double tax law on digital currencies including Bitcoin is soon to be reformed.cointelegraph.com,0,0,0,False
510,Liberation Technology@Liberationtech,Why Making Johnny’s Key Management Transparent is So Challenging | #cybersecurity #crypto https://freedom-to-tinker.com/blog/masomel/why-making-johnnys-key-management-transparent-is-so-challenging/…,3,5,0,False
511,BitcoinBuzz vega9@BitcoinBuzzV9,http://bitcoinbuzz.vega9.com - Hot topics: #bitcoin #btc #crypto #blockchain #cryptocurrency #primedice,0,0,0,False
512,AlertCo.in@AlertCoin,"#Bitcoin last trade

@bitstamp $418.47
@coinbase $418.97

Set #crypto #price #alerts at http://AlertCo.in",2,0,0,False
513,AlertCo.in@AlertCoin,"#Bitcoin last trade

@bitfinex $420.16
@btcecom $416.45

Set #crypto #price #alerts at http://AlertCo.in",2,0,0,False
514,Julia Vaingurt@julia_vaingurt,"Vatican slated as 1st state adopters of #cryptocurrency #bitcoin #crypto #cryptocurrency http://cur.lv/x1d5g
http://cur.lv/x1d5h",0,0,0,False
515,Anondran@AnondranCrypto,"$ETH $BTC If you tweet about #altcoins gonna do this, that, up, down, price play,etc.. Do what you're gonna tweet before you tweet. #lesson",0,0,0,False
516,Cryptocoin Radar@cryptocoinradar,"qora/btc: +18% value, -4% volume in 3 hours (http://cryptocoinradar.com monitored #trading #altcoin #cryptocoin)",0,0,0,False
517,Liberation Technology@Liberationtech,"The #Apple - @FBI Battle Is Over, But the New #CryptoWars Have Just Begun | #crypto http://wired.com/2016/03/apple-fbi-battle-crypto-wars-just-begun/…",7,6,0,False
518,XBTFreelancer.com@XBTFreelancer,#jobs #makemoney Setting up  A to Z Hosting website #programming http://xbtfreelancer.com/prj/1132/setting-up-a-to-z-hosting-website… #bitcoin #crypto,0,0,0,False
519,BitcoinBuzz vega9@BitcoinBuzzV9,http://bitcoinbuzz.vega9.com - Hot topics: #bitcoin #btc #crypto #cryptocurrency #blockchain #primedice,0,0,0,False
520,Denny McEnroe@McEnroeDenny,Re: Bitcoin can not replace fiat http://cur.lv/x1cbu #bitcoin #crypto,0,0,0,False
521,Denny McEnroe@McEnroeDenny,Re: The future of the paper money http://cur.lv/x1cbt #bitcoin #crypto,0,0,0,False
522,Denny McEnroe@McEnroeDenny,Re: Philippines (Off-topic) http://cur.lv/x1cbs #bitcoin #crypto,0,0,0,False
523,Denny McEnroe@McEnroeDenny,Re: WTS Minecraft http://cur.lv/x1cbo #bitcoin #crypto,0,0,0,False
524,JΞSSΞ ℂOUℂH@jessecouch,#ThatMomentWhen you realize you own a nice bag of every #crypto on @Poloniex and have to start sending profits over to @BittrexExchange.,1,0,0,False
538,CNXL.STUDIO@CNXLstudio,"online mixing and mastering service
#residual #cryptocurrency #easymoney #best #network #profit #casino #millionaire #directselling #luxury",3,0,0,False
539,Anondran@AnondranCrypto,$ETH $BTC #altcoin Looks like $UNITY #supernet is about to be pumped next. Fingers crossed :) #iguanacore #waves,1,0,0,False
540,Coin Tiny@CoinTiny,Have any of you heard of this rapper? His name is Bitcoin. #CryptoCurrency #Crypto,0,0,0,False
541,Brandon Terry@brandonterry909,"Awww baby, the new set up#itsasubiething #subaru #sti #buckyeah #defi #cockpitview https://instagram.com/p/BDr6AKAH7-X/",0,0,0,False
542,Richard Bateman@r1chardbateman0,"$BTCUSD:On 3/31 and 4/1, I predicted the move from 415 to 420, and the short at 420.  #forex. #futures #bitcoin #btc #crypto #cryptocurrency",0,0,0,False
543,FXMGM Market Signals@fxmgm,Hi Sarhn. Thanks for following our free twitter signals feed. full version there http://fxmgm.com #fx #forex #bitcoin #altcoin,0,0,0,False
544,BTCPriceWatch@btcpricewatch,#dash/#btc pair amongst the other top pairs is the only profitable  #altcoin for trade right now http://btcmarginprofit.com/pair/dash/btc,3,2,0,False
545,Richard Bateman@r1chardbateman0,"$BTCUSD Target hit @ 420. On #bitstamp today, #bitcoin reached 420, followed by short to 416. #cryptocurrency #trading #markets #btc #crypto",3,0,0,False
546,CryptoRSS@CryptoRSS,New Heap-Spray Exploit Tied To LZH Archive Decompression: Researchers found a vulnerability in the cla... http://bit.ly/1PMhMNp #crypto,0,0,0,False
548,Cryptocoin Radar@cryptocoinradar,"pink/btc: +16% value, +10% volume in 12 minutes (http://cryptocoinradar.com monitored #trading #altcoin #cryptocoin)",1,1,0,False
549,Crypto Yoyo@cryptoyoyo,Trace Mayer recaps Bitcoin and blockchain technology during Q1 2016Bitcoin Knowledge Podcast http://bit.ly/1X5fxdO #bitcoin #crypto #news,1,0,0,False
550,Digital Bitcoin@Digital_Bitcoin,"Dear @omarali8501,  Get FREE DAILY BONUSES on Cryptocurrency. Join Today http://bit.ly/storeyourcoins #crypto via https://Statusbrew.com/?r=wl",1,0,0,False
551,Denny McEnroe@McEnroeDenny,Re: NBA 2015-16 Regular Season Discussion http://cur.lv/x1a3a #bitcoin #crypto,0,0,0,False
552,Denny McEnroe@McEnroeDenny,Re: Wall Observer BTC/USD - Bitcoin price movement tracking & discussion http://cur.lv/x1a37 #bitcoin #crypto,0,0,0,False
553,Denny McEnroe@McEnroeDenny,Re: http://Coinbet24.com  The #1 Bitcoin Sportsbook http://cur.lv/x1a36 #bitcoin #crypto,0,0,0,False
554,Denny McEnroe@McEnroeDenny,Re: NBA 2015-16 Regular Season Discussion http://cur.lv/x1a34 #bitcoin #crypto,0,0,0,False
555,Bitcoin@bitcoinpoet,Bitcoin Gaming Alternative HYPER Sponsors Jon Fitch in World Series of Fighting: Low energy ga... http://btcs.me/1qc4w09 #cryptocurrency,0,0,0,False
564,Julia Vaingurt@julia_vaingurt,"I'm Into Crypto Guy http://cur.lv/x19p2
#crypto #cryptocoin #cryptocurrency #money #bitcoin #btc #image #images http://cur.lv/x19p4",0,0,0,False
565,MarketersCooperative@marketers_coop,"I'm Into Crypto Guy http://marketers.coop/m/photos/view/1458166459…
#crypto #cryptocoin #cryptocurrency #money #bitcoin #btc #image #images",0,0,0,False
566,"Imprimis, Inc.@ImprimisInc",#NIST pledges 'global acceptability' in #crypto #standards #Cyber http://news360.com/article/343823387…,1,0,0,False
567,Cryptocoin Radar@cryptocoinradar,"xvg/btc: +4% value, +202% volume in 12 minutes (http://cryptocoinradar.com monitored #trading #altcoin #cryptocoin)",0,0,0,False
568,Julia Vaingurt@julia_vaingurt,"The top 10 biggest names in #bitcoin and #blockchain #industries #crypto #cryptocurrency http://cur.lv/x199v
http://cur.lv/x199x",3,0,0,False
569,MonetaryUnit@MonetaryUnit,"Want to crypto mine using your Android device?
MIner now available
http://monetaryunit.org/muestuff/mine-mue-using-your-android-device/…
#crypto #android #alts #quark #androidminer #mue",1,1,0,False
