,user,text,likes,retweets,replies,is_thread
0,Rob Buser@sooperrobman,#ONECOIN - #JuhaParhiala - How It Works - Thank You #DimitryYarvensivu - #ROBBUSER (>) https://youtu.be/18uZZ7UJB00 @YouTube #cryptocurrency,0,0,0,False
1,Steve Schulin@GrandStrander,#cryptocurrency - informative & inspiring EU parliament committee hearing between about 10-min mark and 1-hr markCommittee on Economic and Monetary Affairs - 25/01/2016 (PM) | News | European ParliamentCommittee on Economic and Monetary Affairs - 25/01/2016 (PM)europarl.europa.eu,1,0,0,False
2,Bitcoin@bitcoinpoet,Bitcoin Price And The Bear(TM): Bitcoin price is caught in a negative social mood. Trading bel... http://btcs.me/1KO63No #cryptocurrency,1,0,0,False
3,Denny McEnroe@McEnroeDenny,Looking for a bitcoin blog posting job! http://cur.lv/utwqp #bitcoin #crypto,0,0,0,False
4,Denny McEnroe@McEnroeDenny,Re: can bitcoin conquer the world? http://cur.lv/utwqo #bitcoin #crypto,0,0,0,False
5,Denny McEnroe@McEnroeDenny,"Re: Paypal Credit $1,000 USD for 1,4 BTC http://cur.lv/utwqn #bitcoin #crypto",0,0,0,False
6,Denny McEnroe@McEnroeDenny,Re: Are you buying bitcoins? Why? http://cur.lv/utwql #bitcoin #crypto,0,0,0,False
7,Everton pessoa@Yevertonpessoa,"Yes, #eth is nothing but whales manipulation on fake volume and fake walls just like the old #bittrex game. #altcoin #scam #fake #bitcoin",1,0,0,False
8,ⱣotCoin@PotCoin,"PotCoin Android Mobile Wallet
For all things #Cannabis DOWNLOAD IT NOW! http://potcoin.com #altcoins #BTC #pot",4,1,0,False
9,David Liam@crazydaveorama,#Tax Tips for #Bitcoin and Virtual Currency - TurboTax Tax Tips & Videos #cryptocurrency https://turbotax.intuit.com/tax-tools/tax-tips/Taxes-101/Tax-Tips-for-Bitcoin-and-Virtual-Currency/INF29402.html…,0,0,0,False
10,Cryptolized™@Cryptolized,"Azerbaijan Opening Up To Bitcoin And Cryptocurrencies http://twib.in/l/7eak5A4kaKG #cryptocurrency | https://twibble.ioAzerbaijan Opening Up To Bitcoin And CryptocurrenciesCointelegraph interviews Tabriz Aliyev, co-founder of BTC.AZ, to hear about the state of Bitcoin in Azerbaijan and expectations for future.cointelegraph.com",0,0,0,False
11,David Liam@crazydaveorama,Daily #Altcoin Price Analysis: One More Dance After The Party #cryptocurrency http://coint.co/2jn6,1,0,0,False
12,Taylor@Cordessz,"Yes, #eth is nothing but whales manipulation on fake volume and fake walls just like the old #bittrex game. #altcoin #scam #fake #bitcoin",1,0,0,False
13,alper@Lemon17851572,"Yes, #eth is nothing but whales manipulation on fake volume and fake walls just like the old #bittrex game. #altcoin #scam #fake #bitcoingag",0,0,0,False
14,Kamila Koczorowska@kaczogrood,"Yes, #eth is nothing but whales manipulation on fake volume and fake walls just like the old #bittrex game. #altcoin #scam #fake #bitcoin",0,0,0,False
27,David Liam@crazydaveorama,#Dash Increases Its Block Size as Founder Confirms Instantaneous Transactions #cryptocurrency https://cryptocoinsnews.com/dash-increases-its-block-size/… via @CryptoCoinsNews,0,0,0,False
28,Bitcoin Hourly@bitcoin_hourly,"Price Update: 1 #Bitcoin = $378.6900

#cryptocurrency source http://yhoo.it/1PH2nON (via @Flutter_HQ)",0,0,0,False
29,BitcoinBuzz vega9@BitcoinBuzzV9,http://bitcoinbuzz.vega9.com - Hot topics: #robotcoingame #bitcoin #btc #cryptocurrency #monstercoingame #dogecoin,0,0,0,False
30,Prathamesh Bhosale@PB_Prathamesh_B,Bitcoin Price Pre-Fed Announcement https://cryptocoinsnews.com/bitcoin-price-and-the-fed-announcement/… #cryptocurrency,0,0,0,False
31,Felipe Sousa@felipe_sousa081,"Yes, #eth is nothing but whales manipulation on fake volume and fake walls just like the old #bittrex game. #altcoin #scam #fake #bitcoin",0,0,0,False
32,Vindyne8@Vindyne8,What are you waiting for? $bitnodes http://bitnodes.net/status/ Get one for your favorite alt #altcoins #alts today! @bitnodesnet #RT,13,14,0,False
33,Crypto Yoyo@cryptoyoyo,What is Bitcoin? http://bit.ly/1PpIno2 #bitcoin #crypto #news,0,0,0,False
34,Crypto Yoyo@cryptoyoyo,Bitcoin Price And The Bear(TM) http://bit.ly/1Q23IQy #bitcoin #crypto #news,0,0,0,False
35,CCN - Capital & Celeb News@CapitalAndCeleb,Bitcoin Price Pre-Fed Announcement https://cryptocoinsnews.com/bitcoin-price-and-the-fed-announcement/… #cryptocurrency,2,4,0,False
36,RL Aitken@AitkenRL,"#Obits #crypto currency has added #Fiat gateway @Forbes #OpenLedger @CCEDK_ #bitcoin #bitshares @drjohnbatesCryptocurrency OBITS Adding 'Fiat Gateway' After Robust Crowd SaleIn just a few weeks from now this February the first and potentially “last buyback” of fledgling cryptocurrency OBITS is expected to occur, whereby an anticipated dividend option will be possible to...forbes.com",5,2,2,False
37,Denny McEnroe@McEnroeDenny,Re: My Swing Developer / Hero account stolen - sold to Altcoin4Life in scam loan http://cur.lv/uttni #bitcoin #crypto,0,0,0,False
41,Denny McEnroe@McEnroeDenny,Re: [ANN] Mercurial - [MCI] - Linking Crypto Currencies http://cur.lv/uttn6 #bitcoin #crypto,0,0,0,False
42,"Christopher Sessums, PhD@csessums",How leveraging #blockchain technology could revolutionize the music industry http://buff.ly/1SjHQVg #crypto #investing,2,1,0,False
43,Francky@EasyHackGaming,"Yes, #eth is nothing but whales manipulation on fake volume and fake walls just like the old #bittrex game. #altcoin #scam #fake #bitcoin",1,0,0,False
44,Coin Tiny@CoinTiny,Secure distributed data stored in blockchain #CryptoCurrency #Crypto,0,0,0,False
45,BetOnNXT@BetOnNXT,We got 1 winner for game 2016-01-30 20:00! Total won: 33 NXT. #NXT #Crypto #Betting,2,0,0,False
46,Bitcoin Hourly@bitcoin_hourly,"Price Update: 1 #Bitcoin = $380.3200

#cryptocurrency source http://yhoo.it/1PH2nON (via @Flutter_HQ)",0,0,0,False
47,BitcoinBuzz vega9@BitcoinBuzzV9,http://bitcoinbuzz.vega9.com - Hot topics: #bitcoin #bitclubnetwork #btc #robotcoingame #mining #cryptocurrency,0,0,0,False
48,Alacrán !@Alacran_iupiii,"Yes, #eth is nothing but whales manipulation on fake volume and fake walls just like the old #bittrex game. #altcoin #scam #fake #bitcoin",0,0,0,False
49,Jillian Pinto@5dollarSEO,"Yes, #eth is nothing but whales manipulation on fake volume and fake walls just like the old #bittrex game. #altcoin #scam #fake #bitcoin",0,0,0,False
50,Prathamesh Bhosale@PB_Prathamesh_B,Why Bitcoin Isn’t Dead https://cryptocoinsnews.com/bitcoin-isnt-dead/… #cryptocurrency,0,0,0,False
51,Ali Güçlü@aliguclu,"CryptoCoinsNews : Why Bitcoin Isn’t Dead https://cryptocoinsnews.com/bitcoin-isnt-dead/… #cryptocurrency … https://twitter.com/CryptoCoinsNews/status/693550747045216256…)Quote TweetCCN - Capital & Celeb News@CapitalAndCeleb · Jan 30, 2016Why Bitcoin Isn’t Dead https://cryptocoinsnews.com/bitcoin-isnt-dead/… #cryptocurrency",0,0,0,False
52,paul@pa3tet,StealthCoin is #1 Cryptocurrency https://twitter.com/StealthCoin #altcoins #sexy #girl #woman #iphone #ipad http://pbs.twimg.com/media/CGMi4_UUUAAXn0W.png…,0,0,0,False
53,CCN - Capital & Celeb News@CapitalAndCeleb,Why Bitcoin Isn’t Dead https://cryptocoinsnews.com/bitcoin-isnt-dead/… #cryptocurrency,3,8,0,False
54,Okcash @OkcashCrypto,Congratulations @homiaranhapravc @territoriobtc @eie_spain for being top #crypto community members this week :) (http://bit.ly/_get_your_free_tweet…),3,4,0,False
55,andysbizz@andysbizz1,#Edoncoin - Updated Thread at Your Service https://bitcointalk.org/index.php?topic=1291818.0… #nodejs #altcoin #bitcoin #ethereum #litecoin #cryptocurrency,7,1,0,False
56,Coinfeed@CoinfeedIO,#Bitcoin #Price Almost There - CCN: Financial #Bitcoin & #Cryptocurrency News http://tinyurl.com/phr64py,0,0,0,False
57,Crypto Yoyo@cryptoyoyo,New HSBC Outage Shows How Decentralized Bitcoin Network Is Superior http://bit.ly/1OXLLVJ #bitcoin #crypto #news,1,0,0,False
58,Aldo Gustavo@AldoGustavoHY,"Yes, #eth is nothing but whales manipulation on fake volume and fake walls just like the old #bittrex game. #altcoin #scam #fake #bitcoin",1,0,0,False
59,Charlie McHenry@DonCarlitos,"Bank Of America Goes All In | To File For 20 More Blockchain-Related Patents - EconoTimes http://econotimes.com/Bank-Of-America-To-File-For-20-More-Blockchain-Related-Patents-152082… #CryptoCurrencyBank Of America To File For 20 More Blockchain-Related Patents - EconoTimesAccording to latest reports, Bank of America Corp is going to file for 20 patents related to the blockchain technology to the U.S. Patents and Trademark Office (USPTO) later this month, in addition...econotimes.com",1,0,0,False
60,Digiconomist@DigiEconomist,"#Cryptocurrency highlights week 4, incl.: #BitcoinCore working on its communication strategy http://digiconomist.net/cryptocurrency-highlights-week-4-2016…",0,0,0,False
61,futuristbot@futuristbot,how to monetize alchemist #crypto,1,0,0,False
62,Crowdify TV@crowdifytv,Africa Debuts Academy that Will Teach #Bitcoin http://smq.tc/1PxG5RE via @moneyandtech #CryptoCurrency #EdTech,0,0,0,False
63,Team 300FPS ︻╦̵̵̿╤─@300FPSGAMING,New HSBC Outage Shows How Decentralized Bitcoin Network Is Superior http://bit.ly/23AAa6p #bitcoin #bitcoinnews #btc #cryptocurrency,2,3,0,False
64,slots4play@slots4play,"#SatoshiNakamoto is the creator of #bitcoins - the #legendary #cryptocurrency. As a compliment to #Satoshi,... http://fb.me/7Uasg0kPo",1,0,0,False
65,Bitcoin Hourly@bitcoin_hourly,"Price Update: 1 #Bitcoin = $375.9800

#cryptocurrency source http://yhoo.it/1PH2nON (via @Flutter_HQ)",0,0,0,False
66,Null TX@nulltxnews,New HSBC Outage Shows How Decentralized Bitcoin Network Is Superior http://goo.gl/rVE6Lr #bitcoin #bitcoinnews #btc #cryptocurrency,2,9,0,False
67,rssbtc.com@rssbtc,"24 Hours of #Bitcoin 
0.25% price $376.64 USD 
-26.11% volume $173.M 
0.51% market cap $5.80B

#fintech #btc #crypto #usd #satoshi",1,0,0,False
68,DC Inno@DC_Inno,"Why #BitcoinClassic could be the future of #cryptocurrency: An explainer.
http://bit.ly/1PYDH4H
#bitcoin",1,1,0,False
69,Denny McEnroe@McEnroeDenny,Re: [ANN] DARKNET [DNET] QRK ALGO - PoW/PoS http://cur.lv/utqh1 #bitcoin #crypto,0,0,0,False
70,Denny McEnroe@McEnroeDenny,Re:  http://Ore-Mine.org topic locked. http://cur.lv/utqgy #bitcoin #crypto,0,0,0,False
71,Denny McEnroe@McEnroeDenny,Re: IV FREE Tipster Competition - win up to 1.9 BTC! (Discussion Thread) http://cur.lv/utqgx #bitcoin #crypto,1,0,0,False
72,Denny McEnroe@McEnroeDenny,Re: [∞ YH] http://solo.ckpool.org 1% fee solo mining USA/DE servers 154 blocks solved! http://cur.lv/utqgv #bitcoin #crypto,0,0,0,False
73,#bitcoinsulting@bitcoinsulting,"#EUROPECOIN soon @bitcointreff alloverEU & #ioT Hw-Device #crypto, #fintech #altcoin 4PRESS: http://goo.gl/X5PkV2",8,6,1,False
74,Coin Tiny@CoinTiny,DirectBet is offering LIVE In-Play Betting on the Australian Open Finals ! #CryptoCurrency #Crypto,0,0,0,False
75,ivan alejandro@crearcuenta666,"Yes, #eth is nothing but whales manipulation on fake volume and fake walls just like the old #bittrex game. #altcoin #scam #fake #bitcoin",0,0,0,False
76,YoutubersID@YoutuberID,"Yes, #eth is nothing but whales manipulation on fake volume and fake walls just like the old #bittrex game. #altcoin #scam #fake #bitcoin",1,0,0,False
77,Coin Tiny@CoinTiny,Feature Interview: Netcoins Virtual Bitcoin ATMs Cater to “Tech-Savvy Demographic” #CryptoCurrency #Crypto,0,0,0,False
78,Filip CHoddda@iBotAnsFakeLel,"Yes, #eth is nothing but whales manipulation on fake volume and fake walls just like the old #bittrex game. #altcoin #scam #fake #bitcoin",0,0,0,False
79,VanosEnigmA VideoMix@VanosEnigmA,"https://youtu.be/i4BprsZyrxc
#CryptoCurrency #Dash Flat Earth Coin #Community #Blockchain Bitcoin #Love Heart Art Money",2,17,0,False
80,The Third Wave@metamorphin,Replying to @europecoinEUORG@europecoinEUORG this is the best overview I ever saw in #europecoin #erc easy going is the key for success! #altcoins #IoT #Inno retweet,7,4,0,False
81,EUROPECOIN  (.eu.org)@europecoinEUORG,EUROPECOIN QUICKFACTS http://goo.gl/sfFCqN DOWNLOAD - SPREAD #crypto #fintech #altcoins #bittrex #altcoin #ioT RT,9,6,2,False
82,DECENT@DECENTplatform,"Another great episode, don't forget to check it! tnx @Bitcoin_Rush #crypto #blockchain https://twitter.com/Bitcoin_Rush/status/693193681658970112…This Tweet is unavailable.",6,4,0,False
83,HotIronBrands@rebrandtoday,#startup or #rebrand -buy CommerceBit .com-#commerce with #bitcoin and the #blockchain .#xbt #cryptocurrency #NamesCon #marketing #branding,0,0,0,False
84,Coin Tiny@CoinTiny,THIRTY SIX 36 BEST BITCOIN FAUCETS OF ALL THE TIME FAUCETBOX #CryptoCurrency #Crypto,0,0,0,False
85,twister swirl@twisterswirl,"Been thinking about doing this too.

#bitcoin #BTC #cryptocurrency",2,0,0,False
86,twister swirl@twisterswirl,"I don't see what people don't get either ;P It's pretty straight forward :D

#bitcoin #BTC #cryptocurrency",1,1,0,False
87,Team 300FPS ︻╦̵̵̿╤─@300FPSGAMING,Bitcoin Price And The Bear(TM) http://bit.ly/1RSBvBM #bitcoin #bitcoinnews #btc #cryptocurrency,1,3,1,False
88,Tregaus@tregaus4,"5 interesing stories to read https://99bitcoins.com/5-awesome-bitcoin-stories-shared-by-redditors/…
#Bitcoin #Crypto #Reddit",1,0,0,False
89,cryptonit@CryptonitDMD,"ROKOS Supports also DMD Diamond #dmdcoin in the next ROKOS Flavors release! #bitcoin #blockchain #fullnode #cryptoQuote TweetBitcoin Fullnode@BitcoinFullnode · Jan 26, 2016ROKOS Supports Bitcoin #Fullnode The Original Plug and Play for your RaspberryPi and more! http://rokos.space",2,2,0,False
90,CryptoPot@CryptoPotGame,Teaser for the upcoming game. You'll be able to play with #bitcoin exclusively on 7 Game Nodes! #CryptoCurrency,2,0,0,False
91,Ira Miller@iravagecoins,"The IT revolution has barely begun. #business #government #money are being revolutionized. Wake up! #Bitcoin #cryptoPaul Krugman Reviews ‘The Rise and Fall of American Growth’ by Robert J. Gordon (Published 2016)In “The Rise and Fall of American Growth,” Robert J. Gordon declares that the kind of rapid economic growth we still consider our due was in fact a one-time-only event.nytimes.com",0,0,0,False
92,Crypto Yoyo@cryptoyoyo,"Economic Recession, Interest Rates and Digital Currency http://bit.ly/1RSAOZ4 #bitcoin #crypto #news",0,0,0,False
93,twister swirl@twisterswirl,"I thought so..

#BTC #bitcoin #cryptocurrency #eth #dogeQuote TweetOwni@konveksikaos12 · Jan 30, 2016Etherieum is a premined scam and there will be no mainstream adoption. It's just a hype scam #btc #bitcoin #ltc #dogecoin #doge #eth",0,0,0,False
94,Cryptor Trust@CryptorTrust,The #debt problem of the western world was never solved @gmsolem at https://cryptortrust.com/2014/07/30/the-debt-problem-of-the-western-world-was-never-solved/… …  #Exchanges #cryptocurrency #complianceThe debt problem of the western world was never solvedThe debt and obligations of the western world are now higher than ever and still increasing. Declining demographics and long term economic time cycles pointing down into 2022 / 2023 time frame indi…cryptortrust.com,15,14,0,False
95,iskender dizdar@1916Dizdar,"Yes, #eth is nothing but whales manipulation on fake volume and fake walls just like the old #bittrex game. #altcoin #scam #fake #bitcoin",1,0,0,False
96,Julia Edling@bitcointonic,#what is the use of #bitcoin and #cryptocurrency ? | #Blockchain explained: Would you like… http://dlvr.it/KMNLkW,0,0,0,False
100,The Third Wave@metamorphin,@CryptonitDMD thanks for following...#dmd nice to have #diamondcoin members here #PoS #altcoins #Inno #cryptocurrency,0,0,0,False
101,rssbtc.com@rssbtc,"Economic Recession, Interest Rates and Digital Currency - http://tinyurl.com/hy7rn28
#bitcoin #fintech #crypto #blockchain #digital #economyEconomic Recession, Interest Rates and Digital CurrencyThe looming threat of recession on US economy has got central banks thinking of policies to keep it in check. newsbtc.com",4,1,0,False
102,Golden Gateway@GoldenGatewayUS,Remember to like us on FB at http://facebook.com/officialgoldengateway… #bitcoin news and #cryptocurrency updates (Want this FREE? >> http://bit.ly/want_this_free),1,0,0,False
103,Owni@konveksikaos12,StealthCoin is #1 Cryptocurrency https://twitter.com/StealthCoin #altcoins #sexy #girl #woman #iphone #ipad http://pbs.twimg.com/media/CGMi4_UUUAAXn0W.png…,0,0,0,False
104,Denny McEnroe@McEnroeDenny,Re: The Husbandmen purisms checking http://cur.lv/utn88 #bitcoin #crypto,0,0,0,False
105,Denny McEnroe@McEnroeDenny,Re: A few questions before I buy a Bitcoin ASIC device http://cur.lv/utn87 #bitcoin #crypto,0,0,0,False
106,Denny McEnroe@McEnroeDenny,Re: Wall Observer BTC/USD - Bitcoin price movement tracking & discussion http://cur.lv/utn85 #bitcoin #crypto,0,0,0,False
107,Denny McEnroe@McEnroeDenny,Re: [ANN][LISK] Lisk | ICO soon | Decentralized Application & Sidechain Platform http://cur.lv/utn83 #bitcoin #crypto,0,0,0,False
108,ⱣotCoin@PotCoin,"New Release - Potcoin Wallet Android Application, send, receive & store PotCoins on your mobile device. #altcoin",3,1,0,False
109,twister swirl@twisterswirl,"Just like #bitcoin is, a gift from #Satoshi to us :)

#BTC #cryptocurrency https://twitter.com/pierre_rochard/status/693440518471208960…This Tweet is unavailable.",0,0,0,False
110,Owni@konveksikaos12,"Yes, #eth is nothing but whales manipulation on fake volume and fake walls just like the old #bittrex game. #altcoin #scam #fake #bitcoin",1,0,0,False
111,ⱣotCoin@PotCoin,"PotCoin Android Mobile Wallet
For all things #Cannabis
DOWNLOAD IT NOW! http://potcoin.com #altcoins #BTC #pot",8,7,0,False
112,BeyondBitcoin@Beyond_Bitcoin,Replying to @Beyond_Bitcoin@UUP_FractAlerts the world's 1st #decentralized #crypto #exchange #beta.  #sharebits send 100 TRYBITSHARES. Sell in 3sec ON #blockchain :),1,1,0,False
113,BitScan@bitscanner,"Zcash, an Untraceable Bitcoin Alternative, Launches in Alpha http://ow.ly/XF981 #bitcoin #altcoin",1,0,0,False
114,John Sampson@johnsampson232,"Yes, #eth is nothing but whales manipulation on fake volume and fake walls just like the old #bittrex game. #altcoin #scam #fake #bitcoin",0,0,0,False
115,Passive Income@PassiveIncoming,"@akawincoin EARN BITCOIN ON AUTOPILOT. NO GAMES & NO MINING! The way it should be 100% FREE! http://goo.gl/FSJFQt
#altcoin #bitcoin",0,0,0,False
116,Crypto Dood@BitcoinDood,"I love starting a new trading platform with dust and watching it grow to pennies, then dollars, and up! #altcoin trading rules!",4,0,0,False
117,Crypto Yoyo@cryptoyoyo,Will The Swiss Basic Income Affect Bitcoin Adoption? http://bit.ly/1QzmfGx #bitcoin #crypto #news,0,0,0,False
118,Alvis Cheng@AlvisMiner,Why the hell is Be Like Bill deemed a bigger security threat than ‘123456’ as our passwor... http://sh.st/mM3ke #bitcoin #crypto #IT,0,0,0,False
119,Alvis Cheng@AlvisMiner,SpaceX’s Elon Musk wants to send humans to start colonizing Mars by 2025: At a startup fe... http://sh.st/mM3jO #bitcoin #crypto #IT,0,0,0,False
120,HYPER Crypto@HyperCrypto,$HYPER can be purchased on Bittrex: https://bittrex.com/Market/Index?MarketName=BTC-HYPER… #bitcoin #gaming #cryptocurrency #fintech #altcoins,2,2,0,False
121,Akhil Unnikrishnan@akhilunnikrish9,Fuck you crypto.. doomed.. Dead as a doornail #crypto,0,0,0,False
122,MUTOPIENSERVER@MutopienDE,"Yes, #eth is nothing but whales manipulation on fake volume and fake walls just like the old #bittrex game. #altcoin #scam #fake #bitcoin",1,0,0,False
123,onleyjutt1@onleyjutt1,"Yes, #eth is nothing but whales manipulation on fake volume and fake walls just like the old #bittrex game. #altcoin #scam #fake #bitcoin",0,0,0,False
124,HYPER Crypto@HyperCrypto,Read the official $HYPER strategy and goals document: http://hypercrypto.com/wp-content/uploads/2015/07/HYPER-Goals-and-VIsion-Official1.pdf?RIpnp… #bitcoin #gaming #fintech #gamers #cryptocurrency,7,2,0,False
125,HYPER Crypto@HyperCrypto,Watch the $HYPER video on youtube: https://youtube.com/watch?v=cMTt3zAJgpg… … Learn why we are disruptive #gaming #cryptocurrency #gamingrevolution #bitcoin,1,0,0,False
126,Team 300FPS ︻╦̵̵̿╤─@300FPSGAMING,Will The Swiss Basic Income Affect Bitcoin Adoption? http://bit.ly/1VxGHca #bitcoin #bitcoinnews #btc #cryptocurrency,1,0,0,False
127,Load Debit Card@LoadDebitCard,Dash Debit Card #Dashpay to #debitcard with 40 #altcoins #Darkcoin #DashDC @TaoOfSatoshi http://bit.ly/debitnow,1,0,0,False
128,"Amagi Metals, Inc@AmagiMetals",What is Bitcoin? http://ow.ly/XBDHd #crypto #moneynews #finance #BeResponsible,0,0,0,False
129,Anthem Vault Inc.@AnthemVault,What is Bitcoin? http://ow.ly/XBDKb #crypto #moneynews #finance #BeResponsible,0,0,0,False
130,Bitcoin PR Buzz@BitcoinPRBuzz,"Massive PR services for all things #bitcoin and #cryptocurrency --> http://bitcoinprbuzz.com/services  <-- over 2 years experience in crypto marketingServices: Press Release Distribution – Bitcoin PR BuzzThe Original Bitcoin Press Release Distribution Service, 7+ years experience, 1000+ clients, 1400+ PRs distributed. Prices, Offerings and Information Page.bitcoinprbuzz.com",3,0,0,False
131,Bitcoin Hourly@bitcoin_hourly,"Price Update: 1 #Bitcoin = $377.6800

#cryptocurrency source http://yhoo.it/1PH2nON (via @Flutter_HQ)",0,0,0,False
132,BitcoinBuzz vega9@BitcoinBuzzV9,http://bitcoinbuzz.vega9.com - Hot topics: #fintech #bitcoin #btc #crypto #cryptocurrency #monstercoingame,0,0,0,False
133,Null TX@nulltxnews,Will The Swiss Basic Income Affect Bitcoin Adoption? http://goo.gl/eLynK2 #bitcoin #bitcoinnews #btc #cryptocurrency,0,0,0,False
134,Crypto Yoyo@cryptoyoyo,Digital Currency Group Hints At Going Public In The Future http://bit.ly/20dVHm9 #bitcoin #crypto #news,0,0,0,False
140,Agrobazaar Online@agrobazaar_msia,#startupXcel: RT BitcoinzMan: Different ways to raise #funding for a #bitcoin #startup #crypto #cryptocurrency … https://pic.twitter.com/nFJ52oI4A4,0,0,0,False
141,Дима Кайдан@Sola005,"Yes, #eth is nothing but whales manipulation on fake volume and fake walls just like the old #bittrex game. #altcoin #scam #fake #bitcoin",0,0,0,False
142,Agrobazaar Online@agrobazaar_msia,#startupXcel: RT BitcoinzWoman: Different ways to raise #funding for a #bitcoin #startup #crypto #cryptocurrency … https://pic.twitter.com/wLPXSZ1zRd,0,0,0,False
143,David Liam@crazydaveorama,Wendelstein Man Facing Court For Ordering Drugs From #DarkWeb #darkmarket #cryptocurrency #bitcoin https://deepdotweb.com/2016/01/29/wendelstein-man-facing-court-for-ordering-drugs-from-dark-web/…,0,0,0,False
144,David Liam@crazydaveorama,Nine Men Busted In Franconia #DarkWeb Sourced Drug-Dealing Ring #darkmarket #silkroad #bitcoin #cryptocurrency https://deepdotweb.com/2016/01/30/nine-men-busted-in-franconia-drug-dealing-ring/…,0,0,0,False
145,Team 300FPS ︻╦̵̵̿╤─@300FPSGAMING,Bitcoin 2015: A Year in Review http://bit.ly/1UxGPIw #bitcoin #bitcoinnews #btc #cryptocurrency,1,0,0,False
146,BlockChannel@BlockChannel,"BCN News: bitcoinist ""Bitcoin 2015: A Year in Review http://ift.tt/1SQo2KN #bitcoin #bitcoinnews #btc #cryptocurrency #altcoins # money …",0,0,0,False
147,Bitcoinist.com@bitcoinist,Bitcoin 2015: A Year in Review http://ift.tt/1SQo2KN #bitcoin #bitcoinnews #btc #cryptocurrency #altcoins # money #freebitcoin,3,0,0,False
148,KairosInvest@KairosInvest,New #cryptocurrency #mining #CLDMine #blackcoin. Register here: https://cldmine.com/?ref=97934,2,0,0,False
149,Menambahkan@menambahkan,"Yes, #eth is nothing but whales manipulation on fake volume and fake walls just like the old #bittrex game. #altcoin #scam #fake #bitcoin",0,0,0,False
150,฿TF%$Brrrrrr!@CryptoHustle,Looks like the #bitcoin and #altcoin markets are asleep today. Nice to take a break from #trading.,3,0,0,False
151,Dakota Elise@premabirami,StealthCoin is #1 Cryptocurrency https://twitter.com/StealthCoin #altcoins #sexy #girl #woman #iphone #ipad http://pbs.twimg.com/media/CGMi4_UUUAAXn0W.png…,0,0,0,False
152,Agrobazaar Online@agrobazaar_msia,#startupXcel: Identity #startup wins $15k at santander #blockchain competition #bitcoin #crypto … https://pic.twitter.com/WmQ1LfUad4,0,0,0,False
153,Denny McEnroe@McEnroeDenny,Re: [WTS] New PayIvy Exploit http://cur.lv/utj1f #bitcoin #crypto,0,0,0,False
154,Denny McEnroe@McEnroeDenny,Re: Analysis and list of top big blocks shills (XT #REKT ignorers) http://cur.lv/utj1e #bitcoin #crypto,0,0,0,False
155,Denny McEnroe@McEnroeDenny,Re: Best and Highest Paying Bitcoin Faucets at Single Place http://cur.lv/utj1c #bitcoin #crypto,0,0,0,False
156,kshohan@Tariqulislam805,"Yes, #eth is nothing but whales manipulation on fake volume and fake walls just like the old #bittrex game. #altcoin #scam #fake #bitcoin",0,0,0,False
157,Team 300FPS ︻╦̵̵̿╤─@300FPSGAMING,Digital Currency Group Hints At Going Public In The Future http://bit.ly/1PLK29r #bitcoin #bitcoinnews #btc #cryptocurrency,0,0,0,False
158,OpenFXMarket@OpenFXMarket,#bitcoin market index: 102.46 #OFXBTC. #altcoin market index (avg): 138.15 #OFXAVG by http://openfxmarket.com. Stay tuned!,0,0,0,False
159,Coinfeed@CoinfeedIO,AtenCoin is Government-Friendly #Cryptocurrency from Day One - NEWSBTC http://tinyurl.com/okg4ltn,0,0,0,False
160,Prathamesh Bhosale@PB_Prathamesh_B,Why Did Satoshi Nakamoto Abandon Bitcoin? https://cryptocoinsnews.com/why-did-satoshi-nakamoto-abandon-bitcoin/… #cryptocurrency,0,0,0,False
161,Bitcoin Hourly@bitcoin_hourly,"Price Update: 1 #Bitcoin = $378.2700

#cryptocurrency source http://yhoo.it/1PH2nON (via @Flutter_HQ)",0,0,0,False
162,BitcoinBuzz vega9@BitcoinBuzzV9,http://bitcoinbuzz.vega9.com - Hot topics: #fintech #bitcoin #btc #crypto #bitclubnetwork #cryptocurrency,0,0,0,False
169,LocalDayz@localdayz,#dash Download wallet https://dashpay.io/downloads/ and Join the pool on http://pool.laintimes.com #DashDc #DigitalCash #Darkcoin #cryptocurrency,0,0,0,False
170,Bitcoin@bitcoinpoet,Bitcoin 2.0: Fantasy Or Inevitability?: The blockchain – upon which Bitcoin is based – has bee... http://btcs.me/1JPtATj #cryptocurrency,4,0,0,False
171,CCN - Capital & Celeb News@CapitalAndCeleb,Why Did Satoshi Nakamoto Abandon Bitcoin? https://cryptocoinsnews.com/why-did-satoshi-nakamoto-abandon-bitcoin/… #cryptocurrency,1,6,0,False
172,Cogitorium@Cogitatorium,What is #Potcoin? - Digital Currency for the #Cannabis Industry https:/youtube/Tyqw42dCLuQ #altcoins #MMJ #bitcoin,6,3,0,False
173,Erez Zevulunov@MITConsulting,Worried about #Ransomware and #Crypto attacks? Learn how you can beat them with @Carbonite: http://shrd.vu/biyHz,1,0,0,False
174,ⱣotCoin@PotCoin,"PotCoin Android Mobile Wallet
For all things #Cannabis
DOWNLOAD IT NOW! http://potcoin.com #altcoins #BTC #pot",3,3,0,False
175,David Liam@crazydaveorama,Japan's SBI Holdings Teams With #Ripple to Launch New Company #startups #cryptocurrency http://bit.ly/1nsXkLb via @CoinDesk,2,2,0,False
176,Merkürr@yrndnhbrsz,"Yes, #eth is nothing but whales manipulation on fake volume and fake walls just like the old #bittrex game. #altcoin #scam #fake #bitcoin",0,0,0,False
177,Bitcoinist.com@bitcoinist,Digital Currency Group Hints At Going Public In The Future http://ift.tt/20dLk1N #bitcoin #bitcoinnews #btc #cryptocurrency #altcoins # …,1,2,0,False
178,Vindyne8@Vindyne8,Support @bitnodesnet & your favorite alt! http://bitnodes.net check it out now! #crowdfund #altcoins #RT,13,12,0,False
179,Crypto Yoyo@cryptoyoyo,How to Save Bitcoin's Node Network from Centralization http://bit.ly/1RSpL29 #bitcoin #crypto #news,0,0,0,False
180,Crypto Yoyo@cryptoyoyo,Jameson Lopp http://bit.ly/1Qzaeks #bitcoin #crypto #news,0,0,0,False
181,Dingy Berg Flunky@DingyFlunky,"Yes, #eth is nothing but whales manipulation on fake volume and fake walls just like the old #bittrex game. #altcoin #scam #fake #bitcoin",0,0,0,False
182,Inactive.@trellwade,"Yes, #eth is nothing but whales manipulation on fake volume and fake walls just like the old #bittrex game. #altcoin #scam #fake #bitcoin",0,0,0,False
183,Cornell Tech@cornell_tech,Professor Vitaly Shmatikov explains why #crypto experts are the pranksters of computer science: http://ow.ly/XE99g,3,3,0,False
184,Kwanji@KwanjiX,Can block chain save #global #trade? @IanAllison123 http://buff.ly/1NHvgJi #currency #tech #crypto,0,0,0,False
187,Coin Tiny@CoinTiny,'The State of Bitcoin from a Stateless Point of View' #CryptoCurrency #Crypto,0,0,0,False
189,DiamondMichael Scott@greatbookminds,The vastness of the #cryptocurrency ecosystem is stunning. @CoinCap_io @ErikVoorhees https://btcmanager.com/news/business/coincap-delivers-real-time-data-with-mobile-app/… #FreeMarkets,0,0,0,False
190,Nasreen Quibria@nquibria,Will mean more scrutiny 4 other #cryptocurrency cos» Digital currency firm admits to US money laundering charge http://ow.ly/3yXEdI,0,0,0,False
191,Crypto Yoyo@cryptoyoyo,bitcoin-tx-0.13.1 http://bit.ly/1NHMohP #bitcoin #crypto #news,1,0,0,False
192,BitScan@bitscanner,"RT @El_bitcoin ""#bitcoin Growth & Adoption The Main Goal For Bitcoiner  #crypto"" http://ow.ly/XIzBC",1,2,0,False
193,Bitcoin Hourly@bitcoin_hourly,"Price Update: 1 #Bitcoin = $379.1600

#cryptocurrency source http://yhoo.it/1PH2nON (via @Flutter_HQ)",0,0,0,False
194,XBTFreelancer.com@XBTFreelancer,#programming #crypto http://xbtfreelancer.com/prj/824/lottery-application-android-and-meteor… #makemoney #bitcoin Lottery Application: Android and Meteor,0,0,0,False
195,Team 300FPS ︻╦̵̵̿╤─@300FPSGAMING,How to Save Bitcoin&#039;s Node Network from Centralization http://bit.ly/1nEJBl5 #bitcoin #bitcoinnews #btc #cryptocurrency,0,0,0,False
196,Coin of View@coinofview,Thanks @CoinTelegraph! Not only for the article but for the exquisite treatment that you have given us. You are cracks! #crypto #fintech,3,1,0,False
197,Alejandro Sewrjugin@alesew23,#Bitcoin How to Save Bitcoin's Node Network from Centralization http://bit.ly/1m4QlqG #Tech #Crypto,0,0,0,False
198,prasith prabhu@prasithtoughboy,Replying to @MithunArunan@Mithun_18 hahaha #crypto ;),1,0,0,False
199,NE Patriots Dynasty@NEPatsDynasty,Quadruple your investment.  #Money #stocks #Gold #crypto 4 in 1 trading system for Partners only. http://ilgamosilcoin.com/home.html,0,0,0,False
200,ⱣotCoin@PotCoin,"New Release - Potcoin Wallet Android Application, send, receive & store PotCoins on your mobile device. #altcoin",5,3,0,False
201,Denny McEnroe@McEnroeDenny,Re: ➫ ➬ ➫ ➬ LUCKYB.IT ★ +1.9M bets ★ +95000 BTC wagered http://cur.lv/utf44 #bitcoin #crypto,0,0,0,False
202,Denny McEnroe@McEnroeDenny,Re: Blocks are full. http://cur.lv/utf42 #bitcoin #crypto,0,0,0,False
203,Denny McEnroe@McEnroeDenny,Re: [HYP] HyperStake | High PoS | Secure | MultiSend | liteStake | Adv Coin Control http://cur.lv/utf41 #bitcoin #crypto,0,0,0,False
204,Denny McEnroe@McEnroeDenny,MMM-Global http://cur.lv/utf40 #bitcoin #crypto,0,0,0,False
205,Denny McEnroe@McEnroeDenny,"Re: [AMBER] X13 POW/POS| 10k AMBER=0,01% SHARES | BUY, HOLD & GET DIVIDENDS in BTC/$ http://cur.lv/utf3y #bitcoin #crypto",0,0,0,False
206,Asesorías & Consultorías Informáticas@redlocal,http://dapps.ethercasts.com EtherCasts Decentralized applications for #ethereum - #eth #crypto #apps #applications #opensource …,0,0,0,False
207,Alex Christian@AlexChristB,http://dapps.ethercasts.com @EtherCasts Decentralized applications for #ethereum - #eth #crypto #apps #applications #opensource,0,0,0,False
208,EUROPECOIN  (.eu.org)@europecoinEUORG,Replying to @PsychoFractor@PsychoFractor delighted none left behind NEXT #ioT #altcoin HW-WALLET+ @BITCOINTREFF ERC+CHALLENGE #crypto #fintech,8,5,0,False
213,Fanfare ⎷@fanfare100,Please RT. NOTICE: If ur looking for a @TagCoin (TAG) pool with a low 0.05% #mining fee: http://tag.mastermining.net #cryptocurrency #altcoin,1,0,0,False
214,Achmad Nuur Fadhilla@ach_aslan,"Yes, #eth is nothing but whales manipulation on fake volume and fake walls just like the old #bittrex game. #altcoin #scam #fake #bitcoin",0,0,0,False
215,Fanfare ⎷@fanfare100,Please RT. NOTICE: If ur looking for a TagCoin (TAG) pool with a low 0.05% #mining fee: http://tag.mastermining.net #cryptocurrency #altcoin,1,0,0,False
216,JR Geoffrion@jrgeoffrion,"The story of #Bitcoin the #Digital gold
http://j-r.io/1JI2j4Z — @strategyand #crypto #currency",0,0,0,False
217,bitcoinblackjack@btcblackjack,BTC4worldpeace: RT BitcoinzMachine: Dragon’s tale a mmorpg #bitcoin casino brings attractive offers #crypto #crypt… https://pic.twitter.com/3rkyYTFAus,0,0,0,False
218,Eddy Lindo@j3345227,#scam #altcoin is #startcoin with 27 million premined while giving out 10/20 to hype #CROOK of #crypto #bitcoin #btc #litecoin g,0,0,0,False
219,digitalcoins@rimbitcoin,Replying to @Vote20Trump20RT @SiriusNews_com: Great Blog on #crypto #rimbit #cryptocurrency Click http://juddbagley.io/bitcoin/blockchain/nasdaq-is-joining-the-blockchain-trading-party/… SHARE,2,1,0,False
220,Puyo Christophe@christophepuyo,"Good slideshow on #cryptocurrency and #blockchain 2015 review and what to expect for 2016.Quote TweetJean-Baptiste Lefevre@jblefevre60 · Jan 30, 2016State of Bitcoin and Blockchain 2016: Blockchain Hits Critical Mass http://bit.ly/1nANebN via @CoinDesk",1,0,0,False
221,Bitcoin Hourly@bitcoin_hourly,"Price Update: 1 #Bitcoin = $378.9900

#cryptocurrency source http://yhoo.it/1PH2nON (via @Flutter_HQ)",0,0,0,False
222,BitcoinBuzz vega9@BitcoinBuzzV9,http://bitcoinbuzz.vega9.com - Hot topics: #bitcoin #bellacoin #cryptocurrency #btc #crypto #robotcoingame,0,0,0,False
223,CryptoRSS@CryptoRSS,The Emotions & Memes of the Bitcoin Community: Transmission #52: http://Bitcoin.com is back again w... http://bit.ly/1QNFgal #crypto,0,0,0,False
224,bitcoinblackjack@btcblackjack,btcblackjack: BitcoinzMachine: Dragon’s tale a mmorpg #bitcoin casino brings attractive offers #crypto #cryptocurr… https://pic.twitter.com/3rkyYTFAus,0,0,0,False
225,@invincibleXhand,"Margin trading #crypto #altcoins is like laying on your back naked, juggling knives. In a good way. #trading #profit",0,0,0,False
226,Telos Corporation@telosnews,NIST looks to strengthen #crypto backbone: http://ow.ly/XFREu @FCWNow,0,0,0,False
227,sonsofliberty2016@Thefedendsnow,#Phillipines #Muecoin #askastoreaday #Vegas and #MontaryUnit meet in #18b #DTVL #TheArtsFactoryLV #BTM #crypto #deals,0,0,0,False
228,Fintech Prowler@FintechProwler,Bitcoin In-Fighting Doesn't Matter: Gavin Andreson Weighs in - http://Bitcoinist.net http://ift.tt/1KMQDZQ #altcoin,0,0,0,False
229,Crypto Yoyo@cryptoyoyo,Weekly Bitcoin Price Review: The January Drop http://bit.ly/1UxixhW #bitcoin #crypto #news,0,0,0,False
230,Crypto Yoyo@cryptoyoyo,Bitcoin 2.0: Fantasy Or Inevitability? http://bit.ly/1SidwME #bitcoin #crypto #news,0,0,0,False
231,Alvis Cheng@AlvisMiner,Bring your ideas to life with the 3-course Digital Animation Bundle: Whether you’re looki... http://sh.st/mNFmR #bitcoin #crypto #IT,0,0,0,False
232,bitcoinblackjack@btcblackjack,BitcoinzMachine: Dragon’s tale a mmorpg #bitcoin casino brings attractive offers #crypto #cryptocurrency … https://pic.twitter.com/3rkyYTFAus,0,0,0,False
233,bitcoinhunters@bitcoinhunterss,Join the trusted cloud mining that pay until today! http://bit.ly/1mgVHQj #bitcoin #cryptocurrency,1,0,0,False
239,Coin Tiny@CoinTiny,Barter to Bitcoin — History of Money and the Blockchain #CryptoCurrency #Crypto,0,0,0,False
240,Brendan Graetz@bguiz,"Core developer Mike Hearn has a crisis of faith in #bitcoin
http://buff.ly/1ORSL7K #cryptocurrency",3,0,0,False
241,Danysam@Danysam07,"Yes, #eth is nothing but whales manipulation on fake volume and fake walls just like the old #bittrex game. #altcoin #scam #fake #bitcoin",0,0,0,False
242,NE Patriots Dynasty@NEPatsDynasty,Great Blog on #crypto #cryptocurrency Click http://juddbagley.io/bitcoin/blockchain/nasdaq-is-joining-the-blockchain-trading-party/… SHARE,0,0,0,False
243,The Third Wave@metamorphin,Replying to @BitcoinFullnode@BitcoinFullnode @teamstaisybit happy to have #ERC #Europecoin as one of the pre-installed #altcoins there! #INNO #IoT @europecoinEUORG RT,7,4,0,False
244,ILbotCrypto@LbotCrypto,Time to check on #edoncoin's development! http://ow.ly/WbHMN #btc #altcoin #ltc #dogecoin #bitcoin #edoncoin #ltc,2,2,0,False
245,Fintech Prowler@FintechProwler,Dash Increases Its Block Size as Founder Confirms Instantaneous Transactions - CryptoCoinsNews http://ift.tt/1Vxfwyf #altcoin,0,0,0,False
246,NE Patriots Dynasty@NEPatsDynasty,#ILGamos and their NEW #ILCoin. 4 in 1 Trading platform. Stock up 35%.  http://INVEST.ilgamos.com/buy?buy_type=1 #Crypto #Nasdaq #ETRADE,0,0,0,False
247,BitcoinAgile@bitcoinagile,The 2016 Bitcoin Voting Guide #bitcoin #crypto #cryptocurrency #BTC #News http://bitcoinagile.com/54E5BA/the-2016-bitcoin-voting-guide_stream…,0,0,0,False
248,bitcoinblackjack@btcblackjack,btcblackjack: btcblackjack: btcblackjack: btcblackjack: BitcoinBuzzV9: http://bitcoinbuzz.vega9.com - Hot topics: #bellacoin #crypto #bitcoin #…,0,0,0,False
249,Team 300FPS ︻╦̵̵̿╤─@300FPSGAMING,Bitcoin 2.0: Fantasy Or Inevitability? http://bit.ly/1UxeYs7 #bitcoin #bitcoinnews #btc #cryptocurrency,1,1,0,False
250,rigerd@wirelesscoder,Bitcoin 2.0: Fantasy Or Inevitability? #bitcoin #blockchain #cryptocurrency #tech #fintech #entrepreneur #startup http://ln.is/cryptocoinsnews.com/TvTpK…,4,0,0,False
251,Bitcoin Hourly@bitcoin_hourly,"Price Update: 1 #Bitcoin = $378.5200

#cryptocurrency source http://yhoo.it/1PH2nON (via @Flutter_HQ)",0,0,0,False
252,XBTFreelancer.com@XBTFreelancer,http://xbtfreelancer.com/prj/825/digital-signage-project… Digital Signage project #programming #freelancer #earnmoney #cryptocurrency #bitcoin,0,0,0,False
253,BitcoinBuzz vega9@BitcoinBuzzV9,http://bitcoinbuzz.vega9.com - Hot topics: #bellacoin #bitcoin #btc #crypto #cryptocurrency #eth,0,0,0,False
254,Denny McEnroe@McEnroeDenny,Re: Blocks are full. http://cur.lv/utbvs #bitcoin #crypto,0,0,0,False
255,Denny McEnroe@McEnroeDenny,Re: [GBIT] GRAVITYBITS - SHA256 - POW/hiPOS http://cur.lv/utbvr #bitcoin #crypto,1,0,0,False
256,Denny McEnroe@McEnroeDenny,Re: .04 BTC loan http://cur.lv/utbvq #bitcoin #crypto,0,0,0,False
257,Denny McEnroe@McEnroeDenny,[WTS] High Grade Casascius Brass http://cur.lv/utbvo #bitcoin #crypto,0,0,0,False
258,Alberto Davidson@twisted__nerve,"RT PSA #crypto #startups do not pay silk stocking IP legal rates for bread and butter commercial work. Banks keep …Quote TweetNinaKilbride@NinaKilbride · Jan 30, 2016PSA #crypto #startups do not pay silk stocking IP legal rates for bread and butter commercial work. Banks keep the cost of that skill low.",0,0,0,False
269,bitcoinblackjack@btcblackjack,btcblackjack: btcblackjack: btcblackjack: BitcoinBuzzV9: http://bitcoinbuzz.vega9.com - Hot topics: #bellacoin #crypto #bitcoin #btc #casino #c…,0,0,0,False
270,Dave Metter@MrDaveMetter,"Yes, #eth is nothing but whales manipulation on fake volume and fake walls just like the old #bittrex game. #altcoin #scam #fake #bitcoin",0,0,0,False
271,Mario@MarMariani98,"Yes, #eth is nothing but whales manipulation on fake volume and fake walls just like the old #bittrex game. #altcoin #scam #fake #bitcoin",0,0,0,False
272,NinaKilbride@NinaKilbride,PSA #crypto #startups do not pay silk stocking IP legal rates for bread and butter commercial work. Banks keep the cost of that skill low.,3,1,0,False
273,Ashna patel@ashnapatel22,StealthCoin is #1 Cryptocurrency https://twitter.com/StealthCoin #altcoins #sexy #girl #woman #iphone #ipad http://pbs.twimg.com/media/CGMi4_UUUAAXn0W.png…,1,0,0,False
274,Crypto Yoyo@cryptoyoyo,First Global Credit: Encouraging Bitcoiners to Become Traders http://bit.ly/1Sr5YW8 #bitcoin #crypto #news,0,0,0,False
275,Crypto Yoyo@cryptoyoyo,Bitcoin In-Fighting Doesn't Matter: Gavin Andreson Weighs in http://bit.ly/1QyTj1q #bitcoin #crypto #news,0,0,0,False
276,Crypto Yoyo@cryptoyoyo,Bankers Weigh Blockchain Challenges at BNY Mellon Event http://bit.ly/1Sr5YW2 #bitcoin #crypto #news,0,0,0,False
277,bitcoinblackjack@btcblackjack,btcblackjack: btcblackjack: BitcoinBuzzV9: http://bitcoinbuzz.vega9.com - Hot topics: #bellacoin #crypto #bitcoin #btc #casino #cryptocurrency,0,0,0,False
278,Agrobazaar Online@agrobazaar_msia,#startupXcel: Vinny lingham leaves gyft raises $275 million for identity #startup #bitcoin #crypto … https://pic.twitter.com/SaTGWCPkId,1,0,0,False
280,Bitcoinist.com@bitcoinist,First Global Credit: Encouraging Bitcoiners to Become Traders http://ift.tt/20zqK8P #bitcoin #bitcoinnews #btc #cryptocurrency #altcoins…,1,0,0,False
281,Coinfeed@CoinfeedIO,8 Companies That Have Filed #Crypto Patents http://tinyurl.com/pknddwb,0,0,0,False
282,TheCoinWarrior@TheCoinWarrior,"""First Bitcoin Capital Corp. Signs Evaluation Pact With Emercoin, Will Promote Its Technology"" https://google.com/url?rct=j&sa=t&url=https://www.cryptocoinsnews.com/first-bitcoin-capital-corp-signs-evaluation-pact-emercoin-will-promote-technology/&ct=ga&cd=CAIyGjk4NmJlZGI4MDE2OTU4NGU6Y29tOmVuOlVT&usg=AFQjCNEJy-IJoaxNBrM06vI80leJeMTJiA… #cryptocurrency",0,0,0,False
283,VanosEnigmA VideoMix@VanosEnigmA,"https://youtu.be/wi-YxUNG7-E
#Bitcoin Flat Earth Coin #CreativeCommons #CryptoCurrency #Money #Network #Community #P2P",3,19,0,False
284,VanosEnigmA VideoMix@VanosEnigmA,"https://youtu.be/wi-YxUNG7-E
#Bitcoin Flat Earth Coin #CreativeCommons #CryptoCurrency #Money Network Collaboration P2P",1,0,0,False
286,bitcoinblackjack@btcblackjack,btcblackjack: BitcoinBuzzV9: http://bitcoinbuzz.vega9.com - Hot topics: #bellacoin #crypto #bitcoin #btc #casino #cryptocurrency,0,0,0,False
287,bitcoinblackjack@btcblackjack,btcblackjack: btcblackjack: btcblackjack: btcblackjack: btcblackjack: BitcoinBuzzV9: http://bitcoinbuzz.vega9.com - Hot topics: #crypto #bitcoi…,0,0,0,False
288,Team 300FPS ︻╦̵̵̿╤─@300FPSGAMING,First Global Credit: Encouraging Bitcoiners to Become Traders http://bit.ly/1Sr3MxN #bitcoin #bitcoinnews #btc #cryptocurrency,0,0,0,False
289,VanosEnigmA VideoMix@VanosEnigmA,"https://youtu.be/Do6iW-gLlrA
#FaceBook Flat Earth Coin #CryptoCurrency #Community #Bitcoin #TierraPlana #P2P OpenSource",1,15,0,False
290,réda@rida_mohamed13,StealthCoin is #1 Cryptocurrency https://twitter.com/StealthCoin #altcoins #sexy #girl #woman #iphone #ipad http://pbs.twimg.com/media/CGMi4_UUUAAXn0W.png…,0,0,0,False
291,Crypto Yoyo@cryptoyoyo,Buy bitcoins using Moneygram with US Dollar (USD) http://bit.ly/20zpOBh #bitcoin #crypto #news,0,0,0,False
292,Freeonlineworld@freeonlineworld,"Yes, #eth is nothing but whales manipulation on fake volume and fake walls just like the old #bittrex game. #altcoin #scam #fake #bitcoin",0,0,0,False
293,bitcoinblackjack@btcblackjack,BitcoinBuzzV9: http://bitcoinbuzz.vega9.com - Hot topics: #bellacoin #crypto #bitcoin #btc #casino #cryptocurrency,0,0,0,False
294,bitcoinblackjack@btcblackjack,btcblackjack: btcblackjack: btcblackjack: btcblackjack: BitcoinBuzzV9: http://bitcoinbuzz.vega9.com - Hot topics: #crypto #bitcoin #btc #casino…,0,0,0,False
295,Dash@Dashpay,"Dash Increases Its Block Size as Founder Confirms IX
https://cryptocoinsnews.com/dash-increases-its-block-size/…
#DashDC #DigitalCash #Cryptocurrency",12,12,0,False
296,Bitcoin Hourly@bitcoin_hourly,"Price Update: 1 #Bitcoin = $378.7300

#cryptocurrency source http://yhoo.it/1PH2nON (via @Flutter_HQ)",0,0,0,False
297,BitcoinBuzz vega9@BitcoinBuzzV9,http://bitcoinbuzz.vega9.com - Hot topics: #bellacoin #crypto #bitcoin #btc #casino #cryptocurrency,0,0,0,False
298,JR Geoffrion@jrgeoffrion,"Understanding the #cryptocurrency market
http://j-r.io/1nqcccY — @PwCAdvisory",0,0,0,False
299,Chandigarh Property@CPOProperty,#scam #altcoin is #startcoin with 27 million premined while giving out 10/20,0,0,0,False
300,bitcoinblackjack@btcblackjack,btcblackjack: btcblackjack: btcblackjack: BitcoinBuzzV9: http://bitcoinbuzz.vega9.com - Hot topics: #crypto #bitcoin #btc #casino #eth #robotco…,0,0,0,False
301,StableView Asset@StableViewAsset,Is Bank of America Trying To Monopolize The #Blockchain ?http://coint.co/2jr1 #fintech #Tech #banking #Cryptocurrency,3,2,0,False
302,réda@rida_mohamed13,"Yes, #eth is nothing but whales manipulation on fake volume and fake walls just like the old #bittrex game. #altcoin #scam #fake #bitcoin",0,0,0,False
303,licorne@mistercoperati1,"Yes, #eth is nothing but whales manipulation on fake volume and fake walls just like the old #bittrex game. #altcoin #scam #fake #bitcoin",1,0,0,False
304,Cryptoonit@cryptoonit,Replying to @DJThistle01@DJThistle01 @cryptrader #altcoins ICOs explained:,0,0,0,False
305,Crypto Yoyo@cryptoyoyo,How Android And IOS Apps Would Help In Promotion Of Bitcoin? http://bit.ly/1JOSnqt #bitcoin #crypto #news,0,0,0,False
314,bitcoinblackjack@btcblackjack,btcblackjack: btcblackjack: BitcoinBuzzV9: http://bitcoinbuzz.vega9.com - Hot topics: #crypto #bitcoin #btc #casino #eth #robotcoingame,1,0,0,False
315,HighPlaysMC@HighPlaysMCnet,"Yes, #eth is nothing but whales manipulation on fake volume and fake walls just like the old #bittrex game. #altcoin #scam #fake #bitcoin",0,0,0,False
316,Карабин Кристина@karabushek1,"Yes, #eth is nothing but whales manipulation on fake volume and fake walls just like the old #bittrex game. #altcoin #scam #fake #bitcoin",0,0,0,False
317,BinaryOptionsSignals@options_signal,"RT @Bata_Money: I2P Bata Wallet Configuration http://bata.io/i2p-configuration…
#bta #crypto #currency #i2p #privacy #anonymous #bitcoin #anon #altco…",0,0,0,False
318,Denny McEnroe@McEnroeDenny,Re: [GBIT] GRAVITYBITS - SHA256 - POW/hiPOS http://cur.lv/ut8v3 #bitcoin #crypto,1,0,0,False
319,Denny McEnroe@McEnroeDenny,Re: http://Cloudbet.com - bitcoin sportsbook and casino | WORLDWIDE live dealer casino http://cur.lv/ut8v2 #bitcoin #crypto,0,0,0,False
320,Denny McEnroe@McEnroeDenny,"Re: Aren't we in a state of denial? (MARKET CYCLE UPDATED, VOTES RESET) http://cur.lv/ut8v1 #bitcoin #crypto",0,0,0,False
321,Denny McEnroe@McEnroeDenny,Re: Italian League Prediction Thread (Serie A) http://cur.lv/ut8v0 #bitcoin #crypto,0,0,0,False
322,Denny McEnroe@McEnroeDenny,"Re: Micro loans-Avaible 0,30btc Accounts as colateral here http://cur.lv/ut8uz #bitcoin #crypto",0,0,0,False
323,Denny McEnroe@McEnroeDenny,Re: Wall Observer BTC/USD - Bitcoin price movement tracking & discussion http://cur.lv/ut8sy #bitcoin #crypto,0,0,0,False
324,Denny McEnroe@McEnroeDenny,Re: Bitvest.io Refferal Contest Win Big! http://cur.lv/ut8sv #bitcoin #crypto,0,0,0,False
325,Denny McEnroe@McEnroeDenny,Re: Welcome To The Blockchain http://cur.lv/ut8sq #bitcoin #crypto,1,0,0,False
326,Denny McEnroe@McEnroeDenny,Re: Germany League - Bundesliga Prediction Thread http://cur.lv/ut8sn #bitcoin #crypto,0,0,0,False
327,NameBrandAmbassador@TopAmbassador,"@click_ator I just got HOOKED UP! http://freecryptofaucets.com
#free #bitcoin #cryptocurrency #freebie #money",0,0,0,False
328,BitcoinAgile@bitcoinagile,I2P Bata Wallet Configuration #bta #crypto #currency #i2p #privacy #anonymous http://bitcoinagile.com/54E2A5/i2p-bata-wallet-configuration_stream…,0,0,0,False
329,Pieter de Wit@Pjotrww,"#Bitcoin has failed? You're kidding me, right?
https://linkedin.com/pulse/bitcoin-has-failed-youre-kidding-me-right-michael-casey?trk=v-feed&trk=v-feed&trk=hp-feed-article-title-share…
#innovation #cryptocurrency #applications #tech #blockchain #digitalBitcoin has failed? You're kidding me, right?This past week brought a reminder that bitcoin has governance challenges.  (Thanks, Captain Obvious).linkedin.com",1,0,0,False
330,bitcoinblackjack@btcblackjack,btcblackjack: BitcoinBuzzV9: http://bitcoinbuzz.vega9.com - Hot topics: #crypto #bitcoin #btc #casino #eth #robotcoingame,1,0,0,False
331,Sleeping Horse #BRG@Hunting_Bitcoin,Claim your free Doge Coin every one hour just at http://freedoge.co.in/?r=314242 claim up to 900k doge coin #faucet #altcoin,1,0,0,False
332,Laurent Cheylus@lcheylus,Three reasons why #Bitcoin isn’t dead yet #Cryptocurrency #Blockchain http://buff.ly/1QK7Pp1,1,1,0,False
333,Muhammad Waqas Azeem@waqasazeem3219,"Yes, #eth is nothing but whales manipulation on fake volume and fake walls just like the old #bittrex game. #altcoin #scam #fake #bitcoin",1,0,0,False
334,bitcoinblackjack@btcblackjack,BitcoinBuzzV9: http://bitcoinbuzz.vega9.com - Hot topics: #crypto #bitcoin #btc #casino #eth #robotcoingame,1,0,0,False
335,OpenFXMarket@OpenFXMarket,#altcoin market index (avg): #OFXAVG 138.15 #SHA 45.01 #SCRYPT 96.83 #QUARK 58.46 #X 9.05 #HYBRID 7.8 Stay tuned! #OFX,0,0,0,False
349,coinOK@coinok,Win $150 in Dogecoins every hour! http://freedoge.co.in/?r=98385 #doge #dogecoin #btc #bitcoin #ltc #altcoin #cryptocurrency,1,0,0,False
350,The Time Machine @MachineBlock33,More ppl are buying #bitcoin #cryptocurrency for investment buying #bleutrade @BLEUTRADE share coin get BTC DOGE LTC 2x's a day o_O,1,0,0,False
351,Bitcoin Hourly@bitcoin_hourly,"Price Update: 1 #Bitcoin = $379.1300

#cryptocurrency source http://yhoo.it/1PH2nON (via @Flutter_HQ)",1,0,0,False
352,bxntest@bxndev,We got 40 winners for game 2016-01-30 10:00! Total won: 108'090 NXT. Win per bet: 2'702 NXT #NXT #Crypto #Betting,0,0,0,False
353,XBTFreelancer.com@XBTFreelancer,#bitcoin Create (replace existing) image for empty user profile picture http://xbtfreelancer.com/prj/821/create-replace-existing-image-for-empty-user-profile-picture… #job #graphicdesign #crypto,2,0,0,False
354,BitcoinBuzz vega9@BitcoinBuzzV9,http://bitcoinbuzz.vega9.com - Hot topics: #crypto #bitcoin #btc #casino #eth #robotcoingame,1,0,0,False
355,CryptoRSS@CryptoRSS,Bankers Weigh Blockchain Challenges at BNY Mellon Event: BNY Mellon hosted a blockchain discussion eve... http://bit.ly/1m4jGS8 #crypto,2,0,0,False
356,Bitcoin Garden (Not Giving Away ETH)@BitcoinGarden,ROKOS Bitcoin Fullnode Official Partner of CoinFestUK http://bitcoingarden.tk/forum/index.php?topic=3941.msg106483#msg106483… tnx @CoinFestUK @BitcoinFullnode @OKCashCrypto | #Crypto #News,8,10,0,False
357,Crypto Yoyo@cryptoyoyo,Are Regulators Holding Back Digital Currency? http://bit.ly/1OWw5lk #bitcoin #crypto #news,0,0,0,False
358,الهامس@arif53540,"Yes, #eth is nothing but whales manipulation on fake volume and fake walls just like the old #bittrex game. #altcoin #scam #fake #bitcoin",0,0,0,False
359,NE Patriots Dynasty@NEPatsDynasty,10 new Bank of America #Cryptocurrency Patents. The Future of #Money and Payment. JOIN FREE Click here http://buygold.ilgamos.com/buy?buy_type=1,0,0,0,False
360,BitShares News@News_BitShares,Prediction Market Assets on the #BitShares Blockchain : http://bitsharesnews.info/post/138333164118/prediction-market-assets-the-following… #cryptocurrency,2,2,0,False
361,PumpingAltcoin@PumpingAltcoin,#Altcoin News and #Pump Tips is out! http://paper.li/PumpingAltcoin/1399763175?edition_id=d60a7780-c741-11e5-9951-0cc47a0d1609… #Freebitcoin #Crypto #BTC #Mintpal Stories via @theymakedesign,1,0,0,False
362,Stephan Brückner - Selbstheilung aus Depressionen@st_brueckner,Wow. 20 new members the last 24 hours. We love you all! #Inno #startup #altcoins #cryptocurrency @staisybit RETWEET,3,1,0,False
363,Shakira@joseph_pro_,"Yes, #eth is nothing but whales manipulation on fake volume and fake walls just like the old #bittrex game. #altcoin #scam #fake #bitcoin",0,0,0,False
364,Denny McEnroe@McEnroeDenny,Re: Why all blocksize propositions are round numbers ? http://cur.lv/ut5lp #bitcoin #crypto,0,0,0,False
365,Denny McEnroe@McEnroeDenny,Re: [WTS] Antminer S7 currently hosted at BitClouder http://cur.lv/ut5ln #bitcoin #crypto,0,0,0,False
366,Denny McEnroe@McEnroeDenny,Re: ★Fancyhash.io new roulette blockchain based game. make extra cash in 5 minutes!★ http://cur.lv/ut5ll #bitcoin #crypto,0,0,0,False
367,Denny McEnroe@McEnroeDenny,Re:  how to get 10 dolars fast in btc http://cur.lv/ut5lk #bitcoin #crypto,0,0,0,False
381,Denny McEnroe@McEnroeDenny,Re: Stealth paypal account with credit 309 of credit. http://cur.lv/ut5lh #bitcoin #crypto,0,0,0,False
382,Bitcoin Hourly@bitcoin_hourly,"Price Update: 1 #Bitcoin = $378.9800

#cryptocurrency source http://yhoo.it/1PH2nON (via @Flutter_HQ)",0,0,0,False
383,BitcoinBuzz vega9@BitcoinBuzzV9,http://bitcoinbuzz.vega9.com - Hot topics: #crypto #bitcoin #btc #robotcoingame #monstercoingame #blockchain,0,0,0,False
384,LocalDayz@localdayz,#auroracoin Download wallet https://github.com/aurarad/auroracoin… and Join the pool on http://pool.laintimes.com #cryptocurrencyaurarad/AuroracoinCurrent Auroracoin source tree. Contribute to aurarad/Auroracoin development by creating an account on GitHub.github.com,0,0,0,False
386,Przemek@akantofolis,"making 100x your money. XST is a cheap altcoin like BitCoin BTC. #xst #altcoin #bitcoin @stealthcoin
http://goo.gl/0WcTnq",0,0,0,False
387,Przemek@akantofolis,"Yes, #eth is nothing but whales manipulation on fake volume and fake walls just like the old #bittrex game. #altcoin #scam #fake #bitcoin",1,0,0,False
388,CureCoin@CureCoin_Team,"CureCoin team discusses costs (and break-even values) of folding proteins for CURE #crypto #bitcoin #altcoin #miningQuote TweetIvan Tuma@IvanTumaJr · Jan 30, 2016.@IvanTumaJr/Financial_Bloggers_CR Cost Estimator for #CureCoin | #bitcoin #altcoin #crypto https://youtube.com/playlist?list=PLY_35j45U_lXKdXgCw2e_V9QLHMgipbb7…",1,1,1,False
389,rssbtc.com@rssbtc,"Growth & Adoption The Main Goal For Bitcoiners - http://bit.ly/1WTjl1U
#bitcoin #fintech #tech #digital #adoption #blockchain #crypto",2,2,0,False
390,Shotiko M@ShotikoArt,StealthCoin is #1 Cryptocurrency https://twitter.com/StealthCoin #altcoins #sexy #girl #woman #iphone #ipad http://pbs.twimg.com/media/CGMi4_UUUAAXn0W.png…,0,0,0,False
391,rssbtc.com@rssbtc,"Five Ways the Developing World Uses Bitcoin - http://bit.ly/1P3wWyK
#digital #bitcoin #blockchain #crypto #tech",2,3,0,False
396,Darshan@darshanraval861,"Yes, #eth is nothing but whales manipulation on fakevolume and fake walls just like the old #bittrex game. #altcoin #scam #ronakabhattrz",0,0,0,False
397,Best MMA picks@bestmmapicks,Good place to buy bitcoin anonymously w/tutorial https://youtu.be/hroPcR-0zSI #cryptocurrency,0,0,0,False
398,#InnocentCryptoKitty@NaughtyCatzilla,"I liked a @YouTube video from @worldcryptonet http://youtu.be/VO9N8lwp6MM?a #Bitcoin & #Altcoin Trading Talk 21#Bitcoin & #Altcoin Trading Talk 21Join The Rational Investor and Coinigy Team for another exciting round of Bitcoin and Altcoin Technical Analysis, platform updates, and all around fun!youtube.com",2,1,0,False
399,Team 300FPS ︻╦̵̵̿╤─@300FPSGAMING,Will Bankers Go to Jail if the Market Collapses Again? http://bit.ly/1Q0H2QB #bitcoin #bitcoinnews #btc #cryptocurrency,1,0,0,False
400,John Doe@stylexco,StealthCoin is #1 Cryptocurrency https://twitter.com/StealthCoin #altcoins #sexy #girl #woman #iphone #ipad http://pbs.twimg.com/media/CGMi4_UUUAAXn0W.png…,0,0,0,False
401,John Doe@stylexco,"Yes, #eth is nothing but whales manipulation on fake volume and fake walls just like the old #bittrex game. #altcoin #scam #fake #bitcoin",0,0,0,False
402,twister swirl@twisterswirl,"#Earn 30% #Referral income in #bitcoin Join the best ref #program here https://betbtc.co/?ref=385
#BTC #cryptocurrency",5,6,0,False
403,Alberto Jauregui | esoteRICK.eth @DisruptBanksy,Thanks for the mention! travisebel: Top #Cryptocurrency Info - http://paper.li/travisebel/1437785689?edition_id=a117d310-c737-11e5-881a-0cc47a0d164b… by Brutalcoins CryptoJauregui Spongebobtrades,0,0,0,False
404,Ivan Tuma@IvanTumaJr,.@IvanTumaJr/Financial_Bloggers_CR Cost Estimator for #CureCoin | #bitcoin #altcoin #crypto https://youtube.com/playlist?list=PLY_35j45U_lXKdXgCw2e_V9QLHMgipbb7…,1,0,0,False
405,Bourdeau Gaetan@roy06_gaetan,"Yes, #eth is nothing but whales manipulation on fake volume and fake walls just like the old #bittrex game. #altcoin #scam #fake #bitcoin",0,0,0,False
406,Prathamesh Bhosale@PB_Prathamesh_B,"Bitcoin Group Float Doesn’t Catch On, Listing Date Pushed Back Again https://cryptocoinsnews.com/bitcoin-group-float-doesnt-catch-on-listing-date-pushed-back-again/… #cryptocurrency",0,0,0,False
407,Bitcoin Hourly@bitcoin_hourly,"Price Update: 1 #Bitcoin = $379.7700

#cryptocurrency source http://yhoo.it/1PH2nON (via @Flutter_HQ)",0,0,0,False
408,BitcoinBuzz vega9@BitcoinBuzzV9,http://bitcoinbuzz.vega9.com - Hot topics: #crypto #btce #bitcoin #btc #robotcoingame #monstercoingame,0,0,0,False
409,Jul Matr@jul_matr,"Yes, #eth is nothing but whales manipulation on fake volume and fake walls just like the old #bittrex game. #altcoin #scam #fake #bitcoin",0,0,0,False
410,Megabyte@megabyte101,"Positive discussion of #cryptocurrency in the European Parliament.
More #blockchain observation, less regulation
http://bravenewcoin.com/news/european-parliament-discusses-bitcoin-and-virtual-currencies-for-the-first-time/…",0,0,0,False
411,SKYLUKE@theboccet,@Chameleon_Bit Let @MonetaryUnit be your first #quark coin and make #vegas even closer.#monetaryunit #bitcoin #dogecoin #cryptocurrency,2,0,0,False
412,Travis Ebel@travisebel,Top #Cryptocurrency Info - http://paper.li/travisebel/1437785689?edition_id=a117d310-c737-11e5-881a-0cc47a0d164b… by @Brutalcoins @CryptoJauregui @Spongebobtrades,0,0,0,False
413,Lillian J. Edmiston@LillianEdmiston,"RT https://twitter.com/optulus1/status/693369469075341313… RT Ether_Press: #altcoin review: ""To put it simple, if #Bitcoin is #HTML, #Ethereum is… http://allcryptocoins.net/2016/01/altcoin-review-ethereum-ether-coins/…This Tweet is unavailable.",0,0,0,False
414,kalebhenrique@meninotrouxinh1,#scam #altcoin is #startcoin with 27 million premined while giving out 10/20 to hype #CROOK of #crypto #bitcoin #btc #litecoin goo,0,0,0,False
415,International CCC@Int_CCC,Today's Crypto Chronicle! News about #bitcoin #cryptocurrency and more! http://paper.li/Int_CCC/1409392381?edition_id=6c6e12f0-c737-11e5-b288-002590a5ba2d… Articles thanks to @bitcoininfo,0,0,0,False
416,CCN - Capital & Celeb News@CapitalAndCeleb,"Bitcoin Group Float Doesn’t Catch On, Listing Date Pushed Back Again https://cryptocoinsnews.com/bitcoin-group-float-doesnt-catch-on-listing-date-pushed-back-again/… #cryptocurrency",1,7,0,False
417,Vishal Sharma@vishne0,"Stop using:

• ECDH, ECDSA w/ NIST P-256
• SHA-256
• AES-128
• RSA with 2k keys
• DH with 2k keys

https://cryptome.org/2016/01/CNSA-Suite-and-Quantum-Computing-FAQ.pdf…
#infosec #crypto",0,0,0,False
418,Best MMA picks@bestmmapicks,Video on what bitcoin is and how to make one of the best bitcoin wallets. BTC is best to bet with! https://youtu.be/keRd9WmoZ0U #cryptocurrency,1,1,0,False
419,ethereum.network@EthereumNetw,"Positive discussion of #cryptocurrency in the European Parliament.
More #blockchain observation, less regulation
http://bravenewcoin.com/news/european-parliament-discusses-bitcoin-and-virtual-currencies-for-the-first-time/…",3,6,1,False
420,Coin Tiny@CoinTiny,Prediction Market Assets on the BitShares Blockchain #CryptoCurrency #Crypto,0,0,0,False
421,Marin Jarkić@MarathanQ,"Yes, #eth is nothing but whales manipulation on fake volume and fake walls just like the old #bittrex game. #altcoin #scam #fake #bitcoin",0,0,0,False
422,Bitcoinist.com@bitcoinist,Bitcoin In-Fighting Doesn’t Matter: Gavin Andreson Weighs in http://ift.tt/1nunnl1 #bitcoin #bitcoinnews #btc #cryptocurrency #altcoins …,3,1,0,False
423,Fintech Prowler@FintechProwler,Bitcoin Technical Analysis 1/30/16 – Divergence signals major movement - The Merkle (blog) http://ift.tt/1OWnFKM #altcoin,0,0,0,False
424,Crypto Yoyo@cryptoyoyo,Bitcoin In-Fighting Doesn't Matter: Peter Andreson Weighs in http://bit.ly/1ShJ2dD #bitcoin #crypto #news,1,0,0,False
425,Crypto Yoyo@cryptoyoyo,Teenagers using untraceable currency Bitcoin to buy dangerous drugs online http://bit.ly/1m3XiZ1 #bitcoin #crypto #news,1,0,0,False
426,Denny McEnroe@McEnroeDenny,Re: Wall Observer BTC/USD - Bitcoin price movement tracking & discussion http://cur.lv/ut2vd #bitcoin #crypto,0,0,0,False
427,Denny McEnroe@McEnroeDenny,Re: Good faucet!! 10000 satoshi every 40 min http://cur.lv/ut2va #bitcoin #crypto,0,0,0,False
428,kalebhenrique@meninotrouxinh1,"Yes, #eth is nothing but whales manipulation on fake volume and fake walls just like the old #bittrex game. #altcoin #scam #fake #bitcoin",1,0,0,False
429,Nils Weisensee@nilsweisensee,Important read: The Moral Character of Cryptographic Work. http://web.cs.ucdavis.edu/~rogaway/papers/moral-fn.pdf… #privacy #crypto #science,1,0,0,False
430,Team 300FPS ︻╦̵̵̿╤─@300FPSGAMING,Bitcoin In-Fighting Doesn’t Matter: Peter Andreson Weighs in http://bit.ly/1numVDl #bitcoin #bitcoinnews #btc #cryptocurrency,0,0,0,False
431,blueCollarSysAdmin@SilasCurfman,Seriously BOA !?  Smh #cryptocurrencyIs Bank of America Trying To Monopolize The Blockchain?It seems Bank of America is trying to monopolize the Blockсhain by getting 100% of the patents covering Blockсhain technology. And this path was shown a year ago by Coinbase too.cointelegraph.com,0,0,0,False
432,futuristbot@futuristbot,intellectual property in metaphors #Futr #cryptocurrencyGIF,2,1,0,False
433,davidalexe777@davidalexe7777,"Yes, #eth is nothing but whales manipulation on fake volume and fake walls just like the old #bittrex game. #altcoin #scam #fake #bitcoin",0,0,0,False
434,Lillian J. Edmiston@LillianEdmiston,"RT https://twitter.com/Ether_Press/status/693357328683282432… #altcoin review: ""To put it simple, if #Bitcoin is #HTML, #Ethereum is the #javascript… http://allcryptocoins.net/2016/01/altcoin-review-ethereum-ether-coins/…Quote Tweetethereum.network@EthereumNetw · Jan 30, 2016#altcoin review: ""To put it simple, if #Bitcoin is #HTML, #Ethereum is the #javascript.""
http://allcryptocoins.net/2016/01/altcoin-review-ethereum-ether-coins/…",0,0,0,False
435,Asesorías & Consultorías Informáticas@redlocal,"#Crypto #ATM – #Bitcoin, #Litecoin & #Dogecoin ATM – #OpenSource!: Check out this Crypto… http://dlvr.it/KM90yy …",0,0,0,False
440,BrianDColwell (Quotidian Marketing)@BrianDColwell,#Banks Would Prefer #Blockchain over #ApplePay #cryptocurrency #bitcoin    http://ow.ly/Xvrwc @BColwell_ECON,0,0,0,False
441,NE Patriots Dynasty@NEPatsDynasty,JOIN FREE now. #MONEY #Bitcoin The Next NEW #Crypto #Currency. It is called #ILCoin  JOIN Click here http://buygold.ilgamos.com/buy?buy_type=1,0,0,0,False
442,Dash@Dashpay,"A Conversation with Evan Duffield, Founder of Dash
https://coinreport.net/conversation-evan-duffield-dan-diaz-dash/…
#DashDC #Darkcoin #DigitalCash #Cryptocurrency",4,3,0,False
443,BrianDColwell (Quotidian Marketing)@BrianDColwell,Is #bitcoin for the masses or against the state? #crypto #cryptocurrency #blockchain https://pic.twitter.com/f6eNi232gv http://ow.ly/XvCjZ $V $JPM,0,0,0,False
444,Julia Edling@bitcointonic,"#Crypto #ATM – #Bitcoin, #Litecoin & #Dogecoin ATM – #OpenSource!: Check out this Crypto… http://dlvr.it/KM90yy",0,0,0,False
445,Bitcoin Hourly@bitcoin_hourly,"Price Update: 1 #Bitcoin = $380.4700

#cryptocurrency source http://yhoo.it/1PH2nON (via @Flutter_HQ)",0,0,0,False
446,ethereum.network@EthereumNetw,"#altcoin review: ""To put it simple, if #Bitcoin is #HTML, #Ethereum is the #javascript.""
http://allcryptocoins.net/2016/01/altcoin-review-ethereum-ether-coins/…",0,0,0,False
447,Alvis Cheng@AlvisMiner,8 time tracking tools that can skyrocket productivity: As you seek to make your business ... http://sh.st/mBqnT #bitcoin #crypto #IT,0,0,0,False
448,Protegrity@Protegrity,#Cyber trends over #Crypto & #Cloud over #Commerce in #RSAConference vernacular @FortuneMagazine http://for.tn/1K6XPVy,0,0,0,False
449,Crypto Yoyo@cryptoyoyo,Growth & Adoption The Main Goal For Bitcoiners http://bit.ly/1ShCID2 #bitcoin #crypto #news,0,0,0,False
450,DoubleMB@DoubleMBcom,"What are you waiting for? Double Your BITCOINs right now!
https://doublemb.com
#rt #bitcoin #crypto",0,0,0,False
452,Denny McEnroe@McEnroeDenny,Re: How Cryptsy can save itself http://cur.lv/ut0nl #bitcoin #crypto,1,0,0,False
453,Denny McEnroe@McEnroeDenny,Re: What is a team and what is not a team. http://cur.lv/ut0nh #bitcoin #crypto,0,0,0,False
454,Denny McEnroe@McEnroeDenny,★Fancyhash.io new roulette blockchain based game. make extra cash in 5 minutes!★ http://cur.lv/ut0ng #bitcoin #crypto,0,0,0,False
455,Denny McEnroe@McEnroeDenny,Re: 2016 will be a boring year for bitcoin http://cur.lv/ut0ne #bitcoin #crypto,0,0,0,False
456,Megabyte@megabyte101,"Can't wait for Aricoin, the world's simplest #cryptocurrency! Sign up for beta now: https://aricoin.org/?code=PVpCRL4jd #bitcoin",0,0,0,False
457,Bitcoin Hourly@bitcoin_hourly,"Price Update: 1 #Bitcoin = $380.4200

#cryptocurrency source http://yhoo.it/1PH2nON (via @Flutter_HQ)",0,0,0,False
470,BitcoinBuzz vega9@BitcoinBuzzV9,http://bitcoinbuzz.vega9.com - Hot topics: #bitcoin #gold #btc #fintech #cryptocurrency #robotcoingame,0,0,0,False
471,BitcoinAgile@bitcoinagile,Wallets Bata (BTA) | Peer to Peer Transactions $BTA #crypto http://bata.io/wallets,1,2,0,False
472,NixuCDC@NixuCDC,"Stop using:

• ECDH, ECDSA w/ NIST P-256
• SHA-256
• AES-128
• RSA with 2k keys
• DH with 2k keys

https://cryptome.org/2016/01/CNSA-Suite-and-Quantum-Computing-FAQ.pdf…
#infosec #crypto",20,35,3,False
473,ARPA-ONGD@GoToARPA,"Yes, #eth is nothing but whales manipulation on fake volume and fake walls just like the old #bittrex game. #altcoin #scam #fake #bitcoin",8,1,0,False
474,Sữa Ong Chúa@asdf199x,"Yes, #eth is nothing but whales manipulation on fake volume and fake walls just like the old #bittrex game. #altcoin #scam #fake #bitcoin",0,0,0,False
475,ADRIAN :D@TheAdrianRexx,"Yes, #eth is nothing but whales manipulation on fake volume and fake walls just like the old #bittrex game. #altcoin #scam #fake #bitcoin",0,0,0,False
476,Ben Jones@BenPeterJones,Bitcoin Price Pre-Fed Announcement - http://buff.ly/1UtZbKp #bitcoin #btc #cryptocurrency,0,0,0,False
477,Crypto Yoyo@cryptoyoyo,Toxic legal highs on sale to children using untraceable online currency Bitcoin http://bit.ly/1KgOgU5 #bitcoin #crypto #news,0,0,0,False
478,Team 300FPS ︻╦̵̵̿╤─@300FPSGAMING,Growth & Adoption The Main Goal For Bitcoiners http://bit.ly/20zai8I #bitcoin #bitcoinnews #btc #cryptocurrency,0,0,0,False
479,eduarda maceda@EduardaMaceda,"Yes, #eth is nothing but whales manipulation on fake volume and fake walls just like the old #bittrex game. #altcoin #scam #fake #bitcoin",0,0,0,False
480,ExtremePaperClip@ExtremePaperC,@apricorn_info - Happiness is a Padlock Drive #crypto,0,0,0,False
481,Digital Credits@dcreditstwit,DGCS can now be traded on #SafeCex here: https://safecex.com/market?q=DGCS/BTC… #bitcoin #altcoin #cryptocurrency More Info: http://dcredits.com,1,0,0,False
482,PinkMona@pinkmona_org,#bitcoin #altcoin #dogecoin Let's Hentai! Come on PinkMona!→http://pinkmona.org,0,0,0,False
483,Janet R. Cooley@reepho1989,"Yes, #eth is nothing but whales manipulation on fake volume and fake walls just like the old #bittrex game. #altcoin #scam #fake #bitcoin",0,0,0,False
484,Denny McEnroe@McEnroeDenny,Re: should women be blamed for wearing daring dress thus reason they were raped http://cur.lv/usye5 #bitcoin #crypto,0,0,0,False
485,Denny McEnroe@McEnroeDenny,Re: [Free] 1$ in 5 Min in  Paypal Instant [No Work Require] http://cur.lv/usye4 #bitcoin #crypto,0,0,0,False
494,Denny McEnroe@McEnroeDenny,Automated posting http://cur.lv/usye2 #bitcoin #crypto,0,0,0,False
495,bitcoinhunters@bitcoinhunterss,Join the trusted cloud mining that pay until today! http://bit.ly/1mgVHQj #bitcoin #cryptocurrency,0,0,0,False
496,Bitcoin Hourly@bitcoin_hourly,"Price Update: 1 #Bitcoin = $380.9900

#cryptocurrency source http://yhoo.it/1PH2nON (via @Flutter_HQ)",0,0,0,False
497,bxntest@bxndev,We got 40 winners for game 2016-01-30 05:00! Total won: 21'690 NXT. Win per bet: 542 NXT #NXT #Crypto #Betting,1,0,0,False
498,BitcoinBuzz vega9@BitcoinBuzzV9,http://bitcoinbuzz.vega9.com - Hot topics: #gold #bitcoin #btc #fintech #cryptocurrency #blockchain,1,0,0,False
499,LocalDayz@localdayz,Pool looking for a community manager. Use http://laintimes.com/contact/ for join US. #cryptocurrency,0,0,0,False
501,Crypto Yoyo@cryptoyoyo,Virtual Currency Meets Wariness As It Plugs Into Cheap Columbia River Power http://bit.ly/23zta9P #bitcoin #crypto #news,0,0,0,False
502,Silly Pothead@SillyPothead1,#Cannabis #crypto #faucets check up. Status Ok.  $CCN $POT $CANN $STV http://sillypothead.com,1,0,0,False
503,bitcoinblackjack@btcblackjack,btcblackjack: CryptoJCrypto: RT newsbtc: Bitcoin Video Casino Brings Attractive Opportunities #Cryptocurrency User…,1,0,0,False
504,bitcoinblackjack@btcblackjack,CryptoJCrypto: RT newsbtc: Bitcoin Video Casino Brings Attractive Opportunities #Cryptocurrency Users #EURUSD #cry…,0,0,0,False
505,bxntest@bxndev,We got 10 winners for game 2016-01-30 04:00! Total won: 108'090 NXT. Win per bet: 10'809 NXT #NXT #Crypto #Betting,0,0,0,False
506,Bitcoin Hourly@bitcoin_hourly,"Price Update: 1 #Bitcoin = $379.4200

#cryptocurrency source http://yhoo.it/1PH2nON (via @Flutter_HQ)",0,0,0,False
507,XBTFreelancer.com@XBTFreelancer,http://xbtfreelancer.com/prj/823/multiplayer-gaming-server-backgammon-and-mahjong… #xbt #cryptocurrency #programming #bitcoin Multiplayer Gaming Server: Backgammon and Mahjong #jobs #income,0,0,0,False
508,HashGoal #@HashGoal_Pool,"@katzcoin $KAT is added to #sha256 profitswitch. http://goo.gl/h0t4QF
Listed at @YobitExchange, #litecoin #bitcoin #cryptocurrency",0,0,0,False
516,Denny McEnroe@McEnroeDenny,Re: SimplR Account Generator $10/Lifetime DirecTV XFINITY HULU SPOTIFY NFL MLB http://cur.lv/usw8w #bitcoin #crypto,0,0,0,False
517,Denny McEnroe@McEnroeDenny,Re: Premier League Prediction Thread (EPL) http://cur.lv/usw8u #bitcoin #crypto,0,0,0,False
518,Denny McEnroe@McEnroeDenny,Re: Diff thread Jan 26 to Feb 9  picks are closed! Just setting up. 0.2btc prize http://cur.lv/usw8t #bitcoin #crypto,1,0,0,False
519,Denny McEnroe@McEnroeDenny,"Re:  HYPERGEN | Acc Gen - $7.5 LIFETIME | Netflix, Spotify, MC! | 40+ Types! http://cur.lv/usw8s #bitcoin #crypto",0,0,0,False
520,Denny McEnroe@McEnroeDenny,Re: Earn 400 Satoshi Per 180 Minute http://cur.lv/usw8r #bitcoin #crypto,0,0,0,False
521,Fintech Prowler@FintechProwler,Dash Increases Its Block Size as Founder Confirms Instantaneous Transactions - CryptoCoinsNews http://ift.tt/1QMXVTF #altcoin,0,0,0,False
522,LoveplusBitcoin@loveplusbitcoin,"Selling Items For Digital Currency Lets Anyone Become An Entrepreneur http://ow.ly/XF9Vb #bitcoin #cryptoSelling Items For Digital Currency Lets Anyone Become An EntrepreneurPeople have offered the weirdest things for sale in exchange for Bitcoin throughout the years. Everything began with the 10,000 Bitcoin pizza ordered by a Bitcoin enthusiast in 2010. Fast forward to tthemerkle.com",4,1,1,False
523,Eddy Lindo@j3345227,#scam #altcoin is #startcoin with 27 million premined while giving out 10/20 to hype #CROOK,0,0,0,False
524,NE Patriots Dynasty@NEPatsDynasty,Gold & #Crypto-Currency in one clever system. Join the Digital Currency Revolution and turn your #PROFITS into GOLD http://dld.bz/dARdH,0,0,0,False
526,Bitcoin Hourly@bitcoin_hourly,"Price Update: 1 #Bitcoin = $378.7700

#cryptocurrency source http://yhoo.it/1PH2nON (via @Flutter_HQ)",0,0,0,False
527,LocalDayz@localdayz,#XMR #monero #bitmonero dedicated pool avaible JOIN US on http://pool.laintimes.com #cryptocurrency,0,0,0,False
528,Regina carnation@ReginaCarnation,"Yes, #eth is nothing but whales manipulation on fake volume and fake walls just like the old #bittrex game. #altcoin #scam #fake #bitcoin",0,0,0,False
529,Crypto Yoyo@cryptoyoyo,PwC and Blockstream Form Partnership to Deliver Blockchain Tech Globally http://bit.ly/1SPizUq #bitcoin #crypto #news,1,0,0,False
530,Prathamesh Bhosale@PB_Prathamesh_B,Lithuanian Law Enforcement Official Warns Terrorists Could Fund Activities https://cryptocoinsnews.com/lithuanian-law-enforcement-official-warns-terrorists-fund-activities-bitcoin/… #cryptocurrency,0,0,0,False
531,CCN - Capital & Celeb News@CapitalAndCeleb,Lithuanian Law Enforcement Official Warns Terrorists Could Fund Activities https://cryptocoinsnews.com/lithuanian-law-enforcement-official-warns-terrorists-fund-activities-bitcoin/… #cryptocurrency,5,0,0,False
532,Denny McEnroe@McEnroeDenny,Re: Is Bitcoins safe? http://cur.lv/usude #bitcoin #crypto,0,0,0,False
533,Denny McEnroe@McEnroeDenny,"Re: [WTS] $10,000 GAP GIFT CARD and more - Instant Email Delivery - ESCROW http://cur.lv/usudd #bitcoin #crypto",0,0,0,False
534,Denny McEnroe@McEnroeDenny,Re: BitFury has the No. 1 Crown for Now... http://cur.lv/usudb #bitcoin #crypto,0,0,0,False
535,Denny McEnroe@McEnroeDenny,Re: [ANN] Ethereum: Welcome to the Beginning http://cur.lv/usud9 #bitcoin #crypto,0,0,0,False
541,Denny McEnroe@McEnroeDenny,Re: ₪₪MEGA Gift cards shop® huge discounts - VOUCHED - ESCROW accepted ₪₪ http://cur.lv/usud8 #bitcoin #crypto,0,0,0,False
542,Daniel buitrago@Daniel_Bui89,"Yes, #eth is nothing but whales manipulation on fake volume and fake walls just like the old #bittrex game. #altcoin #scam #fake #bitcoin",1,0,0,False
543,Ansel Halliburton@anseljh,"A good read on #AB1681, the facepalm-worthy CA bill to ban smartphone #crypto.Quote TweetTrevor Timm@trevortimm · Jan 27, 2016Wired's @a_greenberg explains why proposed state bans on phone encryption in California & New York make zero sense: http://wired.com/2016/01/proposed-state-bans-on-phone-encryption-make-zero-sense/…",1,0,0,False
544,FREE  BITCOINS@silviadragulesc,Thanks Decred #Crypto #News for the follow! I´m very happy about it. The Best Way to Get Free BitcoinsKnolix - Money TreeWatch the money grow on Treeknolix.com,0,0,0,False
545,Vindyne8@Vindyne8,"#bitnodes Cheap managed node #VPS hosting services for every #crypto coin, with community support
http://bitnodes.net #btc @CryptoOz #RT",14,13,0,False
546,LoveplusBitcoin@loveplusbitcoin,Recent Wendy’s Data Breach Shows The Importance of Bitcoin Payments http://ow.ly/XF9SO #bitcoin #cryptocurrency,0,0,0,False
547,Bitcoin Hourly@bitcoin_hourly,"Price Update: 1 #Bitcoin = $376.7000

#cryptocurrency source http://yhoo.it/1PH2nON (via @Flutter_HQ)",0,0,0,False
