,user,text,likes,retweets,replies,is_thread
0,NE Patriots Dynasty@NEPatsDynasty,HERE IT IS. The Next #Crypto #Currency #Bitcoin. It is called #ILCoin Join FREE Today. Click here http://buygold.ilgamos.com/buy?buy_type=1,0,0,0,False
1,Vatican Bank@VaticanBank,Replying to @padillausaCrypto Earnings greetings from the #VaticanBank @tipdoge tiprain  2000 #Dogecoin #btc #Crypto @crypto_earnings @padillausa 2K,2,0,0,False
2,FINTECHNA@fintechna,DavidDerhy: Bitcoin explained in 3 minutes https://youtu.be/p_a8jlyqk4g  #cryptocurrency #bitcoin #blockchain #fintech,0,0,0,False
3,David@DavidDerhy,"@Bitcoin explained in 3 minutes

https://youtu.be/p_a8jlyqk4g
#cryptocurrency #bitcoin #blockchain #fintechBitcoin in 3 minutesWhat is Bitcoin, and what does it have to do with the future of money, science, politics, and art? Watch our 3-minute animated film to learn about this revol...youtube.com",1,1,0,False
4,Crypto Price Ticker@TickerCrypto,"#SexCoin #SXC 0.00000142 BTC via #SexCoinSXC
#Bitcoin #BTC #AltCoin #BlockChain #BOT",0,0,0,False
5,Crypto Price Ticker@TickerCrypto,"#AudioCoin #ADC 0.00000028 BTC via #AudioCoinBot
#Bitcoin #BTC #AltCoin #BlockChain #BOT",0,0,0,False
6,EverGreenCoin® (EGC) @EverGreenCoin_,If you'd like #EverGreenCoin listed on @BittrexExchange RT this! Let them know we'd like their business! #EGC #Bittrex #cryptocurrency,8,12,2,False
7,Crypto Price Ticker@TickerCrypto,"#Ripple #XRP 0.00001329 BTC via #RippleXRPbot
#Bitcoin #BTC #AltCoin #BlockChain #BOT",0,0,0,False
8,CryptoTrader@AltTradingRob,"Make money online mining Bitcoins Start with this free 15GH  https://cryptomining.farm/signup?referrer=5691918F1EE04…
#workfromhome #makemoneyonline #bitcoin #cryptocurrency",4,1,1,False
9,Crypto Price Ticker@TickerCrypto,"#GeoCoin #GEO 0.00005585 BTC via #GeoCoinBot
#Bitcoin #BTC #AltCoin #BlockChain #BOT",0,0,0,False
10,Crypto Price Ticker@TickerCrypto,"#NetCoin #NET 0.00000132 BTC via #NetCoinBot
#Bitcoin #BTC #AltCoin #BlockChain #BOT",1,2,0,False
11,LUNI VIBRATION@LunaticAbsturz,@highhenny94 @PatrickBangDE Beste in 1 #Defi,2,2,0,False
12,Julia Vaingurt@julia_vaingurt,"The Return of #Bitcoin #Mining http://cur.lv/u3qfx
#Blockchain #Tech #Digital #Crypto #Money #Investements #Finance #Gold #Stocks",0,0,0,False
13,Alejandro Sewrjugin@alesew23,"The Return of #Bitcoin #Mining http://newsmax.com/Finance/Markets/bitcoin-mining-digital-currency-virtual-payment/2016/01/08/id/708661/… #Blockchain #Tech #Digital #Crypto #Money #Investements #Finance #Gold #StocksThe Return of Bitcoin MiningBitcoin mining is looking a bit more attractive again.When the virtual currency's popularity was surging just a few years ago, almost anyone could set up a computer in their basement to mine bitcoi...newsmax.com",1,0,0,False
14,SteamGrrl@SteamGrrl_Ucini,WW2 Vet Who Stormed Nazi U-boat to Capture Top Secret Enigma Machine Dies http://express.co.uk/news/uk/631640/Second-World-War-veteran-David-Balme-Enigma-machine-dies… #DavidBalme #hero #crypto #Anonymous,2,0,0,False
15,Crypto Price Ticker@TickerCrypto,"#CannabisCoin #CANN 0.00000430 BTC via #CannabisCoinBot
#Bitcoin #BTC #AltCoin #BlockChain #BOT",1,0,0,False
16,Crypto Price Ticker@TickerCrypto,"#MonaCoin #MONA 0.00015095 BTC via #MonaCoinBot
#Bitcoin #BTC #AltCoin #BlockChain #BOT",0,0,0,False
17,Cryptolized™@Cryptolized,Daily Bitcoin Price Analysis: Bitcoin Falls And Rises Again http://twib.in/l/KqpX9BqxneK #cryptocurrency | https://twibble.io,0,0,0,False
18,Yes We Pump@yeswepump,Just rented some hash to mine @ http://miningrigrentals.com/?ref=16501 #altcoin #mining,0,0,0,False
19,Altcoin Faucet List!@altcoins5,"Play a #farmville2 inspired game and #earn #free #bitcoins!
http://bit.ly/1O83KbB #crypto #cryptocurrency #faucet",0,0,0,False
20,Crypto Price Ticker@TickerCrypto,"#Monero #XMR 0.00110614 BTC via #MoneroXMRbot
#Bitcoin #BTC #AltCoin #BlockChain #BOT",1,0,0,False
21,Denny McEnroe@McEnroeDenny,Re: V2.3 UPDATE w/ PoSP | CRYPTO BULLION (CBX) | Est. 2013 http://cur.lv/u3pym #bitcoin #crypto,0,0,0,False
22,Denny McEnroe@McEnroeDenny,Re: [ANN][XMG] Coin Magi | CPU mining | PoS-II | PoM | Unique BLK reward | [MagiPay] http://cur.lv/u3pyk #bitcoin #crypto,0,0,0,False
23,Denny McEnroe@McEnroeDenny,Re: What is your daily bankroll limit? http://cur.lv/u3pyg #bitcoin #crypto,0,0,0,False
24,Denny McEnroe@McEnroeDenny,Re: SURVEY: How much bitcoins you have? http://cur.lv/u3pyf #bitcoin #crypto,0,0,0,False
25,Prathamesh Bhosale@PB_Prathamesh_B,Bitcoin Trading Cautiously Into XT Implementation Day https://cryptocoinsnews.com/bitcoin-trading-cautious-into-xt-implementation-day/… #cryptocurrency,0,0,0,False
26,FREE MONEY@FreeBitcoiners,"@findmattley I just signed up for a free Bitcoin wallet which paid me $1 for using it - http://goo.gl/HDIs3i
#freebitcoin #altcoin",0,0,0,False
27,cryptovalue.com@cryptovalue,Best performing #altcoin: StabilityShares(XSI) with a 77.71% 24h change - #marketcap $419 639 - http://cryptovalue.com,0,0,0,False
28,BitcoinBuzz vega9@BitcoinBuzzV9,http://bitcoinbuzz.vega9.com - Hot topics: #bitcoin #deals #btc #cryptocurrency #crypto #dogecoin,0,0,0,False
29,Crypto Price Ticker@TickerCrypto,"#Bitcoin last trade

bitstamp $451.25
bitfinex $451.27
coinbase $452.25

Set #crypto #price #alerts at …",0,0,0,False
32,Crypto Price Ticker@TickerCrypto,"#Bitcoin last trade

btcecom $445.88
cryptsy $431.36

Set #crypto #price #alerts at http://AlertCo.in via #A…",0,0,0,False
33,LocalDayz@localdayz,#auroracoin Download wallet https://github.com/aurarad/auroracoin… and Join the pool on http://pool.laintimes.com #cryptocurrency,0,0,0,False
34,Abderraouf Adjal@AbderraoufAdjal,"#Arduino Spritz #cipher lib v0.4.4 is available! https://github.com/abderraouf-adjal/ArduinoSpritzCipher… #Github #IoT #Security #InfoSec #CyberSecurity #Encryption #Cryptoabderraouf-adjal/ArduinoSpritzCipherSpritz encryption system portable C library, CSPRNG, cryptographic hash and MAC functions, symmetric-key data encryption, and general-purpose functions. It's also an Arduino library. - abd...github.com",2,0,0,False
35,CCN - Capital & Celeb News@CapitalAndCeleb,Bitcoin Trading Cautiously Into XT Implementation Day https://cryptocoinsnews.com/bitcoin-trading-cautious-into-xt-implementation-day/… #cryptocurrency,3,1,0,False
36,SocNLasVegas@SocNLasVegas,Worldwide #crypto #currency of the future called @ILCoin. Join Free http://dld.bz/efJJy  20k Partners and growing rapidly!,0,0,0,False
37,SocialNRichmond@SocialNRichmond,Worldwide #crypto #currency of the future called @ILCoin. Join Free http://dld.bz/efJJy  20k Partners and growing rapidly!,0,0,0,False
38,AlertCo.in@AlertCoin,"#Bitcoin last trade

@bitstamp $451.25
@bitfinex $451.27
@coinbase $452.25

Set #crypto #price #alerts at http://AlertCo.in",1,0,0,False
39,AlertCo.in@AlertCoin,"#Bitcoin last trade

@btcecom $445.88
@cryptsy $431.36

Set #crypto #price #alerts at http://AlertCo.in",1,0,0,False
40,Crypto Price Ticker@TickerCrypto,"#CanadaeCoin #CDN 0.00000156 BTC via #CanadaeCoinCDN
#Bitcoin #BTC #AltCoin #BlockChain #BOT",1,0,0,False
41,Vindyne8@Vindyne8,Support @bitnodesnet & your favorite alt! http://bitnodes.net check it out now! #crowdfund #altcoins #RT,13,12,0,False
42,Satoshi Hoard@satoshi_hoard,Visit http://satoshihoard.com for #free #bitcoin every 15 minutes! #faucetbox #cryptocurrency #satoshihoard,0,0,0,False
43,Crypto Price Ticker@TickerCrypto,"#GeoCoin #GEO 0.00005576 BTC via #GeoCoinBot
#Bitcoin #BTC #AltCoin #BlockChain #BOT",0,0,0,False
44,notsofast@notsofast,"If you're into #cryptocurrency, 2016 is the year everyone you know gets into it. Don't let 'em get fleeced on FBQuote Tweetant@ThisIsNuse · Jan 9, 2016Replying to @ThisIsNuse@notsofastcrypto between this, OneCoin, and some others, our new crypto entrants might get fleeced hard.",2,1,0,False
45,Null TX@nulltxnews,Litecoin Technical Analysis for 01/09/2016 – Major Pivot Zone Broken! http://goo.gl/k4xFvh #bitcoin #bitcoinnews #btc #cryptocurrency,3,0,0,False
46,Crypto Price Ticker@TickerCrypto,"#CannabisCoin #CANN 0.00000455 BTC via #CannabisCoinBot
#Bitcoin #BTC #AltCoin #BlockChain #BOT",2,0,0,False
47,YDX @YDXMyfriend,"09/01/16 - Weekly #Dividends @Seccour_FR http://bit.ly/1UFDqqK
#NXT #blockchain #Asset #Trading #revenue #investments #cryptocurrency",2,2,0,False
48,Booster547@elbooster1965,#scam #altcoin i#CROOK of #crypto #bitcoin #btc #litecoin http://goo.gl/VBeFIy,1,0,0,False
49,Bitcoin Garden (Not Giving Away ETH)@BitcoinGarden,Price of EmerCoin Doubles Following Its Partnership With Microsoft: http://bitcoingarden.tk/forum/index.php?topic=4901.msg105800#msg105800… tnx @EMCBNews @CoinTelegraph | #Altcoin #News,4,7,0,False
50,Booster547@elbooster1965,StealthCoin is #1 Cryptocurrency https://twitter.com/StealthCoin #altcoins #sexy #girl #woman #iphone #ipad http://pbs.twimg.com/media/CGMi4_UUUAAXn0W.png…,1,0,0,False
51,Binary Options Guard@BinaryTrading13,RT https://twitter.com/NXT_is_ALL/status/685945207410561025… RT nxtinfoorg: Analyze your #crypto #portfolio with our help > … https://pic.twitter.com/9N8s43TwxdThis Tweet is unavailable.,0,0,0,False
52,Crypto Price Ticker@TickerCrypto,"#CannaCoin #CCN 0.00005009 BTC via #CannaCoinCCN
#Bitcoin #BTC #AltCoin #BlockChain #BOT",0,0,0,False
53,Julia Vaingurt@julia_vaingurt,"After #bitcoin atms mike tyson launches his own #bitcoin wallet #crypto #cryptocurrency http://cur.lv/u3n9f
http://cur.lv/u3n9h",0,0,0,False
54,Crypto Price Ticker@TickerCrypto,"#Ripple #XRP 0.00001319 BTC via #RippleXRPbot
#Bitcoin #BTC #AltCoin #BlockChain #BOT",0,0,0,False
55,Crypto Price Ticker@TickerCrypto,"#GeoCoin #GEO 0.00005570 BTC via #GeoCoinBot
#Bitcoin #BTC #AltCoin #BlockChain #BOT",0,0,0,False
56,Anne James@AnneJamesBits,"why not move to https://openledger.info/?r=anne-james-bits… and earn from the fees and profits instead of this.. @cryptsy #altcoin #btsQuote TweetDavid Rindfleisch@DavidRindfleis1 · Jan 9, 2016Cryptsy Has Moved Out of Their Building Unannounced, Nowhere to be Found - http://Bitcoinist.net https://lnkd.in/br4dHN6",0,0,0,False
57,Julia Vaingurt@julia_vaingurt,What is #Potcoin? - Digital Currency for the #Cannabis Industry https:/youtube/Tyqw42dCLuQ #altcoins #MMJ #bitcoin http://cur.lv/u3mle,3,1,0,False
58,ⱣotCoin@PotCoin,What is #Potcoin? - Digital Currency for the #Cannabis Industry https:/youtube/Tyqw42dCLuQ #altcoins #MMJ #bitcoin,2,1,0,False
59,FINTECHNA@fintechna,nxtinfoorg: Analyze your #crypto #portfolio with our help > http://cur.lv/u3m8g  #fintech #trading #investing #dividends pic.twitte…,0,0,0,False
60,Julia Vaingurt@julia_vaingurt,"#bitcoin First time.: I'm probably going to buy $100 Into Bitcoin, for my first time. Any adv... http://cur.lv/u3mfd
#crypto #anarchy",1,0,0,False
61,myCryptoVault@MyCryptoVaultne,Cryptsy: Mt. Gox Junior? https://cryptocoinsnews.com/cryptsy-mt-gox-junior/… via @CryptoCoinsNews #bitcoin #blockchain #altcoins,0,0,0,False
62,Crypto Price Ticker@TickerCrypto,"#Monero #XMR 0.00110493 BTC via #MoneroXMRbot
#Bitcoin #BTC #AltCoin #BlockChain #BOT",0,0,0,False
63,Crypto Price Ticker@TickerCrypto,"#TrinityCoin #TTY 0.00000002 BTC via #TrinityCoinBot
#Bitcoin #BTC #AltCoin #BlockChain #BOT",0,0,0,False
64,BitcoinTalkRadio.com@btctalkradio,Bitcoin Not Hot For Monetas. http://bitcointalkradio.com/bitcoin-not-hot-for-monetas/… #bitcoin #altcoins #cryptocurrency #transactions @monetasnet,2,1,0,False
65,Crypto Price Ticker@TickerCrypto,"#PopularCoin #POP 0.00000003 BTC via #PopularCoinBot
#Bitcoin #BTC #AltCoin #BlockChain #BOT",0,0,0,False
66,Okcash @OkcashCrypto,Congratulations @matthiasklees @dj_tassilo @GEO_Jan for being top #crypto community members this week :) (via http://commun.it),2,2,0,False
67,LocalDayz@localdayz,#XMR #monero #bitmonero dedicated pool avaible JOIN US on http://pool.laintimes.com #cryptocurrency,0,0,0,False
68,Crypto Price Ticker@TickerCrypto,"#EuropeCoin #ERC 0.00000377 BTC via #EuropeCoinBot
#Bitcoin #BTC #AltCoin #BlockChain #BOT",0,0,0,False
69,BitcoinTalkRadio.com@btctalkradio,"Cryptsy Has Moved Out of Their Building Unannounced, Nowhere to be Found http://bitcointalkradio.com/cryptsy-has-moved-out-of-their-building-unannounced-nowhere-to-be-found/… #altcoin #exchange",1,1,0,False
70,Julia Vaingurt@julia_vaingurt,"Gem shifts focus with new emphasis on #blockchain #bitcoin #crypto #cryptocurrency http://cur.lv/u3lty
http://cur.lv/u3lu0",1,1,0,False
71,Arnel Larracas@arnellarracas,Want free Sativacoin? Visit http://sillypothead.com/stvfaucet and claim some today! #stv #cryptocurrency #giveaway,1,1,0,False
72,Crypto Price Ticker@TickerCrypto,"#GeoCoin #GEO 0.00005518 BTC via #GeoCoinBot
#Bitcoin #BTC #AltCoin #BlockChain #BOT",1,1,0,False
73,Crypto Price Ticker@TickerCrypto,"#HamRadioCoin #HAM 0.00000473 BTC via #HAMRadioCoinBot
#Bitcoin #BTC #AltCoin #BlockChain #BOT",0,0,0,False
74,Digiconomist@DigiEconomist,#Cryptocurrency highlights week 1 including: NASDAQ completes 1st trade via Linq http://digiconomist.net/cryptocurrency-highlights-week-1-2016… #blockchain,0,0,0,False
75,FINTECHNA@fintechna,"theperfectcoin: Discover how to mine #Capricoin for #FREE #video #finance #fintech #bitcoin #blockchain #altcoin #…How to mine CAPRICOIN for ""FREE"" with this Simple MethodDiscover how to acquire Capricoin for FREE on your Desktop wallet!FREE SIGNUP HERE: http://CapriPay.at CHECKOUT Vizionary & Capricoin HERE: http://discover.v...youtube.com",0,0,0,False
76,Crypto Price Ticker@TickerCrypto,"#CannaCoin #CCN 0.00006082 BTC via #CannaCoinCCN
#Bitcoin #BTC #AltCoin #BlockChain #BOT",0,0,0,False
77,Crypto Price Ticker@TickerCrypto,"#CannabisCoin #CANN 0.00000417 BTC via #CannabisCoinBot
#Bitcoin #BTC #AltCoin #BlockChain #BOT",1,0,0,False
78,FXMGM Market Signals@fxmgm,Hi Seth Horus. Thanks for following our free twitter signals feed. full version there http://fxmgm.com #fx #forex #bitcoin #altcoin,0,0,0,False
79,The Perfect Coin@theperfectcoin,"Discover how to mine #Capricoin for #FREE #video #finance #fintech #bitcoin #blockchain #altcoin #cryptocurrencyHow to mine CAPRICOIN for ""FREE"" with this Simple MethodDiscover how to acquire Capricoin for FREE on your Desktop wallet!FREE SIGNUP HERE: http://CapriPay.at CHECKOUT Vizionary & Capricoin HERE: http://discover.v...youtube.com",2,1,0,False
80,Crypto Price Ticker@TickerCrypto,"#NetCoin #NET 0.00000131 BTC via #NetCoinBot
#Bitcoin #BTC #AltCoin #BlockChain #BOT",2,0,0,False
81,CCN - Capital & Celeb News@CapitalAndCeleb,BitPay Joins Microsoft’s Blockchain Platform Among New Partners https://cryptocoinsnews.com/bitpay-joins-microsofts-blockchain-platform-among-new-partners/… #cryptocurrency,3,4,0,False
82,Crypto Price Ticker@TickerCrypto,"#MonaCoin #MONA 0.00015162 BTC via #MonaCoinBot
#Bitcoin #BTC #AltCoin #BlockChain #BOT",0,0,0,False
83,OpenFXMarket@OpenFXMarket,#altcoin market index (avg): #OFXAVG 138.15 #SHA 45.01 #SCRYPT 96.83 #QUARK 58.46 #X 9.05 #HYBRID 7.8 Stay tuned! #OFX,0,0,0,False
84,NameBrandAmbassador@TopAmbassador,"@cfbiz I just got HOOKED UP! http://freecryptofaucets.com
#free #bitcoin #cryptocurrency #freebie #money",0,0,0,False
85,NameBrandAmbassador@TopAmbassador,"@NextLeftStudios @SnapiiDrone @backerdirectory I just got HOOKED UP! http://freecryptofaucets.com
#free #bitcoin #cryptocurrency #freebie #money",0,0,0,False
86,Yes We Pump@yeswepump,"Get free $RDD #Reddcoin here: http://thecoinmine.com/faucets/rdd/?refid=1289978…
- More #free #altcoin at http://yeswepump.blogspot.com/2015/09/list-of-best-altcoin-faucets.html… @ReddcoinFaucet @reddcoin",0,0,0,False
87,cryptovalue.com@cryptovalue,Best performing #altcoin: StabilityShares(XSI) with a 111.64% 24h change - #marketcap $475 735 - http://cryptovalue.com,0,0,0,False
88,BitcoinBuzz vega9@BitcoinBuzzV9,http://bitcoinbuzz.vega9.com - Hot topics: #bitcoin #cryptocurrency #crypto #btc #blockchain #monstercoingame,0,0,0,False
89,"Amagi Metals, Inc@AmagiMetals",VT may publish public records using the #blockchain - #BTC is more than a currency  http://ow.ly/WLFP0 #technology #cryptoVermont's Blockchain Recordkeeping Report Due Next Week - CoinDeskA report on the use of blockchain technology for storing state records is to be delivered to Vermont’s legislature by the end of next week.coindesk.com,0,0,0,False
90,Anthem Vault Inc.@AnthemVault,VT may publish public records using the #blockchain - #BTC is more than a currency  http://ow.ly/WLFP3 #technology #cryptoVermont's Blockchain Recordkeeping Report Due Next Week - CoinDeskA report on the use of blockchain technology for storing state records is to be delivered to Vermont’s legislature by the end of next week.coindesk.com,0,0,0,False
91,Crypto Price Ticker@TickerCrypto,"#GeoCoin #GEO 0.00005503 BTC via #GeoCoinBot
#Bitcoin #BTC #AltCoin #BlockChain #BOT",0,0,0,False
92,Economic Sociology & Political Economy@EconSociology,Trust as a matter of coding: technology behind #bitcoin lets strangers build a dependable ledger http://economist.com/news/briefing/21677228-technology-behind-bitcoin-lets-people-who-do-not-know-or-trust-each-other-build-dependable… #cryptocurrency,4,0,0,False
93,Galaxkey@Galaxkey,"Reverser laments #crypto game #protection, says wares dead after 2018' on The Register - http://theregister.co.uk/2016/01/07/reverser_laments_crypto_game_protection_says_wares_dead_after_2018/…",0,0,0,False
94,Crypto Price Ticker@TickerCrypto,"#HamRadioCoin #HAM 0.00000474 BTC via #HAMRadioCoinBot
#Bitcoin #BTC #AltCoin #BlockChain #BOT",0,0,0,False
95,Crypto Price Ticker@TickerCrypto,"#SexCoin #SXC 0.00000093 BTC via #SexCoinSXC
#Bitcoin #BTC #AltCoin #BlockChain #BOT",0,0,0,False
96,Crypto Price Ticker@TickerCrypto,"#AudioCoin #ADC 0.00000035 BTC via #AudioCoinBot
#Bitcoin #BTC #AltCoin #BlockChain #BOT",0,0,0,False
97,FINTECHNA@fintechna,1000assets: Launch your #startup with NXT decentralized #financial platform. Visit -> http://bit.ly/1NM8eSD  #fintech #crypto pic.twitter…,0,0,0,False
98,Crypto Price Ticker@TickerCrypto,"#MaryJane #MARYJ 0.00000348 BTC via #MaryJaneCoinBot
#Bitcoin #BTC #AltCoin #BlockChain #BOT",0,0,0,False
99,Coinfeed@CoinfeedIO,#Cryptocurrency DNotes Announces New 2016 Venture - NEWSBTC http://tinyurl.com/ovwuyjx,0,0,0,False
100,kkarai@fakebrene,#scam #altcoin is #ith 27 million premined while giving out 10/20 to hype #CROOK of #crypto #bitcoin #btc #litecoin http://goo.gl/VBeFIy,1,1,0,False
101,NE Patriots Dynasty@NEPatsDynasty,Gold & #Crypto-Currency in one clever system. Join the Digital Currency Revolution and turn your #PROFITS into GOLD http://dld.bz/dARdH,0,0,0,False
102,Hatzol Molen@HatzolMolen,StealthCoin is #1 Cryptocurrency https://twitter.com/StealthCoin #altcoins #sexy #girl #woman #iphone #ipad http://pbs.twimg.com/media/CGMi4_UUUAAXn0W.png…,0,0,0,False
103,Crypto Price Ticker@TickerCrypto,"#MonaCoin #MONA 0.00015170 BTC via #MonaCoinBot
#Bitcoin #BTC #AltCoin #BlockChain #BOT",0,0,0,False
104,Crypto Price Ticker@TickerCrypto,"#Monero #XMR 0.00111411 BTC via #MoneroXMRbot
#Bitcoin #BTC #AltCoin #BlockChain #BOT",0,0,0,False
105,Denny McEnroe@McEnroeDenny,Re: ◄█► POWERBALL Pool ◄█► Anyone? ◄█► 900 Million ◄█►1 Ticket Each ? ◄█► http://cur.lv/u3hdv #bitcoin #crypto,0,0,0,False
106,Denny McEnroe@McEnroeDenny,Re: The easiest way to earn free bitcoins http://cur.lv/u3hdu #bitcoin #crypto,0,0,0,False
107,Denny McEnroe@McEnroeDenny,Re: DECENTRALIZED crypto currency (including Bitcoin) is a delusion (any solutions?) http://cur.lv/u3hdt #bitcoin #crypto,0,0,0,False
108,Denny McEnroe@McEnroeDenny,Re: ★☆★ 777Coin Signature Campaign ★☆★ Earn up to .001/Post (Newb-Hero Welcome) http://cur.lv/u3hds #bitcoin #crypto,0,0,0,False
109,BitcoinBuzz vega9@BitcoinBuzzV9,http://bitcoinbuzz.vega9.com - Hot topics: #bitcoin #cryptocurrency #crypto #blockchain #monstercoingame #btc,0,0,0,False
110,Crypto Price Ticker@TickerCrypto,"#MonetaVerde #MCN 0.00000143 BTC via #MonetaVerdeMCN
#Bitcoin #BTC #AltCoin #BlockChain #BOT",1,0,0,False
111,Everton pessoa@Yevertonpessoa,StealthCoin is #1 Cryptocurrency https://twitter.com/StealthCoin #altcoins #sexy #girl #woman #iphone #ipad http://pbs.twimg.com/media/CGMi4_UUUAAXn0W.png…,0,0,0,False
112,Jacob Appelbaum@ioerror,I am really excited to go to Japan next month for the next @pqc_eu conference: https://pqcrypto2016.jp/program/ #japan #pq #crypto #math,33,7,6,False
113,Gy Zk@ankryptc,#Mozilla reinstates support for the vulnerable SHA-1 temporarily #infosec #cryptoFirefox ban on SHA-1 dropped after many locked out of HTTPS sites | ZDNetMozilla reinstates support for the vulnerable SHA-1 crypto on a temporary basis until it can figure out how to avoid some unintended side effects.zdnet.com,0,0,0,False
114,Gary Nuttall@gpn01,Disrupted Money - is a cashless society drawing closer? - http://bit.ly/1na6gVQ #cryptocurrency #Bitcoin #Blockchain #FinTech,1,0,0,False
115,Crypto Price Ticker@TickerCrypto,"#Bitcoin last trade

btcecom $445.40
cryptsy $431.36

Set #crypto #price #alerts at http://AlertCo.in via #A…",0,0,0,False
116,Crypto Price Ticker@TickerCrypto,"#Bitcoin last trade

bitstamp $450.18
bitfinex $451.26
coinbase $452.85

Set #crypto #price #alerts at …",0,0,0,False
117,gulbadam@EwfwefGulbadam,Buy into StealthCoin and making 100x your money. XST is a cheap altcoin like BitCoin BTC. #xst #altcoin #bitcoin,1,0,0,False
118,Crypto Price Ticker@TickerCrypto,"#GeoCoin #GEO 0.00005355 BTC via #GeoCoinBot
#Bitcoin #BTC #AltCoin #BlockChain #BOT",1,0,0,False
119,Crypto Price Ticker@TickerCrypto,"#AudioCoin #ADC 0.00000025 BTC via #AudioCoinBot
#Bitcoin #BTC #AltCoin #BlockChain #BOT",0,0,0,False
120,Crypto Price Ticker@TickerCrypto,"#CannaCoin #CCN 0.00006000 BTC via #CannaCoinCCN
#Bitcoin #BTC #AltCoin #BlockChain #BOT",0,0,0,False
121,Crypto Price Ticker@TickerCrypto,"#Ripple #XRP 0.00001325 BTC via #RippleXRPbot
#Bitcoin #BTC #AltCoin #BlockChain #BOT",0,0,0,False
122,EtherialCryptoBot@EtherialCrypto,[AUTO] I currently have some #MapCoin ( #MAPC ) and I own 29.00000000 of this #altcoin (Highest amount of all),0,0,0,False
123,Crypto Price Ticker@TickerCrypto,"#CannabisCoin #CANN 0.00000408 BTC via #CannabisCoinBot
#Bitcoin #BTC #AltCoin #BlockChain #BOT",0,0,0,False
124,Crypto Price Ticker@TickerCrypto,"#ChainCoin #CHC 0.00000089 BTC via #ChainCoinBot
#Bitcoin #BTC #AltCoin #BlockChain #BOT",0,0,0,False
125,Researcher Triponoid@triponoid,"How to create a decred address for the airdrop http://triponoid.com/how-to-generate-a-decred-address-on-windows-more-user-friendly/…
#decred #cryptocurrency #BREAKING #crypto #btc #bitcoinnews #currency",1,0,0,False
126,The Financial Revolutionist@Fin_Revolution,Are Established Players Threatened By The Blockchain? #blockchain #bitcoin #cryptocurrency #banks #finance http://ow.ly/WPSMC,2,2,1,False
127,Sean@wefivekings,"@cryptsy BigVern, I will own you. #bitcoin #litecoin #altcoin",0,0,0,False
128,Bitcoinist.com@bitcoinist,CEX.IO Bitcoin Exchange Launches Mobile Apps for iOS and Android http://ift.tt/1K5743g #bitcoin #bitcoinnews #btc #cryptocurrency #altco…,1,3,0,False
129,BitcoinAgile@bitcoinagile,Bitcoin Is The World s Best Performing Currency #Bitcoin #blockchain #cryptocurrency http://bit.ly/1JBGzYf,1,1,0,False
130,Cryptor Trust@CryptorTrust,#Bitcoin Is The World's Best Performing Currency / #blockchain #cryptocurrency https://cryptortrust.com/2016/01/09/bitcoin-is-the-worlds-best-performing-currency/…,17,14,0,False
131,FINTECHNA@fintechna,Bitcoin_Rush: It's better to make ur own #news EP_58 this afternoon > DON'T miss it ! http://youtube.com/bitcoinrush  #bitcoinrush #crypto #fintec…,0,0,0,False
132,Crypto Price Ticker@TickerCrypto,"#Monero #XMR 0.00111518 BTC via #MoneroXMRbot
#Bitcoin #BTC #AltCoin #BlockChain #BOT",0,0,0,False
133,BitcoinGuru@BitcoinGuruHQ,"#cryptsy Moved Out of Their Building, Nowhere to be Found. Withdrawals halted for at least 25 days https://crd.ht/B7ovyar #Bitcoin #crypto",0,0,0,False
134,ⱣotCoin@PotCoin,"#Potcoin serves the Fastest Growing Industry in the World
http://bit.ly/20Fgf4T #bitcoin #altcoins #cannabis #mj",7,2,0,False
135,Ali Güçlü@aliguclu,"CryptoCoinsNews : Cryptsy: Mt. Gox Junior? https://cryptocoinsnews.com/cryptsy-mt-gox-junior/… #cryptocurrency … https://twitter.com/CryptoCoinsNews/status/685885180779827202…)Quote TweetCCN - Capital & Celeb News@CapitalAndCeleb · Jan 9, 2016Cryptsy: Mt. Gox Junior? https://cryptocoinsnews.com/cryptsy-mt-gox-junior/… #cryptocurrency",0,0,0,False
136,TRADING FREE FOLLOWS@ArianasOra,StealthCoin is #1 Cryptocurrency https://twitter.com/StealthCoin #altcoins #sexy #girl #woman #iphone #ipad http://pbs.twimg.com/media/CGMi4_UUUAAXn0W.png…,0,0,0,False
137,Crypto Price Ticker@TickerCrypto,"#MonaCoin #MONA 0.00015179 BTC via #MonaCoinBot
#Bitcoin #BTC #AltCoin #BlockChain #BOT",0,0,0,False
138,CCN - Capital & Celeb News@CapitalAndCeleb,Cryptsy: Mt. Gox Junior? https://cryptocoinsnews.com/cryptsy-mt-gox-junior/… #cryptocurrency,4,0,0,False
139,Julia Vaingurt@julia_vaingurt,"How to make #money with #bitcoin using purseio #crypto #cryptocurrency http://cur.lv/u3fjg
http://cur.lv/u3fjh",1,0,0,False
140,XBTFreelancer.com@XBTFreelancer,#bitcoin #money #crypto Tasks for traveling website http://xbtfreelancer.com/prj/772/tasks-for-traveling-website… #freelancing #makemoney #programming,0,0,0,False
141,Bitcoin Casino@_Bitcoin_Casino,An experience gamble on https://betcoin.ag/experience-gamble-betcoinag?r=106336… #bitcoincasino #Casino #bitcoingambling #sportsbook #betting #cryptocurrency #Onlinecasino,0,0,0,False
142,Donald Dump@L3372U2,creating a worthwhile #altcoin is easier than scamming if you understand economics. and have the money to pay for dev. &/or you dev hardcore,0,0,0,False
143,Crypto Price Ticker@TickerCrypto,"#Unobtanium #UNO 0.00356000 BTC via Twitter #UnobtaniumBot
#Bitcoin #BTC #AltCoin #BlockChain #BOT",0,0,0,False
144,Crypto Price Ticker@TickerCrypto,"#SativaCoin #STV 0.00000500 BTC via #SativaCoinBot
#Bitcoin #BTC #AltCoin #BlockChain #BOT",0,0,0,False
145,Load Debit Card@LoadDebitCard,Monero Debit Card #Monero to #debitcard with 40+ #altcoins #Bitcoin #Btc #XMR @XMRpromotions http://bit.ly/debitnow,1,0,0,False
146,CyberDexter@thecyberdexter,With @Cryptsy being on it's way to do a Mt.Gox it's a good time to find a new home for #altcoin trading. Check out https://bleutrade.com/sign_up/2490,0,0,0,False
147,Crypto Price Ticker@TickerCrypto,"#MaryJane #MARYJ 0.00000417 BTC via #MaryJaneCoinBot
#Bitcoin #BTC #AltCoin #BlockChain #BOT",1,0,0,False
148,Crypto Price Ticker@TickerCrypto,"#CannaCoin #CCN 0.00006745 BTC via #CannaCoinCCN
#Bitcoin #BTC #AltCoin #BlockChain #BOT",0,0,0,False
149,Zak[aria] Babutsidzé@babutsidze,"How can one end the #crypto #war?
http://bit.ly/1MWZ4kB
#digital #security #online #Internet",0,0,0,False
150,Crypto Price Ticker@TickerCrypto,"#Ripple #XRP 0.00001328 BTC via #RippleXRPbot
#Bitcoin #BTC #AltCoin #BlockChain #BOT",1,0,0,False
151,Denny McEnroe@McEnroeDenny,Re: CCminer(SP-MOD) Modded NVIDIA Maxwell kernels. http://cur.lv/u3el2 #bitcoin #crypto,0,0,0,False
152,Denny McEnroe@McEnroeDenny,Re: Looking for a potential activities calculator http://cur.lv/u3eky #bitcoin #crypto,0,0,0,False
153,reddibrek@reddibrek,Kudos to @Gnash0502 for his amazing work https://redd.it/400d7n #reddcoin #cryptocurrency,2,0,0,False
154,Crypto Price Ticker@TickerCrypto,"#Monero #XMR 0.00113550 BTC via #MoneroXMRbot
#Bitcoin #BTC #AltCoin #BlockChain #BOT",0,0,0,False
155,EtherialCryptoBot@EtherialCrypto,[AUTO] I currently have some #Acoin ( #ACOIN ) and I own 8.00000000 of this #altcoin (Random pick),0,0,0,False
156,Crypto Price Ticker@TickerCrypto,"#CannabisCoin #CANN 0.00000434 BTC via #CannabisCoinBot
#Bitcoin #BTC #AltCoin #BlockChain #BOT",0,0,0,False
157,Crypto Price Ticker@TickerCrypto,"#WorldCoin #WDC 0.00001277 BTC via #WorldCoinBot
#Bitcoin #BTC #AltCoin #BlockChain #BOT",0,0,0,False
158,Coin Tiny@CoinTiny,FinTech & Bitcoin Investment Booms Despite China Economy Fears #CryptoCurrency #Crypto,0,0,0,False
159,Keegan Bowen@KeeganBowen,And we wake up right back in session; now Egyptian music plays as we program #crypto #digihouse #homeautomation #hosting #linux #hackerhouse,2,0,0,False
160,Alhaji PayAll@gh_brunawie,"This February ..experience the biggest event to hit the central region of Ghana. #CRYPTO it is.
@DiiJaeSleekGH @hype_unltd @awula_naa_",4,0,0,False
161,Prathamesh Bhosale@PB_Prathamesh_B,Indian Wallet Startup Zebpay Raises $1 Million to Promote Bitcoin https://cryptocoinsnews.com/indian-wallet-startup-zebpay-raises-1-million-promote-bitcoin/… #cryptocurrency,0,0,0,False
162,you16smet.31@you16smet31,StealthCoin is #1 Cryptocurrency https://twitter.com/StealthCoin #altcoins #sexy #girl #woman #iphone #ipad http://pbs.twimg.com/media/CGMi4_UUUAAXn0W.png…,0,0,0,False
163,PaTro Cryptonic @Patmac777c,"#Bitcoin #Altcoin #Cryptsy Has Moved Out of Their Building Unannounced, Nowhere to be Found http://bitcoinist.net/cryptsy-has-moved-out-of-their-building-unannounced-nowhere-to-be-found/… via @bitcoinist",2,0,0,False
164,Crypto Price Ticker@TickerCrypto,"#MonaCoin #MONA 0.00015222 BTC via #MonaCoinBot
#Bitcoin #BTC #AltCoin #BlockChain #BOT",0,0,0,False
165,OpenFXMarket@OpenFXMarket,#bitcoin market index: 102.46 #OFXBTC. #altcoin market index (avg): 138.15 #OFXAVG by http://openfxmarket.com. Stay tuned!,0,0,0,False
166,Agrobazaar Online@agrobazaar_msia,#startupXcel: Blockchain #startup joins accenture innovation lab #bitcoin #crypto #cryptocurrency … https://pic.twitter.com/QBI1c4V6K5,0,0,0,False
167,CCN - Capital & Celeb News@CapitalAndCeleb,Indian Wallet Startup Zebpay Raises $1 Million to Promote Bitcoin https://cryptocoinsnews.com/indian-wallet-startup-zebpay-raises-1-million-promote-bitcoin/… #cryptocurrency,4,11,0,False
168,Yes We Pump@yeswepump,"Get free $BLK #BlackCoin: https://cryptospout.com/faucet/daily_blackcoin_faucet.html?r=BGQffy3QaWY3DpujuJECkt5N457HRX7jwz…
- More #free #altcoin @ http://yeswepump.blogspot.com/2015/09/list-of-best-altcoin-faucets.html… @CoinBlack",0,0,0,False
169,EtherialCryptoBot@EtherialCrypto,[AUTO] I am currently holding 13 unique #altcoins. According my config I can open a maximum of 15 trades.,0,0,0,False
170,BitcoinBuzz vega9@BitcoinBuzzV9,http://bitcoinbuzz.vega9.com - Hot topics: #bitcoin #cryptocurrency #btc #crypto #monstercoingame #robotcoingame,0,0,0,False
171,digitalcoins@rimbitcoin,"Segregated Witness Deployed on New Bitcoin Testnet: SegNet https://bitcoinmagazine.com/articles/segregated-witness-deployed-on-new-bitcoin-testnet-segnet-1452277172?utm_source=feedburner&utm_medium=feed&utm_campaign=Feed%3A+BitcoinMagazine+%28Bitcoin+Magazine%29… via @BitcoinMagazine #rimbit #bitcoin #cryptocurrencySegregated Witness Deployed on New Bitcoin Testnet: SegNetBitcoin Core developers have deployed an initial implementation of Segregated Witness on a special testnet for Bitcoin, dubbed SegNet. SegNet allows developersbitcoinmagazine.com",1,1,0,False
172,druid andrew@andyypants,Getting strip searched at the border and #crypto regulations are like a cost all us poor ppl need to pay to protect a few rich ppl,0,0,0,False
173,*NormalGamer*@ng_480,#Bitcoin’s Bold #Experiment: A Goldmine for Economic Researchers http://coinde.sk/1kVdBqx via @CoinDesk #cryptocurrency,0,0,0,False
175,Julia Vaingurt@julia_vaingurt,"#Unobtanium #UNO 0.00349635 BTC via Twitter #UnobtaniumBot
#Bitcoin #BTC #AltCoin #BlockChain #BOT http://cur.lv/u3d5g",0,0,0,False
176,Crypto Price Ticker@TickerCrypto,"#Unobtanium #UNO 0.00349635 BTC via Twitter #UnobtaniumBot
#Bitcoin #BTC #AltCoin #BlockChain #BOT",0,0,0,False
177,shanlomollick@shankomollik011,StealthCoin is #1 Cryptocurrency https://twitter.com/StealthCoin #altcoins #sexy #girl #woman #iphone #ipad http://pbs.twimg.com/media/CGMi4_UUUAAXn0W.png…,0,0,0,False
178,micronmaniac@micronmaniac,StealthCoin is #1 Cryptocurrency https://twitter.com/StealthCoin #altcoins #sexy #girl #woman #iphone #ipad http://pbs.twimg.com/media/CGMi4_UUUAAXn0W.png…,0,0,0,False
179,Crypto Price Ticker@TickerCrypto,"#EuroCoin #EUC 0.00000012 BTC via Twitter #EuroCoinBot
#Bitcoin #BTC #AltCoin #BlockChain #BOT",0,0,0,False
180,Crypto Price Ticker@TickerCrypto,"#MaryJane #MARYJ 0.00000335 BTC via #MaryJaneCoinBot
#Bitcoin #BTC #AltCoin #BlockChain #BOT",0,0,0,False
181,Anne James@AnneJamesBits,"@cryptsy #altcoin #btc #bts #qora #OBITS
YOUR OWN BANK AT YOUR FINGERTIPS
https://openledger.info/?r=anne-james-bits…",0,0,0,False
182,coinOK@coinok,Win $150 in Dogecoins every hour! http://freedoge.co.in/?r=98385 #doge #dogecoin #btc #bitcoin #ltc #altcoin #cryptocurrency,0,0,0,False
183,EtherialCryptoBot@EtherialCrypto,[AUTO] I currently have some #CannabisCoin ( #CANN ) and I own 3.00000000 of this #altcoin (Random pick),0,0,0,False
184,XBTFreelancer.com@XBTFreelancer,#bitcoin #xbt #crypto #freelancer #earn #writing #translation http://xbtfreelancer.com/prj/765/need-marketing-experienced-writer-expert-only… Need Marketing experienced Writer - Expert only,0,0,0,False
185,Julia Vaingurt@julia_vaingurt,"Cftc to discuss #blockchain tech during public hearing #bitcoin #crypto #cryptocurrency http://cur.lv/u3chb
http://cur.lv/u3chc",1,0,0,False
186,Coin Tiny@CoinTiny,170% ROI in 7 Days (Daily Payouts) - 10% Paid Daily + Principle Back [Legit and Paying] #CryptoCurrency #Crypto,0,0,0,False
187,Happy Worlds@Happy_Worlds,RT @BitcoinzWoman Is the internet of things future bright? #bitcoin #crypto #cryptocurrency http://j.mp/1JGEvc4  https://pic.twitter.com/QplJnkjoHV,1,0,0,False
188,Crypto Price Ticker@TickerCrypto,"#Monero #XMR 0.00111705 BTC via #MoneroXMRbot
#Bitcoin #BTC #AltCoin #BlockChain #BOT",0,0,0,False
189,Coin Tiny@CoinTiny,A Timeline of the Cryptsy Disappearance Mystery #CryptoCurrency #Crypto,0,0,0,False
190,Cornell Tech@cornell_tech,"Get to know professor Ari Juels — #crypto expert, novelist, competitive fencer. http://ow.ly/WNONw",1,1,0,False
191,FailCommunity@FAILCommunity,Is @cryptsy dead? http://bitcoinist.net/timeline-cryptsy-disappearance-mystery/… via @bitcoinist #Bitcoin #BTC #cryptocurrency,0,0,0,False
192,BitcoinAgile@bitcoinagile,EbotTwitter #feedly #itsecurity #cloud #cryptocurrency http://bit.ly/1SFS7Ma,0,0,0,False
193,Crypto Price Ticker@TickerCrypto,"#MonaCoin #MONA 0.00015165 BTC via #MonaCoinBot
#Bitcoin #BTC #AltCoin #BlockChain #BOT",0,0,0,False
194,Denny McEnroe@McEnroeDenny,Re:   **** Kohls E-gifts Kohls  for 30% of the value!!**** http://cur.lv/u3bsl #bitcoin #crypto,0,0,0,False
195,Denny McEnroe@McEnroeDenny,Re: [http://Bx2.club] Double your Bitcoins in a simple way [LAUNCHED][be the first] http://cur.lv/u3bsk #bitcoin #crypto,0,0,0,False
196,Denny McEnroe@McEnroeDenny,Re: from 10 EUR to 1280 EUR on 7 bets http://cur.lv/u3bsg #bitcoin #crypto,0,0,0,False
197,Denny McEnroe@McEnroeDenny,Re: Paying to fix my mybb theme http://cur.lv/u3bse #bitcoin #crypto,0,0,0,False
198,TheCoinWarrior@TheCoinWarrior,"""An Interview with the Makers of Plutus, a Payment App for the Bitcoin Adopter"" https://google.com/url?rct=j&sa=t&url=https://www.cryptocoinsnews.com/an-interview-with-the-makers-of-plutus-a-payment-app-for-the-bitcoin-adopter/&ct=ga&cd=CAIyGjk4NmJlZGI4MDE2OTU4NGU6Y29tOmVuOlVT&usg=AFQjCNE0SE_01pMKAOVV1g8ol8sNr3qZQg… #cryptocurrency #feedly",0,0,0,False
199,BitcoinBuzz vega9@BitcoinBuzzV9,http://bitcoinbuzz.vega9.com - Hot topics: #bitcoin #blockchain #cryptocurrency #btc #crypto #dogecoin,0,0,0,False
208,Coin Tiny@CoinTiny,"The BTCMANAGER Weekly News Round-up – Jan. 9, 2016 #CryptoCurrency #Crypto",0,0,0,False
209,Patricia Melo@patrimoreira,StealthCoin is #1 Cryptocurrency https://twitter.com/StealthCoin #altcoins #sexy #girl #woman #iphone #ipad http://pbs.twimg.com/media/CGMi4_UUUAAXn0W.png…,0,0,0,False
210,Megabyte@megabyte101,A step by step guide to firing up your own #bitcoin node #crypto #cryptocurrency http://j.mp/1RT0KCB https://pic.twitter.com/iqVbayuKgfA Step by Step Guide to Firing Up Your Own Bitcoin NodeIf you ever asked yourself “What can I do to help Bitcoin succeed?” this post … A Step by Step Guide to Firing Up Your Own Bitcoin Node Read More »99bitcoins.com,2,0,0,False
211,Crypto Price Ticker@TickerCrypto,"#EuropeCoin #ERC 0.00000381 BTC via #EuropeCoinBot
#Bitcoin #BTC #AltCoin #BlockChain #BOT",1,0,0,False
213,Crypto Price Ticker@TickerCrypto,"#Unobtanium #UNO 0.00521140 BTC via Twitter #UnobtaniumBot
#Bitcoin #BTC #AltCoin #BlockChain #BOT",1,0,0,False
214,Crypto Price Ticker@TickerCrypto,"#SativaCoin #STV 0.00000292 BTC via #SativaCoinBot
#Bitcoin #BTC #AltCoin #BlockChain #BOT",1,0,0,False
215,Team 300FPS ︻╦̵̵̿╤─@300FPSGAMING,Bitcoin’s Bold Experiment: A Goldmine for Economic Researchers http://btcf.co/1K4RrbT #bitcoin #bitcoinnews #btc #cryptocurrency,1,0,0,False
216,Team 300FPS ︻╦̵̵̿╤─@300FPSGAMING,Bitcoin’s Bold Experiment: A Goldmine for Economic Researchers http://btcf.co/1Zix6My #bitcoin #bitcoinnews #btc #cryptocurrency,0,0,0,False
217,Team 300FPS ︻╦̵̵̿╤─@300FPSGAMING,Bitcoin Is Of High Value To Live-Streaming Apps Like MeVee http://btcf.co/1K4RqVA #bitcoin #bitcoinnews #btc #cryptocurrency,0,0,0,False
218,Crypto Price Ticker@TickerCrypto,"#SexCoin #SXC 0.00000145 BTC via #SexCoinSXC
#Bitcoin #BTC #AltCoin #BlockChain #BOT",0,0,0,False
221,Julia Vaingurt@julia_vaingurt,"#Triangles #TRI 0.00063855 BTC via #TrianglesTRI
#Bitcoin #BTC #AltCoin #BlockChain #BOT http://cur.lv/u3b3o",0,0,0,False
222,Crypto Price Ticker@TickerCrypto,"#Triangles #TRI 0.00063855 BTC via #TrianglesTRI
#Bitcoin #BTC #AltCoin #BlockChain #BOT",0,0,0,False
223,dfwkdwkkvwdk wjwvgjj@bgdgdnhj,StealthCoin is #1 Cryptocurrency https://twitter.com/StealthCoin #altcoins #sexy #girl #woman #iphone #ipad http://pbs.twimg.com/media/CGMi4_UUUAAXn0W.png…,0,0,0,False
224,Crypto Price Ticker@TickerCrypto,"#AudioCoin #ADC 0.00000030 BTC via #AudioCoinBot
#Bitcoin #BTC #AltCoin #BlockChain #BOT",0,0,0,False
225,Евдоким Лындин@osseKluge,Hi @Groznyj3.Are you tired of risking and losing money?Passive Income https://goo.gl/vZNiSA #crypto #ff via http://uapp.ly,1,0,0,False
226,Crypto Price Ticker@TickerCrypto,"#CannaCoin #CCN 0.00006797 BTC via #CannaCoinCCN
#Bitcoin #BTC #AltCoin #BlockChain #BOT",0,0,0,False
227,"Cryptocurrency, yo.@BitcoinYo",healthnbeautyfacts  com/power-pump-xl-reviews http://ift.tt/1n9KPEf #bitcoin #cryptocurrency #altcoins #dogecoin #freebitcoin,0,0,0,False
228,Crypto Price Ticker@TickerCrypto,"#Ripple #XRP 0.00001338 BTC via #RippleXRPbot
#Bitcoin #BTC #AltCoin #BlockChain #BOT",0,0,0,False
229,Julia Vaingurt@julia_vaingurt,"Stanford #university offers course on building #bitcoin-enabled applications #crypto http://cur.lv/u3at5
http://cur.lv/u3at6",0,0,0,False
230,Null TX@nulltxnews,Bitcoin Is Of High Value To Live-Streaming Apps Like MeVee http://goo.gl/jbAzYG #bitcoin #bitcoinnews #btc #cryptocurrency,2,3,0,False
231,Crypto Price Ticker@TickerCrypto,"#WorldCoin #WDC 0.00001244 BTC via #WorldCoinBot
#Bitcoin #BTC #AltCoin #BlockChain #BOT",0,0,0,False
232,Crypto Price Ticker@TickerCrypto,"#CannabisCoin #CANN 0.00000427 BTC via #CannabisCoinBot
#Bitcoin #BTC #AltCoin #BlockChain #BOT",0,0,0,False
233,Coin Tiny@CoinTiny,How to Save 30% off Amazon with SmartCoins #CryptoCurrency #Crypto,0,0,0,False
234,China BTC trader@BITCOIN_Forex,healthnbeautyfacts  com/power-pump-xl-reviews http://ift.tt/1n9KPEf #bitcoin #cryptocurrency #altcoins #dogecoin #freebitcoin,0,0,0,False
235,Crypto Price Ticker@TickerCrypto,"#MonaCoin #MONA 0.00015269 BTC via #MonaCoinBot
#Bitcoin #BTC #AltCoin #BlockChain #BOT",1,0,0,False
237,FINTECHNA@fintechna,jonesiom: #bitcoin #blockchain #digitalcurrecy #crypto #fintech in the Isle of Man (UK newspaper The Independent): http://independent.co.uk/news/uk/home-news/bitcoin-how-the-isle-of-man-is-sparking-a-cryptocurrency-revolution-a6794756.html… …How the Isle of Man is reinventing itself as Bitcoin IslandA scattering of businesses on 'Bitcoin Island' accept the digital currency for everyday transactions alongside sterlingindependent.co.uk,0,0,0,False
238,Graeme Jones MBCS@jonesiom,#bitcoin #blockchain #digitalcurrecy #crypto #fintech in the Isle of Man (UK newspaper The Independent):How the Isle of Man is reinventing itself as Bitcoin IslandA scattering of businesses on 'Bitcoin Island' accept the digital currency for everyday transactions alongside sterlingindependent.co.uk,7,3,0,False
239,OpenLedger@OpenLedgerDC,The World's First real Next-gen #Bitcoin #creditcard is here! http://cointelegraph.com/news/114284/danish-exchange-unveils-next-gen-bitcoin-debit-nanocard… @CoinTelegraph #cryptocurrency #Crypto #altc,2,0,0,False
240,Altuğ Çetin@AKFJHSFIFBAHFBA,StealthCoin is #1 Cryptocurrency https://twitter.com/StealthCoin #altcoins #sexy #girl #woman #iphone #ipad http://pbs.twimg.com/media/CGMi4_UUUAAXn0W.png…,0,0,0,False
241,BitcoinBuzz vega9@BitcoinBuzzV9,http://bitcoinbuzz.vega9.com - Hot topics: #bitcoin #blockchain #btc #crypto #cryptocurrency #technology,0,0,0,False
242,Crypto Price Ticker@TickerCrypto,"#TrinityCoin #TTY 0.00000003 BTC via #TrinityCoinBot
#Bitcoin #BTC #AltCoin #BlockChain #BOT",0,0,0,False
243,Liberty Speak@thelibertyspeak,"Bitcoin m8, get it in ya
#cryptocurrency #bitcoin",2,0,0,False
244,LocalDayz@localdayz,"#CANN #Cannabiscoin avaible, Join the pool on http://pool.laintimes.com #cryptocurrency",0,0,0,False
245,Megabyte@megabyte101,Global economic outlook: #chinese stocks crash into 2016 #bitcoin #crypto #cryptocurrency http://j.mp/1OTNDeY https://pic.twitter.com/v2deY3l3xe,0,0,0,False
246,Jana@Nanobitcoin@NanoBitcoin,Daily Bitcoin News Ticker is out! http://ln.is/paper.li/NanoBitcoin/02uOz… #bitcoin #crypto #markets #cryptocurrency #blockchain #EU #FinTech @NanoBitcoin,2,0,0,False
247,Crypto Price Ticker@TickerCrypto,"#Bitcoin last trade

bitstamp $447.70
bitfinex $448.81
coinbase $449.82

Set #crypto #price #alerts at …",0,0,0,False
248,Crypto Price Ticker@TickerCrypto,"#Bitcoin last trade

btcecom $444.44
cryptsy $430.93

Set #crypto #price #alerts at http://AlertCo.in via #A…",0,0,0,False
249,AlertCo.in@AlertCoin,"#Bitcoin last trade

@bitstamp $447.70
@bitfinex $448.81
@coinbase $449.82

Set #crypto #price #alerts at http://AlertCo.in",1,0,0,False
250,Crypto Price Ticker@TickerCrypto,RT XBTFreelancer: #bitcoin #btc #crypto #writing #translation #earn #income Need Marketing experienced Writer - Exp…,0,0,0,False
251,Crypto Price Ticker@TickerCrypto,"#CannaCoin #CCN 0.00006169 BTC via #CannaCoinCCN
#Bitcoin #BTC #AltCoin #BlockChain #BOT",0,0,0,False
252,Crypto Price Ticker@TickerCrypto,"#Ripple #XRP 0.00001336 BTC via #RippleXRPbot
#Bitcoin #BTC #AltCoin #BlockChain #BOT",0,0,0,False
253,Crypto Price Ticker@TickerCrypto,"#CannabisCoin #CANN 0.00000462 BTC via #CannabisCoinBot
#Bitcoin #BTC #AltCoin #BlockChain #BOT",0,0,0,False
254,GoBitcoinGo@gobitcoinnews,"I have been saying this for ages now it is only a matter of time ...
s #cryptocurrency  the answerQuote TweetUK Uncensored@UK_Uncensored · Dec 26, 2015This man is predicting a financial collapse here in the UK during 2016. Find out why by downloading this report https://cards.twitter.com/cards/18ce5473mxe/1bho2…",1,2,0,False
256,Crypto Price Ticker@TickerCrypto,"#UFOCoin #UFO 3.00 BTC via #UFOCoinBot
#Bitcoin #BTC #AltCoin #BlockChain #BOT",0,0,0,False
257,NE Patriots Dynasty@NEPatsDynasty,Great Blog on #crypto #cryptocurrency Click http://juddbagley.io/bitcoin/blockchain/nasdaq-is-joining-the-blockchain-trading-party/… SHARE,1,0,0,False
258,Jacob leroi@LeroiWeed,#scam #altcoin is #startcoin with 27 million premined while giving out 10/20 to hype #CROOK of #crypto #bitcoin,0,0,0,False
259,Viet_Bang2000@Viet_Bang2000,StealthCoin is #1 Cryptocurrency https://twitter.com/StealthCoin #altcoins #sexy #girl #woman #iphone #ipad http://pbs.twimg.com/media/CGMi4_UUUAAXn0W.png…,0,0,0,False
260,Vatican Bank@VaticanBank,Replying to @padillausaGreat so #Crypto @tipdoge tiprain 1000 #Dogecoin @yeswepump @padillausa ,3,0,0,False
261,Crypto Price Ticker@TickerCrypto,"#Monero #XMR 0.00112494 BTC via #MoneroXMRbot
#Bitcoin #BTC #AltCoin #BlockChain #BOT",0,0,0,False
262,Julia Vaingurt@julia_vaingurt,"Its January 09, 2016 at 04:01PM time to check on #edoncoin's development! http://cur.lv/u38ed
#btc #altcoin #ltc #dogecoin #bitcoin #e…",0,0,0,False
263,ILbotCrypto@LbotCrypto,"Its January 09, 2016 at 04:01PM time to check on #edoncoin's development! http://ow.ly/WbHMN #btc #altcoin #ltc #dogecoin #bitcoin #e…",0,0,0,False
264,NE Patriots Dynasty@NEPatsDynasty,#ILGamos and their NEW #ILCoin. 4 in 1 Trading platform. Stock up 35%.  http://INVEST.ilgamos.com/buy?buy_type=1 #Crypto #Nasdaq #ETRADE,0,0,0,False
265,Megabyte@megabyte101,Happy 7th birthday #Bitcoin http://coinspeaker.com/2016/01/03/happy-birthday-bitcoin-popular-cryptocurrency-celebrates-7th-birthday… #cryptocurrency,0,0,0,False
266,Crypto Price Ticker@TickerCrypto,"#MonaCoin #MONA 0.00015193 BTC via #MonaCoinBot
#Bitcoin #BTC #AltCoin #BlockChain #BOT",0,0,0,False
268,BySll@bysllcom,Buy into StealthCoin and making 100x your money. XST is a cheap altcoin like BitCoin BTC. #xst #altcoin #bitcoin,2,0,0,False
269,FinLock@MikelQuintero,Happy 7th birthday #Bitcoin http://coinspeaker.com/2016/01/03/happy-birthday-bitcoin-popular-cryptocurrency-celebrates-7th-birthday… #cryptocurrency,1,0,0,False
270,Crypto Price Ticker@TickerCrypto,"#TrollCoin #TROLL 0.00000009 BTC via #TrollCoinPrice
#Bitcoin #BTC #AltCoin #BlockChain #BOT",0,0,0,False
271,sonakshi Singh@sonakshisinghnk,"100x your money. XST is a cheap altcoin like BitCoin BTC. #xst #altcoin #bitcoin @stealthcoin
http://goo.gl/0WcTnq",1,0,0,False
272,EtherialCryptoBot@EtherialCrypto,[AUTO] I am currently holding 14 unique #altcoins. According my config I can open a maximum of 15 trades.,0,0,0,False
273,BitcoinBuzz vega9@BitcoinBuzzV9,http://bitcoinbuzz.vega9.com - Hot topics: #bitcoin #btc #blockchain #annualpublication #crypto #cryptocurrency,0,0,0,False
274,Team 300FPS ︻╦̵̵̿╤─@300FPSGAMING,Bitcoin Price Looking For Support http://btcf.co/1IVSGPK #bitcoin #bitcoinnews #btc #cryptocurrency,0,0,0,False
275,jaysei@asaleroma61,123althCoin is #1 Cryptocurrency https://twitter.com/StealthCoin #altcoins #sexy #girl #woman #iphone #ipad http://pbs.twimg.com/media/CGMi4_UUUAAXn0W.png…,0,0,0,False
276,Master Mining@MasterminingNet,"Profit #mining with low Fee at  http://mastermining.net
#LTC #Casinocoin #Earthcoin #42Coin #Bata #Dogecoindark #Altcoin #scrypt mining",1,1,0,False
277,GetgoBiz@GetgoBiz,"The great chain of being sure about things
#cryptocurrency #blockchain
http://buff.ly/1OFZbqp",3,0,0,False
278,Crypto Price Ticker@TickerCrypto,"#GeoCoin #GEO 0.00005353 BTC via #GeoCoinBot
#Bitcoin #BTC #AltCoin #BlockChain #BOT",0,0,0,False
279,Crypti@CryptiTeam,"Crypti Responds to Incorrect CoinTelegraph Article https://blog.crypti.me/crypti-responds-to-incorrect-cointelegraph-article/…
#bitcoin #cryptocurrency #btc #cointelegraph @CoinTelegraph",2,3,1,False
280,ⱣotCoin@PotCoin,"Do you have extra mining power just sitting around? Earn #potcoin again
http://potcoin.com/mine-potcoin/
#altcoins #bitcoins",3,0,0,False
281,Crypto Price Ticker@TickerCrypto,"#SexCoin #SXC 0.00000150 BTC via #SexCoinSXC
#Bitcoin #BTC #AltCoin #BlockChain #BOT",0,0,0,False
282,Crypto Price Ticker@TickerCrypto,"#Ripple #XRP 0.00001333 BTC via #RippleXRPbot
#Bitcoin #BTC #AltCoin #BlockChain #BOT",0,0,0,False
283,Crypto Price Ticker@TickerCrypto,"#WorldCoin #WDC 0.00001258 BTC via #WorldCoinBot
#Bitcoin #BTC #AltCoin #BlockChain #BOT",0,0,0,False
284,Coin Tiny@CoinTiny,Bitcoin Price Tracker: ‘Speculative Spike’ or Bullish Signs? #CryptoCurrency #Crypto,0,0,0,False
285,BlockChannel@BlockChannel,"BCN News: bitcoinist ""A Timeline of the Cryptsy Disappearance Mystery http://ift.tt/1ZckHo2 #bitcoin #bitcoinnews #btc #cryptocurrency #…",0,0,0,False
286,Bitcoinist.com@bitcoinist,A Timeline of the Cryptsy Disappearance Mystery http://ift.tt/1ZckHo2 #bitcoin #bitcoinnews #btc #cryptocurrency #altcoins # money #free…,2,5,0,False
287,FINTECHNA@fintechna,The_MarketMogul: Can Bitcoin solve Argentina's problems? http://mktmgl.co/1M6mCo8  #fintech #cryptocurrency #Argentina #LatAm #Economy pic.t…,0,0,0,False
288,Denny McEnroe@McEnroeDenny,Re: NEM (XEM) Official Thread - 100% New Code - Easy To Use APIs http://cur.lv/u36zo #bitcoin #crypto,0,0,0,False
289,Denny McEnroe@McEnroeDenny,Re: CarlesPuyol Sports picks Thread - Hot Picks with review http://cur.lv/u36zn #bitcoin #crypto,0,0,0,False
290,Denny McEnroe@McEnroeDenny,Re: The Entree assumably http://cur.lv/u36zm #bitcoin #crypto,0,0,0,False
291,Denny McEnroe@McEnroeDenny,Re: BITCOINS Miracle! Any One Had Such Experience? http://cur.lv/u36zl #bitcoin #crypto,0,0,0,False
292,HashGoal #@HashGoal_Pool,"Paid: 135551.32+ $ADC , 31.26+ $SNRG at #multipool http://hashgoal.com  , #cryptocurrency $BTC $LTC ,#altcoins @CryptoOz #cryptocurrency",1,0,0,False
293,Crypto Price Ticker@TickerCrypto,"#CloudCoin #CDC 0.00000024 BTC via #CloudCoinCDC
#Bitcoin #BTC #AltCoin #BlockChain #BOT",1,0,0,False
294,EvettField Partners@EvettField,@Crypto_Fund thank you for the #follow #cryptocurrency #crowdfunding,1,1,0,False
295,Team 300FPS ︻╦̵̵̿╤─@300FPSGAMING,A Timeline of the Cryptsy Disappearance Mystery http://btcf.co/1Oil7nO #bitcoin #bitcoinnews #btc #cryptocurrency,0,0,0,False
296,Greg Matthews@realmicroguy,Good morning! I'm headed out now to make a few local Greenwood service calls and to spread the #crypto gospel! Let's make MONEY great again!,1,0,0,False
297,Mogul News@mogulnews,Can Bitcoin solve Argentina's problems? http://mktmgl.co/1M6mCo8 #fintech #cryptocurrency #Argentina #LatAm #Economy,0,0,0,False
298,Crypto Price Ticker@TickerCrypto,"#Monero #XMR 0.00112135 BTC via #MoneroXMRbot
#Bitcoin #BTC #AltCoin #BlockChain #BOT",0,0,0,False
299,Crypto Price Ticker@TickerCrypto,"0.00002550 BTC #WHIPPED #FETISH #BDSM via #BDSMFetishCoin
#Bitcoin #BTC #AltCoin #BlockChain #BOT",0,0,0,False
300,Team 300FPS ︻╦̵̵̿╤─@300FPSGAMING,Bitcoin Meetup Growth Signals Increased Interest In Digital Currency http://btcf.co/1n9CvV1 #bitcoin #bitcoinnews #btc #cryptocurrency,1,0,0,False
301,BrianDColwell (Quotidian Marketing)@BrianDColwell,RT @bitcoinovernewz: #Bitcoin 's upcoming killer app - Open #Bazaar http://bit.ly/1OQEvHR https://pic.twitter.com/J5KjCOuRAM #blockchain #crypto,1,0,0,False
302,Julia Vaingurt@julia_vaingurt,"Cryptsy has moved out of their building unannounced nowhere to be found #bitcoin #crypto http://cur.lv/u36ma
http://cur.lv/u36mc",1,0,0,False
303,Crypto Price Ticker@TickerCrypto,"#MonaCoin #MONA 0.00015069 BTC via #MonaCoinBot
#Bitcoin #BTC #AltCoin #BlockChain #BOT",1,0,0,False
304,Null TX@nulltxnews,Bitcoin Meetup Growth Signals Increased Interest In Digital Currency http://goo.gl/tJEZZ0 #bitcoin #bitcoinnews #btc #cryptocurrency,1,4,0,False
305,FINTECHNA@fintechna,rssbtc: Bitcoin in 3 minutes https://youtu.be/p_a8jlyqk4g  #cryptocurrency #fintech #finance #satoshi #btc,0,0,0,False
306,Binary Options Guard@BinaryTrading13,"RT https://twitter.com/julia_vaingurt/status/685807726526656512… Gemini’s winklevoss: ‘institutionalization’ of #bitcoin #trading has begun #crypto … http://cur.lv/u36c4Quote TweetJulia Vaingurt@julia_vaingurt · Jan 9, 2016Gemini’s winklevoss: ‘institutionalization’ of #bitcoin #trading has begun #crypto http://cur.lv/u36c3
http://cur.lv/u36c4",0,0,0,False
307,BitcoinBuzz vega9@BitcoinBuzzV9,http://bitcoinbuzz.vega9.com - Hot topics: #bitcoin #annualpublication #crypto #cryptocurrency #btc #barbados,0,0,0,False
308,Jacob leroi@LeroiWeed,StealthCoin is #1 Cryptocurrency https://twitter.com/StealthCoin #altcoins #sexy #girl #woman #iphone #ipa,0,0,0,False
309,rssbtc.com@rssbtc,"Bitcoin in 3 minutes https://youtu.be/p_a8jlyqk4g
#cryptocurrency #fintech #finance #satoshi #btc",0,0,0,False
310,Julia Vaingurt@julia_vaingurt,"Gemini’s winklevoss: ‘institutionalization’ of #bitcoin #trading has begun #crypto http://cur.lv/u36c3
http://cur.lv/u36c4",0,0,0,False
311,LocalDayz@localdayz,#dash Download wallet https://dashpay.io/downloads/ and Join the pool on http://pool.laintimes.com #DashDc #DigitalCash #Darkcoin #cryptocurrency,0,0,0,False
312,YDX @YDXMyfriend,"[Article] How to pay #bitcoin bills with #altcoins? Read -> http://coremedia.info/index.php/nxt-news/item/183-how-to-pay-bitcoin-bills-with-altcoins…
#NXT #blockchain #cryptocurrency",2,3,0,False
313,Crypto Price Ticker@TickerCrypto,"#EuroCoin #EUC 0.00000011 BTC via Twitter #EuroCoinBot
#Bitcoin #BTC #AltCoin #BlockChain #BOT",0,0,0,False
314,Crypto Price Ticker@TickerCrypto,"#8BitCoin #8BIT 0.00002699 BTC via #8BitCoinBot
#Bitcoin #BTC #AltCoin #BlockChain #BOT",0,0,0,False
315,Crypto Price Ticker@TickerCrypto,"#HamRadioCoin #HAM 0.00000486 BTC via #HAMRadioCoinBot
#Bitcoin #BTC #AltCoin #BlockChain #BOT",0,0,0,False
316,Vatican Bank@VaticanBank,Replying to @VaticanBankHey man! Hope you have a great day!  @tipdoge tip 1000 #Doge #Crypto @busetrt 1K,1,0,0,False
317,Crypto Price Ticker@TickerCrypto,"#SexCoin #SXC 0.00000147 BTC via #SexCoinSXC
#Bitcoin #BTC #AltCoin #BlockChain #BOT",0,0,0,False
318,Xyz1903@Xyz190323,StealthCoin is #1 Cryptocurrency https://twitter.com/StealthCoin #altcoins #sexy #girl #woman #iphone #ipad http://pbs.twimg.com/media/CGMi4_UUUAAXn0W.png…,0,0,0,False
319,Julia Vaingurt@julia_vaingurt,"#Bitcoin price unstable; more gains today? #crypto #cryptocurrency http://cur.lv/u35qb
http://cur.lv/u35qc",0,0,0,False
320,Vatican Bank@VaticanBank,Replying to @VaticanBankHello Hello!!!! Welcome to the Bank! @tipdoge tip 1000 #Doge #Crypto @balangbans 1K,2,0,0,False
321,Bitcoinist.com@bitcoinist,Stephen Roger Rowlison Launches SMS Bitcoin Service http://ift.tt/1JB4reG #bitcoin #bitcoinnews #btc #cryptocurrency #altcoins # money #…,1,2,0,False
322,Crypto Price Ticker@TickerCrypto,"#CannaCoin #CCN 0.00004505 BTC via #CannaCoinCCN
#Bitcoin #BTC #AltCoin #BlockChain #BOT",0,0,0,False
323,Crypto Price Ticker@TickerCrypto,"#NetCoin #NET 0.00000127 BTC via #NetCoinBot
#Bitcoin #BTC #AltCoin #BlockChain #BOT",0,0,0,False
324,Crypto Price Ticker@TickerCrypto,"#CloudCoin #CDC 0.00000021 BTC via #CloudCoinCDC
#Bitcoin #BTC #AltCoin #BlockChain #BOT",0,0,0,False
325,Gabor Venczel@ujtrend,"Indian Bitcoin Startup Zebpay Raises $1 Million #cryptocurrency, bitcoin, octacoin, http://webogi.com/b-p_.d",0,0,0,False
326,Crypto Price Ticker@TickerCrypto,"#Monero #XMR 0.00111999 BTC via #MoneroXMRbot
#Bitcoin #BTC #AltCoin #BlockChain #BOT",0,0,0,False
327,HotIronBrands@rebrandtoday,#startup or #rebrand -buy CommerceBit .com-#commerce with #bitcoin and the #blockchain .#xbt #cryptocurrency #NamesCon #marketing #branding,1,0,0,False
328,Megabyte@megabyte101,http://bitcoinbuzz.vega9.com - Hot topics: #bitcoin #crypto #cryptocurrency #btc #monstercoingame #robotcoingame,0,0,0,False
329,Crypto Price Ticker@TickerCrypto,"#UFOCoin #UFO 0.00000002 BTC via #UFOCoinBot
#Bitcoin #BTC #AltCoin #BlockChain #BOT",0,0,0,False
330,Эээ Ээээ@inf929t,StealthCoin is #1 Cryptocurrency https://twitter.com/StealthCoin #altcoins #sexy #girl #woman #iphone #ipad http://pbs.twimg.com/media/CGMi4_UUUAAXn0W.png…,0,0,0,False
331,Crypto Price Ticker@TickerCrypto,"#MonaCoin #MONA 0.00015195 BTC via #MonaCoinBot
#Bitcoin #BTC #AltCoin #BlockChain #BOT",0,0,0,False
332,ϻ  𝔤 𝔲 𝔯 𝔞 [ꜩ]@MagUraCrypto,"Cheap $exp... #justsaying
#btc #altcoin #cryptocurrency",2,3,0,False
333,Graham Prior@GrahamPrior,"The great chain of being sure about things
#cryptocurrency #blockchain
http://buff.ly/1OFZdyq",3,0,0,False
334,Regulatory Risk@RegulatoryRisk,"The great chain of being sure about things
#cryptocurrency #blockchain
http://buff.ly/1OFZdyC",2,0,0,False
335,EtherialCryptoBot@EtherialCrypto,[AUTO] I currently have some #Mediterraneancoin ( #MED ) and I own 10.00000000 of this #altcoin (Random pick),0,0,0,False
336,XBTFreelancer.com@XBTFreelancer,#bitcoin #btc #crypto #writing #translation #earn #income Need Marketing experienced Writer - Expert only http://xbtfreelancer.com/prj/765/need-marketing-experienced-writer-expert-only…,1,0,0,False
337,BitcoinBuzz vega9@BitcoinBuzzV9,http://bitcoinbuzz.vega9.com - Hot topics: #bitcoin #crypto #cryptocurrency #btc #monstercoingame #robotcoingame,0,0,0,False
338,Coin Tiny@CoinTiny,"Interview with Bob Wilkins, CEO of Ziftr on the launch of Ziftrcoin #CryptoCurrency #Crypto",0,0,0,False
339,Crypto Price Ticker@TickerCrypto,"#SexCoin #SXC 0.00000144 BTC via #SexCoinSXC
#Bitcoin #BTC #AltCoin #BlockChain #BOT",0,0,0,False
340,Crypto Price Ticker@TickerCrypto,"#Triangles #TRI 0.00063815 BTC via #TrianglesTRI
#Bitcoin #BTC #AltCoin #BlockChain #BOT",0,0,0,False
341,Crypto Price Ticker@TickerCrypto,"#MaryJane #MARYJ 0.00000341 BTC via #MaryJaneCoinBot
#Bitcoin #BTC #AltCoin #BlockChain #BOT",0,0,0,False
342,Crypto Price Ticker@TickerCrypto,"#CannaCoin #CCN 0.00004507 BTC via #CannaCoinCCN
#Bitcoin #BTC #AltCoin #BlockChain #BOT",0,0,0,False
343,Gabor Venczel@ujtrend,"Bitstamp Opens Gold Buying Service to European Customers #cryptocurrency, bitcoin, octacoin, http://webogi.com/9zH.Lm",0,0,0,False
344,Crypto Price Ticker@TickerCrypto,"#WorldCoin #WDC 0.00001325 BTC via #WorldCoinBot
#Bitcoin #BTC #AltCoin #BlockChain #BOT",0,0,0,False
345,Crypto Price Ticker@TickerCrypto,"#CannabisCoin #CANN 0.00000778 BTC via #CannabisCoinBot
#Bitcoin #BTC #AltCoin #BlockChain #BOT",0,0,0,False
346,FINTECHNA@fintechna,nxtinfoorg: Get yourself some free #crypto #money > http://cur.lv/u307m  #faucet #fintech #startup #marketing #investing pic.twitte…,0,0,0,False
347,Crypto Price Ticker@TickerCrypto,"#Monero #XMR 0.00111690 BTC via #MoneroXMRbot
#Bitcoin #BTC #AltCoin #BlockChain #BOT",1,0,0,False
348,NE Patriots Dynasty@NEPatsDynasty,10 new Bank of America #Cryptocurrency Patents. The Future of #Money and Payment. JOIN FREE Click here http://buygold.ilgamos.com/buy?buy_type=1,0,0,0,False
349,PumpingAltcoin@PumpingAltcoin,"#Altcoin News and #Pump Tips is out! http://paper.li/PumpingAltcoin/1399763175?edition_id=31e458a0-b6c1-11e5-a712-0cc47a0d1609… #Freebitcoin #Crypto #BTC #Mintpal Stories via @Bitcoinflux#Cryptocurrency #altcoin news dailyInterested in a 24/7 automatic bitcoin and altcoin passive income every day? Have you ever heard about GUNBOT, the fully automated crypto currency trading bo... by PumpingAltcoinpaper.li",0,0,0,False
350,Vindyne8@Vindyne8,Help $swagbucks$ beta test altcoin bootstrap torrent site http://cryptoleecher.rocks 100 users can sign up now #torrent #crypto #btc #RT,10,9,0,False
351,DeltaPool@DeltaPoolNET,Beware of the #bitcoin & #altcoin exchange Cryptsy http://bitcoinist.net/cryptsy-has-moved-out-of-their-building-unannounced-nowhere-to-be-found/…,0,0,0,False
352,Crypto Price Ticker@TickerCrypto,"#Bitcoin last trade

bitstamp $449.60
bitfinex $450.73
coinbase $451.42

Set #crypto #price #alerts at …",0,0,0,False
353,AlertCo.in@AlertCoin,"#Bitcoin last trade

@btcecom $446.49
@cryptsy $429.47

Set #crypto #price #alerts at http://AlertCo.in",1,0,0,False
354,AlertCo.in@AlertCoin,"#Bitcoin last trade

@bitstamp $449.60
@bitfinex $450.73
@coinbase $451.42

Set #crypto #price #alerts at http://AlertCo.in",1,0,0,False
355,Crypto Price Ticker@TickerCrypto,"#Unobtanium #UNO 0.00609173 BTC via Twitter #UnobtaniumBot
#Bitcoin #BTC #AltCoin #BlockChain #BOT",1,0,0,False
356,Crypto Price Ticker@TickerCrypto,"#EuroCoin #EUC 0.00000014 BTC via Twitter #EuroCoinBot
#Bitcoin #BTC #AltCoin #BlockChain #BOT",0,0,0,False
357,Crypto Price Ticker@TickerCrypto,"#HamRadioCoin #HAM 0.00000414 BTC via #HAMRadioCoinBot
#Bitcoin #BTC #AltCoin #BlockChain #BOT",0,0,0,False
358,Crypto Price Ticker@TickerCrypto,"#SexCoin #SXC 0.00000156 BTC via #SexCoinSXC
#Bitcoin #BTC #AltCoin #BlockChain #BOT",0,0,0,False
359,Crypto Price Ticker@TickerCrypto,"#Ripple #XRP 0.00001323 BTC via #RippleXRPbot
#Bitcoin #BTC #AltCoin #BlockChain #BOT",0,0,0,False
360,Haydar Baş@41Yaran,They are giving away Free Bitcoins @Refer4bitcoin get 300% for inviting friends #bitcoin #cryptocurrency http://refer4bitcoin.com,1,0,0,False
361,Crypto Price Ticker@TickerCrypto,"#CannabisCoin #CANN 0.00000439 BTC via #CannabisCoinBot
#Bitcoin #BTC #AltCoin #BlockChain #BOT",1,0,0,False
362,Crypto Price Ticker@TickerCrypto,"#WorldCoin #WDC 0.00001210 BTC via #WorldCoinBot
#Bitcoin #BTC #AltCoin #BlockChain #BOT",1,0,0,False
363,Hoang nghiem@hoangnghiemvui1,StealthCoin is #1 Cryptocurrency https://twitter.com/StealthCoin #altcoins #sexy #girl #woman #iphone #ipad http://pbs.twimg.com/media/CGMi4_UUUAAXn0W.png…,0,0,0,False
364,Crypto Price Ticker@TickerCrypto,"#NetCoin #NET 0.00000126 BTC via #NetCoinBot
#Bitcoin #BTC #AltCoin #BlockChain #BOT",1,0,0,False
365,Crypto Price Ticker@TickerCrypto,"#MonaCoin #MONA 0.00015755 BTC via #MonaCoinBot
#Bitcoin #BTC #AltCoin #BlockChain #BOT",0,0,0,False
366,rssbtc.com@rssbtc,"Bitcoin in 2016 - http://tinyurl.com/zelcb8h
#cryptocurrency #bitcoin #fintechBitcoin in 2016 - CoinReportWill bitcoin achieve greater success in ‘going mainstream’? Will the price improve? CoinReport's Brian Worley talks about bitcoin in 2016.coinreport.net",0,0,0,False
367,BitcoinBuzz vega9@BitcoinBuzzV9,http://bitcoinbuzz.vega9.com - Hot topics: #bitcoin #cryptocurrency #crypto #btc #robotcoingame #monstercoingame,0,0,0,False
368,rssbtc.com@rssbtc,"Barbados’ Most Popular Business Magazine Features Bitcoin Startup Bitt - http://tinyurl.com/z3lfhah
#startup #cryptocurrency #Bitt",2,0,0,False
369,International CCC@Int_CCC,Today's Crypto Chronicle! News about #bitcoin #cryptocurrency and more! http://paper.li/Int_CCC/1409392381?edition_id=e86ae1d0-b6b6-11e5-acb4-002590a5ba2d… Articles thanks to @GloriaDarni,0,0,0,False
370,Crypto Price Ticker@TickerCrypto,"#Unobtanium #UNO 0.00355999 BTC via Twitter #UnobtaniumBot
#Bitcoin #BTC #AltCoin #BlockChain #BOT",1,0,0,False
371,Crypto Price Ticker@TickerCrypto,"#SativaCoin #STV 0.00000296 BTC via #SativaCoinBot
#Bitcoin #BTC #AltCoin #BlockChain #BOT",0,0,0,False
372,Gabor Venczel@ujtrend,"Blockchain Startup Gem Closes $7.1 Million Series A #cryptocurrency, bitcoin, octacoin, http://webogi.com/QC9vub",2,0,0,False
373,Crypto Price Ticker@TickerCrypto,"#GeoCoin #GEO 0.00005380 BTC via #GeoCoinBot
#Bitcoin #BTC #AltCoin #BlockChain #BOT",0,0,0,False
374,badykvik@badykvik,"#cryptsy Has Moved Out of Their Building Unannounced, Nowhere to be Found http://goo.gl/7KThjP #cryptocurrency",0,0,0,False
375,Crypto Price Ticker@TickerCrypto,"#HamRadioCoin #HAM 0.00000411 BTC via #HAMRadioCoinBot
#Bitcoin #BTC #AltCoin #BlockChain #BOT",0,0,0,False
376,Crypto Price Ticker@TickerCrypto,"#SexCoin #SXC 0.00000149 BTC via #SexCoinSXC
#Bitcoin #BTC #AltCoin #BlockChain #BOT",0,0,0,False
377,mertatessssss@mertatessssss2,#scam #altcoin is #startcoin with 27 million premined while giving out 10/20 to hype #CROOK of #c #litecoin http://goo.gl/VBeFIy,0,0,0,False
378,Crypto Price Ticker@TickerCrypto,"#CannaCoin #CCN 0.00005142 BTC via #CannaCoinCCN
#Bitcoin #BTC #AltCoin #BlockChain #BOT",0,0,0,False
380,#Free #Housing #SF@cowork360,"MagicNxt, Developer? Join us 4 #FreeHousingSF. RT nxtinfoorg: Get yourself some free #crypto #money > … https://twitter.com/MagicNxt/status/685753820887035904…This Tweet is unavailable.",0,0,0,False
381,BitcoinAgile@bitcoinagile,Barbados  Most Popular Business Magazine Features Bitt #news #crypto #bitcoin #barbados http://bit.ly/1mMuPaR,0,0,0,False
382,NE Patriots Dynasty@NEPatsDynasty,JOIN FREE now. #MONEY #Bitcoin The Next NEW #Crypto #Currency. It is called #ILCoin  JOIN Click here http://buygold.ilgamos.com/buy?buy_type=1,0,0,0,False
383,Enzo@EnzEvo,StealthCoin is #1 Cryptocurrency https://twitter.com/StealthCoin #altcoins #sexy #girl #woman #iphone #ipad http://pbs.twimg.com/media/CGMi4_UUUAAXn0W.png…,0,0,0,False
384,Julia Vaingurt@julia_vaingurt,"http://cur.lv/u2zkx
 - Hot topics: #bitcoin #btc #crypto #cryptocurrency #robotcoingame #monstercoingame",0,0,0,False
385,XBTFreelancer.com@XBTFreelancer,#crypto #freelancing #makemoney Virtual mystery shopper - repost http://xbtfreelancer.com/prj/758/virtual-mystery-shopper… #bitcoin,0,0,0,False
386,EtherialCryptoBot@EtherialCrypto,[AUTO] I currently have some #LitecoinDark ( #LTCD ) and I own 1.16774259 of this #altcoin (Random pick),0,0,0,False
387,BitcoinBuzz vega9@BitcoinBuzzV9,http://bitcoinbuzz.vega9.com - Hot topics: #bitcoin #btc #crypto #cryptocurrency #robotcoingame #monstercoingame,0,0,0,False
388,FREE MONEY@FreeBitcoiners,"@Joey_DeBruin 100% FREE TOP PAYING 'Crypto Faucets & Altcoin Wallets' ALL-IN-ONE PLACE! 
http://freecryptofaucets.com
#freebitcoin #altcoins",0,0,0,False
389,Crypto Price Ticker@TickerCrypto,"#PopularCoin #POP 0.00000001 BTC via #PopularCoinBot
#Bitcoin #BTC #AltCoin #BlockChain #BOT",0,0,0,False
390,LocalDayz@localdayz,#auroracoin Download wallet https://github.com/aurarad/auroracoin… and Join the pool on http://pool.laintimes.com #cryptocurrencyaurarad/AuroracoinCurrent Auroracoin source tree. Contribute to aurarad/Auroracoin development by creating an account on GitHub.github.com,0,0,0,False
391,JΞSSΞ ℂOUℂH@jessecouch,"
We are the new Americana, (ah ah ah)
High on legal marijuana, (sky high)

#crypto #money",1,0,0,False
393,Crypto Price Ticker@TickerCrypto,"#Unobtanium #UNO 0.00656865 BTC via Twitter #UnobtaniumBot
#Bitcoin #BTC #AltCoin #BlockChain #BOT",1,0,0,False
394,Crypto Price Ticker@TickerCrypto,"#GeoCoin #GEO 0.00005371 BTC via #GeoCoinBot
#Bitcoin #BTC #AltCoin #BlockChain #BOT",1,0,0,False
395,Chris Doerfler@cmdoerfler,"a flat, P2P #ecommerce infra enabled by #bitcoin #cryptocurrencyQuote TweetBrave New Coin@bravenewcoin · Jan 7, 2016Will Open Bazaar be #Bitcoins' Killer App?   #markets http://ow.ly/WJNrW",1,0,0,False
396,Crypto Price Ticker@TickerCrypto,"#Triangles #TRI 0.00077499 BTC via #TrianglesTRI
#Bitcoin #BTC #AltCoin #BlockChain #BOT",1,0,0,False
403,Crypto Price Ticker@TickerCrypto,"#MaryJane #MARYJ 0.00000516 BTC via #MaryJaneCoinBot
#Bitcoin #BTC #AltCoin #BlockChain #BOT",1,0,0,False
404,Team 300FPS ︻╦̵̵̿╤─@300FPSGAMING,Dark Wallet Offers Privacy And Anonymity To Bitcoin Users http://btcf.co/1PUzDXp #bitcoin #bitcoinnews #btc #cryptocurrency,0,0,0,False
405,John Black@blackjohn40041,StealthCoin is #1 Cryptocurrency https://twitter.com/StealthCoin #altcoins #sexy #girl #woman #iphone #ipad http://pbs.twimg.com/media/CGMi4_UUUAAXn0W.png…,0,0,0,False
406,Crypto Price Ticker@TickerCrypto,"#Ripple #XRP 0.00001339 BTC via #RippleXRPbot
#Bitcoin #BTC #AltCoin #BlockChain #BOT",1,0,0,False
407,EtherialCryptoBot@EtherialCrypto,[AUTO] I currently have some #CryptsyPoints ( #Points ) and I own 0.00197591 of this #altcoin (Lowest amount of all),0,0,0,False
408,Crypto Price Ticker@TickerCrypto,"#CannabisCoin #CANN 0.00000441 BTC via #CannabisCoinBot
#Bitcoin #BTC #AltCoin #BlockChain #BOT",0,0,0,False
409,Crypto Price Ticker@TickerCrypto,"#WorldCoin #WDC 0.00001302 BTC via #WorldCoinBot
#Bitcoin #BTC #AltCoin #BlockChain #BOT",0,0,0,False
410,Crypto Price Ticker@TickerCrypto,"#DigitalNote #XDN 0.00000015 BTC via #DigitalNoteBot
#Bitcoin #BTC #AltCoin #BlockChain #BOT",1,0,0,False
411,Crypto Price Ticker@TickerCrypto,"#Monero #XMR 0.00109956 BTC via #MoneroXMRbot
#Bitcoin #BTC #AltCoin #BlockChain #BOT",0,0,0,False
412,ijazkhattak0160@ijazkhattak0161,StealthCoin is #1 Cryptocurrency https://twitter.com/StealthCoin #altcoins #sexy #girl #woman #iphone #ipad http://pbs.twimg.com/media/CGMi4_UUUAAXn0W.png…,0,0,0,False
413,Julia Vaingurt@julia_vaingurt,"Greenaddressit review (2015) #bitcoin #crypto #cryptocurrency http://cur.lv/u2y2d
http://cur.lv/u2y2e",0,0,0,False
414,Crypto Price Ticker@TickerCrypto,"#MonaCoin #MONA 0.00015806 BTC via #MonaCoinBot
#Bitcoin #BTC #AltCoin #BlockChain #BOT",0,0,0,False
415,FINTECHNA@fintechna,BitcoinBuzzV9: http://bitcoinbuzz.vega9.com  - Hot topics: #bitcoin #crypto #cryptocurrency #btc #robotcoingame #fintech,0,0,0,False
416,Denny McEnroe@McEnroeDenny,Problem with linux mint.(17.3 MATE) http://cur.lv/u2xw9 #bitcoin #crypto,1,0,0,False
417,Denny McEnroe@McEnroeDenny,Re: Premier League Prediction Thread (EPL) http://cur.lv/u2xw8 #bitcoin #crypto,0,0,0,False
418,Denny McEnroe@McEnroeDenny,Automated posting http://cur.lv/u2xw7 #bitcoin #crypto,0,0,0,False
419,Denny McEnroe@McEnroeDenny,Re: Is their any safe methods to gamble? http://cur.lv/u2xw6 #bitcoin #crypto,0,0,0,False
420,Denny McEnroe@McEnroeDenny,Re: Giving Away OkayFreedom VPN 1 Year/Premium [$29 Worth] Flat Keys .. http://cur.lv/u2xw5 #bitcoin #crypto,0,0,0,False
421,cryptovalue.com@cryptovalue,Best performing #altcoin: NetCoin(NET) with a 622.19% 24h change - #marketcap $230 191 - http://cryptovalue.com,0,0,0,False
422,XBTFreelancer.com@XBTFreelancer,"#makemoney #bitcoin http://xbtfreelancer.com/prj/766/i-need-a-ghostwriter-for-my-e-book-juice-recipes-topic… I need a ghostwriter for my e-book, Juice recipes topic #btc #crypto #writing #translation",0,0,0,False
423,BitcoinBuzz vega9@BitcoinBuzzV9,http://bitcoinbuzz.vega9.com - Hot topics: #bitcoin #crypto #cryptocurrency #btc #robotcoingame #fintech,0,0,0,False
424,Megabyte@megabyte101,"Coinomi founder john jegutanis: scale #bitcoin by decreasing latency #crypto #cryptocurrency http://j.mp/22Nwzl0 https://pic.twitter.com/AshSi69qqeCoinomi Founder John Jegutanis: Scale Bitcoin by Decreasing LatencyJohn Jegutanis, co-founder of bitcoin and altcoin mobile walletCoinomi, recently proposed the concept of ”Soft Blocks“ to help scale Bitcoin. Soft Blocks,bitcoinmagazine.com",1,1,0,False
425,Julia Vaingurt@julia_vaingurt,"2016 to be eventful for #bitcoin #crypto #cryptocurrency http://cur.lv/u2xks
http://cur.lv/u2xkt",0,0,0,False
426,FINTECHNA@fintechna,"VeriCoin: New to #Bitcoin and #Crypto pls check out TheDailyDecrypt new video - http://youtu.be/wFho22fjOtA  - #CES2016 #FinTech #Powerball #Fi…15 Charts That Show Bitcoin's Performance in 2015You already know how the price moved in 2015. But what about transaction volume, wallet count, mining difficulty, and brick'n'mortar adoption? Here's the cha...youtube.com",0,0,0,False
427,Worth@plaintech,"Folks, @Cryptsy has left the building… 
http://bitcoinist.net/cryptsy-has-moved-out-of-their-building-unannounced-nowhere-to-be-found/…
#Bitcoin #MtGox #altcoin #cryptocurrency #BTC",1,0,0,False
428,Crypto Price Ticker@TickerCrypto,"#GeoCoin #GEO 0.00005581 BTC via #GeoCoinBot
#Bitcoin #BTC #AltCoin #BlockChain #BOT",1,0,0,False
429,Crypto Price Ticker@TickerCrypto,"#SexCoin #SXC 0.00000152 BTC via #SexCoinSXC
#Bitcoin #BTC #AltCoin #BlockChain #BOT",0,0,0,False
430,Crypto Price Ticker@TickerCrypto,"#Triangles #TRI 0.00066395 BTC via #TrianglesTRI
#Bitcoin #BTC #AltCoin #BlockChain #BOT",0,0,0,False
431,Crypto Price Ticker@TickerCrypto,"#MaryJane #MARYJ 0.00000379 BTC via #MaryJaneCoinBot
#Bitcoin #BTC #AltCoin #BlockChain #BOT",0,0,0,False
432,FINTECHNA@fintechna,fintechna: The_MarketMogul: Bitcoin could change LatAm http://mktmgl.co/1M6mCo8  #bitcoin #fintech #cryptocurrency #Argentina #LatAm #Econom…,0,0,0,False
433,Crypto Price Ticker@TickerCrypto,"#Ripple #XRP 0.00001340 BTC via #RippleXRPbot
#Bitcoin #BTC #AltCoin #BlockChain #BOT",0,0,0,False
434,Catotune@catotune,Damn #Cryptsy http://bitcoinlasvegas.net/cryptsy-has-now-left-the-building/… So glad I got out in time! #MtGox #crypto,0,0,0,False
435,Christopher Carruthers@TaoOfSatoshi,"Another chapter in the @Cryptsy  saga...
http://bitcoinist.net/cryptsy-has-moved-out-of-their-building-unannounced-nowhere-to-be-found/…
Glad I have no $DASH there!
#DashDC #Bitcoin #Altcoins",3,1,0,False
436,rwer werwer@refrferwfewrf,StealthCoin is #1 Cryptocurrency https://twitter.com/StealthCoin #altcoins #sexy #girl #woman #iphone #ipad http://pbs.twimg.com/media/CGMi4_UUUAAXn0W.png…,1,0,0,False
437,Altcoin Faucet List!@altcoins5,"Lists of #altcoin #bitcoinfaucet #bitcoin #Dogecoin #litecoin #ethereum faucets!
Click  http://bit.ly/fctlist1  for them! Update soon!",0,0,0,False
438,FINTECHNA@fintechna,The_MarketMogul: Bitcoin could change LatAm http://mktmgl.co/1M6mCo8  #bitcoin #fintech #cryptocurrency #Argentina #LatAm #Economy pic.twitt…,0,0,0,False
439,Crypto Yoyo@cryptoyoyo,Bitcoin Price Gains; Target Hit! http://bit.ly/1OFU2hT #bitcoin #crypto #news,0,0,0,False
440,EverGreenCoin® (EGC) @EverGreenCoin_,"Hashrate is climbing exponentially! Thanks for securing the network, miners! #ToTheTreetop #EverGreenCoin #Mining #Crypto #Blockchain",8,10,0,False
441,Crypto Price Ticker@TickerCrypto,"#DigitalNote #XDN 0.00000014 BTC via #DigitalNoteBot
#Bitcoin #BTC #AltCoin #BlockChain #BOT",1,0,0,False
442,Mogul News@mogulnews,Bitcoin could change LatAm http://mktmgl.co/1M6mCo8 #bitcoin #fintech #cryptocurrency #Argentina #LatAm #Economy,0,0,0,False
443,PinkMona@pinkmona_org,#bitcoin #altcoin #dogecoin Let's Hentai! Come on PinkMona!→http://pinkmona.org,0,0,0,False
444,Crypto Price Ticker@TickerCrypto,"#MonaCoin #MONA 0.00016002 BTC via #MonaCoinBot
#Bitcoin #BTC #AltCoin #BlockChain #BOT",0,0,0,False
445,Julia Vaingurt@julia_vaingurt,"#Bitcoin digital art & scarcity #crypto #cryptocurrency http://cur.lv/u2wjl
http://cur.lv/u2wjo",0,0,0,False
447,FINTECHNA@fintechna,BitcoinBuzzV9: http://bitcoinbuzz.vega9.com  - Hot topics: #bitcoin #crypto #cryptocurrency #btc #fintech #blockchain,0,0,0,False
448,Crypto Price Ticker@TickerCrypto,"#TrollCoin #TROLL 0.00000011 BTC via #TrollCoinPrice
#Bitcoin #BTC #AltCoin #BlockChain #BOT",0,0,0,False
449,Security News Bot@SecurityNewsbot,"Reverser laments #crypto game protection, says wares dead after 2018 http://news.hitb.org/content/reverser-laments-crypto-game-protection-says-wares-dead-after-2018… #HITB",0,0,0,False
450,BitcoinBuzz vega9@BitcoinBuzzV9,http://bitcoinbuzz.vega9.com - Hot topics: #bitcoin #crypto #cryptocurrency #btc #fintech #blockchain,1,0,0,False
452,Crypto Price Ticker@TickerCrypto,"#Bitcoin last trade

btcecom $445.99
cryptsy $430.31

Set #crypto #price #alerts at http://AlertCo.in via #A…",0,0,0,False
453,Crypto Price Ticker@TickerCrypto,"#Bitcoin last trade

bitstamp $448.75
bitfinex $448.89
coinbase $450.66

Set #crypto #price #alerts at …",0,0,0,False
454,AlertCo.in@AlertCoin,"#Bitcoin last trade

@btcecom $445.99
@cryptsy $430.31

Set #crypto #price #alerts at http://AlertCo.in",1,2,0,False
455,AlertCo.in@AlertCoin,"#Bitcoin last trade

@bitstamp $448.75
@bitfinex $448.89
@coinbase $450.66

Set #crypto #price #alerts at http://AlertCo.in",1,0,0,False
456,Coinfeed@CoinfeedIO,#Cryptocurrency DNotes Announces New 2016 Venture - NEWSBTC http://tinyurl.com/ovwuyjx,1,0,0,False
457,Denny McEnroe@McEnroeDenny,Re: Scrypt.CC | Scrypt Cloud Mining http://cur.lv/u2w8x #bitcoin #crypto,0,0,0,False
458,Denny McEnroe@McEnroeDenny,Re: [ALL SOLD] 1100w Platinum (94%) server PSUs/breakout boards w/cables http://cur.lv/u2w8u #bitcoin #crypto,0,0,0,False
459,Denny McEnroe@McEnroeDenny,Re: List best paying investor based game http://cur.lv/u2w8r #bitcoin #crypto,0,0,0,False
460,Denny McEnroe@McEnroeDenny,Re: !!!NOW AUTO BUY!!!    $100 VCC for sale http://cur.lv/u2w8q #bitcoin #crypto,0,0,0,False
461,Agrobazaar Online@agrobazaar_msia,#startupXcel: RT BitcoinzWoman: Controversial #bitcoin #startup #ceo resurfaces after disappearance #crypto #crypt… https://pic.twitter.com/XE4xVUbXug,0,0,0,False
462,Crypto Price Ticker@TickerCrypto,"#HamRadioCoin #HAM 0.00000409 BTC via #HAMRadioCoinBot
#Bitcoin #BTC #AltCoin #BlockChain #BOT",2,0,0,False
463,Crypto Price Ticker@TickerCrypto,"#Triangles #TRI 0.00055552 BTC via #TrianglesTRI
#Bitcoin #BTC #AltCoin #BlockChain #BOT",2,0,0,False
464,Crypto Price Ticker@TickerCrypto,"#AudioCoin #ADC 0.00000040 BTC via #AudioCoinBot
#Bitcoin #BTC #AltCoin #BlockChain #BOT",1,0,0,False
465,Евдоким Лындин@osseKluge,Are you tired of risking and losing money? Passive Income https://goo.gl/vZNiSA #crypto #bitcoin #ff https://pic.twitter.com/2mV8zH3M59,0,0,0,False
466,Crypto Price Ticker@TickerCrypto,"#CannaCoin #CCN 0.00005137 BTC via #CannaCoinCCN
#Bitcoin #BTC #AltCoin #BlockChain #BOT",0,0,0,False
467,Crypto Price Ticker@TickerCrypto,"#WorldCoin #WDC 0.00001360 BTC via #WorldCoinBot
#Bitcoin #BTC #AltCoin #BlockChain #BOT",0,0,0,False
468,Crypto Price Ticker@TickerCrypto,"#CannabisCoin #CANN 0.00000699 BTC via #CannabisCoinBot
#Bitcoin #BTC #AltCoin #BlockChain #BOT",0,0,0,False
469,CryptoKat@CryptoCatAdvice,#Bitcoin and #Altcoins have been looking good end of 2015. I am ready to make a return for a big #crypto bang in 2016,0,0,0,False
470,Crypto Price Ticker@TickerCrypto,"#MonaCoin #MONA 0.00016004 BTC via #MonaCoinBot
#Bitcoin #BTC #AltCoin #BlockChain #BOT",1,0,0,False
471,Team 300FPS ︻╦̵̵̿╤─@300FPSGAMING,"Cryptsy Has Moved Out of Their Building Unannounced, Nowhere to be Found http://btcf.co/1RqSATt #bitcoin #bitcoinnews #btc #cryptocurrency",1,0,0,False
472,Johnny Smirk@BTCJohnny,"Did you receive your 0.22 BTC Donation?
Get it Here. http://Bit.ly/iCharity2016
#bitcoin
#bitcoins
#btc
#crypto
#cryptocurrency
#altcoinsiCharity ClubPeer-2-Peer Systematic Donation Systemicharity.club",1,0,0,False
473,Altcoin Faucet List!@altcoins5,"Earn #bitcoins for Kanye's #Swish
http://bit.ly/BTCfct free high paying #faucet #crypto
Huge #Altcoin faucets @ http://bit.ly/fctlist1",0,0,0,False
474,GarmentsTerms.Com@GarmentsTerms,"100x your money. XST is a cheap altcoin like BitCoin BTC. #xst #altcoin #bitcoin @stealthcoin
http://goo.gl/0WcTnq",1,0,0,False
475,digit@_digit_,#Cryptsy: #MtGox Junior? https://crd.ht/GsdWChy #scams #bitcoin #altcoins #paulvernon #mintsy #marshalllong #crapsy #projectinvestors,0,0,0,False
476,Crypto Price Ticker@TickerCrypto,"#SexCoin #SXC 0.00000161 BTC via #SexCoinSXC
#Bitcoin #BTC #AltCoin #BlockChain #BOT",1,0,0,False
477,Crypto Price Ticker@TickerCrypto,"#CannaCoin #CCN 0.00005802 BTC via #CannaCoinCCN
#Bitcoin #BTC #AltCoin #BlockChain #BOT",0,0,0,False
478,Crypto Price Ticker@TickerCrypto,"#Ripple #XRP 0.00001330 BTC via #RippleXRPbot
#Bitcoin #BTC #AltCoin #BlockChain #BOT",0,0,0,False
479,Crypto Price Ticker@TickerCrypto,"#WorldCoin #WDC 0.00001350 BTC via #WorldCoinBot
#Bitcoin #BTC #AltCoin #BlockChain #BOT",0,0,0,False
480,Crypto Price Ticker@TickerCrypto,"#CannabisCoin #CANN 0.00000921 BTC via #CannabisCoinBot
#Bitcoin #BTC #AltCoin #BlockChain #BOT",0,0,0,False
481,Crypto Price Ticker@TickerCrypto,"#MonaCoin #MONA 0.00015967 BTC via #MonaCoinBot
#Bitcoin #BTC #AltCoin #BlockChain #BOT",0,0,0,False
482,FINTECHNA@fintechna,BitcoinBuzzV9: http://bitcoinbuzz.vega9.com  - Hot topics: #bitcoin #micropayments #cryptocurrency #crypto #btc #fintech,0,0,0,False
483,BitcoinBuzz vega9@BitcoinBuzzV9,http://bitcoinbuzz.vega9.com - Hot topics: #bitcoin #micropayments #cryptocurrency #crypto #btc #fintech,1,0,0,False
484,dailybitcoin@mihai81leu,Swiscoin #cryptocurrency http://ln.is/blogspot.com/pelAP…,0,0,0,False
485,Vindyne8@Vindyne8,Love #BTC? Love #altcoins? Support real #bitcoin biz! Head to http://bitstickers.net just $1 ships anywhere! #RT,12,12,0,False
486,Crypto Price Ticker@TickerCrypto,"#GeoCoin #GEO 0.00005350 BTC via #GeoCoinBot
#Bitcoin #BTC #AltCoin #BlockChain #BOT",1,0,0,False
487,Anthem Vault Inc.@AnthemVault,Check out the interview that covers @anthemhayek Randian name and digital gold! http://ow.ly/WLRu4 #aynrand #crypto #gold #bullion,1,1,0,False
488,"Amagi Metals, Inc@AmagiMetals",Check out the interview that covers @anthemhayek Randian name and digital gold! http://ow.ly/WLRs3 #aynrand #crypto #gold #bullion,0,0,0,False
489,Vindyne8@Vindyne8,Support real #crypto infrastructure and business $bitnodes https://bitnodes.net/services/crowdfunding/ivugeoevolutioncoin-node/… @IvugeoCoin $IEC #BTC,14,14,0,False
490,Julia Vaingurt@julia_vaingurt,"c0ffer Gemstone Store (WIP) now up http://cur.lv/u2tli
#bitcoin #gemstones #altcoin $c0c0 #c0fferCoin just got very interesting #RT",1,2,0,False
491,Vindyne8@Vindyne8,c0ffer Gemstone Store (WIP) now up http://c0ffer.com/store #bitcoin #gemstones #altcoin $c0c0 #c0fferCoin just got very interesting #RT,12,13,0,False
492,Altcoin Faucet List!@altcoins5,Cool #game to #earn #bitcoin #satoshi http://bit.ly/1O83KbB Free bitcoins in a farmville style game! #cryptocoin #crypto #cryptocurrency,1,0,0,False
493,Vindyne8@Vindyne8,Help $swagbucks$ beta test altcoin bootstrap torrent site http://cryptoleecher.rocks 100 users can sign up now #torrent #crypto #btc #RT,13,12,0,False
494,Crypto Price Ticker@TickerCrypto,"#CannaCoin #CCN 0.00005805 BTC via #CannaCoinCCN
#Bitcoin #BTC #AltCoin #BlockChain #BOT",0,0,0,False
495,Crypto Price Ticker@TickerCrypto,"#Ripple #XRP 0.00001315 BTC via #RippleXRPbot
#Bitcoin #BTC #AltCoin #BlockChain #BOT",0,0,0,False
496,EtherialCryptoBot@EtherialCrypto,[AUTO] I am currently holding 15 unique #altcoins. According my config I can open a maximum of 15 trades.,0,0,0,False
498,dailybitcoin@mihai81leu,Welcome for *Financial* Independence !: New Swiscoin based #cryptocurrency SCN launched http://ln.is/blogspot.com/2YDuu…,0,0,0,False
499,Crypto Price Ticker@TickerCrypto,"#WorldCoin #WDC 0.00001709 BTC via #WorldCoinBot
#Bitcoin #BTC #AltCoin #BlockChain #BOT",0,0,0,False
500,Crypto Price Ticker@TickerCrypto,"#CannabisCoin #CANN 0.00000646 BTC via #CannabisCoinBot
#Bitcoin #BTC #AltCoin #BlockChain #BOT",0,0,0,False
501,Denny McEnroe@McEnroeDenny,"Re: [ANN] Diamond (DMD) Evolution v 2.0 | NEW wallet, 50% POS Active http://cur.lv/u2t7v #bitcoin #crypto",0,0,0,False
502,Denny McEnroe@McEnroeDenny,Re: Is there any special method to make bitcoins ? let's exchange methods http://cur.lv/u2t7t #bitcoin #crypto,0,0,0,False
503,Denny McEnroe@McEnroeDenny,Re: Unlimited Bitcoins For Everyone http://cur.lv/u2t7r #bitcoin #crypto,0,0,0,False
504,Denny McEnroe@McEnroeDenny,Re: Xapo's all mobile apps suddenly dissappeared on Google Play? http://cur.lv/u2t7p #bitcoin #crypto,0,0,0,False
505,Julia Vaingurt@julia_vaingurt,"Blockchain #startup #gem closes $71 million series a #bitcoin #crypto #cryptocurrency http://cur.lv/u2t09
http://cur.lv/u2t0a",0,0,0,False
507,Crypto Price Ticker@TickerCrypto,"#Monero #XMR 0.00108044 BTC via #MoneroXMRbot
#Bitcoin #BTC #AltCoin #BlockChain #BOT",1,0,0,False
508,Tanya M. Pogue@tanyapogue,Controversial #bitcoin banking startup CEO resurfaces nearly 2 years after disappearance | CoinDesk: http://coinde.sk/22QpeBd #cryptocurrency,0,0,0,False
509,VAPEPENstore@VAPEPENstore,DarkKnight BRAVE 3in1 Vape  http://vapepenSSStore.com <- #FL #Miami #Miramar #SmokeShop #Wellness #Perfect #Crypto,2,0,0,False
510,FINTECHNA@fintechna,Bitcoin_Rush: CryptoGoss_MBTC on https://facebook.com/BitcoinRushNow  #bitcoinrush #crypto #news #fintech #Australia,0,0,0,False
511,Crypto Price Ticker@TickerCrypto,"#MonaCoin #MONA 0.00015895 BTC via #MonaCoinBot
#Bitcoin #BTC #AltCoin #BlockChain #BOT",1,0,0,False
512,Gabriel Tello@benja2012capo1,"Buy into StealthCoin and making 100x your money. XST is a cheap altcoin like BitCoin BTC. #xst #altcoin #bitcoin @stealthcoin 
goo.gl",0,0,0,False
