,user,text,likes,retweets,replies,is_thread
0,AlertCo.in@AlertCoin,"#Bitcoin last trade

@bitfinex $421.34
@btcecom $424.80

Set #crypto #price #alerts at http://AlertCo.in",3,0,0,False
1,AlertCo.in@AlertCoin,"#Bitcoin last trade

@bitstamp $422.76
@coinbase $419.92

Set #crypto #price #alerts at http://AlertCo.in",3,0,0,False
2,Chokri AlGhanmi@GhanmiChokri,"New #Altcoin Valorbit : get free coins http://cho29.mywapblog.com/valorbit-is-a-cryptocurrency-similar-wit.xhtml…
#valorbit #coins #bitcoin #btc",1,0,0,False
3,Crypto Yoyo@cryptoyoyo,Are Domains The New Bitcoin? http://bit.ly/1QsHMin #bitcoin #crypto #news,0,0,0,False
4,Julia Vaingurt@julia_vaingurt,"#Bitcoin price watch; here’s today’s strategy #crypto #cryptocurrency http://cur.lv/w2948
http://cur.lv/w2949",2,0,0,False
5,CryptoFact@CryptoFact,Favorite #MMA @jonfitchdotnet #jonfitch is a #crypto #bitcoin $HYPER Supporter Thanks Jon! #esports #GoJonFitchImgurimgur.com,5,2,0,False
6,SafeLogic@SafeLogic,Heading to @RSAconference '16? Need certified #crypto? You can relax. @SafeLogic has your back.,0,0,0,False
7,Armor Animal Health@Armor365,Our March KISSavings flyer is out and features a FREE Bottle of BoviCare. #Farmers #Crypto https://animart.com/store/bovicare-special…,0,0,0,False
8,NE Patriots Dynasty@NEPatsDynasty,Great Blog on #crypto #cryptocurrency Click http://juddbagley.io/bitcoin/blockchain/nasdaq-is-joining-the-blockchain-trading-party/… SHARE,1,0,0,False
9,Cyber Warrior @syedkami70,#DROWN Flaw Illustrates Dangers of Intentionally Weak #Crypto https://threatpost.com/drown-flaw-illustrates-dangers-of-intentionally-weak-crypto/116555/… -@threatpostDROWN Flaw Illustrates Dangers of Intentionally Weak CryptoThe massive DROWN vulnerability resurrects fears over lingering export-grade cryptographythreatpost.com,0,0,0,False
10,Team 300FPS ︻╦̵̵̿╤─@300FPSGAMING,MAIDsafe Technical Analysis for 03/02/2016 – Price Stuck in Range http://btcf.co/1TTfF0m #bitcoin #bitcoinnews #btc #cryptocurrency,0,0,0,False
11,Cryptolized™@Cryptolized,Bitcoin Gives Peace a Chance: Interview with Angela Keato... http://twib.in/l/x8ALAzG7rrX #cryptocurrency | https://twibble.ioBitcoin Gives Peace a Chance: Interview with Angela Keaton of AntiWar.comAngela Keaton of AntiWar.com talks the invaluable role of Bitcoin in funding controversial activism.cointelegraph.com,0,0,0,False
15,Cryptocrawl@branziggracerx,"$MUE THE De facto #Crypto @ 2 #VEGAS Shopping MALLS
@THEHUMANFAUCET #DTLV #18b #Cryptocrawl
http://cryptocrawl.org http://facebook.com/cryptocrawl",3,3,0,False
16,Paulo Félix@osint,#OSINT #Crypto pioneers #Diffie and #Hellman win Nobel Prize of Computing http://opensources.info/crypto-pioneers-diffie-and-hellman-win-nobel-prize-of-computing/…,1,0,0,False
17,David Liam@crazydaveorama,Japan Needs to Drop #Bitcoin Tax #cryptocurrency #altcoin http://taxationinfonews.com/2016/03/japan-needs-to-drop-bitcoin-tax/…,0,0,0,False
18,Lisk@LiskHQ,"Lisk Country Ambassadors Initiative 

https://blog.lisk.io/lisk-country-ambassadors-initiative-6fccbcabcb15…
#bitcoin #blockchain #cryptocurrency",20,13,0,False
19,Anthem Vault Inc.@AnthemVault,"Global #Tech leader, Japan, may be embracing Bitcoin: http://ow.ly/YZrjU #moneynews #currency #BTC #crypto #blockchain",0,0,0,False
20,David Liam@crazydaveorama,HYPR Partners With #Cryptocurrency #Blockchain Vault #biometrics http://findbiometrics.com/hypr-partners-with-cryptocurrency-blockchain-vault-303015/…,1,0,0,False
21,NE Patriots Dynasty@NEPatsDynasty,#ILGamos and their NEW #ILCoin. 4 in 1 Trading platform. Stock up 35%.  http://INVEST.ilgamos.com/buy?buy_type=1 #Crypto #Nasdaq #ETRADE,0,0,0,False
22,David Liam@crazydaveorama,Free&Decentralised #Bitcoin & #cryptocurrency Event #CoinFest2HoldMassiveManchesterMeet-up http://ibt.uk/A6URV via @IBTimesUK #bitcoinFree and decentralised Bitcoin and cryptocurrency event CoinFest to hold massive Manchester meet-upCoinFest UK will take place over two floors in Manchester's MadLab over the 8th and 9th April and is free to attend.ibtimes.co.uk,1,0,0,False
23,Null TX@nulltxnews,MAIDsafe Technical Analysis for 03/02/2016 – Price Stuck in Range http://goo.gl/OwRKXq #bitcoin #bitcoinnews #btc #cryptocurrency,0,0,0,False
24,"Amagi Metals, Inc@AmagiMetals","Global #Tech leader, Japan, may be embracing Bitcoin: http://ow.ly/YZri8 #moneynews #currency #BTC #crypto #blockchain",0,0,0,False
25,SteveBurgessForensic@SteveBurgess01,Double-spending #BitCoin @BitBet #cryptocurrency http://ow.ly/YZRcB,0,0,0,False
26,Bitcoin Hourly@bitcoin_hourly,"Price Update: 1 #Bitcoin = $424.3400

#cryptocurrency source http://yhoo.it/1PH2nON (via @Flutter_HQ)",1,0,0,False
27,BitcoinBuzz vega9@BitcoinBuzzV9,http://bitcoinbuzz.vega9.com - Hot topics: #bitcoin #dogecoin #btc #cryptocurrency #money #news,0,0,0,False
28,Rhian Lewis@rhian_is,Traffic's up on http://countmycrypto.com today - everyone checking how their #ETH is doing :) @countmycrypto #cryptocurrency #altsareback,4,3,1,False
29,Crypto Yoyo@cryptoyoyo,New Fund Aims to Bring Bitcoin Mining Profits to High Net-Worth Investors http://bit.ly/1oZPlXm #bitcoin #crypto #news,0,0,0,False
30,Crypto Yoyo@cryptoyoyo,Butterfly Labs Corrects Record on Settlement With FTC and Future Plans http://bit.ly/1WVxE5B #bitcoin #crypto #news,0,0,0,False
31,Crypto Yoyo@cryptoyoyo,Bitcoin conference in South Africa convenes to discuss challenges and opportunities http://bit.ly/1oZPj1A #bitcoin #crypto #news,0,0,0,False
32,Dr. Cathryn Marsh@cathryn_marsh,"Making sense of #bitcoin, #cryptocurrency, and #blockchain. PwC explains: http://pwc.to/210bCzH",1,0,0,False
33,David Liam@crazydaveorama,#Navajocoin – State of the art #anonymous network now in beta testing #cryptocurrency #altcoinNavajocoin – State of the art anonymous network now in beta testingNavajocoin is a proof of stake cryptocurrency launched in July of 2014. It uses POS to mine blocks which means it is more environmentally friendly because there is no need for huge mining farms endlesthemerkle.com,0,0,0,False
34,Al T. Coin@AltCoinXOrg,@wigitgetit Please note the time & Value of #TX now. per #Branzig Thank you. #Transfercoin #Cryptocrawl #Cryptocurrency @THEHUMANFAUCET #MUE,2,3,0,False
48,David Liam@crazydaveorama,European Authorities Shut Down Five #Darknet Websites #darkweb #darkmarket #cryptocurrency https://cryptocoinsnews.com/european-authorities-shut-down-five-darknet-websites/… via @CryptoCoinsNews,0,0,0,False
49,osint-crew@OsintCrew,Eijah : @demon_saw    Hundreds of Sites DROWNing in Old Crypto http://ow.ly/YZZwR  #Crypto #Security #Demonsaw http://bit.ly/1UzGc3n,1,0,0,False
50,All Things Decentral@btcswag,"When in doubt, just remember. You'll always be able to buy alpaca socks with #bitcoin. http://allthingsbtc.com/products/alpaca-socks… #crypto #swag",0,0,0,False
51,Team 300FPS ︻╦̵̵̿╤─@300FPSGAMING,New Fund Aims to Bring Bitcoin Mining Profits to High Net-Worth Investors http://btcf.co/218BjhD #bitcoin #bitcoinnews #btc #cryptocurrency,0,0,0,False
52,Farah K. Miraza@farahkaifa,#cryptocurrency #crypto Bitcoinn Monday Blues Due to Spam Transactions on Blockchain Network http://ow.ly/3bZ6l2,0,0,0,False
53,Matthias Fuhr@fuhrmatthias,Just imagine a world #crypto without #diffiehellman. Not a pleasant place. Time to honor their work #TuringAwardCRYPTOGRAPHY PIONEERS RECEIVE ACM A.M. TURING AWARDdocument on 2015 turingawards.acm.org,0,0,0,False
54,Bitcoin Hourly@bitcoin_hourly,"Price Update: 1 #Bitcoin = $428.4200

#cryptocurrency source http://yhoo.it/1PH2nON (via @Flutter_HQ)",0,0,0,False
55,Julia Vaingurt@julia_vaingurt,"Japanese legislator calls for #bitcoin tax exemption #crypto #cryptocurrency http://cur.lv/w26mr
http://cur.lv/w26ms",0,0,0,False
56,Eijah@demon_saw,Hundreds of Sites DROWNing in Old Crypto http://ow.ly/YZZwR #Crypto #Security #Demonsaw,2,4,0,False
57,John McNeely@john_mcneely,Crypto pioneers Diffie and Hellman win Nobel Prize of Computing - Help Net Security http://ow.ly/YYVQM #Crypto #TechPioneers,0,0,0,False
58,Crypto Yoyo@cryptoyoyo,New Bitcoin and Litecoin Miners on Offer from PH Miners Inc. http://bit.ly/21EbCet #bitcoin #crypto #news,0,0,0,False
59,Crypto Yoyo@cryptoyoyo,"The Dream of Buying a Coffee With Bitcoin Is Dying, If It's Not Already Dead http://bit.ly/1oQ9ePG #bitcoin #crypto #news",0,0,0,False
60,Crypto Yoyo@cryptoyoyo,Bitcoin's nightmare scenario has come to pass http://bit.ly/21EbBqF #bitcoin #crypto #news,0,0,0,False
61,Crypto Yoyo@cryptoyoyo,How to become a Bitcoin miner http://bit.ly/1oQ9ezp #bitcoin #crypto #news,0,0,0,False
62,Crypto Yoyo@cryptoyoyo,Bitcoins Are Not Dollars in Bankruptcy Court http://bit.ly/1oQ9ezn #bitcoin #crypto #news,0,0,0,False
63,Edwin Zijderveld@easynl,"@easynl Split is almost there 93%, you can double your #tokens, 100% profit, very wise to start mining a.s.a.p en get your #onecoin #Crypto",0,0,0,False
78,Team 300FPS ︻╦̵̵̿╤─@300FPSGAMING,The Case for Ripple in the Age of Big Bank Blockchains http://btcf.co/1WVscj3 #bitcoin #bitcoinnews #btc #cryptocurrency,0,0,0,False
79,Alejandro Sewrjugin@alesew23,#Bitcoin The Case for Ripple in the Age of Big Bank Blockchains http://bit.ly/1Y2E0Bf #Tech #Crypto,0,0,0,False
80,Fintech Prowler@FintechProwler,Five Blockchain Startups Accepted into Plug and Play's FinTech Accelerator - The Merkle (blog) http://ift.tt/1Sj6Exz #altcoin,0,0,0,False
81,notsofast@notsofast,Replying to @hankeh@hankeh it's regulated by the #altcoin honesty code,1,1,0,False
82,Valerie Bubb Fenwick@bubbva,History of Security Dynamics and RSA. RSA vs NSA: hero or public enemy #1? #PKCS #crypto,0,0,0,False
83,Arish Dubash@happyarish,"Bitcoin (btcUSD=x) price on March 02, 2016 is 428.34. #bitcoin #toTheMoon #cryptoCurrency #newMoney",0,0,0,False
84,John F. McClure@johnmcclure00,DROWN Attack on TLS – Everything You Need To Know http://bit.ly/1oQ6pOO #drown #tls #ssl #crypto #infosec #privacy,0,0,0,False
85,Qbit Federation@QbitFederation,How Do Qbits Work? - Part 1 http://qbitfederation.org/blog/how-do-qbits-work---part-1.html… #Blockchain #Bitcoin #Cryptocurrency #DigitalCash #Money #Economy #Banking,1,1,0,False
86,Valerie Bubb Fenwick@bubbva,“I licensed this technology so I can shop naked without being exposed” Jim B #pkcs #crypto,0,0,0,False
87,Valerie Bubb Fenwick@bubbva,"Remember that little known company, Netscape, in 1994? They wanted to build security into the browser. #PKCS #crypto",0,0,0,False
88,Valerie Bubb Fenwick@bubbva,Victor Chang remembers #PKCS starting out in a small conference room in Sofitel #crypto,0,0,0,False
89,Security News Bot@SecurityNewsbot,DROWN #Flaw Illustrates Dangers of Intentionally Weak #Crypto http://threatpost.com/drown-flaw-illustrates-dangers-of-intentionally-weak-crypto/116555/… #Threatpost,1,0,0,False
90,CryptoCoinsMarket@ccoinmarket,Slush Pool Voting Shows Bitcoin Classic in Early Lead http://ift.tt/1UzvPfY http://ift.tt/1Lyzmt0 #crypto #bitcoin,0,0,0,False
91,Valerie Bubb Fenwick@bubbva,"In 1991, US govt wanted key escrow… Sound familiar? #PKCS #crypto",0,0,0,False
92,Valerie Bubb Fenwick@bubbva,"“Now that we have customers, it would be nice if these things could work together.“ #PKCS #crypto",0,0,0,False
93,Valerie Bubb Fenwick@bubbva,Originally planned to verify certs with touch tone phones. #crypto #PKCS,0,0,0,False
109,Releaser@ReleaserOfGoods,"https://mega.nz/#!6IRhlSDb!adNRknwDiLilqltqiU2zXQx_sTwtCP_Z9_PClDRc4AU… - leaked at last, the developers bitcoin version #bitcoin #altcoin #cryptocurrency #dogecoin #btc #wallstreet #nyse",1,0,0,False
110,Valerie Bubb Fenwick@bubbva,"Happy to have Ron Rivest, Whitfield Diffie, and Martie Hellman here for lunch. #pkcs #crypto  (and congrats Martie and Whit #Turing)",1,0,0,False
111,Valerie Bubb Fenwick@bubbva,. @modulomathy talking about history of #PKCS #crypto . First meeting in March 1991. How things have changed!,0,0,0,False
112,Bitcoin Hourly@bitcoin_hourly,"Price Update: 1 #Bitcoin = $428.8500

#cryptocurrency source http://yhoo.it/1PH2nON (via @Flutter_HQ)",0,0,0,False
113,Michael Parsons@BitcoinByte,"Savers of the future could Bank with the Bank of England using digital #Bitcoin like #cryptocurrency
http://dailym.ai/1pnQvvx
@IOHK_Charles",9,3,1,False
114,DJ Dab 玄龍 Xuanlong@djdabblin,RT @cryptocointalk: #UNO added to #UberPay Multicoin wallet for #Android - https://cryptocointalk.com/topic/45213-uno-added-to-uberpay-multicoin-wallet-for-android/… #altcoin #cryptocurrency,1,1,0,False
115,Denny McEnroe@McEnroeDenny,"Re: Guys, is this why ETH is goin to the moon? http://cur.lv/w24vo #bitcoin #crypto",0,0,0,False
116,Denny McEnroe@McEnroeDenny,Re: my new bitcoin faucet http://cur.lv/w24vn #bitcoin #crypto,1,0,0,False
117,Denny McEnroe@McEnroeDenny,Re: (ⓝⓔⓦ) Coin Generator ▲ HYBRID FAUCET ▲ build your city ▲ real business <·´¯`·. http://cur.lv/w24vl #bitcoin #crypto,0,0,0,False
118,Denny McEnroe@McEnroeDenny,Re:  http://MoneyPot.com -- The Bitcoin Gambling Wallet  [Official] Phase 1 http://cur.lv/w24vj #bitcoin #crypto,0,0,0,False
119,Julia Vaingurt@julia_vaingurt,"Bitfury group invests in #bitcoin #trading platform bitpesa #crypto #cryptocurrency http://cur.lv/w24uz
http://cur.lv/w24v0",0,0,0,False
120,Unobtanium $UNO News@unobtanium_uno,$UNO is hot today! Trade $UNO on @BLEUTRADE exchange! #GotUNO?  https://bleutrade.com/exchange/UNO/BTC… #altcoin,0,0,0,False
121,Unobtanium $UNO News@unobtanium_uno,$UNO blasts through .005.  #altcoin https://twitter.com/KryptRichards/status/705084137154154496…This Tweet is unavailable.,0,0,0,False
132,Denny McEnroe@McEnroeDenny,Re: why transactions are taking too long ? http://cur.lv/w24mr #bitcoin #crypto,0,0,0,False
133,Denny McEnroe@McEnroeDenny,Re:  http://MoneyPot.com -- The Bitcoin Gambling Wallet  [Official] Phase 1 http://cur.lv/w24mp #bitcoin #crypto,0,0,0,False
134,Denny McEnroe@McEnroeDenny,Re: How to make 17 BTC out of 7 BTC ? http://cur.lv/w24mi #bitcoin #crypto,0,0,0,False
135,Budzor@Budzor_,Such a great service offered by http://CryptoChainer.com download your #altcoin blockchains today... @CryptoChainer #cryptocurrency #bitcoin,1,1,0,False
136,Kevin Nishioka@Kevin_Nishioka,"Making sense of #bitcoin, #cryptocurrency, and #blockchain. PwC explains: http://pwc.to/210bCzH",2,0,0,False
137,Adam Richard@adamwrichard,#Crypto 2.0 Musings - Kit #Blockchain #Protocols http://ift.tt/1VR4CUA,1,0,0,False
138,Carol Merélhes@CarolDobrev,Are you tired of risking and losing money? http://goo.gl/vZNiSA #bitcoin #litecoin #dogecoin #Cryptocurrency #Webmoney,0,0,0,False
139,rssbtc.com@rssbtc,"24 Hours of #Bitcoin 
-0.45% price $430.31 USD 
-4.57% volume $238.M 
-0.60% market cap $6.66B

#fintech #btc #crypto #usd #satoshi",1,0,0,False
140,Fintech Prowler@FintechProwler,Bitwage Obtains Insurance on Client Bitcoin Deposits - The Merkle (blog) http://ift.tt/1OQRxEZ #altcoin,0,0,0,False
141,Nasreen Quibria@nquibria,"Good read» We Must Regulate #Bitcoin. Problem Is, We Don’t Understand It http://ow.ly/YZfRd via @WIRED #cryptocurrencyWe Must Regulate Bitcoin. Problem Is, We Don't Understand ItRegulation should be elaborated carefully lest it curtail the future of blockchain technologies.wired.com",0,0,0,False
142,NE Patriots Dynasty@NEPatsDynasty,#CryptoCurrency is the future of #Money and Payments with NO FEES. Become a new Partner in ILGAMOS. Join FREE. http://GoldNews.ILGamos.com,1,0,0,False
143,Firenze@fire_nze,Cloud Mining vs Traditional Mining: How to Minimize Risks http://goo.gl/XkHSDL #btc #blockchain #cryptocurrency,1,0,0,False
144,CryptoRSS@CryptoRSS,"SSLv2 DROWN Attack: Original release date: March 01, 2016
Network traffic encrypted using an RSA-bas... http://bit.ly/1Rp7lAJ #crypto",0,0,0,False
145,Laurent Cheylus@lcheylus,"#UEFI SecureBoot on #Debian, using your own trust chain - Good HOWTO by @pollux7 #Crypto #Security http://buff.ly/1oOC3w5",2,1,0,False
146,Null TX@nulltxnews,How to become a Bitcoin miner http://goo.gl/YvWQfj #bitcoin #bitcoinnews #cryptocurrency #bitcoinmining #btc #xbt,2,2,0,False
147,Team 300FPS ︻╦̵̵̿╤─@300FPSGAMING,How to become a Bitcoin miner http://btcf.co/1Y2oKnV #bitcoin #bitcoinnews #btc #cryptocurrency,0,0,0,False
148,FXMGM Market Signals@fxmgm,Hi Mark Felix. Thanks for following our free twitter signals feed. full version there http://fxmgm.com #fx #forex #bitcoin #altcoin,0,0,0,False
149,Macca Tweeter@MaccaTweeter,#Zerotime is an #innovative feature of the #vanillacoin #cryptocurrency money sent and respendable in seconds #fintech #blockchain $vnl $xvc,3,4,0,False
150,Bitcoin Hourly@bitcoin_hourly,"Price Update: 1 #Bitcoin = $428.9200

#cryptocurrency source http://yhoo.it/1PH2nON (via @Flutter_HQ)",0,0,0,False
151,Mooncoin [MOON]@MooncoinItalia,Ledger Transforms Smartphones into Hardware Wallets #bitcoin #cryptocurrency http://cointelegraph.com/news/ledger-transforms-smartphones-into-hardware-wallets…,1,0,0,False
152,Coin Tiny@CoinTiny,Bank of England Dep. Governor: Digital Currency Puts Banks at Risk; Bitcoin Won’t Replace USD #CryptoCurrency #Cryp…,0,0,0,False
164,Crypto Yoyo@cryptoyoyo,Blockchain Monday Blues Due to Spam Transactions on Bitcoin Network http://bit.ly/21DQULL #bitcoin #crypto #news,0,0,0,False
165,Team 300FPS ︻╦̵̵̿╤─@300FPSGAMING,European Parliament Event Explores Coding Regulation into Blockchain http://btcf.co/1pnYPLZ #bitcoin #bitcoinnews #btc #cryptocurrency,1,0,0,False
166,Julia Vaingurt@julia_vaingurt,"Simplefx takes #bitcoin to promote anonymous cfd #trading #crypto #cryptocurrency http://cur.lv/w22q2
http://cur.lv/w22q3",1,1,0,False
167,Julia Vaingurt@julia_vaingurt,"European Parliament Event Explores Coding Regulation into Blockchain http://cur.lv/w22ov
http://cur.lv/w22oy
#Bitcoin #Crypto",0,0,0,False
168,Alejandro Sewrjugin@alesew23,#Bitcoin European Parliament Event Explores Coding Regulation into Blockchain http://bit.ly/21DOYCY #Tech #Crypto,0,0,0,False
169,Simba Bulla@SimbaBulla,Are you tired of risking and losing money? http://goo.gl/vZNiSA #bitcoin #litecoin #dogecoin #Cryptocurrency #Webmoney,0,0,0,False
170,Julia Vaingurt@julia_vaingurt,"Japan debates its #bitcoin tax #crypto #cryptocurrency http://cur.lv/w22iu
http://cur.lv/w22iv",2,0,0,False
171,Jordan Smith@JSoLovely,Does anyone know anything about #CryptoCurrency??,0,0,0,False
172,533DZ Foundation@wickrfdn,"Congrats to Whit Diffie & Martin Hellman on Turing Award, Nobel Prize of computing: http://amturing.acm.org #crypto http://amturing.acm.org",3,2,0,False
173,Tech BitCoin@tech_bitcoin,"""OptionsClick – Trade Binary options and double your Bitcoins"" http://ift.tt/1WVgx3N #bitcoin #cryptoOptionsClick - Trade Binary options and double your BitcoinsOne of the most well-known Binary Options Broker accepting bitcoin is OptionsClick. OptionsClick is a binary options broker that was established in 2011.newsbtc.com",0,0,0,False
174,Tech BitCoin@tech_bitcoin,"""Blockchain Monday Blues Due to Spam Transactions on Bitcoin Network"" http://ift.tt/eA8V8J #bitcoin #cryptoBlockchain Monday Blues Due to Spam Transactions on BitcoinThe Bitcoin Network suffered from slow transactions due to a spam attack originating from a rogue wallet. Read more...newsbtc.com",0,0,0,False
175,BitcoinAgile@bitcoinagile,OptionsClick - Trade Binary options and double your Bitcoins - NEWSBTC #Bitcoin #Crypto http://bit.ly/1oPPwna,1,1,0,False
183,OpenFXMarket@OpenFXMarket,#bitcoin market index: 102.46 #OFXBTC. #altcoin market index (avg): 138.15 #OFXAVG by http://openfxmarket.com. Stay tuned!,0,0,0,False
184,Coin Tiny@CoinTiny,Bitcoin Freelancers Gain Wage Protection Through BitWage Upgrades #CryptoCurrency #Crypto,0,0,0,False
185,JeremyCee @JeremyCee,Men behind Diffie-Hellman key exchange receive top computer science prize http://buff.ly/1LxEttu #crypto #encryption #privacy,0,0,0,False
186,Branch 22 Capital@Branch22Capital,Ethereum is slowly on its way to overtaking Bitcoin. #fintech #bitcoin #ethereum #cryptocurrency #blockchain #algorithmeconomy,6,0,0,False
187,Bitcoin Hourly@bitcoin_hourly,"Price Update: 1 #Bitcoin = $428.9500

#cryptocurrency source http://yhoo.it/1PH2nON (via @Flutter_HQ)",0,0,0,False
188,Susan Compton Collins@ComptonCollins,#Bankers r coming on board w #cryptocurrency. Pls message me when u r ready 2 learn & participate. #OneCoin https://global.handelsblatt.com/edition/380/ressort/finance/article/a-banker-embraces-virtual-currency…,1,0,0,False
189,Julia Vaingurt@julia_vaingurt,"BDMiner24 Review http://cur.lv/w20y9
#bitcoin #bitcoinnews #btc #cryptocurrency",0,0,0,False
190,Team 300FPS ︻╦̵̵̿╤─@300FPSGAMING,BDMiner24 Review http://btcf.co/1QLQw2k #bitcoin #bitcoinnews #btc #cryptocurrency,0,0,0,False
191,BitcoinAgile@bitcoinagile,OpenBazaar Releases Public Test Version with Real Purchases #bitcoin #crypto #BTC #News http://bitcoinschannel.com/openbazaar-releases-public-test-version-with-real-purchases…,1,2,0,False
192,Robsteady@Robsteady,"She loves me, even when I'm being a big nerd. #mining #cryptocurrency #litecoin https://instagram.com/p/BCdf1y4ghP3/",1,0,0,False
193,BlockChannel@BlockChannel,BCN News: themerklenews: BDMiner24 Review http://themerkle.com/reviews/bdminer24-review/… #bitcoin #bitcoinnews #btc #cryptocurrency,0,0,0,False
194,Null TX@nulltxnews,BDMiner24 Review http://themerkle.com/reviews/bdminer24-review/… #bitcoin #bitcoinnews #btc #cryptocurrency,0,0,0,False
195,Crypto Yoyo@cryptoyoyo,Bitcoin Investment Startup Keza Launches iOS App http://bit.ly/1TordKv #bitcoin #crypto #news,0,0,0,False
196,Crypto Yoyo@cryptoyoyo,Bitcoin Price Decline Slow But Steady http://bit.ly/1oPKAyS #bitcoin #crypto #news,0,0,0,False
197,EUROPECOIN  (.eu.org)@europecoinEUORG,"EUROPECOIN 2.10  COMMIT ON GIT - ""EXPERTS"" - BUILD, TEST, TWEET we are always MOVING!! #crypto #Bittrex #altcoin RTQuote TweetEUROPECOIN  (.eu.org)@europecoinEUORG · Mar 2, 2016Thank you to @clark_alastair 4joining & helping with our bugfix #crypto #fintech #altcoin #bitcoin #bittrex RETWEET",8,7,0,False
203,Jorik Malachin@BvdJorik,Are you tired of risking and losing money? http://goo.gl/vZNiSA #bitcoin #litecoin #dogecoin #Cryptocurrency #Webmoney,0,0,0,False
204,Coin Tiny@CoinTiny,CRYPTOGRAPHY PIONEERS RECEIVE ACM A.M. TURING AWARD #CryptoCurrency #Crypto,0,0,0,False
205,Load Debit Card@LoadDebitCard,"Could a bitcoin-style monetary system spell the end for Britain's banks? http://gu.com/p/4h866/stw
#Bitcoin #Btc #Altcoins",0,0,0,False
206,12Joker18@12Joker18,Here you will find many good mining and sides free bitcoin. http://bitcoins-earn.com #bitcoin #bitcoinmining #freebitcoin #BTC #crypto,0,0,0,False
207,Bert Verbraeken@bertverbraeken,Read this article and decide to get them or not .  #onecoin   #cryptocurrency   http://onecoin.eu/signup/opnbertofun… https://plus.google.com/102367652525661759212/posts/L5pPnFAdqAT…,0,0,0,False
208,Load Debit Card@LoadDebitCard,Peercoin Debit Card #Peercoin to #debitcard with 40+ #altcoins at #LoadDebitCard @peercoin http://bit.ly/debitnow,1,0,0,False
209,Farah K. Miraza@farahkaifa,#cryptocurrency #crypto Thomson Reuters Announces Ethereum Blockchain Plans http://ow.ly/3bYA5P,0,0,0,False
210,Mark Bohannon@MarkBoTech,"Whatever your views on #crypto discussion, Prof Susan Landau's thoughtful testimony at @HouseJudiciary a must read http://m.wpi.edu/news/20156/landau_testimony.html…",0,0,0,False
211,Cossack Labs@cossacklabs,How many fails like this do we need to take obvious measures as a necessity? #security #crypto #protection http://zdnet.com/article/linux-mint-the-right-way-to-react-to-a-security-breach/#ftag=RSSbaffb68…,0,0,0,False
212,Bitcoin Hourly@bitcoin_hourly,"Price Update: 1 #Bitcoin = $428.7900

#cryptocurrency source http://yhoo.it/1PH2nON (via @Flutter_HQ)",0,0,0,False
213,XBTFreelancer.com@XBTFreelancer,http://xbtfreelancer.com/prj/968/website-cloning-with-same-design-style-and-with-all-functionalities… #job Website Cloning with same design style and with all functionalities #crypto #bitcoin #programming,0,0,0,False
214,BitcoinBuzz vega9@BitcoinBuzzV9,http://bitcoinbuzz.vega9.com - Hot topics: #bitcoin #btc #dogecoin #money #news #cryptocurrency,0,0,0,False
215,Erik Voorhees@ErikVoorhees,A glimpse of the new ShapeShift UI... https://beta.shapeshift.io/beta @ShapeShift_io #bitcoin #ethereum #dash #litecoin #cryptocurrency,11,14,2,False
216,Megabyte@megabyte101,#rimbit #bitcoin Privacy groups urge U.S. judge to support Apple in iPhone case: (Reuters) - D... http://bit.ly/21HI0tb #cryptocurrency,1,1,0,False
217,EUROPECOIN  (.eu.org)@europecoinEUORG,Thank you to @clark_alastair 4joining & helping with our bugfix #crypto #fintech #altcoin #bitcoin #bittrex RETWEET,9,5,1,False
218,FREE MONEY@FreeBitcoiners,"@AudaciousAff I just signed up for a free Bitcoin wallet which paid me $1 for using it - http://goo.gl/HDIs3i
#freebitcoin #altcoin",0,0,0,False
219,Team 300FPS ︻╦̵̵̿╤─@300FPSGAMING,Ledger Announces BOLOS Operating System http://xbtnews.net/2016/03/ledger-announces-bolos-operating-system/… #bitcoin #bitcoinnews #btc #cryptocurrency,0,0,0,False
227,BlockChannel@BlockChannel,BCN News: themerklenews: Ledger Announces BOLOS Operating System http://goo.gl/ZAq6nD #bitcoin #bitcoinnews #btc #cryptocurrency,0,0,0,False
228,Cryptolized™@Cryptolized,#rimbit #bitcoin Privacy groups urge U.S. judge to support Apple in iPhone case: (Reuters) - D... http://bit.ly/21HI0tb #cryptocurrency,0,0,0,False
229,Secrets@SecretsOfCrypto,#ethereum's market cap is roughly 10% of #bitcoin's $ETH $btc #cryptocoin #cryptocurrency,1,4,0,False
230,Null TX@nulltxnews,Ledger Announces BOLOS Operating System http://goo.gl/ZAq6nD #bitcoin #bitcoinnews #btc #cryptocurrency,1,0,0,False
231,Gareth Niblett@garethniblett,Apple’s privacy policy could earn it massive fines in France #crypto #privacy #backdoor http://cultofmac.com/415519/apples-privacy-policy-could-earn-it-massive-fines-in-france/…,1,0,0,False
232,David Liam@crazydaveorama,#Distributedledger tech could see Brits get Bank of England accounts - deputy governor #cryptocurrency https://finextra.com/newsarticle/28549/distributed-ledger-tech-could-see-brits-get-bank-of-england-accounts---deputy-governor… via @Finextra,1,0,0,False
233,CCN - Capital & Celeb News@CapitalAndCeleb,Kryptokit Launches Jaxx Bitcoin And Ethereum Wallet For Android Tablets https://cryptocoinsnews.com/kryptokit-launches-jaxx-bitcoin-ethereum-wallet-android-tablets/… #cryptocurrency,1,9,0,False
234,HYPR@HyprCorp,New partnership brings #biometrics to #blockchain | @VCurrencyToday #Bitcoin #BTC #crypto http://ow.ly/YZo8t,1,0,0,False
235,NE Patriots Dynasty@NEPatsDynasty,The New #money system #crypto #Ilcoin #ilgamos #Bitcoin http://ilgamosilcoin.com/ilgamos-oprs-ilcoins.html… future online payment system,0,0,0,False
236,Crypto Yoyo@cryptoyoyo,"Branching out in a crowded market: eSports, Bitcoin & DFS http://bit.ly/1TQWAwQ #bitcoin #crypto #news",0,0,0,False
237,Crypto Yoyo@cryptoyoyo,pH Miners Launches Powerful Cryptocurrency Miners for Bitcoin and Litecoin http://bit.ly/1TQWAgy #bitcoin #crypto #news,0,0,0,False
238,Crypto Yoyo@cryptoyoyo,Bitcoin Wallet Privacy Ratings Sees Ledger Grabbing Top Rank http://bit.ly/1LVq30Y #bitcoin #crypto #news,0,0,0,False
239,Crypto Yoyo@cryptoyoyo,BitFury Makes Investment in African Bitcoin Exchange BitPesa http://bit.ly/1TQWAgu #bitcoin #crypto #news,0,0,0,False
240,Crypto Yoyo@cryptoyoyo,Could a bitcoin-style monetary system spell the end for Britain's banks? http://bit.ly/1LVq5pA #bitcoin #crypto #news,0,0,0,False
241,Julia Vaingurt@julia_vaingurt,"Can Bitcoin Still Thrive in Argentina Without Price Controls? http://cur.lv/w1z0v
#bitcoin #crypto #news",0,0,0,False
242,Crypto Yoyo@cryptoyoyo,How Much Money Can You Actually Make from Bitcoin Faucets (February 2016 Update) http://bit.ly/1TQWAgn #bitcoin #crypto #news,0,0,0,False
243,Crypto Yoyo@cryptoyoyo,Can Bitcoin Still Thrive in Argentina Without Price Controls? http://bit.ly/1LVpZP0 #bitcoin #crypto #news,0,0,0,False
244,CryptoTradeADay@CryptoTradeADay,"#LongtermInvesting #Cryptocurrency #Ethereum is still a #Smart Long term #Investment, Safest place to get your #Ethereum is @Poloniex",3,0,0,False
245,Mathias Lafeldt @mlafeldt,Replying to @mlafeldtIf you have a strong background in crypto/number theory please explain. #crypto #help /cc @almutei,1,0,0,False
246,Mark Lee@Steeler1313,"CHC charna coin http://github.com/Charnasol/char … #fintech #projects #farming #trade #crypto #countries #banking #emergingmarkets
m",1,0,0,False
247,Mark Lee@Steeler1313,"Hotels can integrate and save millions on fees #fintech #cryptocurrency #fiat #fintech #hotels #paymentsystems http://charnawallet.biz 

m",2,0,0,False
248,Coin Tiny@CoinTiny,Bank of America Merrill Lynch explores using a blockchain for trade finance #CryptoCurrency #Crypto,0,0,0,False
259,Michael R. Zerby@michaelrzerby,The #Crypto Wars: #Apple’s Missed Opportunities http://cato.org/publications/commentary/crypto-wars-apples-missed-opportunities… via CatoInstitute | #AppleVsFBI #encryption #privacy #iOS #infosec,1,0,0,False
260,VAPEPENstore@VAPEPENstore,2.5in 4pc. SeeThru GRIND  http://vapepenSSStore.com <- #DC #instadc #DC #Dabbing #Wax #eCig #Addiction #Buzz #Crypto,1,0,0,False
261,Bitcoinist.com@bitcoinist,Blockchain Meets Biometrics: HYPR Corp. and BitGo Announce Partnership http://ift.tt/1QLBHwz #bitcoin #blockchain #btc #cryptocurrency #…,1,0,0,False
262,Team 300FPS ︻╦̵̵̿╤─@300FPSGAMING,Blockchain Meets Biometrics: HYPR Corp. and BitGo Announce Partnership http://btcf.co/1oPyNQX #bitcoin #bitcoinnews #btc #cryptocurrency,0,0,0,False
263,CryptoCoinsMarket@ccoinmarket,OpenBazaar Releases Public Test Version with Real Purchases http://ift.tt/1WV69ZO http://ift.tt/1pnQQyo #crypto #bitcoin,0,0,0,False
264,Julia Vaingurt@julia_vaingurt,"A step by step guide to firing up your own #bitcoin node #crypto #cryptocurrency http://cur.lv/w1ycx
http://cur.lv/w1ycy",0,0,0,False
265,rssbtc.com@rssbtc,"European Authorities Shut Down Five Darknet Websites - http://bit.ly/1QqMY6r
#btc #crypto #bitcoin",1,1,0,False
266,Farah K. Miraza@farahkaifa,#cryptocurrency #crypto Bank of England Concerned over Central Bank Bitcoin Clones http://ow.ly/3bYqrJ,0,0,0,False
267,Bitcoin Hourly@bitcoin_hourly,"Price Update: 1 #Bitcoin = $429.5500

#cryptocurrency source http://yhoo.it/1PH2nON (via @Flutter_HQ)",0,0,0,False
268,BitcoinBuzz vega9@BitcoinBuzzV9,http://bitcoinbuzz.vega9.com - Hot topics: #bitcoin #btc #robotcoingame #cryptocurrency #money #fintech,1,0,0,False
269,CryptoMentat@Xenderle,"Maybe @Ripple could be the answer to @Pravitelstvo_RF concerns of #cryptocurrency, but is it too ""American""?Quote TweetRipple@Ripple · Mar 2, 2016Distributed ledger technology can save banks money. A lot of money, according to Ripple’s calculations. http://pymnts.com/news/b2b-payments/2016/a-closer-look-at-ripples-money-saving-claims/… via @pymnts",1,0,0,False
270,Matty B. Bitcoins@mattbtc,Masternodes have a static cost to operate. Compared to the wild difficulty variables in  #cryptocurrency. #dash #bitcoin #bitcoininvestment,1,1,0,False
271,FXMGM Market Signals@fxmgm,Hi Juan Colon. Thanks for following our free twitter signals feed. full version there http://fxmgm.com #fx #forex #bitcoin #altcoin,1,0,0,False
284,rssbtc.com@rssbtc,"BitBet Falls Victim To Strange Bitcoin Double-Spend Behavior

http://bit.ly/1QqMrkR
#btc #crypto #bitcoin",0,0,0,False
285,Whitewood@WhitewoodCrypto,"Take the #Entropy Challenge, discover what netRandom does for networked #RNG. North Hall Booth 4915 #crypto #RSA2016 http://whitewoodencryption.com/whitewood-introduces-netrandom-a-system-for-the-network-delivery-of-true-random-numbers-in-data-centers-or-across-distributed-applications/…",0,0,0,False
286,iler kering@ilerkering,"Register with this link and get 1000 valorbit
 https://valorbit.com/signup/lOkoG9v4iMuxjdDobWmTPw… via @Valorbit #bitcoin #cryptocurrency #moneymaking",0,0,0,False
287,All Things Decentral@btcswag,Did you know that #bitcoin is magic internet money? #crypto #blockchain #cryptocurrency #soundmoney #endthefed #btc http://allthingsbtc.com/products/magic-internet-money…,0,0,0,False
288,DecentralizedCapital@Decen_Capital,Thomson Reuters Eyes #Ethereum Blockchain: http://bit.ly/21HB3s5 #altcoin #blockchain,0,0,0,False
289,Team 300FPS ︻╦̵̵̿╤─@300FPSGAMING,Bitcoin Wallet Privacy Ratings Sees Ledger Grabbing Top Rank http://btcf.co/1oPuGnY #bitcoin #bitcoinnews #btc #cryptocurrency,0,0,0,False
290,Team 300FPS ︻╦̵̵̿╤─@300FPSGAMING,BitFury Makes Investment in African Bitcoin Exchange BitPesa http://btcf.co/1oPuAgf #bitcoin #bitcoinnews #btc #cryptocurrency,0,0,0,False
291,Denny McEnroe@McEnroeDenny,Re: Someone give you negative trust for participating in a PONZI? http://cur.lv/w1xne #bitcoin #crypto,0,0,0,False
292,Denny McEnroe@McEnroeDenny,Re: What is your average bet per game? http://cur.lv/w1xna #bitcoin #crypto,0,0,0,False
293,Denny McEnroe@McEnroeDenny,Re: what you like best in Bitcoin ? http://cur.lv/w1xn3 #bitcoin #crypto,0,0,0,False
294,Denny McEnroe@McEnroeDenny,Re: Gambling Sites Paying Players for Posting Positive Reviews | Ethical? http://cur.lv/w1xn1 #bitcoin #crypto,0,0,0,False
295,Farah K. Miraza@farahkaifa,#cryptocurrency #crypto Bitcoin Wallet Privacy Ratings Sees Ledger Grabbing Top Rank http://ow.ly/3bYmkf,0,0,0,False
296,Crypto Yoyo@cryptoyoyo,Bitcoin Price Watch; Breakout Strategy in Play! http://bit.ly/1oYUkYa #bitcoin #crypto #news,0,0,0,False
297,Crypto Yoyo@cryptoyoyo,Kraken Reports 2x Increase in New Accounts After US Expansion http://bit.ly/1OPSSM8 #bitcoin #crypto #news,0,0,0,False
298,Crypto Yoyo@cryptoyoyo,Bank of England Dep. Governor: Digital Currency Puts Banks at Risk; Bitcoin Won't Replace USD ... http://bit.ly/1oYUjmZ #bitcoin #crypto…,0,0,0,False
299,Null TX@nulltxnews,BitFury Makes Investment in African Bitcoin Exchange BitPesa http://themerkle.com/news/bitfury-makes-investment-in-african-bitcoin-exchange-bitpesa/… #bitcoin #bitcoinnews #btc #cryptocurrency,1,0,0,False
300,YDX @YDXMyfriend,"Now Lior Yaffe is explaining #Nxt at Bitcoin @BTC1W ! #crypto
#Blockchain #Nxter #innovation #tech",12,8,0,False
308,HYPER Crypto@HyperCrypto,Skins for #CSGO with $HYPER: https://cashncarry.info/store/skins?Oe8Yl… #gaming #bitcoin #fintech #cryptocurrencyImgurimgur.com,3,1,0,False
309,Dave@TSSBurkey,Good read about #cyber and #crypto BBC News - How did governments lose control of #encryption? http://bbc.co.uk/news/technology-35659152…,0,0,0,False
310,Gems AndMore@GemsAndMore,"See something you like&hasn't got a #cryptocurrency button? Get in touch&we'll add it. #BTC, #dash, #doge&#LTC http://gemsandmore.co.uk",1,1,0,False
311,Team 300FPS ︻╦̵̵̿╤─@300FPSGAMING,Bank of England Official: Digital Currencies Could Impair Bank Lending http://btcf.co/1TQP1X5 #bitcoin #bitcoinnews #btc #cryptocurrency,1,0,0,False
312,Walter Paley@SafeLogic_Walt,Doug & I are leaving #RSAC and heading to #Vegas for #HIMSS16!! Hit me up for #FIPS140 #crypto!,0,0,0,False
313,Nxtguide@Nxtgids,"Lior Yaffe, Core Developer for NXT on the stage! #Nxt #Bitcoinwednesday #Crypto #Blockchain",10,5,0,False
314,Anondran@AnondranCrypto,Exciting time for Cryptocurrencies ahead #Bitcoin #Ethereum #Altcoins,0,0,0,False
315,Imran Nashir@ImranNashir,"Diffie and Hellman Win Turing Award http://nyti.ms/1LwKarz
#diffiehellman #crypto",1,0,0,False
316,Alejandro Sewrjugin@alesew23,#Bitcoin Bank of England Official: Digital Currencies Could Impair Bank Lending http://bit.ly/1TnZRUN #Tech #Crypto,0,0,0,False
317,BitcoinBuzz vega9@BitcoinBuzzV9,http://bitcoinbuzz.vega9.com - Hot topics: #monstercoingame #bitcoin #btc #cryptocurrency #money #robotcoingame,0,0,0,False
318,Bitcoin Hourly@bitcoin_hourly,"Price Update: 1 #Bitcoin = $429.9400

#cryptocurrency source http://yhoo.it/1PH2nON (via @Flutter_HQ)",0,0,0,False
319,CryptoRSS@CryptoRSS,"Encryption Adoption On The Rise: Rise in breaches, increase in cloud adoption are natural drivers for ... http://bit.ly/1Y1Cnni #crypto",0,0,0,False
328,Tech BitCoin@tech_bitcoin,"""Bitcoin Price Watch; Breakout Strategy in Play!"" http://ift.tt/24BhG6h #bitcoin #crypto http://ift.tt/1Ro3eEX",0,0,0,False
329,Team 300FPS ︻╦̵̵̿╤─@300FPSGAMING,Bitcoin Price Decline Slow But Steady http://btcf.co/1Qmyl6h #bitcoin #bitcoinnews #btc #cryptocurrency,0,0,0,False
330,bobbyrarickfexs@yaho@bobbyrarickfex1,Are you tired of risking and losing money? http://goo.gl/vZNiSA #bitcoin #litecoin #dogecoin #Cryptocurrency #Webmoney,0,0,0,False
331,Corner Coin@Corner_Coin,Free and decentralised #Bitcoin and #cryptocurrency event CoinFest to hold massive Manchester meet-up http://goo.gl/xZx5jo #fintech,1,0,0,False
332,Nxtguide@Nxtgids,@DamelonNxt is explaining #Nxt at Bitcoin Wednesday! #crypto,20,15,0,False
333,Michael Mellinghoff@Mellinghoff,"#Ethereum market cap reaches $600m as #ETH price continues to rise http://financemagnates.com/cryptocurrency/trading/ethereum-market-cap-reaches-600m-as-eth-price-jumps-over-7-5/… #Fintech #cryptocurrency #blockchain #BTCEthereum Market Cap Reaches $600m as ETH Price Jumps Over $7.5 | Finance MagnatesEther, the second biggest cryptocurrency behind bitcoin, has set new highs likely due to public interest from Microsoft and Thomson Reuters.financemagnates.com",3,0,0,False
334,Vivek K Chaitanya@PeopleGuru,"Making sense of #bitcoin, #cryptocurrency, and #blockchain. PwC explains: http://pwc.to/210bCzH",2,0,0,False
335,Cryptocurrency Acdmy@CCAcademy_SC,"#cryptocurrency RT ""Revolutionizing The Financial Markets"" https://twitter.com/financialit_net/status/701667213862952960…This Tweet is unavailable.",0,0,0,False
338,Team 300FPS ︻╦̵̵̿╤─@300FPSGAMING,Bitcoin Ransomware Education – CryptoDefense http://btcf.co/2189kyo #bitcoin #bitcoinnews #btc #cryptocurrency,0,0,0,False
339,BitcoinAgile@bitcoinagile,Crypto pioneers Diffie and Hellman win Nobel Prize of Computing - Help Net Security #Crypto http://bit.ly/24BbWJU,0,0,0,False
340,btcnewsfaucet@NewsFaucet,"Update: #blockchain technology considered as a valid option by world’s largest companies. http://goo.gl/GNIUgV
#Bitcoin #cryptocurrency",0,0,0,False
341,Null TX@nulltxnews,Bitcoin Ransomware Education – CryptoDefense http://goo.gl/oz8TVe #bitcoin #bitcoinnews #btc #cryptocurrency,2,0,0,False
342,CeptBiro@CeptBiro,#Crypto #Pioneers #DiffieAndHellman win #NobelPrize of Computing http://ow.ly/YYSMI http://ow.ly/PkwFL http://ow.ly/XTsPi,0,0,0,False
343,Rene Robichaud@ReneRobichaud,"#Crypto #Pioneers #DiffieAndHellman win #NobelPrize of Computing http://ow.ly/YYSMI http://ow.ly/PkwFLCeptBiro - Sécurité, Cybersécurité et Cyberdéfense de l'information | LinkedInCeptBiro - Sécurité, Cybersécurité et Cyberdéfense de l'information | 1,855 followers on LinkedIn. Sécurité, Cybersécurité, Cyberdéfense et Cybermenace de l'information | Conseils CeptBiro est une...linkedin.com",0,0,0,False
344,BitcoinBuzz vega9@BitcoinBuzzV9,http://bitcoinbuzz.vega9.com - Hot topics: #monstercoingame #bitcoin #btc #cryptocurrency #money #dogecoin,0,0,0,False
345,Bitcoin Hourly@bitcoin_hourly,"Price Update: 1 #Bitcoin = $428.5500

#cryptocurrency source http://yhoo.it/1PH2nON (via @Flutter_HQ)",0,0,0,False
346,Wheel of Doge@WheelofDoge,"What makes #Dogecoin one of the best #cryptocurrency investments? Take a look!Dogecoin vs. Litecoin, and why Dogecoin is a potent Cryptocurrency**Update 6-30-2017**I made this video about a year and a half ago. Since then I tried to invoke the Dogecoin community to evolve and adapt to the rapidly gro...youtube.com",2,0,0,False
347,Jana@Nanobitcoin@NanoBitcoin,Daily Bitcoin News Ticker is out! http://ln.is/paper.li/NanoBitcoin/ruviu… #bitcoin #crypto #markets #cryptocurrency #blockchain #EU #FinTech @NanoBitcoin,0,0,0,False
348,Xlarge@Chatrandoms,Are you tired of risking and losing money? http://goo.gl/vZNiSA #bitcoin #litecoin #dogecoin #Cryptocurrency #Webmoney,1,0,0,False
349,Team 300FPS ︻╦̵̵̿╤─@300FPSGAMING,How Much Money Can You Actually Make from Bitcoin Faucets (February 2016 http://btcf.co/2187TQG #bitcoin #bitcoinnews #btc #cryptocurrency,1,0,0,False
350,Coin Tiny@CoinTiny,Exclusive Interview with Flavien Charlon from Coinprism - NEWSBTC #CryptoCurrency #Crypto,0,0,0,False
351,Mr. ฿oh@CryptoBoh,The struggle is real #bitcoin #altcoins #btc,2,0,0,False
352,Gate 15@Gate_15_Analyst,"We Must Regulate #Bitcoin. Problem Is, We Don’t Understand It: @WIRED http://wired.com/2016/03/must-understand-bitcoin-regulate/… #cryptocurrency #cybersecurity",0,0,0,False
353,Michael Sharpe@mtsharpe,Here is my first Faucet list all WORKING http://bitcoinworld.co.nf/index.php/anything-related-to-bitcoin/9-faucets/5-here-is-my-first-faucet-list-all-working… #bitcoin #btc #crypto,0,0,0,False
354,Gate 15@Gate_15_Analyst,Is #Bitcoin Under Attack? @motherboard http://motherboard.vice.com/read/is-bitcoin-under-attack-spam-fees-block-size-debate… #cryptocurrency #cybersecurity,0,0,0,False
355,NE Patriots Dynasty@NEPatsDynasty,@wealth Creation The concept of #money http://ilgamosilcoin.com/ilgamos-ilcoin.html… check it out. The Future of Money. #Crypto #Bitcoin,0,0,0,False
356,vitoria almeida@vialmeidajunior,Are you tired of risking and losing money? http://goo.gl/vZNiSA #bitcoin #litecoin #dogecoin #Cryptocurrency #Webmoney,0,0,0,False
357,ferthee@ariesarcha,"Earn your FREE #CryptoCurrency here >>> http://ift.tt/1RN6Ftm <<<
Get your #Bitcoin EVERY 5 minutes!",0,0,0,False
358,Crypto ― logen@cryptologen,"2 Reasons and 3 Ways to Ditch #Bitcoin Online Exchanges http://coint.co/2qmj
#cryptocurrency #exchange #market #trading",2,2,0,False
359,Mark Lee@Steeler1313,CHC charna coin http://github.com/Charnasol/charnacoin… … #fintech #projects #farming #trade #crypto #countries #banking #emergingmarkets,0,0,0,False
360,Crypto ― logen@cryptologen,"#Ethereum Announces the Launch of Homestead http://coint.co/2qmk
#cryptocurrency #altcoin",2,3,0,False
371,Mark Lee@Steeler1313,FTRC #futurecoin is now in http://charnawallet.biz #fintech #crypto #banking #trade #emergingmarkets,0,0,0,False
372,Mark Lee@Steeler1313,Hotels can integrate and save millions on fees #fintech #cryptocurrency #fiat #fintech #hotels #paymentsystems http://charnawallet.biz,0,0,0,False
373,Farah K. Miraza@farahkaifa,#cryptocurrency #crypto Bank of America Develops Blockchain Trade Finance Test http://ow.ly/3bY3aa,0,0,0,False
374,Mark Lee@Steeler1313,CHC charna coin http://github.com/Charnasol/char … #fintech #projects #farming #trade #crypto #countries #banking #emergingmarkets,0,0,0,False
375,Crypto ― logen@cryptologen,"F2Pool Suffers from Series of DDoS Attacks http://coint.co/2qmh
#bitcoin #cryptocurrency #bitcoinmining #security",2,2,0,False
376,Vircom Inc.@Vircom_Inc,Hundreds of Sites DROWNing in Old #Crypto http://bit.ly/21Brtu3 by @InfosecurityMag,0,0,0,False
377,Passive Income@PassiveIncoming,"@IslombekGofurov EARN BITCOIN ON AUTOPILOT. NO GAMES & NO MINING! The way it should be 100% FREE! http://goo.gl/FSJFQt
#altcoin #bitcoin",1,0,0,False
378,Crypto ― logen@cryptologen,"New Hampshire Rejects Proposal to Accept Tax in #Bitcoin http://coint.co/2qmg
#cryptocurrency",2,2,0,False
379,albertabirkheadrzeh@@albertabirkhea2,Are you tired of risking and losing money? http://goo.gl/vZNiSA #bitcoin #litecoin #dogecoin #Cryptocurrency #Webmoney,0,0,0,False
380,Coin Tiny@CoinTiny,How Blockchain May Finish Off Big Corporations #CryptoCurrency #Crypto,0,0,0,False
381,Team 300FPS ︻╦̵̵̿╤─@300FPSGAMING,Thomson Reuters Announces Ethereum Blockchain Plans http://btcf.co/1TQALh1 #bitcoin #bitcoinnews #btc #cryptocurrency,0,0,0,False
382,Bitcoinist.com@bitcoinist,Thomson Reuters Announces Ethereum Blockchain Plans http://ift.tt/1ShUSnm #bitcoin #blockchain #btc #cryptocurrency #altcoins #money #fr…,2,0,0,False
383,Crypto Yoyo@cryptoyoyo,Bitcoin Freelancers Gain Wage Protection Through BitWage Upgrades http://bit.ly/1oP7TZq #bitcoin #crypto #news,0,0,0,False
384,Crypto Yoyo@cryptoyoyo,Bank of America Develops Blockchain Trade Finance Test http://bit.ly/1ShV464 #bitcoin #crypto #news,0,0,0,False
385,Crypto Yoyo@cryptoyoyo,"Mark Hart Sees Potential In Bitcoin, Expects Yuan To Lose Half of Its Value http://bit.ly/1oP7TbV #bitcoin #crypto #news",1,0,0,False
386,Crypto Yoyo@cryptoyoyo,Bank of England Concerned over Central Bank Bitcoin Clones http://bit.ly/1ShV5GY #bitcoin #crypto #news,0,0,0,False
387,"GDP index Economy: It's about TIME, SPACE, SYNTAX@Heart_Beacon",Pax: An Ethereum Powered Virtual Nation https://news.bitcoin.com/pax-an-ethereum-powered-virtual-nation/… #Bitcoin #Blockchain #cryptocurrency #FINTECH FINCEN,1,0,0,False
394,ferthee@ariesarcha,Earn your FREE #bitcoin EVERY hour here >>> http://ift.tt/1TKc1pU <<< #CryptoCurrency #OnlineMoney #earningonline,0,0,0,False
395,Crypto ― logen@cryptologen,"Japanese Legislator Calls for #Bitcoin Tax Exemption http://coinde.sk/24z1pyH via @CoinDesk
#cryptocurrency",2,2,0,False
396,Crypto ― logen@cryptologen,"#Bitcoin Price vs #USD: Two Profitable Situations http://coint.co/2qmc
#cryptocurrency #exchange",2,2,0,False
397,ILbotCrypto@LbotCrypto,Time to check on #edoncoin's development! http://ow.ly/WbHMN #btc #altcoin #ltc #dogecoin #bitcoin #edoncoin #ltc,0,0,0,False
398,Edgar Güeto@edgarweto,Visa Research Job Opening Hints At Future Blockchain Solutions http://buff.ly/1WUANTb #bitcoin #cryptocurrency,0,0,0,False
399,HYPER Crypto@HyperCrypto,$HYPER accepted @The_CryptoStore #crypto #fintech #indiedev #crytpo http://thecryptostore.com http://imgur.com/VVrOoUq?fztK #bitcoinImgurimgur.com,2,1,0,False
400,Gabor Venczel@ujtrend,"D+H: 2016 Will See Blockchain Solutions Reach Banking #cryptocurrency, bitcoin, octacoin, http://webogi.com/JMPNqZ",0,0,0,False
401,quyengilcreastnazu@y@quyengilcreast2,Are you tired of risking and losing money? http://goo.gl/vZNiSA #bitcoin #litecoin #dogecoin #Cryptocurrency #Webmoney,0,0,0,False
402,Team 300FPS ︻╦̵̵̿╤─@300FPSGAMING,Bank of America Develops Blockchain Trade Finance Test http://btcf.co/1TQxEFN #bitcoin #bitcoinnews #btc #cryptocurrency,2,0,0,False
403,Team 300FPS ︻╦̵̵̿╤─@300FPSGAMING,"Visa Seeks Developer for &#039;Secure, Scalable&#039; Blockchain Project http://btcf.co/1TQxDBX #bitcoin #bitcoinnews #btc #cryptocurrency",0,0,0,False
404,Bitcoin Hourly@bitcoin_hourly,"Price Update: 1 #Bitcoin = $426.9100

#cryptocurrency source http://yhoo.it/1PH2nON (via @Flutter_HQ)",0,0,0,False
405,Julia Vaingurt@julia_vaingurt,"Lightning’s balancing act: challenges face #bitcoin’s scalability savior #crypto http://cur.lv/w1tdw
http://cur.lv/w1tdx",0,0,0,False
406,rssbtc.com@rssbtc,"F2Pool Suffers from Series of DDoS Attacks

http://bit.ly/1QqMr4f
#btc #crypto #bitcoin #ddos",0,0,0,False
407,Alejandro Sewrjugin@alesew23,"#Bitcoin Visa Seeks Developer for 'Secure, Scalable' Blockchain Project http://bit.ly/1TRPlDG #Tech #Crypto",0,0,0,False
408,MonetaryUnit@MonetaryUnit,"Want an easy 100%+ ROI?
Sell your QuarkCoin to me!
https://bitcointalk.org/index.php?topic=1382858…
#roi #quark #quarkcoin #profit #altcoin #mue $QRK $MUE",0,0,0,False
409,Gabor Venczel@ujtrend,"Microsoft Certifies Ethereum Offering in Blockchain #cryptocurrency, bitcoin, octacoin, http://webogi.com/Y9o8Bq",1,1,0,False
416,Team 300FPS ︻╦̵̵̿╤─@300FPSGAMING,"Mark Hart Sees Potential In Bitcoin, Expects Yuan To Lose Half of Its http://btcf.co/1QraNep #bitcoin #bitcoinnews #btc #cryptocurrency",0,0,0,False
417,Amilton@Amilton_SPFC_7,Are you tired of risking and losing money? http://goo.gl/vZNiSA #bitcoin #litecoin #dogecoin #Cryptocurrency #Webmoney,0,0,0,False
418,Crypto Yoyo@cryptoyoyo,Japan Opposes To Bitcoin Taxation http://bit.ly/1TQuoKI #bitcoin #crypto #news,0,0,0,False
419,Crypto Yoyo@cryptoyoyo,HYPR Corp./BitGo Partnership Marries Blockchain With Biometric Security http://bit.ly/2180fWo #bitcoin #crypto #news,0,0,0,False
420,Pauli Kuosmanen@paulikuosmanen,"#Japan considers making #bitcoin a legal #currency
http://bit.ly/2181l4r
#cryptocurrency",4,2,1,False
421,Deepak Gupta@iDeepakGuptaa,"Three pictures that explain Blockchain (It's complicated!)

http://thefinanser.com/2016/03/three-pictures-that-explain-blockchain-its-complicated.html…
#blockchain #cryptocurrency #bitcoin #fintech #banking#Blockchain? It's complicated - Chris Skinner's blogWe had a great debate at the Financial Services Club last night between digital money sage Dave Birch of Consult Hyperion, and all things bitcoin master Jon Matonis. The debate was about whether...thefinanser.com",0,0,0,False
422,ferthee@ariesarcha,#CryptoCurrency You can join as well and collect your #Bitcoin for FREE >>> http://ift.tt/1TKc1pU,0,0,0,False
423,Farah K. Miraza@farahkaifa,#cryptocurrency #crypto HYPR Corp./BitGo Partnership Marries Blockchain With Biometric Security http://ow.ly/3bXVQ8,0,0,0,False
424,btcnewsfaucet@NewsFaucet,"Big companies are taking a closer look into #blockchain technology. #R3CEV #bitcoin #BTC #cryptocurrency

Read here: http://goo.gl/RPaiZK",0,0,0,False
425,Coin Tiny@CoinTiny,Bank of England Concerned over Central Bank Bitcoin Clones #CryptoCurrency #Crypto,0,0,0,False
426,sonsofliberty2016@Thefedendsnow,#Phillipines #Muecoin #askastoreaday #Vegas and #MontaryUnit meet in #18b #DTVL #TheArtsFactoryLV #BTM #crypto #deals,0,0,0,False
427,Hannah Meredith@HannahM_SANS,"Interesting read - How did governments lose control of #encryption?
http://bbc.co.uk/news/technology-35659152… #cryptoHow did governments lose control of encryption?The clash between Apple and the FBI is the latest battle in a decades-long conflict between governments and the wider world over keeping information secret.bbc.co.uk",7,5,0,False
428,Bryant Moscon@bmoscon,Diffie and Hellman win #ACM #TuringAward for their work on public key #crypto http://amturing.acm.org,0,0,0,False
429,manaugarteyenh@yahoo@manaugarteyenh1,Are you tired of risking and losing money? http://goo.gl/vZNiSA #bitcoin #litecoin #dogecoin #Cryptocurrency #Webmoney,0,0,0,False
430,BitcoinAgile@bitcoinagile,RSA president slams crypto backdoors as useful only against petty criminals #crypto https://securityshelf.com/2016/03/02/rsa-president-slams-crypto-backdoors-as-useful-only-against-petty-criminals…,0,0,0,False
431,Tech BitCoin@tech_bitcoin,"""Bank of England Concerned over Central Bank Bitcoin Clones"" http://ift.tt/eA8V8J #bitcoin #cryptoBank of England Concerned over Central Bank Bitcoin ClonesIt is impossible to predict the global effect of central bank digital currencies right now, yet the concept can create very dangerous precedents. newsbtc.com",0,0,0,False
432,NE Patriots Dynasty@NEPatsDynasty,"ILGamos 4 in 1 Trading Platform goes live #Crypto #Money #stocks #Gold 
NEW ILCOIN JOIN FREE Click here http://buygold.ilgamos.com/buy?buy_type=1",1,0,0,False
433,TexasNetworkSystems@texnetsys,"Security can never rest because bad guys never sleep. #security #HTTPS #crypto #threat
http://arstechnica.com/security/2016/03/more-than-13-million-https-websites-imperiled-by-new-decryption-attack/…",0,0,0,False
434,Security News Bot@SecurityNewsbot,#RSA president slams #crypto backdoors as useful only against petty criminals http://networkworld.com/article/3039844/security/rsa-president-slams-crypto-backdoors-as-useful-only-against-petty-criminals.html#tk.rss_security… #NetworkWorld,2,0,0,False
435,BitcoinAgile@bitcoinagile,Bank of England Concerned over Central Bank Bitcoin Clones - NEWSBTC #news #crypto #bitcoin http://bit.ly/1ShKWKo,0,0,0,False
436,BitcoinAgile@bitcoinagile,BOE's Broadbent Says Digital-Currency Shift Comes With Bank Risk #Digital #payments #cryptocurrency #bitcoin http://bit.ly/1ShKThJ,1,0,0,False
437,Fintech Prowler@FintechProwler,Why is my Bitcoin transaction not confirming? - The Merkle (blog) http://ift.tt/1oYo9s1 #altcoin,0,0,0,False
438,Nasreen Quibria@nquibria,BOE's Broadbent Says #Digital-Currency Shift Comes With Bank Risk http://ow.ly/3zglm5 #payments #cryptocurrency #bitcoin,0,0,0,False
439,Edgar Güeto@edgarweto,Men behind Diffie-Hellman key exchange receive top computer science prize http://buff.ly/24ArpKb #crypto,0,0,0,False
440,OpenLedger@OpenLedgerDC,One step closer to creating the magic #crypto #ecosystem everone's talking about: http://forbes.com/sites/rogeraitken/2015/10/10/openledgers-crypto-financial-platform-officially-launching-as-central-bank-interest-revealed/… … #fintech #OpenLedger,1,0,0,False
441,Bitcoin Hourly@bitcoin_hourly,"Price Update: 1 #Bitcoin = $430.9500

#cryptocurrency source http://yhoo.it/1PH2nON (via @Flutter_HQ)",0,0,0,False
442,BitcoinBuzz vega9@BitcoinBuzzV9,http://bitcoinbuzz.vega9.com - Hot topics: #monstercoingame #bitcoin #followme #btc #retweet #cryptocurrency,0,0,0,False
443,Institute of Cryptoanarchy@InstituteCrypto,"The Future od Freedom is encrypted - Pavol Luptak and his 28 predictions about next 7 years. #cryptoThe Future of Freedom is EncryptedIn seven years, the free market will be invincible to government intervention. How? Read on...lfb.org",0,0,0,False
444,Coin Tiny@CoinTiny,CORE Magazine March Edition #CryptoCurrency #Crypto,0,0,0,False
445,Anondran@AnondranCrypto,"So, when will Cryptocoins stabilize in price like normal FIAT...2020?2025? No idea.......until then profits :) #Bitcoin #Altcoins",0,0,0,False
446,Team 300FPS ︻╦̵̵̿╤─@300FPSGAMING,HYPR Corp./BitGo Partnership Marries Blockchain With Biometric Security http://btcf.co/1TREF8g #bitcoin #bitcoinnews #btc #cryptocurrency,0,0,0,False
447,Julia Vaingurt@julia_vaingurt,"Are you tired of risking and losing money? http://cur.lv/w1r5b
#bitcoin #litecoin #dogecoin #Cryptocurrency #Webmoney",0,0,0,False
448,Johan svennung@jsvennung,"Tough luck! Bitcoin is getting slow...
#bitcoin #moneylaundering #cryptocurrency http://motherboard.vice.com/read/bitcoin-new-normal-slow-confirmation-block-size-debate…",1,0,0,False
449,Detlef Hauke@detlefhauke,#Crypto pioneers Diffie and Hellman win Nobel Prize of Computing https://helpnetsecurity.com/2016/03/02/crypto-pioneers-diffie-and-hellman-win-nobel-prize-of-computing/…,0,0,0,False
450,Crypto Yoyo@cryptoyoyo,"Bitcoin could put the bite on bank lending, says Bank of England deputy chief Ben Broadbent http://bit.ly/24ATb9f #bitcoin #crypto #news",0,0,0,False
451,Sleeping Horse #BRG@Hunting_Bitcoin,Claim your free Doge Coin every one hour just at http://freedoge.co.in/?r=314242 claim up to 900k doge coin #faucet #altcoin,0,0,0,False
452,NE Patriots Dynasty@NEPatsDynasty,"#Crypto Traders. http://thinkingalpha.com/forum/index.php?qa=1628&qa_1=4-in-1-Trading-Platform-Gold,-Stocks,-Euros,-iLCoins… #Money",0,0,0,False
453,rssbtc.com@rssbtc,"5 Blockchain Startups Join Plug and Play FinTech Incubator

http://bit.ly/1QqMXPI
#btc #crypto #bitcoin",1,1,0,False
460,Cryptocurrency Acdmy@CCAcademy_SC,"#cryptocurrency -  Digital Currency CEO: Definition of a bank is going to change
https://youtube.com/watch?v=1C5pk8wfCso… #video thanx @DrBreakthrough",0,0,0,False
461,Bob Bobert@Bob_Helensburgh,"So what is on your list @RimbitCrypto @Rimbits - house plane cars #rimbit #altcoins #bitcoinQuote TweetThe Independent@Independent · Mar 2, 201610 things the super-rich keep buying even though their wealth is declining http://ind.pn/1OOYXIW",0,0,0,False
462,Julia Vaingurt@julia_vaingurt,"#Bitcoin price corrective high #crypto #cryptocurrency http://cur.lv/w1pvz
http://cur.lv/w1pw0",0,0,0,False
463,Amber Tatman@ambertatmannrs,Regulation is on the way worldwide for #cryptocurrency and #blockchain. #fintech #regulation http://lexology.com/library/detail.aspx?g=21edebe2-71c0-4f77-bea6-9a7a78b1dc6a&utm_source=lexology+daily+newsfeed&utm_medium=html+email+-+body+-+general+section&utm_campaign=lexology+subscriber+daily+feed&utm_content=lexology+daily+newsfeed+2016-03-02&utm_term=…,3,0,0,False
464,OpenFXMarket@OpenFXMarket,#altcoin market index (avg): #OFXAVG 138.15 #SHA 45.01 #SCRYPT 96.83 #QUARK 58.46 #X 9.05 #HYBRID 7.8 Stay tuned! #OFX,0,0,0,False
465,coinOK@coinok,Win $150 in Dogecoins every hour! http://freedoge.co.in/?r=98385 #doge #dogecoin #btc #bitcoin #ltc #altcoin #cryptocurrency,0,0,0,False
466,Cryptolized™@Cryptolized,"#rimbit #bitcoin Android Rimbit game?: Hi,
Any ideas for a game that could include Rimbit's?
C... http://bit.ly/21CrCNS #cryptocurrency",0,0,0,False
467,Hitachi Systems Security@HitachiSysSec,#DROWN #crypto vulnerability can be used in #MiTM attacks + to decrypt traffic http://hubs.ly/H02ffZ50 @threatpost,0,0,0,False
468,Bitcoin@bitcoinpoet,"Ethereum Market Cap Reaches $600m as ETH Price Jumps Over $7.5: Ether, the second biggest cryp... http://btcs.me/21H2WAn #cryptocurrency",6,6,1,False
469,Security News Bot@SecurityNewsbot,#Crypto pioneers Diffie and Hellman win Nobel Prize of Computing http://feedproxy.google.com/~r/HelpNetSecurity/~3/tdsYsYg1tCc/… #HelpNetSecurity,1,0,0,False
470,Bitcoin Hourly@bitcoin_hourly,"Price Update: 1 #Bitcoin = $431.5700

#cryptocurrency source http://yhoo.it/1PH2nON (via @Flutter_HQ)",0,0,0,False
471,Julia Vaingurt@julia_vaingurt,"http://cur.lv/w1pnk
 - Hot topics: #monstercoingame #bitcoin #btc #cryptocurrency #crypto #robotcoingame",0,0,0,False
472,BitcoinBuzz vega9@BitcoinBuzzV9,http://bitcoinbuzz.vega9.com - Hot topics: #monstercoingame #bitcoin #btc #cryptocurrency #crypto #robotcoingame,0,0,0,False
473,NE Patriots Dynasty@NEPatsDynasty,HERE IT IS. The Next #Crypto #Currency #Bitcoin. It is called #ILCoin Join FREE Today. Click here http://buygold.ilgamos.com/buy?buy_type=1,1,0,0,False
474,SeCuRe CyBeR@Sec_Cyber,#crypto pioneers Diffie and Hellman win Nobel Prize of Computing http://bit.ly/1oOORSZ,0,0,0,False
475,BlockChannel@BlockChannel,"BCN News: bitcoinist ""Visa is looking for Blockchain Developers http://ift.tt/21Copht #bitcoin #blockchain #btc #cryptocurrency #altcoin…",0,0,0,False
476,Jan Dušátko@Du5atk0,#crypto http://ictsecurity.cz/koutek-redaktora/zabezpeceni-serveru-mbank-airbank-kb-a-dalsich-v-ohrozeni.html… DROWN attack,1,0,0,False
477,AlertCo.in@AlertCoin,"#Bitcoin last trade

@bitfinex $431.10
@btcecom $433.00

Set #crypto #price #alerts at http://AlertCo.in",1,3,0,False
487,HYPER Crypto@HyperCrypto,Cloud Stake $HYPER https://stakeminers.com/?MbS The Future of Proof of Stake #Crypto by @nigeldollentas @stakeminers http://imgur.com/CtW1BE2?ZoBR,3,1,0,False
488,CryptoRSS@CryptoRSS,DROWN Flaw Exposes 33 Percent Of HTTPS Connections To Attack: The latest Internet-wide crypto vulnerab... http://bit.ly/21CqcTJ #crypto,0,0,0,False
489,Bitcoinist.com@bitcoinist,Visa is looking for Blockchain Developers http://ift.tt/21Copht #bitcoin #blockchain #btc #cryptocurrency #altcoins #money #freebitcoin,3,4,0,False
490,Institute of Cryptoanarchy@InstituteCrypto,One of the most expected projects on the field of decentralized trade has been launched in testing version. #crypto http://bit.ly/1Rn42tY,0,0,0,False
491,PAN@eyemakeart,CryptoWoo WooCommerces' #cryptocurrency integration for #WordPress http://ow.ly/YOJ72,0,0,0,False
492,Bitcoinist.com@bitcoinist,"Wall of Coins Review: Good for Bitcoin Beginners, So-So for Veterans http://ift.tt/1Uye6Wg #bitcoin #blockchain #btc #cryptocurrency #al…",0,0,0,False
493,Team 300FPS ︻╦̵̵̿╤─@300FPSGAMING,Visa is looking for Blockchain Developers http://btcf.co/1pnyopF #bitcoin #bitcoinnews #btc #cryptocurrency,1,0,0,False
494,Julia Vaingurt@julia_vaingurt,"Silk road drug dealers get combined 10 years in the uk #bitcoin #crypto #cryptocurrency http://cur.lv/w1oyk
http://cur.lv/w1oym",1,0,0,False
495,Farah K. Miraza@farahkaifa,#cryptocurrency #crypto European Authorities Shut Down Five Darknet Websites http://ow.ly/3bXFV6,1,0,0,False
496,The Crypto World@TheCryptoWorld,@Warpcoin Wallet 1.1 with VPN will be in #BETA testing starting March 4th 2016! #Altcoin #WARP #CryptoCurrency,6,10,1,False
497,Lisk@LiskHQ,"We just added many more articles to the FAQ on our support page. 

http://support.lisk.io
#bitcoin #cryptocurrency #blockchain #lisk",11,13,0,False
498,Julia Vaingurt@julia_vaingurt,"#Blockchain #technology: Friend or foe for investment banks? http://cur.lv/w1oqs
#fintech #bitcoin #Crypto #cryptocurrency #tech",1,0,0,False
499,Julie Nicolas@iamjulienicolas,#Blockchain #technology: Friend or foe for investment banks? http://breakingviews.com/blockchain-is-a-zero-sum-game-for-investment-banks/21237153.article… #fintech #bitcoin #Crypto #cryptocurrency #tech,2,1,0,False
500,NameBrandAmbassador@TopAmbassador,"@MichaelvanLaar FREE BITCOINS EVERY 24 HOURS! 
No joke & absolutely FREE; http://goo.gl/FSJFQt
#free #money #paid #bitcoin #altcoin",0,0,0,False
501,BitcoinAgile@bitcoinagile,Crypto pioneers Diffie and Hellman win Nobel Prize of Computing - Help Net Security #Crypto https://helpnetsecurity.com/2016/03/02/crypto-pioneers-diffie-and-hellman-win-nobel-prize-of-computing…,1,2,0,False
502,Lisk@LiskHQ,"Lisk Raises $500,000 in First Week of ICO 

http://bitcoinist.net/lisk-raises-500-thousand-in-first-week-of-ico/…
#bitcoin #blockchain #cryptocurrency via @bitcoinist",10,9,0,False
503,Crypto Yoyo@cryptoyoyo,"Wall of Coins Review: Good for Bitcoin Beginners, So-So for Veterans http://bit.ly/21Cm1XT #bitcoin #crypto #news",0,0,0,False
504,Lisk@LiskHQ,"Lisk ICO for the Decentralized Application and Sidechain Platform

http://coinour.com/index.php/lisk-ico-for-the-decentralized-application-and-sidechain-platform-march-2-2016/…
#bitcoin #cryptocurrency #blockchain",10,11,0,False
505,MiguelAfonsoCaetano@remixtures,"Whitfield Diffie and Martin Hellman: Turing Award goes to cryptographers, who are backing Apple in FBI war http://gu.com/p/4h7mq/stw #Crypto",3,7,0,False
513,Team 300FPS ︻╦̵̵̿╤─@300FPSGAMING,"Wall of Coins Review: Good for Bitcoin Beginners, So-So for Veterans http://btcf.co/1QKSMH1 #bitcoin #bitcoinnews #btc #cryptocurrency",0,0,0,False
514,Robin Gringelstam@RGringelstam,"There is only one :)
#onecoin #cryptocurrency #networkmarketing #money #helpothersmakemoney… https://instagram.com/p/BCct4zFkW2p/",0,0,0,False
515,Passive Income@PassiveIncoming,"@mobincube Really digging some these FREE BITCOIN FAUCETS!
http://freecryptofaucets.com
#cryptofaucets #bitcoin #altcoin #cryptocurrency",2,0,0,False
516,Coin Tiny@CoinTiny,Japan Set To Reconsider Stance on Taxing Bitcoin - NEWSBTC #CryptoCurrency #Crypto,0,0,0,False
517,PumpingAltcoin@PumpingAltcoin,"#Altcoin News and #Pump Tips is out! http://paper.li/PumpingAltcoin/1399763175?edition_id=ed95ed60-e066-11e5-9393-0cc47a0d1609… #Freebitcoin #Crypto #BTC #Mintpal Stories via @halovast @MattVaanDutch#Cryptocurrency #altcoin news dailyInterested in a 24/7 automatic bitcoin and altcoin passive income every day? Have you ever heard about GUNBOT, the fully automated crypto currency trading bo... by PumpingAltcoinpaper.li",0,0,0,False
518,MiguelAfonsoCaetano@remixtures,#FBI is asking courts to legalize #crypto backdoors because Congress won’t - David Kravets (ArsTechnica) http://arstechnica.com/tech-policy/2016/03/fbi-is-asking-courts-to-legalize-crypto-backdoors-because-congress-wont/… #Encryption,0,0,0,False
519,CryptoCoinsMarket@ccoinmarket,Increasing Bitcoin Block Size vs. Higher Transaction Fees http://ift.tt/1oY9ZqS http://ift.tt/21GYdik #crypto #bitcoin,0,0,0,False
520,rssbtc.com@rssbtc,"OpenBazaar Launches Officially on the BTC Testnet

http://bit.ly/1QqMqxt
#btc #crypto #bitcoin #testnet",1,1,0,False
521,Tech BitCoin@tech_bitcoin,"""Japan Set To Reconsider Stance on Taxing Bitcoin"" http://ift.tt/eA8V8J #bitcoin #cryptoJapan Set To Reconsider Stance on Taxing BitcoinBitcoin is often frowned upon for its alleged lack of regulatory guidelines when it comes to using the digital currency as a method of payment.newsbtc.com",0,0,0,False
522,Team 300FPS ︻╦̵̵̿╤─@300FPSGAMING,European Authorities Shut Down Five Darknet Websites http://btcf.co/1T7uI7U #bitcoin #bitcoinnews #btc #cryptocurrency,0,0,0,False
523,Bitcoin Hourly@bitcoin_hourly,"Price Update: 1 #Bitcoin = $432.3000

#cryptocurrency source http://yhoo.it/1PH2nON (via @Flutter_HQ)",0,0,0,False
524,BitcoinBuzz vega9@BitcoinBuzzV9,http://bitcoinbuzz.vega9.com - Hot topics: #bitcoin #monstercoingame #btc #cryptocurrency #crypto #robotcoingame,0,0,0,False
525,BitcoinAgile@bitcoinagile,Bitcoin 101 Infographic  Bitcoin Chaser #Bitcoin #Infographic #cryptocurrency http://bit.ly/1oOHQSa,1,2,0,False
527,Bitcoin Chaser@BitcoinChaser,"#Bitcoin 101 #Infographic. Learn everything you need to know about #cryptocurrency. 
http://bitcoinchaser.com/bitcoin-101",0,0,0,False
528,textract@RQtextract,No to #crypto #backdoor @RSAConference,0,0,0,False
529,Coin Tiny@CoinTiny,Review of Bitshares OpenLedger Wallet by http://CoinCurrencyNews.com #CryptoCurrency #Crypto,0,0,0,False
530,Julie Nicolas@iamjulienicolas,These stock exchanges are betting on #blockchain http://nexchange.com/article/8637 #bitcoin #fintech #cryptocurrency #Crypto,1,0,0,False
531,Crypto Yoyo@cryptoyoyo,Transaction View information about a bitcoin transaction http://bit.ly/1LwBQIf #bitcoin #crypto #news,0,0,0,False
532,Crypto Yoyo@cryptoyoyo,Transaction View information about a bitcoin transaction http://bit.ly/1QKQ6ZY #bitcoin #crypto #news,0,0,0,False
533,Crypto Yoyo@cryptoyoyo,Transaction View information about a bitcoin transaction http://bit.ly/1LwBQI9 #bitcoin #crypto #news,0,0,0,False
534,CryptoTradeADay@CryptoTradeADay,"Buy Low and sell high. it's pretty simple. The problem is What's Low and What's High
#Bitcoin #Investing #cryptocurrency #Ethereum #Maidsafe",2,1,0,False
535,rssbtc.com@rssbtc,"New Hampshire Rejects Proposal to Accept Tax in Bitcoin

http://bit.ly/1QqMpcE
#btc #crypto #bitcoin #tax",1,2,0,False
536,Crypto Yoyo@cryptoyoyo,Bitcoin Price Watch; Volatility Returns? http://bit.ly/21CdAMh #bitcoin #crypto #news,0,0,0,False
537,Crypto Yoyo@cryptoyoyo,European Authorities Shut Down Five Darknet Websites http://bit.ly/1oODFpF #bitcoin #crypto #news,0,0,0,False
538,Crypto Yoyo@cryptoyoyo,FXDD Joins Bitcoin Broker BitPlutos and DashOption with Warnings from Japan http://bit.ly/21CdAMd #bitcoin #crypto #news,0,0,0,False
539,Crypto Yoyo@cryptoyoyo,Japan weighs in on tax exemption for bitcoin http://bit.ly/1oODH0I #bitcoin #crypto #news,0,0,0,False
540,Coinfeed@CoinfeedIO,#Cryptocurrency Exchange CEX.IO enables TradingView Charting - NEWSBTC http://tinyurl.com/pb2u43e,0,0,0,False
541,BSSI@BSSI_Conseil,The DROWN security hole – what you need to know - #Crypto #SSL #vulnerability https://nakedsecurity.sophos.com/2016/03/02/the-drown-security-hole-what-you-need-to-know/…,0,0,0,False
542,Team 300FPS ︻╦̵̵̿╤─@300FPSGAMING,Visa Research Job Opening Hints At Future Blockchain Solutions http://btcf.co/24ADA9N #bitcoin #bitcoinnews #btc #cryptocurrency,0,0,0,False
543,Chito Mustapah 7@ChitoRizz,"Alhamdulillah. I'm enjoying with spending #bitcoin profits. 

#cryptocurrency #bitkingdom #bitcoin #profits",0,0,0,False
544,Free Bitcoin Expert@FreeBTCExpert,Want to convert your cash into #Bitcoin or any other #altcoin? Check out YoBit at https://yobit.net/?bonus=KLypi,0,0,0,False
545,Bitcoin Hourly@bitcoin_hourly,"Price Update: 1 #Bitcoin = $432.9700

#cryptocurrency source http://yhoo.it/1PH2nON (via @Flutter_HQ)",0,0,0,False
546,BitcoinBuzz vega9@BitcoinBuzzV9,http://bitcoinbuzz.vega9.com - Hot topics: #bitcoin #perfectmoney #fasapay #instaforex #btc #cryptocurrency,0,0,0,False
547,Julia Vaingurt@julia_vaingurt,"Green beret takes down #bitcoin? #bitcoin weekly news update #crypto #cryptocurrency http://cur.lv/w1lx9
http://cur.lv/w1lxa",0,0,0,False
548,International CCC@Int_CCC,Today's Crypto Chronicle! News about #bitcoin #cryptocurrency and more! http://paper.li/Int_CCC/1409392381?edition_id=a8497e70-e05c-11e5-8226-002590a5ba2d…,0,0,0,False
557,Null TX@nulltxnews,Visa Research Job Opening Hints At Future Blockchain Solutions http://goo.gl/eFF4yH #bitcoin #bitcoinnews #btc #cryptocurrency,3,0,0,False
558,12Joker18@12Joker18,"Here you will find many good mining and sides free bitcoin,. http://bitcoins-earn.com #bitcoin #bitcoinmining #freebitcoin #BTC #crypto",0,0,0,False
559,Tech BitCoin@tech_bitcoin,"""Bitcoin Price Watch; Volatility Returns?"" http://ift.tt/21GQMro #bitcoin #crypto http://ift.tt/21C8QGm",1,0,0,False
560,NuCypher@NuCypher,"Talk by Hellman on inventing #pubic-key #cryptoDISI 2007: A Fool's Errand Inventing Public Key Cryptography.PhD. Martin Hellman, Stanford University USA.Keynote speaker at DISI 2007, Information Security International Day, December 3th 2007. E.U. Telecommunications...youtube.com",1,0,0,False
561,NuCypher@NuCypher,Talk by Diffie about the history of their #public-key #crypto research: http://okt.to/UL7q90,1,1,0,False
562,BlockChannel@BlockChannel,"BCN News: bitcoinist ""OpenBazaar Launches Officially on the BTC Testnet http://ift.tt/1Rmv4S6 #bitcoin #blockchain #btc #cryptocurrency …",0,0,0,False
563,Bitcoinist.com@bitcoinist,OpenBazaar Launches Officially on the BTC Testnet http://ift.tt/1Rmv4S6 #bitcoin #blockchain #btc #cryptocurrency #altcoins #money #free…,2,3,0,False
564,Bitcoinist.com@bitcoinist,BitBet Falls Victim To Strange Bitcoin Double-Spend Behavior http://ift.tt/1T7l9Ws #bitcoin #blockchain #btc #cryptocurrency #altcoins #…,1,1,0,False
565,Julia Vaingurt@julia_vaingurt,"There are an estimated two million Bitcoin users worldwide who complete transactions using #Bitcoin http://cur.lv/w1lfg
#cryptocurrency",0,0,0,False
566,Cryptocurrency Acdmy@CCAcademy_SC,There are an estimated two million Bitcoin users worldwide who complete transactions using #Bitcoin http://business.financialpost.com/business-trends/opportunity-knocks-with-blockchain-tech… #cryptocurrencyOpportunity knocks with blockchain techfinancialpost.com,1,0,0,False
567,NuCypher@NuCypher,Diffie & Hellman win Turing Award for #public-key #crypto http://okt.to/uN1nA3,1,1,0,False
568,CureCoin@CureCoin_Team,".@YahooFinance @YahooFantasy @DraftKings #CureCoin:ONLY #cryptocurrency GOOD 4 humanity you can earn w/a web browserQuote TweetIvan Tuma@IvanTumaJr · Feb 28, 2016@IvanTumaJr/FantasySports #Curecoin Members Mine Cryptocurrency w/ Google Chrome to Help Study #Cancer @YahooFinance",2,0,0,False
569,Mohammed Tanveer@threatpointer,"Breaking Symmetric Cryptosystems using Quantum Period Finding
http://arxiv.org/pdf/1602.05973v1.pdf… Very Interesting read! #Crypto #infosec",0,0,0,False
570,The P.I.K.A. Way@thepikaway,120 973 #BTC #bitcoin has been paid #cryptocurrency #future of #money and #value You in? http://bit.ly/217EGVY,1,0,0,False
571,RealMenLiveToxinFree@ferwealthy,120 973 #BTC #bitcoin has been paid #cryptocurrency #future of #money and #value You in? http://bit.ly/217EGVY,1,0,0,False
572,creationbuddies@creationbuddies,120 973 #BTC #bitcoin has been paid #cryptocurrency #future of #money and #value You in? http://bit.ly/217EGVY,1,0,0,False
573,Cryptocurrency Acdmy@CCAcademy_SC,The #cryptocurrency industry has entered the mainstream. Advancements & opportunities could come at a rapid pace http://tinyurl.com/gpsru69,1,0,0,False
574,BitcoinAgile@bitcoinagile,#ZeroNet: #Decentralized #websites using #Bitcoin #crypto and the #BitTorrent #network  #  http://bit.ly/1QrmMvK,1,0,0,False
575,Gonzalo San Gil PhD@gonzalosangil,#ZeroNet: #Decentralized #websites using #Bitcoin #crypto and the #BitTorrent #network | #… https://gonzalosangil.wordpress.com/2016/03/02/zeronet-decentralized-websites-using-bitcoin-crypto-and-the-bittorrent-network-cant-stop…,1,0,0,False
576,Gonzalo San Gil PhD@gonzalosangil,#ZeroNet: #Decentralized #websites using #Bitcoin #crypto and the #BitTorrent #network | # ! Can't Stop... | @scoopit http://...,0,0,0,False
577,Fernand Jimenez@fernandfjimenez,120 973 #BTC #bitcoin has been paid #cryptocurrency: #future of #money and #value You ready? http://bit.ly/217EGVY,1,0,0,False
578,Crypto Yoyo@cryptoyoyo,BitBet Falls Victim To Strange Bitcoin Double-Spend Behavior http://bit.ly/1oOwRs2 #bitcoin #crypto #news,1,0,0,False
579,YDX @YDXMyfriend,"02/03/2016 - February #Dividends payment #LIQUID http://bit.ly/1QSTmc8
#NXT #Asset #Revenue #BOT #Trading #Crypto",4,2,0,False
580,Bapao@bapao83,Long time without #crypto but project @maidsafe pulled me back into it,10,4,0,False
581,Coin Tiny@CoinTiny,"The Ether Review #16 -- Synthetic Assets: Stable Coins, DAO Assets, and Smart Market Instruments #CryptoCurrency #C…",0,0,0,False
582,Coin Tiny@CoinTiny,Poll: How many Blockshares do you own? #CryptoCurrency #Crypto,0,0,0,False
583,Defi@DefiFreakyBoo,"Kisses for all good people! 
#defi #defibitch #defifreakyboo #kiss #kisses #cat #lace… https://instagram.com/p/BCce4yClJFm/",0,0,0,False
584,IBuffelanAS 이서밸@ibas131,#FBI is asking courts to legalize #crypto #backdoors because Congress won’t http://arstechnica.com/tech-policy/2016/03/fbi-is-asking-courts-to-legalize-crypto-backdoors-because-congress-wont/…,0,0,0,False
585,Bitcoin Hourly@bitcoin_hourly,"Price Update: 1 #Bitcoin = $431.7300

#cryptocurrency source http://yhoo.it/1PH2nON (via @Flutter_HQ)",0,0,0,False
586,BitcoinBuzz vega9@BitcoinBuzzV9,http://bitcoinbuzz.vega9.com - Hot topics: #bitcoin #perfectmoney #fasapay #instaforex #btc #crypto,0,0,0,False
593,Team 300FPS ︻╦̵̵̿╤─@300FPSGAMING,OpenBazaar Launches Officially on the BTC Testnet http://btcf.co/1VPUfQN #bitcoin #bitcoinnews #btc #cryptocurrency,0,0,0,False
594,Denny McEnroe@McEnroeDenny,i heard someone attacked bitcoin network by lot of transaction...? http://cur.lv/w1k6e #bitcoin #crypto,0,0,0,False
595,Denny McEnroe@McEnroeDenny,Re: Augur http://cur.lv/w1k6c #bitcoin #crypto,0,0,0,False
596,Denny McEnroe@McEnroeDenny,"Re: Chervonets Siberiano (SIB), X11GOST http://cur.lv/w1k6b #bitcoin #crypto",0,0,0,False
597,Denny McEnroe@McEnroeDenny,Re: Europa League/Champions League Lounge http://cur.lv/w1k69 #bitcoin #crypto,0,0,0,False
598,Three Krouts@threekrouts,"#Diffie, #Hellman scoop $1m #Turing Award for key work on #crypto keys:Diffie, Hellman scoop $1m Turing Award for key work on crypto keysTechnology's Nobel Prize exchanges hands with Diffie-Hellman exchange gurustheregister.com",0,0,0,False
599,OneTeamInternational@OneTeam_Int,"#DailyDigest from OneTeam
#OneCoin #OneTeam #CryptoCurrency #Криптовалюты",0,0,0,False
600,Team 300FPS ︻╦̵̵̿╤─@300FPSGAMING,BitBet Falls Victim To Strange Bitcoin Double-Spend Behavior http://btcf.co/1VPTx68 #bitcoin #bitcoinnews #btc #cryptocurrency,0,0,0,False
601,Denny McEnroe@McEnroeDenny,Re: Why is gambling so addicting? http://cur.lv/w1jui #bitcoin #crypto,1,0,0,False
602,Denny McEnroe@McEnroeDenny,Re: Do you consider trading as gambling? http://cur.lv/w1juh #bitcoin #crypto,1,0,0,False
603,Denny McEnroe@McEnroeDenny,Re: Is bitcoin being used for illegal activities http://cur.lv/w1jug #bitcoin #crypto,0,0,0,False
604,Bytecoin BCN@Bytecoin_BCN,"For those who have been thinking of #writing - here is your chance to make #cryptocurrency news!
Just take it.
http://cointelegraph.com/news/we-want-you…",3,1,0,False
605,Cryptolized™@Cryptolized,#rimbit #bitcoin The Rimbit Mansion: I have done a video of my place in Chiang Mai and now tha... http://bit.ly/1TR16Kw #cryptocurrency,0,0,0,False
606,PCN@PaymentsNet,"#Coinbase Initiates #Bitcoin Purchase through #US #Debit Cards: http://ow.ly/YXWBg
#PCN #cryptocurrency",0,0,0,False
607,ferthee@ariesarcha,#CryptoCurrency RT @CryptoPressNews: $BTC Current price of Bitcoin is $432.90 #bitcoin,0,0,0,False
608,Blitzcash@bitalize,"$Blitz is not even at 100k @CoinMKTCap, only way is up based on a real world feature coming soon #Bitcoin #altcoin",7,9,1,False
610,Crypto Yoyo@cryptoyoyo,Buying Bitcoin With Cash Through LibertyX Is Not Anonymous http://bit.ly/21GJnIs #bitcoin #crypto #news,0,0,0,False
611,Fortune. Bit by Bit!@FortuneBitXBit,BitcoinzMachine : @BitcoinzMachine: #Bitcoin price watch; mixing things up #crypto… http://sh.st/RwOTn #bitcoin,1,0,0,False
612,Julia Vaingurt@julia_vaingurt,"Ouch. Reality of competition catching up with some Bitcoin folks.
http://cur.lv/w1j8f
#crypto #ethereum",2,4,0,False
613,Dominic Williams ∞@dominic_w,"Ouch. Reality of competition catching up with some Bitcoin folks.
https://reddit.com/r/Bitcoin/comments/48l4vj/bitcoin_competitor_has_me_on_edge/…
#crypto #ethereumBitcoin competitor has me on edgereddit.com",2,1,0,False
614,Dan Mygind@danmyg,"Well deserved award! to #Crypto dream team Diffie & Hellman wins $1M ""Nobel Prize of Computing"" http://networkworld.com/article/3039820/security/crypto-dream-team-diffie-hellman-win-nobel-prize-of-computing.html… via @networkworld",0,0,0,False
615,Bleeps@bleeprepeat,Why #Dogecoin is among the best #cryptocurrency ... https://youtu.be/pXYvTLE2UXo,0,0,0,False
616,Nick Jonsson@xjonsson,DROWN attack can decrypt 33% of HTTPS servers: https://drownattack.com http://tnw.to/e4lPB via @thenextweb #security #crypto,1,0,0,False
617,Bitcoin Hourly@bitcoin_hourly,"Price Update: 1 #Bitcoin = $432.6900

#cryptocurrency source http://yhoo.it/1PH2nON (via @Flutter_HQ)",0,0,0,False
618,XBTFreelancer.com@XBTFreelancer,#bitcoin http://xbtfreelancer.com/prj/955/excellent-animated-banner-makers… #job #income #Designer Excellent animated banner makers #cryptocurrency,1,0,0,False
619,Team 300FPS ︻╦̵̵̿╤─@300FPSGAMING,Buying Bitcoin With Cash Through LibertyX Is Not Anonymous http://btcf.co/1oOmZyA #bitcoin #bitcoinnews #btc #cryptocurrency,0,0,0,False
620,NE Patriots Dynasty@NEPatsDynasty,What if? http://ilgamosilcoin.com/ilgamos-ilcoin.html… the power of money.  #Money #HomeBusiness #Trading #crypto Register FREE,0,0,0,False
621,AlertCo.in@AlertCoin,"#Bitcoin last trade

@bitstamp $432.00
@coinbase $432.80

Set #crypto #price #alerts at http://AlertCo.in",1,3,0,False
622,Null TX@nulltxnews,"Buying Bitcoin With Cash Through LibertyX Is Not Anonymous http://goo.gl/t65MyT #bitcoin #bitcoinnews #btc #cryptocurrencyBuying Bitcoin With Cash Through LibertyX Is Not AnonymousThe concept of buying Bitcoin at retail stores is quite an appealing one, as it removes most of the friction associated with obtaining digital currency in the first place. While these services are limthemerkle.com",0,0,0,False
623,The Fintech Society@fintechsociety,Ibm exec elected chair of hyperledger #blockchain committee #bitcoin #crypto #cryptocurrency http://j.mp/1OJMbv6,2,0,0,False
624,Cindy Segond von Banchet@CindySvB,"#Cryptography Pioneers Win Turing Award http://nyti.ms/1L2Pmn8 #Crypto #diffiehellman #legends #cybersecurityCryptography Pioneers Win Turing Award (Published 2016)In the 1970s, Whitfield Diffie and Martin E. Hellman invented the technology that underpins web commerce.nytimes.com",1,0,0,False
625,HYPER Crypto@HyperCrypto,We now have a rock solid foundation & team and 2016 $HYPER is going to be huge. #indiedev #indiegamer #gamerdev #cryptocurrency #bitcoin,4,2,0,False
626,Anish Mohammed@anishmohammed,"Diffie and Hellman get Turing prize for #crypto http://amturing.acm.org < very happy to hear this, believe it was long overdue",2,1,0,False
627,Steffen Bauch@steffenbauch,Python utility to scan for vulnerability to the DROWN attack against TLS http://bit.ly/1WUnvpM #infosec #crypto,1,2,0,False
628,Crypto Yoyo@cryptoyoyo,247exchange expands to Canada and offers instant ways of buying bitcoin http://bit.ly/1OOjQUz #bitcoin #crypto #news,1,1,0,False
629,Crypto Yoyo@cryptoyoyo,BTCC informs customers of Bitcoin transaction confirmation delays http://bit.ly/1T7eXxE #bitcoin #crypto #news,0,0,0,False
630,NE Patriots Dynasty@NEPatsDynasty,Gold & #Crypto-Currency in one clever system. Join the Digital Currency Revolution and turn your #PROFITS into GOLD http://dld.bz/dARdH,0,0,0,False
631,PinkMona@pinkmona_org,#bitcoin #altcoin #dogecoin Let's Hentai! Come on PinkMona!→http://pinkmona.org,0,0,0,False
640,Probably Karl Wickman@arkadeum,TrollCoin Live Q&A with @fightcade & SFV gaming #blockchain #crypto $troll: http://youtu.be/c6y_LOY2Sds?a via @YouTube,1,0,0,False
641,Gabor Venczel@ujtrend,"Bank of America Latest to Conduct Blockchain Trade #cryptocurrency, bitcoin, octacoin, http://webogi.com/AaMmLK",1,0,0,False
642,Miriam Bauman@miriambauman,What is MazaCoin? @MazaCoin #WebToolsWiki #CryptoCurrency #LakotaNation http://buff.ly/1JYF3MS  Via the @webtoolswiki,0,0,0,False
643,Fintech Prowler@FintechProwler,247exchange expands to Canada and offers instant ways of buying bitcoin - The Merkle (blog) http://ift.tt/1UxT8Xq #altcoin,0,0,0,False
644,Team 300FPS ︻╦̵̵̿╤─@300FPSGAMING,247exchange expands to Canada and offers instant ways of buying bitcoin http://xbtnews.net/2016/03/247exchange-expands-to-canada-and-offers-instant-ways-of-buying-bitcoin/… #bitcoin #bitcoinnews #btc #cryptocurrency,1,0,0,False
645,Null TX@nulltxnews,"247exchange expands to Canada and offers instant ways of buying bitcoin http://goo.gl/SdBkdx #bitcoin #bitcoinnews #btc #cryptocurrency247exchange expands to Canada and offers instant ways of buying bitcoinChances are that the 247exchange represents one of the most well-spread, but also quickest exchanges around, handling thousands of transactions on a daily basis.Recently, the exchange, managed bythemerkle.com",4,5,1,False
646,BitcoinBuzz vega9@BitcoinBuzzV9,http://bitcoinbuzz.vega9.com - Hot topics: #bitcoin #btc #cryptocurrency #crypto #dogecoin #monstercoingame,0,0,0,False
647,Julia Vaingurt@julia_vaingurt,"The vanbex report: the future of fintech #bitcoin #crypto #cryptocurrency http://cur.lv/w1gnj
http://cur.lv/w1gnk",0,0,0,False
648,rubenics@rubenics,Diffie and Hellman receive Turing Award http://acm.org/media-center/2016/march/turing-award-2015… #crypto,0,0,0,False
649,Matt McDonnell@mattmcd,The DROWN Attack | Hacker News http://bit.ly/1oXI5ep #crypto #security #math,0,0,0,False
650,Cryptinc@Cryptinc,Free and decentralised #Bitcoin and #cryptocurrency event #CoinFest to hold #Manchester meeting - http://goo.gl/jqEWs0,0,0,0,False
651,Crypto Yoyo@cryptoyoyo,Coinbase Permits US Customers to Buy Bitcoin with Debit Cards http://bit.ly/1TmL6Sl #bitcoin #crypto #news,1,0,0,False
652,Crypto Yoyo@cryptoyoyo,5 Blockchain Startups Join Plug and Play FinTech Incubator http://bit.ly/1Rm2vV1 #bitcoin #crypto #news,1,0,0,False
653,Michel Nilles@MichelNilles,You want to turn your USD or EURO into #Bitcoins - Check this out #bitcoin #cryptocurrency http://buff.ly/1LvX74Q #retweet #share,1,1,0,False
666,NEWSBTC@newsbtc,#Bitcoin Price Technical Analysis for 03/02/2016 – Trying to Push Past  #btc #crypto http://newsbtc.com/2016/03/02/bitcoin-price-technical-analysis-for-03022016-trying-to-push-past-resistance/…,1,2,0,False
668,Bitcoin Hourly@bitcoin_hourly,"Price Update: 1 #Bitcoin = $432.8900

#cryptocurrency source http://yhoo.it/1PH2nON (via @Flutter_HQ)",0,0,0,False
669,BitcoinBuzz vega9@BitcoinBuzzV9,http://bitcoinbuzz.vega9.com - Hot topics: #bitcoin #btc #crypto #mmmextra #cryptocurrency #monstercoingame,0,0,0,False
670,Denny McEnroe@McEnroeDenny,"orks in light of its customers, studies and http://cur.lv/w1fcm #bitcoin #crypto",1,0,0,False
671,Denny McEnroe@McEnroeDenny,Re: what is mining difficulty how its increase or decrease? http://cur.lv/w1fck #bitcoin #crypto,0,0,0,False
672,Denny McEnroe@McEnroeDenny,Re: Asia Cup T20 cricket matches discussions and predictions http://cur.lv/w1fcj #bitcoin #crypto,0,0,0,False
673,Massimo Chiriatti@massimochi,"Thanks to their work we have now #pki #https #cryptocurrency #wallet
#man_in_the_middleQuote TweetRaffaele Mauro@Rafr · Mar 1, 2016Cryptography Pioneers Win Turing Award http://nyti.ms/1QpvGX6",2,1,0,False
674,Michel Nilles@MichelNilles,You want to turn your USD or EURO into #Bitcoins - Check this out #bitcoin #cryptocurrency http://buff.ly/1LvX5di,1,1,0,False
675,Marion Nordmann@NordmannMarion,Many new members for OneCoin. Be there http://bit.ly/1NI1Iwk #Crypto #digitalcurrency #bitcoin #onecoin #China,0,0,0,False
676,Gareth Niblett@garethniblett,FBI fails to make its encryption case to Congress #crypto #backdoor http://cultofmac.com/415462/fbi-fails-to-make-its-encryption-case-to-congress/…,0,0,0,False
677,Crypto Yoyo@cryptoyoyo,Free and decentralised Bitcoin and cryptocurrency event CoinFest to hold Manchester meeting http://bit.ly/1XZUvy8 #bitcoin #crypto #news,0,0,0,False
678,Crypto Yoyo@cryptoyoyo,Bitcoin Price Technical Analysis: BTCUSD To Spike Higher? http://bit.ly/1TQDgP8 #bitcoin #crypto #news,0,0,0,False
689,Crypto Yoyo@cryptoyoyo,Blockchain to raise $10b in funding during 2016 http://bit.ly/1XZUvy6 #bitcoin #crypto #news,1,0,0,False
690,Moises C.@moigottweets,"My favorite crowdfunding model for equity is the way #bitcoin, #altcoins and companies like @slockitproject do it. On a #blockchain.",2,1,0,False
691,Julia Vaingurt@julia_vaingurt,"Bitfury group invests in #bitcoin #trading platform bitpesa #crypto #cryptocurrency http://cur.lv/w1esq
http://cur.lv/w1esr",0,0,0,False
692,Julia Vaingurt@julia_vaingurt,"Artists turn to #bitcoin for inspiration not personal finance #crypto #cryptocurrency http://cur.lv/w1eay
http://cur.lv/w1eaz",0,0,0,False
693,Bitcoin Hourly@bitcoin_hourly,"Price Update: 1 #Bitcoin = $434.8000

#cryptocurrency source http://yhoo.it/1PH2nON (via @Flutter_HQ)",0,0,0,False
694,BitcoinBuzz vega9@BitcoinBuzzV9,http://bitcoinbuzz.vega9.com - Hot topics: #bitcoin #btc #cryptocurrency #crypto #mmmextra #dogecoin,0,0,0,False
695,RealMenLiveToxinFree@ferwealthy,"Yay!

Now you can pay me with  #cryptocurrency  to help you market your bidniz. http://fb.me/4xbqOaD1G",1,0,0,False
696,Julia Vaingurt@julia_vaingurt,"Changetip launches ‘decentralised’ wallet in bid for new #bitcoin users #crypto http://cur.lv/w1di5
http://cur.lv/w1di6",0,0,0,False
697,Tech BitCoin@tech_bitcoin,"""Ethereum Price Technical Analysis 03/02/2016 – Calling For Gains"" http://ift.tt/1TPQE7p #bitcoin #crypto http://ift.tt/1RFuSQt",0,0,0,False
698,BitcoinAgile@bitcoinagile,Ethereum Price Technical Analysis 03/02/2016  Calling For Gains - NEWSBTC #news #crypto http://newsbtc.com/2016/03/02/ethereum-price-technical-analysis-03022016-calling-for-gains…,0,0,0,False
699,Coin Tiny@CoinTiny,Bitcoin Price waiting for the bear whale! #CryptoCurrency #Crypto,0,0,0,False
700,Coin Tiny@CoinTiny,Bitcoin Companies Vulnerable to DROWN Attacks : Bitcoin #CryptoCurrency #Crypto,0,0,0,False
701,Smas@Threatbucket,"A tidy summary of Comey's asinine testimony to the House Judiciary #AppleVsFBI #infosec #CryptoQuote TweetGizmodo@Gizmodo · Mar 1, 2016FBI Director James Comey is a clown http://gizmo.do/UwgU2RS",3,0,0,False
706,Bitcoin Hourly@bitcoin_hourly,"Price Update: 1 #Bitcoin = $434.7900

#cryptocurrency source http://yhoo.it/1PH2nON (via @Flutter_HQ)",0,0,0,False
707,BitcoinBuzz vega9@BitcoinBuzzV9,http://bitcoinbuzz.vega9.com - Hot topics: #bitcoin #btc #cryptocurrency #mmmextra #crypto #robotcoingame,0,0,0,False
