,user,text,likes,retweets,replies,is_thread
0,JΞSSΞ ℂOUℂH@jessecouch,Replying to @alex_sterk@alex_sterk @CRInvestor @Coinigy A bull #crypto market with 420 coming. How about a weed coin special! $THC $POT $DOPE $CCN $CANN $STV ,1,1,0,False
1,Gabor Venczel@ujtrend,"Forget How Blockchain Works, Talk About What It Does #cryptocurrency, bitcoin, octacoin, http://webogi.com/B-ayPW",0,0,0,False
2,KimberSystems@KimberSystems,What if the FBI tried to crack an Android phone? We attacked one to find out http://buff.ly/1ZRqd1j #infosec #crypto #mobilesecurityWhat if The FBI Tried to Crack an Android Phone? We Attacked One to Find OutScary.sciencealert.com,1,0,0,False
3,CCN - Capital & Celeb News@CapitalAndCeleb,Bitcoin Price Down Amid Fundamental Concerns https://cryptocoinsnews.com/bitcoin-price-echoes-fundamental-concerns/… #cryptocurrency,1,2,0,False
4,Crypto Yoyo@cryptoyoyo,"The Space Between ""Blockchain"" and Blockchain http://bit.ly/25FfmM8 #bitcoin #crypto #news",0,0,0,False
5,JC@Cryptoelite,Crypto Elite News is out! http://paper.li/Cryptoelite/1426551318?edition_id=5f72a960-f9f2-11e5-a9d4-0cc47a0d1605… #Bitcoin #Altcoin #Cryptocurrency @coinigy,1,0,0,False
6,JΞSSΞ ℂOUℂH@jessecouch,"Replying to @ThisIsNuse@ThisIsNuse @_TM3K_ @DJThistle01 @MBtradez @philfrancis77 @CollinCrypto Yeah, so much profit in #crypto for anyone who bought in late 2015.",0,0,0,False
7,Manuel Carbonell@ManuelCAviles,OKCash is on fire! The best PoS cryptocurrency is here! #OKCash #cryptocurrency,6,8,0,False
8,Vertebrate@GreenGrounded,"RU a disgruntled rich client of  #MossackFonseca? Don't fret: invest your loot now in #MugDosh, the world's most discreet #cryptocurrency.",1,3,1,False
9,CryptoRSS@CryptoRSS,Mason Borda Orders a Tesla with Bitcoin: It is now possible to buy anything with bitcoin. Starting wit... http://bit.ly/1qhJhKo #crypto,0,0,0,False
10,Denny McEnroe@McEnroeDenny,Re: [SELLING] DirecTV | WWE | Spotify | HBO | PSN & MORES..{AutoBuy} #PAY1GET2 http://cur.lv/x34rq #bitcoin #crypto,0,0,0,False
18,Denny McEnroe@McEnroeDenny,Re: [http://BIT-X.com] Earn Bitcoins by Posting | Signature Campaign http://cur.lv/x34rp #bitcoin #crypto,0,0,0,False
19,Denny McEnroe@McEnroeDenny,Re: Multiple Bittrex accounts hacked everyone enable 2fa http://cur.lv/x34ro #bitcoin #crypto,0,0,0,False
20,Denny McEnroe@McEnroeDenny,Re: if you have free electricity  and 10k http://cur.lv/x34rn #bitcoin #crypto,0,0,0,False
21,Denny McEnroe@McEnroeDenny,Re: EUROPECOIN Staisybit Electrum NXT COIN2PAY moBUinet VPOS ROKOS MULTIPOOL DEVteam http://cur.lv/x34rl #bitcoin #crypto,3,2,0,False
22,Cryptocoin Radar@cryptocoinradar,"Counterparty/Bitcoin: +13% value, +193% volume in 12 minutes (http://cryptocoinradar.com monitored #trading #altcoin #cryptocoin)",1,0,0,False
23,BitcoinBuzz vega9@BitcoinBuzzV9,http://bitcoinbuzz.vega9.com - Hot topics: #bitcoin #panamapapers #blockchain #cryptocurrency #fintech #ipo,0,0,0,False
24,Alex Sterk@alex_sterk,Replying to @alex_sterkLooks like public loves the @CRInvestor's #altcoin wheel for the next @coinigy show. A large market cap wheel with #bitcoin and alex's pick.,2,1,1,False
25,HaShForce101@HaShForce101,BTC-NAV $NAV https://bittrex.com/Market/Index?MarketName=BTC-NAV… #NAV via @bittrexexchange 1 week charts #altcoins performance #Bitcoin,0,0,0,False
26,reddibrek@reddibrek,Reddheads newsletter issue 28 - Community Involvement :) http://bit.ly/1Y9kz9g #reddcoin #cryptocurrency #altcoin,5,5,0,False
27,Rick McElroy@InfoSecRick,Worth reading all four parts. Crypto and self made mastermind #infosec #crypto #cybercrime #cybersecThe Mastermindmagazine.atavist.com,0,0,0,False
28,Coin Tiny@CoinTiny,Reddheads newsletter - issue 28 #CryptoCurrency #Crypto,0,0,0,False
29,Cryptocoin Radar@cryptocoinradar,"bcn/btc: +25% value, -8% volume in 3 hours (http://cryptocoinradar.com monitored #trading #altcoin #cryptocoin)",1,0,0,False
30,CCN - Capital & Celeb News@CapitalAndCeleb,The Energy Efficiency of Bitcoin https://cryptocoinsnews.com/energy-efficiency-bitcoin/… #cryptocurrency,1,8,1,False
31,Will Long@Slick_Willy_,"Enjoy this funny bit about being exposed to Bitcoin.

Yes, It can be intimidating, but #Bitcoin, #cryptocurrency and the #blockchain are we…",2,1,0,False
35,AlertCo.in@AlertCoin,"#Bitcoin last trade

@bitstamp $418.35
@coinbase $419.38

Set #crypto #price #alerts at http://AlertCo.in",2,0,0,False
36,AlertCo.in@AlertCoin,"#Bitcoin last trade

@bitfinex $419.20
@btcecom $416.59

Set #crypto #price #alerts at http://AlertCo.in",2,0,0,False
37,BitcoinBuzz vega9@BitcoinBuzzV9,http://bitcoinbuzz.vega9.com - Hot topics: #bitcoin #panamapapers #blockchain #btc #cryptocurrency #fintech,0,0,0,False
38,Denny McEnroe@McEnroeDenny,Re: [ANN] POSEX PEX Hybrid POW/POS With HIPOS SHA256D [ANN] http://cur.lv/x33bc #bitcoin #crypto,0,0,0,False
39,Denny McEnroe@McEnroeDenny,"Re: Seuntjies DiceBot -Multi-Site, multi-strategy betting bot for dice. With Charts! http://cur.lv/x33bb #bitcoin #crypto",0,0,0,False
40,Denny McEnroe@McEnroeDenny,"Re: BitClub Network: MLM promises, false testimonials and PoS coin - AVOID http://cur.lv/x33ba #bitcoin #crypto",0,0,0,False
41,Denny McEnroe@McEnroeDenny,Re: BetKing.io 3rd anniversary double profit giveaway http://cur.lv/x33b9 #bitcoin #crypto,0,0,0,False
42,Denny McEnroe@McEnroeDenny,Re: [ANN] CDN:Canada eCoin-merge mineable scrypt eCoin [ANN] http://cur.lv/x33b8 #bitcoin #crypto,0,0,0,False
43,Jonathan Bensen@Cybertronic0,"This just means stronger #crypto is around the corner...FBI offers crypto assistance to local cops: “We are in this together”After iPhone unlock in San Bernardino, FBI reassures police it will try to help.arstechnica.com",0,0,0,False
44,Webindexia@webindexia,#Crypto-challenge: the answers http://webindexia.com/crypto-challenge-the-answers/?utm_campaign=crypto-challenge-the-answers&utm_medium=twitter&utm_source=twitter…,0,0,0,False
45,Coin Tiny@CoinTiny,Another scam project for Ethereum? #CryptoCurrency #Crypto,0,0,0,False
46,Bogdan STRB@BogdanSTRB,Cryptographic heritage - Bitcoin for storing cultural evidence in political conflicts http://ift.tt/1pXNWR0 #bitcoin #blockchain #crypto…Cryptographic heritage - Bitcoin for storing cultural evidence in...https://medium.com/@dietoff/cryptographic-heritage-1175ea39be59#.4gozqydw7 I have been thinking about how to use the bitcoin blockchain to store...reddit.com,0,0,0,False
47,BitBay Community@bitbaycommunity,"Win 15,000 Bay! Join our slack channel to learn more - http://bit.ly/bayslack - #BitBay #altcoin #Bitcoin",8,2,2,False
48,BitcoinAgile@bitcoinagile,1 Year Mining Service #crypto #money #currency #mining http://learnearnown.com/yukari/Shop/Products/602/1-Year-Mining-Service…,1,0,0,False
49,Crypto Yoyo@cryptoyoyo,Mason Borda Orders a Tesla with Bitcoin http://bit.ly/1UBUeTf #bitcoin #crypto #news,0,0,0,False
50,CryptoPot@CryptoPotGame,"And yes, you'll be able to play on your mobile devices!

#CryptoPot #bitcoin #game #cryptocurrency #Altcoin",1,0,0,False
51,Steffen Bauch@steffenbauch,Google Capture The Flag 2016 http://bit.ly/1VnGb2A #ctf #infosec #crypto,0,0,0,False
52,BlockChannel@BlockChannel,BCN News: themerklenews: http://ift.tt/1Ry7iXu What is a DAO? #bitcoin #bitcoinnews #cryptocurrency,1,0,0,False
53,Dennis Parker@Xentagz,http://ift.tt/1Ry7iXu What is a DAO? #bitcoin #bitcoinnews #cryptocurrency,2,0,0,False
54,Enoch Cruz@enochmms,#GeoCoins. The smart choice when it comes to #cryptocurrency. http://bit.ly/1N8DImO,0,0,0,False
55,Team 300FPS ︻╦̵̵̿╤─@300FPSGAMING,What is a DAO? http://btcf.co/1SvWdCE #bitcoin #bitcoinnews #btc #cryptocurrency,1,0,0,False
56,Null TX@nulltxnews,http://ift.tt/1Ry7iXu What is a DAO? #bitcoin #bitcoinnews #cryptocurrency,0,0,0,False
57,Bitcoin@bitcoinpoet,"Bitcoin Price Analysis: Two Paths: Bitcoin price printed another nondescript feeble advance, a... http://btcs.me/1qhq1N1 #cryptocurrency",0,0,0,False
58,CryptoRSS@CryptoRSS,Meet the Man Who Will Hack Your Long-Lost Bitcoin Wallet for Money: The owner of a cryptocurrency wall... http://bit.ly/1ot1WRw #crypto,0,0,0,False
59,Denny McEnroe@McEnroeDenny,"[WTS] Wind 10 italian phone reload, bought by mistake http://cur.lv/x31fa #bitcoin #crypto",0,0,0,False
60,Denny McEnroe@McEnroeDenny,Re: Turkish Super League Prediction Thread [STSL] http://cur.lv/x31f9 #bitcoin #crypto,0,0,0,False
61,Denny McEnroe@McEnroeDenny,Re: NovaCoin (scrypt PoW + PoS hybrid) [self-mod] http://cur.lv/x31f7 #bitcoin #crypto,0,0,0,False
62,Denny McEnroe@McEnroeDenny,Re: [ETH] Fountain of Wealth - Get Wealthy Today! http://cur.lv/x31f6 #bitcoin #crypto,0,0,0,False
63,Denny McEnroe@McEnroeDenny,Re: [WTS] 4X280x GPU mining rig (complete) http://cur.lv/x31f4 #bitcoin #crypto,0,0,0,False
64,Kelly Ann Pope@SMOspider,#BraveNewCoin CEO Fran Strajnar Interview - Kelly n Kelly #Crypto #Show https://youtu.be/4mqsccGF6bg?list=PLGqEb1G6C_6XHYhGACpXbMmgOrAIM4M64… via @YouTube,0,0,0,False
65,Coinfeed@CoinfeedIO,http://Crypto-games.net offers a collection of supreme games for ##Crypto gamblers http://tinyurl.com/pcvau49,0,0,0,False
66,Tech BitCoin@tech_bitcoin,"""Mason Borda Orders a Tesla with Bitcoin"" http://ift.tt/eA8V8J #bitcoin #crypto http://ift.tt/1UNTRWa",0,0,0,False
67,NE Patriots Dynasty@NEPatsDynasty,#trump the future of money is #Crypto The New ILCoin will be a way of online payments and #money http://goldnews.ilgamos.com/buy?buy_type=1,1,1,0,False
68,Fintech news@currencies111,"Syscoin Releases Final 2.0 Beta, Cuts Supply by More than Half
http://bitcoinist.net/syscoin-final-beta-cuts-supply/…
#syscoin #altcoin #cryptocurrency",0,0,0,False
69,Coin Tiny@CoinTiny,Big on Blockchains: BTCMANAGER’S Week in Review for April 3 #CryptoCurrency #Crypto,1,0,0,False
70,NE Patriots Dynasty@NEPatsDynasty,To All #Bitcoin #Btc #Crypto time to diversify your #coins.Quadruple your investment. http://ilgamosilcoin.com/home.html Register FREE,1,0,0,False
71,Arish Dubash@happyarish,"Bitcoin (btcUSD=x) price on April 03, 2016 is 418.28. #bitcoin #toTheMoon #cryptoCurrency #newMoney",1,0,0,False
72,Wheel of Doge@WheelofDoge,"#Dogecoin weekly price analysis. Check it out. #bitcoin #altcoin #ethereum #cryptocurrencyDogecoin Price Weekly Analysis – 50.0 Satoshis Hold KeyDogecoin price traded towards 64.0 Satoshis, but found sellers. The price is currently trading near a major support area. Can the bulls defend it?newsbtc.com",0,0,0,False
73,Unobtanium $UNO News@unobtanium_uno,"There are nearly 200 $UNO/#Altcoin markets.
Trade your favorite coin with #Unobtanium. http://saldigi.info/coin/UNO/trade/",1,0,0,False
85,Silvastrings@Silvastrings,Warp coin is alive and well!!! #warp #cryptocurrency #bitcoin #money https://twitter.com/shapetwist/status/716702381036216322…This Tweet is unavailable.,1,0,0,False
86,Coin Tiny@CoinTiny,[Forbes] Ethereum: Towards A New BitSociety #CryptoCurrency #Crypto,0,0,0,False
87,CCN - Capital & Celeb News@CapitalAndCeleb,Russia’s Presidential Advisor Dismisses Bitcoin as Fiction https://cryptocoinsnews.com/russias-presidential-advisor-dismisses-bitcoin-fiction/… #cryptocurrency,2,6,2,False
88,Denny McEnroe@McEnroeDenny,Migrants protest on Greek island of Chios against deportations http://cur.lv/x2zh0 #bitcoin #crypto,0,0,0,False
89,Denny McEnroe@McEnroeDenny,Re: [ANN][STEEM][POW] - NO IPO | NO PREMINE | NO INSTAMINE (relaunch) http://cur.lv/x2zgy #bitcoin #crypto,0,0,0,False
90,Denny McEnroe@McEnroeDenny,When Claustrophobic down bitched-at pressured disturbed intense deprived http://cur.lv/x2zgx #bitcoin #crypto,0,0,0,False
91,Denny McEnroe@McEnroeDenny,Re: Am i too new to offer BTC loans to people? http://cur.lv/x2zgw #bitcoin #crypto,0,0,0,False
92,Denny McEnroe@McEnroeDenny,Re: (POLL) Which wallet do you think is best with the best features? http://cur.lv/x2zgu #bitcoin #crypto,0,0,0,False
93,UDC@UDCommonwealth,"Decentralized #cryptocurrency is the only legitimate method.Quote TweetBitcoinAgile@bitcoinagile · Apr 3, 2016Why does Andy Freer believe in Dash Nation? Powered by RebelMouse #DASH #DashNation https://rebelmouse.com/dashnation/why-is-andy-freer-1706245048.html…",3,0,0,False
94,Agorise@Agorise_world,Is your #cryptocurrency legal?? https://bytemaster.github.io/article/2016/03/27/How-to-Launch-a-Crypto-Currency-Legally-while-Raising-Funds/…,1,0,0,False
95,Thorsten Heller@ThoHeller,"The #rise of the #blockchain #asset class http://venturebeat.com/2016/04/03/the-rise-of-the-blockchain-asset-class/… via @VentureBeat
#bitcoin #Ethereum #cryptocurrencyThe rise of the blockchain asset classGuest Join Transform 2021 this July 12-16. Register for the AI event of the year. Bitcoin first cracked a $1 billion market cap on March 30, 2013. And by the following month, it had reached $1.504...venturebeat.com",1,0,0,False
96,Karl Perkin@karl_perkin,"Replying to @BitcoinGarden@BitcoinGarden @newsbtc @seagate @WB
#BURST, a #crypto minable with you #HDD wont do that no matter how big it will be! :) #sustainable",2,5,0,False
97,Tech BitCoin@tech_bitcoin,"""Blockchain CEO’s Business Advice on Bitcoin Startups"" http://ift.tt/eA8V8J #bitcoin #crypto http://ift.tt/1Y91vrP",0,0,0,False
98,Coin Tiny@CoinTiny,Microsoft Continues to Embrace Ethereum & Bitcoin #CryptoCurrency #Crypto,0,0,0,False
99,YepOnlyOne@YepOnlyOne,"Replying to @TechWeekLive@TechWeekLive Bitcoin will turn to #crypto #BURST! 

#decentralized #HDDmining #Ecofriendly #greentech #sustainable Trade it on @Poloniex",9,8,0,False
100,BitcoinAgile@bitcoinagile,Microsoft Continues to Embrace #ethereum & #bitcoin - Bitcoin News #Crypto #Excel #Solidity https://news.bitcoin.com/microsoft-embrace-digital-currency…,2,2,0,False
101,Mogul News@mogulnews,What is the Future of Bitcoin? http://bit.ly/22Lirvi #cryptocurrency #Bitcoin #SatoshiNakamoto #Blockchain #p2p,0,0,0,False
102,CryptoTorNews@CryptoTorNews,Can Unrestricted Use of Blockchain Lead To Its Demise? http://dlvr.it/KyWh8J #crypto #bitcoin,1,0,0,False
103,YepOnlyOne@YepOnlyOne,"Wanna mine #crypto #BURST on #Windows?

Instruction Video: https://youtube.com/watch?v=8FHvD3b30ks…
Software: http://sourceforge.net/projects/burstwindowswallet…Quote TweetCryptoCamper@BTC4CAMPING · Apr 3, 2016Replying to @notsofast@notsofastcrypto If you don't mind, what setup are you running for $BURST mining?",4,5,0,False
104,OpenFXMarket@OpenFXMarket,#bitcoin market index: 95.53 #OFXBTC. #altcoin market index (avg): 155.78 #OFXAVG by http://openfxmarket.com. Stay tuned!,0,0,0,False
105,Farah K. Miraza@farahkaifa,#cryptocurrency #crypto The Bitcoin Standard Would Bring An End To Central Bank Lending http://ow.ly/3d8wD2,0,0,0,False
106,TheCoinWarrior@TheCoinWarrior,"""Meet the Man Who Will Hack Your Long-Lost Bitcoin Wallet for Money"" https://google.com/url?rct=j&sa=t&url=http://www.coindesk.com/meet-man-will-hack-long-lost-bitcoin-wallet-money/&ct=ga&cd=CAIyGjk4NmJlZGI4MDE2OTU4NGU6Y29tOmVuOlVT&usg=AFQjCNE4_yIECtmePvL79NPUOsNL2PxuEg… #cryptocurrency #feedly",1,0,0,False
107,YepOnlyOne@YepOnlyOne,"Hell Yeah! Dunno how to mine #crypto #BURST on #Windows?   

Instruction Video: https://youtube.com/watch?v=8FHvD3b30ks… 
Software:Burstcoin Client for WindowsDownload Burstcoin Client for Windows for free. Burstcoin Windows Client. Burstcoin Wallet with Miner for Windows Burst is a currency like Bitcoin but efficient mineable with free HDD Storage instead...sourceforge.net",1,4,0,False
108,bigs21024@bigs21024,What coin would you buy first #ADZ #DES #WARP #DGB lets see what you pick #Bitcoin #crypto #Altcoin @YobitExchangeADZ0%DES25%WARP25%DGB50%4 votes·Final results,0,0,0,False
109,YepOnlyOne@YepOnlyOne,Re: [ANN] jminer v0.4.2 - GPU assisted PoC-Miner for Burstcoin (#BURST) https://coinregime.wordpress.com/2016/03/02/re-ann-jminer-v0-4-2-gpu-assisted-poc-miner-for-burstcoin-burst/… via @coinregime #greentech #bitcoin #crypto,1,5,0,False
110,Bitcoin@webitcoins,What is Bitcoin and How do i get it? http://goo.gl/fb/lXNbBg #bitcoin #crypto #bitcoinbeginner #earnbitcoin,1,0,0,False
111,Megabyte@megabyte101,@CryptoCoinsNews: A View From The Cell Of Ross Ulbricht https://cryptocoinsnews.com/a-view-from-the-cell-of-ross-ulbricht/… #cryptocurrency,0,0,0,False
112,Cryptocoin Radar@cryptocoinradar,"gmc/btc: +7% value, +56% volume in 30 minutes (http://cryptocoinradar.com monitored #trading #altcoin #cryptocoin)",0,0,0,False
113,tekybot@tekypromo,Can Unrestricted Use of Blockchain Lead To Its Demise http://ift.tt/25EIXW8 #tekypromo #TP #NEWS #cryptocurrency,0,0,0,False
114,Team 300FPS ︻╦̵̵̿╤─@300FPSGAMING,RunCPA Announces Competition for Best D-App on the Ethereum platform http://btcf.co/1Vnleor #bitcoin #bitcoinnews #btc #cryptocurrency,0,0,0,False
115,Karl Perkin@karl_perkin,"Replying to @BTC4CAMPING@snippitj @notsofastcrypto Have a look here https://twitter.com/karl_perkin/status/716687407907807233… Also have a look at the 2-month long trend on poloniex :)
#BURST #cryptoQuote TweetKarl Perkin@karl_perkin · Apr 3, 2016How to mine ##greentech #BURST on #Windows? 

Instruction Video: https://youtube.com/watch?v=8FHvD3b30ks…
Software: http://sourceforge.net/projects/burstwindowswallet/…
#bitcoin #crypto",6,5,0,False
116,JΞSSΞ ℂOUℂH@jessecouch,"Replying to @ThisIsNuse@ThisIsNuse @Sicarious_ @Poloniex
$AMP is amazing. One of the greatest technologies in #crypto right now. 
@Synereo",0,0,0,False
117,Null TX@nulltxnews,http://ift.tt/1RYvyhi Bitcoin Online Gambling Review – CryptoGames #bitcoin #bitcoinnews #cryptocurrency,1,0,0,False
118,CCN - Capital & Celeb News@CapitalAndCeleb,A View From The Cell Of Ross Ulbricht https://cryptocoinsnews.com/a-view-from-the-cell-of-ross-ulbricht/… #cryptocurrency,4,0,0,False
119,Bailey Reutzel@BLR13,The man that hacks your #cryptocurrency wallet so you can get your money back. http://bit.ly/1RYFgQG Via @coindesk,10,10,0,False
120,Denny McEnroe@McEnroeDenny,Re: COEXIST coin - COEXST - Crypto Helping others http://cur.lv/x2xgi #bitcoin #crypto,0,0,0,False
121,Denny McEnroe@McEnroeDenny,Re: New cryptocurrency $CAB shows true potential http://cur.lv/x2xgg #bitcoin #crypto,0,0,0,False
122,BitcoinAgile@bitcoinagile,SHOUTBOX #bitcoin #rimbit #cryptocurrency http://rimbit.com/threads/shoutbox.3211…,0,0,0,False
123,BitcoinAgile@bitcoinagile,SHOUTBOX #bitcoin #rimbit #cryptocurrency http://rimbit.com/threads/shoutbox.3211…,2,0,0,False
124,Cryptolized™@Cryptolized,#rimbit #bitcoin SHOUTBOX: Does it really need its own placeholder on the blue navigation bar?... http://bit.ly/1Vnhtzr #cryptocurrency,0,0,0,False
125,Lemo@LetsMakeEzMoney,"You can download the Adzcoin Chrome extension here https://chrome.google.com/webstore/detail/adzcoin-savers/klbfpaaimakohenmbjjpalbchocckpfg/reviews?hl=en… Do it, save money and change the face of the internet! #Altcoin",1,1,0,False
126,rssbtc.com@rssbtc,"24 Hours of #Bitcoin 
+0.05% price $417.90 USD 
-5.88% volume $169M 
+0.13% market cap $6.48B

#fintech #btc #crypto #usd #satoshi",3,2,0,False
127,YDX @YDXMyfriend,"03/04/2016 Weekly #Dividends @ClubNxt http://bit.ly/1RGJX2o
#blockchain #NXT #Asset #crypto #fintech #benefits",4,2,0,False
128,AlertCo.in@AlertCoin,"#Bitcoin last trade

@bitfinex $419.87
@btcecom $416.13

Set #crypto #price #alerts at http://AlertCo.in",2,0,0,False
129,AlertCo.in@AlertCoin,"#Bitcoin last trade

@bitstamp $418.70
@coinbase $419.90

Set #crypto #price #alerts at http://AlertCo.in",2,0,0,False
130,Farah K. Miraza@farahkaifa,#cryptocurrency #crypto The Bitcoin Standard Would Bring An End To Central Bank Lending http://ow.ly/3d8qw1,1,0,0,False
131,Crypto Yoyo@cryptoyoyo,Can Unrestricted Use of Blockchain Lead To Its Demise? http://bit.ly/1RVBhux #bitcoin #crypto #news,0,0,0,False
132,Crypto Yoyo@cryptoyoyo,Next Looming Financial Crisis Is A Potential Boost for Bitcoin http://bit.ly/1RVBhut #bitcoin #crypto #news,0,0,0,False
133,Karl Perkin@karl_perkin,"How to mine ##greentech #BURST on #Windows? 

Instruction Video: https://youtube.com/watch?v=8FHvD3b30ks…
Software: http://sourceforge.net/projects/burstwindowswallet/…
#bitcoin #cryptoBurstcoin Client for WindowsDownload Burstcoin Client for Windows for free. Burstcoin Windows Client. Burstcoin Wallet with Miner for Windows Burst is a currency like Bitcoin but efficient mineable with free HDD Storage instead...sourceforge.net",8,7,0,False
134,Branch 22 Capital@Branch22Capital,Mixed signals on $ETHBTC. History shows a strong #trend may occur. #fintech #cryptocurrency #ethereum #Bitcoin,1,0,0,False
135,BitcoinBuzz vega9@BitcoinBuzzV9,http://bitcoinbuzz.vega9.com - Hot topics: #monstercoingame #bitcoin #blockchain #btc #cryptocurrency #wallet,0,0,0,False
136,AdzCoin Newsstories@GetFreeAdz,How #Adzcoin Will Save The #Gaming Publishers? http://ow.ly/ZXjPT #cryptoworld #crypto #altcoin,5,1,0,False
137,Golden Gateway@GoldenGatewayUS,Remember to like us on FB at http://facebook.com/officialgoldengateway… #bitcoin news and #cryptocurrency updates (FREE Automation >> http://bit.ly/free_twitter_automation…),0,0,0,False
138,Fintech Prowler@FintechProwler,Meet the Man Who Will Hack Your Long-Lost Bitcoin Wallet for Money - CoinDesk http://ift.tt/1pXekdA #altcoin,0,0,0,False
139,tekybot@tekypromo,Meet the Man Who Will Hack Your Long-Lost Bitcoin Wallet for Money http://ift.tt/1X9hKF7 #tekypromo #TP #NEWS #cryptocurrency,1,0,0,False
140,Team 300FPS ︻╦̵̵̿╤─@300FPSGAMING,Bitcoin Online Gambling Review – CryptoGames http://btcf.co/1UNy3Kj #bitcoin #bitcoinnews #btc #cryptocurrency,1,0,0,False
141,Load Debit Card@LoadDebitCard,"The Bitcoin Standard Would Bring An End To Central Bank Lending http://newsbtc.com/2016/04/03/bitcoin-standard-bring-end-central-bank-lending/… #Bitcoin #Btc #AltcoinsThe Bitcoin Standard Would Bring An End To Central Bank LendingBanks do not like Bitcoin price volatility, but if there would be a thing as the “Bitcoin Standard”, having no volatility would lead to flat trading marketsnewsbtc.com",0,0,0,False
142,VIP Music Promotion@RT2EAT,"Excellent Video & Soundtrack!
AOA @aoamusic 'Paradise' (Official Video) https://youtu.be/e6l20ziY0Ac?list=PLM6QNrHJW3oQ-02PCkj4BPBlPXBKPiCDH… via @RT2EAT @Soundposition #CryptoCurrency",3,1,0,False
149,Load Debit Card@LoadDebitCard,Maid Safe Coin Debit Card #Maidsafecoin to #debitcard with 40+ #Altcoins #Bitcoin @maidsafe http://bit.ly/debitnow,1,0,0,False
150,CryptoOrbit@CryptoOrbit,If you wanna follow the progress & development of #cryptocurrency #BURST on twitter? https://twitter.com/Burstcoin_dev & https://twitter.com/daWallet_,1,4,0,False
151,Tech BitCoin@tech_bitcoin,"""Next Looming Financial Crisis Is A Potential Boost for Bitcoin"" http://ift.tt/eA8V8J #bitcoin #cryptoNext Looming Financial Crisis Is A Potential Boost for BitcoinThen again, a secondary financial crisis would push even more consumers and enterprises in the direction of alternative financial services and solutions.newsbtc.com",1,0,0,False
152,Kelly Spaulding@kellyspaulding,Finally getting some refresher work done around #bitcoin #cryptocurrency & #smartcontracts : http://econ.st/1M8SI8D,3,1,0,False
153,CryptoOrbit@CryptoOrbit,"U like this #trend of #crypto #BURST? Very soon a two months trend without any significant #PR
#bitcoin #currency",7,4,0,False
154,Bob Clark@infostaffllc,Track #Cryptocurrency Performance Outcomes And More With Reality Keys - #infosec - http://goo.gl/q5J5J7,2,3,0,False
155,CryptoRSS@CryptoRSS,Are Bitcoiners Rational Economic Agents?: Bitcoin and blockchain technologies have big visions of chan... http://bit.ly/1SLMlYd #crypto,0,0,0,False
156,Bitcoin Garden (Not Giving Away ETH)@BitcoinGarden,"Syscoin Releases Final 2.0 Beta, Cuts Supply by More than Half: http://bitcoingarden.tk/forum/index.php?topic=6555.msg110204#msg110204… tnx @syscoin @bitcoinist | #Cryptocurrency #News",2,6,0,False
157,Denny McEnroe@McEnroeDenny,Re: Clearing the FUD around segwit http://cur.lv/x2vea #bitcoin #crypto,0,0,0,False
158,Denny McEnroe@McEnroeDenny,Re: Free DRAW bet of the day with Discussion http://cur.lv/x2ve9 #bitcoin #crypto,0,0,0,False
159,Denny McEnroe@McEnroeDenny,Re: [FULL] Rollin.io Signature & Avatar Campaign http://cur.lv/x2ve8 #bitcoin #crypto,0,0,0,False
160,Denny McEnroe@McEnroeDenny,Re: is it possible to hack your bitcoin from your wallet? http://cur.lv/x2ve7 #bitcoin #crypto,1,0,0,False
161,Crypto Database@CryptoDatabase,#CoExistCoin has now been added to http://cryptodatabase.net #cryptodatabase #altcoin #cryptocurrency,0,0,0,False
162,Crypto Yoyo@cryptoyoyo,Ethereum: Towards A New BitSociety http://bit.ly/1UBy1ow #bitcoin #crypto #news,0,0,0,False
163,Crypto Yoyo@cryptoyoyo,Meet the Man Who Will Hack Your Long-Lost Bitcoin Wallet for Money http://bit.ly/1RGElp0 #bitcoin #crypto #news,0,0,0,False
164,Crypto Yoyo@cryptoyoyo,"Weekend tech reading: Ubuntu on Windows 10, Apple turns 40 http://bit.ly/1UBy0kq #bitcoin #crypto #news",0,0,0,False
165,Crypto Yoyo@cryptoyoyo,BTCC's Humorous Documentary on Bitcoin Mining in China http://bit.ly/1RGEloY #bitcoin #crypto #news,0,0,0,False
166,Crypto Yoyo@cryptoyoyo,Digital Currency Weekly Recap 4-3-2016 http://bit.ly/1UBy1or #bitcoin #crypto #news,0,0,0,False
174,Jana@Nanobitcoin@NanoBitcoin,#Microsoft Adding #Bitcoin Currency Format Support in #Excel http://bit.ly/1X2DiDg #cryptocurrency #mainstream @softpedianews,1,0,0,False
175,BitcoinAgile@bitcoinagile,Buy and Sell Rimbit Sidebar #bitcoin #rimbit #cryptocurrency http://rimbit.com/threads/buy-and-sell-rimbit-sidebar.3212…,0,0,0,False
176,Cryptolized™@Cryptolized,#rimbit #bitcoin Buy and Sell Rimbit Sidebar: I think the first option in the Buy and Sell Rim... http://bit.ly/1SLKQZP #cryptocurrency,0,0,0,False
177,BitcoinBuzz vega9@BitcoinBuzzV9,http://bitcoinbuzz.vega9.com - Hot topics: #monstercoingame #bitcoin #blockchain #btc #fintech #cryptocurrency,0,0,0,False
178,Julia Vaingurt@julia_vaingurt,"$CAB / $BTC over 6+ #Bitcoin traded!!!
http://cur.lv/x2uvx
#Bitcoin #Blockchain #Cryptocurrency #Fintech http://cur.lv/x2uvz",0,0,0,False
179,EUROPECOIN  (.eu.org)@europecoinEUORG,Time to get a LOGO for the FEDERATED BLOCKCHAIN @logocreat0r  PM me #crypto #fintech #altcoin #bittrex #bitcoin ioT,11,7,1,False
180,Coin Tiny@CoinTiny,[VentureBeat] The Rise of the Blockchain Asset Class #CryptoCurrency #Crypto,0,0,0,False
181,BitcoinAgile@bitcoinagile,"The Apple-FBI Battle Is Over, But the New Crypto Wars Have Just Begun #New #Crypto http://rtag.co/jrxo",0,0,0,False
182,Team 300FPS ︻╦̵̵̿╤─@300FPSGAMING,Meet the Man Who Will Hack Your Long-Lost Bitcoin Wallet for Money http://btcf.co/1qgJsFQ #bitcoin #bitcoinnews #btc #cryptocurrency,1,0,0,False
183,Alejandro Sewrjugin@alesew23,#Bitcoin Meet the Man Who Will Hack Your Long-Lost Bitcoin Wallet for Money http://bit.ly/1Vn1mlo #Tech #Crypto,0,0,0,False
184,Bitcoin Press@BitcoinPressX,"Altcoins Price Analysis (Week of April 3rd): Ethereum, Litecoin and DASH http://dlvr.it/KyTRPK #crypto #bitcoin",0,0,0,False
185,Bitcoin Press@BitcoinPressX,Bitcoin Price Analysis (Week of April 3rd) http://dlvr.it/KyTRLf #crypto #bitcoin,0,0,0,False
186,Bitcoin Press@BitcoinPressX,Coinkite Is Closing Down Its Web Wallet Citing Legal and DDoS Issues http://dlvr.it/KyTRFn #crypto #bitcoin,0,0,0,False
187,CryptoTorNews@CryptoTorNews,Bitcoin Price Analysis (Week of April 3rd) http://dlvr.it/KyTR26 #crypto #bitcoin,0,0,0,False
188,CryptoTorNews@CryptoTorNews,Coinkite Is Closing Down Its Web Wallet Citing Legal and DDoS Issues http://dlvr.it/KyTQy9 #crypto #bitcoin,0,0,0,False
189,tekybot@tekypromo,"Altcoins Price Analysis Week of April 3rd Ethereum, Litecoin and DASH http://ift.tt/1VmURz3 #tekypromo #TP #NEWS #cryptocurrency",0,0,0,False
190,tekybot@tekypromo,"Altcoins Price Analtsis Week of April 3rd Ethereum, Litecoin and DASH http://ift.tt/1MLQw79 #tekypromo #TP #NEWS #cryptocurrency",0,0,0,False
191,Coin Tiny@CoinTiny,Our first prediction contests ends with a winner! #CryptoCurrency #Crypto,0,0,0,False
192,Bitcoin@crypto_bitcoins,http://ift.tt/1V22a0b Core Vs. Classic Discussion Grows Stale #bitcoin #bitcoinnews #cryptocurrency,0,0,0,False
193,Macca Tweeter@MaccaTweeter,It looks like I have received another #incentive #reward $XVC #RPi #Incentivized #Node #Cryptocurrency #XVC,1,0,0,False
194,Pipl@pipl_com,"Dutch central bank looking to create #digitalcurrency,  amber-backed #cryptocurrency turns out to be Ponzi scheme http://buff.ly/1UNa7Xv",0,0,0,False
195,Crypto Yoyo@cryptoyoyo,Transaction View information about a bitcoin transaction http://bit.ly/1MLTKY1 #bitcoin #crypto #news,0,0,0,False
196,Crypto Yoyo@cryptoyoyo,Transaction View information about a bitcoin transaction http://bit.ly/1SLDJAA #bitcoin #crypto #news,0,0,0,False
197,Crypto Yoyo@cryptoyoyo,Transaction View information about a bitcoin transaction http://bit.ly/1MLTIQ7 #bitcoin #crypto #news,0,0,0,False
198,Crypto Yoyo@cryptoyoyo,Transaction View information about a bitcoin transaction http://bit.ly/1SLDIg7 #bitcoin #crypto #news,0,0,0,False
199,Crypto Yoyo@cryptoyoyo,Transaction View information about a bitcoin transaction http://bit.ly/1MLTIQ3 #bitcoin #crypto #news,0,0,0,False
200,Crypto Yoyo@cryptoyoyo,Transaction View information about a bitcoin transaction http://bit.ly/1SLDHZN #bitcoin #crypto #news,0,0,0,False
201,Crypto Yoyo@cryptoyoyo,Transaction View information about a bitcoin transaction http://bit.ly/1MLTIPV #bitcoin #crypto #news,0,0,0,False
202,Crypto Yoyo@cryptoyoyo,Transaction View information about a bitcoin transaction http://bit.ly/1SLDHZH #bitcoin #crypto #news,0,0,0,False
203,Crypto Yoyo@cryptoyoyo,Transaction View information about a bitcoin transaction http://bit.ly/1MLTIzF #bitcoin #crypto #news,0,0,0,False
204,Crypto Yoyo@cryptoyoyo,Transaction View information about a bitcoin transaction http://bit.ly/1SLDJ3I #bitcoin #crypto #news,0,0,0,False
205,Crypto Yoyo@cryptoyoyo,The Bitcoin Standard Would Bring An End To Central Bank Lending http://bit.ly/1MLTIzz #bitcoin #crypto #news,0,0,0,False
206,Crypto Yoyo@cryptoyoyo,"The ""halving"" sounds like a horror story and may well turn out to be one for Bitcoin http://bit.ly/1SLDJ3E #bitcoin #crypto #news",0,0,0,False
207,𝓮𝓿𝓸 @amoration,"In other news, read this: https://medium.com/metacurrency-project/beyond-blockchain-simple-scalable-cryptocurrencies-1eb7aebac6ae#.gsoly0ld8…  from @artbrock on designing scalable #crypto on @Medium",1,0,0,False
208,Mooncoin [MOON]@MooncoinItalia,Send #MOON via #email ! web #multicoin wallet #altcoin #cryptocurrency #blockchain http://coinwallet.co/en/currency/MOON… #business #fintech #iot #bitcoin,1,0,0,False
209,Team 300FPS ︻╦̵̵̿╤─@300FPSGAMING,DASH Technical Analysis for 04/03/2016 – Sideways Chop Between Pivot L http://btcf.co/1V2wuHZ #bitcoin #bitcoinnews #btc #cryptocurrency,1,0,0,False
210,Monkam@CryptoMonkam,Which poloniex #altcoin is next pump? Is it time for big ones yet?...... But which one?GIF,1,0,0,False
222,BitcoinBuzz vega9@BitcoinBuzzV9,http://bitcoinbuzz.vega9.com - Hot topics: #bitcoin #blockchain #btc #fintech #cryptocurrency #cab,0,0,0,False
223,Fintech Prowler@FintechProwler,"Altcoins Price Analysis (Week of April 3rd): Ethereum, Litecoin and DASH - CoinTelegraph http://ift.tt/1Y8H2Do #altcoin",0,0,0,False
224,bigs21024@bigs21024,$VIP #viptokens @VipTokens looking good on @YobitExchange 24.4 BTC volume get them now $BTC $BITCOIN $VIP #altcoins #crypto,2,0,0,False
225,Denny McEnroe@McEnroeDenny,Re: BetterBets.io |Rubies Launched!| DICE★PLINKO★HORSE RACING Games/Chat http://cur.lv/x2te5 #bitcoin #crypto,0,0,0,False
226,Denny McEnroe@McEnroeDenny,Re: Premier League Prediction Thread (EPL) http://cur.lv/x2te3 #bitcoin #crypto,0,0,0,False
227,Denny McEnroe@McEnroeDenny,Re: [ANN] VIP TOKENS CLUB [ECOSYSTEM WALLET][NIST5][PoW/PoS][EXCLUSIVE] http://cur.lv/x2te2 #bitcoin #crypto,0,0,0,False
228,Denny McEnroe@McEnroeDenny,Re: Bitcoin site making  $4k monthly for sale - 9 days left http://cur.lv/x2te1 #bitcoin #crypto,0,0,0,False
229,Denny McEnroe@McEnroeDenny,Re: Why would customers use Bitcoins? http://cur.lv/x2te0 #bitcoin #crypto,0,0,0,False
230,Farah K. Miraza@farahkaifa,#cryptocurrency #crypto Are Bitcoiners Rational Economic Agents? http://ow.ly/3d8cEX,0,0,0,False
231,NE Patriots Dynasty@NEPatsDynasty,What if? http://ilgamosilcoin.com/ilgamos-ilcoin.html… the power of money.  #Money #HomeBusiness #Trading #crypto Register FREE,0,0,0,False
232,Farah K. Miraza@farahkaifa,#cryptocurrency #crypto Retail Sector Foresees the Rise of Bitcoin by End of Decade http://ow.ly/3d89M6,0,0,0,False
233,Ergo@ErgoTheDrone,http://ow.ly/3znX81 Just the first salvo in #government's war on #crypto. The worst is yet to come. http://fb.me/2jSiGtRxB,0,0,0,False
234,Mark Lee@Steeler1313,"FTRC in http://charnawallet.biz #fintech #crypto #banking #trade #emergingmarkets 16.00 last price. Backing #fintechprojects
#biopharma",0,0,0,False
235,Mark Lee@Steeler1313,Charna coin http://github.com/Charnasol/char … #fintech #projects #farming #trade #crypto #countries #banking #emergingmarkets#BioPharmaceuticals,0,0,0,False
236,AquariusCoin.com $ARCO@AquariusARCO,Some free #ARC are wating for your at @YobitExchange https://goo.gl/Fi8lA7 #freecoins #cryptocurrency #aquarius,1,0,0,False
237,Makewhatever@makewhatever,"@teambrella1 Right on!
#blockchain #crypto #cryptocurrency #Makewhatever #sharingeconomyQuote TweetTeambrella@teambrella1 · Apr 3, 2016CFTC: ""Governments...should avoid undue restrictions...respect the bottom-up nature of the technology"" http://wsj.com/articles/notable-quotable-let-blockchain-flourish-1459464540?utm_content=buffercb417&utm_medium=social&utm_source=twitter.com&utm_campaign=buffer…",1,0,0,False
238,gethers@TheNewBTCGuy,"Replying to @ChrisDunnTV.@ChrisDunnTV holy shit balls!Your gonnawork-em up into a frenzy!
161egoson the ----!


3.2.1
#crypto",1,0,0,False
245,Tech BitCoin@tech_bitcoin,"""BTCC’s Humorous Documentary on Bitcoin Mining in China"" http://ift.tt/1pWU6Rm #bitcoin #crypto http://ift.tt/1UNj6YA",1,1,1,False
246,gabi dumitriu@dumitriu_gabi,http://kù.com the next #chinese #socialmedia #platform. Powered by #cryptocurrency #scifi #SciFiSunday,2,1,0,False
247,Tech BitCoin@tech_bitcoin,"""The Bitcoin Standard Would Bring An End To Central Bank Lending"" http://ift.tt/eA8V8J #bitcoin #crypto http://ift.tt/221XSVF",0,0,0,False
248,tekybot@tekypromo,Bitcoin Price Analysis Week of April 3rd http://ift.tt/1TteRjl #tekypromo #TP #NEWS #cryptocurrency,0,0,0,False
249,Cryptocoin Radar@cryptocoinradar,"sys/btc: +7% value, +27% volume (http://cryptocoinradar.com monitored #trading #altcoin #cryptocoin)",1,0,0,False
250,Crypto Yoyo@cryptoyoyo,Bitcoin Price Analysis (Week of April 3rd) http://bit.ly/1RXV9Xz #bitcoin #crypto #news,0,0,0,False
251,Bitcoin@webitcoins,"How to Get Bitcoin Fast http://goo.gl/fb/ubxm0w #bitcoin #crypto #earnbitcoin #getbitcoinWeBitcoin: Beginner and How to Guide: How to Get Bitcoin FastGetting Bitcoin is Easy more Getting Dollar in Your Pocket, You earn bitcoins by doing or selling something in exchange for bitcoins just as you would earn normal money.webitcoin.blogspot.com",1,1,0,False
252,Julia Vaingurt@julia_vaingurt,"http://cur.lv/x2rvl
 Bitcoin VPS Providers Review – RamNode #bitcoin #bitcoinnews #cryptocurrency http://cur.lv/x2rvm",0,0,0,False
253,Null TX@nulltxnews,http://ift.tt/1V2rjrq Bitcoin VPS Providers Review – RamNode #bitcoin #bitcoinnews #cryptocurrency,3,3,0,False
254,Finance Magnates@financemagnates,#Cryptocurrency to allow wider flow and distribution of #VR content http://buff.ly/1UNerpL @Voxelus @ShapeShift_io,5,8,1,False
255,Access Now@accessnow,Attacks on #crypto in your country? Sign here to tell world leaders #nobackdoors - http://buff.ly/1ZTKyTL,8,25,0,False
256,BitcoinBuzz vega9@BitcoinBuzzV9,http://bitcoinbuzz.vega9.com - Hot topics: #bitcoin #btc #robotcoingame #blockchain #fintech #cryptocurrency,1,1,0,False
257,CryptoRSS@CryptoRSS,"Bitcoin Price Weekly Analysis – BTC/USD Short-term Bullish?: Key Points
Bitcoin price started traded p... http://bit.ly/1qgsjMh #crypto",0,0,0,False
258,Denny McEnroe@McEnroeDenny,$100 Papa Johns Gift Card http://cur.lv/x2rmh #bitcoin #crypto,0,0,0,False
259,Denny McEnroe@McEnroeDenny,Re: Bitcointalk Signature-Ad Campaigns http://cur.lv/x2rmb #bitcoin #crypto,1,0,0,False
260,Syndicate Media Lab@SyndicateMedia_,"Progression.
#SyndicateMediaLab #Cypher #Crypto #Cryptography
https://instagram.com/p/BDvfMYgHP9S/",1,1,0,False
264,BitcoinAgile@bitcoinagile,Software used in Nxt - Nxt #foss #crypto $NXT http://bit.ly/1MLL7gl,0,0,0,False
265,Altsheets Dev@altsheets,"Very interesting list of #foss tools
https://nxt.org/software-used-nxt/…
that are used building $NXT #crypto.",1,0,0,False
266,ferthee@ariesarcha,"Earn your FREE #CryptoCurrency here >>> http://ift.tt/1RN6Ftm <<<
Get your #Bitcoin EVERY 5 minutes!",0,0,0,False
267,Managed Services@MainstreamMSP,Incident response to #Crypto #Ransomware http://buff.ly/1pmG2jG #retweet,0,0,0,False
268,ferthee@ariesarcha,Earn your FREE #bitcoin EVERY hour here >>> http://ift.tt/1TKc1pU <<< #CryptoCurrency #OnlineMoney #earningonline,0,0,0,False
269,Bitcoin@bitcoinpoet,Virtual Reality Cryptocurrency Voxel Added to Bittrex: Virtual Reality Cryptocurrency Voxel Ad... http://btcs.me/1osg8Ky #cryptocurrency,2,2,0,False
270,Crypto Yoyo@cryptoyoyo,Transaction View information about a bitcoin transaction http://bit.ly/221PO7n #bitcoin #crypto #news,0,0,0,False
271,Crypto Yoyo@cryptoyoyo,Track Cryptocurrency Performance Outcomes And More With Reality Keys http://bit.ly/1qgln1S #bitcoin #crypto #news,0,0,0,False
272,Team 300FPS ︻╦̵̵̿╤─@300FPSGAMING,Bitcoin VPS Providers Review – RamNode http://btcf.co/1V2m6Qy #bitcoin #bitcoinnews #btc #cryptocurrency,0,0,0,False
273,AlertCo.in@AlertCoin,"#Bitcoin last trade

@bitstamp $418.50
@coinbase $419.68

Set #crypto #price #alerts at http://AlertCo.in",1,2,0,False
274,AlertCo.in@AlertCoin,"#Bitcoin last trade

@bitfinex $419.74
@btcecom $416.08

Set #crypto #price #alerts at http://AlertCo.in",3,0,0,False
275,BTCremix@BTC_remix,#bitcoin #BTC The Retail Sector Foresees the Rise of Bitcoin by End of Decade http://cur.lv/x2qeo #cryptocurrency,1,0,0,False
276,BTCremix@BTC_remix,#bitcoin #BTC Bitcoin Price Weekly Analysis – BTC/USD Short-term Bullish? http://cur.lv/x2qen #cryptocurrency,0,0,0,False
277,BTCremix@BTC_remix,#bitcoin #BTC Litecoin Price Weekly Analysis – $3.18-$3.32 Range Persist http://cur.lv/x2qem #cryptocurrency,0,0,0,False
278,BitcoinBuzz vega9@BitcoinBuzzV9,http://bitcoinbuzz.vega9.com - Hot topics: #bitcoin #usd #btc #blockchain #crypto #robotcoingame,0,0,0,False
279,MiningField@miningfield,"We're closing Startcoin Pool since there has been very few activity.
http://miningfield.com
#startcoin #altcoin #bitcoin #miningfield",0,0,0,False
280,Bitcoin@webitcoins,How #Bitcoin Could change Everything http://goo.gl/fb/d7TlBc #bitcoin #crypto #bitcoinnews,2,0,0,False
281,Julia Vaingurt@julia_vaingurt,"THE #TaoIndex explained right here:
http://cur.lv/x2q9f
#bitcoinrush #crypto #fintech #news #DashNation #DASH http://cur.lv/x2q9g",0,0,0,False
282,Bitcoin City™#฿TC@Bitcoin_City,"Free BTC http://bit.ly/1_BITCOIN
Free Wallet http://bit.ly/BTCxapo
#bitcoin #CryptoCurrency
@CloudMiningInfo via https://Statusbrew.com/?r=wl",0,0,0,False
283,Bitcoin City™#฿TC@Bitcoin_City,"Free BTC http://bit.ly/1_BITCOIN
Free Wallet http://bit.ly/BTCxapo
#bitcoin #CryptoCurrency
@mrVIC1972 via https://Statusbrew.com/?r=wl",0,0,0,False
284,Bitcoin City™#฿TC@Bitcoin_City,"Free BTC http://bit.ly/1_BITCOIN
Free Wallet http://bit.ly/BTCxapo
#bitcoin #CryptoCurrency
@RZuula via https://Statusbrew.com/?r=wl",0,0,0,False
285,Bitcoin City™#฿TC@Bitcoin_City,"Free BTC http://bit.ly/1_BITCOIN
Free Wallet http://bit.ly/BTCxapo
#bitcoin #CryptoCurrency
@twinews365 via https://Statusbrew.com/?r=wl",0,0,0,False
295,Bitcoin City™#฿TC@Bitcoin_City,"Free BTC http://bit.ly/1_BITCOIN
Free Wallet http://bit.ly/BTCxapo
#bitcoin #CryptoCurrency
@BitSims via https://Statusbrew.com/?r=wl",0,0,0,False
296,Bitcoin City™#฿TC@Bitcoin_City,"Free BTC http://bit.ly/1_BITCOIN
Free Wallet http://bit.ly/BTCxapo
#bitcoin #CryptoCurrency
@JE_MUSIC via https://Statusbrew.com/?r=wl",0,0,0,False
297,Bitcoin City™#฿TC@Bitcoin_City,"Free BTC http://bit.ly/1_BITCOIN
Free Wallet http://bit.ly/BTCxapo
#bitcoin #CryptoCurrency
@CJS_Builders via https://Statusbrew.com/?r=wl",0,0,0,False
298,Bitcoin City™#฿TC@Bitcoin_City,"Free BTC http://bit.ly/1_BITCOIN
Free Wallet http://bit.ly/BTCxapo
#bitcoin #CryptoCurrency
@VladanGlisic via https://Statusbrew.com/?r=wl",0,0,0,False
299,Bitcoin City™#฿TC@Bitcoin_City,"Free BTC http://bit.ly/1_BITCOIN
Free Wallet http://bit.ly/BTCxapo
#bitcoin #CryptoCurrency
@NSCCinfo via https://Statusbrew.com/?r=wl",1,0,0,False
300,Bitcoin City™#฿TC@Bitcoin_City,"Free BTC http://bit.ly/1_BITCOIN
Free Wallet http://bit.ly/BTCxapo
#bitcoin #CryptoCurrency
@elmedvedeva7066 via https://Statusbrew.com/?r=wl",0,0,0,False
301,Null TX@nulltxnews,http://ift.tt/1W2Vlen Bitcoin Scam Education – Ponzi Schemes #bitcoin #bitcoinnews #cryptocurrency,0,0,0,False
302,Denny McEnroe@McEnroeDenny,Re: Mozilla cofounders adblocking Brave browser will pay you bitcoin to see safe ads http://cur.lv/x2pyb #bitcoin #crypto,0,0,0,False
303,Denny McEnroe@McEnroeDenny,Re: CS:GO eSports Prediction Thread http://cur.lv/x2pya #bitcoin #crypto,0,0,0,False
304,Denny McEnroe@McEnroeDenny,Re: Selling Paysafecards for Bitcoin and Skrill http://cur.lv/x2py8 #bitcoin #crypto,0,0,0,False
305,Denny McEnroe@McEnroeDenny,Re: Do you hate muslems? http://cur.lv/x2py6 #bitcoin #crypto,0,0,0,False
306,sonsofliberty2016@Thefedendsnow,#Phillipines #Muecoin #askastoreaday #Vegas and #MontaryUnit meet in #18b #DTVL #TheArtsFactoryLV #BTM #crypto #deals,0,0,0,False
307,AdzCoin Newsstories@GetFreeAdz,Make #Adblock Users Give you Free Money! Here is How : http://adzcoin.com #adzcoin #altcoin,3,2,0,False
308,AdzCoin Newsstories@GetFreeAdz,RT @Coininfo01: Important #News About Adzcoin and Startpeeps - read now : http://ow.ly/10ea1y #adzcoin #altcoins #coin,1,0,0,False
309,ferthee@ariesarcha,#CryptoCurrency You can join as well and collect your #Bitcoin for FREE >>> http://ift.tt/1TKc1pU,1,0,0,False
310,Julia Vaingurt@julia_vaingurt,"Bitcoin Scam Education – Ponzi Schemes http://cur.lv/x2pew
#bitcoin #bitcoinnews #btc #cryptocurrency",1,0,0,False
311,Team 300FPS ︻╦̵̵̿╤─@300FPSGAMING,Bitcoin Scam Education – Ponzi Schemes http://btcf.co/1SvIo7p #bitcoin #bitcoinnews #btc #cryptocurrency,0,0,0,False
312,BitcoinAgile@bitcoinagile,Rimbit now has a webfont 2 actually that you can use #webfonts #rimbit #Crypto #fonts http://rimbit.com/threads/rimbit-now-has-a-webfont-2-actually-that-you-can-use.2979…,0,0,0,False
319,DCW@Fireguy71,Crypto #webfonts that you can use http://rimbit.com/threads/rimbit-now-has-a-webfont-2-actually-that-you-can-use.2979/… via @RimbitCrypto #rimbit #Crypto #fonts,0,0,0,False
320,Julia Vaingurt@julia_vaingurt,"#Bitcoin debit cards — savior of the tourists #crypto #cryptocurrency http://cur.lv/x2p5u
http://cur.lv/x2p5v",0,0,0,False
321,CryptoCompare@CryptoCompare,".@Halsey_Minor @AnthonyWatson We just added #Voxels to our site - exciting times for new ideas! #crypto @UpholdInc
https://cryptocompare.com/coins/vox/overview/BTC…",1,2,0,False
322,ILbotCrypto@LbotCrypto,Time to check on #edoncoin's development! http://ow.ly/WbHMN #btc #altcoin #ltc #dogecoin #bitcoin #edoncoin #ltc,0,0,0,False
323,Crypto Yoyo@cryptoyoyo,Coinkite Is Closing Down Its Web Wallet Citing Legal and DDoS issues http://bit.ly/221FmN7 #bitcoin #crypto #news,0,0,0,False
324,Crypto Yoyo@cryptoyoyo,Are Bitcoiners Rational Economic Agents? http://bit.ly/1V2gYvE #bitcoin #crypto #news,0,0,0,False
325,K0IN@FAUCETdotCF,Win 10 #bitcoin from @MinerGate by participating in the API challenge! #developer #cryptocurrency #MinerGateApi https://minergate.com/contest-api,3,2,0,False
326,tekybot@tekypromo,Coinkite Is Closing Down Its Web Wallet Citing Legal and DDoS issues http://ift.tt/1SLaIoJ #tekypromo #TP #NEWS #cryptocurrency,1,0,0,False
327,tekybot@tekypromo,Why Financial Incumbents Need to Be Brave on Blockhain http://ift.tt/1Y8loze #tekypromo #TP #NEWS #cryptocurrency,1,0,0,False
328,tekybot@tekypromo,Are Bitcoiners Rational Economic Agents http://ift.tt/1ZVQmvV #tekypromo #TP #NEWS #cryptocurrency,1,0,0,False
329,tekybot@tekypromo,First Secure DAO Web Marketplace Launches Massive Crowdsale http://ift.tt/1RXkwZH #tekypromo #TP #NEWS #cryptocurrency,1,0,0,False
330,Bitfortip@bitfortip,0.00012 #Bitcoin #reward for the following: Best #deal for and 2.5 ~500gb #SSD http://bitfortip.com/question/show/2a79ea27c279e471f4d180b08d62b00a… #cryptocurrency #hard #drive #laptop,0,0,0,False
331,Julia Vaingurt@julia_vaingurt,"Stratumn raised €600000 for #blockchain apps development #bitcoin #crypto #cryptocurrency http://cur.lv/x2ojj
http://cur.lv/x2ojl",0,0,0,False
332,bigs21024@bigs21024,@Mojodevs i woke up this morning with some coins in my wallet nice! thanks @Mojodevs im ready for this #bitcoin #altcoin #Crypto,2,0,0,False
333,Team 300FPS ︻╦̵̵̿╤─@300FPSGAMING,Why Financial Incumbents Need to Be Brave on Blockhain http://btcf.co/1RXqw4C #bitcoin #bitcoinnews #btc #cryptocurrency,0,0,0,False
334,Denny McEnroe@McEnroeDenny,Re: [ANN][EMC2]  Einsteinium  |  funding science **Updated wallet now live** http://cur.lv/x2o8a #bitcoin #crypto,0,0,0,False
335,Denny McEnroe@McEnroeDenny,Re: [Hiring: Update 2 ]Data Entry/Captha Work at 0.0001 BTC  for 1 Captha http://cur.lv/x2o89 #bitcoin #crypto,0,0,0,False
336,Denny McEnroe@McEnroeDenny,"Re: ETH will go to $100, then shoot up to BTC all time high http://cur.lv/x2o87 #bitcoin #crypto",0,0,0,False
337,Denny McEnroe@McEnroeDenny,Re: [ANN] POSEX PEX Hybrid POW/POS With HIPOS SHA256D [ANN] http://cur.lv/x2o86 #bitcoin #crypto,0,0,0,False
338,Denny McEnroe@McEnroeDenny,Re: [ANN] QIBUCK COIN - X13 - POS/POBH - 1st Proof of Baghold http://cur.lv/x2o85 #bitcoin #crypto,0,0,0,False
339,Bitcoin Press@BitcoinPressX,Are Bitcoiners Rational Economic Agents? http://dlvr.it/KyPv1r #crypto #bitcoin,0,0,0,False
340,CryptoTorNews@CryptoTorNews,Are Bitcoiners Rational Economic Agents? http://dlvr.it/KyPtZS #crypto #bitcoin,0,0,0,False
350,CREDITMAX@maximillion50,Replying to @maximillion50@gov @twitter @euvote @paddypower @PortTalbotGoss @tax which will be payed into @bankofengland #cryptocurrency,1,0,0,False
351,Alejandro Sewrjugin@alesew23,#Bitcoin Why Financial Incumbents Need to Be Brave on Blockhain http://bit.ly/1UBazrr #Tech #Crypto,0,0,0,False
352,Sleeping Horse #BRG@Hunting_Bitcoin,Claim your free Doge Coin every one hour just at http://freedoge.co.in/?r=314242 claim up to 900k doge coin #faucet #altcoin,0,0,0,False
353,AdzCoin Newsstories@GetFreeAdz,How can Websiteowner profit from #Adzcoin and #Startpeeps? Full article : http://ow.ly/ZYaKF #crypto,1,1,0,False
354,Team 300FPS ︻╦̵̵̿╤─@300FPSGAMING,Are Bitcoiners Rational Economic Agents? http://btcf.co/1RXlxAX #bitcoin #bitcoinnews #btc #cryptocurrency,0,0,0,False
355,Kazama888@KKazama888,"#Mojocoin
After some thought i think I'll hold this one for a while. Mojo growing :-) #bowchickawowow #mojo
https://instagram.com/p/BDlewpNJmX9/ #altcoin",1,0,0,False
356,Crypto Yoyo@cryptoyoyo,First Secure DAO Web Marketplace Launches Massive Crowdsale http://bit.ly/1os4eAn #bitcoin #crypto #news,0,0,0,False
357,Crypto Yoyo@cryptoyoyo,How about Bitcoin as a protocol? http://bit.ly/1UMWHed #bitcoin #crypto #news,0,0,0,False
358,Crypto Yoyo@cryptoyoyo,how to make money quickly over the internet http://bit.ly/1os4dfN #bitcoin #crypto #news,0,0,0,False
359,OpenFXMarket@OpenFXMarket,#altcoin market index (avg): #OFXAVG 155.78 #SHA 58.44 #SCRYPT 96.84 #QUARK 87.72 #X 15.41 #HYBRID 23.15 Stay tuned! #OFX,0,0,0,False
360,Bitcoinist.com@bitcoinist,First Secure DAO Web Marketplace Launches Massive Crowdsale http://ift.tt/1UMUHlX #bitcoin #blockchain #btc #cryptocurrency #altcoins #m…,0,0,0,False
361,XBTFreelancer.com@XBTFreelancer,#bitcoin #earn Prepaid internet kiosk software using a proxy #cryptocurrency http://xbtfreelancer.com/prj/1136/prepaid-internet-kiosk-software-using-a-proxy… #programming,0,0,0,False
362,BitcoinBuzz vega9@BitcoinBuzzV9,http://bitcoinbuzz.vega9.com - Hot topics: #usd #bitcoin #btc #crypto #blockchain #monstercoingame,0,0,0,False
363,Born Pitcoin@PornBitcoin,First Secure DAO Web Marketplace Launches Massive Crowdsale http://dlvr.it/KyPGSk #bitcoin #bitcoinnews #crypto,0,0,0,False
364,Jesse James@btce4,First Secure DAO Web Marketplace Launches Massive Crowdsale http://dlvr.it/KyPGTP #bitcoin #bitcoinnews #crypto,0,0,0,False
367,Bitcoin Press@BitcoinPressX,First Secure DAO Web Marketplace Launches Massive Crowdsale http://dlvr.it/KyPGBm #bitcoin #bitcoinnews #crypto,0,0,0,False
368,CryptoTorNews@CryptoTorNews,First Secure DAO Web Marketplace Launches Massive Crowdsale http://dlvr.it/KyPGBp #bitcoin #bitcoinnews #crypto,1,0,0,False
369,Team 300FPS ︻╦̵̵̿╤─@300FPSGAMING,First Secure DAO Web Marketplace Launches Massive Crowdsale http://btcf.co/1UMUD5J #bitcoin #bitcoinnews #btc #cryptocurrency,0,0,0,False
370,cryptinsight@cryptinsight,Wikileaks IMF Leak Validates Crypto Adopter Concerns - Socialmedia-newscom #Adopter #Concerns #Crypto #Leak http://socialmedia-news.com/wikileaks-imf-leak-validates-crypto-adopter-concerns…,0,0,0,False
371,CryptoRSS@CryptoRSS,Looking For Java Developers With Experience In Algorithmic Trading Strategies and ML Feature Design:  ... http://bit.ly/1Vml9l2 #crypto,0,0,0,False
372,Denny McEnroe@McEnroeDenny,Re: is it possible to hack your bitcoin from your wallet? http://cur.lv/x2mmm #bitcoin #crypto,0,0,0,False
373,Denny McEnroe@McEnroeDenny,"Re: Sharing Algorithms , Ideas & thoughts in the New Economy http://cur.lv/x2mmk #bitcoin #crypto",0,0,0,False
374,Denny McEnroe@McEnroeDenny,Re: [Round 2] Tweet And get paid ! 20 spots !! http://cur.lv/x2mmi #bitcoin #crypto,0,0,0,False
375,PaymentComponents@paymentcomp,"Forget How #Blockchain Works, Talk About What It Does! @SpirosMargaris @coindesk #FinTech #FinServ #CryptoQuote TweetSpiros Margaris@SpirosMargaris · Apr 3, 2016Great things

Forget How Blockchain Works, Talk About What It Does 

http://bit.ly/22ZWjgC #fintech @coindesk",4,2,0,False
376,NE Patriots Dynasty@NEPatsDynasty,Quadruple your investment.  #Money #stocks #Gold #crypto 4 in 1 trading system for Partners only. http://ilgamosilcoin.com/home.html,0,0,0,False
377,Crypto Yoyo@cryptoyoyo,Bitcoin Price Weekly Analysis – BTC/USD Short-term Bullish? http://bit.ly/1RX8E9Z #bitcoin #crypto #news,0,0,0,False
378,coinOK@coinok,Win $150 in Dogecoins every hour! http://freedoge.co.in/?r=98385 #doge #dogecoin #btc #bitcoin #ltc #altcoin #cryptocurrency,0,0,0,False
379,Gamebet@GamebetGG,"New development update from the #GameBet devs was released yesterday.
http://bit.ly/1RSHPqC
$gbt $btc $hyper $dgb #Cryptocurrency
#CSGO",2,4,0,False
380,Julia Vaingurt@julia_vaingurt,Creation of a brave new world with #bitcoin #crypto #cryptocurrency http://cur.lv/x2leb,1,0,0,False
381,Deep Instinct@DeepInstinctSec,#Cryptocurrency for #Ransomware May Fuel “Largest #Crimewave in Modern History” http://okt.to/5D3MA8 via @HackedCom,1,2,0,False
382,Maya Nix@MLNix,#Cryptocurrency for #Ransomware May Fuel “Largest #Crimewave in Modern History” http://okt.to/429c42 via @HackedCom,0,0,0,False
383,twiteryeanot  #Indyref2021  @twiteryeanot,"Okay, anybody here interested in cryptocurrency?

#altcoins #Bitcoin",2,0,0,False
384,Coin Tiny@CoinTiny,The Bitcoin Halving Doomsday Scenario #CryptoCurrency #Crypto,0,0,0,False
393,Crypto Database@CryptoDatabase,#Cataloniacoin has now been added to http://cryptodatabase.net #cryptodatabase #altcoin #cryptocurrency,0,0,0,False
394,WebFuelCode@webfuelcode,Bitcoin is a payment system introduced as open-source software http://earnbtc.wall-spot.com/index.php/2015/06/02/what-is-bitcoin/?utm_source=ReviveOldPost&utm_medium=social&utm_campaign=ReviveOldPost… #bitcoin #cryptocurrency #digitalmoney #whatis,0,0,0,False
395,Julia Vaingurt@julia_vaingurt,"Can the #blockchain make refugee lives easier? #bitcoin #crypto #cryptocurrency http://cur.lv/x2l3b
http://cur.lv/x2l3c",0,0,0,False
396,Crypto Database@CryptoDatabase,#CannabisDarkcoin has now been added to http://cryptodatabase.net #cryptodatabase #altcoin #cryptocurrency,0,0,0,False
397,Jesse Connor@IamJesseConnor,"Replying to @Gatecoin@Gatecoin Thanks for the insight, transparency and timely response; setting a leading example for other #Cryptocurrency exchanges",1,0,0,False
398,Denny McEnroe@McEnroeDenny,Re: █▓▒░-< [ZPOOL.CA][BTC Multipool] The miners multipool >-░▒▓█ Decred (DCR) Mining http://cur.lv/x2kyh #bitcoin #crypto,0,0,0,False
399,Denny McEnroe@McEnroeDenny,Re: Bitcoin can not replace fiat http://cur.lv/x2kyf #bitcoin #crypto,0,0,0,False
400,Denny McEnroe@McEnroeDenny,"Re:  █ http://Nxt-e.com █ The BEST exchange █ Fast, Stable, Safe, Multi-Lang █ http://cur.lv/x2kye #bitcoin #crypto",0,0,0,False
401,Denny McEnroe@McEnroeDenny,Re: Turkish Super League Prediction Thread [STSL] http://cur.lv/x2kyd #bitcoin #crypto,0,0,0,False
402,Coin Tiny@CoinTiny,"And they called us conspiracy theorists, crackpots, and crazy preppers... #CryptoCurrency #Crypto",0,0,0,False
403,Stéphane Bortzmeyer@bortzmeyer,"Because of a typo, I read in an ICANN document that the French ANSSI accepts #RSA keys of 204 bits :-) #crypto #DNSSEC #RGS",1,2,0,False
404,Crypto Database@CryptoDatabase,#Capitalistcoin has now been added to http://cryptodatabase.net #cryptodatabase #altcoin #cryptocurrency,0,0,0,False
405,Veera Rag@VeeraRags,Senator: let’s fix “third-party doctrine” that enabled NSA mass snooping http://goo.gl/fb/rQlUvZ #judge #crypto #pgp #ronwyden #lawdisorder,0,0,0,False
406,Crypto Database@CryptoDatabase,#Caponecoin has now been added to http://cryptodatabase.net #cryptodatabase #altcoin #cryptocurrency,1,0,0,False
407,AdzCoin Newsstories@GetFreeAdz,Why Is ADZcoin Monetization Superior To A Similar Micro-Payments Startup? http://ow.ly/105SFe #startup #altcoin,5,2,0,False
408,Fancis Marqui@GeldImNetz001,Make #Adblock Users Give you Free Money! Here is How : http://adzcoin.com #adzcoin #altcoin #browser,1,0,0,False
409,Zero Cost Marketing@ZeroCostProfit,Make #Adblock Users Give you Free Money! Here is How : http://adzcoin.com #adzcoin #altcoin #browser,0,0,0,False
410,AdzCoin Newsstories@GetFreeAdz,Make #Adblock Users Give you Free Money! Here is How : http://adzcoin.com #adzcoin #altcoin #browser,1,0,0,False
411,NE Patriots Dynasty@NEPatsDynasty,Great Blog on #crypto #cryptocurrency Click http://juddbagley.io/bitcoin/blockchain/nasdaq-is-joining-the-blockchain-trading-party/… SHARE,1,2,0,False
412,Crypto Database@CryptoDatabase,#Capricoin has now been added to http://cryptodatabase.net #cryptodatabase #altcoin #cryptocurrency,0,0,0,False
425,Zeth Couceiro@Zeth_Plexus,#Ethereum's Growth Draws Support from More Platforms - #Bitcoin #Cryptocurrency @UpholdInc @Coinimal #blockchain https://cryptocoinsnews.com/ethereums-growth-draws-support-platforms/…,4,1,0,False
426,Crypto Database@CryptoDatabase,#CarbonCredit has now been added to http://cryptodatabase.net #cryptodatabase #altcoin #cryptocurrency,0,0,0,False
427,Crypto Database@CryptoDatabase,#CETcoin has now been added to http://cryptodatabase.net #cryptodatabase #altcoin #cryptocurrency,0,0,0,False
428,Crypto Database@CryptoDatabase,#CarsiCoin has now been added to http://cryptodatabase.net #cryptodatabase #altcoin #cryptocurrency,0,0,0,False
429,Marc R Gagné MAPP @OttLegalRebels,FBI offers #Crypto assistance to local cops: “We are in this together” - http://goo.gl/alerts/iU5gD,1,0,0,False
430,Crypto Database@CryptoDatabase,#CashMe has now been added to http://cryptodatabase.net #cryptodatabase #altcoin #cryptocurrency,0,0,0,False
431,NE Patriots Dynasty@NEPatsDynasty,#ILGamos and their NEW #ILCoin. 4 in 1 Trading platform. Stock up 35%.  http://INVEST.ilgamos.com/buy?buy_type=1 #Crypto #Nasdaq #ETRADE,0,0,0,False
432,BitcoinAgile@bitcoinagile,Senator: lets fix third-party doctrine that enabled NSA mass snooping #LawDisorder #crypto http://arstechnica.com/tech-policy/2016/04/senator-lets-fix-third-party-doctrine-that-enabled-nsa-mass-snooping…,1,0,0,False
433,GeekinfoNow@GeekInfoNow,Senator: let’s fix “third-party doctrine” that enabled NSA mass snooping http://dlvr.it/KyMTQ7 #LawDisorder #crypto #hack #judge,0,0,0,False
434,Gabor Venczel@ujtrend,"CoinDesk&rsquo;s Hard Fork 'Text Size' Debacle #cryptocurrency, bitcoin, octacoin, http://webogi.com/fMN9jP",0,0,0,False
435,Crypto Yoyo@cryptoyoyo,Igot Bitcoin Exchange Is On The Brink of Collapse http://bit.ly/1qfOkLm #bitcoin #crypto #news,0,0,0,False
436,Crypto Database@CryptoDatabase,#CashTakers has now been added to http://cryptodatabase.net #cryptodatabase #altcoin #cryptocurrency,0,0,0,False
437,CryptoCoinsMarket@ccoinmarket,The Bitcoin Halving Doomsday Scenario http://ift.tt/1RUW01r http://ift.tt/1RWWq1b #crypto #bitcoin,0,0,0,False
438,AlertCo.in@AlertCoin,"#Bitcoin last trade

@bitfinex $418.79
@btcecom $415.76

Set #crypto #price #alerts at http://AlertCo.in",1,2,0,False
444,AlertCo.in@AlertCoin,"#Bitcoin last trade

@bitstamp $416.93
@coinbase $419.46

Set #crypto #price #alerts at http://AlertCo.in",2,0,0,False
445,XBTFreelancer.com@XBTFreelancer,vBulletin 3.8.X module convert to vBulletin 4.2.3 #programming http://xbtfreelancer.com/prj/1130/vbulletin-38x-module-convert-to-vbulletin-423… #bitcoin #job #career #crypto #hiring,0,0,0,False
446,Crypto Database@CryptoDatabase,#CakeCoin has now been added to http://cryptodatabase.net #cryptodatabase #altcoin #cryptocurrency,0,0,0,False
447,International CCC@Int_CCC,Today's Crypto Chronicle! News about #bitcoin #cryptocurrency and more! http://paper.li/Int_CCC/1409392381?edition_id=2f367170-f982-11e5-868f-002590a5ba2d…,0,0,0,False
448,Crypto Database@CryptoDatabase,#Californium has now been added to http://cryptodatabase.net #cryptodatabase #altcoin #cryptocurrency,0,0,0,False
449,Crypto Database@CryptoDatabase,#CandyCoin has now been added to http://cryptodatabase.net #cryptodatabase #altcoin #cryptocurrency,0,0,0,False
450,Dr Chitral Patel@patelchitral,The #Retail Sector Foresees the Rise of #Bitcoin by End of Decade - NEWSBTC http://bit.ly/1W2CGiR #cryptocurrency,0,0,0,False
451,Crypto Database@CryptoDatabase,#CanadaEcoin has now been added to http://cryptodatabase.net #cryptodatabase #altcoin #cryptocurrency,0,0,0,False
452,Defi@DefiFreakyBoo,"Sunday? 
#defi #defibitch #defifreakyboo #snapchatme #czechgirl #girl #kisses #loveyou #love… https://instagram.com/p/BDu8b6xlJMQ/",3,0,0,False
453,Crypto Database@CryptoDatabase,#Cancercoin has now been added to http://cryptodatabase.net #cryptodatabase #altcoin #cryptocurrency,0,0,0,False
454,Julia Vaingurt@julia_vaingurt,"http://cur.lv/x2jm9
 Core Vs. Classic Discussion Grows Stale #bitcoin #bitcoinnews #cryptocurrency http://cur.lv/x2jma",0,0,0,False
455,Crypto Database@CryptoDatabase,#Candlecoin has now been added to http://cryptodatabase.net #cryptodatabase #altcoin #cryptocurrency,0,0,0,False
456,Team 300FPS ︻╦̵̵̿╤─@300FPSGAMING,Core Vs. Classic Discussion Grows Stale http://btcf.co/1X8vIHo #bitcoin #bitcoinnews #btc #cryptocurrency,0,0,0,False
457,Crypto Database@CryptoDatabase,#CableCoin has now been added to http://cryptodatabase.net #cryptodatabase #altcoin #cryptocurrency,0,0,0,False
458,Crypto Database@CryptoDatabase,#C0fferCoin has now been added to http://cryptodatabase.net #cryptodatabase #altcoin #cryptocurrency,0,0,0,False
459,Gareth Niblett@garethniblett,Paper Enigma machine #crypto http://hackaday.com/2016/04/02/paper-enigma-machine-2/…,1,3,0,False
460,Denny McEnroe@McEnroeDenny,Re: Bit Shares - Bitcoin Paid to Promote http://cur.lv/x2jcl #bitcoin #crypto,0,0,0,False
461,Denny McEnroe@McEnroeDenny,Re: New Crazy Multiplier promo from Bubblesbit http://cur.lv/x2jck #bitcoin #crypto,0,0,0,False
462,Denny McEnroe@McEnroeDenny,Re: Progressive Jackpot launched on http://Bit-Exo.com http://cur.lv/x2jcj #bitcoin #crypto,0,0,0,False
463,Zerado@code2zero,.@money2020 exited to be on our way to announce @code2zero -@lrblondon @qdotme #Cryptocurrency #blockchain #tech #Money2020Europe #zerado,8,5,0,False
464,Crypto Yoyo@cryptoyoyo,The Retail Sector Foresees the Rise of Bitcoin by End of Decade http://bit.ly/1UMEz46 #bitcoin #crypto #news,0,0,0,False
465,BitcoinBuzz vega9@BitcoinBuzzV9,http://bitcoinbuzz.vega9.com - Hot topics: #bitcoin #btc #blockchain #monstercoingame #crypto #cryptocurrency,0,0,0,False
466,Tech BitCoin@tech_bitcoin,"""The Retail Sector Foresees the Rise of Bitcoin by End of Decade"" http://ift.tt/1UMCrcE #bitcoin #cryptoThe Retail Sector Foresees the Rise of Bitcoin by End of DecadeBitcoin is expected to play a major role in the retail sector by the end of this decade, shows a survey conducted by Infomentum. The results of the survey was published in the report - Beyond Digital.newsbtc.com",1,0,0,False
475,Tech BitCoin@tech_bitcoin,"""Bitcoin Price Weekly Analysis – BTC/USD Short-term Bullish?"" http://ift.tt/1RUNQWQ #bitcoin #crypto http://ift.tt/1RwU7Gh",1,0,0,False
476,ObiWanga@obey_vanga,#HYPER will move up in a week #altcoins #btc #bitcoin,2,0,0,False
477,Timo Nurminiemi@TimoNurminiemi,THE #RETAIL SECTOR Foresees the Rise of #Bitcoin by End of Decade | #Cryptocurrency #fintech http://newsbtc.com/2016/04/03/retail-sector-bitcoin-rise-2020/…,0,0,0,False
478,bitcoin new's@jagga_dakku004,Andreas Antonopoulos On The Non-existent Bitcoin Demise http://goo.gl/oubLl9 #Newbtc #Bitcoin #Crypto #digital,5,0,0,False
479,Julia Vaingurt@julia_vaingurt,"Burger king in the #netherlands accepts #bitcoin #crypto #cryptocurrency http://cur.lv/x2i8q
http://cur.lv/x2i8r",0,0,0,False
480,Unbound Security@UnboundSecurity,How does Secure Multi-Party Computation affect you? Webinar on May 6 - Fascinating for #crypto fans of all levels https://lnkd.in/eQiCpS2,2,0,0,False
481,SkyWalk@Skyseether,"#ALTCOIN $AMP 8x ... every coin @POLONIEX pumped.
so what's next ? hope soon $FLO $XRP and?",0,0,0,False
482,heyrobok@heyrobok,4 TRI = 1.57 USD such rare very currency! wow! get some now! https://bittrex.com/Market/Index?MarketName=BTC-TRI… #BTC #ALTCOINS #cryptocurrency #LTC #ETH #DGB #LTC,1,0,0,False
483,Null TX@nulltxnews,http://ift.tt/1qfDQLV Igot Bitcoin Exchange Is On The Brink of Collapse #bitcoin #bitcoinnews #cryptocurrency,1,0,0,False
484,Team 300FPS ︻╦̵̵̿╤─@300FPSGAMING,Igot Bitcoin Exchange Is On The Brink of Collapse http://btcf.co/1V1XNSF #bitcoin #bitcoinnews #btc #cryptocurrency,1,2,0,False
485,NE Patriots Dynasty@NEPatsDynasty,Gold & #Crypto-Currency in one clever system. Join the Digital Currency Revolution and turn your #PROFITS into GOLD http://dld.bz/dARdH,0,0,0,False
486,Denny McEnroe@McEnroeDenny,Re: http://YoBit.Net - Signature Campaign - Realtime Payouts (daily) http://cur.lv/x2hs2 #bitcoin #crypto,0,0,0,False
487,Denny McEnroe@McEnroeDenny,Re: Premier League Prediction Thread (EPL) http://cur.lv/x2hs0 #bitcoin #crypto,0,0,0,False
488,Denny McEnroe@McEnroeDenny,Re:  [ANN] VIP TOKENS CLUB [ECOSYSTEM WALLET][NIST5][PoW/PoS][EXCLUSIVE] http://cur.lv/x2hrz #bitcoin #crypto,0,0,0,False
489,Denny McEnroe@McEnroeDenny,Re: Why should people use Bitcoin? http://cur.lv/x2hrx #bitcoin #crypto,0,0,0,False
490,Crypto Yoyo@cryptoyoyo,Overstock's $16 Million investment in Bitcoin company funds financial disruption across the ... http://bit.ly/1qoyiyt #bitcoin #crypto #…,0,0,0,False
491,Crypto Yoyo@cryptoyoyo,Transaction View information about a bitcoin transaction http://bit.ly/1X8pcQV #bitcoin #crypto #news,0,0,0,False
492,Crypto Yoyo@cryptoyoyo,Regulators call for careful approach to blockchain technology solutions http://bit.ly/1qoygqk #bitcoin #crypto #news,0,0,0,False
493,Crypto Yoyo@cryptoyoyo,Transaction View information about a bitcoin transaction http://bit.ly/1X8pebu #bitcoin #crypto #news,0,0,0,False
494,Crypto Yoyo@cryptoyoyo,Transaction View information about a bitcoin transaction http://bit.ly/1qoyiyr #bitcoin #crypto #news,0,0,0,False
506,Blockchange@Blockchange_ME,Bitcoin vs. Gold Bullion - Which Is The Better Investment? http://cointelegraph.com/news/bitcoin-vs-gold-bullion-which-is-the-better-investment… #GOLD #BITCOIN #CRYPTO #BLOCKCHAIN,1,0,0,False
507,Mooncoin [MOON]@MooncoinItalia,Vatican Slated as First State Adopters of #Cryptocurrency #altcoin #blockchain http://bitcoinist.net/vatican-adop-cryptocurrency/…,1,0,0,False
508,BitcoinBuzz vega9@BitcoinBuzzV9,http://bitcoinbuzz.vega9.com - Hot topics: #bitcoin #blockchain #btc #crypto #cryptocurrency #monstercoingame,0,0,0,False
509,Gaston Gautreneau@Yaogwai,"Lisk Interview with @bitscanner ""LISK ICO raises $5 million"" @LiskHQ @MaxKordek #bitcoin #cryptocurrency #blockchain https://bitscan.com/articles/lisk-ico-raises-almost-7-million…",2,0,0,False
510,BitcoinAgile@bitcoinagile,Rimbit now has a webfont 2 actually that you can use #bitcoin #rimbit #cryptocurrency http://rimbit.com/threads/rimbit-now-has-a-webfont-2-actually-that-you-can-use.2979…,1,2,0,False
511,Cryptolized™@Cryptolized,#rimbit #bitcoin Rimbit now has a webfont (2 actually) that you can use: Alienworks has create... http://bit.ly/23117T6 #cryptocurrency,0,0,0,False
512,CryptoKaiserParabolica@iz_me_alex,"Behold, the Paypal-Killer is born!
#PayPal #Capripay #Capricoin #cryptocurrency #App #blockchain",1,0,0,False
513,Chikitin305@Chikitin305,"TRADING ETHEREUM AGAINST AUSTRALIAN DOLLAR
http://goo.gl/Rt58IZ #ethereum #centralethereum #cryptocurrency #Trading #markesTrade Ethereum Against Australian Dollar At BTCMarketsMore and more digital currency exchanges around the world have started to take notice of Ethereum, and some of them have even taken the step of adding an ETH trading pair to their offerings. BTCMarketthemerkle.com",0,0,0,False
514,Jazzycrypt@jazzycrypt,$DBIC is one of most promising #altcoins for me. Bought it at lows. I expect to get at least x20,0,0,0,False
515,Denny McEnroe@McEnroeDenny,Re: How will halving affect the value? http://cur.lv/x2g2w #bitcoin #crypto,0,0,0,False
516,Denny McEnroe@McEnroeDenny,Re:  [ANN][STEPS] Let's make a new altcoin environment http://cur.lv/x2g2v #bitcoin #crypto,0,0,0,False
517,Denny McEnroe@McEnroeDenny,Re: Best Price on Buying Bitcoin? http://cur.lv/x2g2t #bitcoin #crypto,0,0,0,False
518,Denny McEnroe@McEnroeDenny,Re: [ANN] [TES] ϟ ϟ The Tesla ϟ ϟ Decentralize the Energy System ϟϟ Bittrex http://cur.lv/x2g2s #bitcoin #crypto,0,0,0,False
519,Denny McEnroe@McEnroeDenny,Re: Other sections for this forum? http://cur.lv/x2g2r #bitcoin #crypto,0,0,0,False
520,PinkMona@pinkmona_org,#bitcoin #altcoin #dogecoin Let's Hentai! Come on PinkMona!→http://pinkmona.org,0,0,0,False
522,BitcoinBuzz vega9@BitcoinBuzzV9,http://bitcoinbuzz.vega9.com - Hot topics: #bitcoin #btc #crypto #blockchain #cryptocurrency #robotcoingame,0,0,0,False
527,Gabor Venczel@ujtrend,"SEC Chair: Agency 'Actively Exploring' Blockchain #cryptocurrency, bitcoin, octacoin, http://webogi.com/FtC3MW",0,0,0,False
528,Tech BitCoin@tech_bitcoin,"""Litecoin Price Weekly Analysis – $3.18-$3.32 Range Persist"" http://ift.tt/1ML9LxC #bitcoin #cryptoLitecoin Price Weekly Analysis – $3.18-$3.32 Range PersistLitecoin price after trading near $3.00 recovered. If buyers manage to break the highlighted trend line and resistance area, then more upsides are likely.newsbtc.com",1,0,0,False
529,Dr. Tahir ~A Human ~ A #Musafir ~ Camped in DUBAI~@talk2tahirkhan,"01:01:45 time well spent
Watch @aantonop loved quote of @balajis #Bitcoin #Blockchain #CryptoCurrency #FutureOfMoney
http://ow.ly/3zuK00",0,0,0,False
530,Julia Vaingurt@julia_vaingurt,"#Bitcoin whiteboard tuesday – what is #bitcoin #mining? #crypto #cryptocurrency http://cur.lv/x2f07
http://cur.lv/x2f08",0,0,0,False
531,Floz@flozbrand,"Project Floz is official! Check Bitcointalk Announcemnt:
https://bitcointalk.org/index.php?topic=1424218.0…
#flozbrand #floz #bitcoin #altcoins",1,1,0,False
532,Cryptocurrency Acdmy@CCAcademy_SC,"Will #cryptocurrency spark a revolution in how we use money peer to peer? (Torsten Hoffmann, The End of Money as We Know It)",1,0,0,False
533,Crypto Yoyo@cryptoyoyo,Transaction View information about a bitcoin transaction http://bit.ly/1qosnth #bitcoin #crypto #news,0,0,0,False
534,Crypto Yoyo@cryptoyoyo,Transaction View information about a bitcoin transaction http://bit.ly/1X8eEB6 #bitcoin #crypto #news,0,0,0,False
535,Crypto Yoyo@cryptoyoyo,Transaction View information about a bitcoin transaction http://bit.ly/1qosp4u #bitcoin #crypto #news,0,0,0,False
536,Crypto Yoyo@cryptoyoyo,Transaction View information about a bitcoin transaction http://bit.ly/1X8eD0a #bitcoin #crypto #news,0,0,0,False
537,Denny McEnroe@McEnroeDenny,Re: [ANN] [Oficial] RoxoCoin | New AltCoin | PoW [Suspicious link removed]d Start For New Miners! http://cur.lv/x2emr #bitcoin #crypto,1,0,0,False
538,Denny McEnroe@McEnroeDenny,Re: [HIRING] Web designer needed http://cur.lv/x2emq #bitcoin #crypto,0,0,0,False
539,Denny McEnroe@McEnroeDenny,Re: ATTENTION YOBIT USERS... http://cur.lv/x2emp #bitcoin #crypto,0,0,0,False
540,Denny McEnroe@McEnroeDenny,Re: [XMR] Monero Speculation http://cur.lv/x2emo #bitcoin #crypto,0,0,0,False
541,Denny McEnroe@McEnroeDenny,Re: [http://Primedice.com] Bingo Competition! - Win up to 4 BTC Each - Positive EV Gambling http://cur.lv/x2emm #bitcoin #crypto,0,0,0,False
542,AlertCo.in@AlertCoin,"#Bitcoin last trade

@bitstamp $417.56
@coinbase $419.73

Set #crypto #price #alerts at http://AlertCo.in",2,0,0,False
543,AlertCo.in@AlertCoin,"#Bitcoin last trade

@bitfinex $419.24
@btcecom $415.75

Set #crypto #price #alerts at http://AlertCo.in",2,0,0,False
544,OpenLedger@openledger,Open your #free account on the world's first #decentralised #forex #crypto #currency #exchange https://bitshares.openledger.info/?r=ccedkbts#/create-account… … #OpenLedger #CCEDK,0,0,0,False
545,Tech BitCoin@tech_bitcoin,"""Dogecoin Price Weekly Analysis – 50.0 Satoshis Hold Key"" http://ift.tt/1PPjP39 #bitcoin #crypto http://ift.tt/220P1n9",0,0,0,False
546,Julia Vaingurt@julia_vaingurt,"Industry Speaks Out As CoinDesk's Text Size Turmoil #cryptocurrency, bitcoin, octacoin, http://cur.lv/x2dr6
http://cur.lv/x2dr7",0,0,0,False
547,Gabor Venczel@ujtrend,"Industry Speaks Out As CoinDesk's Text Size Turmoil #cryptocurrency, bitcoin, octacoin, http://webogi.com/iSdPrq",0,0,0,False
548,Cryptocoin Radar@cryptocoinradar,"amp/btc: +4% value, +19% volume in 12 minutes (http://cryptocoinradar.com monitored #trading #altcoin #cryptocoin)",0,0,0,False
549,Coin Tiny@CoinTiny,What You Should Know About the Coming Bitcoin Halving #CryptoCurrency #Crypto,0,0,0,False
553,BitcoinAgile@bitcoinagile,Etherium DAPPS - A playground for scammers and spammers #bitcoin #rimbit #cryptocurrency http://rimbit.com/threads/etherium-dapps-a-playground-for-scammers-and-spammers.2933…,4,0,0,False
554,Cryptolized™@Cryptolized,#rimbit #bitcoin Etherium DAPPS - A playground for scammers and spammers: One of Etherium's ar... http://bit.ly/1qfl3Ax #cryptocurrency,0,0,0,False
555,BitcoinAgile@bitcoinagile,Dogecoin Price Weekly Analysis  50.0 Satoshis Hold Key - NEWSBTC #Bitcoin #Crypto http://newsbtc.com/2016/04/03/dogecoin-price-weekly-analysis-50-0-satoshis-hold-key…,2,0,0,False
556,Crypto Yoyo@cryptoyoyo,Transaction View information about a bitcoin transaction http://bit.ly/1UMkACw #bitcoin #crypto #news,0,0,0,False
557,Crypto Yoyo@cryptoyoyo,Transaction View information about a bitcoin transaction http://bit.ly/220Pp4U #bitcoin #crypto #news,0,0,0,False
558,Crypto Yoyo@cryptoyoyo,Transaction View information about a bitcoin transaction http://bit.ly/1UMkACu #bitcoin #crypto #news,0,0,0,False
559,Crypto Yoyo@cryptoyoyo,Transaction View information about a bitcoin transaction http://bit.ly/220PmX5 #bitcoin #crypto #news,0,0,0,False
560,Crypto Yoyo@cryptoyoyo,Transaction View information about a bitcoin transaction http://bit.ly/1UMkDy8 #bitcoin #crypto #news,0,0,0,False
561,Crypto Yoyo@cryptoyoyo,Transaction View information about a bitcoin transaction http://bit.ly/220PoOz #bitcoin #crypto #news,0,0,0,False
562,Crypto Yoyo@cryptoyoyo,Transaction View information about a bitcoin transaction http://bit.ly/1UMkACo #bitcoin #crypto #news,0,0,0,False
563,Crypto Yoyo@cryptoyoyo,Transaction View information about a bitcoin transaction http://bit.ly/220PoOv #bitcoin #crypto #news,0,0,0,False
564,Crypto Yoyo@cryptoyoyo,Transaction View information about a bitcoin transaction http://bit.ly/1UMkDhL #bitcoin #crypto #news,0,0,0,False
565,Crypto Yoyo@cryptoyoyo,Transaction View information about a bitcoin transaction http://bit.ly/220PoOq #bitcoin #crypto #news,0,0,0,False
566,Crypto Yoyo@cryptoyoyo,Transaction View information about a bitcoin transaction http://bit.ly/1UMkAm4 #bitcoin #crypto #news,0,0,0,False
567,Crypto Yoyo@cryptoyoyo,Transaction View information about a bitcoin transaction http://bit.ly/220Poy8 #bitcoin #crypto #news,0,0,0,False
568,Crypto Yoyo@cryptoyoyo,Transaction View information about a bitcoin transaction http://bit.ly/1UMkD1j #bitcoin #crypto #news,0,0,0,False
569,Crypto Yoyo@cryptoyoyo,Transaction View information about a bitcoin transaction http://bit.ly/220Poy6 #bitcoin #crypto #news,0,0,0,False
570,Crypto Yoyo@cryptoyoyo,Now you can pay for your Italian meal with Bitcoins… http://bit.ly/1UMkAlU #bitcoin #crypto #news,0,0,0,False
571,CryptoRSS@CryptoRSS,"Ethereum Price Weekly Analysis – Move Finally Coming?: Key Highlights
Ethereum price is setting up for... http://bit.ly/1PPiA4b #crypto",1,0,0,False
572,Denny McEnroe@McEnroeDenny,Re: http://Primedice.com | Most Popular & Trusted Bitcoin Game | Huge Community | Free BTC http://cur.lv/x2czs #bitcoin #crypto,0,0,0,False
573,Denny McEnroe@McEnroeDenny,Re: [Hiring: Update 2 ]Data Entry/Captha Work at 0.0005 BTC  for 1 Captha http://cur.lv/x2czr #bitcoin #crypto,0,0,0,False
574,Denny McEnroe@McEnroeDenny,Re: Will you quit your day job to go full time on bitcoin? http://cur.lv/x2czp #bitcoin #crypto,0,0,0,False
575,BitcoinBuzz vega9@BitcoinBuzzV9,http://bitcoinbuzz.vega9.com - Hot topics: #bitcoin #btc #blockchain #crypto #cryptocurrency #dogecoin,1,0,0,False
590,Julia Vaingurt@julia_vaingurt,"#Bitcoin price up and down #crypto #cryptocurrency http://cur.lv/x2cq8
http://cur.lv/x2cqb",0,0,0,False
591,Coin Tiny@CoinTiny,Can The Blockchain Make Refugee Lives Easier? #CryptoCurrency #Crypto,1,0,0,False
592,Digital Bitcoin@Digital_Bitcoin,"Dear @bitcoinyunani,  Get FREE DAILY BONUSES on Cryptocurrency. Join Today http://bit.ly/storeyourcoins #crypto via https://Statusbrew.com/?r=wl",0,0,0,False
593,CryptoPot@CryptoPotGame,"a little teaser.... http://CryptoPot.com almost ready to release! 

#bitcoin #Altcoin #Cryptocurrency #CryptoPot",1,0,0,False
594,Gabor Venczel@ujtrend,"How Kialara Uses Physical Bitcoins to Explore the Value #cryptocurrency, bitcoin, octacoin, http://webogi.com/mVLfGd",0,0,0,False
595,Crypto Yoyo@cryptoyoyo,Bitcoin Transaction 2ed22a572b111d078633f5215fbe412a651d5477da824840df8ea398b0dc2529 http://bit.ly/1UMgoTi #bitcoin #crypto #news,1,0,0,False
596,jayeharrill.eth @JayeHarrill,Talking on this panel @decentralvan is making my voice horse. #Bitcoin #CryptoCurrency,2,0,0,False
597,BitcoinBuzz vega9@BitcoinBuzzV9,http://bitcoinbuzz.vega9.com - Hot topics: #bitcoin #btc #crypto #blockchain #cryptocurrency #dogecoin,1,0,0,False
598,Denny McEnroe@McEnroeDenny,Re: How many TH/s is needed... http://cur.lv/x2b84 #bitcoin #crypto,0,0,0,False
