,user,text,likes,retweets,replies,is_thread
0,CryptoPot@CryptoPotGame,"Less than 10 minutes to ROUND 2 !!! 

#Bitcoin #gambling #bet #cryptocurrency #altcoin #referral #ethereum #fintech",2,1,1,False
1,EUROPECOIN  (.eu.org)@europecoinEUORG,"over 80 invites out now, 9 Teams joined Did I miss you? Tweet me #crypto #fintech #altcoin #bittrex #bitcoin #ioT",22,15,2,False
2,AlertCo.in@AlertCoin,"#Bitcoin last trade

@bitstamp $456.18
@coinbase $458.84

Set #crypto #price #alerts at http://AlertCo.in",2,0,0,False
3,AlertCo.in@AlertCoin,"#Bitcoin last trade

@bitfinex $455.75
@btcecom $454.90

Set #crypto #price #alerts at http://AlertCo.in",2,0,0,False
4,Julia Vaingurt@julia_vaingurt,#Start using #cryptocurrency with us right now! #fast #deposits #security #trade #bitcoin #join #Free #Learn more >> http://cur.lv/yk0ug,1,0,0,False
5,Social Media Experts@SocialNorfolk,#Start using #cryptocurrency with us right now! #fast #deposits #security #trade #bitcoin #join #Free #Learn more >> https://goo.gl/5lrSpC,0,0,0,False
6,Julia Vaingurt@julia_vaingurt,#Bitcoin price analysis: quiet #trade above $450 #crypto #cryptocurrency http://cur.lv/yk0td,0,0,0,False
7,Bitcoin City™#฿TC@Bitcoin_City,#btc Electrum signatures showing up bad?: I usually try to verify my downloads but the windo... http://bit.ly/250RDs1 #bitcoin #cryptoElectrum signatures showing up bad?reddit.com,1,0,0,False
8,Bitcoin City™#฿TC@Bitcoin_City,"#btc Clearing Multiple Bitcoin Wallets: Hi. Some of you may have the same problem, Recently ... http://bit.ly/250RDs0 #bitcoin #cryptoClearing Multiple Bitcoin WalletsHi. Some of you may have the same problem, Recently I have been using a bunch of bitcoin wallets. And I am finding it difficult to clear them all...reddit.com",1,0,0,False
9,Gabor Venczel@ujtrend,"SWIFT: Blockchain Won't Remove All Third Parties in #cryptocurrency, bitcoin, octacoin, http://webogi.com/LjWy9w",0,0,0,False
13,Fintech news@currencies111,"India’s First Virtual Currencies and Blockchain Conference
http://bit.ly/1scuQYe
#blockchain #fintech #cryptocurrency",2,1,0,False
14,Julia Vaingurt@julia_vaingurt,"Dragon’s tale – palace slots an unconventional slot machine game #bitcoin #crypto #cryptocurrency http://cur.lv/yk0c4

— BitcoinzMachi…",0,0,0,False
15,Radi Hood@RadiHood,#Crypto #miners this cloud https://cldmine.com/?ref=344919 give 1500 #DOGE for free to get started mining. Start your #BTC #LTC and more mining now,0,0,0,False
16,Denny McEnroe@McEnroeDenny,Re: [ANN][GROW] Growcoin - Next Generation Cannabis Token | SHA256d PoW/PoS http://cur.lv/yk082 #bitcoin #crypto,0,0,0,False
17,Denny McEnroe@McEnroeDenny,Re: Bitcoin replaces the money? Could happen? http://cur.lv/yk081 #bitcoin #crypto,0,0,0,False
18,Denny McEnroe@McEnroeDenny,Re: [OPEN] Ophion Signature Campaign http://cur.lv/yk080 #bitcoin #crypto,0,0,0,False
19,Denny McEnroe@McEnroeDenny,Re: Profit Network http://cur.lv/yk07y #bitcoin #crypto,0,0,0,False
20,Denny McEnroe@McEnroeDenny,Re: NovaCoin (scrypt PoW + PoS hybrid) [self-mod] http://cur.lv/yk07v #bitcoin #crypto,0,0,0,False
21,JC@Cryptoelite,Crypto Elite News is out! http://paper.li/Cryptoelite/1426551318?edition_id=c62566a0-1a29-11e6-8ef6-0cc47a0d1605… #Bitcoin #Altcoin #Cryptocurrency @coinigy,1,0,0,False
22,Julia Vaingurt@julia_vaingurt,State of delaware launches #blockchain project #bitcoin #crypto #cryptocurrency http://cur.lv/yk00h,0,0,0,False
23,David Liam@crazydaveorama,Digital Currency Exchange #Gatecoin Offline After Loss of Funds http://bit.ly/1TbcXWc via @CoinDesk #cryptocurrency,1,0,0,False
24,Fintech Prowler@FintechProwler,Palantir Technologies Refutes Ownership Claims Of Bitcoin Mining Service CoinFac Limited - EconoTimes http://ift.tt/1R2e1E0 #altcoin,0,0,0,False
25,Cointon@CointonDotCom,Coinigy! Looking for professional #Bitcoin and #cryptocurrency #trading tools? #daytrading http://bit.ly/25JMlPl,0,0,0,False
26,Bitcoin@crypto_bitcoins,Coinigy! Looking for professional #Bitcoin and #cryptocurrency #trading tools? #daytrading http://bit.ly/25JMlPl,0,0,0,False
27,RokaCom@RokaComMobile,Bitcoin Wallet Samourai Goes Open-Source http://bit.ly/1ZmH5fF #cryptocurrency,0,0,0,False
28,NE Patriots Dynasty@NEPatsDynasty,HERE IT IS. The Next #Crypto #Currency #Bitcoin. It is called #ILCoin Join FREE Today. Click here http://buygold.ilgamos.com/buy?buy_type=1,0,0,0,False
29,Bitcoin Hourly@bitcoin_hourly,"Price Update: 1 #Bitcoin = $456.3400

#cryptocurrency source http://yhoo.it/1PH2nON (via @Flutter_HQ)",0,0,0,False
30,BitcoinBuzz vega9@BitcoinBuzzV9,http://bitcoinbuzz.vega9.com - Hot topics: #bitcoin #cryptocurrency #crypto #blockchain #btc #fintech,1,0,0,False
31,Konstantin Klemmer@kklmmr,Essential read: The future of #cryptocurrency - #Bitcoin and beyondThe future of cryptocurrencies: Bitcoin and beyondThe digital currency has caused any number of headaches for law enforcement. Now entrepreneurs and academics are scrambling to build a better version.nature.com,0,0,0,False
32,𝙲𝚛𝚢𝚙𝚝𝚘𝙳𝚎𝚜𝚒𝚐𝚗 ₿@chaindesign,"NEW NEW NEW !- https://cryptogods.net
All crypto services at one place
#cryptocurrency #coin #bitcoin",1,0,0,False
34,𝙲𝚛𝚢𝚙𝚝𝚘𝙳𝚎𝚜𝚒𝚐𝚗 ₿@chaindesign,"NEW NEW NEW !- https://cryptogods.net
All crypto services at one place
#cryptocurrency #coin #bitcoin",0,0,0,False
35,𝙲𝚛𝚢𝚙𝚝𝚘𝙳𝚎𝚜𝚒𝚐𝚗 ₿@chaindesign,"All crypto services at one place
https://cryptogods.net
#cryptocurrency #coin #bitcoin",0,0,0,False
36,𝙲𝚛𝚢𝚙𝚝𝚘𝙳𝚎𝚜𝚒𝚐𝚗 ₿@chaindesign,"All crypto services at one place
https://cryptogods.net
#cryptocurrency #coin #bitcoin",1,0,0,False
39,𝙲𝚛𝚢𝚙𝚝𝚘𝙳𝚎𝚜𝚒𝚐𝚗 ₿@chaindesign,"wallets, design,explorers, faucets, pools...
All crypto services !!!
https://cryptogods.net
#cryptocurrency #coin",0,0,0,False
42,David Liam@crazydaveorama,“Listing on dual blockchains” by Newbium https://medium.com/newbium-news-updates/listing-on-dual-blockchains-56cc87fd50a0#.lbx4fkiip… #blockchain #Ethereum #cryptocurrencyListing on dual blockchainsDual listing of the Newbium cryptocurrency on more than one blockchain is revolutionary. It allows us to maintain the ethos of crypto while…medium.com,0,0,0,False
43,Julia Vaingurt@julia_vaingurt,Here’s what #bitcoin offers that private wall street #blockchains won’t #crypto #cryptocurrency http://cur.lv/yjyh0,0,0,0,False
44,Bitcoin@bitcoinpoet,Winklevoss Brothers: Bitcoin Will Disrupt Gold As Crypto Holds The Future: Claman also played... http://btcs.me/1OrnSsK #cryptocurrency,3,1,0,False
45,David Liam@crazydaveorama,#Newbium – Bringing New Tools to the #Cryptosphere https://cryptocoinsnews.com/newbium-bringing-new-tools-cryptosphere/… via @CryptoCoinsNews #cryptocurrency #altcoin,0,0,0,False
46,Bitcoin@webitcoins,Bitcoin Price: Can Trade Hold $450? https://cryptocoinsnews.com/bitcoin-price-can-trade-hold-450/… #cryptocurrency,0,0,0,False
47,Tech BitCoin@tech_bitcoin,"""Bitcoin Makes Sense To Everyone According To Bobby Lee"" http://ift.tt/eA8V8J #bitcoin #crypto http://ift.tt/1ZRBoqm",1,0,0,False
48,David Liam@crazydaveorama,Winklevoss Brothers: #Bitcoin Will Disrupt Gold As #Crypto Holds The Future https://cryptocoinsnews.com/winklevoss-brothers-bitcoin-will-disrupt-gold-as-crypto-holds-the-future/… via @CryptoCoinsNews #cryptocurrency,2,0,0,False
49,CCN - Capital & Celeb News@CapitalAndCeleb,Bitcoin Price: Can Trade Hold $450? https://cryptocoinsnews.com/bitcoin-price-can-trade-hold-450/… #cryptocurrency,1,5,0,False
50,David Liam@crazydaveorama,Making #Blockchain Real Ushers in a New Era https://cryptocoinsnews.com/making-blockchain-real-ushers-new-era/… via @CryptoCoinsNews #bitcoin #cryptocurrency,1,0,0,False
51,David Liam@crazydaveorama,#SilkRoad 3.0 Is Back…Will It Last? https://cryptocoinsnews.com/silk-road-3-0-back-will-last/… via @CryptoCoinsNews #darkmarket #darkweb #darknet #cryptocurrency #privacy,1,0,0,False
52,Scott F. Oberon@Isildur1990,Calling #blockchain the new frontier is quite old. It is the NOW. So get on it. #bitcoin #dash #dao #ethereum #cryptocurrency #Ripple #BTC,1,2,0,False
53,BitcoinAgile@bitcoinagile,#bitcoin Makes Sense To Everyone According To Bobby Lee #BobbyLee #cryptocurrency http://newsbtc.com/2016/05/14/bitcoin-makes-sense-to-everyone-according-to-bobby-lee…,0,0,0,False
54,CryptoFeed@crypto_feed,Bitcoin Price Analysis: Quiet Trade Abo... https://cryptocoinsnews.com/bitcoin-price-analysis-quiet-trade-450/… #crypto #investment | https://twibble.io,0,0,0,False
55,Denny McEnroe@McEnroeDenny,Re: Daohub to become one of the largest crowdfunds ever. http://cur.lv/yjy3p #bitcoin #crypto,0,0,0,False
56,Denny McEnroe@McEnroeDenny,Re: DirectBet Basketball Prediction Game *** Win Free Bets ! *** Free to Enter ! http://cur.lv/yjy3o #bitcoin #crypto,0,0,0,False
57,Denny McEnroe@McEnroeDenny,Re: NEM (XEM) Official Thread - 100% New Code - Easy To Use APIs http://cur.lv/yjy3m #bitcoin #crypto,0,0,0,False
58,Denny McEnroe@McEnroeDenny,Where i will find doubler btc sites http://cur.lv/yjy3l #bitcoin #crypto,0,0,0,False
59,Denny McEnroe@McEnroeDenny,Re: I WANT TO WORK AS CAPTCHA TYPER!! http://cur.lv/yjy3j #bitcoin #crypto,0,0,0,False
60,Crypto Yoyo@cryptoyoyo,Bitcoin mystery explained http://bit.ly/1ZRBY7o #bitcoin #crypto #news,0,0,0,False
61,CryptoRSS@CryptoRSS,"Ethereum Price Technical Analysis – Buy Target Hit, Now What?: Key Highlights
Ethereum price continue... http://bit.ly/1V2fPE9 #crypto",0,0,0,False
62,Bogdan STRB@BogdanSTRB,Coinigy! Looking for professional #Bitcoin and #cryptocurrency #trading tools? #daytrading http://bit.ly/25JMlPl,0,0,0,False
63,Cointon@CointonDotCom,Bitcoin in Africa Could Leapfrog Just Like Cellular Phones Replaced… http://dlvr.it/LJlHpq #crypto #bitcoin,0,0,0,False
64,Bitcoin@crypto_bitcoins,Bitcoin in Africa Could Leapfrog Just Like Cellular Phones Replaced… http://dlvr.it/LJlHpq #crypto #bitcoin,0,0,0,False
65,Farah K. Miraza@farahkaifa,#cryptocurrency #crypto Next Bitcoin Core Update Will Remove AsicBoost to Fight Mining Centralization http://ow.ly/tWOZ500hsV8,0,0,0,False
66,LoveplusBitcoin@loveplusbitcoin,BitPagos to Bring #Credit to the Unbanked via #Bitcoin http://ow.ly/7sB1300bK6o #crypto #fintech,2,0,0,False
67,Bitcoin Hourly@bitcoin_hourly,"Price Update: 1 #Bitcoin = $456.3300

#cryptocurrency source http://yhoo.it/1PH2nON (via @Flutter_HQ)",0,0,0,False
68,XBTFreelancer.com@XBTFreelancer,#programming #btc #cryptocurrency #earn #earnfromhome Looking for IPB Coder http://xbtfreelancer.com/prj/1401/looking-for-ipb-coder… #bitcoin,0,0,0,False
69,BitcoinBuzz vega9@BitcoinBuzzV9,http://bitcoinbuzz.vega9.com - Hot topics: #bitcoin #blockchain #bitcoins #mining #crypto #cloud,1,0,0,False
70,Bitcoin Promoter@promotebitcoin,"From @steam_games: #DOOM on Steam http://buff.ly/1sn3z6f
#bitcoin accepted 
#btc #crypto #game",0,0,0,False
71,Crypto Yoyo@cryptoyoyo,Bitcoin Core To Remove Patented AsicBoost Advantage Soon http://bit.ly/1XaMS99 #bitcoin #crypto #news,0,0,0,False
72,Crypto Yoyo@cryptoyoyo,"An Ethereum, Mist Wallet user, complains that the platform has been breached http://bit.ly/1TNVY6b #bitcoin #crypto #news",0,0,0,False
73,xxxxxxxxxx@NxtGenCrpto,"Awesome post of some @fleetwoodmac photos on @Steemit!  Check em out! https://steemit.com/music/@nextgencrypto/photos-of-fleetwood-mac… #music #socialmedia #cryptocurrency #photoPhotos of Fleetwood Mac — SteemitI went to multiple Fleetwood Mac shows on their past tour, here are some photos. More to come! #originalcontent by nextgencryptosteemit.com",0,0,0,False
74,Marco ฿TC@Marco_BTC,"Use #bitcoin to trade #stocks #forex #crypto #commodities, up to 40x leverage
100% deposit bonus if you sign up here
https://whaleclub.co/join/Rh3vh",2,1,0,False
75,Bitcoin City™#฿TC@Bitcoin_City,"#btc Sheryl Sandberg just gave an incredible, emotional speech to college grads: Earlier tod... http://bit.ly/1Wy5lNY #bitcoin #crypto",0,0,0,False
76,Fintech Prowler@FintechProwler,"An Ethereum, Mist Wallet user, complains that the platform has been breached - The Merkle http://ift.tt/1V2bn8q #altcoin",0,0,0,False
77,Bitcoin City™#฿TC@Bitcoin_City,#btc Unocoin and MobiKwik partner to boost Bitcoin adoption across India with over 75k merch... http://bit.ly/250AQVU #bitcoin #crypto,0,0,0,False
78,Bitcoin City™#฿TC@Bitcoin_City,"#btc Is (the code) of the Lightning Network blockchain agnostic, 'easy' to port, multichain-... http://bit.ly/1sc7Sk4 #bitcoin #cryptoIs (the code) of the Lightning Network blockchain agnostic, 'easy'...Curious.reddit.com",0,0,0,False
79,BITCOIN@Btc_mining,"New Cloud Mining Platform:

>> http://bit.ly/1TyMkHu
#bitcoin #dogecoin #cryptocurrency #mining",1,1,0,False
80,Bitcoin@webitcoins,Ethereum Based Censorship-Immune Social Media Network “Akasha” Unveiled https://cryptocoinsnews.com/ethereum-based-censorship-immune-social-media-network-akasha-unveiled/… #cryptocurrency,0,0,0,False
84,OpenFXMarket@OpenFXMarket,#altcoin market index (avg): #OFXAVG 155.78 #SHA 58.44 #SCRYPT 96.84 #QUARK 87.72 #X 15.41 #HYBRID 23.15 Stay tuned! #OFX,1,0,0,False
85,CCN - Capital & Celeb News@CapitalAndCeleb,Ethereum Based Censorship-Immune Social Media Network “Akasha” Unveiled https://cryptocoinsnews.com/ethereum-based-censorship-immune-social-media-network-akasha-unveiled/… #cryptocurrency,6,9,1,False
86,Bitcoin Hourly@bitcoin_hourly,"Price Update: 1 #Bitcoin = $456.8700

#cryptocurrency source http://yhoo.it/1PH2nON (via @Flutter_HQ)",0,0,0,False
87,BitcoinBuzz vega9@BitcoinBuzzV9,http://bitcoinbuzz.vega9.com - Hot topics: #litecoin #bitcoin #blockchain #bitcoins #mining #crypto,2,0,0,False
88,Denny McEnroe@McEnroeDenny,Re: Premier League Prediction Thread (EPL) http://cur.lv/yjw2c #bitcoin #crypto,0,0,0,False
89,Denny McEnroe@McEnroeDenny,Re: Italian League Prediction Thread (Serie A) http://cur.lv/yjw2b #bitcoin #crypto,0,0,0,False
90,Denny McEnroe@McEnroeDenny,Re: $20 Steam account credit for only $2! BiPolarDeal! http://cur.lv/yjw29 #bitcoin #crypto,0,0,0,False
91,Denny McEnroe@McEnroeDenny,Re: [ANN][LISK] Lisk | Decentralized Application & Sidechain Platform http://cur.lv/yjw27 #bitcoin #crypto,0,0,0,False
92,Tech BitCoin@tech_bitcoin,"""Bitcoin Core To Remove Patented AsicBoost Advantage Soon"" http://ift.tt/eA8V8J #bitcoin #crypto http://ift.tt/1Wx7jP8",0,0,0,False
93,Arish Dubash@happyarish,"Bitcoin (btcUSD=x) price on May 14, 2016 is 456.76. #bitcoin #toTheMoon #cryptoCurrency #newMoney",0,0,0,False
94,BitcoinAgile@bitcoinagile,Uncharted 4 does nostalgia the right way #bitcoin #btc #crypto http://theverge.com/2016/5/14/11671134/uncharted-4-nathan-drake-goodbye-nostalgia-theme…,1,0,0,False
95,Bitcoin City™#฿TC@Bitcoin_City,"#btc Uncharted 4 does nostalgia the right way: Uncharted 4: A Thief’s End could well be the ... http://bit.ly/1sbWOUa #bitcoin #cryptoUncharted 4 does nostalgia the right wayUncharted 4: A Thief’s End could well be the last game of its kind, part of a dying breed of lavish single-player experiences that focus on telling a specific story in a cinematic way. But — if you...theverge.com",0,0,0,False
96,Bitcoin@webitcoins,Satoshi Nakamoto Outs Himself As Craig Steven Wright https://cryptocoinsnews.com/satoshi-nakamoto-craig-steven-wright/… #cryptocurrency,0,0,0,False
97,Julia Vaingurt@julia_vaingurt,Openbazaar celebrates 100000 downloads of #bitcoin-powered social #marketplace #crypto #cryptocurrency http://cur.lv/yjuu8,1,0,0,False
98,Bitcoin City™#฿TC@Bitcoin_City,#btc Where can i instantly buy a prepaid card with BTC?: I need a virtual prepaid card that ... http://bit.ly/250rn0L #bitcoin #cryptoWhere can i instantly buy a prepaid card with BTC?reddit.com,0,0,0,False
99,Bitcoin City™#฿TC@Bitcoin_City,#btc The Drivechain OP Code:   submitted by    /u/Aruk19  [link]   [comments] http://bit.ly/250rhWV #bitcoin #cryptoThe Drivechain OP CodePosted in r/Bitcoin by u/Aruk19 • 63 points and 12 commentsreddit.com,0,0,0,False
102,Bitcoin City™#฿TC@Bitcoin_City,#btc Lightning Meetup in Kyiv: What Will Happen to Bitcoin After Lightning Network:   submit... http://bit.ly/1sbUuMW #bitcoin #cryptoLightning Meetup in Kyiv: What Will Happen to Bitcoin After...Posted in r/Bitcoin by u/brianmacey • 46 points and 15 commentsreddit.com,0,0,0,False
103,CCN - Capital & Celeb News@CapitalAndCeleb,Satoshi Nakamoto Outs Himself As Craig Steven Wright https://cryptocoinsnews.com/satoshi-nakamoto-craig-steven-wright/… #cryptocurrency,3,7,0,False
104,Julia Vaingurt@julia_vaingurt,"Man forgets he bought $27 of #bitcoin in 2009 how much are they worth now? #bitcoin news ... #crypto http://cur.lv/yjup5

— BitcoinzMa…",0,0,0,False
105,Miljenka Pavlakovic@Milly_Sea,#SwissCoin Prelaunch NEW #cryptocurrency. Receive 100 coins FREE http://swisscoin.eu/SwissandI Genesis Block starting noon June 4 2016.,0,0,0,False
106,Julia Vaingurt@julia_vaingurt,"Coinigy! Looking for professional #Bitcoin and #cryptocurrency #trading tools? #daytrading http://cur.lv/yjulc
http://cur.lv/yjuld",0,0,0,False
108,DomainsZen@DomainsZen,#FinTech #CryptoCurrency by @YogeshMalik is out! http://paper.li/DomainsZen/1459753639?edition_id=78a9e2d0-1a0f-11e6-89fe-002590a5ba2d… Stories via @MarcRoeger @MMarquit @bitcointexts,1,0,0,False
109,Machinecoin (ɃMAC)@Machinecoin,"Start to decentralize your life: https://youtube.com/watch?v=XOmTwnSq-HQ… #Machinecoin #Crypto #Currency https://machinecoin.orgMachineCoin - free and decentralized peer-to-peer cryptocurrency.The Machinecoin is a free and decentralized cryptocurrency thatwas created on the basis of Litecoin and Bitcoin.Get your wallet for Windows, Linux, Mac OS X ...youtube.com",1,0,0,False
110,Bitcoin Garden (Not Giving Away ETH)@BitcoinGarden,Counterparty Wants Your Vote on Bringing Ethereum Smart Contracts to Mainnet: http://bitcoingarden.tk/forum/index.php?topic=6202.msg113099#msg113099… tnx @newsbtc | #Cryptocurrency #News,5,6,0,False
111,BitcoinAgile@bitcoinagile,Cossack Labs / Crypto in iOS: Choose your destiny Infographic #Crypto #DIY #algorithm #SSL https://cossacklabs.com/choose-your-ios-crypto.html?imm_mid=0e3bcf&cmp=em-prog-na-na-newsltr_20160514…,1,0,0,False
112,Bitcoin Hourly@bitcoin_hourly,"Price Update: 1 #Bitcoin = $455.9600

#cryptocurrency source http://yhoo.it/1PH2nON (via @Flutter_HQ)",0,0,0,False
113,BitcoinBuzz vega9@BitcoinBuzzV9,http://bitcoinbuzz.vega9.com - Hot topics: #litecoin #bitcoin #blockchain #crypto #bits #cryptocurrency,2,0,0,False
114,Bitcoin Promoter@promotebitcoin,"From @steam_games: #DOOM on Steam http://buff.ly/1TTLQf7
#bitcoin accepted 
#btc #crypto #game",0,0,0,False
115,XBTmoney@xbtmoney,Creditbit – World’s Fastest Cryptocurrency @creditbit 10x Faster Transactions Than Bitcoin http://xbt.money/creditbit-worlds-fastest-cryptocurrency/… #Altcoin #CryptocurrencyCreditbit – World’s Fastest CryptocurrencyThe World’s Fastest Cryptocurrency Creditbit Offer Ten Times Faster Transactions Than Bitcoin Bit...xbt.money,6,6,0,False
116,AlertCo.in@AlertCoin,"#Bitcoin last trade

@bitfinex $456.87
@btcecom $454.91

Set #crypto #price #alerts at http://AlertCo.in",1,3,0,False
117,AlertCo.in@AlertCoin,"#Bitcoin last trade

@bitstamp $456.38
@coinbase $459.51

Set #crypto #price #alerts at http://AlertCo.in",1,3,0,False
121,Altcoinspekulant@Altcoinspekulan,"This is true, but also a Chance: As an Investor the possibility to make a nice ROI is quite high. #Bitcoin #AltcoinsQuote TweetEmin Gün Sirer@el33th4xor · May 14, 2016The DAO is an indication of a bigger malaise: there are too few investment opportunities, esp for cryptocurrencies but also for fiat.",1,1,0,False
122,Wemark@Wakhidwemark,This #MNM #MINEUM First #CloudMining Platform #Screenshot ! #Altcoin #development http://mineumslack.herokuapp.com,0,0,0,False
123,NE Patriots Dynasty@NEPatsDynasty,Looking for #WallStreet #TRADERS #entrepreneurs #Investors #HomeBusiness #money #crypto http://GoldNews.ilgamos.com/buy?buy_type=1 SHARE,0,0,0,False
124,Denny McEnroe@McEnroeDenny,Re: Welcome To The Blockchain http://cur.lv/yjtwd #bitcoin #crypto,1,0,0,False
125,Denny McEnroe@McEnroeDenny,Re: █▓▒░-< [ZPOOL.CA][BTC Multipool] The miners multipool >-░▒▓█ Decred (DCR) Mining http://cur.lv/yjtwc #bitcoin #crypto,0,0,0,False
126,Denny McEnroe@McEnroeDenny,"Re: Predict the price for January 1, 2017 http://cur.lv/yjtwb #bitcoin #crypto",0,0,0,False
127,Denny McEnroe@McEnroeDenny,Re: Sell Paypal business verified account http://cur.lv/yjtwa #bitcoin #crypto,0,0,0,False
128,Denny McEnroe@McEnroeDenny,Re: Is it good to hold my Bitcoins for 1 year http://cur.lv/yjtw9 #bitcoin #crypto,0,0,0,False
129,Bitcoin City™#฿TC@Bitcoin_City,"#btc The drone race is on:  We’ve seen an increase in drone investments on a huge scale, man... http://bit.ly/1V1VxKM #bitcoin #crypto",0,0,0,False
130,BitcoinAgile@bitcoinagile,Cryptocurrency Highlights Of The Week - Digiconomist #ethereum #Cryptocurrency #TheDAO #R3 http://digiconomist.net/cryptocurrency-highlights-week-19-2016…,1,0,0,False
131,Digiconomist@DigiEconomist,"#Cryptocurrency highlights week 19, including: #TheDAO passes $100 mio mark; Gatecoin hacked http://digiconomist.net/cryptocurrency-highlights-week-19-2016…",1,0,0,False
132,Crypto Yoyo@cryptoyoyo,Swift Is Hacked Again. The Bitcoin/Blockchain Fat Lady Sings. http://bit.ly/1sbO8gx #bitcoin #crypto #news,0,0,0,False
133,Julia Vaingurt@julia_vaingurt,"Silicon Valley Startup Races Ahead Releasing Open Standards 1 Blockchain Protocol http://cur.lv/yjtv0
#bitcoin #crypto #news",0,0,0,False
134,Crypto Yoyo@cryptoyoyo,FinCEN Confers Law Enforcement Award to New York State PD and others http://bit.ly/250mDsc #bitcoin #crypto #news,0,0,0,False
135,Crypto Yoyo@cryptoyoyo,Creditbit Claims to Be 'Ten Times Faster' Than Bitcoin http://bit.ly/1sbO5Bn #bitcoin #crypto #news,0,0,0,False
136,Crypto Yoyo@cryptoyoyo,Silicon Valley Startup Races Ahead Releasing Open Standards 1 Blockchain Protocol http://bit.ly/250mN2K #bitcoin #crypto #news,1,0,0,False
137,Coinfeed@CoinfeedIO,Enforcement Trends in #Cryptocurrency Today http://tinyurl.com/hdooymx,0,0,0,False
138,Bitcoin Press@BitcoinPressX,Winklevoss Brothers: Bitcoin Will Disrupt Gold As Crypto Holds The Future http://dlvr.it/LJmz9q #crypto #bitcoin,0,0,0,False
139,CryptoTorNews@CryptoTorNews,Winklevoss Brothers: Bitcoin Will Disrupt Gold As Crypto Holds The Future http://dlvr.it/LJmz5h #crypto #bitcoin,0,0,0,False
140,Macca Tweeter@MaccaTweeter,It looks like I have received another #incentive #reward $XVC #RPi #Incentivized #Node #Cryptocurrency #vcash,1,0,0,False
141,Tech BitCoin@tech_bitcoin,"""FinCEN Confers Law Enforcement Award to New York State PD and others"" http://ift.tt/eA8V8J #bitcoin #crypto http://ift.tt/1ZRdtqT",0,0,0,False
142,Machen Mathews @machenmathews,"From @steam_games: #DOOM on Steam http://allthings.host/1TTLXHw
#bitcoin accepted 
#btc #crypto #game",1,1,0,False
143,BitcoinAgile@bitcoinagile,Lenovo might release two sizes of the next Moto G #bitcoin #btc #crypto http://theverge.com/circuitbreaker/2016/5/14/11676108/lenovo-moto-g-g4-plus-rumor…,2,0,0,False
144,Bitcoin City™#฿TC@Bitcoin_City,"#btc Lenovo might release two sizes of the next Moto G: The Moto G was Motorola's most popul... http://bit.ly/1WxTyyX #bitcoin #cryptoLenovo might release two sizes of the next Moto GThe Moto G was Motorola's most popular phone back in the final era when ""Motorola"" still existed. So it would make sense that Lenovo wants to capitalize on that success. Some leaked images and FCC...theverge.com",0,0,0,False
145,CryptoKaiserParabolica@iz_me_alex,"This is why 21 Inc is the most exciting #Bitcoin company around
#cryptocurrency #blockchain #bitcoincomputer... http://fb.me/7WfjwiCLC",1,0,0,False
146,CryptoFeed@crypto_feed,Making Blockchain Real Ushers in a New Era https://cryptocoinsnews.com/making-blockchain-real-ushers-new-era/… #crypto #investment | https://twibble.io,0,0,0,False
147,Bitcoin City™#฿TC@Bitcoin_City,#btc I'm creating a report on blockchain tech & how it will change financial services - plea... http://bit.ly/1ZReaAo #bitcoin #cryptoI'm creating a report on blockchain tech & how it will change...I come from the investment business and am prepping a report mainly focused on the future of what blockchain tech will bring to financial...reddit.com,0,0,0,False
148,Bitcoin City™#฿TC@Bitcoin_City,"#btc How to create a proper HD address, for a static QR code, like a poster or brochure? Is ... http://bit.ly/1WxSQBS #bitcoin #cryptoHow to create a proper HD address, for a static QR code, like a...Does that make sense? I want to put a QR code for BTC contributions on a poster, but I am aware that the desired practice is to NOT use an ongoing...reddit.com",0,0,0,False
149,CryptoCoinsMarket@ccoinmarket,Malaysian Central Bank Focuses on Adapting FinTech Regulation http://ift.tt/1Ysbx7P http://ift.tt/1V1Wbbt #crypto #bitcoin,0,0,0,False
150,OpenFXMarket@OpenFXMarket,#bitcoin market index: 95.53 #OFXBTC. #altcoin market index (avg): 155.78 #OFXAVG by http://openfxmarket.com. Stay tuned!,0,0,0,False
151,JAM Taylor@TheJAMTaylor,"""International Business in #Barbados – Accelerating NEXGEN Development""  #blockchain #cryptocurrency #fintechInternational Business in Barbados – Accelerating NEXGEN DevelopmentBarbados has long-held the ambition of achieving the status of The premier international business financial centre in this region. It is therefore exciting to see a band of young Barbadian entrepre…businessbarbados.com",2,0,0,False
152,Bitcoin@webitcoins,Mt.Gox Trustee Suspends Release of Exchange’s Bitcoin Addresses List https://cryptocoinsnews.com/mt-gox-trustee-suspends-release-bitcoin-addresses-list/… #cryptocurrency,0,0,0,False
153,CCN - Capital & Celeb News@CapitalAndCeleb,Mt.Gox Trustee Suspends Release of Exchange’s Bitcoin Addresses List https://cryptocoinsnews.com/mt-gox-trustee-suspends-release-bitcoin-addresses-list/… #cryptocurrency,2,5,0,False
154,Bitcoin Hourly@bitcoin_hourly,"Price Update: 1 #Bitcoin = $456.7800

#cryptocurrency source http://yhoo.it/1PH2nON (via @Flutter_HQ)",0,0,0,False
155,BitcoinBuzz vega9@BitcoinBuzzV9,http://bitcoinbuzz.vega9.com - Hot topics: #litecoin #bitcoin #blockchain #crypto #btc #cryptocurrency,0,0,0,False
156,BlockChannel@BlockChannel,"BCN News: bitcoinist ""India’s First Virtual Currencies and Blockchain Conference http://ift.tt/1Or0Cem #bitcoin #blockchain #btc #crypto…",0,0,0,False
157,NE Patriots Dynasty@NEPatsDynasty,What if? http://ilgamosilcoin.com/ilgamos-ilcoin.html… the power of money.  #Money #HomeBusiness #Trading #crypto Register FREE,1,0,0,False
161,CryptoRSS@CryptoRSS,"Making Blockchain Real Ushers in a New Era: Developers, bankers, regulators, investors, businessmen, ... http://bit.ly/1Or2O5s #crypto",0,0,0,False
162,Bitcoinist.com@bitcoinist,India’s First Virtual Currencies and Blockchain Conference http://ift.tt/1Or0Cem #bitcoin #blockchain #btc #cryptocurrency #altcoins #mo…,1,1,0,False
163,Bitcoinist.com@bitcoinist,Creditbit Claims to Be ‘Ten Times Faster’ Than Bitcoin http://ift.tt/23QAkEe #bitcoin #blockchain #btc #cryptocurrency #altcoins #money …,7,7,0,False
164,Chief Trader@CryptoChief1111,#TheDAO has penetrated $100 million!!! Let's see how deep it'll go. #Ethereum #altcoin #cryptocurrency #blockchain,1,0,0,False
165,Bitcoin City™#฿TC@Bitcoin_City,"#btc India’s First Virtual Currencies and Blockchain Conference: 

MUMBAI, India, (May 1... http://bit.ly/1Or1PT4 #bitcoin #crypto",0,0,0,False
166,Bitcoin City™#฿TC@Bitcoin_City,"#btc Creditbit Claims to Be ‘Ten Times Faster’ Than Bitcoin: 

Creditbit, an “open sourc... http://bit.ly/1Or1X4R #bitcoin #crypto",0,0,0,False
167,Julia Vaingurt@julia_vaingurt,#Bitcoin coolwallet review – it’s indeed a cool wallet #crypto #cryptocurrency http://cur.lv/yjsgc,0,0,0,False
168,Julia Vaingurt@julia_vaingurt,"India’s First Virtual Currencies and Blockchain Conference http://cur.lv/yjsde
#bitcoin #bitcoinnews #crypto http://cur.lv/yjsdf",0,0,0,False
169,Jesse James@btce4,India’s First Virtual Currencies and Blockchain Conference http://dlvr.it/LJmQZX #bitcoin #bitcoinnews #crypto,0,0,0,False
170,Born Pitcoin@PornBitcoin,India’s First Virtual Currencies and Blockchain Conference http://dlvr.it/LJmQZV #bitcoin #bitcoinnews #crypto,0,0,0,False
171,Bitcoin Press@BitcoinPressX,India’s First Virtual Currencies and Blockchain Conference http://dlvr.it/LJmQZZ #bitcoin #bitcoinnews #crypto,0,0,0,False
172,CryptoTorNews@CryptoTorNews,India’s First Virtual Currencies and Blockchain Conference http://dlvr.it/LJmQG2 #bitcoin #bitcoinnews #crypto,0,0,0,False
173,Crypto Yoyo@cryptoyoyo,Winklevoss Brothers: Bitcoin Will Disrupt Gold As Crypto Holds The Future http://bit.ly/1Or11NU #bitcoin #crypto #news,0,0,0,False
174,Floren C.: de Teresa@MassModificator,"If it can happen, it will! Current #cybersecurity possibly inadequate for #QuantumComputing. #crypto #blockchain",1,0,0,False
175,Denny McEnroe@McEnroeDenny,Re: BetBTC ★NEW DICE GAME★ Bitcoin Sports Betting | Instant Payments | Like Betfair http://cur.lv/yjs5j #bitcoin #crypto,0,0,0,False
176,Denny McEnroe@McEnroeDenny,Re: how to make money on bitcointalk without campaigns http://cur.lv/yjs5i #bitcoin #crypto,0,0,0,False
177,Denny McEnroe@McEnroeDenny,Re: Bitcoin Core http://cur.lv/yjs5g #bitcoin #crypto,0,0,0,False
178,Denny McEnroe@McEnroeDenny,When Singled-out deluded embarrassed fragile http://cur.lv/yjs5e #bitcoin #crypto,0,0,0,False
179,Denny McEnroe@McEnroeDenny,Re: Your first bitcoins came from.. (faucets aside) http://cur.lv/yjs5c #bitcoin #crypto,0,0,0,False
180,YDX @YDXMyfriend,"14/05/2016 #dividend Payment @Realnextrading http://bit.ly/1TNzORE
#NXT #Trading #Cryptocurrency #Bitcoin #Fintech",3,1,0,False
181,Farah K. Miraza@farahkaifa,#cryptocurrency #crypto Winklevoss Brothers: Bitcoin Will Disrupt Gold As Crypto Holds The Future http://ow.ly/7paP500he99,0,0,0,False
182,MiningField@miningfield,"DGC (sha256) Pool Boosting!
2% income boost for 1 hour!
http://dgcsha256.miningfield.com
#dgc #digitalcoin #altcoin @DigitalcoinDGC #bitcoin",0,0,0,False
183,tekybot@tekypromo,Indias First Virtual Currencies and Blockchain Conference http://ift.tt/1Or0b3M #tekypromo #TP #NEWS #cryptocurrency,0,0,0,False
184,tekybot@tekypromo,Creditbit Claims to Be Ten Times Faster Than Bitcoin http://ift.tt/228F2xy #tekypromo #TP #NEWS #cryptocurrency,0,0,0,False
185,Bitcoin City™#฿TC@Bitcoin_City,#btc Winklevoss Brothers: Bitcoin Will Disrupt Gold As Crypto Holds The Future: Bitcoin has ... http://bit.ly/228EJDd #bitcoin #crypto,0,0,0,False
186,Julia Vaingurt@julia_vaingurt,"Creditbit Claims to Be ‘Ten Times Faster’ Than Bitcoin http://cur.lv/yjrx4
#bitcoin #bitcoinnews #crypto http://cur.lv/yjrx5",0,0,0,False
187,Jesse James@btce4,Creditbit Claims to Be ‘Ten Times Faster’ Than Bitcoin http://dlvr.it/LJmCfR #bitcoin #bitcoinnews #crypto,0,0,0,False
188,Born Pitcoin@PornBitcoin,Creditbit Claims to Be ‘Ten Times Faster’ Than Bitcoin http://dlvr.it/LJmCfD #bitcoin #bitcoinnews #crypto,0,0,0,False
189,Bitcoin Press@BitcoinPressX,Creditbit Claims to Be ‘Ten Times Faster’ Than Bitcoin http://dlvr.it/LJmCf7 #bitcoin #bitcoinnews #crypto,0,0,0,False
190,CryptoTorNews@CryptoTorNews,Creditbit Claims to Be ‘Ten Times Faster’ Than Bitcoin http://dlvr.it/LJmCdp #bitcoin #bitcoinnews #crypto,0,0,0,False
191,Fintech Prowler@FintechProwler,Creditbit Claims to Be 'Ten Times Faster' Than Bitcoin - http://Bitcoinist.net http://ift.tt/1XriZ4M #altcoin,0,0,0,False
192,Team 300FPS ︻╦̵̵̿╤─@300FPSGAMING,Creditbit Claims to Be ‘Ten Times Faster’ Than Bitcoin http://btcf.co/1VWWHbP #bitcoin #bitcoinnews #btc #cryptocurrency,0,0,0,False
193,Julia Vaingurt@julia_vaingurt,"Global Sales Tax Consultant Avalara Announces Blockchain Exploration http://cur.lv/yjrqc
 NEWSBTC #Bitcoin #Crypto",0,0,0,False
194,Bitcoin@webitcoins,ASX Listing Changes Could Dissuade Bitcoin & Fintech Startups https://cryptocoinsnews.com/asx-listing-changes-dissuade-bitcoin-fintech-startups/… #cryptocurrency,1,0,0,False
195,Yum love@YumGasi82,"Some Times We need to Open Our Eyes & Mind Only.
#CryptoCurrency
#Revolution
#NextBigThing
#OneCoin",0,0,0,False
196,CCN - Capital & Celeb News@CapitalAndCeleb,ASX Listing Changes Could Dissuade Bitcoin & Fintech Startups https://cryptocoinsnews.com/asx-listing-changes-dissuade-bitcoin-fintech-startups/… #cryptocurrency,2,6,0,False
197,Bitcoin City™#฿TC@Bitcoin_City,#btc An interview with Timo Hanke about AsicBoost and recent Core reaction on BitcoinBlog.de... http://bit.ly/228Bs6I #bitcoin #cryptoAn interview with Timo Hanke about AsicBoost and recent Core...Posted in r/Bitcoin by u/CosmicHemorroid • 16 points and 0 commentsreddit.com,0,0,0,False
198,Bitcoin City™#฿TC@Bitcoin_City,#btc Bitcoin Core is Seeking to Overhaul How it Upgrades its Code:       submitted by    /u/... http://bit.ly/228BBHl #bitcoin #cryptoBitcoin Core is Seeking to Overhaul How it Upgrades its CodePosted in r/Bitcoin by u/eragmus • 16 points and 0 commentsreddit.com,1,0,0,False
200,Julia Vaingurt@julia_vaingurt,Banca imi researcher: #blockchain won’t #work if #banks don’t change #bitcoin #crypto #cryptocurrency http://cur.lv/yjrdq,0,0,0,False
201,Tech BitCoin@tech_bitcoin,"""Global Sales Tax Consultant Avalara Announces Blockchain Exploration"" http://ift.tt/eA8V8J #bitcoin #cryptoSales Tax Consultant Avalara Announce Blockchain ExplorationAvalara, the well-known taxation management, and automation software company is working on implementing blockchain technology into its solutions. Read more...newsbtc.com",0,0,0,False
202,Enoch Cruz@enochmms,#GeoCoins. The most trusted form of #cryptocurrency. http://bit.ly/1N8DImO,0,0,0,False
203,Bitcoin Hourly@bitcoin_hourly,"Price Update: 1 #Bitcoin = $455.9200

#cryptocurrency source http://yhoo.it/1PH2nON (via @Flutter_HQ)",0,0,0,False
204,XBTFreelancer.com@XBTFreelancer,#cryptocurrency #freelancing #workfromhome http://xbtfreelancer.com/prj/1406/need-usa-google-adsense-approved-account… #bitcoin Need USA Google Adsense Approved Account #marketing,0,0,0,False
205,BitcoinBuzz vega9@BitcoinBuzzV9,http://bitcoinbuzz.vega9.com - Hot topics: #bitcoin #litecoin #blockchain #btc #crypto #cryptocurrency,0,0,0,False
206,Manuel Carbonell@ManuelCAviles,#OKCash is now ranked 42 on @coingecko Come on!! The best #ProofofStake #cryptocurrency is here! https://coingecko.com/en?page=2,6,3,0,False
207,MINEUM@mineumproject,Our first #CloudMining Platform #Screenshot ! #MNM #MINEUM #Altcoin #Development #ICO #DontMissYourChance,6,7,0,False
208,Randy Hilarski@RandyHilarski,Join us on Crowdify! #Crypto #Bitcoin #CrowdCoin,6,0,0,False
209,Julia Vaingurt@julia_vaingurt,"#btc Gillmor Gang LIVE 05.14.16:  Gillmor Gang – Doc Searls, frank Radice, Kevin Marks, and ... http://cur.lv/yjqqd
#bitcoin #crypto",1,0,0,False
210,Bitcoin City™#฿TC@Bitcoin_City,"#btc Gillmor Gang LIVE 05.14.16:  Gillmor Gang – Doc Searls, frank Radice, Kevin Marks, and ... http://bit.ly/1sbjZht #bitcoin #crypto",0,0,0,False
211,Team 300FPS ︻╦̵̵̿╤─@300FPSGAMING,Winklevoss Brothers: Bitcoin Will Disrupt Gold As Crypto Holds The Future http://btcf.co/1Ys5HDm #bitcoin #bitcoinnews #btc #cryptocurrency,1,1,0,False
212,BCB ATM@bcb_atm,"What's next for #Bitoin in 2016?
 http://bit.ly/1TCJyyc
#CryptoCurrency #Blockchain #ATMs",0,0,0,False
213,Denny McEnroe@McEnroeDenny,Re: | ANN | Espers [ESP] | New Algo | New Features In Development | Reverse-ICO | http://cur.lv/yjpwb #bitcoin #crypto,0,0,0,False
214,Denny McEnroe@McEnroeDenny,Re: Multiple Accounts sa Ad Campaign? http://cur.lv/yjpw8 #bitcoin #crypto,0,0,0,False
215,Denny McEnroe@McEnroeDenny,Re: WILL BITCOIN BE USED BY ALMOST EVERYONE IN 2022? http://cur.lv/yjpw1 #bitcoin #crypto,0,0,0,False
216,Denny McEnroe@McEnroeDenny,Re: [ANN][slock.it][Crowdfund][DAO] IoT meets blockchain http://cur.lv/yjpvy #bitcoin #crypto,0,0,0,False
217,BitScan@bitscanner,Danish exchange @CCEDK_  is to relaunch as an enterprise #crypto ecosystem engine http://ow.ly/w4nZ300bEGT #bitcoin,1,4,0,False
218,Alvis Cheng@AlvisMiner,Microsoft just added multi-disc backwards compatibility to the Xbox One: Microsoft’s eve... http://sh.st/PaHx7 #bitcoin #crypto #IT,0,0,0,False
219,Alvis Cheng@AlvisMiner,Microsoft just added multi-disc backwards compatibility to the Xbox One: Microsoft’s eve... http://sh.st/PaHx2 #bitcoin #crypto #IT,0,0,0,False
220,CryptoTorNews@CryptoTorNews,Bitcoin Price Analysis: Quiet Trade Above $450 http://dlvr.it/LJlHsK #crypto #bitcoin,0,0,0,False
226,Bitcoin Press@BitcoinPressX,Bitcoin Price Analysis: Quiet Trade Above $450 http://dlvr.it/LJlHrR #crypto #bitcoin,0,0,0,False
227,CryptoTorNews@CryptoTorNews,Bitcoin in Africa Could Leapfrog Just Like Cellular Phones Replaced… http://dlvr.it/LJlHpq #crypto #bitcoin,0,0,0,False
228,Bitcoin Press@BitcoinPressX,Bitcoin in Africa Could Leapfrog Just Like Cellular Phones Replaced… http://dlvr.it/LJlHpp #crypto #bitcoin,0,0,0,False
229,vanessas@sdfsdtgdrre,"10BIT BIZ - Analyze investment #Bitcoin #Blockchain #eth #btc #altcoin #Dogecoin #LitecoinQuote TweetBitcoin Brasil@BitcoinBr10 · May 6, 2016Rotator Bitcoin - Comece a Ganhar - 
Rotator Bitcoin - Start Earning Your Satoshi #Bitcoin http://bitcoinbrasil10.esy.es/btc/",1,0,0,False
230,vanessas@sdfsdtgdrre,"10BIT BIZ - Analyze investment #Bitcoin #Blockchain #eth #btc #altcoin #Dogecoin #LitecoinQuote TweetBitcoin Brasil@BitcoinBr10 · May 7, 2016#Bitcoin #dogecoin #Btc #ethereum #litecoin #satoshi http://youtu.be/F5Ig8KEjD3U?a",0,0,0,False
231,vanessas@sdfsdtgdrre,"10BIT BIZ - Analyze investment #Bitcoin #Blockchain #eth #btc #altcoin #Dogecoin #LitecoinQuote TweetBitcoin Brasil@BitcoinBr10 · May 7, 201610BIT BIZ - Analyze investment #Bitcoin #Blockchain #ethereum #money #eth #btc #altcoin #Dogecoin #satoshi #Litecoin",0,0,0,False
232,vanessas@sdfsdtgdrre,"10BIT BIZ - Analyze investment #Bitcoin #Blockchain #eth #btc #altcoin #Dogecoin #LitecoinQuote TweetBitcoin Brasil@BitcoinBr10 · May 7, 201610BIT BIZ - Analyze investment #Bitcoin #Blockchain #ethereum #money #eth #btc #altcoin #Dogecoin #satoshi #Litecoin
https://youtube.com/watch?v=F5Ig8KEjD3U…",0,0,0,False
233,vanessas@sdfsdtgdrre,"10BIT BIZ - Analyze investment #Bitcoin #Blockchain #eth #btc #altcoin #Dogecoin #LitecoinQuote TweetBitcoin Brasil@BitcoinBr10 · May 7, 201610BIT BIZ - Analyze investment #Bitcoin #Blockchain #eth #btc #altcoin #Dogecoin #Litecoin
https://youtube.com/watch?v=F5Ig8KEjD3U…",0,0,0,False
234,vanessas@sdfsdtgdrre,"ROTATOR BITCOIN -  #Bitcoin #Blockchain #Freebitcoin #ethereum #mining #eth #btc #altcoinQuote TweetBitcoin Brasil@BitcoinBr10 · May 12, 2016ROTATOR BITCOIN -  #Bitcoin #Blockchain #Freebitcoin #ethereum #mining #eth #btc #altcoin
http://bitcoinbrasil10.esy.es/btc",0,0,0,False
235,WebFuelCode@webfuelcode,People who love crypto-currencies also look how to use and http://earnbtc.wall-spot.com/index.php/2016/02/23/adzcoin-exchange-rate/?utm_source=ReviveOldPost&utm_medium=social&utm_campaign=ReviveOldPost… #adzcoin #cryptocurrency #digitalcurrency #digitalmoney,0,0,0,False
236,BitcoinAgile@bitcoinagile,What I want most from Google I/O 2016 is a great camera app #bitcoin #btc #crypto http://theverge.com/2016/5/14/11675746/google-nexus-camera-app-make-it-better-please…,6,0,0,False
237,Bitcoin City™#฿TC@Bitcoin_City,#btc What I want most from Google I/O 2016 is a great camera app: The Nexus 6P is wonderful.... http://bit.ly/1ZQVNMa #bitcoin #crypto,0,0,0,False
238,Bitcoin City™#฿TC@Bitcoin_City,#btc Childish Personal Attacks Are Damaging the Bitcoin Industry:       submitted by    /u/H... http://bit.ly/1OqQke6 #bitcoin #cryptoChildish Personal Attacks Are Damaging the Bitcoin IndustryPosted in r/Bitcoin by u/HK_frank • 0 points and 11 commentsreddit.com,0,0,0,False
239,Bitcoin City™#฿TC@Bitcoin_City,"#btc Mycelium Gear testnet API + Android wallet not working at the moment? Other bugs occuri... http://bit.ly/228q1Mg #bitcoin #cryptoMycelium Gear testnet API + Android wallet not working at the...Hi guys, I'm playing with mycelium gear since yesterday and it worked fine... But today, it seems that the testnet api gateway is somehow really...reddit.com",0,0,0,False
240,Bitcoin Hourly@bitcoin_hourly,"Price Update: 1 #Bitcoin = $455.6900

#cryptocurrency source http://yhoo.it/1PH2nON (via @Flutter_HQ)",0,0,0,False
241,BitcoinBuzz vega9@BitcoinBuzzV9,http://bitcoinbuzz.vega9.com - Hot topics: #bitcoin #blockchain #crypto #btc #cryptocurrency #fintech,1,2,0,False
242,Fintech Prowler@FintechProwler,CEX.IO Plans to Add Bitcoin Margin Trading - The Merkle http://ift.tt/1V1Fehd #altcoin,0,0,0,False
243,Crypto Yoyo@cryptoyoyo,Bitcoin in Africa Could Leapfrog Just Like Cellular Phones Replaced Landline http://bit.ly/1WxEFwJ #bitcoin #crypto #news,0,0,0,False
244,Crypto Yoyo@cryptoyoyo,Bitcoin Price Analysis: Quiet Trade Above $450 http://bit.ly/1TdiLZZ #bitcoin #crypto #news,0,0,0,False
245,CryptoRSS@CryptoRSS,Malware-Laced Porn Apps Behind Wave of Android Lockscreen Attacks: Dell SonicWALL Threats Research Te... http://bit.ly/228mPAp #crypto,0,0,0,False
246,Fintech Prowler@FintechProwler,Give Me Leverage or Give Me Zero Fees for Bitcoin and Cryptocurrency Trading - http://Bitcoinist.net http://ift.tt/1WwKyec #altcoin,0,0,0,False
247,Load Debit Card@LoadDebitCard,Bitcoin Core is Seeking to Overhaul How it Upgrades its Code http://bit.ly/1sanDId via @CoinDesk #Bitcoin #Btc #Altcoins,1,1,0,False
248,Farah K. Miraza@farahkaifa,#cryptocurrency #crypto Bitcoin Price Analysis: Quiet Trade Above $450 http://ow.ly/VpdE500h3f1,0,0,0,False
249,NE Patriots Dynasty@NEPatsDynasty,Money Talks. Time to #invest #Stocks #Money #Gold #Crypto go to http://MoneyTalks.ilgamos.com The money and payment system of future.,0,0,0,False
250,Bitcoin City™#฿TC@Bitcoin_City,#btc Bitcoin Price Analysis: Quiet Trade Above $450: Bitcoin price has not made any signific... http://bit.ly/228gyEG #bitcoin #crypto,1,0,0,False
251,CryptoFeed@crypto_feed,Silk Road 3.0 Is Back…Will It Last? https://cryptocoinsnews.com/silk-road-3-0-back-will-last/… #crypto #investment | https://twibble.io,1,0,0,False
252,Coinfeed@CoinfeedIO,Weekly #Altcoin #Price Analysis: Cryptocurrencies Facing Storms Together ... http://tinyurl.com/husvwcf,0,0,0,False
253,BitcoinAgile@bitcoinagile,Childish Personal Attacks Are Damaging the #bitcoin Industry #Crypto #BitGo #KnCMiners http://bitcoinagile.com/6A63B7/childish-personal-attacks-are-damaging-the-bitcoin-industry_stream…,1,1,0,False
259,CryptoFeed@crypto_feed,Bitcoin in Africa Could Leapfrog Just Like Cellular... http://cointelegraph.com/news/bitcoin-in-africa-could-leapfrog-just-like-cellular-phones-replaced-landline… #crypto | https://twibble.io,0,0,0,False
261,CryptoCoinsMarket@ccoinmarket,Childish Personal Attacks Are Damaging the Bitcoin Industry http://ift.tt/1sb56LZ http://ift.tt/1Xa9hDB #crypto #bitcoin,0,0,0,False
262,Secrets@SecretsOfCrypto,wow over 100 million usd raised for $DAO #cryptocurrency,7,8,0,False
263,Bitcoin City™#฿TC@Bitcoin_City,"#btc NYC presents more opportunities than challenges for foreign ad firms:  With digital ad ... http://bit.ly/24ZDNGi #bitcoin #cryptoNYC presents more opportunities than challenges for foreign ad firmsWith digital ad spending expected to surpass the spend on television advertising next year, the Big Apple overflows with adtech startups. Many of these startups are coming to New York from abroad....techcrunch.com",2,0,0,False
264,Bitcoin City™#฿TC@Bitcoin_City,#btc Author Raj Raghunathan talks about what it takes for smart people to be happy: In my on... http://bit.ly/227QOsj #bitcoin #cryptoAuthor Raj Raghunathan talks about what it takes for smart people to be happyJohn Biggs Contributor Share on Twitter John Biggs is a former TechCrunch editor and is currently the editor-in-chief of Gizmodo. He's started and run a number of startups. More posts by this...techcrunch.com,0,0,0,False
265,Bitcoin City™#฿TC@Bitcoin_City,"#btc Power laws rule everything around me:  We live in a time of great polarization. Politic... http://bit.ly/227JGw3 #bitcoin #cryptoPower laws rule everything around meWe live in a time of great polarization. Politically, in nations across the world, both the left and the far right grow more numerous, and draw further away from the mainstream establishment, every...techcrunch.com",0,0,0,False
266,BitcoinAgile@bitcoinagile,Watch and listen to Matthew McConaughey making bizarre sounds #bitcoin #btc #crypto http://theverge.com/2016/5/14/11675666/matthew-mcconaughey-weird-noises-compilation-video…,2,4,0,False
267,Farah K. Miraza@farahkaifa,#cryptocurrency #crypto Digital Currency Exchange Gatecoin Has Been Hacked http://ow.ly/NCLC500h13L,0,0,0,False
268,tekybot@tekypromo,Bitcoin in Africa Could Leapfrog Just Like Cellular Phones Replaced Landline http://ift.tt/1OqIuBa #tekypromo #TP #NEWS #cryptocurrency,0,0,0,False
269,LoveplusBitcoin@loveplusbitcoin,Top 10 Myths About #Bitcoin http://ow.ly/lyhy300bK1E #cryptocurrency,0,0,0,False
270,Bitcoin City™#฿TC@Bitcoin_City,"#btc Watch and listen to Matthew McConaughey making bizarre sounds: You've got your high art... http://bit.ly/1sb3IJb #bitcoin #cryptoWatch and listen to Matthew McConaughey making bizarre soundsYou've got your high art YouTube compilations, and then there are the videos that contain nothing but Matthew McConaughey making unintelligible noises for four entire minutes. You can thank the...theverge.com",0,0,0,False
271,Bitcoin City™#฿TC@Bitcoin_City,#btc Is it worth setting up my BFL single miner?: I have a BFL single miner that does 30h/s ... http://bit.ly/1OqIl0C #bitcoin #cryptoIs it worth setting up my BFL single miner?reddit.com,0,0,0,False
272,Bitcoin City™#฿TC@Bitcoin_City,#btc My teen cousin finally found a way to bypass credit cards to buy a game on Steam..sent ... http://bit.ly/228cNPM #bitcoin #cryptoMy teen cousin finally found a way to bypass credit cards to buy a...Posted in r/Bitcoin by u/cuddaloreappu • 963 points and 125 commentsreddit.com,0,0,0,False
273,Bitcoin City™#฿TC@Bitcoin_City,"#btc Bitcoin, Banks & The Final Disintermediation – This time they cant cheat death:       s... http://bit.ly/1OqIaCz #bitcoin #cryptoBitcoin, Banks & The Final Disintermediation – This time they cant...reddit.com",0,0,0,False
274,Load Debit Card@LoadDebitCard,Litecoin Debit Card #Litecoin to #debitcard with 40+ #altcoins @litecoin @LiteCoinNews http://bit.ly/debitnow,0,0,0,False
275,Bitcoin@webitcoins,"Investigation into Bitcoin Exchange Cryptsy Issues Subpoenas, CEO Remains https://cryptocoinsnews.com/bitcoin-cryptsy-subpoenas-ceo-missing/… #cryptocurrency",0,0,0,False
276,AlertCo.in@AlertCoin,"#Bitcoin last trade

@bitstamp $456.68
@coinbase $457.20

Set #crypto #price #alerts at http://AlertCo.in",1,3,0,False
277,AlertCo.in@AlertCoin,"#Bitcoin last trade

@bitfinex $455.04
@btcecom $454.20

Set #crypto #price #alerts at http://AlertCo.in",1,3,0,False
278,CCN - Capital & Celeb News@CapitalAndCeleb,"Investigation into Bitcoin Exchange Cryptsy Issues Subpoenas, CEO Remains https://cryptocoinsnews.com/bitcoin-cryptsy-subpoenas-ceo-missing/… #cryptocurrency",3,11,0,False
279,[Jz]@sjzaib,YubiCo's YubiKeys (v4+) stopped being Open Source. http://bit.ly/1sb0NAk #crypto #infosec,0,0,0,False
280,tekybot@tekypromo,Bitcoin Price Analysis Quiet Trade Above $450 http://ift.tt/1R1WFY6 #tekypromo #TP #NEWS #cryptocurrency,0,0,0,False
281,YDX @YDXMyfriend,"14/05/2016 Weekly #Dividends @coinomat http://bit.ly/1WwEOkI
#blockchain #NXT #Startups #crypto #Asset #NXTUSD",5,2,0,False
282,Crypto Yoyo@cryptoyoyo,Japanese Company Raising Funds Abuses Tech Bureau Corp. Credentials http://bit.ly/27mwIyj #bitcoin #crypto #news,0,0,0,False
283,Team 300FPS ︻╦̵̵̿╤─@300FPSGAMING,Bitcoin Price Analysis: Quiet Trade Above $450 http://btcf.co/1smRDBw #bitcoin #bitcoinnews #btc #cryptocurrency,0,0,0,False
284,Julia Vaingurt@julia_vaingurt,Why #silvergate’s #ceo is #banking 15 #bitcoin companies #crypto #cryptocurrency http://cur.lv/yjm1h,0,0,0,False
285,MiningField@miningfield,"DGC (sha256) Pool Boosting!
2% income boost for 1 hour!
http://dgcsha256.miningfield.com
#dgc #digitalcoin @DigitalcoinDGC #cryptocurrency",0,0,0,False
286,Julia Vaingurt@julia_vaingurt,Visa chooses india for #blockchain tech development #bitcoin #crypto #cryptocurrency http://cur.lv/yjltt,0,0,0,False
287,Julia Vaingurt@julia_vaingurt,#Bitcoin reaches a crossroads with the scaling debate not a crisis #crypto #cryptocurrency http://cur.lv/yjlbg,0,0,0,False
288,Okcash @OkcashCrypto,Congratulations @lovugefiwuwe @Transfer_dev @RouletteRun for being top #crypto community members this week :) >> http://bit.ly/_want_this_free,2,2,0,False
289,犬カス@dogeKaitai,"what's voxels!!!!!!!!!!!!

#bitcoin #altcoin",1,0,0,False
290,Julia Vaingurt@julia_vaingurt,Wladimir van der laan: “there is something truly fishy going on” #bitcoin #crypto #cryptocurrency http://cur.lv/yjl14,1,0,0,False
297,Farah K. Miraza@farahkaifa,#cryptocurrency #crypto Japan Holds Potential to Dominate the Bitcoin Landscape http://ow.ly/NXx6500gVTK,1,0,0,False
298,BitcoinBuzz vega9@BitcoinBuzzV9,http://bitcoinbuzz.vega9.com - Hot topics: #bitcoin #crypto #blockchain #cryptocurrency #btc #fintech,0,0,0,False
299,BitcoinAgile@bitcoinagile,Backwards compatibility on the Xbox One now supports multi-disc games #bitcoin #btc #crypto http://theverge.com/2016/5/14/11675540/xbox-one-backwards-compatibility-multi-disc-games…,0,0,0,False
300,Bitcoin City™#฿TC@Bitcoin_City,#btc Backwards compatibility on the Xbox One now supports multi-disc games: Microsoft is ope... http://bit.ly/1saOwvG #bitcoin #cryptoBackwards compatibility on the Xbox One now supports multi-disc gamesMicrosoft is opening up more possibilities for its growing list of Xbox 360 titles that run on the newer Xbox One console. The company has quietly enabled multi-disc games — starting with Deux Ex:...theverge.com,0,0,0,False
301,Bitcoin City™#฿TC@Bitcoin_City,"#btc Smart doorbell owners saw video from other houses thanks to a weird bug: Sometimes the ... http://bit.ly/1saOzaK #bitcoin #cryptoSmart doorbell owners saw video from other houses thanks to a weird bugSometimes the wheels can just come off this whole internet of things... thing. When cameras are talking to the cloud, there's room for them to make mistakes, and these devices are filming pieces of...theverge.com",0,0,0,False
302,Bitcoin City™#฿TC@Bitcoin_City,#btc Is buying a small amount of BTC each week worth it to in the hope the price will rise o... http://bit.ly/1OqzNa7 #bitcoin #crypto,0,0,0,False
303,Bitcoin City™#฿TC@Bitcoin_City,"#btc Looking for a good bitcoin debit card.: So like the title says, looking for a bitcoin d... http://bit.ly/2280vqF #bitcoin #cryptoLooking for a good bitcoin debit card.So like the title says, looking for a bitcoin debit card that's safe to use and won't steal my coins. Any suggestions? Google brings up tons of...reddit.com",0,0,0,False
304,Bitcoin City™#฿TC@Bitcoin_City,"#btc Cryptopay Review, BTC Debit Card: So i've been using Cryptopay to spend my BTC for the ... http://bit.ly/1OqzM5Z #bitcoin #cryptoCryptopay Review, BTC Debit Cardreddit.com",0,0,0,False
305,Bitcoin City™#฿TC@Bitcoin_City,#btc The Best Bitcoin Mining Documentary Ever Seen:       submitted by    /u/silver84  [link... http://bit.ly/2280HGl #bitcoin #cryptoThe Best Bitcoin Mining Documentary Ever SeenPosted in r/Bitcoin by u/silver84 • 17 points and 8 commentsreddit.com,0,0,0,False
306,Bitcoin City™#฿TC@Bitcoin_City,#btc Gatecoin Suffers a $2 Million Crypto-Asset Loss:       submitted by    /u/RedMemes15  [... http://bit.ly/1OqzNa3 #bitcoin #cryptoGatecoin Suffers a $2 Million Crypto-Asset LossPosted in r/Bitcoin by u/RedMemes15 • 23 points and 21 commentsreddit.com,0,0,0,False
307,Crypto Yoyo@cryptoyoyo,"Nigerian Currency Falls After Petrol Price Hike, Bitcoin Offers Solution http://bit.ly/27mpgTT #bitcoin #crypto #news",0,0,0,False
308,ferthee@ariesarcha,"Earn your FREE #CryptoCurrency here >>> http://ift.tt/1RN6Ftm <<<
Get your #Bitcoin EVERY 5 minutes!",0,0,0,False
309,NE Patriots Dynasty@NEPatsDynasty,Quadruple your investment.  #Money #stocks #Gold #crypto 4 in 1 trading system for Partners only. http://ilgamosilcoin.com/home.html,0,0,0,False
310,OpenLedger@openledger,Danish exchange #CCEDK is to relaunch as an enterprise #crypto ecosystem engine @CCEDK_ @bitscanner http://bitscan.com/articles/ccedk-evolves-the-decentralized-conglomerate…,1,2,0,False
311,Santosh Kumar@msantoshkumar,Time to watch your coins on your phone & watch with @hcltech coinwatch #bitcoin #fintech #cryptocurrency #blockchain,10,13,0,False
312,CryptoRSS@CryptoRSS,"Are Attacks Against SWIFT Acts of Cyberwar?: The attacks against the global banking system via SWIFT,... http://bit.ly/1saJUFN #crypto",0,0,0,False
313,Bitcoin Press@BitcoinPressX,Making Blockchain Real Ushers in a New Era http://dlvr.it/LJhXhh #crypto #bitcoin,1,1,0,False
314,CryptoTorNews@CryptoTorNews,Making Blockchain Real Ushers in a New Era http://dlvr.it/LJhXh3 #crypto #bitcoin,0,0,0,False
315,Bitcoin Press@BitcoinPressX,"Nigerian Currency Falls After Petrol Price Hike, Bitcoin Offers Solution http://dlvr.it/LJhXcc #crypto #bitcoin",0,0,0,False
316,CryptoTorNews@CryptoTorNews,"Nigerian Currency Falls After Petrol Price Hike, Bitcoin Offers Solution http://dlvr.it/LJhXcm #crypto #bitcoin",0,0,0,False
317,Bitcoin Press@BitcoinPressX,Silicon Valley Startup Races Ahead Releasing Open Standards 1 Blockchain… http://dlvr.it/LJhXX9 #crypto #bitcoin,0,0,0,False
318,CryptoTorNews@CryptoTorNews,Silicon Valley Startup Races Ahead Releasing Open Standards 1 Blockchain… http://dlvr.it/LJhXXV #crypto #bitcoin,0,0,0,False
320,CryptoFeed@crypto_feed,"Nigerian Currency Falls After Petrol Price Hike, Bi... http://cointelegraph.com/news/nigerian-currency-falls-after-petrol-price-hike-bitcoin-offers-solution… #crypto | https://twibble.io",0,0,0,False
321,CheshireChat@rayrayssi,@MISCconf is starting up!!!! Hell yes! #crypto #infosec @MISCconf_Vols #keynote,1,1,0,False
322,Julia Vaingurt@julia_vaingurt,Korea #exchange talks top-down approach to #blockchain innovation #bitcoin #crypto #cryptocurrency http://cur.lv/yjixh,0,0,0,False
323,tekybot@tekypromo,"Nigerian Currency Falls After Petrol Price Hike, Bitcoin Offers Solution http://ift.tt/1Ot8JBP #tekypromo #TP #NEWS #cryptocurrency",0,0,0,False
324,CryptoCompare@CryptoCompare,DAO reaches 100m USD - the age of the DAO is here #crypto #ethereum #bitcoin #fintech @slockitproject,8,2,1,False
325,BitcoinAgile@bitcoinagile,Green Dot #bitcoin #rimbit #cryptocurrency http://rimbit.com/threads/green-dot.4768…,0,0,0,False
327,Cryptolized™@Cryptolized,"#rimbit #bitcoin Green Dot: 
CyberHippie said:

↑

Your post makes no ... http://bit.ly/1saE6fH #cryptocurrency",0,0,0,False
328,Tim R. Lea@TimothyLea2,$100m reached for #daohub!!!. #bitcoin #cryptocurrency,0,0,0,False
329,Crypto Byte@crypto_byte721,"Best faucet site. Faucets are updated every day!
http://freebitcoin2016.net
#faucet
#cryptocurrency",1,0,0,False
330,Denny McEnroe@McEnroeDenny,Re: How to collect BTC ?? http://cur.lv/yjif5 #bitcoin #crypto,0,0,0,False
331,Denny McEnroe@McEnroeDenny,Re: [ANN][LTCR] Litecred - [QUBIT][8 MB][MINING][HYBRID POW/POS SUBSIDY] RELAUNCHED http://cur.lv/yjif3 #bitcoin #crypto,0,0,0,False
332,Denny McEnroe@McEnroeDenny,Re: Ethereum mining still profitable? http://cur.lv/yjif1 #bitcoin #crypto,1,1,0,False
333,Denny McEnroe@McEnroeDenny,Re: INCREASED PAYOUT(7/13) ۩۞۩ http://secondstrade.com ★signature campaign★upto 0.0006/post http://cur.lv/yjiez #bitcoin #crypto,0,0,0,False
334,notsofast@notsofast,"Replying to @VitalikButerin and @RealCraigWrightshush guys. This is #cryptocurrency not creationism philosophy.
CSW is the Alpha & Omega, the One True Brah",1,0,0,False
335,Denny McEnroe@McEnroeDenny,SELLING CHEAP CIGARETTES!! http://cur.lv/yji83 #bitcoin #crypto,0,0,0,False
336,Denny McEnroe@McEnroeDenny,"PapeWall Now Pays Bitcoin For Views, Social Interactions and Ads http://cur.lv/yji7z #bitcoin #crypto",0,0,0,False
337,Denny McEnroe@McEnroeDenny,Re: Scrypt.CC | Scrypt Cloud Mining http://cur.lv/yji7x #bitcoin #crypto,0,0,0,False
338,Julia Vaingurt@julia_vaingurt,"Russian Ministry of Justice disapproves #bitcoin ban bill second time #cryptocurrency http://cur.lv/yji36
http://cur.lv/yji37

— …",0,0,0,False
339,Bitcoin City™#฿TC@Bitcoin_City,#btc Consensus 2016 : Making Blockchain Real Ushers in a New Era:       submitted by    /u/C... http://bit.ly/1V1bZey #bitcoin #crypto,0,0,0,False
340,Crypto Yoyo@cryptoyoyo,Give Me Leverage or Give Me Zero Fees for Bitcoin and Cryptocurrency Trading http://bit.ly/1TcR7iY #bitcoin #crypto #news,1,1,0,False
341,BitcoinAgile@bitcoinagile,Russian Ministry of Justice disapproves #bitcoin ban bill second time #cryptocurrency http://bitcoinagile.com/6A5F2D/russian-ministry-of-justice-disapproves-bitcoin-ban-bill-second-time_stream…,0,0,0,False
342,Crypto ― logen@cryptologen,"Russian Ministry of Justice disapproves #bitcoin ban bill second time  http://coinfox.info/news/legislation/5480-the-russian-ministry-of-justicedoes-not-give-approval-of-the-draft-bill-of-bitcoin-ban-for-the-second-time…
#cryptocurrency #legislationRussian Ministry of Justice disapproves bitcoin ban bill second timeRussian Ministry of Justice has not approved a draft bill criminalising cryptocurrencies despite the pressure from the Finance Ministry. Yet, the document will be submitted to the government for evalucoinfox.info",0,0,0,False
343,ferthee@ariesarcha,#CryptoCurrency You can join as well and collect your #Bitcoin for FREE >>> http://ift.tt/1TKc1pU,0,0,0,False
344,Alvis Cheng@AlvisMiner,Take 79% off the Complete Product Management bundle: Everything you need to excel in pro... http://sh.st/PpC8t #bitcoin #crypto #IT,0,0,0,False
345,Julia Vaingurt@julia_vaingurt,"Nulled.io Data Dump Contains Information on Stolen Bitcoins – The Merkle http://cur.lv/yjhso
#bitcoin #data #dump #crypto #nulledio",0,0,0,False
346,Farah K. Miraza@farahkaifa,#cryptocurrency #crypto Making Blockchain Real Ushers in a New Era http://ow.ly/9ki3500gPhN,0,0,0,False
347,BITCOIN@Btc_mining,"New Cloud Mining Platform:

>> http://bit.ly/1TyMkHu
#bitcoin #dogecoin #cryptocurrency #mining",1,0,0,False
348,Crypto ― logen@cryptologen,"Bank of Japan Official: Central Banks Need to Watch #Blockchain http://bit.ly/1s6Xdam via @CoinDesk
#Bitcoin #cryptocurrency",1,2,0,False
351,NE Patriots Dynasty@NEPatsDynasty,Great Blog on #crypto #cryptocurrency Click http://juddbagley.io/bitcoin/blockchain/nasdaq-is-joining-the-blockchain-trading-party/… SHARE,1,0,0,False
352, Eliza Cheng @ElizaRyenne,"Get #FREE 1500 #DOGE upon signing up! Mine #cryptocurrency here!
https://cldmine.com/?ref=282670 #bitcoin #doge #litecoin",0,0,0,False
353,MINEUM@mineumproject,Less than 3 hours to get your 10% bonus! #MINEUM #MNM https://mymineum.org #Altcoin #ICO,3,3,0,False
354,Gabor Venczel@ujtrend,"How the Blockchain Can Avoid the Perils of Futurism #cryptocurrency, bitcoin, octacoin, http://webogi.com/XyIKbe",0,0,0,False
355,Crypto ― logen@cryptologen,"World’s Longest-Running Weekly #Bitcoin Meetup Celebrates 200th Meetup http://coint.co/33x4
#cryptocurrency",0,0,0,False
356,ILbotCrypto@LbotCrypto,Time to check on #edoncoin's development! http://ow.ly/WbHMN #btc #altcoin #ltc #dogecoin #bitcoin #edoncoin #ltc,0,0,0,False
357,@goodc0re@bitcoinhackers.org@goodc0re,#Gatecoin Exchange Reports #Ethereum and #Bitcoin Losses After #Hack http://fintechist.com/?p=944 via @Fintechist_com #cryptocurrency #BTC #ETH,1,0,0,False
358,sonsofliberty2016@Thefedendsnow,#Phillipines #Muecoin #askastoreaday #Vegas and #MontaryUnit meet in #18b #DTVL #TheArtsFactoryLV #BTM #crypto #deals,0,0,0,False
359,Julia Vaingurt@julia_vaingurt,"Making Blockchain Real Ushers in a New Era http://cur.lv/yjh3l
#bitcoin #crypto",1,1,0,False
360,Crypto ― logen@cryptologen,"#Bitcoin Price Stabilizes at $450 But Forecast Ahead Unclear http://bit.ly/1Tb3caw via @CoinDesk
#BIP #BTCUSD #exchange #cryptocurrency",0,0,0,False
361,Bitcoin City™#฿TC@Bitcoin_City,"#btc Give Me Leverage or Give Me Zero Fees for Bitcoin and Cryptocurrency Trading: 

The... http://bit.ly/23Q0kiP #bitcoin #crypto",1,0,0,False
362,@goodc0re@bitcoinhackers.org@goodc0re,"#cryptocurrency Exchange @Gatecoin lost 185,000 #ETH & 250 #BTC ($US2M). This represents 15% of total crypto-asset deposits. #hack #Bitcoin",1,1,0,False
363,NE Patriots Dynasty@NEPatsDynasty,#ILGamos and their NEW #ILCoin. 4 in 1 Trading platform. Stock up 35%.  http://INVEST.ilgamos.com/buy?buy_type=1 #Crypto #Nasdaq #ETRADE,0,0,0,False
364,Crypto ― logen@cryptologen,"Digital Currency #Exchange Gatecoin Offline After Loss of Funds http://bit.ly/1TbcXWc via @CoinDesk
#cryptocurrency",1,2,0,False
365,CryptoTorNews@CryptoTorNews,Give Me Leverage or Give Me Zero Fees for Bitcoin and… http://dlvr.it/LJgYJr #bitcoin #bitcoinnews #crypto,0,0,0,False
366,Jesse James@btce4,Give Me Leverage or Give Me Zero Fees for Bitcoin and… http://dlvr.it/LJgYJJ #bitcoin #bitcoinnews #crypto,0,0,0,False
367,Bitcoin Press@BitcoinPressX,Give Me Leverage or Give Me Zero Fees for Bitcoin and… http://dlvr.it/LJgYJx #bitcoin #bitcoinnews #crypto,0,0,0,False
369,Born Pitcoin@PornBitcoin,Give Me Leverage or Give Me Zero Fees for Bitcoin and… http://dlvr.it/LJgYK3 #bitcoin #bitcoinnews #crypto,0,0,0,False
370,CryptoFeed@crypto_feed,Bitcoin Core is Seeking to Overhaul How it Upgrades... http://coindesk.com/bitcoin-core-bip-process-speed-changes/… #crypto | https://twibble.io,0,0,0,False
371,tekybot@tekypromo,Give Me Leverage or Give Me Zero Fees for Bitcoin and Cryptocurrency Trading http://ift.tt/1OqoO0o #tekypromo #TP #NEWS #cryptocurrency,0,0,0,False
372,Julia Vaingurt@julia_vaingurt,"New Blockchain Social Media Platform STEEMIT Pays You To Post and Vote Online! http://cur.lv/yjgp7
#cryptocurrency #altcoin #bitcoin",0,0,0,False
373,BitsharesBreakout@btsBreakout,"New Blockchain Social Media Platform STEEMIT Pays You To Post and Vote Online! http://the-blockchain.com/2016/05/03/new-blockchain-social-media-platform-steemit-pays-post-vote-online/… #cryptocurrency #altcoin #bitcoinNew Blockchain Social Media Platform STEEMIT Pays You To Post and Vote OnlineSteemit, the social media platform where everyone gets paid to post online, has just rolled out it's BETA. Led by CEO Ned Scott, formerly in private equity, andthe-blockchain.com",0,0,0,False
374,Team 300FPS ︻╦̵̵̿╤─@300FPSGAMING,Give Me Leverage or Give Me Zero Fees for Bitcoin and Cryptocurrency http://btcf.co/1R1Qgfe #bitcoin #bitcoinnews #btc #cryptocurrency,0,0,0,False
375,CryptScoutNews@CryptScoutNews,Give Me Leverage or Give Me Zero Fees for #Bitcoin and #Cryptocurrency Trading - http://cryptscout.com/news-portal/?id=1&ref=2196&utm_source=twitter&utm_medium=auto&utm_campaign=news-portal…,0,0,0,False
376,Bitcoin Hourly@bitcoin_hourly,"Price Update: 1 #Bitcoin = $455.3700

#cryptocurrency source http://yhoo.it/1PH2nON (via @Flutter_HQ)",0,0,0,False
377,BitcoinBuzz vega9@BitcoinBuzzV9,http://bitcoinbuzz.vega9.com - Hot topics: #bitcoin #blockchain #crypto #cryptocurrency #btc #ccm,0,0,0,False
378,OpenLedger@OpenLedgerDC,Maybe the sky is the limit! #OpenLedger keeps increasing their 24h volume with its #OPEN assets backed by #crypto,4,5,0,False
379,Gunning for a P45@LeonCGunning,Definitely rapt attention to #blockchain technology @eEstonia from @BlockchainGirl #cryptocurrency,1,0,0,False
380,Bitcoin City™#฿TC@Bitcoin_City,"#btc Making Blockchain Real Ushers in a New Era: Developers, bankers, regulators, investors,... http://bit.ly/24ZkjBI #bitcoin #crypto",0,0,0,False
381,Hossein Shafagh@hossein_shafagh,Nice realization of the idea to map your identity to your public keys via social media channels https://keybase.io #crypto #KeybaseIO,0,0,0,False
382,MellowMoney@MellowMoneyTeam,"Don't waste your time at https://aceofcoin.com  . It's #SCAM!
#faucets #Bitcoin #bitcoinfaucet #cryptocurrency #Satoshi",0,0,0,False
383,Crypto Yoyo@cryptoyoyo,Making Blockchain Real Ushers in a New Era http://bit.ly/1TCPRCb #bitcoin #crypto #news,0,0,0,False
384,Crypto Yoyo@cryptoyoyo,Bitcoin Core is Seeking to Overhaul How it Upgrades its Code http://bit.ly/1V1584z #bitcoin #crypto #news,0,0,0,False
385,Crypto Yoyo@cryptoyoyo,Why Out-of-Hospital Blockchains Matter http://bit.ly/1TCPTcY #bitcoin #crypto #news,0,0,0,False
386,Denny McEnroe@McEnroeDenny,Re: Are you buying bitcoins? Why? http://cur.lv/yjfel #bitcoin #crypto,0,0,0,False
387,Denny McEnroe@McEnroeDenny,Re: COEXIST coin - COXST - POW/POS- The fight to help the less fortunate http://cur.lv/yjfek #bitcoin #crypto,0,0,0,False
388,Denny McEnroe@McEnroeDenny,Re: ◆Rubies◆ [RBIES] Bet-Mining & PoS | Multi-Business backed currency Proof of Use. http://cur.lv/yjfej #bitcoin #crypto,0,0,0,False
389,Denny McEnroe@McEnroeDenny,"Re: [Ann] Krypton KR, Ethereum - Based Cryptocurrency with Smart Contracts http://cur.lv/yjfei #bitcoin #crypto",0,0,0,False
390,Denny McEnroe@McEnroeDenny,"Re: Prediction ligue 1, france football ligue http://cur.lv/yjfef #bitcoin #crypto",0,0,0,False
394,BitcoinAgile@bitcoinagile,Posted in the forum in the past 7 days - You get 1000 RBT #bitcoin #rimbit #cryptocurrency http://rimbit.com/threads/posted-in-the-forum-in-the-past-7-days-you-get-1000-rbt.4767…,1,0,0,False
395,BitcoinAgile@bitcoinagile,Posted in the forum in the past 7 days - You get 1000 RBT #bitcoin #rimbit #cryptocurrency http://rimbit.com/threads/posted-in-the-forum-in-the-past-7-days-you-get-1000-rbt.4767…,1,3,0,False
396,Cryptolized™@Cryptolized,#rimbit #bitcoin Posted in the forum in the past 7 days - You get 1000 RBT: I am starting giv... http://bit.ly/1ZQdICx #cryptocurrency,0,0,0,False
397,Bitcoin City™#฿TC@Bitcoin_City,#btc Financial Innovation Will Always Be Ahead of Modern Regulation:       submitted by    /... http://bit.ly/1WxbjOS #bitcoin #crypto,0,0,0,False
398,Bitcoin City™#฿TC@Bitcoin_City,"#btc How Can I Earn 3 Cents?: Hey, I'm new to this, this mostly a question about faucets and... http://bit.ly/1ZQdGL1 #bitcoin #cryptoHow Can I Earn 3 Cents?reddit.com",1,0,0,False
399,Bitcoin City™#฿TC@Bitcoin_City,#btc Gatecoin Exchange Reports Ethereum and Bitcoin Losses After Hack:       submitted by   ... http://bit.ly/1ZQdvPG #bitcoin #crypto,0,0,0,False
400,tekybot@tekypromo,Making Blockchain Real Ushers in a New Era http://ift.tt/227DW5e #tekypromo #TP #NEWS #cryptocurrency,0,0,0,False
401,tekybot@tekypromo,Bitcoin Core is Seeking to Overhaul How it Upgrades its Code http://ift.tt/1X9Jvz7 #tekypromo #TP #NEWS #cryptocurrency,0,0,0,False
402,MiningField@miningfield,"Titcoin Pool Boosting!
2% income boost for 1 hour!
http://tit.miningfield.com
#tit #titcoin #altcoin #cryptocurrency @OfficialTitcoin #Bitcoin",0,0,0,False
403,Team 300FPS ︻╦̵̵̿╤─@300FPSGAMING,Making Blockchain Real Ushers in a New Era http://btcf.co/1VWH8kg #bitcoin #bitcoinnews #btc #cryptocurrency,1,0,0,False
404,Team 300FPS ︻╦̵̵̿╤─@300FPSGAMING,Bitcoin Core is Seeking to Overhaul How it Upgrades its Code http://btcf.co/227DVhP #bitcoin #bitcoinnews #btc #cryptocurrency,0,0,0,False
405,Julia Vaingurt@julia_vaingurt,Ethereum price technical analysis – book profits risk of more losses #bitcoin #crypto #cryptocurrency http://cur.lv/yjeu6,1,0,0,False
406,Bitcoin City™#฿TC@Bitcoin_City,#btc Bitcoin Core is Seeking to Overhaul How it Upgrades its Code: Bitcoin's main developmen... http://bit.ly/1Wx9WQd #bitcoin #crypto,0,0,0,False
407,Alejandro Sewrjugin@alesew23,#Bitcoin Bitcoin Core is Seeking to Overhaul How it Upgrades its Code http://bit.ly/1Wx9QZ4 #Tech #Crypto,0,0,0,False
408,Sleeping Horse #BRG@Hunting_Bitcoin,Claim your free Doge Coin every one hour just at http://freedoge.co.in/?r=314242 claim up to 900k doge coin #faucet #altcoin,0,0,0,False
409,notsofast@notsofast,The @Poloniex listing pump on $VOX. It's a thing I guess. Where's the $DCR and $START? Those #altcoins have such a better price:value ratio,15,3,0,False
410,VentureFund.io@VentureFundio,RT @alt_bit_coins: Ethcore raises financing round as 1st venture capital #funded ethereum #startup #bitcoin #crypto #cryptocurrency https:/…,3,1,0,False
412,CryptoFeed@crypto_feed,Silicon Valley Startup Races Ahead Releasing Open S... http://cointelegraph.com/news/silicon-valley-startup-races-ahead-releasing-open-standards-1-blockchain-protocol… #crypto | https://twibble.io,0,0,0,False
417,Bitcoin Hourly@bitcoin_hourly,"Price Update: 1 #Bitcoin = $455.3900

#cryptocurrency source http://yhoo.it/1PH2nON (via @Flutter_HQ)",0,0,0,False
418,BitcoinBuzz vega9@BitcoinBuzzV9,http://bitcoinbuzz.vega9.com - Hot topics: #bitcoin #crypto #cryptocurrency #btc #blockchain #ccm,0,0,0,False
419,BitcoinAgile@bitcoinagile,Gatecoin Exchange Reports #ethereum and #bitcoin Losses After Hack #crypto #Breach #BTC http://bitcoinagile.com/6A5C67/gatecoin-exchange-reports-ethereum-and-bitcoin-losses-after-hack_stream…,1,0,0,False
420,AlertCo.in@AlertCoin,"#Bitcoin last trade

@bitfinex $455.78
@btcecom $454.00

Set #crypto #price #alerts at http://AlertCo.in",1,3,0,False
421,AlertCo.in@AlertCoin,"#Bitcoin last trade

@bitstamp $455.40
@coinbase $456.97

Set #crypto #price #alerts at http://AlertCo.in",1,3,0,False
422,Crypto Yoyo@cryptoyoyo,Internet pioneer Nii Quaynor thinks the blockchain can change life in Ghana http://bit.ly/1XqJSGb #bitcoin #crypto #news,2,0,0,False
423,Gabor Venczel@ujtrend,"10 Things You Can Buy for $10 on Bitcoin Market #cryptocurrency, bitcoin, octacoin, http://webogi.com/frXFbs",0,0,0,False
424,BCB ATM@bcb_atm,"Why I’m buying bitcoins - MoneyWeek - http://bit.ly/24xxCsF
#Bitcoin #CryptoCurrency #Finance",0,0,0,False
425,Julia Vaingurt@julia_vaingurt,What will #bitcoin be worth in 5 year / 2020? #crypto #cryptocurrency http://cur.lv/yjd2g,0,0,0,False
426,NE Patriots Dynasty@NEPatsDynasty,Looking for #Crypto #investors #entrepreneur #Investing in the Money of the future and online payment system Join http://GoldNews.ilgamos.com,0,0,0,False
427,Denny McEnroe@McEnroeDenny,"Re: [TX]TRANSFER - BITTREX - MULTIPOOL - ANDROID - POS,TOR,MN, STEALTH http://cur.lv/yjcyi #bitcoin #crypto",1,0,0,False
428,Denny McEnroe@McEnroeDenny,Re: CRYPTO BULLION (CBX) | Powered by PoSP | Est. 2013 http://cur.lv/yjcyh #bitcoin #crypto,0,0,0,False
429,Denny McEnroe@McEnroeDenny,"Re: 2BACCO Coin, Getting Ready For Crowdfunding, Need Mining Pools and Miners http://cur.lv/yjcyf #bitcoin #crypto",0,0,0,False
430,Denny McEnroe@McEnroeDenny,"Re: [ANN] http://CollectSatoshi.com - Earn up to 50,000 Satoshi an hour! - Daily Payouts http://cur.lv/yjcye #bitcoin #crypto",1,0,0,False
431,Julia Vaingurt@julia_vaingurt,"Japan Could Come to Dominate the Bitcoin Landscape http://cur.lv/yjcx1
#reddit #crypto",0,0,0,False
432,Free Bitcoin Expert@FreeBTCExpert,"We just requested a payout from https://collectsatoshi.com/?ref=153676. Stay tuned, we'll update you with payment proof if/when they pay! #crypto #btc",0,0,0,False
434,Julia Vaingurt@julia_vaingurt,#cryptocurrency Japan Could Come to Dominate the Bitcoin Landscape http://cur.lv/yjcrq,1,1,0,False
435,BitcoinAgile@bitcoinagile,Most exciting #bitcoin Exchange Company #Bitcoinexchange #Cryptocurrency #exchange http://bitcoinagile.com/6A5B98/most-exciting-bitcoin-exchange-company_stream…,0,0,0,False
436,SellBitBuy@Sellbitbuy,Most exciting Bitcoin Exchange Company http://bit.ly/1TMKiRl #Bitcoin #Bitcoinexchange #Cryptocurrency #exchange,0,0,0,False
437,CryptoRSS@CryptoRSS,Generating Bitcoin Public and Private Keys: I managed to write the below code which will create publi... http://bit.ly/1ZQ2hLi #crypto,0,0,0,False
438,SellBitBuy@Sellbitbuy,Acceptance For Local Bitcoin Exchange http://bit.ly/1ZQ20rG #localbitcoin #Bitcoin #BTC #Trading #Cryptocurrency,0,0,0,False
439,BitcoinAgile@bitcoinagile,Top Myths About #bitcoin Trading #cryptocurrency #trading #script #exchange #BTC http://bitcoinagile.com/6A5B72/top-myths-about-bitcoin-trading_stream…,1,0,0,False
440,SellBitBuy@Sellbitbuy,Top Myths About Bitcoin Trading http://bit.ly/227rpPk #cryptocurrency #trading #script #bitcoin #exchange #BTC,0,0,0,False
441,Julia Vaingurt@julia_vaingurt,Business intelligence report mentions #bitcoin and #blockchain #crypto #cryptocurrency http://cur.lv/yjcej,0,0,0,False
442,CryptoTorNews@CryptoTorNews,World's Longest-Running Weekly Bitcoin Meetup Celebrates 200th Meetup http://dlvr.it/LJdnVB #crypto #bitcoin,0,0,0,False
443,Bitcoin Press@BitcoinPressX,World's Longest-Running Weekly Bitcoin Meetup Celebrates 200th Meetup http://dlvr.it/LJdn13 #crypto #bitcoin,0,0,0,False
444,CryptoFeed@crypto_feed,Why Out-of-Hospital Blockchains Matter http://coindesk.com/hospital-blockchains-matter/… #crypto | https://twibble.io,0,0,0,False
445,coinOK@coinok,Win $150 in Dogecoins every hour! http://freedoge.co.in/?r=98385 #doge #dogecoin #btc #bitcoin #ltc #altcoin #cryptocurrency,1,0,0,False
446,Team 300FPS ︻╦̵̵̿╤─@300FPSGAMING,Why Out-of-Hospital Blockchains Matter http://btcf.co/1Nu3p6g #bitcoin #bitcoinnews #btc #cryptocurrency,0,0,0,False
447,tekybot@tekypromo,Why Out-of-Hospital Blockchains Matter http://ift.tt/27m2nji #tekypromo #TP #NEWS #cryptocurrency,0,0,0,False
448,Bitcoin Hourly@bitcoin_hourly,"Price Update: 1 #Bitcoin = $455.2200

#cryptocurrency source http://yhoo.it/1PH2nON (via @Flutter_HQ)",0,0,0,False
449,BitcoinBuzz vega9@BitcoinBuzzV9,http://bitcoinbuzz.vega9.com - Hot topics: #bitcoin #crypto #cryptocurrency #blockchain #btc #cloudmining,0,0,0,False
456,PPT Search@PPT_Search,partha crypto PPT Slides - http://ppthunter.com/partha-crypto.htm… #powerpoint #slide #partha #crypto,0,0,0,False
457,Bitcoin City™#฿TC@Bitcoin_City,#btc Why Out-of-Hospital Blockchains Matter: This opinion piece explores possible blockchain... http://bit.ly/24Z3Xci #bitcoin #crypto,0,0,0,False
458,Alejandro Sewrjugin@alesew23,#Bitcoin Why Out-of-Hospital Blockchains Matter http://bit.ly/1sa7WRk #Tech #Crypto,0,0,0,False
459,Crypto Yoyo@cryptoyoyo,World's Longest-Running Weekly Bitcoin Meetup Celebrates 200th Meetup http://bit.ly/1XqFZAW #bitcoin #crypto #news,0,0,0,False
460,Crypto Yoyo@cryptoyoyo,Cerber Bitcoin Ransomware Creators Use Dridex Spam Provider http://bit.ly/1Tg59zj #bitcoin #crypto #news,0,0,0,False
461,Crypto Yoyo@cryptoyoyo,Here's why 21 is the most exciting bitcoin company http://bit.ly/1XqG0F5 #bitcoin #crypto #news,0,0,0,False
462,Cossack Labs@cossacklabs,Cryptolockers are always very user-friendly - talk by @Alex_Ad #security #crypto #BSidesKyiv,1,0,0,False
463,Jo @ events@JoAtEvents,#altcoin #altfin More recently: Fair Coop. Scaling up co-operatives to a global scale? FairCoin. https://fair.coop/faircoin-the-cryptocurrency-of-the-catalan-robin-hood-who-expropriated-from-the-banks-to-give-to-the-poor/… …,0,0,0,False
464,Sachin Gaur@_SachinGaur,""" #Blockchain is the new organizing paradigm for the discovery, valuation, and transfer of all quanta of anything"" #cryptocurrency",1,0,0,False
465,Bitcoin City™#฿TC@Bitcoin_City,#btc World’s Longest-Running Weekly Bitcoin Meetup Celebrates 200th Meetup:       submitted ... http://bit.ly/1WwZ4C0 #bitcoin #crypto,0,0,0,False
466,Fintech Prowler@FintechProwler,"An Ethereum, Mist Wallet user, complains that the platform has been breached - The Merkle http://ift.tt/1TcKaLt #altcoin",1,0,0,False
467,Denny McEnroe@McEnroeDenny,Re: best Dice game website http://cur.lv/yjapi #bitcoin #crypto,0,0,0,False
468,Denny McEnroe@McEnroeDenny,Re: Is it good to hold my Bitcoins for 1 year http://cur.lv/yjapf #bitcoin #crypto,0,0,0,False
469,Denny McEnroe@McEnroeDenny,Re: Spanish League Prediction Thread (La Liga) http://cur.lv/yjapc #bitcoin #crypto,1,1,0,False
470,Denny McEnroe@McEnroeDenny,Re: [ANN][LISK] Lisk | ICO | Decentralized Application & Sidechain Platform http://cur.lv/yjapb #bitcoin #crypto,0,0,0,False
471,Denny McEnroe@McEnroeDenny,Re: [RaiBlocks] RaiBlocks trading thread http://cur.lv/yjap8 #bitcoin #crypto,0,0,0,False
472,CryptoFeed@crypto_feed,The World’s Fastest Cryptocurrency Cred... https://cryptocoinsnews.com/worlds-fastest-cryptocurrency-creditbit-offer-ten-times-faster-transactions-bitcoin/… #crypto #investment | https://twibble.io,0,0,0,False
473,NE Patriots Dynasty@NEPatsDynasty,10 new Bank of America #Cryptocurrency Patents. The Future of #Money and Payment. JOIN FREE Click here http://buygold.ilgamos.com/buy?buy_type=1,1,1,0,False
474,CryptoFeed@crypto_feed,World's Longest-Running Weekly Bitcoin Meetup Celeb... http://cointelegraph.com/news/worlds-longest-running-weekly-bitcoin-meetup-celebrates-200th-meetup… #crypto | https://twibble.io,0,0,0,False
475,BitcoinAgile@bitcoinagile,Japan Could Come to Dominate the #bitcoin Landscape - Bitcoin News #Crypto #bitFlyer http://bitcoinagile.com/6A59FC/japan-could-come-to-dominate-the-bitcoin-landscape-bitcoin-news_stream…,1,2,0,False
480,CryptoCoinsMarket@ccoinmarket,Japan Could Come to Dominate the Bitcoin Landscape http://ift.tt/1V0Q6Mi http://ift.tt/1ZPTWqJ #crypto #bitcoin,2,0,0,False
481,tekybot@tekypromo,World&aposs Longest-Running Weekly Bitcoin Meetup Celebrates 200th Meetup http://ift.tt/1s9ZbH2 #tekypromo #TP #NEWS #cryptocurrency,0,0,0,False
482,Bitcoin Hourly@bitcoin_hourly,"Price Update: 1 #Bitcoin = $455.6300

#cryptocurrency source http://yhoo.it/1PH2nON (via @Flutter_HQ)",0,0,0,False
483,BitcoinBuzz vega9@BitcoinBuzzV9,http://bitcoinbuzz.vega9.com - Hot topics: #bitcoin #blockchain #cryptocurrency #crypto #btc #cloudmining,1,0,0,False
484,Julia Vaingurt@julia_vaingurt,Japanese company raising #funds abuses tech bureau corp credentials #bitcoin #crypto #cryptocurrency http://cur.lv/yj9z2,0,0,0,False
485,International CCC@Int_CCC,Today's Crypto Chronicle! News about #bitcoin #cryptocurrency and more! http://paper.li/Int_CCC/1409392381?edition_id=a6efdb00-19b9-11e6-89fe-002590a5ba2d…,0,0,0,False
486,Karin Horak@karinhorak,How Blockchains Could Change The World. #OneCoin #CryptoCurrency #Learn #Invest #Trade http://onecoinqueen.blogspot.com/2016/05/interview-how-blockchains-could-change.html…,1,0,0,False
487,Crypto Yoyo@cryptoyoyo,Bitcoin Core IRC Chat Shows Signs of Censorship http://bit.ly/1X9s2Hl #bitcoin #crypto #news,0,0,0,False
488,Adv (Dr.) Prashant Mali@AdvPrashantMali,Anatomy is #crypto #ransomware Attack #cybersecurity #cybercrime,3,5,0,False
489,Bitcoin Garden (Not Giving Away ETH)@BitcoinGarden,C-Cex | May Coin Delisting Session | Call for Support! 49 Coins at Risk http://bitcoingarden.tk/forum/index.php?topic=2681.msg113253#msg113253… tnx @CryptoCurrEncyX | #Crypto #Trading,1,2,0,False
490,MiningField@miningfield,"DGC (sha256) Pool Boosting!
2% income boost for 1 hour!
http://dgcsha256.miningfield.com
#dgc #digitalcoin #altcoin @DigitalcoinDGC #cryptocurrency",0,0,0,False
491,Julia Vaingurt@julia_vaingurt,Andreas antonopoulos talks #bitcoin’s hybrid proof-of-stake and design challenges #crypto #cryptocurrency http://cur.lv/yj9bp,0,0,0,False
492,Craig Swalby@cswalby,"https://bitcointalk.org/index.php?topic=527500.msg14829230#msg14829230… #Cryptsy update, #ElephantCoin & other #altcoins speculation - $UNO #bitcoin talk forum",1,1,0,False
493,Julia Vaingurt@julia_vaingurt,#Bitcoin price watch; breakout and intrarange on monday #crypto #cryptocurrency http://cur.lv/yj9a9,0,0,0,False
494,Fintech Prowler@FintechProwler,11FS is trying to raise $50 million to create a blockchain fund - The Merkle http://ift.tt/1Oq3Lv2 #altcoin,0,0,0,False
495,Null TX@nulltxnews,http://ift.tt/227aeNJ Bitcoin Core IRC Chat Shows Signs of Censorship #bitcoin #bitcoinnews #cryptocurrency,7,3,0,False
500,Julia Vaingurt@julia_vaingurt,cryptomic cryptocurrency exchange has full liquidity reporting #transparancy #bitcoin #altcoin #trading http://cur.lv/yj958,0,0,0,False
501,Denny McEnroe@McEnroeDenny,Re: best Dice game website http://cur.lv/yj90h #bitcoin #crypto,0,0,0,False
502,Denny McEnroe@McEnroeDenny,Re: NBA Playoffs Series Betting http://cur.lv/yj90d #bitcoin #crypto,0,0,0,False
503,Denny McEnroe@McEnroeDenny,Re: How can I benefit from btc? http://cur.lv/yj90b #bitcoin #crypto,0,0,0,False
504,Julia Vaingurt@julia_vaingurt,#Bitcoin deep web #marketplace #silkroad 30 is back #crypto #cryptocurrency http://cur.lv/yj8w4,1,0,0,False
505,Bitcoin Hourly@bitcoin_hourly,"Price Update: 1 #Bitcoin = $455.5900

#cryptocurrency source http://yhoo.it/1PH2nON (via @Flutter_HQ)",0,0,0,False
506,BitcoinBuzz vega9@BitcoinBuzzV9,http://bitcoinbuzz.vega9.com - Hot topics: #bitcoin #crypto #cryptocurrency #blockchain #btc #fintech,1,0,0,False
507,Bitcoin@bitcoinpoet,"Gatecoin Exchange is Investigating a Possible Hack: Gatecoin, the regulated cryptocurrency ex... http://btcs.me/1ZPLM1E #cryptocurrency",1,2,0,False
508,Majella de Jong@JellaBoem,Russian Finance Ministry Pushes Draconian Digital Currency Bill #cryptocurrency #Russia http://themerkle.com/russian-fiance-ministry-pushes-draconian-digital-currency-draft-bill/…,0,0,0,False
509,Smileycoin news@SmileycoinNews,Replying to @mark_mcguire$SMLY is a #cryptocurrency for rewarding students in the free #tutorweb system running on tablets donated by  @EducationCase,1,1,0,False
510,Crypto Yoyo@cryptoyoyo,Sell bitcoins using Ebay Gift Card Code with US Dollar (USD) http://bit.ly/1TcCY1Y #bitcoin #crypto #news,0,0,0,False
511,Crypto Yoyo@cryptoyoyo,Man Convicted In Romney Tax Return Fraud & Extortion Scheme http://bit.ly/1WwQenJ #bitcoin #crypto #news,0,0,0,False
512,Crypto Yoyo@cryptoyoyo,Bitcoin set for great leap forward http://bit.ly/1TcCXLz #bitcoin #crypto #news,1,0,0,False
513,Blitzcash@bitalize,Earn $blitz @Fitalizee using your #Fitbit device instantly #walking #bitcoin #fintech #cryptocurrency #trueadoption,12,7,1,False
514,BitcoinAgile@bitcoinagile,Vote....have you shared Rimbit on social media #bitcoin #rimbit #cryptocurrency http://rimbit.com/threads/vote-have-you-shared-rimbit-on-social-media.4766…,1,3,0,False
515,Julia Vaingurt@julia_vaingurt,"#rimbit #bitcoin Vote....have you shared Rimbit on social media: ...or other places?
See also... http://cur.lv/yj7tr
#cryptocurrency",1,1,0,False
516,Cryptolized™@Cryptolized,"#rimbit #bitcoin Vote....have you shared Rimbit on social media: ...or other places?
See also... http://bit.ly/2272mvO #cryptocurrency",0,0,0,False
517,Fintech news@currencies111,"Digital Currency Exchange Gatecoin Offline After Loss of Funds @coindesk http://bit.ly/1OsRKzv
#cryptocurrency #gatecoin #Bitcoin",1,0,0,False
518,Bitcoin City™#฿TC@Bitcoin_City,#btc Bitcoin mentioned on Blacklist:       submitted by    /u/trymad  [link]   [comments]  http://bit.ly/1s9KHXM #bitcoin #cryptoBitcoin mentioned on BlacklistPosted in r/Bitcoin by u/trymad • 8 points and 6 commentsreddit.com,0,0,0,False
519,Bitcoin City™#฿TC@Bitcoin_City,#btc Japanese Company Raising Funds Abuses Tech Bureau Corp. Credentials:       submitted by... http://bit.ly/24YJNiA #bitcoin #cryptoJapanese Company Raising Funds Abuses Tech Bureau Corp. CredentialsPosted in r/Bitcoin by u/fearofhellz • 0 points and 0 commentsreddit.com,0,0,0,False
524,Bitcoin City™#฿TC@Bitcoin_City,"#btc Bovada Official (online casino games, sportsbook & poker room): ""It's now possible to f... http://bit.ly/24YJIeI #bitcoin #cryptoBovada Official (online casino games, sportsbook & poker room):...Posted in r/Bitcoin by u/eragmus • 48 points and 10 commentsreddit.com",0,0,0,False
525,Denny McEnroe@McEnroeDenny,Re: How to teach someone about Bitcoin http://cur.lv/yj7nh #bitcoin #crypto,0,0,0,False
526,Denny McEnroe@McEnroeDenny,Re: Do you have 100+ BTC ? - How do you plan to cashout ? http://cur.lv/yj7nf #bitcoin #crypto,0,0,0,False
527,Denny McEnroe@McEnroeDenny,Re: DUST LOTTERY ★★★ 5/25 Game Promo ★★★ Next 5 JP Winners get a 40 BTC Free Ride http://cur.lv/yj7ne #bitcoin #crypto,0,0,0,False
528,Denny McEnroe@McEnroeDenny,"Re: If you were rich, would you still gamble? http://cur.lv/yj7nd #bitcoin #crypto",0,0,0,False
529,Denny McEnroe@McEnroeDenny,Re: ★★★ GameCredits - The future of in-game monetization ★★★ http://cur.lv/yj7nb #bitcoin #crypto,0,0,0,False
530,Denny McEnroe@McEnroeDenny,Re: need 3$ loans 10% interest http://cur.lv/yj7l8 #bitcoin #crypto,0,0,0,False
531,Denny McEnroe@McEnroeDenny,Re: Explore a Huge Bitcoin Mine in 360 Video http://cur.lv/yj7l7 #bitcoin #crypto,1,1,0,False
532,Denny McEnroe@McEnroeDenny,Re: [ANN] VOXELS (VOX) | The Official Coin of Virtual Reality and Voxelus Platform http://cur.lv/yj7l5 #bitcoin #crypto,0,0,0,False
533,Denny McEnroe@McEnroeDenny,Re: WTB potential member account http://cur.lv/yj7l4 #bitcoin #crypto,0,0,0,False
534,Bogdan STRB@BogdanSTRB,Coinigy! Looking for professional #Bitcoin and #cryptocurrency #trading tools? #daytrading http://bit.ly/25JMlPl,1,0,0,False
535,Amanda Russell@overloadbuzz,VIP Offer Contest Winners Announcement http://adzcoindesk.com/vip-offer-contest-winners-announcement/… via @StartPeeps #adzcoin #crypto,0,0,0,False
536,OpenFXMarket@OpenFXMarket,#altcoin market index (avg): #OFXAVG 155.78 #SHA 58.44 #SCRYPT 96.84 #QUARK 87.72 #X 15.41 #HYBRID 23.15 Stay tuned! #OFX,0,0,0,False
537,NE Patriots Dynasty@NEPatsDynasty,JOIN FREE now. #MONEY #Bitcoin The Next NEW #Crypto #Currency. It is called #ILCoin  JOIN Click here http://buygold.ilgamos.com/buy?buy_type=1,0,0,0,False
538,Bitcoin Hourly@bitcoin_hourly,"Price Update: 1 #Bitcoin = $455.7100

#cryptocurrency source http://yhoo.it/1PH2nON (via @Flutter_HQ)",0,0,0,False
539,BitcoinBuzz vega9@BitcoinBuzzV9,http://bitcoinbuzz.vega9.com - Hot topics: #bitcoin #crypto #cryptocurrency #blockchain #btc #bitlive,0,0,0,False
540,Bitcoinist.com@bitcoinist,Japanese Company Raising Funds Abuses Tech Bureau Corp. Credentials http://ift.tt/24YDZ8Q #bitcoin #blockchain #btc #cryptocurrency #alt…,0,0,0,False
541,Bitcoin City™#฿TC@Bitcoin_City,"#btc Japanese Company Raising Funds Abuses Tech Bureau Corp. Credentials: 

Success in t... http://bit.ly/1WwM9Aa #bitcoin #crypto",0,0,0,False
542,AlertCo.in@AlertCoin,"#Bitcoin last trade

@bitstamp $455.69
@coinbase $457.31

Set #crypto #price #alerts at http://AlertCo.in",3,0,0,False
543,AlertCo.in@AlertCoin,"#Bitcoin last trade

@bitfinex $455.38
@btcecom $454.33

Set #crypto #price #alerts at http://AlertCo.in",3,0,0,False
544,Bitcoin@webitcoins,#bitcoinnews #Crypto Tax Software Provider Alavara Embraces Bitcoin And Blockchain Technology …,1,1,0,False
545,Born Pitcoin@PornBitcoin,Japanese Company Raising Funds Abuses Tech Bureau Corp.… http://dlvr.it/LJZgZR #bitcoin #bitcoinnews #crypto,0,0,0,False
546,Jesse James@btce4,Japanese Company Raising Funds Abuses Tech Bureau Corp.… http://dlvr.it/LJZfcf #bitcoin #bitcoinnews #crypto,0,0,0,False
547,CryptoTorNews@CryptoTorNews,Japanese Company Raising Funds Abuses Tech Bureau Corp.… http://dlvr.it/LJZfdC #bitcoin #bitcoinnews #crypto,0,0,0,False
548,Bitcoin Press@BitcoinPressX,Japanese Company Raising Funds Abuses Tech Bureau Corp.… http://dlvr.it/LJZfcx #bitcoin #bitcoinnews #crypto,7,0,0,False
549,Zero Cost Marketing@ZeroCostProfit,Looking for the best #Cloudmining Service? Here is the Answer : http://bit.ly/Cloudmonitor #cryptocurrency,1,3,0,False
550,tekybot@tekypromo,Japanese Company Raising Funds Abuses Tech Bureau Corp. Credentials http://ift.tt/1sm7HDv #tekypromo #TP #NEWS #cryptocurrency,0,0,0,False
551,Team 300FPS ︻╦̵̵̿╤─@300FPSGAMING,Japanese Company Raising Funds Abuses Tech Bureau Corp. Credentials http://btcf.co/1TCHWo8 #bitcoin #bitcoinnews #btc #cryptocurrency,0,0,0,False
552,Macca Tweeter@MaccaTweeter,It looks like I have received another #incentive #reward $XVC #RPi #Incentivized #Node #Cryptocurrency #vcash,0,0,0,False
553,NE Patriots Dynasty@NEPatsDynasty,Time to #invest #Stocks #Money #Gold #Crypto go to http://GoldNews.ilgamos.com Send money to ALL Partners instantly with no Fees.,0,0,0,False
554,Crypto Yoyo@cryptoyoyo,Unocoin and MobiKwik partner to boost Bitcoin adoption across India with over 75000 merchants http://bit.ly/1X9eyuX #bitcoin #crypto #ne…,0,0,0,False
555,Crypto Yoyo@cryptoyoyo,Bitcoin Price Stabilizes at $450 But Forecast Ahead Unclear http://bit.ly/23Pq673 #bitcoin #crypto #news,0,0,0,False
556,Crypto Yoyo@cryptoyoyo,Cash by mail http://bit.ly/1X9eyuW #bitcoin #crypto #news,0,0,0,False
557,Crypto Yoyo@cryptoyoyo,Sell bitcoins using Postal order with US Dollar (USD) http://bit.ly/23PqbaO #bitcoin #crypto #news,0,0,0,False
558,Crypto Yoyo@cryptoyoyo,Sell bitcoins http://bit.ly/1X9eyeC #bitcoin #crypto #news,0,0,0,False
559,Null TX@nulltxnews,http://ift.tt/1s9ALgR Gavin Wood Steps Down As Curator for The DAO #bitcoin #bitcoinnews #cryptocurrency,5,0,0,False
560,CNXL.STUDIO@CNXLstudio,"pay in bitcoin for your online mixing and mastering service http://online-mixing.com
#btc #bitcoin #crypto #music #musicstudio #onlinemixing",2,0,0,False
561,CryptoFeed@crypto_feed,Bitcoin Price Range-Bound https://cryptocoinsnews.com/bitcoin-price-remains-range-bound/… #crypto #investment | https://twibble.io,0,0,0,False
562,Bitcoin City™#฿TC@Bitcoin_City,"#btc 7 charts that explain Bitcoin's long game based on limits of silicon, inflation schedul... http://bit.ly/1WwJdDB #bitcoin #crypto7 charts that explain Bitcoin's long game based on limits of...Posted in r/Bitcoin by u/llortoftrolls • 13 points and 13 commentsreddit.com",0,0,0,False
563,PinkMona@pinkmona_org,#bitcoin #altcoin #dogecoin Let's Hentai! Come on PinkMona!→http://pinkmona.org,0,0,0,False
564,Denny McEnroe@McEnroeDenny,Re: [WTS] 9.95$ BTC for  PayPal http://cur.lv/yj5pf #bitcoin #crypto,0,0,0,False
569,Denny McEnroe@McEnroeDenny,Re: --  [ANN] New Coin Launch - SHIT coin - SHT -- http://cur.lv/yj5pe #bitcoin #crypto,0,0,0,False
570,Denny McEnroe@McEnroeDenny,"Re: If bitcoin price is $10.000, will fiat be worthless? http://cur.lv/yj5pc #bitcoin #crypto",0,0,0,False
571,Denny McEnroe@McEnroeDenny,Re: [PRE-ANN] WAVES. Ultimate crypto-tokens blockchain platform. http://cur.lv/yj5pb #bitcoin #crypto,0,0,0,False
572,CryptoRSS@CryptoRSS,Popular Bitcoin Casino FortuneJack launches New Bonus Offers: FortuneJack is one of the most popular ... http://bit.ly/1ZPxJcq #crypto,0,0,0,False
573,Bitcoin Hourly@bitcoin_hourly,"Price Update: 1 #Bitcoin = $455.0300

#cryptocurrency source http://yhoo.it/1PH2nON (via @Flutter_HQ)",0,0,0,False
574,AdzCoin Newsstories@GetFreeAdz,Comphare the Best #Cloudmining Services to mine Btc or #Altcoins : http://bit.ly/Cloudmonitor (#Rt & #Follow Pls),2,0,0,False
575,Coinfeed@CoinfeedIO,Enforcement Trends in #Cryptocurrency Today http://tinyurl.com/hdooymx,1,0,0,False
576,Gabor Venczel@ujtrend,"Building a Better Bitcoin Fee Market #cryptocurrency, bitcoin, octacoin, http://webogi.com/eKQTpaGIF",0,0,0,False
577,BITCOIN@Btc_mining,"New Cloud Mining Platform:

>> http://bit.ly/1TyMkHu
#bitcoin #dogecoin #cryptocurrency #mining",0,0,0,False
579,Bitcoin Hourly@bitcoin_hourly,"Price Update: 1 #Bitcoin = $455.0600

#cryptocurrency source http://yhoo.it/1PH2nON (via @Flutter_HQ)",0,0,0,False
580,BitcoinBuzz vega9@BitcoinBuzzV9,http://bitcoinbuzz.vega9.com - Hot topics: #bitcoin #cryptocurrency #crypto #blockchain #btc #bitlive,0,0,0,False
581,SmileyGnome BTC @SmileyGnome,@NexusNiro bringing #time to #money and empowering the #individual. #Altcoin #crypto #Bitcoin #fintech #tech,5,4,0,False
582,Bitcoin@webitcoins,#bitcoinnews #Crypto Report: Blockchain Firm R3 Seeks $200 Million from Big Bank Backers https://cryptocoinsnews.com/report-blockchain-r3-seeks-200-million-backers/… …,1,0,0,False
584,BitScan@bitscanner,Danish exchange @CCEDK_  is to relaunch as an enterprise #crypto ecosystem engine http://ow.ly/w4nZ300bEGT #bitcoin,1,1,0,False
585,LoveplusBitcoin@loveplusbitcoin,"RT @Open_Bits ""Great news! #CCEDK evolves: the #Decentralized #Conglomerate @CCEDK_ @bitscanner #cryptocurrency
 …"" http://ow.ly/WEio300bELe",2,1,0,False
586,Alvis Cheng@AlvisMiner,"10 data security mistakes to avoid as a startup: Startups move fast, and aren’t always t... http://sh.st/Poskh #bitcoin #crypto #IT",0,0,0,False
587,Alvis Cheng@AlvisMiner,"10 data security mistakes to avoid as a startup: Startups move fast, and aren’t always t... http://sh.st/Poskx #bitcoin #crypto #IT",0,0,0,False
588,Chief Trader@CryptoChief1111,#TheDAO just penetrated $90!! #Ethereum #cryptocurrency #altcoin #blockchain,1,2,1,False
589,Cryptocoin Radar@cryptocoinradar,"vox/btc: +24% value, +23% volume (http://cryptocoinradar.com monitored #trading #altcoin #cryptocoin)",0,0,0,False
590,ericosx@ericosx,Video: Explore 360° of a Secret Chinese Bitcoin Mine https://cryptocoinsnews.com/video-explore-360-secret-chinese-bitcoin-mine/… (via @CryptoCoinsNews) #cryptocurrency,2,0,0,False
591,Denny McEnroe@McEnroeDenny,Re: bitcoin continuous rising? http://cur.lv/yj2tg #bitcoin #crypto,0,0,0,False
592,Denny McEnroe@McEnroeDenny,Re: Black Satanist Running for Senate in California http://cur.lv/yj2te #bitcoin #crypto,0,0,0,False
593,Denny McEnroe@McEnroeDenny,Re: $20 Steam account credit for only $2! BiPolarDeal! http://cur.lv/yj2td #bitcoin #crypto,0,0,0,False
594,Denny McEnroe@McEnroeDenny,Re: Need a loan of  0.15 asap http://cur.lv/yj2tc #bitcoin #crypto,0,0,0,False
595,Bitcoin Hourly@bitcoin_hourly,"Price Update: 1 #Bitcoin = $454.9800

#cryptocurrency source http://yhoo.it/1PH2nON (via @Flutter_HQ)",0,0,0,False
596,BitcoinBuzz vega9@BitcoinBuzzV9,http://bitcoinbuzz.vega9.com - Hot topics: #bitnews #bitcoin #cryptocurrency #crypto #blockchain #btc,0,0,0,False
597,Bitcoin@webitcoins,#bitcoinnews #Crypto Video: Explore 360° of a Secret Chinese Bitcoin Mine https://cryptocoinsnews.com/video-explore-360-secret-chinese-bitcoin-mine/… #cryptocurrency,1,1,0,False
598,Julia Vaingurt@julia_vaingurt,Australia nearing decision on #bitcoin #exchange regulation #crypto #cryptocurrency http://cur.lv/yj2il,1,0,0,False
599,CCN - Capital & Celeb News@CapitalAndCeleb,Video: Explore 360° of a Secret Chinese Bitcoin Mine https://cryptocoinsnews.com/video-explore-360-secret-chinese-bitcoin-mine/… #cryptocurrency,6,12,0,False
600,Bitcoin City™#฿TC@Bitcoin_City,#btc Why Britain is beating the U.S. at financial innovation:  Legislation allowing ordinary... http://bit.ly/23Palgm #bitcoin #cryptoWhy Britain is beating the U.S. at financial innovationLegislation allowing ordinary American investors to invest in the shares of startups and small businesses was first introduced in the U.S. Congress in 2011. Despite bipartisan support and the...techcrunch.com,0,0,0,False
601,Bitcoin City™#฿TC@Bitcoin_City,#btc Trends in angel investing:  “Tell me about your cap table?” I asked the founder of an e... http://bit.ly/1ZP3xy1 #bitcoin #crypto,0,0,0,False
602,Bitcoin@webitcoins,#bitcoinnews #Crypto US Military Seeks Its Own Secure Blockchain Messaging System https://cryptocoinsnews.com/darpa-blockchain-messaging-system/… #Bitcoin,2,0,0,False
603,Cryptocrawl@branziggracerx,#Cryptocrawl apologizes for others Lack of Integrity; ensures #Cryptocurrency demise #TX #Transfercoin #MonetaryUnit,2,2,1,False
605,Julia Vaingurt@julia_vaingurt,Web summit to host two-day fintech event in #madrid #bitcoin #crypto #cryptocurrency http://cur.lv/yj25r,1,0,0,False
606,NE Patriots Dynasty@NEPatsDynasty,Gold & #Crypto-Currency in one clever system. Join the Digital Currency Revolution and turn your #PROFITS into GOLD http://dld.bz/dARdH,0,0,0,False
607,Julia Vaingurt@julia_vaingurt,"#Bitcoin price stabilizes at $450 but forecast ahead unclear #crypto #cryptocurrency http://cur.lv/yj1m5

— Bitcoinz (BitcoinzMan) May…",0,0,0,False
608,CryptoFeed@crypto_feed,Scientific Research Needs a Trustless B... https://cryptocoinsnews.com/scientific-research-needs-a-trustless-blockchain-architecture-to-be-trusted/… #crypto #investment | https://twibble.io,0,0,0,False
611,Satoshi Nakamoto@BlockchainEra,"Looking to bet on LOL, CS:GO with #bitcoin & #altcoin ? Checkout http://goo.gl/JsXK1z
@Gamer_RTweets @GamerRTer",1,0,0,False
612,Harbert College of Business@AUHarbertBiz,A Harbert College student has co-founded a #CryptoCurrency business. Read more: http://rgn.bz/0C7E #Bitcoin,1,1,0,False
613,MINEUM@mineumproject,12h left to benefits of the 10% bonus for #MINEUM #ICO! Don’t miss it! #MNM #Altcoin #BeQuick,3,5,0,False
614,Bitcoin Hourly@bitcoin_hourly,"Price Update: 1 #Bitcoin = $456.4900

#cryptocurrency source http://yhoo.it/1PH2nON (via @Flutter_HQ)",0,0,0,False
615,XBTFreelancer.com@XBTFreelancer,http://xbtfreelancer.com/prj/1401/looking-for-ipb-coder… #btc #crypto #bitcoin #cash #programming Looking for IPB Coder ฿0.329,0,0,0,False
