,user,text,likes,retweets,replies,is_thread
0,AlertCo.in@AlertCoin,"#Bitcoin last trade

@bitfinex $446.60
@btcecom $446.66

Set #crypto #price #alerts at http://AlertCo.in",2,2,0,False
1,AlertCo.in@AlertCoin,"#Bitcoin last trade

@bitstamp $448.84
@coinbase $454.43

Set #crypto #price #alerts at http://AlertCo.in",2,2,0,False
2,BitcoinAgile@bitcoinagile,10 Newsmakers Who Shaped Security In the Past Decade #Security #Hackers #Crypto #DataBreach http://darkreading.com/attacks-breaches/10-newsmakers-who-shaped-security-in-the-past-decade/d/d-id/1325301…,1,0,0,False
3,THiNKTaNK@B2Spirit_TT,#Security Industry Legends▼http://darkreading.com/attacks-breaches/10-newsmakers-who-shaped-security-in-the-past-decade/d/d-id/1325301… #Hackers #Crypto #TradeSecret #DataBreach #Cybercrime #InfoSec #BugBounty #Malware #Data,1,0,0,False
4,Julia Vaingurt@julia_vaingurt,Openledger strikes #gold: digixdao asset #trading now supported #bitcoin #crypto #cryptocurrency http://cur.lv/y29iy,1,0,0,False
5,Denny McEnroe@McEnroeDenny,Re: [ANN] Orbitcoin v1.5.0.0 ~ NeoScrypt ~ Green Stake http://cur.lv/y29hj #bitcoin #crypto,0,0,0,False
6,Denny McEnroe@McEnroeDenny,Re: [ANN]  [LC]  Lutetium Coin  POS/Premined share Pool  energy free cloudmining http://cur.lv/y29hi #bitcoin #crypto,0,0,0,False
7,Denny McEnroe@McEnroeDenny,Re: [ANN] NEWBIUM - Crowdsale begins May 1st http://cur.lv/y29hg #bitcoin #crypto,0,0,0,False
8,Denny McEnroe@McEnroeDenny,Re: [DISKUSI] Wallet Bitcoin http://cur.lv/y29hf #bitcoin #crypto,0,0,0,False
9,Denny McEnroe@McEnroeDenny,Re: This is why you enable 2FA. http://cur.lv/y29he #bitcoin #crypto,0,0,0,False
10,Crypto Yoyo@cryptoyoyo,First Bitcoin ATM arrives in Akron as virtual currency challenges the real thing http://bit.ly/1rIIYJi #bitcoin #crypto #news,0,0,0,False
11,JC@Cryptoelite,Crypto Elite News is out! http://paper.li/Cryptoelite/1426551318?edition_id=d03db6c0-0f29-11e6-8df6-0cc47a0d1605… #Bitcoin #Altcoin #Cryptocurrency @coinigy,2,2,0,False
12,tekybot@tekypromo,Blockchain Platform Emercoin is Moving Beyond Cryptocurrencies http://ift.tt/1O4spvL #tekypromo #TP #NEWS #cryptocurrency,0,0,0,False
13,Bitcoin City™#฿TC@Bitcoin_City,"#btc Blockchain Platform Emercoin is Moving Beyond Cryptocurrencies: 

Though cryptocurr... http://bit.ly/1YYFqwp #bitcoin #crypto",0,0,0,False
14,Crypto@PurePoS, http://cubeminers.com  SHA: 7.31 TH   Scrypt: 95.42 MH   x11: 21.17 MH   #DigiCube #bitcoin #altcoin,0,0,0,False
28,Bitcoin Hourly@bitcoin_hourly,"Price Update: 1 #Bitcoin = $448.5000

#cryptocurrency source http://yhoo.it/1PH2nON (via @Flutter_HQ)",0,0,0,False
29,BitcoinBuzz vega9@BitcoinBuzzV9,http://bitcoinbuzz.vega9.com - Hot topics: #bitcoin #usd #crypto #btc #blockchain #cryptocurrency,0,0,0,False
30,NE Patriots Dynasty@NEPatsDynasty,HERE IT IS. The Next #Crypto #Currency #Bitcoin. It is called #ILCoin Join FREE Today. Click here http://buygold.ilgamos.com/buy?buy_type=1,0,0,0,False
31,Bitcoin Promoter@promotebitcoin,"Accept #Bitcoin and >52 other #cryptocurrency in your online store with http://bit.ly/1SuzICy
#btc #smallbiz #plugin #WordPress
#webdev",1,0,0,False
32,Jorge Niño de Guzman@JorgeNdeG,"To aid in the understanding of #cryptocurrency, a #Bitcoin explanation without referencing any modern technology http://coint.co/2M6c",1,3,0,False
33,Denny McEnroe@McEnroeDenny,Re: http://BITVESTORS.COM - PROFESSIONAL BITCOIN EARNERS PLATFORM http://cur.lv/y27qn #bitcoin #crypto,0,0,0,False
34,Denny McEnroe@McEnroeDenny,Re: http://BITVESTORS.COM - PROFESSIONAL BITCOIN EARNERS PLATFORM http://cur.lv/y27ql #bitcoin #crypto,0,0,0,False
35,Denny McEnroe@McEnroeDenny,Re: | ANN | Espers [ESP] | New Algo | New Features In Development | Reverse-ICO | http://cur.lv/y27qk #bitcoin #crypto,0,0,0,False
36,Denny McEnroe@McEnroeDenny,Re: [∞ YH] http://solo.ckpool.org 1% fee solo mining USA/DE servers 176 blocks solved! http://cur.lv/y27qj #bitcoin #crypto,0,0,0,False
37,BarrioFinito@BarrioFinito,"@LEOxChangeHQ is the only #cryptocurrency market that takes longer to process a transaction then BANKS
 #btc",0,0,0,False
38,Crypto Yoyo@cryptoyoyo,Steam will now allow you to buy games with Bitcoin http://bit.ly/1Tm5Moh #bitcoin #crypto #news,0,0,0,False
39,Crypto Yoyo@cryptoyoyo,Media Fails In Attempt To Destroy Bitcoin In Favor Of Blockchain http://bit.ly/1NbZRpc #bitcoin #crypto #news,0,0,0,False
40,MonetaryUnit@MonetaryUnit,"Buy $MUE at a fixed price
Anonymous
No registration
No log in
3 easy steps
https://exchange.muewallet.com
#anonymous #crypto #alts #cryptoexchange",1,3,0,False
41,Julia Vaingurt@julia_vaingurt,#Bitcoin pr buzz accepts ethereum for press release services #crypto #cryptocurrency http://cur.lv/y27jb,1,0,0,False
42,Bitcoin Press@BitcoinPressX,Blockchain Platform Emercoin is Moving Beyond Cryptocurrencies http://dlvr.it/LBmpbY #crypto #bitcoin,0,0,0,False
43,Bitcoin Press@BitcoinPressX,Competition Pushes Blockchain Beyond Finance At Consensus 2016 Hackathon http://dlvr.it/LBmpbV #crypto #bitcoin,0,0,0,False
54,CryptoTorNews@CryptoTorNews,Blockchain Platform Emercoin is Moving Beyond Cryptocurrencies http://dlvr.it/LBmpbT #crypto #bitcoin,0,0,0,False
55,CryptoTorNews@CryptoTorNews,Competition Pushes Blockchain Beyond Finance At Consensus 2016 Hackathon http://dlvr.it/LBmpbR #crypto #bitcoin,0,0,0,False
56,Bitcoin City™#฿TC@Bitcoin_City,#btc US surveillance court reportedly rejected zero spying requests last year: According to ... http://bit.ly/1r6SuEZ #bitcoin #crypto,0,0,0,False
57,Julia Vaingurt@julia_vaingurt,"Blockchain Platform Emercoin is Moving Beyond Cryptocurrencies http://cur.lv/y27bn
#bitcoin #blockchain #btc #cryptocurrency #altcoins…",1,0,0,False
58,Bitcoinist.com@bitcoinist,Blockchain Platform Emercoin is Moving Beyond Cryptocurrencies http://ift.tt/1SFjHpH #bitcoin #blockchain #btc #cryptocurrency #altcoins…,1,1,0,False
59,Team 300FPS ︻╦̵̵̿╤─@300FPSGAMING,Blockchain Platform Emercoin is Moving Beyond Cryptocurrencies http://bit.ly/1rIBvKa #bitcoin #bitcoinnews #btc #cryptocurrency,0,0,0,False
60,CryptoFeed@crypto_feed,Competition Pushes Blockchain Beyond Finance At Con... http://twib.in/l/j8ALop8a9q6E #crypto | https://twibble.io,0,0,0,False
61,Bitcoin Press@BitcoinPressX,Blockchain Platform Emercoin is Moving Beyond Cryptocurrencies http://dlvr.it/LBmZ1F #bitcoin #bitcoinnews #crypto,0,0,0,False
62,Born Pitcoin@PornBitcoin,Blockchain Platform Emercoin is Moving Beyond Cryptocurrencies http://dlvr.it/LBmZ0s #bitcoin #bitcoinnews #crypto,0,0,0,False
63,Jesse James@btce4,Blockchain Platform Emercoin is Moving Beyond Cryptocurrencies http://dlvr.it/LBmZ19 #bitcoin #bitcoinnews #crypto,0,0,0,False
64,CryptoTorNews@CryptoTorNews,Blockchain Platform Emercoin is Moving Beyond Cryptocurrencies http://dlvr.it/LBmZ1K #bitcoin #bitcoinnews #crypto,1,0,0,False
66,Steffen Bauch@steffenbauch,On SMS Logins II : an example from Telegram in Russia http://bit.ly/24dtDkR #privacy #crypto #infosec,2,0,0,False
67,Bitcoin City™#฿TC@Bitcoin_City,#btc Can Blockchain Technology Reduce Third-World Poverty?:       submitted by    /u/cryptob... http://bit.ly/1NKeyzC #bitcoin #crypto,0,0,0,False
68,Bitcoin City™#฿TC@Bitcoin_City,#btc Trying to get my wife to understand Bitcoin...: And want to have her watch an Andreas v... http://bit.ly/1NKewbf #bitcoin #crypto,0,0,0,False
69,Bitcoin City™#฿TC@Bitcoin_City,#btc Ukraine Bitcoin License Plans Have Been Put On Ice:       submitted by    /u/DavidRindf... http://bit.ly/1NKewbc #bitcoin #crypto,0,0,0,False
70,Bitcoin City™#฿TC@Bitcoin_City,#btc Bitcoin's Consumer Adoption Phase:       submitted by    /u/Mage777  [link]   [comments]  http://bit.ly/21mqF8L #bitcoin #crypto,0,0,0,False
71,tekybot@tekypromo,Competition Pushes Blockchain Beyond Finance At Consensus 2016 Hackathon http://ift.tt/24sAHqv #tekypromo #TP #NEWS #cryptocurrency,0,0,0,False
72,Bogdan STRB@BogdanSTRB,Coinigy! Looking for professional #Bitcoin and #cryptocurrency #trading tools? #daytrading http://bit.ly/25JMlPl,1,0,0,False
73,OpenFXMarket@OpenFXMarket,#bitcoin market index: 95.53 #OFXBTC. #altcoin market index (avg): 155.78 #OFXAVG by http://openfxmarket.com. Stay tuned!,0,0,0,False
74,Tech BitCoin@tech_bitcoin,"""Media Fails In Attempt To Destroy Bitcoin In Favor Of Blockchain"" http://ift.tt/eA8V8J #bitcoin #crypto http://ift.tt/1O4qibh",0,0,0,False
75,Tech BitCoin@tech_bitcoin,"""Binary Options Trading made Simple with OptionsClick"" http://ift.tt/eA8V8J #bitcoin #crypto http://ift.tt/1SC1hto",0,0,0,False
76,Crypto@PurePoS, http://cubeminers.com  SHA: 6.22 TH   Scrypt: 4.48 MH   x11: 18.40 MH   #DigiCube #bitcoin #altcoin,0,0,0,False
77,Bitcoin Hourly@bitcoin_hourly,"Price Update: 1 #Bitcoin = $450.1100

#cryptocurrency source http://yhoo.it/1PH2nON (via @Flutter_HQ)",0,0,0,False
78,XBTFreelancer.com@XBTFreelancer,#career #earnmoney #crypto #hiring #bitcoin Excellent animated banner makers - repost7 http://xbtfreelancer.com/prj/1297/excellent-animated-banner-makers-repost7… #graphicdesign,1,0,0,False
79,LOOP@loopcoins,We are here to take over the world! Join the team! #loop #cryptocurrency #Bitcoin,1,0,0,False
80,Luca Perencin@No_CQRT,https://github.com/lavabit [#security #crypto]  Lavabit code open sourced,1,0,0,False
81,Bitcoin@webitcoins,#bitcoinnews #Crypto Bitcoin Price Crashes Into Fed Rates Call https://cryptocoinsnews.com/bitcoin-price-awaits-fed-rates-call/… #cryptocurrency,1,0,0,False
82,Team 300FPS ︻╦̵̵̿╤─@300FPSGAMING,Competition Pushes Blockchain Beyond Finance At Consensus 2016 Hackathon http://bit.ly/1QI6Y3a #bitcoin #bitcoinnews #btc #cryptocurrency,1,0,0,False
83,Bitcoin City™#฿TC@Bitcoin_City,#btc Competition Pushes Blockchain Beyond Finance At Consensus 2016 Hackathon: The first day... http://bit.ly/1pTryaW #bitcoin #crypto,0,0,0,False
84,Alejandro Sewrjugin@alesew23,#Bitcoin Competition Pushes Blockchain Beyond Finance At Consensus 2016 Hackathon http://bit.ly/1pTrrMz #Tech #Crypto,0,0,0,False
85,CCN - Capital & Celeb News@CapitalAndCeleb,Bitcoin Price Crashes Into Fed Rates Call https://cryptocoinsnews.com/bitcoin-price-awaits-fed-rates-call/… #cryptocurrency,2,9,0,False
86,Bitcoin City™#฿TC@Bitcoin_City,"#btc Stanford team made a humanoid robot that can stand in for a real diver: A Stanford robo... http://bit.ly/1NbRtpE #bitcoin #cryptoStanford team made a humanoid robot that can stand in for a real diverA Stanford robotics team has built a humanoid robot that can stand in as ""the physical representation"" of a remote pilot — a swimming avatar for dangerous aquatic expeditions. The robot, OceanOne,...theverge.com",1,1,0,False
87,Crypto Yoyo@cryptoyoyo,"Bitcoin exchange CEX.IO offers instant withdrawals to Visa, MasterCard http://bit.ly/1SFgjuP #bitcoin #crypto #news",0,0,0,False
91,Crypto Yoyo@cryptoyoyo,Ukraine Bitcoin License Plans Have Been Put On Ice http://bit.ly/1UooP6f #bitcoin #crypto #news,0,0,0,False
92,Crypto Yoyo@cryptoyoyo,"IBM Targets Public, Finance And Health Sectors With Secure Blockchain Platform http://bit.ly/1SFgjet #bitcoin #crypto #news",2,0,0,False
93,MiningField@miningfield,"Blazecoin Pool Boosting!
2% income boost for 1 hour.
http://blz.miningfield.com
#blz #altcoin #bitcoin #cryptocurrency @blazecoin",0,0,0,False
94,Julia Vaingurt@julia_vaingurt,Finance and beyond: an infographic map of #bitcoin and the emerging #blockchain ecosystem #crypto #cryptocurrency http://cur.lv/y25ps,0,0,0,False
95,Bitcoin City™#฿TC@Bitcoin_City,#btc Building the wikileaks of video...: The idea I'm building is there are so many people w... http://bit.ly/24dm2CQ #bitcoin #crypto,1,0,0,False
96,BITCOIN@Btc_mining,"New Cloud Mining Platform:

>> http://bit.ly/1TyMkHu
#bitcoin #dogecoin #cryptocurrency #mining",0,0,0,False
97,Bitcoin City™#฿TC@Bitcoin_City,#btc Review: Grenco Science’s G-Pen Elite is the best vape of its kind:  The fascination and... http://bit.ly/1NbMsxt #bitcoin #crypto,2,0,0,False
98,Tech BitCoin@tech_bitcoin,"""Gold Struck on OpenLedger With Ethereum Based DigixDAO asset (DGD)"" http://ift.tt/1O4gAFO #bitcoin #cryptoBitcoin (BTC) news & cryptocurrency news today, price & analysisNewsBTC is a cryptocurrency news service that covers latest bitcoin news today, technical analysis & price for bitcoin and other altcoins.newsbtc.com",2,1,0,False
99,Julia Vaingurt@julia_vaingurt,Plug pulled on keza app allowing #bitcoin investing in stocks #crypto #cryptocurrency http://cur.lv/y25a5,0,0,0,False
100,Bitcoin Hourly@bitcoin_hourly,"Price Update: 1 #Bitcoin = $450.0000

#cryptocurrency source http://yhoo.it/1PH2nON (via @Flutter_HQ)",0,0,0,False
101,Crypto@PurePoS, http://cubeminers.com  SHA: 6.48 TH   Scrypt: 97.21 MH   x11: 20.54 MH   #DigiCube #bitcoin #altcoin,0,0,0,False
102,BitcoinBuzz vega9@BitcoinBuzzV9,http://bitcoinbuzz.vega9.com - Hot topics: #bitcoin #cryptocurrency #blockchain #crypto #btc #robotcoingame,0,0,0,False
103,BitcoinAgile@bitcoinagile,SeeNote is a digital replacement for your sticky notes #bitcoin #btc #crypto http://theverge.com/2016/4/30/11544212/seenote-digital-sticky-note…,1,2,0,False
104,Bitcoin City™#฿TC@Bitcoin_City,"#btc SeeNote is a digital replacement for your sticky notes: Sure, you may have calendar rem... http://bit.ly/1NbLjps #bitcoin #crypto",0,0,0,False
105,Julia Vaingurt@julia_vaingurt,What is #blockchain technology? #bitcoin #crypto #cryptocurrency http://cur.lv/y2553,0,0,0,False
106,Julia Vaingurt@julia_vaingurt,Morgan stanley unveiled forecast for #blockchain’s impact on #banking #industry #bitcoin #crypto #cryptocurrency http://cur.lv/y2509,0,0,0,False
107,Bitcoin@webitcoins,#bitcoinnews #Crypto British Government Explores Disbursing Research Grants In Bitcoin https://cryptocoinsnews.com/british-government-explores-disbursing-research-grants-in-bitcoin/… #c…,0,0,0,False
108,notsofast@notsofast,"Hey @zerohedge, if you ever want a writer covering #cryptocurrency, I am highly interested in dropping my other stuff & stepping up.",11,1,0,False
109,Fintech news@currencies111,"Ethereum technical analysis for today , 21% increasing
http://bit.ly/1SFci9X
#ethereum #altcoin #cryptocurrency",2,3,0,False
113,Fintech Prowler@FintechProwler,The BitFury Group Begins Exploring Blockchain Software - The Merkle http://ift.tt/26F7UBf #altcoin,0,0,0,False
114,BitcoinAgile@bitcoinagile,Cryptocurrency Highlights Of The Week - Digiconomist #Cryptocurrency #DAO #Ethereum #voting http://bitcoinagile.com/677D8A/cryptocurrency-highlights-of-the-week-digiconomist_stream…,0,0,0,False
115,Digiconomist@DigiEconomist,"#Cryptocurrency highlights week 17, inc: The #DAO crowdsale has launched http://digiconomist.net/cryptocurrency-highlights-week-17-2016… #Ethereum",2,0,0,False
116,Crypto Yoyo@cryptoyoyo,Buy bitcoins http://bit.ly/1NbIfKb #bitcoin #crypto #news,0,0,0,False
117,Denny McEnroe@McEnroeDenny,Re: Legendary one day? http://cur.lv/y24n8 #bitcoin #crypto,0,0,0,False
118,Denny McEnroe@McEnroeDenny,Re: [ANN][LOC]LOCO|Quark|PoW/PoS|HiPos|Masternodes|Tor|NO ICO|10K Dev Fund[LOC][ANN] http://cur.lv/y24n7 #bitcoin #crypto,0,0,0,False
119,Denny McEnroe@McEnroeDenny,"Re: [PR(o)]  ✪ Prototanium 119 ✪  <<财富>> ◣Its like UNO, because it is.◥ http://cur.lv/y24n5 #bitcoin #crypto",0,0,0,False
120,Denny McEnroe@McEnroeDenny,Re: [ANN][DASH] Dash (http://dash.org) | First Self-Funding Self-Governing Crypto Currency http://cur.lv/y24n4 #bitcoin #crypto,0,0,0,False
121,Denny McEnroe@McEnroeDenny,Re: Wall Observer BTC/USD - Bitcoin price movement tracking & discussion http://cur.lv/y24n2 #bitcoin #crypto,0,0,0,False
122,Giovanni Peruzzi@SwissBitcoiner,"Bitcoin Price Support and Resistance
#btc #bitcoin #altcoin #cryptocurrency
https://cryptocoinsnews.com/85175-2/",12,34,0,False
123,[Jz]@sjzaib,Explanations of the Noise Protocol Framework (the TLS-like framework in the new WhatsApp e2e... http://bit.ly/1YYuu1S #crypto #infosec,1,0,0,False
124,Bitcoin@bitcoinpoet,Bitcoin Price Support and Resistance: Bitcoin price will make many people rich this year. The... http://btcs.me/1YYuqiR #cryptocurrency,1,0,0,False
125,Bitcoin City™#฿TC@Bitcoin_City,#btc New initiatives emerge to help refugees:  Prompted by the ongoing refugee crisis affect... http://bit.ly/21mgrVO #bitcoin #crypto,0,0,0,False
126,Tech BitCoin@tech_bitcoin,"""Ukraine Bitcoin License Plans Have Been Put On Ice"" http://ift.tt/eA8V8J #bitcoin #crypto http://ift.tt/1SFbt0O",0,0,0,False
127,CryptoWriter@CryptoWriter,"In Africa, #crypto$ is esp. about #remittances, #crowdfunding.From Remittance to Startups, How Bitcoin Is Used in AfricaWith the high mobile phone penetration already in place, Africa is set to enable more users to download a Bitcoin wallet on their devices.cointelegraph.com",2,0,0,False
128,Arish Dubash@happyarish,"Bitcoin (btcUSD=x) price on April 30, 2016 is 450.38. #bitcoin #toTheMoon #cryptoCurrency #newMoney",0,0,0,False
129,CCN - Capital & Celeb News@CapitalAndCeleb,British Government Explores Disbursing Research Grants In Bitcoin https://cryptocoinsnews.com/british-government-explores-disbursing-research-grants-in-bitcoin/… #cryptocurrency,7,10,0,False
130,BitScan@bitscanner,Russia considering legislation to outlaw digital currency use http://ow.ly/8JTXdQ #cryptocurrency #bitcoin,1,3,1,False
131,Bitcoin@webitcoins,#bitcoinnews #Crypto Newsflash: Bitcoin Price Pushes Toward $470 https://cryptocoinsnews.com/newsflash-bitcoin-price-pushes-toward-470/… #cryptocurrency,1,0,0,False
132,reddibrek@reddibrek,http://Reddheads.com newsletter published tomorrow! :) #reddcoin #bitcoin #cryptocurrency https://cards.twitter.com/cards/18ce53wswe4/1idv5…,0,0,0,False
133,CryptoFeed@crypto_feed,Ghana's Anti-Money Laundering Body Cites Virtual Cu... http://cointelegraph.com/news/ghanas-anti-money-laundering-body-cites-virtual-currency-use-as-national-security-risk… #crypto | https://twibble.io,0,0,0,False
137,Bogdan STRB@BogdanSTRB,Coinigy! Looking for professional #Bitcoin and #cryptocurrency #trading tools? #daytrading http://bit.ly/25JMlPl,0,0,0,False
138,BlockChannel@BlockChannel,BCN News: themerklenews: http://ift.tt/24dcKa9 What Is Bitcoin Pizza Day? #bitcoin #bitcoinnews #cryptocurrency,0,0,0,False
139,Bitcoin City™#฿TC@Bitcoin_City,#btc Is there an alternative way of using Bitcoins on Steam?: I'll try to get straight to th... http://bit.ly/1r6B0st #bitcoin #crypto,0,0,0,False
140,Bitcoin City™#฿TC@Bitcoin_City,#btc Why is Bitcoin ecosystem OK with this global Ponzi scheme?:       submitted by    /u/Sa... http://bit.ly/24ddwUu #bitcoin #crypto,0,0,0,False
141,CCN - Capital & Celeb News@CapitalAndCeleb,Newsflash: Bitcoin Price Pushes Toward $470 https://cryptocoinsnews.com/newsflash-bitcoin-price-pushes-toward-470/… #cryptocurrency,7,1,0,False
142,Julia Vaingurt@julia_vaingurt,"http://cur.lv/y23tu
 What Is Bitcoin Pizza Day? #bitcoin #bitcoinnews #cryptocurrency http://cur.lv/y23tv",1,0,0,False
143,Null TX@nulltxnews,http://ift.tt/24dcKa9 What Is Bitcoin Pizza Day? #bitcoin #bitcoinnews #cryptocurrency,3,7,0,False
144,Julia Vaingurt@julia_vaingurt,#Bitcoin price technical analysis for 04/01/2016 – short-term area of interest #crypto #cryptocurrency http://cur.lv/y23sp,0,0,0,False
145,Crypto@PurePoS, http://cubeminers.com  SHA: 6.86 TH   Scrypt: 96.08 MH   x11: 17.80 MH   #DigiCube #bitcoin #altcoin,0,0,0,False
146,Bitcoin Hourly@bitcoin_hourly,"Price Update: 1 #Bitcoin = $449.0200

#cryptocurrency source http://yhoo.it/1PH2nON (via @Flutter_HQ)",0,0,0,False
147,BitcoinBuzz vega9@BitcoinBuzzV9,http://bitcoinbuzz.vega9.com - Hot topics: #bitcoin #crypto #cryptocurrency #btc #blockchain #robotcoingame,1,0,0,False
148,Julia Vaingurt@julia_vaingurt,Here’s how to get a free #bitcoin t-shirt! #crypto #cryptocurrency http://cur.lv/y23ny,1,0,0,False
149,AlertCo.in@AlertCoin,"#Bitcoin last trade

@bitfinex $449.02
@btcecom $446.56

Set #crypto #price #alerts at http://AlertCo.in",1,2,0,False
150,AlertCo.in@AlertCoin,"#Bitcoin last trade

@bitstamp $449.02
@coinbase $453.60

Set #crypto #price #alerts at http://AlertCo.in",1,2,0,False
151,NE Patriots Dynasty@NEPatsDynasty,Looking for #WallStreet #TRADERS #entrepreneurs #Investors #HomeBusiness #money #crypto http://GoldNews.ilgamos.com/buy?buy_type=1 SHARE,1,0,0,False
152,"Danny Steed, PhD@TheSteed86","#IBM is betting big on #blockchain - Quartz #Bitcoin #cryptocurrencyIBM is betting big on blockchainLarge businesses (especially those in financial services) have been trying to figure out how they can tap into the blockchain, the technology underpinning the bitcoin…apple.news",2,0,0,False
160,Crypto Yoyo@cryptoyoyo,OpenBazaar Now Used in Over 183 Countries http://bit.ly/1TlQu2P #bitcoin #crypto #news,0,0,0,False
161,Crypto Yoyo@cryptoyoyo,Much Awaited DECENT Platform's Crowd Sale Goes Live in June http://bit.ly/1rq09io #bitcoin #crypto #news,0,0,0,False
162,Crypto Yoyo@cryptoyoyo,Dragon's Tale – Discover the Secrets of Berry Growing and get Rewarded http://bit.ly/1TlQrE7 #bitcoin #crypto #news,0,0,0,False
163,Crypto Yoyo@cryptoyoyo,IBM Reveals New Blockchain Cloud Service http://bit.ly/1rq09yS #bitcoin #crypto #news,0,0,0,False
164,Crypto Yoyo@cryptoyoyo,"“Internet of People”: How Blockchain Could Improve Uber, Airbnb and Other Services http://bit.ly/1TlQrE3 #bitcoin #crypto #news",0,0,0,False
165,Fintech news@currencies111,"new paying site , 10% daily forever , no withdrawal fee , withdraw daily , instant withdraw
http://bit.ly/1O43LLN
#Bitcoin #cryptocurrency",0,0,0,False
166,Tech BitCoin@tech_bitcoin,"""OpenBazaar Now Used in Over 183 Countries"" http://ift.tt/1O3ZLuB #bitcoin #crypto http://ift.tt/1O3ZJmy",0,0,0,False
167,CryptoFeed@crypto_feed,Bitcoin Price Support and Resistance http://twib.in/l/9EXarbdqebGE #crypto #investment | https://twibble.io,0,0,0,False
168,CryptoFeed@crypto_feed,Peace & Stability through the Blockchai... http://twib.in/l/xXr9gB4xo8aq #crypto #investment | https://twibble.io,0,0,0,False
169,Bitcoin City™#฿TC@Bitcoin_City,"#btc Uber agrees to $225,000 settlement in lawsuit alleging discrimination against the blind... http://bit.ly/1NbvmzJ #bitcoin #crypto",0,0,0,False
170,BitcoinTalkRadio.com@btctalkradio,"Dont miss  @Bitcoin_Rush on http://BTCTalkRadio.com  3 times a week Mon, Wed & Sat #news #bitcoin #fintech #Crypto",3,3,0,False
171,Bitcoin City™#฿TC@Bitcoin_City,#btc Shower thought on an Andreas talking point.: Here's the sound byte that had me thinking... http://bit.ly/21mbBrr #bitcoin #crypto,0,0,0,False
172,Crypto@PurePoS, http://cubeminers.com  SHA: 6.78 TH   Scrypt: 99.33 MH   x11: 20.88 MH   #DigiCube #bitcoin #altcoin,0,0,0,False
173,Bitcoin Hourly@bitcoin_hourly,"Price Update: 1 #Bitcoin = $448.6600

#cryptocurrency source http://yhoo.it/1PH2nON (via @Flutter_HQ)",0,0,0,False
174,Colin L Sowden@colinsowden13,"#Capricoin ""The People's Coin "" about to explode, buy now on #Bittrex This #Cryptocurrency everyone will want but do not know about it yet !",0,0,0,False
175,NE Patriots Dynasty@NEPatsDynasty,What if? http://ilgamosilcoin.com/ilgamos-ilcoin.html… the power of money.  #Money #HomeBusiness #Trading #crypto Register FREE,0,0,0,False
180,Alexandre Attipoe@alexattipoe,Accept Bitcoin and other crypto in your online store with CoinPayments https://coinpayments.net/index.php?ref=03d1f5b16ea9fbae4bd1afe859157227… #bitcoin #altcoins #CoinPayments,0,0,0,False
181,Bitcoin@webitcoins,#bitcoinnews #Crypto ECB Executive Board Member: Blockchain Tech a Game Changer https://cryptocoinsnews.com/ecb-board-member-blockchain-tech-requires-careful-consideration/… #cryptocu…,0,0,0,False
182,Bitcoin@webitcoins,#bitcoinnews #Crypto Watch the Live #Bitcoin Price here: http://mf.tt/skYeH,0,0,0,False
183,CCN - Capital & Celeb News@CapitalAndCeleb,ECB Executive Board Member: Blockchain Tech a Game Changer https://cryptocoinsnews.com/ecb-board-member-blockchain-tech-requires-careful-consideration/… #cryptocurrency,1,4,1,False
184,Hafi@hafiIBO,#increase #gettingstarted #value #cryptocurrency #onecoin #investnow #profit #future #of #payments   Invite only!!,11,0,0,False
185,Julia Vaingurt@julia_vaingurt,"OpenLedger Strikes Gold: DigixDAO Asset Trading Now Supported http://cur.lv/y21rs
#bitcoin #crypto #news",3,2,0,False
186,Crypto Yoyo@cryptoyoyo,Ghana's Anti-Money Laundering Body Cites Virtual Currency Use as National Security Risk http://bit.ly/26ERpFb #bitcoin #crypto #news,1,1,0,False
187,Crypto Yoyo@cryptoyoyo,Bitcoin Price Support and Resistance http://bit.ly/1pSWXKO #bitcoin #crypto #news,1,1,0,False
188,Crypto Yoyo@cryptoyoyo,OpenLedger Strikes Gold: DigixDAO Asset Trading Now Supported http://bit.ly/26ERpoR #bitcoin #crypto #news,3,3,0,False
189,Ben Jones@BenPeterJones,Plug Pulled On Keza App Allowing Bitcoin Investing In Stocks - http://buff.ly/1r68mrB #bitcoin #btc #cryptocurrency,2,1,0,False
190,Farah K. Miraza@farahkaifa,#cryptocurrency #crypto Bitcoin Price Support and Resistance http://ow.ly/8JXApU,0,0,0,False
191,Bitcoin City™#฿TC@Bitcoin_City,#btc According to its cofounder and CEO Snapchat is mainly “a camera company”:  While Snapch... http://bit.ly/1NbfqNZ #bitcoin #crypto,0,0,0,False
192,embii@EMBII4U,Dear random #altcoin developers!! Breathe new life into your #blockchain community with #Apertus.io social media features <3,0,0,0,False
193,Bitcoin Press@BitcoinPressX,Ghana&aposs Anti-Money Laundering Body Cites Virtual Currency Use as National Security Risk http://dlvr.it/LBjqKY #crypto #bitcoin,0,0,0,False
194,Bitcoin Press@BitcoinPressX,Bitcoin Price Support and Resistance http://dlvr.it/LBjqKT #crypto #bitcoin,0,0,0,False
195,Bitcoin Press@BitcoinPressX,Bitcoin Price Support and Resistance http://dlvr.it/LBjqKK #crypto #bitcoin,0,0,0,False
196,Bitcoin Press@BitcoinPressX,OpenLedger Strikes Gold DigixDAO Asset Trading Now Supported http://dlvr.it/LBjqKB #crypto #bitcoin,1,1,0,False
197,Bitcoin Press@BitcoinPressX,Ghana's Anti-Money Laundering Body Cites Virtual Currency Use as National… http://dlvr.it/LBjqJN #crypto #bitcoin,0,0,0,False
199,Julia Vaingurt@julia_vaingurt,"Price Index: The Future Of Bitcoin Lies In The Hands Of Developers http://cur.lv/y21m6
#crypto #bitcoin http://cur.lv/y21m7",0,0,0,False
200,Bitcoin Press@BitcoinPressX,Price Index The Future Of Bitcoin Lies In The Hands Of Developers http://dlvr.it/LBjqHh #crypto #bitcoin,0,0,0,False
201,Bitcoin Press@BitcoinPressX,Peace & Stability through the Blockchain Policing http://dlvr.it/LBjqGv #crypto #bitcoin,0,0,0,False
202,Bitcoin Press@BitcoinPressX,Peace & Stability through the Blockchain: Policing http://dlvr.it/LBjq9F #crypto #bitcoin,0,0,0,False
203,Bitcoin Press@BitcoinPressX,Price Index: The Future Of Bitcoin Lies In The Hands Of Developers http://dlvr.it/LBjq08 #crypto #bitcoin,0,0,0,False
204,CryptoTorNews@CryptoTorNews,Ghana&aposs Anti-Money Laundering Body Cites Virtual Currency Use as National Security Risk http://dlvr.it/LBjpkN #crypto #bitcoin,0,0,0,False
205,CryptoTorNews@CryptoTorNews,Bitcoin Price Support and Resistance http://dlvr.it/LBjph5 #crypto #bitcoin,0,0,0,False
206,CryptoTorNews@CryptoTorNews,Bitcoin Price Support and Resistance http://dlvr.it/LBjpfD #crypto #bitcoin,0,0,0,False
207,CryptoTorNews@CryptoTorNews,OpenLedger Strikes Gold DigixDAO Asset Trading Now Supported http://dlvr.it/LBjpbw #crypto #bitcoin,1,1,0,False
208,CryptoTorNews@CryptoTorNews,Ghana's Anti-Money Laundering Body Cites Virtual Currency Use as National… http://dlvr.it/LBjpVK #crypto #bitcoin,0,0,0,False
209,CryptoTorNews@CryptoTorNews,Price Index The Future Of Bitcoin Lies In The Hands Of Developers http://dlvr.it/LBjpT8 #crypto #bitcoin,0,0,0,False
210,CryptoTorNews@CryptoTorNews,Peace & Stability through the Blockchain Policing http://dlvr.it/LBjpSM #crypto #bitcoin,0,0,0,False
211,CryptoTorNews@CryptoTorNews,Peace & Stability through the Blockchain: Policing http://dlvr.it/LBjpQ0 #crypto #bitcoin,0,0,0,False
212,CryptoTorNews@CryptoTorNews,Price Index: The Future Of Bitcoin Lies In The Hands Of Developers http://dlvr.it/LBjpK1 #crypto #bitcoin,0,0,0,False
213,CryptoTorNews@CryptoTorNews,Tierion Raises $1 Million for Blockchain Verification Platform http://dlvr.it/LBjpJB #crypto #bitcoin,0,0,0,False
214,Bitcoin Press@BitcoinPressX,Tierion Raises $1 Million for Blockchain Verification Platform http://dlvr.it/LBjpHp #crypto #bitcoin,0,0,0,False
215,Julia Vaingurt@julia_vaingurt,What will #bitcoin be worth in 2020? #crypto #cryptocurrency http://cur.lv/y21l1,0,0,0,False
216,MiningField@miningfield,"Smartcoin Pool Boosting!
2% income boost for 1 hour
http://smc.miningfield.com
#smc #altcoin #bitcoin #cryptocurrency  @SmartCoinSMC",0,0,0,False
217,Katherine Clement@LDBKat,Happy Saturday! Want some Free BIGUP? http://bigup.luckyfaucets.com/?r=BQeUA7KSoCaY7evByjADpkcDQgCM5GcGJ5… #BIGUP #Altcoins #Cryptocurrency #DigitalCurrency,0,0,0,False
222,[Jz]@sjzaib,This strange writing was supposedly carved into this wall by a civil war soldier. Nobody kno... http://bit.ly/1r6my3G #crypto #infosec,0,0,0,False
223,CryptoRSS@CryptoRSS,Major Campaigns Spreading CryptXXX Ransomware Via Exploit Kits: Attackers behind a campaign distribut... http://bit.ly/1r6m9hD #crypto,0,0,0,False
224,Louis Dickinson@imLwi,@bitcoin become's an offical legal tender in #Japan - #crypto currencies will remove the need for corrupt bank's - http://futurism.com/kFrMD,0,0,0,False
225,Tech BitCoin@tech_bitcoin,"""Much Awaited DECENT Platform’s Crowd Sale Goes Live in June"" http://ift.tt/eA8V8J #bitcoin #cryptoMuch Awaited DECENT Platform's Crowd Sale Goes Live in JuneThe much awaited DECENT crowd sale is scheduled to go live in June, offering a unique opportunity for bitcoin users to be a part of the movement.newsbtc.com",0,0,0,False
226,tekybot@tekypromo,Bitcoin Price Support and Resistance http://ift.tt/1XZOb9l #tekypromo #TP #NEWS #cryptocurrency,0,0,0,False
227,tekybot@tekypromo,OpenLedger Strikes Gold DigixDAO Asset Trading Now Supported http://ift.tt/1WZTeZb #tekypromo #TP #NEWS #cryptocurrency,1,1,0,False
228,tekybot@tekypromo,Price Index The Future Of Bitcoin Lies In The Hands Of Developers http://ift.tt/1pSJT85 #tekypromo #TP #NEWS #cryptocurrency,0,0,0,False
230,CryptoFeed@crypto_feed,Price Index: The Future Of Bitcoin Lies In The Hand... http://cointelegraph.com/news/price-index-the-future-of-bitcoin-lies-in-the-hands-of-developers… #crypto | https://twibble.io,0,0,0,False
231,Joe Mina@rizzjoe,#Money as you know it is changing. Get Educated Now! #crypto #currency http://ow.ly/4nhi7j,0,0,0,False
232,MonetaryUnit@MonetaryUnit,"Support $MUE #MonetaryUnit project.
Please use
http://CryptoCoinMarketCap.com
for your crypto info.
#crypto #marketcap #coinmarketcap #alts #btc",0,0,0,False
233,Coinfeed@CoinfeedIO,Weekly #Altcoin #Price Analysis: Cryptocurrencies Dancing http://tinyurl.com/ne8xsws,0,0,0,False
234,Crypto@PurePoS, http://cubeminers.com  SHA: 7.25 TH   Scrypt: 96.98 MH   x11: 18.58 MH   #DigiCube #bitcoin #altcoin,0,0,0,False
235,Bitcoin Hourly@bitcoin_hourly,"Price Update: 1 #Bitcoin = $449.0000

#cryptocurrency source http://yhoo.it/1PH2nON (via @Flutter_HQ)",0,0,0,False
236,BitcoinBuzz vega9@BitcoinBuzzV9,http://bitcoinbuzz.vega9.com - Hot topics: #bitcoin #crypto #cryptocurrency #blockchain #btc #sportsbook,0,0,0,False
237,Bitcoin City™#฿TC@Bitcoin_City,#btc Coinbase vs Circle: Which is the better method of directly buying bitcoins? Taking all ... http://bit.ly/1NbjLka #bitcoin #crypto,0,0,0,False
238,Bitcoin City™#฿TC@Bitcoin_City,"#btc Money20/20 Europe 2016 - Patrick M Byrne, t0 & http://Overstock.com:       submitted ... http://bit.ly/1NbjLk5 #bitcoin #crypto",0,0,0,False
239,Bitcoin City™#฿TC@Bitcoin_City,"#btc Douglas Rushkoff: ""It's a peer to peer networked economy that we're moving into."":     ... http://bit.ly/1pSQOOD #bitcoin #crypto",0,0,0,False
241,Bitcoin City™#฿TC@Bitcoin_City,#btc Is AsicBoost a must-have upgrade for all Bitcoin miners? (With up to a 20% revenue incr... http://bit.ly/1pSQOOw #bitcoin #crypto,0,0,0,False
242,Bitcoin City™#฿TC@Bitcoin_City,#btc Tierion Raises $1 Million for Blockchain Verification Platform:       submitted by    /... http://bit.ly/1NbjIVC #bitcoin #crypto,0,0,0,False
243,Bitcoin City™#฿TC@Bitcoin_City,#btc Bitcoin Price Support and Resistance: Bitcoin price will make many people rich this yea... http://bit.ly/1pSQxeE #bitcoin #crypto,0,0,0,False
244,Bitcoin City™#฿TC@Bitcoin_City,#btc Peace & Stability through the Blockchain: Policing: This is part 4 of CCN’s “Peace & St... http://bit.ly/1pSQxeD #bitcoin #crypto,0,0,0,False
245,Julia Vaingurt@julia_vaingurt,What is gitian building? how #bitcoin’s security processes became a model for the open... #crypto #cryptocurrency http://cur.lv/y20oo,1,0,0,False
246,฿TF%$Brrrrrr!@CryptoHustle,Looks like #ether is leading the charge on another #altcoin rally. $ETH,5,0,0,False
247,Team 300FPS ︻╦̵̵̿╤─@300FPSGAMING,Bitcoin Price Support and Resistance http://bit.ly/1WZW8gx #bitcoin #bitcoinnews #btc #cryptocurrency,1,0,0,False
248,Cointon@CointonDotCom,Mycelium: New Bitcoin Wallet Offers Opportunity in Crowdsale http://dlvr.it/LBZdMG #crypto #bitcoin,0,0,0,False
249,Bitcoin@crypto_bitcoins,Mycelium: New Bitcoin Wallet Offers Opportunity in Crowdsale http://dlvr.it/LBZdMG #crypto #bitcoin,0,0,0,False
250,Bitcoin@webitcoins,"#bitcoinnews #Crypto User Error Sees Bitcoin Mining Pool Earn $135,000 as Fee https://cryptocoinsnews.com/user-error-sees-bitcoin-mining-pool-earn-135000-fee/… #cryptocurr…",1,0,0,False
251,Bitcoin@webitcoins,#bitcoinnews #Crypto Bitcoin Price Support and Resistance https://cryptocoinsnews.com/85175-2/,0,0,0,False
252,CCN - Capital & Celeb News@CapitalAndCeleb,"User Error Sees Bitcoin Mining Pool Earn $135,000 as Fee https://cryptocoinsnews.com/user-error-sees-bitcoin-mining-pool-earn-135000-fee/… #cryptocurrency",6,0,0,False
253,Crypto Yoyo@cryptoyoyo,Price Index: The Future Of Bitcoin Lies In The Hands Of Developers http://bit.ly/26EHAHl #bitcoin #crypto #news,0,0,0,False
254,Crypto Yoyo@cryptoyoyo,Peace & Stability through the Blockchain: Policing http://bit.ly/1TlF6Eb #bitcoin #crypto #news,0,0,0,False
255,Bitcoin City™#฿TC@Bitcoin_City,"#btc OpenLedger Strikes Gold: DigixDAO Asset Trading Now Supported: 

Cryptocurrency exc... http://bit.ly/1NJJErn #bitcoin #crypto",1,2,1,False
256,Bitcoin City™#฿TC@Bitcoin_City,"#btc Tierion Raises $1 Million for Blockchain Verification Platform: 

The blockchain st... http://bit.ly/1NJJC2L #bitcoin #crypto",0,0,0,False
257,OpenCryptoPortfolioTracker.org@taoteh1221,Added @DAOhubORG @slockitproject 'The DAO' to my #bitcoin #cryptocurrency #trading #markets #portfolio #php #app: https://dragonfrugal.com/coin-prices/,2,1,0,False
258,Farah K. Miraza@farahkaifa,#cryptocurrency #crypto Peace & Stability through the Blockchain: Policing http://ow.ly/8JXuek,0,0,0,False
259,BitcoinAgile@bitcoinagile,Apples great taste doesnt extend to grammar #bitcoin #btc #crypto http://theverge.com/2016/4/30/11541268/apple-grammar-is-weird…,2,3,0,False
260,Born Pitcoin@PornBitcoin,OpenLedger Strikes Gold: DigixDAO Asset Trading Now Supported http://dlvr.it/LBhtJs #bitcoin #bitcoinnews #crypto,3,1,1,False
261,Bitcoin Press@BitcoinPressX,OpenLedger Strikes Gold: DigixDAO Asset Trading Now Supported http://dlvr.it/LBhtK3 #bitcoin #bitcoinnews #crypto,2,1,1,False
262,Jesse James@btce4,OpenLedger Strikes Gold: DigixDAO Asset Trading Now Supported http://dlvr.it/LBhtJl #bitcoin #bitcoinnews #crypto,2,1,1,False
263,CryptoTorNews@CryptoTorNews,OpenLedger Strikes Gold: DigixDAO Asset Trading Now Supported http://dlvr.it/LBhtJj #bitcoin #bitcoinnews #crypto,2,1,1,False
264,Bitcoin City™#฿TC@Bitcoin_City,"#btc Kindle Oasis is beautiful, pricey and still not like reading a book:  I’ve spent the la... http://bit.ly/21m3wDb #bitcoin #cryptoKindle Oasis is beautiful, pricey and still not like reading a bookI’ve spent the last week trying to pretend the new Kindle Oasis is the same as reading a real book. It’s not. I love books. I love Kindle’s e-readers and was hoping this was the melding of the two....techcrunch.com",0,0,0,False
265,Bitcoinist.com@bitcoinist,OpenLedger Strikes Gold: DigixDAO Asset Trading Now Supported http://ift.tt/1NJHqbj #bitcoin #blockchain #btc #cryptocurrency #altcoins …,1,2,1,False
266,Denny McEnroe@McEnroeDenny,Re: Where are you from ? http://cur.lv/y1zp4 #bitcoin #crypto,0,0,0,False
267,Denny McEnroe@McEnroeDenny,Re: [RaiBlocks] RaiBlocks trading thread http://cur.lv/y1zp3 #bitcoin #crypto,1,0,0,False
268,Denny McEnroe@McEnroeDenny,Re: [ANN] [2Give] / BITTREX EXCHANGE AVAILABLE 2016.05.10 http://cur.lv/y1zoz #bitcoin #crypto,0,0,0,False
269,Denny McEnroe@McEnroeDenny,Re: Bitcoin can not replace fiat http://cur.lv/y1zow #bitcoin #crypto,0,0,0,False
270,Team 300FPS ︻╦̵̵̿╤─@300FPSGAMING,OpenLedger Strikes Gold: DigixDAO Asset Trading Now Supported http://bit.ly/1VZkuY4 #bitcoin #bitcoinnews #btc #cryptocurrency,1,1,1,False
271,CryptoRSS@CryptoRSS,A Dramatic Rise in ATM Skimming Attacks: Skimming attacks on ATMs increased at an alarming rate last ... http://bit.ly/1r66eQl #crypto,0,0,0,False
272,Bitcoin@webitcoins,#bitcoinnews #Crypto Peace & Stability through the Blockchain: Policing https://cryptocoinsnews.com/peace-stability-blockchain-4/…,0,0,0,False
273,tekybot@tekypromo,Peace & Stability through the Blockchain Policing http://ift.tt/24cPF7m #tekypromo #TP #NEWS #cryptocurrency,0,0,0,False
274,tekybot@tekypromo,Tierion Raises $1 Million for Blockchain Verification Platform http://ift.tt/1O3BpRJ #tekypromo #TP #NEWS #cryptocurrency,0,0,0,False
275,Team 300FPS ︻╦̵̵̿╤─@300FPSGAMING,Peace & Stability through the Blockchain: Policing http://bit.ly/1TC7KDA #bitcoin #bitcoinnews #btc #cryptocurrency,1,0,0,False
276,Bitcoin City™#฿TC@Bitcoin_City,"#btc Gillmor Gang: iPad Prose:  The Gillmor Gang — John Taschek, Frank Radice, John Taschek,... http://bit.ly/1pSHOsI #bitcoin #cryptoGillmor Gang: iPad ProseThe Gillmor Gang — John Taschek, Frank Radice, John Taschek, Keith Teare, and Steve Gillmor. Recorded live Friday, April 29, 2016. Apple dips and Twitter flutters, but the Gang won't bet against them...techcrunch.com",0,0,0,False
277,Crypto@PurePoS, http://cubeminers.com  SHA: 6.08 TH   Scrypt: 99.44 MH   x11: 19.08 MH   #DigiCube #bitcoin #altcoin,0,0,0,False
278,Bitcoin Hourly@bitcoin_hourly,"Price Update: 1 #Bitcoin = $455.6900

#cryptocurrency source http://yhoo.it/1PH2nON (via @Flutter_HQ)",0,0,0,False
279,BitcoinBuzz vega9@BitcoinBuzzV9,http://bitcoinbuzz.vega9.com - Hot topics: #bitcoin #crypto #blockchain #cryptocurrency #btc #robotcoingame,0,0,0,False
284,CryptoFeed@crypto_feed,"From Remittance to Startups, How Bitcoin Is Used in... http://cointelegraph.com/news/from-remittance-to-startups-how-bitcoin-is-used-in-africa… #crypto | https://twibble.io",2,0,0,False
285,Bitcoin City™#฿TC@Bitcoin_City,#btc online pharmacies and bitcoin?: Anyone know a online pharmacy that accepts bitcoins? I ... http://bit.ly/1r5Zpyf #bitcoin #crypto,0,0,0,False
286,Bitcoin City™#฿TC@Bitcoin_City,#btc Make your Election 2016 campaign contributions with Bitcoin. Ask @ActBlue:       submit... http://bit.ly/1r5Zn9E #bitcoin #cryptoMake your Election 2016 campaign contributions with Bitcoin. Ask...reddit.com,1,1,0,False
287,Bitcoin City™#฿TC@Bitcoin_City,"#btc Consensus hackathon challenge: Answer question ""What is the blockchain?"". Winner gets 1... http://bit.ly/1r5ZphK #bitcoin #crypto",0,0,0,False
288,Bitcoinist.com@bitcoinist,Tierion Raises $1 Million for Blockchain Verification Platform http://ift.tt/26EoS2G #bitcoin #blockchain #btc #cryptocurrency #altcoins…,2,1,0,False
289,Cointon@CointonDotCom,http://ift.tt/1pRZogo Five Ways People Actively Promote Bitcoin #bitcoin #bitcoinnews #cryptocurrency,1,0,0,False
290,Bitcoin@crypto_bitcoins,http://ift.tt/1pRZogo Five Ways People Actively Promote Bitcoin #bitcoin #bitcoinnews #cryptocurrency,0,0,0,False
291,BitcoinAgile@bitcoinagile,Digital Revolution with DECENT Software Sale - #bitcoin Garden #Cryptocurrency #News http://bitcoinagile.com/677722/digital-revolution-with-decent-software-sale-bitcoin-garden_stream…,0,0,0,False
292,Bitcoin Garden (Not Giving Away ETH)@BitcoinGarden,Digital Revolution with DECENT Software Sale: http://bitcoingarden.tk/digital-revolution-decent-software-sale/… tnx @DECENTplatform | #Cryptocurrency #News,9,9,0,False
293,CryptoFeed@crypto_feed,Plug Pulled On Keza App Allowing Bitcoi... http://twib.in/l/xXr9za69X5pq #crypto #investment | https://twibble.io,0,0,0,False
294,Bitcoin Press@BitcoinPressX,Tierion Raises $1 Million for Blockchain Verification Platform http://dlvr.it/LBhBfq #bitcoin #bitcoinnews #crypto,0,0,0,False
295,CryptoTorNews@CryptoTorNews,Tierion Raises $1 Million for Blockchain Verification Platform http://dlvr.it/LBhBfn #bitcoin #bitcoinnews #crypto,0,0,0,False
296,Team 300FPS ︻╦̵̵̿╤─@300FPSGAMING,Tierion Raises $1 Million for Blockchain Verification Platform http://bit.ly/26EnUn0 #bitcoin #bitcoinnews #btc #cryptocurrency,1,0,0,False
297,Bitcoin City™#฿TC@Bitcoin_City,"#btc Digital and visible this is a new era for women online:  Take Back the Tech! (TBTT) is ... http://bit.ly/1pSCSUO #bitcoin #cryptoPushing back against sexism, this is a new era for women onlineTake Back the Tech! (TBTT) is an expanding group of women active in 16 countries. They are set on reclaiming online space, making the net safer and more representative, as well as a place for women...techcrunch.com",0,0,0,False
298,Crypto Yoyo@cryptoyoyo,Bitcoin's Messy Push for Innovation is Winning Over Payments Innovators http://bit.ly/1UnY0yV #bitcoin #crypto #news,0,0,0,False
299,Crypto Yoyo@cryptoyoyo,The dawn and delusions of the 'Nerd Reich': BlockBusters #1 http://bit.ly/1SERqPZ #bitcoin #crypto #news,0,0,0,False
300,Crypto Yoyo@cryptoyoyo,BitFury Expands Venture to Provide Blockchain Technology Services http://bit.ly/1UnY0yT #bitcoin #crypto #news,0,0,0,False
301,Lori Holden@lholden,No! Bad senators. #crypto #privacy http://arstechnica.com/tech-policy/2016/04/senators-play-terror-card-to-lobby-public-for-backdoor-crypto-legislation/…,0,0,0,False
302,Julia Vaingurt@julia_vaingurt,Gaming platform steam now accepting #bitcoin #crypto #cryptocurrency http://cur.lv/y1y9h,1,0,0,False
303,BitcoinAgile@bitcoinagile,How to be human: how can I stop making everything about me? #bitcoin #btc #crypto http://theverge.com/2016/4/30/11543682/how-to-be-human-self-confidence…,1,3,0,False
304,Bitcoin City™#฿TC@Bitcoin_City,#btc How to be human: how can I stop making everything about me?: Leah Reich was one of the ... http://bit.ly/1NJAs6b #bitcoin #crypto,0,0,0,False
305,Leonardo Moura@leorxd,https://dcrstats.com  Fucking 9TH/S Hashrate!! AWESOME! $DCR #decred #altcoin #print #the #legend,1,0,0,False
306,Tabali Tigi@tabali_tigi,"BITLAND ICO PHASE 1 ENDS IN 12 HOURS! DON'T MISS 10,000 #Satoshi Price!
30,000 Satoshi PHASE 2!
http://bitland.world/how-to-purchase-cadastrals/…
#cryptocurrency #btc",0,0,0,False
307,Denny McEnroe@McEnroeDenny,Re: [XMR] Monero Speculation http://cur.lv/y1xwn #bitcoin #crypto,0,0,0,False
308,Denny McEnroe@McEnroeDenny,Victor Coin | Takeover | SWAP | http://cur.lv/y1xwl #bitcoin #crypto,0,0,0,False
309,Denny McEnroe@McEnroeDenny,Re: ETHEREUM http://cur.lv/y1xwj #bitcoin #crypto,0,0,0,False
310,Denny McEnroe@McEnroeDenny,Re: UNLIMITED GIFT CARD METHOD | NOW $25 | HUGE VOUCHED & HONEST REVIEWS | LEGAL WAY http://cur.lv/y1xwh #bitcoin #crypto,0,0,0,False
311,Denny McEnroe@McEnroeDenny,Re: This is why you enable 2FA. http://cur.lv/y1xwf #bitcoin #crypto,0,0,0,False
312,Alvis Cheng@AlvisMiner,8 things I learned in 7 years writing for The Next Web: Today is my final day writing fo... http://sh.st/OpOiM #bitcoin #crypto #IT,0,0,0,False
314,tekybot@tekypromo,Bitcoin's Messy Push for Innovation is Winning Over Payments Innovators http://ift.tt/1TlvHMD #tekypromo #TP #NEWS #cryptocurrency,0,0,0,False
315,tekybot@tekypromo,"From Remittance to Startups, How Bitcoin Is Used in Africa http://ift.tt/1SBi8fJ #tekypromo #TP #NEWS #cryptocurrency",0,0,0,False
316,OpenFXMarket@OpenFXMarket,#altcoin market index (avg): #OFXAVG 155.78 #SHA 58.44 #SCRYPT 96.84 #QUARK 87.72 #X 15.41 #HYBRID 23.15 Stay tuned! #OFX,0,0,0,False
321,Crypto@PurePoS, http://cubeminers.com  SHA: 7.22 TH   Scrypt: 103.92 MH   x11: 20.68 MH   #DigiCube #bitcoin #altcoin,0,0,0,False
322,Bitcoin Hourly@bitcoin_hourly,"Price Update: 1 #Bitcoin = $456.5000

#cryptocurrency source http://yhoo.it/1PH2nON (via @Flutter_HQ)",0,0,0,False
323,BitcoinBuzz vega9@BitcoinBuzzV9,http://bitcoinbuzz.vega9.com - Hot topics: #bitcoin #x2013 #cryptocurrency #crypto #blockchain #btc,1,0,0,False
324,Julia Vaingurt@julia_vaingurt,Uk government could track student loans and grants with #blockchain #bitcoin #crypto #cryptocurrency http://cur.lv/y1xlb,0,0,0,False
325,AlertCo.in@AlertCoin,"#Bitcoin last trade

@bitstamp $452.50
@coinbase $456.38

Set #crypto #price #alerts at http://AlertCo.in",2,2,0,False
326,AlertCo.in@AlertCoin,"#Bitcoin last trade

@bitfinex $452.01
@btcecom $449.90

Set #crypto #price #alerts at http://AlertCo.in",2,2,0,False
327,Laetitia Vespa@laeti_vespa,Programme Nike+ coach #Défi#1 https://tartineobeurre.wordpress.com/2016/04/30/programme-nike-coach-defi1…,0,0,0,False
328,Team 300FPS ︻╦̵̵̿╤─@300FPSGAMING,Bitcoin&#039;s Messy Push for Innovation is Winning Over Payments http://bit.ly/1SRar3V #bitcoin #bitcoinnews #btc #cryptocurrency,0,0,0,False
329,Julia Vaingurt@julia_vaingurt,Vitalik buterin pitches hyperledger project on ethereum integration #bitcoin #crypto #cryptocurrency http://cur.lv/y1xc2,1,0,0,False
330,Bitcoin City™#฿TC@Bitcoin_City,#btc Bitcoin's Messy Push for Innovation is Winning Over Payments Innovators: Despite critic... http://bit.ly/1YY5tUC #bitcoin #crypto,0,0,0,False
331,Alejandro Sewrjugin@alesew23,#Bitcoin Bitcoin's Messy Push for Innovation is Winning Over Payments Innovators http://bit.ly/1NaYwyU #Tech #Crypto,0,0,0,False
332,Crypto Yoyo@cryptoyoyo,"From Remittance to Startups, How Bitcoin Is Used in Africa http://bit.ly/1TbPvSo #bitcoin #crypto #news",0,0,0,False
333,Crypto Yoyo@cryptoyoyo,Coinbase Enables Instant Bitcoin Purchases With Debit Cards http://bit.ly/1VYYdum #bitcoin #crypto #news,0,0,0,False
334,Crypto Yoyo@cryptoyoyo,Can Blockchain Technology Reduce Third-World Poverty? http://bit.ly/1TbPxtA #bitcoin #crypto #news,0,0,0,False
335,Bitcoin City™#฿TC@Bitcoin_City,#btc The Stages of Bitcoin: Stages of Bitcoin: This is a joke. What is this? How does it wor... http://bit.ly/1YY54BF #bitcoin #crypto,0,0,0,False
336,Bitcoin City™#฿TC@Bitcoin_City,#btc Barry Silbert's Digital Currency Group unveils new round of fundin:   submitted by    /... http://bit.ly/1NaXUJM #bitcoin #crypto,0,0,0,False
337,Bitcoin City™#฿TC@Bitcoin_City,#btc The Death of the Ukranian Bitcoin License:       submitted by    /u/bitbybitbybitcoin  ... http://bit.ly/1NaXSBv #bitcoin #crypto,0,0,0,False
338,Bitcoin City™#฿TC@Bitcoin_City,"#btc Hey folks, I still see people losing their keys on a regular basis so wrote this articl... http://bit.ly/1YY54Bu #bitcoin #crypto",0,0,0,False
339,NewBitcoinBoss@NewBitcoinBoss,"Western Union Invests in Digital Currency Group: 

http://cointelegraph.com/news/western-union-invests-in-digital-currency-group…
#Bitcoin #Cryptocurrency #Money #Invest",0,0,0,False
340,Bitcoin Press@BitcoinPressX,Plug Pulled On Keza App Allowing Bitcoin Investing In Stocks http://dlvr.it/LBgCn3 #crypto #bitcoin,0,0,0,False
341,CryptoTorNews@CryptoTorNews,Plug Pulled On Keza App Allowing Bitcoin Investing In Stocks http://dlvr.it/LBgCl6 #crypto #bitcoin,0,0,0,False
342,Bitcoin Press@BitcoinPressX,Plug Pulled On Keza App Allowing Bitcoin Investing In Stocks http://dlvr.it/LBgCdl #crypto #bitcoin,0,0,0,False
347,Julia Vaingurt@julia_vaingurt,"Business Blockchain Books Project Is Nearing Completion http://cur.lv/y1wp7
#crypto #bitcoin",0,0,0,False
348,CryptoTorNews@CryptoTorNews,Plug Pulled On Keza App Allowing Bitcoin Investing In Stocks http://dlvr.it/LBgCd2 #crypto #bitcoin,0,0,0,False
349,Bitcoin Press@BitcoinPressX,Business Blockchain Books Project Is Nearing Completion http://dlvr.it/LBgCc9 #crypto #bitcoin,0,0,0,False
350,CryptoTorNews@CryptoTorNews,Business Blockchain Books Project Is Nearing Completion http://dlvr.it/LBgCc6 #crypto #bitcoin,0,0,0,False
351,Sergei Danielian@gahcep,Secure Secure Shell https://stribika.github.io/2015/01/04/secure-secure-shell.html… #ssh #crypto,0,0,0,False
352,ACTHIV Institute@ACTHIV1,Presented w/ a patient who is diag.w #crypto and HIV? Treatment of #crypto should occur 1st...w/ #ART initiation 2-10 wks later #ACTHIV,0,0,0,False
353,Fintech Prowler@FintechProwler,Coinbase Enables Instant Bitcoin Purchases With Debit Cards - The Merkle http://ift.tt/26Ec6RL #altcoin,0,0,0,False
354,BitcoinAgile@bitcoinagile,The Large Hadron Collider was shut down by a small mammal #bitcoin #btc #crypto http://theverge.com/2016/4/30/11543756/lhc-cern-animal-shutdown…,3,0,0,False
355,Bitcoin City™#฿TC@Bitcoin_City,#btc The Large Hadron Collider was shut down by a small mammal: CERN's Large Hadron Collider... http://bit.ly/1NaSOgr #bitcoin #crypto,0,0,0,False
356,Bitcoin@webitcoins,#bitcoinnews #Crypto Vote Sees Europe Move toward AMLD-D for Digital Currency Exchanges https://cryptocoinsnews.com/vote-sees-europe-move-toward-aml-policies-digital-currency-exchanges/… #…,1,0,0,False
357,Okcash @OkcashCrypto,Congratulations @amirul196961 @territoriobtc @ManuelCAviles for being top #crypto community members this week :) >> http://bit.ly/_want_this_free,2,2,0,False
358,Denny McEnroe@McEnroeDenny,Re: Why my accounts are all banned when i havent used them at all http://cur.lv/y1vxy #bitcoin #crypto,0,0,0,False
359,Denny McEnroe@McEnroeDenny,"Re: [WTS] All sites to : DeSign , Images , Board , Programming http://cur.lv/y1vxx #bitcoin #crypto",0,0,0,False
360,Denny McEnroe@McEnroeDenny,"Re: Roulette Strategy - ""Black & Red"" http://cur.lv/y1vxv #bitcoin #crypto",0,0,0,False
361,Denny McEnroe@McEnroeDenny,"Re: ****New microloan service, get your loans here**** http://cur.lv/y1vxu #bitcoin #crypto",0,0,0,False
362,Denny McEnroe@McEnroeDenny,"Re: E-Sport Prediction , share your prediction here http://cur.lv/y1vww #bitcoin #crypto",0,0,0,False
363,Denny McEnroe@McEnroeDenny,Overview of ALT Coins Signature-Ad Campaigns http://cur.lv/y1vwv #bitcoin #crypto,0,0,0,False
364,Denny McEnroe@McEnroeDenny,Re: I bought games from steam thread http://cur.lv/y1vwt #bitcoin #crypto,0,0,0,False
374,Denny McEnroe@McEnroeDenny,"Re: http://LiveCoin.net >>Guide, exchange practical advice http://cur.lv/y1vwq #bitcoin #crypto",0,0,0,False
375,Denny McEnroe@McEnroeDenny,"Re: http://999Dice.com - Just Launched - 0.1% house edge, faucet & earn BTC http://cur.lv/y1vwo #bitcoin #crypto",0,0,0,False
376,"Mr. Jeff Cliff, BSc@jeffcliff1",http://qttr.at/1an9 any non-bitcoin #cryptocurrency developers interested in making this work on their chain?,1,0,0,False
377,Bitcoin City™#฿TC@Bitcoin_City,"#btc Startups need to do due diligence, too:  I hear a lot of horror stories about investors... http://bit.ly/1pSnGqA #bitcoin #crypto",0,0,0,False
378,Crypto@PurePoS, http://cubeminers.com  SHA: 4.97 TH   Scrypt: 102.48 MH   x11: 18.76 MH   #DigiCube #bitcoin #altcoin,0,0,0,False
379,Bitcoin Hourly@bitcoin_hourly,"Price Update: 1 #Bitcoin = $457.1700

#cryptocurrency source http://yhoo.it/1PH2nON (via @Flutter_HQ)",0,0,0,False
380,BitcoinBuzz vega9@BitcoinBuzzV9,http://bitcoinbuzz.vega9.com - Hot topics: #x2013 #bitcoin #cryptocurrency #crypto #blockchain #btc,0,0,0,False
381,Roger van de Berg@RogervandeBerg,The DAO sale is live! Good to be able to be a part of this revolution! https://daohub.org #DAO #ethereum #crypto,1,0,0,False
382,CCN - Capital & Celeb News@CapitalAndCeleb,Vote Sees Europe Move toward AMLD-D for Digital Currency Exchanges https://cryptocoinsnews.com/vote-sees-europe-move-toward-aml-policies-digital-currency-exchanges/… #cryptocurrency,1,5,1,False
383,Crypto Yoyo@cryptoyoyo,Good News Players: Global Steam Network now Accepts Bitcoins for Payments http://bit.ly/1QHfiA9 #bitcoin #crypto #news,0,0,0,False
384,Crypto Yoyo@cryptoyoyo,Five Ways People Actively Promote Bitcoin http://bit.ly/24cwGd7 #bitcoin #crypto #news,0,0,0,False
385,Bitcoin City™#฿TC@Bitcoin_City,"#btc Plug Pulled On Keza App Allowing Bitcoin Investing In Stocks: The Keza app, an IOS app ... http://bit.ly/1NaMwNL #bitcoin #crypto",0,0,0,False
386,Julia Vaingurt@julia_vaingurt,Smart contracts explained (for dummies…) #bitcoin #crypto #cryptocurrency http://cur.lv/y1v3d,0,0,0,False
387,Julia Vaingurt@julia_vaingurt,"Five Ways People Actively Promote Bitcoin - The Merkle http://cur.lv/y1uxo
#bitcoin #fintech #btc #crypto",0,0,0,False
388,ferthee@ariesarcha,"Earn your FREE #CryptoCurrency here >>> http://ift.tt/1RN6Ftm <<<
Get your #Bitcoin EVERY 5 minutes!",0,0,0,False
389,NE Patriots Dynasty@NEPatsDynasty,Quadruple your investment.  #Money #stocks #Gold #crypto 4 in 1 trading system for Partners only. http://ilgamosilcoin.com/home.html,0,0,0,False
390,Anish Mohammed@anishmohammed,Japan’s leading bitcoin exchange BitFlyer secures $27 million http://venturebeat.com/2016/04/30/japans-leading-bitcoin-exchange-bitflyer-secures-27-million/… via @VentureBeat #bitcoin #cryptocurrency,1,0,0,False
391,Bitcoin City™#฿TC@Bitcoin_City,"#btc Business Blockchain Books Project Is Nearing Completion: 

With all of this focus o... http://bit.ly/1YXWClO #bitcoin #crypto",0,0,0,False
392,ferthee@ariesarcha,Earn your FREE #bitcoin EVERY hour here >>> http://ift.tt/1TKc1pU <<< #CryptoCurrency #OnlineMoney #earningonline,0,0,0,False
393,Defi@DefiFreakyBoo,"Flawless? 
#defi #defibitch #silverhair #newhair #hairstyle #haircut #change #iammyhair… https://instagram.com/p/BE09NYIFJBJ/",3,0,0,False
394,futuristbot@futuristbot,still troubled by dying agenda #data #crypto,0,0,0,False
395,Julia Vaingurt@julia_vaingurt,"Ion new coin designed for mobile gaming launches ico #bitcoin #crypto #cryptocurrency http://cur.lv/y1ubu

— Bitcoinz (BitcoinzMan) Ap…",0,0,0,False
407,tekybot@tekypromo,Plug Pulled On Keza App Allowing Bitcoin Investing In Stocks http://ift.tt/1TlhFuu #tekypromo #TP #NEWS #cryptocurrency,0,0,0,False
408,Bitcoin City™#฿TC@Bitcoin_City,#btc Why the NRA hates smart guns:  With yet another push from President Obama to revive ini... http://bit.ly/1pS59Lf #bitcoin #crypto,0,0,0,False
409,BitScan@bitscanner,"RT @CheapAir ""Check out our new  #PeopleofBitcoin profile, featuring @GaltsGirl:  ! #btc #bitcoin #cryptocurrency"" http://ow.ly/4ng4G0",1,3,0,False
410,Bitcoin Hourly@bitcoin_hourly,"Price Update: 1 #Bitcoin = $457.0900

#cryptocurrency source http://yhoo.it/1PH2nON (via @Flutter_HQ)",0,0,0,False
411,Steve Schulin@GrandStrander,"#NFLDraft2016 - If someone you love is getting their first big check, tell them about #cryptocurrency. #BEaBlessing http://cryptocurrency.education",0,0,0,False
412,Bitcoin@bitcoinpoet,Bitcoin Stigma Fails to Dampen UK Government Interest in Blockchain Technology: The British G... http://btcs.me/1NaFx7K #cryptocurrency,1,0,0,False
413,Karen@karen_forward,A good read for those needing a '101' on #bitcoin #blockchain #cryptocurrency #pwc #fintech https://lnkd.in/eanssPj,0,0,0,False
414,Crypto Yoyo@cryptoyoyo,Buy bitcoins using Cash deposit: Chase Bank - Cash Deposit from gcsaver http://bit.ly/1NJcwzY #bitcoin #crypto #news,0,0,0,False
415,Null TX@nulltxnews,http://ift.tt/1WxmsOD Ethereum Project The DAO Is Now Live #bitcoin #bitcoinnews #cryptocurrency,8,9,0,False
416,FailCommunity@FAILCommunity,"#FAILCommunity will be looking like this, when we are ready!  #FAILfun #FAILCoin #FAIL #fintech #cryptocurrencyGIF",2,0,0,False
417,Crypto Yoyo@cryptoyoyo,Plug Pulled On Keza App Allowing Bitcoin Investing In Stocks http://bit.ly/1SVu91P #bitcoin #crypto #news,0,0,0,False
418,Crypto Yoyo@cryptoyoyo,Bitcoin Stigma Fails to Dampen UK Government Interest in Blockchain Technology http://bit.ly/1SEDyoY #bitcoin #crypto #news,0,0,0,False
419,Bitcoin@webitcoins,#bitcoinnews #Crypto Plug Pulled On Keza App Allowing Bitcoin Investing In Stocks https://cryptocoinsnews.com/plug-pulled-on-keza-app-allowing-bitcoin-investing-in-stocks/…,2,0,0,False
421,AdzCoin Newsstories@GetFreeAdz,You want to know more about the best #Adblocking Solution? Read This : http://bit.ly/AdzcoinEn #blockchain #altcoins,2,1,0,False
422,ferthee@ariesarcha,#CryptoCurrency You can join as well and collect your #Bitcoin for FREE >>> http://ift.tt/1TKc1pU,1,0,0,False
423,Julia Vaingurt@julia_vaingurt,Popular #bitcoin #exchange cexio launches instant withdrawals to visa/mastercard #crypto #cryptocurrency http://cur.lv/y1t7d,0,0,0,False
424,Farah K. Miraza@farahkaifa,#cryptocurrency #crypto Plug Pulled On Keza App Allowing Bitcoin Investing In Stocks http://ow.ly/8JXbrJ,1,0,0,False
425,Team 300FPS ︻╦̵̵̿╤─@300FPSGAMING,Plug Pulled On Keza App Allowing Bitcoin Investing In Stocks http://bit.ly/1Wxkv4M #bitcoin #bitcoinnews #btc #cryptocurrency,0,0,0,False
426,BITCOIN@Btc_mining,"New Cloud Mining Platform:

>> http://bit.ly/1TyMkHu
#bitcoin #dogecoin #cryptocurrency #mining",1,0,0,False
427,CryptoCoinsMarket@ccoinmarket,"Banking on Friendship: P2P Lending Credible Friends Platform Launches http://ift.tt/1YXRuya http://ift.tt/1rpmLPQ #crypto #bitcoinBanking on Friendship: P2P Lending Credible Friends PlatformToday sees the launch of P2P Bitcoin lending platform Credible Friends, enabling friends to borrow virtual currency – on terms decided by them.news.bitcoin.com",0,0,0,False
428,Tech BitCoin@tech_bitcoin,"""Dragon’s Tale – Discover the Secrets of Berry Growing and get Rewarded"" http://ift.tt/eA8V8J #bitcoin #crypto http://ift.tt/26DRx85",1,0,0,False
429,NE Patriots Dynasty@NEPatsDynasty,Great Blog on #crypto #cryptocurrency Click http://juddbagley.io/bitcoin/blockchain/nasdaq-is-joining-the-blockchain-trading-party/… SHARE,2,1,1,False
430,Expandator@Expandator,"In 1940th Claude Shannon (#Nakamoto of his time) founded the principles for Internet, smartphones & #Cryptocurrency. https://youtube.com/watch?v=z2Whj_nL-x8…",1,0,0,False
431,Julia Vaingurt@julia_vaingurt,"Time to check on #edoncoin's development! http://cur.lv/y1swh
#btc #altcoin #ltc #dogecoin #bitcoin #edoncoin #ltc",2,1,0,False
432,ILbotCrypto@LbotCrypto,Time to check on #edoncoin's development! http://ow.ly/WbHMN #btc #altcoin #ltc #dogecoin #bitcoin #edoncoin #ltc,1,0,0,False
433,Crowdify TV@crowdifytv,Africa Debuts Academy that Will Teach #Bitcoin http://smq.tc/1PxG5RE via @moneyandtech #CryptoCurrency #EdTech,1,0,0,False
434,Julia Vaingurt@julia_vaingurt,"“Internet of People”: How Blockchain Could Improve Uber, Airbnb and ... http://cur.lv/y1ssq
#bitcoin #crypto",0,0,0,False
435,NE Patriots Dynasty@NEPatsDynasty,#ILGamos and their NEW #ILCoin. 4 in 1 Trading platform. Stock up 35%.  http://INVEST.ilgamos.com/buy?buy_type=1 #Crypto #Nasdaq #ETRADE,0,0,0,False
436,tekybot@tekypromo,Business Blockchain Books Project Is Nearing Completion http://ift.tt/24rGvAK #tekypromo #TP #NEWS #cryptocurrency,0,0,0,False
437,Bitcoin City™#฿TC@Bitcoin_City,"#btc On the dark art of software estimation:  “How long will it take?” demand managers, clie... http://bit.ly/1pS0HMq #bitcoin #crypto",0,0,0,False
438,Denny McEnroe@McEnroeDenny,Re: Transaction fees http://cur.lv/y1sm5 #bitcoin #crypto,0,0,0,False
439,Denny McEnroe@McEnroeDenny,Re: INCREASED PAYOUT(7/13) ۩۞۩ http://secondstrade.com ★signature campaign★upto 0.0006/post http://cur.lv/y1sm3 #bitcoin #crypto,0,0,0,False
440,Denny McEnroe@McEnroeDenny,Re: Address recieves 2800 BTC within 24 hours http://cur.lv/y1sm1 #bitcoin #crypto,0,0,0,False
441,Denny McEnroe@McEnroeDenny,Re: Reddits science forum banned climate deniers. http://cur.lv/y1slx #bitcoin #crypto,0,0,0,False
442,Giovanni Peruzzi@SwissBitcoiner,"“Internet of People”: How Blockchain Could Improve Uber, Airbnb and Other Services
#btc #bitcoin #altcoin #coins“Internet of People”: How Blockchain Could Improve Uber, Airbnb and Other ServicesLuis Fernando Molina, the chief executive and founder of Fermat.org, has released a whitepaper on the “Internet of People”. The concept offers an alternative way for content creators to stay in...cointelegraph.com",1,0,0,False
443,[Jz]@sjzaib,On SMS Logins II : an example from Telegram in Russia http://bit.ly/1YXPki6 #crypto #infosec,1,0,0,False
444,Crypto@PurePoS, http://cubeminers.com  SHA: 17.96 TH   Scrypt: 98.21 MH   x11: 21.64 MH   #DigiCube #bitcoin #altcoin,0,0,0,False
455,Bitcoin Hourly@bitcoin_hourly,"Price Update: 1 #Bitcoin = $455.6500

#cryptocurrency source http://yhoo.it/1PH2nON (via @Flutter_HQ)",0,0,0,False
456,CryptoRSS@CryptoRSS,Zscaler Uses the Cloud to Create a VPN Alternative: A new Private Access service takes a different ap... http://bit.ly/1NJ5LOA #crypto,0,0,0,False
457,Bitcoinist.com@bitcoinist,Business Blockchain Books Project Is Nearing Completion http://ift.tt/1NJ4MxJ #bitcoin #blockchain #btc #cryptocurrency #altcoins #money…,1,0,0,False
458,Null TX@nulltxnews,http://ift.tt/1pRZogo Five Ways People Actively Promote Bitcoin #bitcoin #bitcoinnews #cryptocurrency,1,4,0,False
459,AsiaDigiCoin@OfficialADCN,#CryptoCurrency digital coin you can send through internet. AsiaDigiCoin is the next CryptoCurrency after Bitcoin,1,0,0,False
460,Rob Ellis@streamingindie,"Pay close attention, # Bitcoin #Altcoin First Decentralized Currency Exchange Launch April 27 https://youtu.be/Torsqmubq68 via @YouTube",1,0,0,False
461,Bloggers' Club 500@BloggersClub500,RT @crypto_feed: Gold Struck on #OpenLedger With Ethereum... http://twib.in/l/aAyErjKyrRx6 #crypto https://twibble.io,2,1,0,False
462,CryptoTorNews@CryptoTorNews,"Internet of People How Blockchain Could Improve Uber, Airbnb and Other Services http://dlvr.it/LBcY75 #crypto #bitcoin",0,0,0,False
463,CryptoTorNews@CryptoTorNews,Russias NDS Uses Blockchain For E-Proxy Voting http://dlvr.it/LBcY6d #crypto #bitcoin,0,0,0,False
464,CryptoTorNews@CryptoTorNews,Russia’s NDS Uses Blockchain For E-Proxy Voting http://dlvr.it/LBcXzV #crypto #bitcoin,0,0,0,False
465,Bitcoin Press@BitcoinPressX,"Internet of People How Blockchain Could Improve Uber, Airbnb and Other Services http://dlvr.it/LBcY2l #crypto #bitcoin",0,0,0,False
466,Bitcoin Press@BitcoinPressX,Russias NDS Uses Blockchain For E-Proxy Voting http://dlvr.it/LBcY08 #crypto #bitcoin,0,0,0,False
467,Jesse James@btce4,Business Blockchain Books Project Is Nearing Completion http://dlvr.it/LBcXVm #bitcoin #bitcoinnews #crypto,0,0,0,False
468,Bitcoin Press@BitcoinPressX,Business Blockchain Books Project Is Nearing Completion http://dlvr.it/LBcXVl #bitcoin #bitcoinnews #crypto,0,0,0,False
469,Born Pitcoin@PornBitcoin,Business Blockchain Books Project Is Nearing Completion http://dlvr.it/LBcXVc #bitcoin #bitcoinnews #crypto,0,0,0,False
470,MiningField@miningfield,"DGC (scrypt) Pool boosting!
2% income boost for 1h
http://dgcscrypt.miningfield.com
#dgc #altcoin #bitcoin @DigitalcoinDGC",0,0,0,False
471,Bogdan STRB@BogdanSTRB,The DAO has started crowdsale! Don't miss new crowdsales use http://cyber.fund/radar http://ift.tt/1TBOwhp #bitcoin #blockchain #crypto…The DAO has started crowdsale! Don't miss new crowdsales use...Posted in r/Bitcoin by u/cyberfund • 0 points and 0 commentsreddit.com,0,0,0,False
472,Team 300FPS ︻╦̵̵̿╤─@300FPSGAMING,Business Blockchain Books Project Is Nearing Completion http://bit.ly/1TbB8O3 #bitcoin #bitcoinnews #btc #cryptocurrency,1,0,0,False
473,CryptoFeed@crypto_feed,“Internet of People”: How Blockchain Could Improve ... http://cointelegraph.com/news/internet-of-people-how-blockchain-could-improve-uber-airbnb-and-other-services… #crypto | https://twibble.io,0,0,0,False
474,Crypto Yoyo@cryptoyoyo,IBM is betting big on blockchain http://bit.ly/1Tldejx #bitcoin #crypto #news,0,0,0,False
475,Bitcoin City™#฿TC@Bitcoin_City,#btc Coinbase?!?: Buying and selling coins on coinbase. . . is so. . . GREAT. What a wonderf... http://bit.ly/1pRXooA #bitcoin #crypto,0,0,0,False
476,Bitcoin City™#฿TC@Bitcoin_City,#btc I'm ready to provide voluntary technical support to help you setup OpenBazaar Linux (VP... http://bit.ly/1NaqH0M #bitcoin #crypto,0,0,0,False
477,Cryptocoin Radar@cryptocoinradar,"eth/btc: +8% value, +48% volume (http://cryptocoinradar.com monitored #trading #altcoin #cryptocoin)",0,0,0,False
478,Coinfeed@CoinfeedIO,Daily #Altcoin #Price Analysis: Cryptocurrencies Keep their Eyes on Bitcoin http://tinyurl.com/j3wscbs,0,0,0,False
479,Sleeping Horse #BRG@Hunting_Bitcoin,Claim your free Doge Coin every one hour just at http://freedoge.co.in/?r=314242 claim up to 900k doge coin #faucet #altcoin,0,0,0,False
480,Pondet Ananchai@PondetX,Another step of #Bitcoin #Cryptocurrency #FinTech http://fb.me/7QMuljbR8,0,0,0,False
482,BitWaRRior@bitwarriorX,"Get your cheap #syscoin before the launch of #syscoin 2.0 , its the best time to buy now. #altcoins #btc",1,0,0,False
483,Alvis Cheng@AlvisMiner,Gone for Good makes giving items to charity as easy as using Uber: You know those old cl... http://sh.st/OoZfI #bitcoin #crypto #IT,0,0,0,False
484,Bitcoin Hourly@bitcoin_hourly,"Price Update: 1 #Bitcoin = $456.8500

#cryptocurrency source http://yhoo.it/1PH2nON (via @Flutter_HQ)",0,0,0,False
485,Crypto@PurePoS, http://cubeminers.com  SHA: 12.96 TH   Scrypt: 99.44 MH   x11: 11.02 MH   #DigiCube #bitcoin #altcoin,0,0,0,False
486,XBTFreelancer.com@XBTFreelancer,#money #cryptocurrency Share this link and get me as much viewers as you can #bitcoin #marketing http://xbtfreelancer.com/prj/1295/share-this-link-and-get-me-as-much-vievers-as-you-can… #job,1,0,0,False
493,Denny McEnroe@McEnroeDenny,Re: [NEW] JackpotRacer DUST LOTTERY★Daily Free Bets Giveaway★Dust to BTC★ http://cur.lv/y1rbh #bitcoin #crypto,1,0,0,False
494,Denny McEnroe@McEnroeDenny,Re: http://GGFANTASY.COM - bitcoin DAILY FANTASY SPORTS | Free and GPP soccer contests! http://cur.lv/y1rbe #bitcoin #crypto,1,0,0,False
495,Denny McEnroe@McEnroeDenny,Re: Who Gets the Blame for the Slowing Economy? http://cur.lv/y1rbc #bitcoin #crypto,1,0,0,False
496,Denny McEnroe@McEnroeDenny,Re: Bitcoin is dead again.  This time for sure. http://cur.lv/y1rb8 #bitcoin #crypto,1,0,0,False
497,tekybot@tekypromo,Russias NDS Uses Blockchain For E-Proxy Voting http://ift.tt/24c9tI4 #tekypromo #TP #NEWS #cryptocurrency,0,0,0,False
498,AlertCo.in@AlertCoin,"#Bitcoin last trade

@bitfinex $453.55
@btcecom $451.00

Set #crypto #price #alerts at http://AlertCo.in",1,2,0,False
499,AlertCo.in@AlertCoin,"#Bitcoin last trade

@bitstamp $453.08
@coinbase $456.83

Set #crypto #price #alerts at http://AlertCo.in",1,2,0,False
500,KingJohnXXVIII@KingJohnXXVIII,"#cryptocurrency is totally the future,currencies w no laws regarding transactions&manipulation&backing are invulnerable to all #manipulation",0,0,0,False
501,Julia Vaingurt@julia_vaingurt,Blockchain smart contracts: a hyper-deflationary force for health care delivery #bitcoin #crypto #cryptocurrency http://cur.lv/y1qrq,0,0,0,False
502,Bitcoin City™#฿TC@Bitcoin_City,"#btc Gifting my girlfriend a physical bitcoin, please help: Hi everyone. I saw a post on Coi... http://bit.ly/1YXImJU #bitcoin #crypto",0,0,0,False
503,Bitcoin City™#฿TC@Bitcoin_City,#btc Bitcoin investors guide for navigating choppy markets:       submitted by    /u/r0achfr... http://bit.ly/1NaaNnj #bitcoin #crypto,0,0,0,False
504,Bitcoin City™#฿TC@Bitcoin_City,#btc Anyone had problems with Bitonic.nl ? Missing payments?: Has anyone ever had problems w... http://bit.ly/1YXIpFv #bitcoin #crypto,0,0,0,False
505,Bitcoin City™#฿TC@Bitcoin_City,"#btc Mycelium Crowdsale , Are you investing ?:       submitted by    /u/trymad  [link]   [co... http://bit.ly/1YXImJT #bitcoin #crypto",0,0,0,False
506,Farah K. Miraza@farahkaifa,#cryptocurrency #crypto Russia’s NDS Uses Blockchain For E-Proxy Voting http://ow.ly/8JX1gJ,0,0,0,False
507,Bitcoin City™#฿TC@Bitcoin_City,#btc Russia’s NDS Uses Blockchain For E-Proxy Voting: Recently the Russia’s National Settlem... http://bit.ly/1NIXaLF #bitcoin #crypto,0,0,0,False
508,Bitcoin City™#฿TC@Bitcoin_City,#btc Watch SpaceX land a rocket in this awesome 360 video:  Have you ever wished you could s... http://bit.ly/1NIWSVi #bitcoin #crypto,0,0,0,False
509,Marc R Gagné MAPP @OttLegalRebels,NIST aiming for #quantum-proof #crypto - http://goo.gl/alerts/UAtqh,0,0,0,False
510,@fyrstikken@fyrstikken,The little coin that couldn’t – How #Litecoin became irrelevant in #crypto-currencies https://wp.stakepool.com/2016/04/30/the-little-coin-that-couldnt-how-litecoin-became-irrelevant-in-the-world-of-crypto-currencies/…,2,0,0,False
511,Bloggers' Club 500@BloggersClub500,"RT @alt_bit_coins: Gold struck on openledger with ethereum based digixdao asset #bitcoin #crypto #cryptocurrency

— Bitcoinz (BitcoinzMan)",2,1,0,False
512,EvilDave@EvilDave_NXT,"How to completely secure #cryptocurrency funds:
#Nxt Account Control :  #multisig on steroids !
#blockchain
#nxterQuote TweetYDX @YDXMyfriend · Apr 29, 2016NXT Account Control in action!! By MrCluster87
https://youtube.com/watch?v=pV2eKifqrOg…
#blockchain #Nxt #Token #innovation #crypto",4,3,0,False
516,Robot Coach@Coaching_France,5 jours pour oser s'affirmer  http://ow.ly/4mQFQ3 ! #défi #bonheurThe following media includes potentially sensitive content. Change settingsView,1,0,0,False
517,Bitkapital@bitkapital,"38% absolute return in April! Check out our monthly performance sheets. https://bitkapital.com/track.html
#bitcoin #trading #cryptocurrency #fintech",2,1,0,False
518,CryptoTorNews@CryptoTorNews,Mycelium New Bitcoin Wallet Offers Opportunity in Crowdsale http://dlvr.it/LBZdSZ #crypto #bitcoin,0,0,0,False
519,CryptoTorNews@CryptoTorNews,Mycelium: New Bitcoin Wallet Offers Opportunity in Crowdsale http://dlvr.it/LBZdMG #crypto #bitcoin,0,0,0,False
520,Bitcoin Press@BitcoinPressX,Mycelium New Bitcoin Wallet Offers Opportunity in Crowdsale http://dlvr.it/LBZdPb #crypto #bitcoin,0,0,0,False
521,Bitcoin Press@BitcoinPressX,Mycelium: New Bitcoin Wallet Offers Opportunity in Crowdsale http://dlvr.it/LBZdLq #crypto #bitcoin,0,0,0,False
522,Zero Cost Marketing@ZeroCostProfit,Join This Contest to Earn Free Adzcoin : http://ow.ly/4ngO7j  … #free #contest #giveaway #altcoin #crypto #currency,1,0,0,False
523,Crypto Yoyo@cryptoyoyo,Mycelium: New Bitcoin Wallet Offers Opportunity in Crowdsale http://bit.ly/1Wx7tnD #bitcoin #crypto #news,0,0,0,False
524,Crypto Yoyo@cryptoyoyo,Russia's NDS Uses Blockchain For E-Proxy Voting http://bit.ly/24rtRSe #bitcoin #crypto #news,0,0,0,False
525,Crypto Yoyo@cryptoyoyo,Bitstamp obtains first payment institution license in the world http://bit.ly/1Wx7t7k #bitcoin #crypto #news,0,0,0,False
526,Bitcoin City™#฿TC@Bitcoin_City,"#btc Welcome to the post-app world?:  As instant messaging and voice control takes off, it i... http://bit.ly/1NIRtO1 #bitcoin #crypto",0,0,0,False
527,𝓓𝓪𝓿𝓲𝓭 @myozone,#password #opsec #Anonymous I had this as a  kid #crypto,0,0,0,False
528,Bitcoin City™#฿TC@Bitcoin_City,"#btc Bitcoin and AI Interface/Scaling Questions: In the near future, our heavy reliance upon... http://bit.ly/1Na1UKk #bitcoin #crypto",0,0,0,False
529,Bitcoin City™#฿TC@Bitcoin_City,#btc Bitcoin and Blockchain in Estonia: Between Two Banks:   submitted by    /u/brianmacey  ... http://bit.ly/1pRHwCz #bitcoin #crypto,0,0,0,False
530,Julia Vaingurt@julia_vaingurt,Ether cloud #mining profitably headed to the moon #bitcoin #crypto #cryptocurrency http://cur.lv/y1oat,1,0,0,False
531,CryptoFeed@crypto_feed,Russia’s NDS Uses Blockchain For E-Prox... http://twib.in/l/p5X9M7KXeReA #crypto #investment | https://twibble.io,0,0,0,False
532,Onecoin in the world@onecoin2016,"#onecoin #cryptocurrency Europe is going to make law regulations
 https://onecoin.eu/signup/laura60",1,0,0,False
533,@lucaleonardini@lucaleonardini,Banks and fintech in 2025: an unlikely alliance - #Fintech #Business #BlockchainRev #Blockchain #CryptocurrencyBanks and fintech in 2025: an unlikely allianceBanking as we know it is in the midst of its first fundamental remaking in centuries. What’s driving this transformation?fintechbusiness.com,2,2,0,False
534,NE Patriots Dynasty@NEPatsDynasty,Gold & #Crypto-Currency in one clever system. Join the Digital Currency Revolution and turn your #PROFITS into GOLD http://dld.bz/dARdH,0,0,0,False
535,CryptoCoinsMarket@ccoinmarket,Bitfury Expands into a Full-Service Blockchain Operation http://ift.tt/23goLpj http://ift.tt/24c0Ihi #crypto #bitcoin,0,0,0,False
536,CryptoFeed@crypto_feed,Mycelium: New Bitcoin Wallet Offers Opportunity in ... http://cointelegraph.com/news/mycelium-new-bitcoin-wallet-offers-opportunity-in-crowdsale… #crypto | https://twibble.io,0,0,0,False
538,Bitcoin@webitcoins,#bitcoinnews #Crypto Russia’s NDS Uses Blockchain For E-Proxy Voting https://cryptocoinsnews.com/russias-nds-uses-blockchain-for-e-proxy-voting/…,0,0,0,False
539,Team 300FPS ︻╦̵̵̿╤─@300FPSGAMING,Russia’s NDS Uses Blockchain For E-Proxy Voting http://bit.ly/1N9Yg33 #bitcoin #bitcoinnews #btc #cryptocurrency,1,0,0,False
540,Bitcoin City™#฿TC@Bitcoin_City,"#btc Inventor of jet-powered hoverboard sets new world record with 6,500-foot flight: Franky... http://bit.ly/1NIOBkd #bitcoin #cryptoA man just smashed a world record with a jet-powered hoverboardFranky Zapata, the French jet ski champion who invented the Flyboard Air, has set a new Guinness World Record for the farthest hoverboard flight. Zapata achieved the feat Saturday morning off the...theverge.com",1,0,0,False
541,Bitcoin Hourly@bitcoin_hourly,"Price Update: 1 #Bitcoin = $456.0700

#cryptocurrency source http://yhoo.it/1PH2nON (via @Flutter_HQ)",0,0,0,False
542,Crypto@PurePoS, http://cubeminers.com  SHA: 11.76 TH   Scrypt: 92.50 MH   x11: 20.66 MH   #DigiCube #bitcoin #altcoin,0,0,0,False
543,BitcoinBuzz vega9@BitcoinBuzzV9,http://bitcoinbuzz.vega9.com - Hot topics: #bitcoin #crypto #cryptocurrency #blockchain #btc #robotcoingame,0,0,0,False
544,Denny McEnroe@McEnroeDenny,Re: [POLL] Price of Bitcoin 1 year from now http://cur.lv/y1nbb #bitcoin #crypto,0,0,0,False
545,Denny McEnroe@McEnroeDenny,"Re: [ANN] Wild Beast Block [WBB] on http://1ex.trade, no PREMINE, Honest ! - the wild one http://cur.lv/y1nb7 #bitcoin #crypto",0,0,0,False
546,Denny McEnroe@McEnroeDenny,Re: Germany League - Bundesliga Prediction Thread http://cur.lv/y1nb5 #bitcoin #crypto,0,0,0,False
547,Denny McEnroe@McEnroeDenny,Re: [ANN][LISK] Lisk | ICO | Decentralized Application & Sidechain Platform http://cur.lv/y1nb1 #bitcoin #crypto,0,0,0,False
548,CryptoRSS@CryptoRSS,"Facebook told to hand over all data on user, including fake account set up by extortionist: Italy has... http://bit.ly/24bYwq3 #crypto",0,0,0,False
549,MiningField@miningfield,"[DMD]Diamond Pool Boosting!
2% income boost for 1 hour.
https://dmd.miningfield.com
#DMD @dmdcoin #altcoin #bitcoin",1,0,0,False
550,Crypto Yoyo@cryptoyoyo,"The Akron, Ohio Bitcoin ATM Has Arrived After A Lot of Legal Paperwork http://bit.ly/1SQDDZ3 #bitcoin #crypto #news",0,0,0,False
551,Crypto Yoyo@cryptoyoyo,"Stick To Cash For Anonymous Payments, Rather Than Bitcoin http://bit.ly/1NILvwC #bitcoin #crypto #news",0,0,0,False
552,Crypto Yoyo@cryptoyoyo,Western Union among Digital Currency Group's new investors http://bit.ly/1SQDDZ1 #bitcoin #crypto #news,0,0,0,False
553,Crypto Yoyo@cryptoyoyo,IBM now offers blockchain cloud services http://bit.ly/1NILvws #bitcoin #crypto #news,0,0,0,False
554,Bitcoin@webitcoins,#bitcoinnews #Crypto Bitcoin-Centric Investor Digital Currency Group Sees Investment from Western Union …,1,0,0,False
555,Stephan Weiss@st_weiss,"Thinking! The #ConnectedCar and #Crypto Carkeys - a importing trend for the insurance industry too! #TelematicsVernetztes Auto: Mit dem Krypto-Autoschlüssel gegen AutohackerZahlreiche Hackerangriffe haben gezeigt, wie angreifbar das vernetzte Auto ist. Die Branche sucht nach Lösungen. Ein Erfolg versprechender Ansatz kommt von IT-Experten.zeit.de",2,0,0,False
556,Bitcoin City™#฿TC@Bitcoin_City,#btc IBM Launches Blockchain Cloud Services and Releases Hyperledger Code on Bluemix:       ... http://bit.ly/24bWoP7 #bitcoin #crypto,0,0,0,False
565,Bitcoin City™#฿TC@Bitcoin_City,#btc Is there a way to set custom parameters for notifications and alerts on cryptowat.ch or... http://bit.ly/1r4VYry #bitcoin #crypto,0,0,0,False
566,Bitcoin City™#฿TC@Bitcoin_City,"#btc Interested in starting to mine bitcoin, but unsure of where to begin.: So I have been w... http://bit.ly/1r4VWAb #bitcoin #crypto",0,0,0,False
567,Julia Vaingurt@julia_vaingurt,#Bitcoin price watch; here are today’s entries… #crypto #cryptocurrency http://cur.lv/y1m9g,0,0,0,False
569,Farah K. Miraza@farahkaifa,"#cryptocurrency #crypto Bitcoin Explained Simply, Even Grandparents Can Understand http://ow.ly/8JWTqs",0,0,0,False
570,Brave New Coin@bravenewcoin,No one can pry into the financial transactions of others. ~ #Dash http://ow.ly/4ngd41 #cryptocurrency,2,1,1,False
571,Bitcoin Hourly@bitcoin_hourly,"Price Update: 1 #Bitcoin = $455.9100

#cryptocurrency source http://yhoo.it/1PH2nON (via @Flutter_HQ)",0,0,0,False
572,Crypto@PurePoS, http://cubeminers.com  SHA: 6.59 TH   Scrypt: 92.83 MH   x11: 17.57 MH   #DigiCube #bitcoin #altcoin,0,0,0,False
573,Alvis Cheng@AlvisMiner,"98 lifestyle and work resources for digital nomads: I’m often asked what apps, services,... http://sh.st/OodeC #bitcoin #crypto #IT",0,0,0,False
574,Denny McEnroe@McEnroeDenny,CherryBox24 http://cur.lv/y1ll1 #bitcoin #crypto,0,0,0,False
575,Denny McEnroe@McEnroeDenny,Re: Dutch League Prediction Thread (Eredivisie) http://cur.lv/y1lkx #bitcoin #crypto,0,0,0,False
576,Denny McEnroe@McEnroeDenny,Re: Satoshi Now - UP TO 18000 satoshi per hour - 25% referral - SSL http://cur.lv/y1lkw #bitcoin #crypto,0,0,0,False
577,Denny McEnroe@McEnroeDenny,Re: Everyone looses in the long run http://cur.lv/y1lkt #bitcoin #crypto,0,0,0,False
578,Bitcoin@webitcoins,#bitcoinnews #Crypto The Inner Workings of Decentralized Crypto Exchange EtherEx https://cryptocoinsnews.com/inner-workings-decentralized-crypto-exchange/… #Bitcoin,2,0,0,False
579,Hi!@Gunnaman2002,Syscoin 2.0 Feature Demo - Direct Bitcoin (directBTC) https://youtu.be/DkMEkaNuIMw via @YouTube #crypto #bitcoin #currency #fintech,0,0,0,False
585,Fintech Prowler@FintechProwler,Bitso Seeks $2 Million to Develop Bitcoin Payment Infrastructure in Mexico - The Merkle http://ift.tt/1SACSo0 #altcoin,0,0,0,False
586,Manuel Carbonell@ManuelCAviles,Bitcoin rompe el muro de Donald Trump http://cointelegraph.es/news/bitcoin-rompe-el-muro-de-donald-trump?ref=5983… #Bitcoin #BTC #DonaldTrump #USA #EEUU #Mexico #Cryptocurrency,0,0,0,False
587,Julia Vaingurt@julia_vaingurt,"IBM Unveils Framework and Cloud Services for Secure Blockchain Networks http://cur.lv/y1l5s
#bitcoin #crypto",0,0,0,False
588,Cédric SEAUVY@cedsauv,Jury #bbainseec #startup #defi #creation #bordeaux #citemondiale #coaching,6,1,1,False
589,Julia Vaingurt@julia_vaingurt,Deloitte uses #facebook to build warranties on #bitcoin #blockchain #crypto #cryptocurrency http://cur.lv/y1kyr,0,0,0,False
590,Julia Vaingurt@julia_vaingurt,Thomson reuters exec believes there will be 'thousands' of #blockchain uses #bitcoin #crypto http://cur.lv/y1kur,1,0,0,False
592,Gabor Venczel@ujtrend,"The Price of Bitcoin is Now Double What It Was One Year #cryptocurrency, bitcoin, octacoin, http://webogi.com/.e78CS",0,0,0,False
593,NE Patriots Dynasty@NEPatsDynasty,JOIN FREE now. #MONEY #Bitcoin The Next NEW #Crypto #Currency. It is called #ILCoin  JOIN Click here http://buygold.ilgamos.com/buy?buy_type=1,0,0,0,False
594,Bitcoin Hourly@bitcoin_hourly,"Price Update: 1 #Bitcoin = $455.9900

#cryptocurrency source http://yhoo.it/1PH2nON (via @Flutter_HQ)",0,0,0,False
595,Crypto@PurePoS, http://cubeminers.com  SHA: 7.10 TH   Scrypt: 96.30 MH   x11: 21.77 MH   #DigiCube #bitcoin #altcoin,0,0,0,False
596,XBTFreelancer.com@XBTFreelancer,http://xbtfreelancer.com/prj/1297/excellent-animated-banner-makers-repost7… Excellent animated banner makers - repost7 #bitcoin #webdesign #money #cryptocurrency #career,0,0,0,False
597,BitcoinBuzz vega9@BitcoinBuzzV9,http://bitcoinbuzz.vega9.com - Hot topics: #bitcoin #ignoranceleakingthru #crypto #cryptocurrency #blockchain #btc,0,0,0,False
598,Julia Vaingurt@julia_vaingurt,Lost $136000 in #bitcoin? this #mining pool is looking for you #crypto #cryptocurrency http://cur.lv/y1k9z,0,0,0,False
599,AlertCo.in@AlertCoin,"#Bitcoin last trade

@bitstamp $452.93
@coinbase $456.14

Set #crypto #price #alerts at http://AlertCo.in",1,3,0,False
600,AlertCo.in@AlertCoin,"#Bitcoin last trade

@bitfinex $454.80
@btcecom $452.00

Set #crypto #price #alerts at http://AlertCo.in",1,3,0,False
601,Bitcoin@webitcoins,#bitcoinnews #Crypto Bitcoin Price Wings Cut By Market https://cryptocoinsnews.com/bitcoin-price-wings-cut-market/… #Bitcoin,0,0,0,False
609,Giovanni Peruzzi@SwissBitcoiner,"Europe's Regulatory Blockchain Shift on Display at Private Parliament Event
#btc #bitcoin #altcoin #cryptocurrency
http://coindesk.com/the-eu-regulatory-blockchain-shift/…",0,0,0,False
610,Giovanni Peruzzi@SwissBitcoiner,"Coinbase Enables Instant Bitcoin Purchase via US Debit Cards
#btc #bitcoin #altcoin #cryptocurrency
https://cryptocoinsnews.com/coinbase-enables-instant-bitcoin-purchase-via-us-debit-cards/…",0,0,0,False
611,Bitcoin City™#฿TC@Bitcoin_City,#btc Buying and selling stocks with Bitcoin: Hi. Does anyone know of a broker where an accou... http://bit.ly/24bJ9xS #bitcoin #crypto,0,0,0,False
612,Bitcoin City™#฿TC@Bitcoin_City,#btc Be your own bank.:       submitted by    /u/niksmac  [link]   [comments]  http://bit.ly/24bJ9xK #bitcoin #crypto,0,0,0,False
613,Giovanni Peruzzi@SwissBitcoiner,"Bitcoin Trading The Block Reward Halving
#btc #bitcoin #altcoin #cryptocurrency
https://cryptocoinsnews.com/bitcoin-trading-block-reward-halving/…",0,0,0,False
614,PinkMona@pinkmona_org,#bitcoin #altcoin #dogecoin Let's Hentai! Come on PinkMona!→http://pinkmona.org,0,0,0,False
615,Avarice@5_Avarice,"NEW MONEY: First Mission (explanation for why we are starting in Hollywood)
http://ln.is/newmoney.sollars.com/HeW2I…
#cryptocurrency #SOLCERTS",1,0,0,False
616,Crypto Yoyo@cryptoyoyo,AsicBoost claims 20% efficiency improvement in Bitcoin mining http://bit.ly/1QGzZMO #bitcoin #crypto #news,0,0,0,False
617,Bitcoin Hourly@bitcoin_hourly,"Price Update: 1 #Bitcoin = $455.0300

#cryptocurrency source http://yhoo.it/1PH2nON (via @Flutter_HQ)",0,0,0,False
618,Crypto@PurePoS, http://cubeminers.com  SHA: 5.98 TH   Scrypt: 94.74 MH   x11: 22.57 MH   #DigiCube #bitcoin #altcoin,0,0,0,False
619,BitcoinBuzz vega9@BitcoinBuzzV9,http://bitcoinbuzz.vega9.com - Hot topics: #bitcoin #crypto #cryptocurrency #blockchain #btc #dogecoin,0,0,0,False
620,Julia Vaingurt@julia_vaingurt,"Listen to great podcasts with up to date interviews and discussions around Bitcoins and the... http://cur.lv/y1ifq
#cryptocurrency",0,0,0,False
621,AdzCoin Newsstories@GetFreeAdz,What Are The Benefits Of ADZcoin #Monetization For Website Creators? Read the Full Story here : http://ow.ly/ZXjxd #adblock #crypto,0,0,0,False
622,Denny McEnroe@McEnroeDenny,Re: Everyone looses in the long run http://cur.lv/y1i6x #bitcoin #crypto,0,0,0,False
623,Denny McEnroe@McEnroeDenny,Re: Coinrise - Receive 2% hourly for 100 hours http://cur.lv/y1i6v #bitcoin #crypto,0,0,0,False
624,Denny McEnroe@McEnroeDenny,Re: [RADS] Radium - Bringing Advanced Utility to the Blockchain http://cur.lv/y1i6t #bitcoin #crypto,0,0,0,False
625,Denny McEnroe@McEnroeDenny,Re: COEXIST coin - COXST - POW/POS- The fight to help the less fortunate http://cur.lv/y1i6s #bitcoin #crypto,0,0,0,False
626,Denny McEnroe@McEnroeDenny,Re: Do you own any weapons? http://cur.lv/y1i6q #bitcoin #crypto,0,0,0,False
627,CryptoRSS@CryptoRSS,"Government Cybersecurity Performance, Confidence Bottoms Out: In the wake of OPM and other big gov br... http://bit.ly/21kWHSk #crypto",0,0,0,False
637,Bitcoin City™#฿TC@Bitcoin_City,#btc Bitcoin noob - http://Mytrezor.com or Trezor wallet - cannot change the transaction ... http://bit.ly/24bCYdb #bitcoin #crypto,0,0,0,False
638,Bitcoin City™#฿TC@Bitcoin_City,#btc Roger Ver tries to intentionally spend unconfirmed bitcoins from a zero fee transaction... http://bit.ly/24bCVxZ #bitcoin #crypto,0,0,0,False
639,Bitcoin City™#฿TC@Bitcoin_City,#btc Can someone explain to me how openbazaar is different from me hosting my own web server... http://bit.ly/1r4DFmk #bitcoin #cryptoCan someone explain to me how openbazaar is different from me...Posted in r/Bitcoin by u/box1820 • 35 points and 58 commentsreddit.com,1,0,0,False
640,Julia Vaingurt@julia_vaingurt,"A beginner’s guide to operating your own #bitcoin atm #crypto #cryptocurrency http://cur.lv/y1hi9

— BitcoinzMachine (BitcoinzMachine)…",0,0,0,False
641,Bitcoin Hourly@bitcoin_hourly,"Price Update: 1 #Bitcoin = $455.9400

#cryptocurrency source http://yhoo.it/1PH2nON (via @Flutter_HQ)",0,0,0,False
642,Crypto@PurePoS, http://cubeminers.com  SHA: 6.59 TH   Scrypt: 98.32 MH   x11: 17.97 MH   #DigiCube #bitcoin #altcoin,0,0,0,False
643,Julia Vaingurt@julia_vaingurt,"Mit panel: democracy is antithetical to what #bitcoin represents #crypto #cryptocurrency http://cur.lv/y1h5u

— BitcoinzMachine (Bitco…",0,0,0,False
644,Gabor Venczel@ujtrend,"Lost $136,000 in Bitcoin? This Mining Pool is Looking #cryptocurrency, bitcoin, octacoin, http://webogi.com/a5OJ1Y",1,0,0,False
645,Denny McEnroe@McEnroeDenny,Re: [xMRo / UNO] wealth investment guide http://cur.lv/y1go0 #bitcoin #crypto,0,0,0,False
646,Denny McEnroe@McEnroeDenny,Re: Why is gambling so addicting? http://cur.lv/y1gny #bitcoin #crypto,0,0,0,False
647,Denny McEnroe@McEnroeDenny,Re: Feedback for my website (WARNING: ADULT CONTENT) http://cur.lv/y1gnw #bitcoin #crypto,0,0,0,False
648,Denny McEnroe@McEnroeDenny,Re: People hate Bitcoins? http://cur.lv/y1gnt #bitcoin #crypto,0,0,0,False
649,Denny McEnroe@McEnroeDenny,Re: Claymore's Dual Ethereum+Decred GPU Miner v4.1 http://cur.lv/y1gnr #bitcoin #crypto,1,0,0,False
650,Julia Vaingurt@julia_vaingurt,What will #bitcoin be worth in 2020? #crypto #cryptocurrency http://cur.lv/y1gmt,0,0,0,False
651,Julia Vaingurt@julia_vaingurt,Ecb executive places #europe as leader in #blockchain technology #bitcoin #crypto #cryptocurrency http://cur.lv/y1gg7,0,0,0,False
652,Julia Vaingurt@julia_vaingurt,Japan sees a new #blockchain #industry consortium established #bitcoin #crypto #cryptocurrency http://cur.lv/y1gdz,0,0,0,False
662,Crypto Yoyo@cryptoyoyo,Lack of Starbucks Gift Cards Makes Fold App Less Favorable http://bit.ly/1TkLTxU #bitcoin #crypto #news,1,0,0,False
663,Julia Vaingurt@julia_vaingurt,Korea’s largest #exchange korbit introduces ethereum wallet #bitcoin #crypto #cryptocurrency http://cur.lv/y1g9w,0,0,0,False
665,sonsofliberty2016@Thefedendsnow,#Phillipines #Muecoin #askastoreaday #Vegas and #MontaryUnit meet in #18b #DTVL #TheArtsFactoryLV #BTM #crypto #deals,0,0,0,False
666,Tim Romero@timoth3y,"Weak #crypto does not make us safer. Brussels terrorists kept their plans in an unencrypted folder called ""TARGET""

http://boingboing.net/2016/04/14/brussels-terrorists-kept-their.html…",0,0,0,False
667,Bitcoin Hourly@bitcoin_hourly,"Price Update: 1 #Bitcoin = $457.3400

#cryptocurrency source http://yhoo.it/1PH2nON (via @Flutter_HQ)",0,0,0,False
668,Crypto@PurePoS, http://cubeminers.com  SHA: 12.77 TH   Scrypt: 91.50 MH   x11: 16.23 MH   #DigiCube #bitcoin #altcoin,0,0,0,False
669,BitcoinBuzz vega9@BitcoinBuzzV9,http://bitcoinbuzz.vega9.com - Hot topics: #bitcoin #consensus2016 #crypto #cryptocurrency #blockchain #btc,0,0,0,False
670,BTCremix@BTC_remix,#bitcoin #BTC Dragon’s Tale – Balance a Coin and earn a nice Reward http://cur.lv/y1fud #cryptocurrency,0,0,0,False
671,Cryptocrawl@branziggracerx,"#Cryptocrawl UPDATE #TX #Transfercoin
AD PIXELS! http://cryptocrawl.org
#Bitcoin #Cryptocurrency #DTLV #18b #Vegas",5,4,0,False
672,Julia Vaingurt@julia_vaingurt,Smart contracts described by nick szabo 20 years ago now becoming reality #bitcoin #crypto #cryptocurrency http://cur.lv/y1fqv,0,0,0,False
673,Cryptocrawl@branziggracerx,"#Cryptocrawl WEB PORTAL UPDATE: NEW #TX #Transfercoin AD PIXELS!
http://ln.is/www.cryptocrawl.org/Wo4qy… #Altcoin #Bitcoin #Cryptocurrency #DTLV #18b #VegasCrypto Crawl – Coming Sooncryptocrawl.org",2,2,1,False
674,Crypto 0101@Crypto_0101,The 4th #IndustrialRevolution #Tech #IoT #3DPrinting #AI  #innovation #crypto http://ow.ly/YUbqN @BColwell_ECON,3,1,0,False
675,Julia Vaingurt@julia_vaingurt,Bip 75 simplifies #bitcoin wallets for the everyday user #crypto #cryptocurrency http://cur.lv/y1fc6,0,0,0,False
676,Denny McEnroe@McEnroeDenny,Re: Spondoolies SP50 -  Contacted Spondoolies Tech Support http://cur.lv/y1f89 #bitcoin #crypto,0,0,0,False
677,Denny McEnroe@McEnroeDenny,Double up to .2 eaayguarantee(very trusted members only) http://cur.lv/y1f87 #bitcoin #crypto,0,0,0,False
680,Denny McEnroe@McEnroeDenny,Re: [Discussion]What work would you do for 1$USD per hour? http://cur.lv/y1f85 #bitcoin #crypto,0,0,0,False
681,Denny McEnroe@McEnroeDenny,Re: Google Voice Outside Of The US - Your Own Personal USA Phone Number! http://cur.lv/y1f83 #bitcoin #crypto,0,0,0,False
682,Crypto Yoyo@cryptoyoyo,Sell bitcoins http://bit.ly/1VYeY8M #bitcoin #crypto #news,1,2,0,False
684,Tom Andreas Mannerud@TAMannerud,Introduction to Tom's Hash Explorer now available on Youtube https://youtu.be/V8ibl9Eaa2E #MD5 #SHA #Hash #ShannonEntropy #InfoSec #Crypto,5,2,0,False
685,Crypto Yoyo@cryptoyoyo,How Blockchain Technology Will Revolutionize Global Transactions http://bit.ly/21kLmSm #bitcoin #crypto #news,1,0,0,False
686,Satoshi Nakamoto@BlockchainEra,"Looking to bet on LOL, CS:GO with #bitcoin & #altcoin ? Checkout http://goo.gl/JsXK1z
@Gamer_RTweets @GamerRTer",1,0,0,False
687,Cryptocrawl@branziggracerx,"#Transfercoin Wallet has @BittrexExchange #TX #Cryptocurrency Trading function! Time to BUY. Quote TweetWizard of Ore@BranzigGRaceX · Apr 29, 2016https://twitter.com/Transfer_Stats/status/726229962794123264…",5,5,0,False
688,Bitcoin City™#฿TC@Bitcoin_City,#btc Will Consensus 2016 be available for live streaming?:   submitted by    /u/tothemoonsan... http://bit.ly/1r4rExs #bitcoin #crypto,0,0,0,False
689,Bitcoin@webitcoins,#bitcoinnews #Crypto “Blockchain” Led Paradigm Shift From Anti-to Pro-Establishment Shocks Bitcoin Com …,0,0,0,False
690,Bitcoin Hourly@bitcoin_hourly,"Price Update: 1 #Bitcoin = $457.3100

#cryptocurrency source http://yhoo.it/1PH2nON (via @Flutter_HQ)",0,0,0,False
691,Crypto@PurePoS, http://cubeminers.com  SHA: 12.96 TH   Scrypt: 96.97 MH   x11: 16.49 MH   #DigiCube #bitcoin #altcoin,0,0,0,False
