,user,text,likes,retweets,replies,is_thread
0,Mark Lee@Steeler1313,"FTRC #futurecoin is now in http://charnawallet.biz #fintech #crypto #banking #trade #emergingmarkets

1",0,0,0,False
1,Mark Lee@Steeler1313,"Hotels can integrate and save millions on fees #fintech #cryptocurrency #fiat #fintech #hotels #paymentsystems http://charnawallet.biz 

M",0,0,0,False
2,Mark Lee@Steeler1313,"Charna coin http://github.com/Charnasol/char … #fintech #projects #farming #trade #crypto #countries #banking #emergingmarkets
2",1,0,0,False
3,Neil Gunther@DrQz,Big picture → #Crypto Wars: How Did Governments Lose Control of Encryption? http://bbc.in/24nuD3I #apple #iphone #FBIvsApple #security,0,0,0,False
4,Ali Güçlü@aliguclu,"CryptoCoinsNews : Bitcoin Price Decline Gradual https://cryptocoinsnews.com/bitcoin-price-decline-still-gradual/… #cryptocurrency … https://twitter.com/CryptoCoinsNews/status/706620023540981760…)Quote TweetCCN - Capital & Celeb News@CapitalAndCeleb · Mar 6, 2016Bitcoin Price Decline Gradual https://cryptocoinsnews.com/bitcoin-price-decline-still-gradual/… #cryptocurrency",0,0,0,False
5,Nevacoin.net $NEVA@nevacoin,Pool is already up and will be ready at launch! https://neva.suprnova.cc #nevacoin #cryptocurrency #bitcoin #altcoin,0,0,0,False
6,Coinfeed@CoinfeedIO,#Bitcoin #Price Reaches $500 - CCN: Financial #Bitcoin & #Cryptocurrency News http://tinyurl.com/ox3rt6w,0,0,0,False
7,BitcoinAgile@bitcoinagile,Dragons Tale  Playing Hide and Seek with #bitcoin #crypto #cryptocurrency #BTC #News http://bitcoinschannel.com/dragons-tale-playing-hide-and-seek-with-bitcoin…,2,0,0,False
8,CCN - Capital & Celeb News@CapitalAndCeleb,Bitcoin Price Decline Gradual https://cryptocoinsnews.com/bitcoin-price-decline-still-gradual/… #cryptocurrency,4,0,0,False
11,Lisk@LiskHQ,"The Lisk Week in Retrospect #5

http://us12.campaign-archive2.com/?u=201693389b5cea4883858163e&id=4fb4974197&e=13d5c1a25f…
#bitcoin #blockchain #cryptocurrency #lisk #dapps #ethereum",13,10,0,False
12,Nevacoin.net $NEVA@nevacoin,Nevacoin will launch monday 7.3.2016  (1457344680 unix time). https://bitcointalk.org/index.php?topic=1388222.0… #nevacoin #Cryptocurrency #bitcoin #altcoin,1,1,0,False
13,MrEggman@Blundertoe,Be first person to redeem the new YobiCode hidden on http://TEKcoin.org  at https://yobit.net/en/yobicodes/   and win 5000 TEKcoins #altcoins,2,1,2,False
14,Cryptotrader Zgz@juanansolis,$VNL Doesn't look bad. It bounced on 61.8 Fibonacci Retracement and continued going up #altcoin #bitcoin,4,2,0,False
15,Bitcoin Hourly@bitcoin_hourly,"Price Update: 1 #Bitcoin = $408.7600

#cryptocurrency source http://yhoo.it/1PH2nON (via @Flutter_HQ)",0,0,0,False
16,BitcoinBuzz vega9@BitcoinBuzzV9,http://bitcoinbuzz.vega9.com - Hot topics: #bitcoin #btc #cryptocurrency #robotcoingame #dogecoin #cbx,0,0,0,False
17,All Things Decentral@btcswag,Replying to @kirkelevra@kirkelevra Thanks Kir! Stay #crypto!,1,0,0,False
18,All Things Decentral@btcswag,Replying to @ErikVoorhees@ErikVoorhees Thanks Erik. Stay #crypto!,0,0,0,False
19,CCN - Capital & Celeb News@CapitalAndCeleb,BTCS Executives Donate Personal Shares to Benefit Consumers’ Research https://cryptocoinsnews.com/btcs-executives-donate-personal-shares-to-benefit-consumers-research/… #cryptocurrency,1,3,0,False
20,David Liam@crazydaveorama,The coming #eYuan - The Nation #cryptocurrency https://shar.es/1CK3E0 via @sharethis,1,0,0,False
21,NewBitcoinBoss@NewBitcoinBoss,FORBES:Today's Must-Reads For Entrepreneurs: Is Bitcoin Collapsing? http://forbes.com/sites/lorenfeldman/2016/03/04/todays-must-reads-for-entrepreneurs-is-bitcoin-collapsing/#f1511a8740cd… #Bitcoin #Cryptocurrency,0,0,0,False
22,FinTech Summary@FinTechSummary,WTF Is The #Blockchain? Part II: How to send #cryptocurrency and keep it safe - Dataconomy http://buff.ly/1QvOaFw #fintech #bitcoinWTF Is The Blockchain? Part II: How to send cryptocurrency and keep it safe - DataconomyWe have already learned the basics of the blockchain cryptocurrencies (like Bicotin) in WTF Is The Blockchain? A Guide for Total Beginners. Cryptocurrencydataconomy.com,4,2,0,False
23,Bleeps@bleeprepeat,Hoping that more #cryptocurrency #altcoins get added to @CoinomiWallet soon!,1,0,0,False
24,Alpha Bitcoiner@bitcoineralpha,"Invest in the future of Biotech and Fintech.
Buy, Trade or Stake #EvoPoints #Cryptocurrency
http://bit.ly/1TeA1mc | $XEV",1,0,0,False
25,Pontus Lindblom@ponli137,Interesting thoughts about #bitcoin dominance #darkmarkets #altcoins @ShapeShift_io https://twitter.com/TobyMerk/status/706003035932078082…This Tweet is unavailable.,0,0,0,False
26,GoBitcoinGo@gobitcoinnews,"#Cryptocurrency is the Evolution of Money
https://youtu.be/EFgcN672KXg",0,0,0,False
27,Michael Wuehler@wuehler,I consider myself in the top 99% of those who grasp what's going on with #Cryptocurrency and I have 3 $ETH stuck in a wallet I can't access,0,0,0,False
28,Bitcoin Hourly@bitcoin_hourly,"Price Update: 1 #Bitcoin = $406.3100

#cryptocurrency source http://yhoo.it/1PH2nON (via @Flutter_HQ)",0,0,0,False
29,sonsofliberty2016@Thefedendsnow,#Phillipines #Muecoin #askastoreaday #Vegas and #MontaryUnit meet in #18b #DTVL #TheArtsFactoryLV #BTM #crypto #deals,0,0,0,False
30,Crypto Yoyo@cryptoyoyo,Sell bitcoins using Western Union with US Dollar (USD) http://bit.ly/1Tk6Y0d #bitcoin #crypto #news,0,0,0,False
31,YDX @YDXMyfriend,"06/03/2016 Weekly #Dividends @ClubNxt http://bit.ly/1QvJMbX
#blockchain #NXT #Asset #crypto #fintech #benefits",6,4,0,False
32,DMD Diamond@dmdcoin,Join DMD Diamond @slack channel today @ https://dmdcoin.signup.team let’s grow the community together! #crypto #blockchain #altcoins,4,3,0,False
33,MA Evergreener@MAEvergreener,"https://summerbtc.com/?ref=hocutoro Hour gain min 0,9% investiment 0.001BTC #bitcoin #btc #gain #investiment #noticias #crypto",1,0,0,False
34,NE Patriots Dynasty@NEPatsDynasty,#trump the future of money is #Crypto The New ILCoin will be a way of online payments and #money http://goldnews.ilgamos.com/buy?buy_type=1,0,0,0,False
35,Julia Vaingurt@julia_vaingurt,"To All #Bitcoin #Btc #Crypto time to diversify your #coins.Quadruple your investment. http://cur.lv/w6urj
 Register FREE",0,0,0,False
36,NE Patriots Dynasty@NEPatsDynasty,To All #Bitcoin #Btc #Crypto time to diversify your #coins.Quadruple your investment. http://ilgamosilcoin.com/home.html Register FREE,1,0,0,False
37,CCN - Capital & Celeb News@CapitalAndCeleb,XBT Provider AB To Expand Bitcoin-Based Investments In Response To Rising https://cryptocoinsnews.com/xbt-provider-ab-expand-bitcoin-based-investments-response-rising-demand-amidst-declining-global-asset-classes/… #cryptocurrency,1,7,0,False
38,Arish Dubash@happyarish,"Bitcoin (btcUSD=x) price on March 06, 2016 is 406.34. #bitcoin #toTheMoon #cryptoCurrency #newMoney",0,0,0,False
39,BigUp!!@BigUpKing,"BIGUP 1 Satoshi ICO!!!

Final hours!!!

https://yobit.net/en/trade/BIGUP/BTC…

Get in while you can!!!

#ico #altcoin #bitcoin
$BIGUP",1,0,0,False
40,HYPER Crypto@HyperCrypto,See ALL $HYPER game servers on the blog: http://hypercrypto.com/blog/2016/03/06/all-hyper-games-servers/… #bitcoin #gaming #BTC #ETH #crypto #fintech #blockchain #CSGO #gamers,4,0,0,False
41,Crypto Yoyo@cryptoyoyo,"First Mac-targeting ransomware hits Transmission users, researchers say http://bit.ly/1Tk3KK4 #bitcoin #crypto #news",0,0,0,False
42,CryptoRSS@CryptoRSS,Amazon Changes Stance on Encryption for Fire Tablets: After killing support for full disk encryption o... http://bit.ly/1YjHX4B #crypto,0,0,0,False
43,Bitcoin_Yin@Bitcoin_Yin,Africa’s Largest Online Market Takes Bitcoin: http://cointelegraph.com/news/africas-largest-online-market-takes-bitcoin… #Bitcoin #cryptocurrency #Africa #payments,1,0,0,False
44,NE Patriots Dynasty@NEPatsDynasty,Gold & #Crypto-Currency in one clever system. Join the Digital Currency Revolution and turn your #PROFITS into GOLD http://dld.bz/dARdH,1,0,0,False
45,NE Patriots Dynasty@NEPatsDynasty,"#Crypto Traders. http://thinkingalpha.com/forum/index.php?qa=1628&qa_1=4-in-1-Trading-Platform-Gold,-Stocks,-Euros,-iLCoins… #Money",1,0,0,False
46,Coin Tiny@CoinTiny,I am looking for people who could help me perform Usability Testing. I offering the same in return. #CryptoCurrency…,0,0,0,False
49,NE Patriots Dynasty@NEPatsDynasty,HERE IT IS. The Next #Crypto #Currency #Bitcoin. It is called #ILCoin Join FREE Today. Click here http://buygold.ilgamos.com/buy?buy_type=1,1,0,0,False
50,Bitcoin Hourly@bitcoin_hourly,"Price Update: 1 #Bitcoin = $406.5300

#cryptocurrency source http://yhoo.it/1PH2nON (via @Flutter_HQ)",0,0,0,False
52,mistak_e@mis_tejk,I am back #altcoins and just bought $DNET :) a lot...we will see.,0,0,0,False
53,Howard Fuhs@Hfuhs,A New Implementation of Shor's #Algorithm Brings Quantum #Hacking Closer http://fuhs.eu/tq9 #crypto #encryption,0,0,0,False
54,Denny McEnroe@McEnroeDenny,Re: DirectBet Basketball Prediction Game *** Win Free Bets ! *** Free to Enter ! http://cur.lv/w6tus #bitcoin #crypto,0,0,0,False
55,Denny McEnroe@McEnroeDenny,"Re: [ANN][ELC] Elastic Coin: A Revolutionary, Crypto-Coin-Driven Computation Cluster http://cur.lv/w6tuq #bitcoin #crypto",0,0,0,False
56,Denny McEnroe@McEnroeDenny,Re: DirectBet Basketball Prediction Game *** Win Free Bets ! *** Free to Enter ! http://cur.lv/w6tup #bitcoin #crypto,0,0,0,False
57,Crypto Yoyo@cryptoyoyo,Sell bitcoins http://bit.ly/1Tk0uyl #bitcoin #crypto #news,0,0,0,False
58,Bean Cash@BeanCash_BEAN,#bitcoin #altcoin #BitBean $BITB reminder we are in 2nd. place voting ends in 11hrs.:  https://cryptopia.co.nz/Home/Voting @BitBeanCoin @BitBean_jp,1,3,2,False
59,rssbtc.com@rssbtc,"24 Hours of #Bitcoin 
+2.02% price $407.11 USD 
-18.78% volume $231.M 
+2.80% market cap $6.37B

#fintech #btc #crypto #usd #satoshi",0,0,0,False
60,Golden Gateway@GoldenGatewayUS,Remember to like us on FB at http://facebook.com/officialgoldengateway… #bitcoin news and #cryptocurrency updates (Want this FREE? >> http://bit.ly/free_tweet_thanks…),0,0,0,False
61,Nasreen Quibria@nquibria,"Bitcoin’s Price Downward Trend was Natural http://ow.ly/3ziBIQ #bitcoin #cryptocurrencyBitcoin’s Price Downward Trend was NaturalThe trend of Bitcoin’s price is heading downward. Will the market continue to decline, or will it turn to growth?cointelegraph.com",0,0,0,False
62,Vindyne8@Vindyne8,$des #Destiny Wants To Change Finance And Cryptography http://fintechist.com/sponsored/destiny-wants-change-finance-cryptography/… via @Fintechist_com #DES $DES #crypto #altcoin #RT,13,12,0,False
63,Crypto Yoyo@cryptoyoyo,Toronto Stock Exchange Hires Anthony Di Iorio For Mystery Blockchain Projects http://bit.ly/1TYcd5G #bitcoin #crypto #news,0,0,0,False
64,crypto_hunter@cryptos07,#Rubies buy now at c-cex yobit livecoin or you will regret :) it will go up to the moon soon #bitcoin #altcoin,1,0,0,False
65,cynthia williams@cawilliams535,"The Future Of Money!!!  Become A Part Of Our Movement... 
http://crowdfund.coinxion.com/projects/coinxion-utility-project/…
#COINXION
#GCRCOIN
#CRYPTOCURRENCYCOINXION Utility ProjectVisit the post for more.crowdfund.coinxion.com",1,1,0,False
66,CryptoTorNews@CryptoTorNews,BitTorrent-Powered ZeroNet Decentralized Web Pioneers Peer-To-Peer Internet http://dlvr.it/KjFVxJ #crypto #bitcoin,0,0,0,False
67,CryptoTorNews@CryptoTorNews,Four Key Disagreements Between Bitcoin Classic and Bitcoin Core http://dlvr.it/KjFVvW #crypto #bitcoin,0,0,0,False
68,CryptoTorNews@CryptoTorNews,MIT Bitcoin Expo Day One Focuses on Technology http://dlvr.it/KjFVs1 #crypto #bitcoin,0,0,0,False
69,Bitcoin Press@BitcoinPressX,BitTorrent-Powered ZeroNet Decentralized Web Pioneers Peer-To-Peer Internet http://dlvr.it/KjFVqZ #crypto #bitcoin,0,0,0,False
78,Bitcoin Press@BitcoinPressX,Four Key Disagreements Between Bitcoin Classic and Bitcoin Core http://dlvr.it/KjFVpH #crypto #bitcoin,0,0,0,False
79,Bitcoin Press@BitcoinPressX,MIT Bitcoin Expo Day One Focuses on Technology http://dlvr.it/KjFVnS #crypto #bitcoin,0,0,0,False
80,Defi@DefiFreakyBoo,"Good night, all good People! 
#defi #defibitch #defifreakyboo https://instagram.com/p/BCn-d8mFJE9/",0,0,0,False
81,Rick Johnson@cryptonewsA1,I got #FREE #Bitcoins from @bitcoin_catcher Faucet > http://bitcoin-catcher.com #bitcoin #cryptocurrency #btc #crypto #freebitcoin #altcoin,1,0,0,False
82,Bitcoin Hourly@bitcoin_hourly,"Price Update: 1 #Bitcoin = $406.7800

#cryptocurrency source http://yhoo.it/1PH2nON (via @Flutter_HQ)",0,0,0,False
83,Coin Tiny@CoinTiny,Ethereum Price Prediction March 6th 2016 Downtrend? #CryptoCurrency #Crypto,0,0,0,False
84,XBTmoney@xbtmoney,This is your last chance to get the 10% bonus @ https://ico.lisk.io #Lisk Ico (9 more hours) @LiskHQ #Cryptocurrency #altcoin #Bitcoin,0,0,0,False
85,CryptoFact@CryptoFact,Destiny Wants To Change Finance And #Cryptography http://fintechist.com/sponsored/destiny-wants-change-finance-cryptography/… via @Fintechist_com #DES $DES #crypto #altcoin - via @jdebunt,3,3,0,False
86,Crypto Yoyo@cryptoyoyo,Rootstock Contests Ethereum for Smart Contracts Domain http://bit.ly/1R1xQ54 #bitcoin #crypto #news,0,0,0,False
87,Crypto Yoyo@cryptoyoyo,Bitcoinside Review http://bit.ly/1YjpsgS #bitcoin #crypto #news,0,0,0,False
88,Team 300FPS ︻╦̵̵̿╤─@300FPSGAMING,Toronto Stock Exchange Hires Anthony Di Iorio For Mystery Blockchain http://btcf.co/1OWRp72 #bitcoin #bitcoinnews #btc #cryptocurrency,1,2,0,False
89,NameBrandAmbassador@TopAmbassador,"@vladuha007 I just got HOOKED UP! http://freecryptofaucets.com
#free #bitcoin #cryptocurrency #freebie #money",0,0,0,False
90,ben en keyendrci@CryptoTradeInfo,We know that #investment causes #growth But it is also true that Growth causes Investment #Bitcoin #Ethereum #Lisk #Maidsafe #Cryptocurrency,3,0,0,False
91,Null TX@nulltxnews,Toronto Stock Exchange Hires Anthony Di Iorio For Mystery Blockchain http://goo.gl/JzLgUf #bitcoin #bitcoinnews #btc #cryptocurrency,3,1,0,False
92,CCN - Capital & Celeb News@CapitalAndCeleb,Cryptocurrency Exchange 247exchange Expands To Canada https://cryptocoinsnews.com/cryptocurrency-exchange-247exchange-expands-canada/… #cryptocurrency,3,6,0,False
93,BTCremix@BTC_remix,#bitcoin #BTC Rootstock Contests Ethereum for Smart Contracts Domain http://cur.lv/w6r8k #cryptocurrency,0,0,0,False
94,BTCremix@BTC_remix,#bitcoin #BTC Ethereum Knocks on Wall Street Doors and Gets in Too! http://cur.lv/w6r8j #cryptocurrency,0,0,0,False
95,Chito Mustapah 7@ChitoRizz,"If Egyptians Can Built The Pyramids Without Machines Technology, WE Also Can Build A Business Without EXCUSES.
#Bitcoin #Cryptocurrency #BTC",0,0,0,False
96,FREE MONEY@FreeBitcoiners,"@Customfit_Shoes I just signed up for a free Bitcoin wallet which paid me $1 for using it - http://goo.gl/HDIs3i
#freebitcoin #altcoin",2,0,0,False
108,Tech BitCoin@tech_bitcoin,"""Rootstock Contests Ethereum for Smart Contracts Domain"" http://ift.tt/eA8V8J #bitcoin #crypto http://ift.tt/1psZQ5b",1,0,0,False
109,CryptoTradeADay@CryptoTradeADay,"Last hours to get 10% More #Lisk, Total development Cash: $923,612,  Get @LiskHQ At https://ico.lisk.io #investing #Cryptocurrency",7,6,0,False
110, Godson_Bitcoin@Mansa_Godson,Pls Crytpo-people where does one acquire the crystal ball with which to predict pumps ? Thanks in advance #BTC #Altcoins,1,2,0,False
111,Bitcoin Hourly@bitcoin_hourly,"Price Update: 1 #Bitcoin = $407.1400

#cryptocurrency source http://yhoo.it/1PH2nON (via @Flutter_HQ)",0,0,0,False
112,LocalDayz@localdayz,#AUR #auroracoin minimumPayment is 10 to cover the tx fees for sending out payments JOIN US on http://pool.laintimes.com #cryptocurrency,0,0,0,False
113,luckied@lulzdotsh,Congrats to @pensely for winning the #2015Turing award! #cyber #crypto #diffiehellman #PKI #cybersecurity http://b.technotic.ca/1npFOXL,3,0,0,False
114,Team 300FPS ︻╦̵̵̿╤─@300FPSGAMING,Bitcoinside Review http://btcf.co/1Ssjgmn #bitcoin #bitcoinnews #btc #cryptocurrency,0,0,0,False
115,Team 300FPS ︻╦̵̵̿╤─@300FPSGAMING,Bitcoinside Review http://btcf.co/1ROadtG #bitcoin #bitcoinnews #btc #cryptocurrency,0,0,0,False
116,Team 300FPS ︻╦̵̵̿╤─@300FPSGAMING,Bitcoinside Review http://btcf.co/1Ssjgmh #bitcoin #bitcoinnews #btc #cryptocurrency,0,0,0,False
117,Chokri AlGhanmi@GhanmiChokri,"#Cryptocurrency #mining

Why choose Eobot?

  Over 369804 users and growing!
 Millions and… https://instagram.com/p/BCa_ZdOu-N3/",1,0,0,False
118,BlockChannel@BlockChannel,BCN News: themerklenews: Bitcoinside Review http://goo.gl/HlhRDH #bitcoin #bitcoinnews #btc #cryptocurrency,0,0,0,False
119,BCB ATM@bcb_atm,"What are the #Advantages and #Disadvantages of #Bitcoin? - http://bit.ly/1TaU0lo
#Finance #Banking #Currency #CryptocurrencyWhat are the Advantages and Disadvantages of Bitcoin? - CoinReportWhat are the Advantages and Disadvantages of Bitcoin? In This featured article we discuss both the pros and the cons of Bitcoin currently and its outlook...coinreport.net",0,0,0,False
120,Ain Tohvri@tekkie,Let's get this box secured! #diffiehelman #crypto,0,0,0,False
121,Crypto Yoyo@cryptoyoyo,The coming eYuan http://bit.ly/1M1uJCt #bitcoin #crypto #news,0,0,0,False
122,Crypto Yoyo@cryptoyoyo,Jaxx Announces New Security Features For Ethereum and Bitcoin Wallet http://bit.ly/1TY4TqK #bitcoin #crypto #news,0,0,0,False
123,Crypto Yoyo@cryptoyoyo,MIT Bitcoin Expo Day One Focuses on Technology http://bit.ly/1M1uHdX #bitcoin #crypto #news,0,0,0,False
124,NE Patriots Dynasty@NEPatsDynasty,#Crypto #Money #WallStreet The Future of Payments and making Money. http://ilgamosilcoin.com/ilgamos-oprs-ilcoins.html… Please SHARE,0,0,0,False
130,Null TX@nulltxnews,Bitcoinside Review http://goo.gl/HlhRDH #bitcoin #bitcoinnews #btc #cryptocurrency,0,0,0,False
132,Citadel Advantage NEWS DIGEST@StanleyEpstein,This Could Kill the World's Most Popular #Cryptocurrency - http://dld.bz/esFcH #bank,0,0,0,False
133,Sam@SamInTampa,Replying to @IOCoin_IOC@IO_Coin I can feel it in the air. What other coin has over 64% staking? $IOC #CountDownToLaunch #Cryptocurrency #blockchain #NoPainNoGain,5,1,0,False
134,Load Debit Card@LoadDebitCard,Bitcoin Faces Another Hurdle That Points to Trouble Ahead http://pastemagazine.com/articles/2016/03/bitcoins-latest-hurdle-is-another-sign-of-its-demi.html… via @pastemagazine #Bitcoin #Btc #Altcoins,0,0,0,False
135,Load Debit Card@LoadDebitCard,Ethereum Debit Card #Ethereum to #debitcard with 40+ #altcoins #bitcoin @ethereumproject http://bit.ly/debitnow,1,0,0,False
136,CCN - Capital & Celeb News@CapitalAndCeleb,Visa Looks for Senior Developer for Virtual Currency & Blockchain Research https://cryptocoinsnews.com/visa-looks-senior-developer-virtual-currency-blockchain-research/… #cryptocurrency,5,15,1,False
137,Coin Tiny@CoinTiny,Cryptocurrency Tech to Advance With These 3 Devices #CryptoCurrency #Crypto,0,0,0,False
138,Coin Tiny@CoinTiny,High gas price is killing [Ethereum] projects #CryptoCurrency #Crypto,0,0,0,False
139,Team 300FPS ︻╦̵̵̿╤─@300FPSGAMING,Jaxx Announces New Security Features For Ethereum and Bitcoin Wallet http://btcf.co/1OWOxqx #bitcoin #bitcoinnews #btc #cryptocurrency,1,0,0,False
140,Brian Yeung Lap-ming@b4brianstorm,Will #cryptocurrency make Hong Kong's financial services sector safer and cheaper? How? http://buff.ly/21RUbnc #FinTech #BitcoinBeyond bitcoin: will Hong Kong ‘disrupt’ and shape the future of finance by embracing blockchain...Beyond bitcoin: will Hong Kong ‘disrupt’ and shape the future of finance by embracing blockchain technology?scmp.com,1,0,0,False
141,Bitcoin Hourly@bitcoin_hourly,"Price Update: 1 #Bitcoin = $407.0900

#cryptocurrency source http://yhoo.it/1PH2nON (via @Flutter_HQ)",0,0,0,False
142,Finance Magnates@financemagnates,Hear out Amanda from @TheDailyDecrypt on this one http://buff.ly/24JGKbh #bitcoin #cryptocurrency,4,1,0,False
143,JanZ@vainZane,"Good reminder also for #bitcoin and #cryptocurrency tradersQuote TweetSteve Burns@SJosephBurns · Mar 6, 2016Trading Plan= 
Lots of Study
A watch-list 
Correct position sizing
Stop losses
Entries
Trailing stops
Price target
Exits 
Journal
Discipline",0,0,0,False
144,Coin Tiny@CoinTiny,[Trigger warning: mETH] High gas price is killing Ethereum projects #CryptoCurrency #Crypto,0,0,0,False
145,Denny McEnroe@McEnroeDenny,Re: http://BCMonster.com Mining Pool  /  Looking for Miners! http://cur.lv/w6p47 #bitcoin #crypto,0,0,0,False
146,Denny McEnroe@McEnroeDenny,Re: [New Thread] Info Signature Campaign | 03 Maret 2016 http://cur.lv/w6p45 #bitcoin #crypto,0,0,0,False
147,Denny McEnroe@McEnroeDenny,Re: Newbie http://cur.lv/w6p44 #bitcoin #crypto,0,0,0,False
148,Denny McEnroe@McEnroeDenny,Re: Summerbliss' Spotify Premium Shop [VOUCHED; $1 EACH][AUTOBUY] http://cur.lv/w6p43 #bitcoin #crypto,0,0,0,False
149,Denny McEnroe@McEnroeDenny,[US3] DarkOrbit Account LVL 19 [25$ bitcoin] http://cur.lv/w6p41 #bitcoin #crypto,0,0,0,False
150,The Crypto World@TheCryptoWorld,LISK : Proof of @Coinbase Vault - http://thecryptoworld.org/lisk-proof-coinbase-vault… - #Altcoin #Bitcoin @LiskHQ #LISK,2,2,0,False
151,Env Science @ITSligo@EnvSc_ITSligo,"Here we go again! #crypto #irishwaterQuote TweetThe Irish Times@IrishTimes · Mar 6, 2016Cryptosporidium identified in Carraroe water supply http://irishtimes.com/news/ireland/irish-news/cryptosporidium-identified-in-carraroe-water-supply-1.2562205?utm_source=dlvr.it&utm_medium=twitter…",1,0,0,False
152,Alex Jiménez@RAlexJimenez,". @EthereumProject Price Can Lead To Major Platform Integration http://themerkle.com/news/ethereum-price-can-lead-to-major-platform-integration/… #cryptocurrency #fintech #inEthereum Price Can Lead To Major Platform IntegrationWhile it's too early to state how a mind shift is happening from Bitcoin to other digital currencies, interesting things are bound to happen over the next few years. Due to the recent Ethereum price ithemerkle.com",5,3,0,False
153,Crypto Yoyo@cryptoyoyo,Bitcoin Faces Another Hurdle That Points to Trouble Ahead http://bit.ly/1R1meyO #bitcoin #crypto #news,0,0,0,False
154,Crypto Yoyo@cryptoyoyo,Bitcoin Ransomware Education – Cryptlock http://bit.ly/1W0OYWP #bitcoin #crypto #news,0,0,0,False
155,Team 300FPS ︻╦̵̵̿╤─@300FPSGAMING,Bitcoin Ransomware Education – Cryptlock http://btcf.co/1Rvipwg #bitcoin #bitcoinnews #btc #cryptocurrency,1,0,0,False
156,Bitcoin Press@BitcoinPressX,Bitcoins Price Downward Trend was Natural http://dlvr.it/KjBrXJ #crypto #bitcoin,0,0,0,False
157,Bitcoin Press@BitcoinPressX,Bitcoin’s Price Downward Trend was Natural http://dlvr.it/KjBrVp #crypto #bitcoin,0,0,0,False
158,Bitcoin Press@BitcoinPressX,Why Bitcoin Startups Have the Right to Innovate http://dlvr.it/KjBrV7 #crypto #bitcoin,0,0,0,False
159,Bitcoin Press@BitcoinPressX,Bitcoin Price Under Pressure http://dlvr.it/KjBrTL #crypto #bitcoin,0,0,0,False
160,Bitcoin Press@BitcoinPressX,Bitcoin Price Under Pressure http://dlvr.it/KjBrRj #crypto #bitcoin,0,0,0,False
161,Bitcoin Press@BitcoinPressX,Africas Largest Online Market Takes Bitcoin http://dlvr.it/KjBrR8 #crypto #bitcoin,0,0,0,False
162,Bitcoin Press@BitcoinPressX,Africa’s Largest Online Market Takes Bitcoin http://dlvr.it/KjBrQ5 #crypto #bitcoin,0,0,0,False
166,Bitcoin Press@BitcoinPressX,Decentralized Apps Key Questions from a UBS Innovation Manager http://dlvr.it/KjBrPT #crypto #bitcoin,0,0,0,False
167,Bitcoin Press@BitcoinPressX,Accessibility Clickjacking Threatens Bitcoin Users On Android http://dlvr.it/KjBrNF #crypto #bitcoin,0,0,0,False
168,CryptoTorNews@CryptoTorNews,Bitcoins Price Downward Trend was Natural http://dlvr.it/KjBr0R #crypto #bitcoin,0,0,0,False
169,CryptoTorNews@CryptoTorNews,Bitcoin’s Price Downward Trend was Natural http://dlvr.it/KjBqwH #crypto #bitcoin,0,0,0,False
170,CryptoTorNews@CryptoTorNews,Why Bitcoin Startups Have the Right to Innovate http://dlvr.it/KjBqt1 #crypto #bitcoin,0,0,0,False
171,CryptoTorNews@CryptoTorNews,Bitcoin Price Under Pressure http://dlvr.it/KjBqrL #crypto #bitcoin,0,0,0,False
172,CryptoTorNews@CryptoTorNews,Bitcoin Price Under Pressure http://dlvr.it/KjBqlz #crypto #bitcoin,0,0,0,False
173,CryptoTorNews@CryptoTorNews,Africas Largest Online Market Takes Bitcoin http://dlvr.it/KjBql0 #crypto #bitcoin,0,0,0,False
174,CryptoTorNews@CryptoTorNews,Africa’s Largest Online Market Takes Bitcoin http://dlvr.it/KjBqgs #crypto #bitcoin,0,0,0,False
175,CryptoTorNews@CryptoTorNews,Decentralized Apps Key Questions from a UBS Innovation Manager http://dlvr.it/KjBqgg #crypto #bitcoin,0,0,0,False
176,CryptoTorNews@CryptoTorNews,Accessibility Clickjacking Threatens Bitcoin Users On Android http://dlvr.it/KjBqfK #crypto #bitcoin,0,0,0,False
177,Howard Fuhs@Hfuhs,A Case Study of Information Stealers: Part III http://fuhs.eu/tpz #crypto #encryption #cybersecurity #infosec #privacy,0,0,0,False
178,FinnoLux@FinnoLux,"Can Trust-Based Private #Blockchains Be Trusted?

http://goo.gl/ZFidf0 #fintech #regtech #cryptocurrency #banking",1,0,0,False
179,Jeffrey C. Johnson@johjeff,Free #altcoin daily with #qoinpro https://qoinpro.com/f9e21e764796c07162121dd681c8258d… #bitcoin #dogecoin #litecoin #legit no spam or anything since signing up.,0,0,0,False
180,Julia Vaingurt@julia_vaingurt,"Why Bitcoin Startups Have the Right to Innovate - http://cur.lv/w6nyu
 | #Bitcoin News #cryptocurrency",1,1,0,False
181,Mooncoin [MOON]@MooncoinItalia,#Mooncoin multicoin web mobile wallet https://coinwallet.co #altcoin #cryptocurrency #blockchain #iot #finance,1,1,0,False
182,FREE MONEY@FreeBitcoiners,"@CentumPress 100% FREE TOP PAYING 'Crypto Faucets & Altcoin Wallets' ALL-IN-ONE PLACE! 
http://freecryptofaucets.com
#freebitcoin #altcoins",1,0,0,False
183,Drunkin Yogi@DrunkinYogi,BitCoin Backup? #Bitcion Could the success of the currency be its death. @joerogan @aantonop #cryptocurrency https://technologyreview.com/s/600941/bitcoin-transactions-get-stranded-as-cryptocurrency-maxes-out/…,1,0,0,False
184,Farah K. Miraza@farahkaifa,#cryptocurrency #crypto Ethereum Knocks on Wall Street Doors and Gets in Too! http://ow.ly/3c7bxd,1,0,0,False
190,Bitcoin Hourly@bitcoin_hourly,"Price Update: 1 #Bitcoin = $407.8000

#cryptocurrency source http://yhoo.it/1PH2nON (via @Flutter_HQ)",0,0,0,False
191,LocalDayz@localdayz,#xmr #monero pool avaible. Use http://pool.laintimes.com for join US. #cryptocurrency,0,0,0,False
192,BlockChannel@BlockChannel,"BCN News: themerklenews: Bitcoin Ransomware Education – Cryptlock http://goo.gl/UuyZzU #bitcoin #bitcoinnews #btc #cryptocurrencyBitcoin Ransomware Education – CryptlockCryptoLocker will always remain the most well-known form of Bitcoin ransomware ever to exist, which resulted in a fair amount of different strains based on this malware. Cryptlock is one of those examthemerkle.com",0,0,0,False
193,NE Patriots Dynasty@NEPatsDynasty,What if? http://ilgamosilcoin.com/ilgamos-ilcoin.html… the power of money.  #Money #HomeBusiness #Trading #crypto Register FREE,0,0,0,False
194,Null TX@nulltxnews,Bitcoin Ransomware Education – Cryptlock http://goo.gl/UuyZzU #bitcoin #bitcoinnews #btc #cryptocurrency,1,0,0,False
195,Cornell Tech@cornell_tech,Getting to know #crypto expert Professor Vitaly Shmatikov: http://ow.ly/YWeij,1,0,0,False
196,Denny McEnroe@McEnroeDenny,When Failful http://cur.lv/w6nf1 #bitcoin #crypto,0,0,0,False
197,Denny McEnroe@McEnroeDenny,Re: [ANN] RibbitRewards - World's first blockchain rewards program [Airdrop is now!] http://cur.lv/w6nf0 #bitcoin #crypto,0,0,0,False
198,Denny McEnroe@McEnroeDenny,Re: Game Of Bitcoins-BTC/DOGE/LTC/DASH Faucet List&Rotator-Only Best Paying Faucets! http://cur.lv/w6ney #bitcoin #crypto,0,0,0,False
199,Denny McEnroe@McEnroeDenny,Epic Ethereum 200 million dollar price collapse a severe warning to investors!!! http://cur.lv/w6new #bitcoin #crypto,0,0,0,False
200,Denny McEnroe@McEnroeDenny,Re: CRYPTSY stopping withdraw locking accounts without notifying users! Class Action http://cur.lv/w6net #bitcoin #crypto,0,0,0,False
201,Rand Hindi@randhindi,"Excellent talk on computing distance securely using #homomorphicEncryption by @mortendahlcs @snips https://youtube.com/watch?v=CtuyLZsd0mE&index=10&list=PL0n_p9YGRhHi9jDb6codB-TocS-mDU2TS… #crypto #privacyHES2015 lightning talk ""Modern crypto and privacy"" by Morten DahlHackito Ergo Sum is an open conference for hacking and security research : http://hackitoergosum.org/Speaker : Morten Dahl from Snipshttp://snips.ai/30th oct...youtube.com",22,16,1,False
202,GoBitcoinGo@gobitcoinnews,"What Napster did  Music,  #cryptocurrency will do the same to #Money 
Time for a change and to wake up ....
https://youtu.be/fJjro9lGlEI",0,0,0,False
203,Crypto Yoyo@cryptoyoyo,Bitcoin Price Under Pressure http://bit.ly/1psQiY1 #bitcoin #crypto #news,1,0,0,False
204,Mooncoin [MOON]@MooncoinItalia,"Replying to @MooncoinItaliaMooncoin (MOON) has been added to @coinwalletco online wallet, POS pool and Twitter tipping service !
https://coinwallet.co #altcoin",1,0,0,False
205,Crypto-Designer@Crypto_Designer,"Controlled demolition of Bitcoin - Yeah right ! The Phoenix will rise again! https://youtu.be/l9y0h327hao #Bitcoin #BTC #cryptocurrency #fintechControlled demolition of Bitcoin - Yeah right !! the Phoenix will...While many view the Bitcoin classic vs. Bitcoin core discussion as nothing more than a technical disagreement, the reality is both camps seem to have fundame...youtube.com",4,0,0,False
206,Mark Lee@Steeler1313,FTRC #futurecoin is now in http://charnawallet.biz #fintech #crypto #banking #trade #emergingmarkets,1,0,0,False
207,Mark Lee@Steeler1313,Charna coin http://github.com/Charnasol/char … #fintech #projects #farming #trade #crypto #countries #banking #emergingmarkets,2,0,0,False
208,Vladimir Budejicky@budejicky,Free and decentralised #Bitcoin and #cryptocurrency event CoinFest  http://ibtimes.co.uk/free-decentralised-bitcoin-cryptocurrency-event-coinfest-hold-manchester-meeting-1546993…,2,0,0,False
209,OpenFXMarket@OpenFXMarket,#altcoin market index (avg): #OFXAVG 138.15 #SHA 45.01 #SCRYPT 96.83 #QUARK 58.46 #X 9.05 #HYBRID 7.8 Stay tuned! #OFX,0,0,0,False
210,Julia Vaingurt@julia_vaingurt,"Dumb Investment Of The Week: Bitcoin Investment Trust -… http://cur.lv/w6m3j
#bitcoin #fintech #btc #crypto http://cur.lv/w6m3l",1,0,0,False
220,Farah K. Miraza@farahkaifa,#cryptocurrency #crypto Core Developers May Spell Bitcoin’s Doom – Brian Armstrong http://ow.ly/3c75pT,0,0,0,False
221,Bitcoin Hourly@bitcoin_hourly,"Price Update: 1 #Bitcoin = $408.5500

#cryptocurrency source http://yhoo.it/1PH2nON (via @Flutter_HQ)",0,0,0,False
222,Team 300FPS ︻╦̵̵̿╤─@300FPSGAMING,Why Bitcoin Startups Have the Right to Innovate http://btcf.co/21PLqgW #bitcoin #bitcoinnews #btc #cryptocurrency,0,0,0,False
224,Denny McEnroe@McEnroeDenny,Re: Looking for The Times 03/Jan/2009 Newspaper to purchase http://cur.lv/w6lmj #bitcoin #crypto,0,0,0,False
225,Denny McEnroe@McEnroeDenny,Re: If bitcoin ever goes mainstream http://cur.lv/w6lmi #bitcoin #crypto,0,0,0,False
226,Denny McEnroe@McEnroeDenny,Re: Offer worth $2.8 ($1.8 from me + $1 from the site) - PointDollars (Paid : $5.4) http://cur.lv/w6lmh #bitcoin #crypto,0,0,0,False
227,Denny McEnroe@McEnroeDenny,Re: Bad time to go long http://cur.lv/w6lmg #bitcoin #crypto,0,0,0,False
228,PaymentComponents@paymentcomp,#Bitcoin #Network Transaction Capacity Maxed Out!!! http://theverge.com/2016/3/2/11146584/bitcoin-core-classic-debate-transaction-limit-crisis?utm_campaign=theverge&utm_content=article&utm_medium=social&utm_source=twitter… @verge #FinTech #FinServ #cryptocurrency,2,3,0,False
229,[sellsunder1mmprohib]CryptoHolmes@CryptoHolmes,Replying to @TheLordofBTC@TheLordofBTC #altcoins 2.5x is like getting #rekt with a whiffle bat.,0,0,0,False
230,CCN - Capital & Celeb News@CapitalAndCeleb,"Fintech Makes Waves In Cash-Based, Largely Unbanked Jordan https://cryptocoinsnews.com/fintech-makes-waves-cash-based-largely-unbanked-jordan/… #cryptocurrency",2,5,0,False
231,Farah K. Miraza@farahkaifa,#cryptocurrency #crypto Bitcoin Price Under Pressure http://ow.ly/3c72To,1,0,0,False
232,Anondran@AnondranCrypto,#Altcoins #Bitcoins Looks like its DUMP MODE for ALTCOINS. SHIELD YOURSELF!!!,0,0,0,False
233,Team 300FPS ︻╦̵̵̿╤─@300FPSGAMING,Bitcoin Price Under Pressure http://btcf.co/1YiFUxQ #bitcoin #bitcoinnews #btc #cryptocurrency,1,0,0,False
240,Crypto Yoyo@cryptoyoyo,Rootstock Aims To Enable Bitcoin Smart Contracts http://bit.ly/1UKelgS #bitcoin #crypto #news,0,0,0,False
241,Crypto Yoyo@cryptoyoyo,"Bitcoin is ""the Slowest, Most Expensive, Least-Developed Currency"" http://bit.ly/1W0y1vs #bitcoin #crypto #news",0,0,0,False
242,Crypto Yoyo@cryptoyoyo,Digital Currency Weekly Recap 3-6-2016 http://bit.ly/1UKel0q #bitcoin #crypto #news,0,0,0,False
243,Crypto Yoyo@cryptoyoyo,Decentralized Apps: Key Questions from a Bank Innovation Director http://bit.ly/1W0y1vm #bitcoin #crypto #news,1,0,0,False
244,Crypto Yoyo@cryptoyoyo,Accessibility Clickjacking Threatens Bitcoin Users On Android http://bit.ly/1UKejFQ #bitcoin #crypto #news,0,0,0,False
245,BCB ATM@bcb_atm,"How do you make #payments with #bitcoin for services? http://bit.ly/1TaTVhw
#Cryptocurrency #Banking #Wallets #Blockchain #ATMHow To Make A BitCoin Payment Using An Online Wallet Servicehttp://www.howtovanish.comHow to make a BitCoin payment using an online wallet service like MyBitcoin.com (failed), Instawallet.org or our current favorite B...youtube.com",0,0,0,False
246,Team 300FPS ︻╦̵̵̿╤─@300FPSGAMING,Rootstock Aims To Enable Bitcoin Smart Contracts http://btcf.co/1p8IvPi #bitcoin #bitcoinnews #btc #cryptocurrency,0,0,0,False
247,PolyCrypto@Polycrypto,"[ANN][LISK] | ICO | Decentralized Application & Sidechain Platform

https://bitcointalk.org/index.php?topic=1346646.0…
#lisk #cryptocurrency",8,7,0,False
248,CryptoRSS@CryptoRSS,Decentralized Apps: Key Questions from a UBS Innovation Manager: UBS's Alex Batlin discusses the futur... http://bit.ly/1Qv134Z #crypto,2,0,0,False
249,Null TX@nulltxnews,"Rootstock Aims To Enable Bitcoin Smart Contracts http://goo.gl/Pz3d0z #bitcoin #bitcoinnews #btc #cryptocurrencyRootstock Aims To Enable Bitcoin Smart ContractsUp until this point, a lot of people assumed smart contracts would not be possible on the Bitcoin blockchain itself. This is part of the reason new projects, such as Ethereum, are gaining a lot of attthemerkle.com",7,5,0,False
250,Farah K. Miraza@farahkaifa,#cryptocurrency #crypto Blockchain Hype Will Translate to Higher Bitcoin Prices http://ow.ly/3c70Ac,1,1,0,False
251,Bitcoin Hourly@bitcoin_hourly,"Price Update: 1 #Bitcoin = $404.9700

#cryptocurrency source http://yhoo.it/1PH2nON (via @Flutter_HQ)",0,0,0,False
252,LocalDayz@localdayz,"#CANN #Cannabiscoin avaible, Join the pool on http://pool.laintimes.com #cryptocurrency",0,0,0,False
253,BitcoinBuzz vega9@BitcoinBuzzV9,http://bitcoinbuzz.vega9.com - Hot topics: #mmmextra #bitcoin #btc #critical #cryptocurrency #robotcoingame,0,0,0,False
254,Jana@Nanobitcoin@NanoBitcoin,Daily Bitcoin News Ticker is out! http://ln.is/paper.li/NanoBitcoin/0U0Ym… #bitcoin #crypto #markets #cryptocurrency #blockchain #EU #FinTech @NanoBitcoin,1,0,0,False
255,Team 300FPS ︻╦̵̵̿╤─@300FPSGAMING,Decentralized Apps: Key Questions from a UBS Innovation Manager http://btcf.co/1X4lAik #bitcoin #bitcoinnews #btc #cryptocurrency,1,0,0,False
256,Denny McEnroe@McEnroeDenny,Re: [ANN] [HIRO] Hirocoin Takeover + New Development + updates! v0.8.8.0 http://cur.lv/w6jvl #bitcoin #crypto,0,0,0,False
265,Denny McEnroe@McEnroeDenny,Re: Why do people keep saying BTC is dead?! http://cur.lv/w6jvi #bitcoin #crypto,0,0,0,False
266,Denny McEnroe@McEnroeDenny,Re: Wall Observer BTC/USD - Bitcoin price movement tracking & discussion http://cur.lv/w6jvh #bitcoin #crypto,0,0,0,False
267,Denny McEnroe@McEnroeDenny,Re: ETH price soaring. Are you going to move some BTC into ETH? http://cur.lv/w6jvg #bitcoin #crypto,0,0,0,False
268,Denny McEnroe@McEnroeDenny,Re: Paying $0.1 worth of BTC for clicking ads 2 days http://cur.lv/w6jvf #bitcoin #crypto,0,0,0,False
269,Team 300FPS ︻╦̵̵̿╤─@300FPSGAMING,Accessibility Clickjacking Threatens Bitcoin Users On Android http://btcf.co/1R18ap4 #bitcoin #bitcoinnews #btc #cryptocurrency,1,0,0,False
270,Bitcoin Press@BitcoinPressX,Accessibility Clickjacking Threatens Bitcoin Users On Android http://dlvr.it/Kj859q #bitcoin #bitcoinnews #crypto,0,0,0,False
271,CryptoTorNews@CryptoTorNews,Accessibility Clickjacking Threatens Bitcoin Users On Android http://dlvr.it/Kj859p #bitcoin #bitcoinnews #crypto,0,0,0,False
272,Born Pitcoin@PornBitcoin,Accessibility Clickjacking Threatens Bitcoin Users On Android http://dlvr.it/Kj859k #bitcoin #bitcoinnews #crypto,0,0,0,False
273,Gabor Venczel@ujtrend,"Arizona Congressman Supports Blockchain 'Revolution' at #cryptocurrency, bitcoin, octacoin, http://webogi.com/YP2gLC",0,0,0,False
274,Family Farm Seaside@FamilyFarmSeasi,RT HyperCrypto New $HYPER game servers competitions go to https://cashncarry.info/servers?Tw9o5 :) #gaming #bitcoin #cryptocurrency https://t.co/ML5N1aOCt,1,0,0,False
275,Family Farm Seaside@FamilyFarmSeasi,RT julia_vaingurt New $HYPER game servers competitions go to http://cur.lv/w6jh9  :) #gaming #bitcoin #cryptocurrency https://t.co/yQ8DQ,1,1,0,False
276,ferthee@ariesarcha,"Earn your FREE #CryptoCurrency here >>> http://ift.tt/1RN6Ftm <<<
Get your #Bitcoin EVERY 5 minutes!",0,0,0,False
277,Julia Vaingurt@julia_vaingurt,"New $HYPER game servers competitions go to http://cur.lv/w6jh9
 :) #gaming #bitcoin #cryptocurrency http://cur.lv/w6jha",2,5,0,False
279,HYPER Crypto@HyperCrypto,New $HYPER game servers competitions go to https://cashncarry.info/servers?Tw9o5 :) #gaming #bitcoin #cryptocurrencyImgurimgur.com,1,6,0,False
280,Anondran@AnondranCrypto,#LessonsLearned #Altcoins go 10-X up when #Bitcoin goes 0.1-X down. #Altsareback,0,0,0,False
281,Bitcoinist.com@bitcoinist,Accessibility Clickjacking Threatens Bitcoin Users On Android http://ift.tt/21f0uyY #bitcoin #blockchain #btc #cryptocurrency #altcoins …,1,2,0,False
282,Crypto Yoyo@cryptoyoyo,Ethereum Knocks on Wall Street Doors and Gets in Too! http://bit.ly/24JEi4N #bitcoin #crypto #news,0,0,0,False
283,Crypto Yoyo@cryptoyoyo,This Turing Complete Platform Aims to Work With Bitcoin http://bit.ly/1oZRMIG #bitcoin #crypto #news,0,0,0,False
284,ferthee@ariesarcha,Earn your FREE #bitcoin EVERY hour here >>> http://ift.tt/1TKc1pU <<< #CryptoCurrency #OnlineMoney #earningonline,0,0,0,False
285,CryptoTorNews@CryptoTorNews,This Turing Complete Platform Aims to Work With Bitcoin http://dlvr.it/Kj7mvg #crypto #bitcoin,0,0,0,False
286,CryptoTorNews@CryptoTorNews,Bitcoin Devs Could Learn a Lot from BSD http://dlvr.it/Kj7mvc #crypto #bitcoin,0,0,0,False
287,Bitcoin Press@BitcoinPressX,This Turing Complete Platform Aims to Work With Bitcoin http://dlvr.it/Kj7mZb #crypto #bitcoin,1,0,0,False
288,Bitcoin Press@BitcoinPressX,Bitcoin Devs Could Learn a Lot from BSD http://dlvr.it/Kj7mYX #crypto #bitcoin,1,0,0,False
289,Developer Angst@developerangst,Why the World Needs Bitcoin http://buff.ly/1XTGFwY #cryptocurrency #bitcoinWhy the World Needs BitcoinA look at the history of Bitcoin and what it means to the world -- A Review of Bitcoin: The Future of Money? by Dominic Frisbydevangst.com,1,0,0,False
290,Coin Tiny@CoinTiny,This Turing Complete Platform Aims to Work With Bitcoin #CryptoCurrency #Crypto,0,0,0,False
291,Coin Tiny@CoinTiny,The next big trend after airbnb and uber #CryptoCurrency #Crypto,0,0,0,False
292,DoomLogic@NutoshiSakamoto,Win 10 #bitcoin from @MinerGate by participating in the API challenge! #developer #cryptocurrency #MinerGateApi https://minergate.com/contest-api,1,0,0,False
293,ILbotCrypto@LbotCrypto,Time to check on #edoncoin's development! http://ow.ly/WbHMN #btc #altcoin #ltc #dogecoin #bitcoin #edoncoin #ltc,0,0,0,False
294,Juan Carlos Ruiloba@juancrui,WeLiveSecurity: #RSA: Can #crypto save your life? https://lnkd.in/eEDQstf #security #privacy https://lnkd.in/e5TZaWQ,0,0,0,False
295,Tech BitCoin@tech_bitcoin,"""Ethereum Knocks on Wall Street Doors and Gets in Too!"" http://ift.tt/1p8BiyL #bitcoin #crypto http://ift.tt/21SFiks",1,0,0,False
296,Bitcoin Hourly@bitcoin_hourly,"Price Update: 1 #Bitcoin = $402.7100

#cryptocurrency source http://yhoo.it/1PH2nON (via @Flutter_HQ)",0,0,0,False
297,XBTFreelancer.com@XBTFreelancer,#bitcoin #earnmoney #programming http://xbtfreelancer.com/prj/978/add-bitcoin-payment-gateway-in-yii… Add bitcoin payment gateway in Yii #btc #crypto,1,0,0,False
298,#bitcoinsulting@bitcoinsulting,"Replying to @metamorphin@metamorphin @europecoinEUORG #altcoins #bittrex #bitcoinyeah Eh RIGHT BUT I WAS LIKE.. 
 https://twitter.com/europecoinEUORG/status/706476009210695680…GIFQuote TweetEUROPECOIN  (.eu.org)@europecoinEUORG · Mar 6, 2016RELEASE TESTED successfull - Compiling WINDOWS is done - Deploying: 90min till Rocketstart #crypto #bittrex #altcoin",5,4,0,False
299,CryptoTorNews@CryptoTorNews,This Turing Complete Platform Aims to Work With Bitcoin http://dlvr.it/Kj79Fz #bitcoin #bitcoinnews #crypto,0,0,0,False
300,Bitcoin Press@BitcoinPressX,This Turing Complete Platform Aims to Work With Bitcoin http://dlvr.it/Kj79Fb #bitcoin #bitcoinnews #crypto,0,0,0,False
301,Born Pitcoin@PornBitcoin,This Turing Complete Platform Aims to Work With Bitcoin http://dlvr.it/Kj79FN #bitcoin #bitcoinnews #crypto,0,0,0,False
302,Julia Vaingurt@julia_vaingurt,"This Turing Complete Platform Aims to Work With Bitcoin http://cur.lv/w6hz8
#bitcoin #bitcoinnews #btc #cryptocurrency",0,0,0,False
303,Team 300FPS ︻╦̵̵̿╤─@300FPSGAMING,This Turing Complete Platform Aims to Work With Bitcoin http://btcf.co/1L95HXq #bitcoin #bitcoinnews #btc #cryptocurrency,1,0,0,False
304,EUROPECOIN  (.eu.org)@europecoinEUORG,RELEASE TESTED successfull - Compiling WINDOWS is done - Deploying: 90min till Rocketstart #crypto #bittrex #altcoin,12,10,2,False
305,Mooncoin [MOON]@MooncoinItalia,There is a 'game changer' technology on Wall Street and people keep confusing it with Bitcoin #altcoin http://uk.businessinsider.com/what-is-blockchain-2016-3?&platform=bi-androidapp%3Fr%3DUS&IR=T…,0,0,0,False
306,ferthee@ariesarcha,#CryptoCurrency You can join as well and collect your #Bitcoin for FREE >>> http://ift.tt/1TKc1pU,0,0,0,False
307,HYPER Crypto@HyperCrypto,Favorite #MMA @jonfitchdotnet #jonfitch is a #crypto #bitcoin $HYPER Supporter  Thanks Jon!  #esports #GoJonFitchImgurimgur.com,2,1,0,False
308,Eric Harris-Braun@zippy314,Important perspectives on #blockchain and #cryptocurrency by @artbrock http://artbrock.com/blog/perspectives-blockchains-and-cryptocurrencies… #ceptr,1,2,0,False
309,Julia Vaingurt@julia_vaingurt,#Bitcoin stretched thin by massive adoption of #blockchain technology? #crypto #cryptocurrency http://cur.lv/w6h65,3,0,0,False
311,BitWaRRior@bitwarriorX,"You might just have something here for #Namecoin, if you check http://btc-e.com ! #btc #altcoins #ethereum https://twitter.com/cointrader11/status/706304674924666881…This Tweet is unavailable.",0,0,0,False
312,Bitcoin Hourly@bitcoin_hourly,"Price Update: 1 #Bitcoin = $402.7800

#cryptocurrency source http://yhoo.it/1PH2nON (via @Flutter_HQ)",0,0,0,False
313,Julia Vaingurt@julia_vaingurt,Writing a #cryptocurrency book for beginners -- what should I include? via /r/Bitcoin http://cur.lv/w6gkn,0,0,0,False
314,Rendra Permana@rendravolt,"Great!!
#bitcoin #lisk #blokchain #dapps #cryptocurrency #fintechQuote TweetLisk@LiskHQ · Mar 6, 20162200 BTC collected. Another 16 hours to get the 10% bonus & become a Lisker.

https://lisk.io/ico
#bitcoin #cryptocurrency #blockchain",4,1,0,False
315,Lisk@LiskHQ,"2200 BTC collected. Another 16 hours to get the 10% bonus & become a Lisker.

https://lisk.io/ico
#bitcoin #cryptocurrency #blockchain",8,9,0,False
316,FREE MONEY@FreeBitcoiners,"@cryptoadviser 100% FREE TOP PAYING 'Crypto Faucets & Altcoin Wallets' ALL-IN-ONE PLACE! 
http://freecryptofaucets.com
#freebitcoin #altcoins",0,0,0,False
317,12Joker18@12Joker18,Here you will find many good mining and sides free bitcoin. http://bitcoins-earn.com #bitcoin #bitcoinmining #freebitcoin #BTC #crypto,0,0,0,False
318,Cryptolized™@Cryptolized,"#rimbit #bitcoin Daimler CEO says digital mapping consortium in expansion talks: ESTORIL, Port... http://bit.ly/21Sw6MY #cryptocurrency",0,0,0,False
319,Cryptolized™@Cryptolized,"#rimbit #bitcoin Daimler CEO says digital mapping consortium in expansion talks: ESTORIL, Port... http://bit.ly/1U3Yt8p #cryptocurrency",0,0,0,False
320,Ruggero Tonelli@ruggerotonelli,ZeroNet: Decentralized websites using #Bitcoin #crypto and the #BitTorrent network http://j.mp/1R0ZuyY #p2p,1,2,0,False
321,Coin Tiny@CoinTiny,Factom Price Rises Sharply on Third-Highest Crypto Volume #CryptoCurrency #Crypto,0,0,0,False
322,NE Patriots Dynasty@NEPatsDynasty,Quadruple your investment.  #Money #stocks #Gold #crypto 4 in 1 trading system for Partners only. http://ilgamosilcoin.com/home.html,0,0,0,False
323,Sleeping Horse #BRG@Hunting_Bitcoin,Claim your free Doge Coin every one hour just at http://freedoge.co.in/?r=314242 claim up to 900k doge coin #faucet #altcoin,0,0,0,False
324,Crypto Yoyo@cryptoyoyo,Core Developers May Spell Bitcoin's Doom – Brian Armstrong http://bit.ly/1oZGHrf #bitcoin #crypto #news,0,0,0,False
325,Crypto Yoyo@cryptoyoyo,Bitcoin Devs Could Learn a Lot from BSD http://bit.ly/1SrMmlE #bitcoin #crypto #news,0,0,0,False
326,CryptoRSS@CryptoRSS,"Jack Bogle And The Extraordinary History Of The Index Mutual Funds: 
Jack Bogle And The Extraordinary ... http://bit.ly/1Tj3xXM #crypto",1,1,0,False
327,coinOK@coinok,Win $150 in Dogecoins every hour! http://freedoge.co.in/?r=98385 #doge #dogecoin #btc #bitcoin #ltc #altcoin #cryptocurrency,0,0,0,False
328,Bitcoin Hourly@bitcoin_hourly,"Price Update: 1 #Bitcoin = $404.5100

#cryptocurrency source http://yhoo.it/1PH2nON (via @Flutter_HQ)",0,0,0,False
329,Altcoinix[KLKS]@Yavuzcetinkaya3,Get your free BigUp per hours 10-20 bigup http://altcoinix.com/bigup-faucet/ #altcoin #bitcoinfaucets #bitcoin #ethereum,0,0,0,False
330,Denny McEnroe@McEnroeDenny,"Re: HEEEELP ME, 2000$ R E W A R D  FOR the right solution timestamp .bak wallet away http://cur.lv/w6e5f #bitcoin #crypto",0,0,0,False
331,Denny McEnroe@McEnroeDenny,Re: Premier League Prediction Thread (EPL) http://cur.lv/w6e5c #bitcoin #crypto,0,0,0,False
332,Denny McEnroe@McEnroeDenny,Re: DirectBet Soccer Prediction Game *** Win Free Bets ! *** Free to Enter ! http://cur.lv/w6e5b #bitcoin #crypto,0,0,0,False
333,Denny McEnroe@McEnroeDenny,Re: [http://BIT-X.com] Earn Bitcoins by Posting | Signature Campaign http://cur.lv/w6e59 #bitcoin #crypto,0,0,0,False
334,BlockChannel@BlockChannel,"BCN News: bitcoinist ""Bitcoin Devs Could Learn a Lot from BSD http://ift.tt/1QWKM5M #bitcoin #blockchain #btc #cryptocurrency #altcoins …",0,0,0,False
335,Bitcoinist.com@bitcoinist,Bitcoin Devs Could Learn a Lot from BSD http://ift.tt/1QWKM5M #bitcoin #blockchain #btc #cryptocurrency #altcoins #money #freebitcoin,2,2,0,False
336,Wheel of Doge@WheelofDoge,"WIN! #dogecoin - Lots and lots of #dogecoin
http://wheelofdoge.com
#bitcoin #altcoins #eth #maidsafe #moneroGIF",0,0,0,False
346,OpenLedger@OpenLedgerDC,@financemagnates Get paid to #blog and raise awareness of #crypto in any language! @BTCTN https://forum.bitcoin.com/viewtopic.php?p=18411#p18411… … #OpenLedger #investingGet paid to blog and raise awareness of crypto in any language!Is getting paid for blogging the new trend to socialmedia brand awareness for the entire crypto ecosystems? An incentives programme for new writers has just seen 11 BTC worth of...forum.bitcoin.com,1,0,0,False
347,NE Patriots Dynasty@NEPatsDynasty,Great Blog on #crypto #cryptocurrency Click http://juddbagley.io/bitcoin/blockchain/nasdaq-is-joining-the-blockchain-trading-party/… SHARE,2,0,0,False
348,฿€₳₹₫ @BeardDroid,Another #altcoin heading to the moon $SJCX,0,0,0,False
349,Bitcoin Press@BitcoinPressX,Bitcoin Devs Could Learn a Lot from BSD http://dlvr.it/Kj4WSX #bitcoin #bitcoinnews #crypto,0,0,0,False
350,CryptoTorNews@CryptoTorNews,Bitcoin Devs Could Learn a Lot from BSD http://dlvr.it/Kj4WSW #bitcoin #bitcoinnews #crypto,0,0,0,False
351,Born Pitcoin@PornBitcoin,Bitcoin Devs Could Learn a Lot from BSD http://dlvr.it/Kj4WSS #bitcoin #bitcoinnews #crypto,0,0,0,False
352,Crypto Yoyo@cryptoyoyo,Being Held for Bitcoin Ransom http://bit.ly/21Sn8Q6 #bitcoin #crypto #news,0,0,0,False
353,Edgar Allen Purr@EdgarAllenPurr,"More #BTC means more #altcoins. More altcoins means more fun! 

#BTC #Bitcoin #Blockchain",1,0,0,False
354,Zenzo L@ZenzoLusengo,This Could Kill the World’s Most Popular #Cryptocurrency via @FortuneMagazine http://for.tn/21a08cX?xid=for_tw_sh… #bitcoin #blockchain #fintech,1,1,0,False
359,Team 300FPS ︻╦̵̵̿╤─@300FPSGAMING,Bitcoin Devs Could Learn a Lot from BSD http://btcf.co/1p8pz39 #bitcoin #bitcoinnews #btc #cryptocurrency,0,0,0,False
360,NE Patriots Dynasty@NEPatsDynasty,#ILGamos and their NEW #ILCoin. 4 in 1 Trading platform. Stock up 35%.  http://INVEST.ilgamos.com/buy?buy_type=1 #Crypto #Nasdaq #ETRADE,0,0,0,False
361,OpenFXMarket@OpenFXMarket,#bitcoin market index: 102.46 #OFXBTC. #altcoin market index (avg): 138.15 #OFXAVG by http://openfxmarket.com. Stay tuned!,0,0,0,False
362,OpenLedger@OpenLedgerDC,"#OBITS not only a token + #cryptocurrency but also a market marker re. potential markets - Ronny Boesing, CEO #CCEDKBitcoin Exchange 'Ramps-Up' OBITS Cryptocurrency Profits For Future BuybackThe cryptocurrency exchange behind the recently launched OBITS currency initiative, CCEDK, is increasing the future payouts derived from profits and fees generated through user registrations on...forbes.com",1,0,0,False
363,Bitcoin Hourly@bitcoin_hourly,"Price Update: 1 #Bitcoin = $405.1700

#cryptocurrency source http://yhoo.it/1PH2nON (via @Flutter_HQ)",0,0,0,False
364,LocalDayz@localdayz,#auroracoin Download wallet https://github.com/aurarad/auroracoin… and Join the pool on http://pool.laintimes.com #cryptocurrencyaurarad/AuroracoinCurrent Auroracoin source tree. Contribute to aurarad/Auroracoin development by creating an account on GitHub.github.com,0,0,0,False
365,Gabor Venczel@ujtrend,"Bitcoin Price Dips Closer to $400 Following Network #cryptocurrency, bitcoin, octacoin, http://webogi.com/3-qnsK",0,0,0,False
366,Team 300FPS ︻╦̵̵̿╤─@300FPSGAMING,Are Coinbase User Identity Guidelines A Systemic Risk For Bitcoin? http://btcf.co/1noZFGB #bitcoin #bitcoinnews #btc #cryptocurrency,0,0,0,False
368,Gabor Venczel@ujtrend,"Why Bitcoin is Not the Root Cause of Ransomware #cryptocurrency, bitcoin, octacoin, http://webogi.com/jxHzGW",0,0,0,False
369,Gabor Venczel@ujtrend,"Why Bitcoin is Not the Root Cause of Ransomware #cryptocurrency, bitcoin, octacoin, http://webogi.com/2PXpFB",0,0,0,False
370,Crypto Yoyo@cryptoyoyo,Are Coinbase User Identity Guidelines A Systemic Risk For Bitcoin? http://bit.ly/1oZxmQ1 #bitcoin #crypto #news,0,0,0,False
371,Crypto Yoyo@cryptoyoyo,First Global Credit Adds Commodity Futures for Bitcoin Margin Traders http://bit.ly/1TXxyMN #bitcoin #crypto #news,0,0,0,False
372,Crypto Yoyo@cryptoyoyo,VC Greed Will Destroy Bitcoin From Within http://bit.ly/1oZxoHJ #bitcoin #crypto #news,0,0,0,False
373,Crypto Yoyo@cryptoyoyo,Mobile Bitcoin Startup Zebpay Releases New Set of Features for Pro Bitcoiners http://bit.ly/1TXxyMH #bitcoin #crypto #news,2,1,0,False
374,HYPER Crypto@HyperCrypto,We now have a rock solid foundation & team and 2016 $HYPER is going to be huge. #indiedev #indiegamer #gamerdev #cryptocurrency #bitcoin,3,0,0,False
382,Bitcoin Hourly@bitcoin_hourly,"Price Update: 1 #Bitcoin = $403.8300

#cryptocurrency source http://yhoo.it/1PH2nON (via @Flutter_HQ)",0,0,0,False
383,XBTFreelancer.com@XBTFreelancer,"Creating an e-commerce website to sell my book, videos and blog/vlog #jobs #crypto #programming http://xbtfreelancer.com/prj/979/creating-an-e-commerce-website-to-sell-my-book-videos-and-blog-vlog… #bitcoin",0,0,0,False
384,Null TX@nulltxnews,"Are Coinbase User Identity Guidelines A Systemic Risk For Bitcoin? http://goo.gl/FCMkfN #bitcoin #bitcoinnews #btc #cryptocurrencyAre Coinbase User Identity Guidelines A Systemic Risk For Bitcoin?It is never hard to find a good debate on the Bitcoin subreddits, although some of them are taking things a bit too far regarding imagination. A lot of people are still taking offense to the fact Bitcthemerkle.com",1,2,0,False
385,International CCC@Int_CCC,Today's Crypto Chronicle! News about #bitcoin #cryptocurrency and more! http://paper.li/Int_CCC/1409392381?edition_id=4aaf0aa0-e381-11e5-8274-002590a5ba2d…,0,0,0,False
386,Julia Vaingurt@julia_vaingurt,"The #WAVE is coming. and it's gonna be BIG. http://cur.lv/w6ane
#Bitcoin #BTC #crypto",0,0,0,False
387,Julia Vaingurt@julia_vaingurt,"VC Greed Will Destroy #bitcoin From Within - NEWSBTC #blockchain #news #crypto #funding #vc http://cur.lv/w6ajx
http://cur.lv/w6ajz",1,0,0,False
388,BitcoinAgile@bitcoinagile,VC Greed Will Destroy #bitcoin From Within - NEWSBTC #blockchain #news #crypto #funding #vc http://bit.ly/21P7bgZ,1,0,0,False
389,Crypto Yoyo@cryptoyoyo,Bitcoin Price Weekly Analysis – Under Heavy Selling Pressure http://bit.ly/1RuW020 #bitcoin #crypto #news,0,0,0,False
390,daniel mores@danielmores27,Accept Bitcoin and other crypto in your online store with CoinPayments https://coinpayments.net/index.php?ref=c96ece8a4c16ff2024e802827d602188… #bitcoin #altcoins #CoinPayments,0,0,0,False
391,Julia Vaingurt@julia_vaingurt,"Bitcoin Price Weekly Analysis – Under Heavy Selling Pressure http://cur.lv/w6a8q
http://cur.lv/w6a8r
#Bitcoin #Crypto",0,0,0,False
392,woolsim@woolsim,Replying to @TheCryptroll@TheCryptroll @Poloniex wow sim almost a million dollar profit day. Altcoin exchange now worth a bil $. #altcoins are srs business. Grats,0,0,0,False
393,bad websites@badwebsites,"SHA-1 collision in next few months
https://reddit.com/r/crypto/comments/4957w9/adi_shamir_sha1_collision_in_next_few_months/…
#crypto",0,0,0,False
394,HYPER Crypto@HyperCrypto,Favorite #MMA @jonfitchdotnet #jonfitch is a #crypto #bitcoin $HYPER Supporter  Thanks Jon!  #esports #GoJonFitchImgurimgur.com,3,0,0,False
395,CryptoRSS@CryptoRSS,"Bitcoin Price Weekly Analysis – Under Heavy Selling Pressure: Key Points
Bitcoin price continued to su... http://bit.ly/1U3zIsU #crypto",0,0,0,False
396,Anondran@AnondranCrypto,Cryptocoins are like the Bubbles bursting in a pot of Boiling water. Trade them Wisely. #Altcoins #Bitcoin #Fintech,2,0,0,False
397,OpenLedger@OpenLedgerDC,#Qora 2.0 #cryptocurrency traded on #CCEDK in Qora-CNY https://ccedk.com/qora-cny Good time to buy @CryptoOz BTC/CNY instant order available!,0,0,0,False
398,Bitcoin Hourly@bitcoin_hourly,"Price Update: 1 #Bitcoin = $398.9500

#cryptocurrency source http://yhoo.it/1PH2nON (via @Flutter_HQ)",0,0,0,False
409,Denny McEnroe@McEnroeDenny,Re: [http://BIT-X.com] Earn Bitcoins by Posting | Signature Campaign http://cur.lv/w68u0 #bitcoin #crypto,0,0,0,False
410,Denny McEnroe@McEnroeDenny,"Re: Ethereum price through the roof, will it keep rising? http://cur.lv/w68tv #bitcoin #crypto",1,0,0,False
411,Denny McEnroe@McEnroeDenny,Re: Italian League Prediction Thread (Serie A) http://cur.lv/w68tu #bitcoin #crypto,0,0,0,False
412,UberPay BTC Wallet@uberwallet,UNO added to UberPay Multicoin wallet for Android - https://cryptocointalk.com/topic/45213-uno-added-to-uberpay-multicoin-wallet-for-android/?p=209719… #altcoin via @cryptocointalk,2,3,0,False
413,G2020  ✪@sv_frontier,"@BittrexExchange @richiela funny @HOdlcoin serious development. ;)) check how PRO those builds are!!! $nuts #altcoinQuote TweetHOdlcoin@HOdlcoin · Mar 6, 2016https://github.com/HOdlcoin/HOdlcoin/releases/tag/v1.0.0… Releases for Windows, OSX and Linux. 8% hashing improvement on Win64 vs Old Win32 release. @bittrex @poloniex",2,0,0,False
414,Julia Vaingurt@julia_vaingurt,"Are you tired of risking and losing money? http://cur.lv/w68ge
#bitcoin #litecoin #dogecoin #Cryptocurrency #Webmoney",0,0,0,False
415,Anondran@AnondranCrypto,"Wanna get CRYPTORICH? Get a huge loan. Diversify on Altcoins.Buy,Hodl,Wait, Sell. KABOOM. Retirement  this year #bitcoin #ethereum #altcoins",1,0,0,False
416,ferthee@ariesarcha,#CryptoCurrency RT @CryptoPressNews: $BTC Current price of Bitcoin is $400.99 #bitcoin,1,0,0,False
418,Bitcoin Hourly@bitcoin_hourly,"Price Update: 1 #Bitcoin = $399.2000

#cryptocurrency source http://yhoo.it/1PH2nON (via @Flutter_HQ)",0,0,0,False
419,BitcoinBuzz vega9@BitcoinBuzzV9,http://bitcoinbuzz.vega9.com - Hot topics: #monstercoingame #bitcoin #btc #cryptocurrency #mmmextra #fintech,1,0,0,False
420,Dragonly@jamalaezaz,"Following #Crypto Related Accounts.
#follow me I will follow you

#bitcoin #btc #gambling #mining #litcoin #dogecoin #money #Bitcoinfree",3,0,0,False
421,Alvin Moon   @onemanatatime,"Amazing #bitcoin & #altcoin insight, and trading recommendations for buys and sells, all for free: https://twitter.com/onemanatatime/lists/altcoin-wizards… #FF",3,0,0,False
422,FinTech Summary@FinTechSummary,#Blockchain and how it will change everything http://buff.ly/21LcqLa #FiNtech #Cryptocurrency #Bitcoin,6,6,0,False
423,Denny McEnroe@McEnroeDenny,Cheap Netherlands Hosting | Wordpress Hosting | $12/Year - http://Prewebhost.com! http://cur.lv/w67af #bitcoin #crypto,0,0,0,False
424,Denny McEnroe@McEnroeDenny,Re: Canada Taxing Bitcoin Transactions http://cur.lv/w67ad #bitcoin #crypto,0,0,0,False
425,BitcoinAgile@bitcoinagile,#ethereum Price Weekly Analysis  Uptrend Remains Intact - NEWSBTC #bitcoin #news #crypto http://bit.ly/21S1vPU,2,1,0,False
435,PinkMona@pinkmona_org,#bitcoin #altcoin #dogecoin Let's Hentai! Come on PinkMona!→http://pinkmona.org,0,0,0,False
436,CryptoRSS@CryptoRSS,Can Trust-Based Private Blockchains Be Trusted?: Researcher Bob Wolinsky looks at the challenges facin... http://bit.ly/1TAoHkr #crypto,0,0,0,False
437,Julia Vaingurt@julia_vaingurt,"http://cur.lv/w66ck
 - Hot topics: #monstercoingame #bitcoin #btc #mmmextra #cryptocurrency #mmmglobal",0,0,0,False
438,BitcoinBuzz vega9@BitcoinBuzzV9,http://bitcoinbuzz.vega9.com - Hot topics: #monstercoingame #bitcoin #btc #mmmextra #cryptocurrency #mmmglobal,0,0,0,False
439,Bob Bobert@Bob_Helensburgh,"Japanese Govt to Officially Recognize BTC as Real Money http://goo.gl/b9Osx8 Good news? No, they can tax now! #altcoins @rimbit #rimbit",0,0,0,False
440,CNXL.STUDIO@CNXLstudio,"FOR MUSICIANS, SINGERS, DJ AND PRODUCERS
#cryptocurrency #easymoney #best #casino #millionaire #mlm #luxury #bitcoin",1,0,0,False
441,Denny McEnroe@McEnroeDenny,Re: [ANN][HAWK] Project Hawk | Sha256d | POW/POS | LAUNCHED! http://cur.lv/w65h7 #bitcoin #crypto,0,0,0,False
442,Denny McEnroe@McEnroeDenny,Re: Looking for a facebook group with a large amount of members http://cur.lv/w65h6 #bitcoin #crypto,0,0,0,False
443,Denny McEnroe@McEnroeDenny,"Bitcoin has 1st downward difficulty adjustment since June '15, Hashrate Stabile http://cur.lv/w65h5 #bitcoin #crypto",0,0,0,False
444,Denny McEnroe@McEnroeDenny,Re: An opportunity to change your life with Forex!!! http://cur.lv/w65h3 #bitcoin #crypto,0,0,0,False
445,Bitcoin Hourly@bitcoin_hourly,"Price Update: 1 #Bitcoin = $397.5600

#cryptocurrency source http://yhoo.it/1PH2nON (via @Flutter_HQ)",0,0,0,False
446,BitcoinBuzz vega9@BitcoinBuzzV9,http://bitcoinbuzz.vega9.com - Hot topics: #bitcoin #mmmextra #btc #mmmglobal #crypto #monstercoingame,0,0,0,False
447,Crypto Yoyo@cryptoyoyo,bitcoin http://bit.ly/1RNNduU #bitcoin #crypto #news,1,0,0,False
448,Julia Vaingurt@julia_vaingurt,"Bitcoin Price Bearish After Network Hiccups - http://cur.lv/w63qi
http://cur.lv/w63qn
#altcoin",0,0,0,False
449,Fintech Prowler@FintechProwler,Bitcoin Price Bearish After Network Hiccups - http://Bitcoinist.net http://ift.tt/1U3ez23 #altcoin,0,0,0,False
450,NE Patriots Dynasty@NEPatsDynasty,The New #money system #crypto #Ilcoin #ilgamos #Bitcoin http://ilgamosilcoin.com/ilgamos-oprs-ilcoins.html… future online payment system,0,0,0,False
451,Denny McEnroe@McEnroeDenny,Re: Bitcoin without Altcoin ? http://cur.lv/w63oi #bitcoin #crypto,0,0,0,False
452,Denny McEnroe@McEnroeDenny,"Re: Bitcoin API and Settlement to PayPal, Bank, WesternUnion, MoneyGram, etc. http://cur.lv/w63oh #bitcoin #crypto",0,0,0,False
453,Denny McEnroe@McEnroeDenny,Re: How to motivate women to use Bitcoin? http://cur.lv/w63og #bitcoin #crypto,0,0,0,False
454,Denny McEnroe@McEnroeDenny,Re: WARNING: crypto-currencies are very likely going to experience a crash soon http://cur.lv/w63of #bitcoin #crypto,0,0,0,False
470,VentureCanvas@venturecanvas,Free and decentralised #Bitcoin and #cryptocurrency event CoinFest  http://ibtimes.co.uk/free-decentralised-bitcoin-cryptocurrency-event-coinfest-hold-manchester-meeting-1546993…,0,0,0,False
471,OpenLedger@OpenLedgerDC,"#Qora - An exciting comeback with #socialnetwork, blogs  and decentralized web - It is the Phoenix of #crypto http://forbes.com/sites/rogeraitken/2015/08/07/cryptocurrency-nextgen-qora-reloads-wit…",0,0,0,False
472,Gabor Venczel@ujtrend,"Japan Proposes Definition for Bitcoin in Bid to Regulate #cryptocurrency, bitcoin, octacoin, http://webogi.com/FD4Z3r",0,0,0,False
473,Bitcoin Hourly@bitcoin_hourly,"Price Update: 1 #Bitcoin = $397.6200

#cryptocurrency source http://yhoo.it/1PH2nON (via @Flutter_HQ)",0,0,0,False
474,BitcoinBuzz vega9@BitcoinBuzzV9,http://bitcoinbuzz.vega9.com - Hot topics: #bitcoin #mmmextra #btc #mmmglobal #crypto #cryptocurrency,2,1,0,False
475,Crypto Yoyo@cryptoyoyo,HYPR brings biometrics to BitGo Bitcoin wallets http://bit.ly/1noCb4e #bitcoin #crypto #news,0,0,0,False
476,BitcoinAgile@bitcoinagile,Dogecoin Price Weekly Analysis  Can Buyers Make It? - NEWSBTC #bitcoin #news #crypto http://newsbtc.com/2016/03/06/dogecoin-price-weekly-analysis-can-buyers-make-it…,1,0,0,False
477,Denny McEnroe@McEnroeDenny,WTB: Google Voice phone number http://cur.lv/w620f #bitcoin #crypto,1,0,0,False
478,Denny McEnroe@McEnroeDenny,"Re: Selling Lifetime account $2 nfl,hulu,Netflix,Spotify,WWE Much More taking pp http://cur.lv/w620c #bitcoin #crypto",1,0,0,False
484,Denny McEnroe@McEnroeDenny,Re: What do you do with your idle coins? http://cur.lv/w620b #bitcoin #crypto,1,0,0,False
485,Denny McEnroe@McEnroeDenny,"Re: [ANN] WildBeastBitcoin [WBB] on http://1ex.trade, no PREMINE, Honest ! - the wild one http://cur.lv/w620a #bitcoin #crypto",1,0,0,False
486,Denny McEnroe@McEnroeDenny,Re: Welcome To The Blockchain http://cur.lv/w6209 #bitcoin #crypto,2,0,0,False
488,CryptoRSS@CryptoRSS,"Toronto Stock Exchange Explores Blockchain Technology, Appoints CDO: The use of bitcoin’s underlying t... http://bit.ly/1Yh60kK #crypto",1,0,0,False
489,Bitcoin Hourly@bitcoin_hourly,"Price Update: 1 #Bitcoin = $395.9000

#cryptocurrency source http://yhoo.it/1PH2nON (via @Flutter_HQ)",0,0,0,False
490,XBTFreelancer.com@XBTFreelancer,Add bitcoin payment gateway in Yii #freelance #workfromhome #bitcoin #xbt #cryptocurrency http://xbtfreelancer.com/prj/978/add-bitcoin-payment-gateway-in-yii… #programming,1,0,0,False
491,BitcoinBuzz vega9@BitcoinBuzzV9,http://bitcoinbuzz.vega9.com - Hot topics: #mmmglobal #bitcoin #mmmextra #btc #crypto #bitlive,0,0,0,False
