,user,text,likes,retweets,replies,is_thread
0,Michael McGinn@waptug,Bitcoin Price Stable After The Halving http://bit.ly/29wDspl #bitcoin #crypto #news #waptug 01164 #waptug 02176 #waptug 03503,0,0,0,False
1,Michael McGinn@waptug,Bitcoin Price Stable After The Halving http://bit.ly/29wDspl #bitcoin #crypto #news #waptug 01164 #waptug 02176,0,0,0,False
2,Michael McGinn@waptug,Bitcoin Price Stable After The Halving http://bit.ly/29wDspl #bitcoin #crypto #news #waptug 01164,0,0,0,False
3,Crypto Yoyo@cryptoyoyo,Bitcoin Price Stable After The Halving http://bit.ly/29wDspl #bitcoin #crypto #news,0,0,0,False
4,Julia Vaingurt@julia_vaingurt,"Bitcoin Price Post-Halving Calm - CryptoCoinsNews ➤ http://cur.lv/10d0my
 | #bitcoin #crypto #waptug 43389 #waptug 43831 #waptug 44271",0,0,0,False
5,Michael McGinn@waptug,Bitcoin Price Post-Halving Calm - CryptoCoinsNews ➤ http://bit.ly/29rwBIU | #bitcoin #crypto #waptug 43389 #waptug 43831 #waptug 44271,0,0,0,False
6,Michael McGinn@waptug,Bitcoin Drifts Lower After Technical Milestone - Wall Street Journal ➤ http://bit.ly/29qjJXf | #bitcoin #crypto #waptug 44086,0,0,0,False
7,Michael McGinn@waptug,Bitcoin Price Post-Halving Calm - CryptoCoinsNews ➤ http://bit.ly/29rwBIU | #bitcoin #crypto #waptug 43389 #waptug 43831,0,0,0,False
8,Michael McGinn@waptug,Bitcoin Scam Site Warning – Coince - The Merkle ➤ http://bit.ly/29qjICA | #bitcoin #crypto #waptug 42660 #waptug 43113 #waptug 43574,0,0,0,False
9,Michael McGinn@waptug,Bitcoin Price Post-Halving Calm - CryptoCoinsNews ➤ http://bit.ly/29rwBIU | #bitcoin #crypto #waptug 43389,0,0,0,False
10,Michael McGinn@waptug,Bitcoin Scam Site Warning – Coince - The Merkle ➤ http://bit.ly/29qjICA | #bitcoin #crypto #waptug 42660 #waptug 43113,0,0,0,False
11,Michael McGinn@waptug,Bitcoin Scam Site Warning – Coince - The Merkle ➤ http://bit.ly/29qjICA | #bitcoin #crypto #waptug 42660,0,0,0,False
12,Michael McGinn@waptug,Law Enforcement Still Monitors Bitcoin To Arrest Deep Web Users - newsBTC ➤ http://bit.ly/29rwDk0 | #bitcoin #crypto #waptug 41921,0,0,0,False
13,Michael McGinn@waptug,Artist Captures Bitcoin's History And Uniqueness - CryptoCoinsNews ➤ http://bit.ly/29rwoW4 | #bitcoin #crypto #waptug 40780 #waptug 41263,0,0,0,False
14,Michael McGinn@waptug,Artist Captures Bitcoin's History And Uniqueness - CryptoCoinsNews ➤ http://bit.ly/29rwoW4 | #bitcoin #crypto #waptug 40780,0,0,0,False
15,Michael McGinn@waptug,Price Report: Bitcoin is Dominating Argentina - http://Bitcoinist.net ➤ http://bit.ly/29qjP0R | #bitcoin #crypto #waptug 40165,0,0,0,False
16,Michael McGinn@waptug,Bitcoin Price Weekly Analysis – Can BTC/USD Break Higher? - newsBTC ➤ http://bit.ly/29rwugI | #bitcoin #crypto #waptug 39331 #waptug 39912,0,0,0,False
17,Michael McGinn@waptug,Bitcoin Price Weekly Analysis – Can BTC/USD Break Higher? - newsBTC ➤ http://bit.ly/29rwugI | #bitcoin #crypto #waptug 39331,0,0,0,False
18,Michael McGinn@waptug,Bitcoin Price Drops 5% Immediately Following 'Halving' - Fortune ➤ http://bit.ly/29qk24x | #bitcoin #crypto #waptug 38717 #waptug 39220,0,0,0,False
19,Michael McGinn@waptug,The CoinDesk Guide to Bitcoin Halving Parties - CoinDesk ➤ http://bit.ly/29rwrkZ | #bitcoin #crypto #waptug 37227 #waptug 39028,0,0,0,False
24,Michael McGinn@waptug,Bitcoin Price Drops 5% Immediately Following 'Halving' - Fortune ➤ http://bit.ly/29qk24x | #bitcoin #crypto #waptug 38717,0,0,0,False
25,Michael McGinn@waptug,The CoinDesk Guide to Bitcoin Halving Parties - CoinDesk ➤ http://bit.ly/29rwrkZ | #bitcoin #crypto #waptug 37227,0,0,0,False
26,Social Media Experts@SocialNorfolk,#Start using #cryptocurrency with us right now! #fast #deposits #security #trade #bitcoin #join #Free #Learn more >> https://goo.gl/5lrSpC,0,0,0,False
27,Michael McGinn@waptug,Bitcoin Drifts Lower After Technical Milestone - Wall Street Journal ➤ http://bit.ly/29zLwUK | #bitcoin #crypto #Anonymous #waptug 37192,0,0,0,False
28,Michael McGinn@waptug,Bitcoin Price Post-Halving Calm - CryptoCoinsNews ➤ http://bit.ly/29wuROp | #bitcoin #crypto #Anonymous #waptug 36397 #waptug 36803,0,0,0,False
29,Michael McGinn@waptug,Bitcoin Price Post-Halving Calm - CryptoCoinsNews ➤ http://bit.ly/29wuROp | #bitcoin #crypto #Anonymous #waptug 36397,0,0,0,False
30,Michael McGinn@waptug,Bitcoin Scam Site Warning – Coince - The Merkle ➤ http://bit.ly/29zM8ty | #bitcoin #crypto #Anonymous #waptug 35567 #waptug 36034,0,0,0,False
31,Michael McGinn@waptug,Bitcoin Scam Site Warning – Coince - The Merkle ➤ http://bit.ly/29zM8ty | #bitcoin #crypto #Anonymous #waptug 35567,0,0,0,False
32,Michael McGinn@waptug,Artist Captures Bitcoin's History And Uniqueness - CryptoCoinsNews ➤ http://bit.ly/29wvdUW | #bitcoin #crypto #Anonymous #waptug 33076,0,0,0,False
33,Michael McGinn@waptug,Bitcoin Price Weekly Analysis – Can BTC/USD Break Higher? - newsBTC ➤ http://bit.ly/29wuUcU | #bitcoin #crypto #Anonymous #waptug 31667,0,0,0,False
34,Michael McGinn@waptug,Bitcoin Price Drops 5% Immediately Following 'Halving' - Fortune ➤ http://bit.ly/29zLbBH | #bitcoin #crypto #Anonymous #waptug 30557,0,0,0,False
35,Michael McGinn@waptug,The CoinDesk Guide to Bitcoin Halving Parties - CoinDesk ➤ http://bit.ly/29wv7wz | #bitcoin #crypto #Anonymous #waptug 29086 #waptug 29536The CoinDesk Guide to Bitcoin Halving Parties - CoinDeskBitcoin groups around the world are gathering to celebrate the halving of the bitcoin mining reward. Here's six locations where bitcoin news is breaking.coindesk.com,0,0,0,False
36,Michael McGinn@waptug,The CoinDesk Guide to Bitcoin Halving Parties - CoinDesk ➤ http://bit.ly/29wv7wz | #bitcoin #crypto #Anonymous #waptug 29086The CoinDesk Guide to Bitcoin Halving Parties - CoinDeskBitcoin groups around the world are gathering to celebrate the halving of the bitcoin mining reward. Here's six locations where bitcoin news is breaking.coindesk.com,0,0,0,False
37,Vella (Real account from April 2016)@cryptotrader85,Our project is powered by blockchain technology.See what we are doing with it at http://coexistcoin.com. #blockchain #fintech #crypto #btcBTC/USD (Bitcoin to United States dollar) | Coingi - Exchange Market with CryptocurrenciesBuy or sell btc-usd coins for current rates. Trade Bitcoin to United States dollar cryptocurrency pair on Coingi – a decentralised exchange with the best price/value ratio.coingi.com,1,0,0,False
38,Cryptocoin Radar@cryptocoinradar,"nsr/btc: +14% value, +2% volume in 1 hour (http://cryptocoinradar.com monitored #trading #altcoin #cryptocoin)",0,0,0,False
39,Bitcoin@webitcoins,Bitcoin Price Slumps On Eve Of Block Reward Halving https://cryptocoinsnews.com/bitcoin-price-slumps-on-eve-of-block-reward-halving/… #cryptocurrency,0,0,0,False
40,oneworldkhilafah@oneworldkhilaf1,Make #crypto #money thru social network #steemit.com https://youtu.be/xZmpCAqD7hs,1,0,0,False
41,CCN - Capital & Celeb News@CapitalAndCeleb,Bitcoin Price Slumps On Eve Of Block Reward Halving https://cryptocoinsnews.com/bitcoin-price-slumps-on-eve-of-block-reward-halving/… #cryptocurrency,7,0,0,False
42,Crypto Trader@cryptoprofit,#Bitcoin #Crypto #BTCUSD H1 Trendline_BTCUSD_2016.7.11.2.12,3,0,0,False
43,Bitcoin@crypto_bitcoins,Pound sterling becomes more unstable than Bitcoin after Brexit http://dlvr.it/LmKCKx #bitcoin #crypto,2,0,0,False
44,Cointon@CointonDotCom,Pound sterling becomes more unstable than Bitcoin after Brexit http://dlvr.it/LmKCKx #bitcoin #crypto,0,0,0,False
45,Cryptolized™@Cryptolized,"#rimbit #crypto Armed Robbers Use Pokémon Go To Find  Victims: We Are Change

Armed Robbe... http://bit.ly/29BrBnx #decentralization",0,0,0,False
46,JC@Cryptoelite,Crypto Elite News is out! http://paper.li/Cryptoelite/1426551318?edition_id=39296ec0-46f4-11e6-b680-0cc47a0d1605… #Bitcoin #Altcoin #Cryptocurrency @coinigy,1,0,0,False
47,Cam.Sexy @globalcoiners,"http://BitcoinINS.com  on #Sale at #sedo
https://sedo.com/search/details.php4?partnerid=14456&language=it&et_cid=15&et_lid=16727&domain=bitcoinins.com&et_sub=1042&origin=parking…
#domain #bitcoin #bitcoins #cyber #biz #insurance #insure #btc #Crypto",1,0,0,False
48,Todo Kasumi@value_traveler,"Wow KDC is available!
http://triple-dice-exchange.com
#bitcoin #altcoin #dicewallet #exchange #kdc #kingdicecoin",0,0,0,False
49,Gabor Venczel@ujtrend,"Evaluating the EU's New Definition for Virtual #cryptocurrency, bitcoin, octacoin, http://soco.space/94rf1q",1,0,0,False
50,Denny McEnroe@McEnroeDenny,Re: | ANN | Espers [ESP] | New Algo | New Features In Development | Reverse-ICO | http://cur.lv/10czrs #bitcoin #crypto,0,0,0,False
51,Denny McEnroe@McEnroeDenny,Re: Is there any way to recover a broken wallet.dat file? http://cur.lv/10czrr #bitcoin #crypto,1,0,0,False
52,Denny McEnroe@McEnroeDenny,Re: ▂▃▅▆█ BITSLER █▆▅▃▂★★★BOUNTY ROLL★★★[07/10] http://cur.lv/10czrp #bitcoin #crypto,0,0,0,False
53,Denny McEnroe@McEnroeDenny,Re: [AUCTION] 10 BTC Casascius Silver with Gold B http://cur.lv/10czro #bitcoin #crypto,0,0,0,False
54,Bitcoin@webitcoins,UK Trials Blockchain-Based Social Welfare Payments https://cryptocoinsnews.com/uk-trials-blockchain-based-social-welfare-payments/… #cryptocurrency,1,1,0,False
55,Bitcoin Hourly@bitcoin_hourly,"Price Update: 1 #Bitcoin = $645.8800

#cryptocurrency source http://yhoo.it/1PH2nON (via @Flutter_HQ)",0,0,0,False
56,BitcoinBuzz vega9@BitcoinBuzzV9,http://bitcoinbuzz.vega9.com - Hot topics: #bitcoin #blockchain #btc #fintech #crypto,0,0,0,False
57,Krypto@Krypto_rocks,"@Steemit Workshop and Presentation — #Steemit https://steemit.com/steemit/@clains/steemit-workshop-and-presentation?r=kypto… #bitcoin #fintech #smallbiz #biztech #socialmedia #workshop #cryptoSteemit Workshop and Presentation — SteemitYesterday we ( BitSpace ) held a Steemit workshop here in Oslo, talking about ways to use the Steem platform to… by clainssteemit.com",1,2,0,False
58,SmileyGnome BTC @SmileyGnome,"@NexusNiro Up 15% with $911,543 @CoinMKTCap at 3563 #satoshi #altcoin #cubesat #bitcoin #nexus #poloniex #bittrex",2,2,0,False
59,CCN - Capital & Celeb News@CapitalAndCeleb,UK Trials Blockchain-Based Social Welfare Payments https://cryptocoinsnews.com/uk-trials-blockchain-based-social-welfare-payments/… #cryptocurrency,6,17,0,False
60,David Liam@crazydaveorama,#DigitalCurrency Weekly Recap 7-10-2016 http://dcebrief.com/digital-currency-weekly-recap-7-10-2016/… #cryptocurrency #bitcoin #altcoin,1,0,0,False
61,David Liam@crazydaveorama,"#Vice Makes 15-minute #Documentary on #Auroracoin, #Iceland’s #Cryptocurrency http://coint.co/3pLz #altcoin #film",0,0,0,False
62,Bitcoin City™#฿TC@Bitcoin_City,"#btc INNOVATE2016: Libertarian Presidential candidate says “We need to Uber everything”: Wha... http://bit.ly/29H4k2m #bitcoin #cryptoINNOVATE2016: Libertarian Presidential candidate says “We need to Uber everything”Whatever one thinks of his ideology, Libertarian Party candidate Gary Johnson may be the pro innovation candidate that Silicon Valley has been waiting for.techcrunch.com",0,0,0,False
63,CryptoRSS@CryptoRSS,How Distributed Ledgers Impact Post-Trade in a Dodd-Frank World: Cromwell & Moring LLP attorneys expl... http://bit.ly/2a0wqVT #crypto,1,0,0,False
64,David Liam@crazydaveorama,#PhysicalBitcoinsUK Sells Various #Cryptocurrency Goodies http://disq.us/t/2a9q61s #bitcoin,0,0,0,False
65,cryptosdice@cryptosdice,The game begins now! Happy betting! http://cryptosdice.com #bitcoin #BTC #dice #gambling #cryptocurrency #altcoins,0,0,0,False
66,Crypto Yoyo@cryptoyoyo,Buy bitcoins http://bit.ly/29xo2hP #bitcoin #crypto #news,0,0,0,False
67,Julia Vaingurt@julia_vaingurt,"You're not actually IN #cryptocurrencies #bitcoin #altcoins if you don't follow this savage, just saying.  http://cur.lv/10cyse",1,0,0,False
68,Morten Pedersen@MortenJP,#HTTPS #crypto’s days are numbered. Here’s how @Google wants to save it http://buff.ly/29WQKaE #security,4,0,0,False
69,Crypto Trader@cryptoprofit,#Bitcoin #Crypto #BTCUSD H1 100SMA_BTCUSD_2016.7.11.1.0,0,0,0,False
70,Julia Vaingurt@julia_vaingurt,"Please click or scan  my qr code Bitcoin blogspot page,thank you.
http://cur.lv/10cyoc
#crypto #Blockchain http://cur.lv/10cyod",2,0,0,False
71,Fintech Prowler@FintechProwler,Bitcoin Price Stable After The Halving - The Merkle http://ift.tt/29wx2qj #altcoin,0,0,0,False
72,notsofast@notsofast,"If you mine #altcoins, and I don't follow you yet, I'd like to. Please reply!",4,3,4,False
73,Julia Vaingurt@julia_vaingurt,"The CoinDesk Guide to Bitcoin Halving Parties - CoinDesk ➤ http://cur.lv/10cyf4
 | #bitcoin #crypto",0,0,0,False
74,BitcoinAgile@bitcoinagile,"#Google Tests New #Crypto in #Chrome to Fend Off Quantum #Attacks <a href=""http://klou.tt/15p628w617ucx"" #Cybersecurity http://bit.ly/29NquDd",2,4,0,False
75,DAVID BRANDON@davidbrandonse2,#Google Tests New #Crypto in #Chrome to Fend Off Quantum #Attacks http://bit.ly/29tAfRB #Cybersecurity http://bit.ly/29tAU5w,0,0,0,False
76,DK Matai♛@DKMatai,Is GOLD best HEDGE against #DeutscheBank #CreditSuisse #ItalianBanks volatility? Why NOT #Cryptocurrency eg #Bitcoin #Ethereum etc? #FinTech,1,15,0,False
77,Bitcoin City™#฿TC@Bitcoin_City,#btc WSJ: Bitcoin Drifts Lower After Technical Milestone:       submitted by    /u/BitcoinDr... http://bit.ly/29Bltvx #bitcoin #cryptoWSJ: Bitcoin Drifts Lower After Technical Milestonereddit.com,1,1,0,False
78,Bitcoin City™#฿TC@Bitcoin_City,"#btc Still a virtual reality skeptic? Here’s why you shouldn’t be:  As VR becomes a force in... http://bit.ly/29BkHyN #bitcoin #cryptoStill a virtual reality skeptic? Here’s why you shouldn’t beAs VR becomes a force in the gaming world (and other sectors), I can’t help but draw the evident parallels between the emergence of 3D-console gaming and quasi-nascent VR. Though some remain skepti...techcrunch.com",1,1,0,False
79,Bitcoin Hourly@bitcoin_hourly,"Price Update: 1 #Bitcoin = $648.8000

#cryptocurrency source http://yhoo.it/1PH2nON (via @Flutter_HQ)",0,0,0,False
80,BitcoinBuzz vega9@BitcoinBuzzV9,http://bitcoinbuzz.vega9.com - Hot topics: #bitcoin #btc #blockchain #crypto #fintech #ethereum,0,0,0,False
81,Bitcoin@webitcoins,Coinbase Makes Bitcoin More Attractive to Merchants https://cryptocoinsnews.com/coinbase-makes-bitcoin-attractive-merchants/… #cryptocurrency,0,0,0,False
82,CCN - Capital & Celeb News@CapitalAndCeleb,Coinbase Makes Bitcoin More Attractive to Merchants https://cryptocoinsnews.com/coinbase-makes-bitcoin-attractive-merchants/… #cryptocurrency,1,12,0,False
83,Null TX@nulltxnews,http://ift.tt/29ro6xo Bitcoin Price Stable After The Halving #bitcoin #bitcoinnews #cryptocurrency,1,3,0,False
86,DK Matai♛@DKMatai,"If in #FinTech #InsurTech #InsTech #Blockchain #Banking #Bitcoin #Ethereum #Cryptocurrency Ask #DeutscheBank=Lehman?Quote TweetDK Matai♛@DKMatai · Jul 10, 2016Can Germany Save Deutsche Bank? Too Big To Fail? Outstanding derivatives exposure = 20x German GDP + 5x Eurozone GDP http://ow.ly/ChaK3026rv6",1,13,1,False
87,Bitcoin City™#฿TC@Bitcoin_City,#btc How Uber secretly investigated its legal foes — and got caught: When a young labor lawy... http://bit.ly/2a0pyI8 #bitcoin #crypto,0,0,0,False
88,Crypto Trader@cryptoprofit,#Bitcoin #Crypto #BTCUSD H1 100SMA_BTCUSD_2016.7.11.0.11,4,0,0,False
89,DK Matai♛@DKMatai,"If in #FinTech #InsurTech #InsTech #Blockchain #Banking #Bitcoin #Ethereum #Cryptocurrency don't forget #DerivativesQuote TweetDK Matai♛@DKMatai · Jul 10, 2016If Non-Performing Loan problem at Italian Banks = 1*; 'Derivatives' at Deutsche Bank etc. = 100*. Ratio of Risk = 1:100! - Renzi, Italian PM",12,0,0,False
90,Colin Sydes #FBPE  @SydesJokes,"#Bitcoin and #Ethereum Backed by Gold - Industry’s Game Changer? http://bit.ly/29vmisq #Blockchain #CryptoCurrency #FinTech #FinTech2016Bitcoin and Ethereum Backed by Gold - Industry’s Game Changer?This month DinarDirham, a decentralized gold trading platform based in Hong Kong, is launching its own wallet.cointelegraph.com",3,5,0,False
91,BitsharesBreakout@btsBreakout,New Blockchain Social Media Platform STEEMIT Pays You To Post and Vote Online! https://steemit.com/?r=xeldal #cryptocurrency #altcoin #bitcoin,2,1,0,False
92,Monte Thompson@MonteThompson54,@FreeParacord list your products and services on #charnawallet.biz marketplace! Get huge exposure! Trading platform for all #cryptocurrency,0,0,0,False
93,Bitcoin Hourly@bitcoin_hourly,"Price Update: 1 #Bitcoin = $647.7600

#cryptocurrency source http://yhoo.it/1PH2nON (via @Flutter_HQ)",0,0,0,False
94,Bitcoin City™#฿TC@Bitcoin_City,"#btc Kraken has not released $23,000+ of my funds, and hasn't responded to any of my emails ... http://bit.ly/29zxjXO #bitcoin #cryptoKraken has not released $23,000+ of my funds, and hasn't responded...As the title mentions, I have a $23,000+ withdrawal pending since 6/30 and haven't received a response to any of my emails. I also emailed...reddit.com",2,0,0,False
95,Bitcoin City™#฿TC@Bitcoin_City,#btc What's a plausible series of events that could cause bitcoin to become worthless in the... http://bit.ly/29zxGl8 #bitcoin #cryptoWhat's a plausible series of events that could cause bitcoin to...Posted in r/Bitcoin by u/PumpkinFeet • 32 points and 119 commentsreddit.com,0,0,0,False
96,Bitcoin City™#฿TC@Bitcoin_City,"#btc When the world economy has that ""reset"" moment, this is the type of insane activity tha... http://bit.ly/29zxm6g #bitcoin #cryptoWhen the world economy has that ""reset"" moment, this is the type...Posted in r/Bitcoin by u/Logical007 • 10 points and 8 commentsreddit.com",0,0,0,False
97,Bitcoin City™#฿TC@Bitcoin_City,#btc Europe urgently needs a 150 billion-euro ($166 billion) bailout fund to recapitalize it... http://bit.ly/29wghWY #bitcoin #cryptoEurope urgently needs a 150 billion-euro ($166 billion) bailout...Posted in r/Bitcoin by u/bitsteiner • 70 points and 39 commentsreddit.com,0,0,0,False
98,Bitcoin City™#฿TC@Bitcoin_City,#btc 26 hours after Halving ----Still rock solid $650.:   submitted by    /u/lambecolin  [li... http://bit.ly/29wgycr #bitcoin #crypto26 hours after Halving ----Still rock solid $650.Posted in r/Bitcoin by u/lambecolin • 113 points and 113 commentsreddit.com,1,0,0,False
99,BitcoinBuzz vega9@BitcoinBuzzV9,http://bitcoinbuzz.vega9.com - Hot topics: #bitcoin #blockchain #btc #crypto #cryptocurrency #fintech,0,0,0,False
100,RL Aitken@AitkenRL,"@Forbes: Decentralized exchange turns up 'HEAT' via #blockchain support. #crowdfunding #crypto #bitcoin @drjohnbates
http://forbes.com/sites/rogeraitken/2016/07/10/decentralized-exchange-turns-up-heat-with-blockchain-start-up-support/…",3,2,0,False
101,Julia Vaingurt@julia_vaingurt,"Bitcoin Drifts Lower After Technical Milestone http://cur.lv/10cwjl
#bitcoin #crypto #news",0,0,0,False
102,Crypto Yoyo@cryptoyoyo,Bitcoin Drifts Lower After Technical Milestone http://bit.ly/29q84Yw #bitcoin #crypto #news,0,0,0,False
103,Crypto Yoyo@cryptoyoyo,Bitcoin Drops 5% On Halving: Buy The Dip Or Hit The Exit? http://bit.ly/29rkRWU #bitcoin #crypto #news,0,0,0,False
104,RL Aitken@AitkenRL,"@Forbes: Decentralized conglomerate turns up 'HEAT' with #blockchain support. #crowdfunding #crypto #bitcoin @CCEDK_
http://forbes.com/sites/rogeraitken/2016/07/10/decentralized-exchange-turns-up-heat-with-blockchain-start-up-support/…",2,5,0,False
105,Bitcoin@webitcoins,"Fintech Expert Frank Schwab: Bitcoin Here To Stay, Banks Are Doomed https://cryptocoinsnews.com/fintech-expert-frank-schwab-bitcoin-here-to-stay-banks-are-doomed/… #cryptocurrency",3,1,0,False
106,AlertCo.in@AlertCoin,"#Bitcoin last trade

@bitstamp $645.23
@coinbase $651.92

Set #crypto #price #alerts at http://AlertCo.in",0,0,0,False
107,AlertCo.in@AlertCoin,"#Bitcoin last trade

@bitfinex $648.82
@btcecom $632.00

Set #crypto #price #alerts at http://AlertCo.in",1,0,0,False
108,Denny McEnroe@McEnroeDenny,Re: GoldCoin (GLD) Thread - The Gold Standard of Digital Currency [OFFICIAL THREAD] http://cur.lv/10cwcw #bitcoin #crypto,0,0,0,False
109,Denny McEnroe@McEnroeDenny,Re:  [WTB] Need Minecraft Gift Code CHEAP http://cur.lv/10cwcu #bitcoin #crypto,1,0,0,False
110,Denny McEnroe@McEnroeDenny,Re: Flat Earth News http://cur.lv/10cwct #bitcoin #crypto,0,0,0,False
111,CCN - Capital & Celeb News@CapitalAndCeleb,"Fintech Expert Frank Schwab: Bitcoin Here To Stay, Banks Are Doomed https://cryptocoinsnews.com/fintech-expert-frank-schwab-bitcoin-here-to-stay-banks-are-doomed/… #cryptocurrency",4,11,0,False
112,NE Patriots Dynasty@NEPatsDynasty,#trump the future of money is #Crypto The New ILCoin will be a way of online payments and #money http://goldnews.ilgamos.com/buy?buy_type=1,0,0,0,False
113,Eryn Hubbard@erynhubbard,Move over PAYPAL “There’s a Newer Money in Town” #Bitcoin by BitClub Network #digitalcurrency #Cryptocurrency http://vid.staged.com/uHJs,0,0,0,False
114,NE Patriots Dynasty@NEPatsDynasty,To All #Bitcoin #Btc #Crypto time to diversify your #coins.Quadruple your investment. http://ilgamosilcoin.com/home.html Register FREE,0,0,0,False
115,Arish Dubash@happyarish,"New day, new price. Bitcoin is currently at 645.0. #bitcoin #toTheMoon #cryptoCurrency #newMoney",0,0,0,False
116,AlertCo.in@AlertCoin,"Last trade for $ZET / BTC at #Bter was 0.00000409

Create your own #crypto price alerts at http://AlertCo.in!

#Bitcoin #SMS",0,0,0,False
117,Julia Vaingurt@julia_vaingurt,"#btc Virtual and augmented reality need a PG-13 moment:  We’ve passed a significant mileston... http://cur.lv/10cvsn
#bitcoin #crypto",1,0,0,False
118,Bitcoin City™#฿TC@Bitcoin_City,"#btc Virtual and augmented reality need a PG-13 moment:  We’ve passed a significant mileston... http://bit.ly/29zrzNI #bitcoin #cryptoVirtual and augmented reality need a PG-13 momentWe’ve passed a significant milestone in consumer adoption of virtual reality and augmented reality -- although it’s clear that we’re a few models away from a truly refined VR/AR experience. However,...techcrunch.com",0,0,0,False
119,(((webhat)))@webhat,"Laughably poor report on #goingdark
#crypto #encryption #securityQuote TweetRobyn Greene@Robyn_Greene · Jul 10, 2016This. Read this for a good summary of where we are in the #GoingDark #Encryption debate and what's wrong with it. https://engadget.com/2016/07/08/homeland-securitys-big-encryption-report-wasnt-fact-checked/…",0,0,0,False
120,Bitcoin City™#฿TC@Bitcoin_City,"#btc New Suicide Squad trailer shows the Joker having a good time: With DC's Suicide Squad d... http://bit.ly/29wcxVA #bitcoin #cryptoNew Suicide Squad trailer shows the Joker having a good timeWith DC's Suicide Squad due out in just under a month, fans are probably itching to see more of the core cast members (and by that I mean the ones most likely to survive) in action. In the movie's...theverge.com",0,0,0,False
121,CryptoFeed@crypto_feed,Bitcoin Halving 2016: Will the Price Rise or Fall? http://coindesk.com/bitcoin-halving-2016-will-price-rise-fall/… #crypto | https://twibble.io,1,0,0,False
130,CryptoFeed@crypto_feed,"Vinny Lingham: Bitcoin Needs to Get to $3,000 Level http://cointelegraph.com/news/vinny-lingham-bitcoin-needs-to-get-to-3000-level… #crypto | https://twibble.io",0,0,0,False
131,Rimbit @rimbit,"Breakout Coin Closes Crowdsale, Successfully Raises 700 Btc http://rimbit.com/threads/breakout-coin-closes-crowdsale-successfully-raises-700-btc.5606/… #crypto",0,0,0,False
132,Julia Vaingurt@julia_vaingurt,"Newsflash: Bitcoin Price Makes a Comeback to $650 http://cur.lv/10cvhc
#crypto | http://cur.lv/10cvhe
http://cur.lv/10cvhf",0,0,0,False
133,CryptoFeed@crypto_feed,Newsflash: Bitcoin Price Makes a Comeback to $650 https://cryptocoinsnews.com/newsflash-bitcoin-price-makes-comeback-650/… #crypto | https://twibble.io,0,0,0,False
134,YDX @YDXMyfriend,"10/07/2016 Weekly #Dividends @ClubNxt http://bit.ly/29wmzuW
#blockchain #NXT #Asset #crypto #fintech #benefits",5,4,0,False
135,Julia Vaingurt@julia_vaingurt,#Bitcoin #Crypto #BTCUSD H1 100SMA_BTCUSD_2016.7.10.23.3 http://cur.lv/10cvar,0,0,0,False
136,Crypto Trader@cryptoprofit,#Bitcoin #Crypto #BTCUSD H1 100SMA_BTCUSD_2016.7.10.23.3,0,0,0,False
137,Crypto Trader@cryptoprofit,#Bitcoin #Crypto #BTCUSD H1 100SMA_BTCUSD_2016.7.10.22.48,2,0,0,False
138,Mooncoin [MOON]@MooncoinItalia,The Halving: Then & Now - a Bitcoin Magazine Infographic #altcoin #cryptocurrency https://bitcoinmagazine.com/articles/the-halving-then-now-a-bitcoin-magazine-infographic-1468082535…,1,0,0,False
139,Bitcoin@webitcoins,The Bitcoin Community Is an Industry Like Any Other https://cryptocoinsnews.com/bitcoin-community-industry/… #cryptocurrency,0,0,0,False
140,Hlynur Þór Björnsson@hlynurbj,"Cointelegraph covers the #auroracoin documentary that http://Vice.com created http://cointelegraph.com/news/vice-makes-15-minute-documentary-on-auroracoin-icelands-cryptocurrency… #bitcoin #crypto #icelandVice Makes 15-minute Documentary on Auroracoin, Iceland’s CryptocurrencyAuroracoin, Iceland’s cryptocurrency, just got its first ever documentary courtesy of Vice Motherboard, its first major news hit outside of cryptocurrency news outletscointelegraph.com",1,1,0,False
141,AlertCo.in@AlertCoin,"Last trade for $LSK / BTC at #Poloniex was 0.00045001

Create your own #crypto price alerts at http://AlertCo.in!

#Bitcoin #SMS",1,0,0,False
142,Bitcoin City™#฿TC@Bitcoin_City,#btc Elizabeth Stark on Twitter: The next @ScalingBitcoin conference will take place on Octo... http://bit.ly/29B7N3V #bitcoin #cryptoElizabeth Stark on Twitter: The next @ScalingBitcoin conference...Posted in r/Bitcoin by u/mmeijeri • 67 points and 13 commentsreddit.com,5,0,0,False
143,Bitcoin City™#฿TC@Bitcoin_City,"#btc Quick everybody: What's the best exchange to buy Bitcoin, I hate Coinbase (I have an ac... http://bit.ly/29tmfqW #bitcoin #cryptoQuick everybody: What's the best exchange to buy Bitcoin, I hate...reddit.com",0,0,0,False
144,CCN - Capital & Celeb News@CapitalAndCeleb,The Bitcoin Community Is an Industry Like Any Other https://cryptocoinsnews.com/bitcoin-community-industry/… #cryptocurrency,3,7,0,False
145,Crypto Yoyo@cryptoyoyo,Sell bitcoins http://bit.ly/29wkQpv #bitcoin #crypto #news,1,1,0,False
146,Crypto Yoyo@cryptoyoyo,Sell bitcoins http://bit.ly/29xE8qz #bitcoin #crypto #news,1,0,0,False
147,𝕸𝖊𝖗𝖑𝖎𝖓𝖘 𝕸𝖆𝖙𝖗𝖎𝖝@Merlinsmatrix,#cryptocollider week ending results table https://cryptocollider.com #dash #btc #startcoin 14 #crypto coins now in play,0,0,0,False
148,Denny McEnroe@McEnroeDenny,"Re: GTX 1060 Announced, July 19th http://cur.lv/10cujt #bitcoin #crypto",0,0,0,False
149,Denny McEnroe@McEnroeDenny,Re: [ANN][CRX]ChronosCoin /Scrypt POW/POS / Airdrop - ( First wave is coming soon!) http://cur.lv/10cujq #bitcoin #crypto,0,0,0,False
150,Denny McEnroe@McEnroeDenny,Re: 200 satoshi every 15min. http://QoinFaucet.com http://cur.lv/10cujn #bitcoin #crypto,0,0,0,False
151,Denny McEnroe@McEnroeDenny,Re: [Donation RAFFLE] Stickers: Bitcoin.Banking Is Necessary. Banks Are Not. http://cur.lv/10cujh #bitcoin #crypto,1,0,0,False
152,BitcoinAgile@bitcoinagile,CryptoStyle  Video: ##bitcoin & #Altcoin Trading Talk 22  CryptoStyle http://cryptostyle.com/videos/video-bitcoin-altcoin-trading-talk-22…,1,0,0,False
153,Trulioo@trulioo,"With just days before the #Bitcoin halving, why aren't prices going up? via @huffingtonpost #cryptocurrency http://huff.to/29DQWwf",0,0,0,False
154,Bitcoin@crypto_bitcoins,"Vice Makes 15-minute Documentary on #Auroracoin, #Iceland’s #Cryptocurrency http://cointelegraph.com/news/vice-makes-15-minute-documentary-on-auroracoin-icelands-cryptocurrency…",1,0,0,False
155,BrexitCoin@Brexit_coin,"Our sub-reddit post https://redd.it/4s6w0n pertaining to the current #cryptocurrency #exchange situation, we require your assistance #helpBRexitCoin(BRXT) has been submitted to exchanges for votingWe have submitted BrexitCoin(BRXT) to the cryptocurrency exchanges. Voting is required on both sites and once votes have been cast and accepted...reddit.com",1,1,0,False
156,Cointon@CointonDotCom,"Vice Makes 15-minute Documentary on #Auroracoin, #Iceland’s #Cryptocurrency http://cointelegraph.com/news/vice-makes-15-minute-documentary-on-auroracoin-icelands-cryptocurrency…",0,0,0,False
158,Golden Gateway@GoldenGatewayUS,Remember to like us on FB at http://facebook.com/officialgoldengateway… #bitcoin news and #cryptocurrency updates (Want this ? >> http://bit.ly/tweet_thanks_),1,1,0,False
159,Bitcoin City™#฿TC@Bitcoin_City,#btc Major telecoms promise 5G networks if EU cripples net neutrality: A group of 20 major t... http://bit.ly/2a0cFNS #bitcoin #crypto,1,0,0,False
160,Bitcoin City™#฿TC@Bitcoin_City,#btc Major telecoms promise 5G networks if EU cripples net neutrality: A group of 20 major t... http://bit.ly/29zlWiO #bitcoin #crypto,2,0,0,False
161,Ocassional douchebag@thatomac,Undercover millionaires seminar. We out here. #bitcoin #cryptocurrency,1,0,0,False
162,NE Patriots Dynasty@NEPatsDynasty,The #ILGamos #Crypto #ILCoin about to start #trading at .50 cents.  #Bitcoin at $700 #invest now join Click here  http://dld.bz/dBkzq RT,0,0,0,False
163,CryptoRSS@CryptoRSS,8 Ways Ethically Compromised Employees Compromise Security: From audit cheats to bringing data to a n... http://bit.ly/29zkVqT #crypto,2,0,0,False
164,cryptinsight@cryptinsight,CryptoStyle  Video: #ALTCOIN : WAVES a nova criptomoeda do financiamento coletivo “Kickstarter open source” http://cryptostyle.com/videos/video-altcoin-waves-a-nova-criptomoeda-do-financiamento-coletivo-kickstarter-open-source-bitcoin…,0,0,0,False
165,BitcoinBuzz vega9@BitcoinBuzzV9,http://bitcoinbuzz.vega9.com - Hot topics: #bitcoin #btc #blockchain #crypto #faucet #bitlive,0,0,0,False
166,EarthPermit@EarthPermit,#watercanyon #newmexico On the #undocumentedhuman #crypto #tour stop Headed to TX @MissLoneStar1 @SailboatDiaries,3,1,0,False
167,Catalin Cimpanu@campuscodi,Three Chinese #Bitcoin Miners Caught Stealing Public Electricity http://buff.ly/29Br4AJ #cryptocurrency #China,1,0,0,False
168,Bitcoin City™#฿TC@Bitcoin_City,"#btc Black Lives Matter activist Deray McKesson arrested while Periscoping:  Police arrested... http://bit.ly/29tfLYZ #bitcoin #cryptoBlack Lives Matter activist Deray Mckesson arrested while PeriscopingPolice arrested more than 200 people marching down the side of the road in Baton Rouge, Louisiana last night, according to several reports, including a strong voice in the Black Lives Matter moveme...techcrunch.com",1,0,0,False
169,Bitcoin@webitcoins,Blockchain Social Platform Steemit Rewards Users with $1.3 Million https://cryptocoinsnews.com/blockchain-steemit-1-3-million/… #cryptocurrency,0,0,0,False
170,Crypto Yoyo@cryptoyoyo,"Bitcoin's new anti-inflation code means twice the work, same profits http://bit.ly/29rbx4w #bitcoin #crypto #news",0,0,0,False
171,Breakout Gaming@BreakoutGaming,TWITTER EXCLUSIVE- http://Breakoutpoker.net 1000 BRK FREEROLL - Starts TODAY at 13:33 PDT/ 20:33 UTC - Entry PW=brktweet #Poker #Free #Crypto,1,2,0,False
172,CCN - Capital & Celeb News@CapitalAndCeleb,Blockchain Social Platform Steemit Rewards Users with $1.3 Million https://cryptocoinsnews.com/blockchain-steemit-1-3-million/… #cryptocurrency,5,7,0,False
173,Julia Vaingurt@julia_vaingurt,"Corrupt Agent Who Investigated Silk Road Is Suspected Of… http://cur.lv/10csvf
#bitcoin #fintech #btc #crypto http://cur.lv/10csvk",0,0,0,False
174,Bitcoin City™#฿TC@Bitcoin_City,#btc The Halving: Then & Now - a Bitcoin Magazine Infographic:       submitted by    /u/goad... http://bit.ly/29GfgAN #bitcoin #crypto,1,0,0,False
175,Bitcoin City™#฿TC@Bitcoin_City,#btc Coinapult Brings Bitcoin Purchase Option To Colombian Punto Pago Kiosks:       submitte... http://bit.ly/29Gfl7r #bitcoin #crypto,0,0,0,False
176,Bitcoin City™#฿TC@Bitcoin_City,#btc Kim Dotcom: I can tell you that Megaupload and Bitcoin had sex. There is a pregnancy an... http://bit.ly/29GfmbC #bitcoin #cryptoKim Dotcom: I can tell you that Megaupload and Bitcoin had sex....Posted in r/Bitcoin by u/bahatassafus • 17 points and 2 commentsreddit.com,0,0,0,False
177,Bitcoin City™#฿TC@Bitcoin_City,#btc How can I buy bitcoins in small remote countries like Nepal?: I see listings on local b... http://bit.ly/29w0zLo #bitcoin #cryptoHow can I buy bitcoins in small remote countries like Nepal?I see listings on local bitcoins but I have never used it. How does the transactions are verified and when do you pay? I see listings that say...reddit.com,1,0,0,False
178,Bitcoin City™#฿TC@Bitcoin_City,#btc Bitcoin to be an integral part of Megaupload 2.0:       submitted by    /u/Fuzzypickles... http://bit.ly/29zhikI #bitcoin #crypto,0,0,0,False
179,Crypto Trader@cryptoprofit,#Bitcoin #Crypto #BTCUSD H1 Trendline_BTCUSD_2016.7.10.20.54,1,0,0,False
180,need-bitcoin.com@need_bitcoin,US Department of Homeland Security Talks Blockchain R&D http://ift.tt/29MUYVB #bitcoin #cryptocurrency,0,0,0,False
181,Denny McEnroe@McEnroeDenny,Re: Do you have paypal account even though you have bitcoin? http://bit.ly/29tduNE #bitcoin #crypto,0,0,0,False
182,Denny McEnroe@McEnroeDenny,Re: [ANN][CRX]ChronosCoin /Scrypt POW/POS / Airdrop - ( First wave is coming soon!) http://bit.ly/29AZ41s #bitcoin #crypto,0,0,0,False
183,Denny McEnroe@McEnroeDenny,Re: http://BetChain.com | 190 games | Jackpots | Provably Fair http://bit.ly/29td4qA #bitcoin #crypto,0,0,0,False
184,Denny McEnroe@McEnroeDenny,Re: CHESSCOIN - 32% POS  - COIN FOR CHESS COMMUNITY http://bit.ly/29AZk0k #bitcoin #crypto,1,0,0,False
185,BitcoinAgile@bitcoinagile,CryptoStyle  Video: ##bitcoin & #Altcoin Trading Talk 26  CryptoStyle http://cryptostyle.com/videos/video-bitcoin-altcoin-trading-talk-26-2…,5,0,0,False
186,HEAT Wallet & DEX@heatcrypto,HEAT Initial Coin Offering is 18 hours away! Figures updated http://heatledger.com/ico.htm #blockchain #altcoins #bitcoin,1,2,2,False
187,Cam.Sexy @globalcoiners,"http://BitcoinINS.com on #Sale at #sedo
https://sedo.com/search/details.php4?partnerid=14456&language=it&et_cid=15&et_lid=16727&domain=bitcoinins.com&et_sub=1042&origin=parking…
#domain #bitcoin #bitcoins #cyber #biz #insurance #insure #btc #Crypto",1,0,0,False
188,Bitcoin Hourly@bitcoin_hourly,"Price Update: 1 #Bitcoin = $642.0000

#cryptocurrency source http://yhoo.it/1PH2nON (via @Flutter_HQ)",0,0,0,False
189,XBTFreelancer.com@XBTFreelancer,#btc #cryptocurrency I need a writer to re-write articles http://xbtfreelancer.com/prj/1684/i-need-a-writer-to-re-write-articles… #career #freelance #bitcoin #writing #translation,1,0,0,False
190,Colin Sydes #FBPE  @SydesJokes,"Troubles of #Ethereum Continue, With Final Solution Still Not In View http://bit.ly/29vmgk2 #Blockchain #CryptoCurrency #FinTechTroubles of Ethereum Continue, With Final Solution Still Not In ViewSince the June 17 attack on the DAO, the Ethereum network has suffered a chain of events that led to the fall of Ether.cointelegraph.com",2,1,0,False
191,Cryptocoin Radar@cryptocoinradar,"steem/btc: +16% value, +4% volume in 6 hours (http://cryptocoinradar.com monitored #trading #altcoin #cryptocoin)",0,0,0,False
192,Bitcoin City™#฿TC@Bitcoin_City,"#btc The Verge Review of Animals: Trilobites:  
When I was a teenager, I spent my summers up... http://bit.ly/29AWBnX #bitcoin #cryptoThe Verge Review of Animals: trilobitesThe Lego of the Ordovician seastheverge.com",1,0,0,False
193,SwagSociety.me@SwagSociety_me,Bitcoin Price Post-Halving Calm http://bit.ly/29tco48 #SwagBucks #altcoin,0,0,0,False
194,CryptoRSS@CryptoRSS,Pound sterling becomes more unstable than Bitcoin after Brexit: The British pound has become more vol... http://bit.ly/29GrGW1 #crypto,0,0,0,False
198,Heidi Hecht@HeidiSHecht,Vice giving Iceland's @OfficialAUR a bit of a plug. #cryptocurrency #Auroracoin http://cointelegraph.com/news/vice-makes-15-minute-documentary-on-auroracoin-icelands-cryptocurrency…,0,0,0,False
199,Cryptocoin Radar@cryptocoinradar,"ric/btc: +112% value, +7096% volume in 2 hours (http://cryptocoinradar.com monitored #trading #altcoin #cryptocoin)",0,0,0,False
200,Jesse James@btce4,US Department of Homeland Security Talks Blockchain R&D http://dlvr.it/LmNkxc #crypto #bitcoin,3,0,0,False
201,Jesse James@btce4,"Vice Makes 15-minute Documentary on Auroracoin, Iceland&aposs Cryptocurrency http://dlvr.it/LmNkwv #crypto #bitcoin",1,0,0,False
202,Jesse James@btce4,"Vice Makes 15-minute Documentary on Auroracoin, Iceland's Cryptocurrency http://dlvr.it/LmNkr5 #crypto #bitcoin",2,0,0,False
203,Maria Juana@Mariaj_Hyip,US Department of Homeland Security Talks Blockchain R&D http://dlvr.it/LmNkr7 #crypto #bitcoin,1,0,0,False
204,Bitcoin Press@BitcoinPressX,US Department of Homeland Security Talks Blockchain R&D http://dlvr.it/LmNkr6 #crypto #bitcoin,1,0,0,False
205,CryptoTorNews@CryptoTorNews,US Department of Homeland Security Talks Blockchain R&D http://dlvr.it/LmNkpw #crypto #bitcoin,1,0,0,False
206,Jesse James@btce4,Bitcoin Price Post-Halving Calm http://dlvr.it/LmNkpF #crypto #bitcoin,1,0,0,False
207,Bitcoin Press@BitcoinPressX,"Vice Makes 15-minute Documentary on Auroracoin, Iceland&aposs Cryptocurrency http://dlvr.it/LmNkpS #crypto #bitcoin",0,0,0,False
208,Maria Juana@Mariaj_Hyip,"Vice Makes 15-minute Documentary on Auroracoin, Iceland&aposs Cryptocurrency http://dlvr.it/LmNkpN #crypto #bitcoin",1,0,0,False
209,CryptoTorNews@CryptoTorNews,"Vice Makes 15-minute Documentary on Auroracoin, Iceland&aposs Cryptocurrency http://dlvr.it/LmNknH #crypto #bitcoin",1,0,0,False
210,Jesse James@btce4,Global Fintech Masterminds to Attend London Fintech Week 2016 http://dlvr.it/LmNkcl #crypto #bitcoin,1,0,0,False
211,Maria Juana@Mariaj_Hyip,"Vice Makes 15-minute Documentary on Auroracoin, Iceland's Cryptocurrency http://dlvr.it/LmNkjj #crypto #bitcoin",1,0,0,False
212,Bitcoin Press@BitcoinPressX,"Vice Makes 15-minute Documentary on Auroracoin, Iceland's Cryptocurrency http://dlvr.it/LmNkjk #crypto #bitcoin",0,0,0,False
213,CryptoTorNews@CryptoTorNews,"Vice Makes 15-minute Documentary on Auroracoin, Iceland's Cryptocurrency http://dlvr.it/LmNkhN #crypto #bitcoin",2,0,0,False
214,Bitcoin For The Rest@BitForCoin,US Department of Homeland Security Talks Blockchain R&D http://dlvr.it/LmNkkj #crypto #bitcoin,3,0,0,False
215,Born Pitcoin@PornBitcoin,US Department of Homeland Security Talks Blockchain R&D http://dlvr.it/LmNkjt #crypto #bitcoin,1,0,0,False
216,Bitcoin For The Rest@BitForCoin,"Vice Makes 15-minute Documentary on Auroracoin, Iceland&aposs Cryptocurrency http://dlvr.it/LmNkjW #crypto #bitcoin",0,0,0,False
217,Born Pitcoin@PornBitcoin,"Vice Makes 15-minute Documentary on Auroracoin, Iceland&aposs Cryptocurrency http://dlvr.it/LmNkhz #crypto #bitcoin",0,0,0,False
218,Bitcoin Press@BitcoinPressX,Bitcoin Price Post-Halving Calm http://dlvr.it/LmNkhn #crypto #bitcoin,0,0,0,False
222,Maria Juana@Mariaj_Hyip,Bitcoin Price Post-Halving Calm http://dlvr.it/LmNkhX #crypto #bitcoin,0,0,0,False
223,Bitcoin For The Rest@BitForCoin,"Vice Makes 15-minute Documentary on Auroracoin, Iceland's Cryptocurrency http://dlvr.it/LmNkfM #crypto #bitcoin",0,0,0,False
224,Bitcoin Press@BitcoinPressX,Global Fintech Masterminds to Attend London Fintech Week 2016 http://dlvr.it/LmNkgv #crypto #bitcoin,0,0,0,False
225,Maria Juana@Mariaj_Hyip,Global Fintech Masterminds to Attend London Fintech Week 2016 http://dlvr.it/LmNkgt #crypto #bitcoin,0,0,0,False
226,CryptoTorNews@CryptoTorNews,Bitcoin Price Post-Halving Calm http://dlvr.it/LmNkgs #crypto #bitcoin,0,0,0,False
227,Born Pitcoin@PornBitcoin,"Vice Makes 15-minute Documentary on Auroracoin, Iceland's Cryptocurrency http://dlvr.it/LmNkfR #crypto #bitcoin",0,0,0,False
228,CryptoTorNews@CryptoTorNews,Global Fintech Masterminds to Attend London Fintech Week 2016 http://dlvr.it/LmNkg7 #crypto #bitcoin,0,0,0,False
229,Bitcoin Press@BitcoinPressX,Global Fintech Masterminds to Attend London Fintech Week 2016 http://dlvr.it/LmNkXd #crypto #bitcoin,0,0,0,False
230,Maria Juana@Mariaj_Hyip,Global Fintech Masterminds to Attend London Fintech Week 2016 http://dlvr.it/LmNkXp #crypto #bitcoin,0,0,0,False
231,Born Pitcoin@PornBitcoin,Bitcoin Price Post-Halving Calm http://dlvr.it/LmNkdw #crypto #bitcoin,0,0,0,False
232,Bitcoin For The Rest@BitForCoin,Bitcoin Price Post-Halving Calm http://dlvr.it/LmNkdn #crypto #bitcoin,0,0,0,False
233,CryptoTorNews@CryptoTorNews,Global Fintech Masterminds to Attend London Fintech Week 2016 http://dlvr.it/LmNkXq #crypto #bitcoin,2,0,0,False
234,Born Pitcoin@PornBitcoin,Global Fintech Masterminds to Attend London Fintech Week 2016 http://dlvr.it/LmNkdG #crypto #bitcoin,0,0,0,False
235,Bitcoin For The Rest@BitForCoin,Global Fintech Masterminds to Attend London Fintech Week 2016 http://dlvr.it/LmNkdB #crypto #bitcoin,0,0,0,False
236,Born Pitcoin@PornBitcoin,Global Fintech Masterminds to Attend London Fintech Week 2016 http://dlvr.it/LmNkW4 #crypto #bitcoin,0,0,0,False
237,Bitcoin For The Rest@BitForCoin,Global Fintech Masterminds to Attend London Fintech Week 2016 http://dlvr.it/LmNkWN #crypto #bitcoin,0,0,0,False
238,Rodrigo E. Icaza G. @3rodrigoesteban,"#CryptoCurrency #Edinar 
Get up to 25% of your team mining, daily",0,0,0,False
239,OpenFXMarket@OpenFXMarket,#altcoin market index (avg): #OFXAVG 155.78 #SHA 58.44 #SCRYPT 96.84 #QUARK 87.72 #X 15.41 #HYBRID 23.15 Stay tuned! #OFX,0,0,0,False
240,Bitcoin City™#฿TC@Bitcoin_City,#btc And people say bitcoin is slow?:       submitted by    /u/altruistcanada  [link]   [comments]  http://bit.ly/29F6amb #bitcoin #cryptoAnd people say bitcoin is slow?reddit.com,0,0,0,False
241,Cryptolized™@Cryptolized,"#rimbit #crypto Greenspan Bemoans Brexit, Belatedly Backs Gold: The “maestro” of central ba... http://bit.ly/29G9cs0 #decentralization",0,0,0,False
242,need-bitcoin.com@need_bitcoin,"Vice Makes 15-minute Documentary on Auroracoin, Iceland's Cryptocurrency http://ift.tt/29z8pYl #bitcoin #cryptocurrency",0,0,0,False
243,Liberation Technology@Liberationtech,#HTTPS #crypto’s days are numbered. Here’s how @Google wants to save it http://arstechnica.com/security/2016/07/https-crypto-is-on-the-brink-of-collapse-google-has-a-plan-to-fix-it/…,1,5,0,False
244,Bitcoin Hourly@bitcoin_hourly,"Price Update: 1 #Bitcoin = $645.8900

#cryptocurrency source http://yhoo.it/1PH2nON (via @Flutter_HQ)",1,0,0,False
245,BitcoinBuzz vega9@BitcoinBuzzV9,http://bitcoinbuzz.vega9.com - Hot topics: #bitcoin #blockchain #btc #crypto #bitcoinnews #bitlive,0,0,0,False
246,BitcoinAgile@bitcoinagile,CryptoStyle  Video: ##bitcoin & #Altcoin Trading Talk 30  CryptoStyle http://cryptostyle.com/videos/video-bitcoin-altcoin-trading-talk-30…,4,0,0,False
247,Bits Investments LLC@BitsInvestments,"OK, whenever #Bytecoin takes off, I'll be ready! LoL
@MinerGate #minergate #XMR #ethereum #BCN #cryptocurrency",3,2,0,False
248,*NormalGamer*@ng_480,Price Report: #Bitcoin is Dominating #Argentina http://bitcoinist.net/bitcoin-dominating-argentina/… via @bitcoinist #latinamerica #cryptocurrency,0,0,0,False
249,Crypto Yoyo@cryptoyoyo,Bitcoin reward for miners falls 50 per cent following Saturday's halving http://bit.ly/29pRuYG #bitcoin #crypto #news,0,0,0,False
250,Crypto Yoyo@cryptoyoyo,Bitcoin Price Post-Halving Calm http://bit.ly/29r3CoP #bitcoin #crypto #news,0,0,0,False
251,Denny McEnroe@McEnroeDenny,Re: [ANN] TAJCOIN- Blake2s POW/POS  - GenesisBlock 10.7.2016 at 8:34 AM (GMT+1) http://cur.lv/10cqh6 #bitcoin #crypto,0,0,0,False
252,Denny McEnroe@McEnroeDenny,Re: King's Easy Loans! No collateral/BTCtalk account collatral http://cur.lv/10cqh3 #bitcoin #crypto,0,0,0,False
253,Denny McEnroe@McEnroeDenny,Re: ONLINE GAMBLING WILL BE BANNED IN THE PHILIPPINES http://cur.lv/10cqh1 #bitcoin #crypto,0,0,0,False
254,Denny McEnroe@McEnroeDenny,Re: Where did you first heard about Bitcoins? http://cur.lv/10cqgy #bitcoin #crypto,0,0,0,False
255,Denny McEnroe@McEnroeDenny,"Re: [ANN] DigitalNote XDN privacy, untraceable, blockchain deposits, Messages 2.0 http://cur.lv/10cqgu #bitcoin #crypto",1,0,0,False
256,AlertCo.in@AlertCoin,"#Bitcoin last trade

@bitfinex $646.76
@btcecom $634.50

Set #crypto #price #alerts at http://AlertCo.in",0,0,0,False
257,AlertCo.in@AlertCoin,"#Bitcoin last trade

@bitstamp $645.01
@coinbase $651.04

Set #crypto #price #alerts at http://AlertCo.in",0,0,0,False
258,NE Patriots Dynasty@NEPatsDynasty,Looking for #WallStreet #TRADERS #entrepreneurs #Investors #HomeBusiness #money #crypto http://GoldNews.ilgamos.com/buy?buy_type=1 SHARE,1,0,0,False
259,tekybot@tekypromo,US Department of Homeland Security Talks Blockchain R&D http://ift.tt/29wSKrq #tekypromo #TP #NEWS #cryptocurrency,0,0,0,False
260,need-bitcoin.com@need_bitcoin,Bitcoin Price Post-Halving Calm http://ift.tt/29r11uf #bitcoin #cryptocurrency,0,0,0,False
261,Team 300FPS ︻╦̵̵̿╤─@300FPSGAMING,US Department of Homeland Security Talks Blockchain R&D http://btcf.co/29w3Xve #bitcoin #bitcoinnews #btc #cryptocurrency,1,1,0,False
262,Bitcoin City™#฿TC@Bitcoin_City,"#btc US Department of Homeland Security Talks Blockchain R&D: In a new interview, members of... http://bit.ly/29ZVTyo #bitcoin #crypto",1,0,0,False
275,Alejandro Sewrjugin@alesew23,#Bitcoin US Department of Homeland Security Talks Blockchain R&D http://bit.ly/29F2YHj #Tech #Crypto,4,0,0,False
276,Crypto Trader@cryptoprofit,#Bitcoin #Crypto #BTCUSD H1 100SMA_BTCUSD_2016.7.10.19.1,0,0,0,False
277,Bitcoin City™#฿TC@Bitcoin_City,"#btc Gadget Thirst Trap: A bouncy chair, a font-capturing device, and an adorable printer: H... http://bit.ly/29t1w6y #bitcoin #cryptoGadget Thirst Trap: A bouncy chair, a font-capturing device, and an adorable printerHello, Gadget Thirst Trap fans. Welcome to this week’s edition. For those of you who navigated here by accident and are asking yourself what I’m talking about, Gadget Thirst Trap is a show I host...theverge.com",1,0,0,False
278,Cryptocoin Radar@cryptocoinradar,"brk/btc: +5% value, +6% volume in 1 hour (http://cryptocoinradar.com monitored #trading #altcoin #cryptocoin)",0,0,0,False
279,NE Patriots Dynasty@NEPatsDynasty,Gold & #Crypto-Currency in one clever system. Join the Digital Currency Revolution and turn your #PROFITS into GOLD http://dld.bz/dARdH,0,0,0,False
280,tekybot@tekypromo,"Vice Makes 15-minute Documentary on Auroracoin, Iceland&aposs Cryptocurrency http://ift.tt/29w1KQk #tekypromo #TP #NEWS #cryptocurrency",0,0,0,False
281,CryptScoutNews@CryptScoutNews,"Vice Makes 15-minute Documentary on Auroracoin, Iceland&aposs #Cryptocurrency - http://cryptscout.com/news-portal/?id=12&ref=3694&utm_source=twitter&utm_medium=auto&utm_campaign=news-portal…",0,0,0,False
282,Cointelegraph@Cointelegraph,"Vice Makes 15-minute Documentary on #Auroracoin, #Iceland’s #Cryptocurrency http://cointelegraph.com/news/vice-makes-15-minute-documentary-on-auroracoin-icelands-cryptocurrency…",9,13,0,False
283,Magda Borowik@magdaborowik,Dutch central bank presents results of #cryptocurrency experiments http://bit.ly/28QqU6U via @CoinDesk #blockchain #Dutch Central Bank Presents Results of Cryptocurrency Experiments - CoinDeskA senior official for the central bank of The Netherlands recently presented the results of two internal cryptocurrency tests.coindesk.com,1,0,0,False
284,Bitcoin City™#฿TC@Bitcoin_City,"#btc Face computers slowly find their place in business:  Remember Google Glass? How could y... http://bit.ly/29EZ9Sj #bitcoin #cryptoFace computers slowly find their place in businessRemember Google Glass? How could you not? Born with great fanfare just four short years ago, the device quickly became the object of derision. People who wore them were ""Glassholes."" There were...techcrunch.com",0,0,0,False
286,TurtleShell Security@TurtleShellSec,"Everything you need to know about Bitcoin's ""Halving"" - http://bit.ly/29njdp7 #bitcoin #cryptocurrency #cryptocoins #encryption",0,0,0,False
287,Bitcoin Hourly@bitcoin_hourly,"Price Update: 1 #Bitcoin = $641.7700

#cryptocurrency source http://yhoo.it/1PH2nON (via @Flutter_HQ)",0,0,0,False
288,XBTFreelancer.com@XBTFreelancer,crowd funding site http://xbtfreelancer.com/prj/1689/crowd-unding-site… #career #earnmoney #programming #bitcoin #btc #crypto ฿3.105,1,0,0,False
289,NE Patriots Dynasty@NEPatsDynasty,What if? http://ilgamosilcoin.com/ilgamos-ilcoin.html… the power of money.  #Money #HomeBusiness #Trading #crypto Register FREE,4,2,0,False
290,TrustForums@TrustForums,"Best #Crypto Exchange, #DASH #Litecoin #Ethereum #bitcoin exchange your bitcoin to #USD as well  http://legendsoftomorrow.club Join #Lot now",1,0,0,False
291,Cam.Sexy @globalcoiners,"http://BitcoinINS.com  on #Sale at #sedo
https://sedo.com/search/details.php4?partnerid=14456&language=it&et_cid=15&et_lid=16727&domain=bitcoinins.com&et_sub=1042&origin=parking…
#domain #bitcoin #bitcoins #cyber #biz #insurance #insure #btc #Crypto",0,0,0,False
292,Paul Hershenson@phershenson,"Troubles of Ethereum Continue, With Final Solution Still Not In View #ethereum #cryptocurrencyTroubles of Ethereum Continue, With Final Solution Still Not In ViewSince the June 17 attack on the DAO, the Ethereum network has suffered a chain of events that led to the fall of Ether.cointelegraph.com",0,0,0,False
293,Crypto Yoyo@cryptoyoyo,Mining for bitcoins just got a lot harder http://bit.ly/29ZQibp #bitcoin #crypto #news,0,0,0,False
294,Crypto Yoyo@cryptoyoyo,Digital Currency Weekly Recap 7-10-2016 http://bit.ly/29wNFzk #bitcoin #crypto #news,1,0,0,False
295,Crypto Yoyo@cryptoyoyo,Bitcoin Scam Site Warning – Coince http://bit.ly/29ZQacg #bitcoin #crypto #news,1,0,0,False
296,Crypto Yoyo@cryptoyoyo,Physical Bitcoins UK Sells Various Cryptocurrency Goodies http://bit.ly/29wNjIV #bitcoin #crypto #news,1,0,0,False
297,Bitcoin City™#฿TC@Bitcoin_City,#btc Bitcoin Price Post-Halving Calm: Bitcoin price holds steady and the reward halving has ... http://bit.ly/29AJjb4 #bitcoin #crypto,0,0,0,False
298,need-bitcoin.com@need_bitcoin,Global Fintech Masterminds to Attend London Fintech Week 2016 http://ift.tt/29MANr0 #bitcoin #cryptocurrency,0,0,0,False
299,tekybot@tekypromo,Bitcoin Price Post-Halving Calm http://ift.tt/29sVcvP #tekypromo #TP #NEWS #cryptocurrency,0,0,0,False
300,Crypto Trader@cryptoprofit,#Bitcoin #Crypto #BTCUSD H1 100SMA_BTCUSD_2016.7.10.18.21,1,0,0,False
301,CNXL.STUDIO@CNXLstudio,"online mixing and mastering service
#residual #cryptocurrency #easymoney #best #network #profit #casino #millionaire #directselling #luxury",2,0,0,False
302,Team 300FPS ︻╦̵̵̿╤─@300FPSGAMING,Bitcoin Price Post-Halving Calm http://btcf.co/29vYchg #bitcoin #bitcoinnews #btc #cryptocurrency,2,0,0,False
303,Safwan Zaheer@safwanzaheer,"Will this be key to mass adoption of #Bitcoin?
#fintech #blockchain #cryptocurrency
https://goo.gl/tnPPcY",1,0,0,False
304,SeekOutFreedom@SeekOutFreedom,"Replying to @just_dineshTop 100 on #CryptoCurrency exchanges several times already, #Recognized, #Established on The #Blockchain already.. I'd say High",0,0,0,False
305,Julia Vaingurt@julia_vaingurt,"Bitcoin Prices Volatile in $600s As Traders Await Halving - CoinDesk ➤ http://cur.lv/10cob7
 | #bitcoin #crypto",1,0,0,False
306,neo@werneo,"#cryptocurrency PSA: #NXT #Ardor snapshot starts July 14, 2016, and ends on October 12, 2016. https://nxtforum.org/core-development-announcements/(ann)-ardor-or-nxt-2-0-a-scalable-child-chain-platform…",1,0,0,False
307,Bitcoin Catcher@bitcoin_catcher,"Earn #FREE #Bitcoins from Bitcoin Catcher Faucet!
>>> http://buff.ly/29x1K12
#btc #bitcoin #crypto #freebitcoin #cryptonews #bitnews #cash",1,1,0,False
308,Bitcoin City™#฿TC@Bitcoin_City,"#btc OMG Digital is basically BuzzFeed for Africa:  OMG Digital, a West Africa-based startup... http://bit.ly/29vFyAC #bitcoin #cryptoOMG Digital is basically BuzzFeed for AfricaOMG Digital, a West Africa-based startup founded by Prince Boakye Boampong and Jesse Arhin Ghansah, is on a mission to bring relatable content to African millennials. The two are currently particip...techcrunch.com",2,0,0,False
309,STIDIA Security@STIDIA_Security,#HTTPS #crypto’s days are numbered. Here’s how #Google wants to save it http://goo.gl/fb/TGXA4t #infosec #itsecurity,1,0,0,False
314,Bitcoin@webitcoins,Blocksafe Applies Blockchain Tech to Improve ‘Smart Guns’ https://cryptocoinsnews.com/blocksafe-blockchain-smart-guns/… #cryptocurrency,1,0,0,False
315,CCN - Capital & Celeb News@CapitalAndCeleb,Blocksafe Applies Blockchain Tech to Improve ‘Smart Guns’ https://cryptocoinsnews.com/blocksafe-blockchain-smart-guns/… #cryptocurrency,1,8,0,False
316,David Liam@crazydaveorama,#ShapeShift Thief Begins to Move Stolen #Bitcoin http://coint.co/3pB3 #cryptocurrency #hacked,3,0,0,False
317,Dany DeGrave@DanyDeGrave,"""Most users have flocked to Bitcoin rather than lose Uber."" https://cointelegraph.com/news/uber-switches-to-bitcoin-in-argentina-after-govt-blocks-uber-credit-cards… #taxi #cryptocurrency #disruption",0,0,0,False
318,OpenFXMarket@OpenFXMarket,#bitcoin market index: 95.53 #OFXBTC. #altcoin market index (avg): 155.78 #OFXAVG by http://openfxmarket.com. Stay tuned!,0,0,0,False
319,BitcoinAgile@bitcoinagile,Etherparty Reaches Test Phase of Drag and Drop Smart Contract Builder #cryptocurrency http://bit.ly/29Mvo3m,1,1,0,False
320,BitWaRRior@bitwarriorX,Start getting your cheap #ESP #ESPERS now on http://ift.tt/29EMiy0 … #altcoins #bitcoin #btc,0,0,0,False
321,Farah K. Miraza@farahkaifa,#cryptocurrency #crypto Etherparty Reaches Test Phase of Drag and Drop Smart Contract Builder http://ow.ly/8j8e502fPSD,0,0,0,False
322,Bitcoin Hourly@bitcoin_hourly,"Price Update: 1 #Bitcoin = $640.8700

#cryptocurrency source http://yhoo.it/1PH2nON (via @Flutter_HQ)",0,0,0,False
323,BitcoinBuzz vega9@BitcoinBuzzV9,http://bitcoinbuzz.vega9.com - Hot topics: #price #bitcoin #btc #blockchain #crypto #news,0,0,0,False
324,BitcoinAgile@bitcoinagile,Code Bug Spikes Votes Against #ethereum Hard Fork #BTC-E #Carbonvote #Cryptocurrency http://fintechist.com/code-bug-spikes-votes-ethereum-hard-fork…,0,0,0,False
325,Bitcoin City™#฿TC@Bitcoin_City,"#btc PSA: Attackers Brute-Forcing Logins on Bitcoin Sites, Use 2FA & Don't Reuse Passwords: ... http://bit.ly/29yUi5s #bitcoin #cryptoPSA: Attackers Brute-Forcing Logins on Bitcoin Sites, Use 2FA &...Posted in r/Bitcoin by u/STRML • 39 points and 24 commentsreddit.com",3,0,0,False
326,Bitcoin City™#฿TC@Bitcoin_City,#btc 5 Things We Learned From Analysing the Location of 950+ Blockchain Startups:       subm... http://bit.ly/29vDQzf #bitcoin #crypto5 Things We Learned From Analysing the Location of 950+ Blockchain...Posted in r/Bitcoin by u/lawrencelundy • 50 points and 7 commentsreddit.com,2,0,0,False
327,Bitcoin City™#฿TC@Bitcoin_City,#btc French famous school on Social Sciences (EHESS) will open a seminary on the topic of mo... http://bit.ly/29vDBEo #bitcoin #cryptoFrench famous school on Social Sciences (EHESS) will open a...reddit.com,1,0,0,False
328,art|code@Thematizer,"#cryptocurrency and #basicincome  Slides from my talk at #BIEN2016
http://artmeetscode.com/2016/07/10/slides-from-bien-2016-talk/…",11,0,0,False
333,tekybot@tekypromo,Global Fintech Masterminds to Attend London Fintech Week 2016 http://ift.tt/29G1QRP #tekypromo #TP #NEWS #cryptocurrency,0,0,0,False
334,ferthee@ariesarcha,"Earn your FREE #CryptoCurrency here >>> http://ift.tt/1RN6Ftm <<<
Get your #Bitcoin EVERY 5 minutes!",0,0,0,False
335,Bogdan STRB@BogdanSTRB,"PSA: Attackers Brute-Forcing Logins on Bitcoin Sites, Use 2FA & Don't Reuse Passwords http://ift.tt/29vzW9q #bitcoin #blockchain #crypto…",0,0,0,False
336,Denny McEnroe@McEnroeDenny,Re: If u were Warren Buffet would u buy 51% of Bitcoins? http://cur.lv/10cn7q #bitcoin #crypto,0,0,0,False
337,Denny McEnroe@McEnroeDenny,"Re: [Have] HDChina account [Want] hdsky, hdroute or 0.05[btc] http://cur.lv/10cn7p #bitcoin #crypto",0,0,0,False
338,Denny McEnroe@McEnroeDenny,Re: Claymore's Dual Ethereum+Decred/Siacoin GPU Miner v5.0 (Windows/Linux) http://cur.lv/10cn7o #bitcoin #crypto,0,0,0,False
339,Denny McEnroe@McEnroeDenny,Re: Do you still believe in bitcoin http://cur.lv/10cn7n #bitcoin #crypto,0,0,0,False
340,Denny McEnroe@McEnroeDenny,"Re: [PRE-ANN/DISCUSSION] Silk Network: Silk, DarkSilk and Weaver http://cur.lv/10cn7l #bitcoin #crypto",1,0,0,False
341,Cryptocoin Radar@cryptocoinradar,"bela/btc: +1% value, +3% volume in 12 minutes (http://cryptocoinradar.com monitored #trading #altcoin #cryptocoin)",0,0,0,False
342,berna alp@balp,#HTTPS #crypto is on the brink of collapse—Google has a plan to fix it http://arstechnica.co.uk/security/2016/07/https-crypto-is-on-the-brink-of-collapse-google-has-a-plan-to-fix-it/…,0,0,0,False
343,Alexandre Joulain@Alexjoule1,Plein les pattes #velo #defi #nice,1,1,0,False
344,Mary@MaryF_Hartman,"Roll and win free Bitcoins every hour!
http://tinyurl.com/winbitcoins24
#bitcoin #btc #blockchain #Crypto #Win #free #money",44,53,0,False
345,ferthee@ariesarcha,Earn your FREE #bitcoin EVERY hour here >>> http://ift.tt/1TKc1pU <<< #CryptoCurrency #OnlineMoney #earningonline,0,0,0,False
346,“Li Min” Chase@ChaseThatCoin,So apparently I don't anything about #cryptocurrency  because I don't want to give a random person 10k to help build their coin... Welp,1,0,0,False
347,SmileyGnome BTC @SmileyGnome,@NexusNiro looking like rally this week. Lots of support and weak sell side. #altcoin #bitcoin @Poloniex #cubesat,0,0,0,False
348,Born Pitcoin@PornBitcoin,How Distributed Ledgers Impact Post-Trade in a Dodd-Frank World http://dlvr.it/LmLJTh #crypto #bitcoin,0,0,0,False
349,Born Pitcoin@PornBitcoin,Etherparty Nears Beta Phase To Enable Non-Developers Create Smart Contracts http://dlvr.it/LmLJSw #crypto #bitcoin,0,0,0,False
350,Born Pitcoin@PornBitcoin,Etherparty Nears Beta Phase To Enable Non-Developers Create Smart Contracts http://dlvr.it/LmLJNt #crypto #bitcoin,0,0,0,False
351,Bitcoin For The Rest@BitForCoin,How Distributed Ledgers Impact Post-Trade in a Dodd-Frank World http://dlvr.it/LmLHz9 #crypto #bitcoin,1,0,0,False
352,CryptoTorNews@CryptoTorNews,How Distributed Ledgers Impact Post-Trade in a Dodd-Frank World http://dlvr.it/LmLHyw #crypto #bitcoin,1,0,0,False
353,Maria Juana@Mariaj_Hyip,How Distributed Ledgers Impact Post-Trade in a Dodd-Frank World http://dlvr.it/LmLHz3 #crypto #bitcoin,1,0,0,False
356,Maria Juana@Mariaj_Hyip,Etherparty Nears Beta Phase To Enable Non-Developers Create Smart Contracts http://dlvr.it/LmLHxQ #crypto #bitcoin,0,0,0,False
357,Jesse James@btce4,How Distributed Ledgers Impact Post-Trade in a Dodd-Frank World http://dlvr.it/LmLHxg #crypto #bitcoin,0,0,0,False
358,Bitcoin For The Rest@BitForCoin,Etherparty Nears Beta Phase To Enable Non-Developers Create Smart Contracts http://dlvr.it/LmLHwx #crypto #bitcoin,1,0,0,False
359,CryptoTorNews@CryptoTorNews,Etherparty Nears Beta Phase To Enable Non-Developers Create Smart Contracts http://dlvr.it/LmLHwf #crypto #bitcoin,1,0,0,False
360,Jesse James@btce4,Etherparty Nears Beta Phase To Enable Non-Developers Create Smart Contracts http://dlvr.it/LmLHwB #crypto #bitcoin,0,0,0,False
361,Maria Juana@Mariaj_Hyip,Etherparty Nears Beta Phase To Enable Non-Developers Create Smart Contracts http://dlvr.it/LmLHl1 #crypto #bitcoin,3,0,0,False
362,Bitcoin For The Rest@BitForCoin,Etherparty Nears Beta Phase To Enable Non-Developers Create Smart Contracts http://dlvr.it/LmLHlj #crypto #bitcoin,1,0,0,False
363,Jesse James@btce4,Etherparty Nears Beta Phase To Enable Non-Developers Create Smart Contracts http://dlvr.it/LmLHlD #crypto #bitcoin,1,0,0,False
364,CryptoTorNews@CryptoTorNews,Etherparty Nears Beta Phase To Enable Non-Developers Create Smart Contracts http://dlvr.it/LmLHkJ #crypto #bitcoin,2,0,0,False
365,Bitcoin Press@BitcoinPressX,How Distributed Ledgers Impact Post-Trade in a Dodd-Frank World http://dlvr.it/LmLHsl #crypto #bitcoin,0,0,0,False
366,Bitcoin Press@BitcoinPressX,Etherparty Nears Beta Phase To Enable Non-Developers Create Smart Contracts http://dlvr.it/LmLHrV #crypto #bitcoin,1,0,0,False
367,Bitcoin Press@BitcoinPressX,Etherparty Nears Beta Phase To Enable Non-Developers Create Smart Contracts http://dlvr.it/LmLHjj #crypto #bitcoin,1,0,0,False
368,Rimbit @rimbit,Share With Your Friends On Social Media! http://rimbit.com/threads/share-with-your-friends-on-social-media.5605/… #crypto,0,0,0,False
369,Bitcoin City™#฿TC@Bitcoin_City,"#btc Black Lives Matter activist DeRay Mckesson arrested during protest on Periscope: DeRay ... http://bit.ly/29yQy3S #bitcoin #cryptoBlack Lives Matter activist DeRay Mckesson arrested during protest on PeriscopeDeRay Mckesson, the prominent and outspoken Black Lives Matter activist, was arrested in Baton Rouge, Louisiana last night during a protest against the shooting death of Alton Sterling. Mckesson l...theverge.com",0,0,0,False
370,Bitcoin Hourly@bitcoin_hourly,"Price Update: 1 #Bitcoin = $646.0200

#cryptocurrency source http://yhoo.it/1PH2nON (via @Flutter_HQ)",0,0,0,False
371,Julia Vaingurt@julia_vaingurt,"http://cur.lv/10cmgv
 - Hot topics: #price #bitcoin #blockchain #btc #crypto #fintech",2,1,0,False
373,BitcoinBuzz vega9@BitcoinBuzzV9,http://bitcoinbuzz.vega9.com - Hot topics: #price #bitcoin #blockchain #btc #crypto #fintech,0,0,0,False
374, xDarth Decred.XHV @Darth_Crypto,"I have to say I've never felt so safe financially and so confident regarding my future since I'm into #cryptocurrency, especially #Bitcoin",0,0,0,False
375,EUROPECOIN  (.eu.org)@europecoinEUORG,V3 IS STAPLE AND FUN - SUPPLY 9MIO - START SOLO MINING TODAY - EVERYBODY CAN DO IT #CRYPTO #ALTCOIN #BITTREX RETWEET,12,14,0,False
376,Melodena@Melodena,Of #Iceland - its wealth and new #cryptocurrency #Auroracoin https://unlimited.world/motherboard/new-currency-at-the-end-of-the-world…,0,0,0,False
377,jjtmlat.sec@jjtmlat,#crypto Google adding post-quantum algorithm on top of elliptic-curve key-exchange https://security.googleblog.com/2016/07/experimenting-with-post-quantum.html?m=1…,0,0,0,False
378,sonsofliberty2016@Thefedendsnow,#Phillipines #Muecoin #askastoreaday #Vegas and #MontaryUnit meet in #18b #DTVL #TheArtsFactoryLV #BTM #crypto #deals,0,0,0,False
379,Julia Vaingurt@julia_vaingurt,"Law Enforcement Still Monitors Bitcoin To Arrest Deep Web Users http://cur.lv/10cm1p
#bitcoin #crypto #news",0,0,0,False
380,Crypto Yoyo@cryptoyoyo,Law Enforcement Still Monitors Bitcoin To Arrest Deep Web Users http://bit.ly/29Axly7 #bitcoin #crypto #news,0,0,0,False
381,cryptosdice@cryptosdice,Bets begin in less than 24 hoursl! http://cryptosdice.com #bitcoin #BTC #dice #gambling #cryptocurrency #altcoins,0,0,0,False
382,Alvis Cheng@AlvisMiner,Build your own 3D games with this 7-Course Unity 3D Bundle (92% off): Want to create cut... http://sh.st/HXkot #bitcoin #crypto #IT,0,0,0,False
383,ferthee@ariesarcha,#CryptoCurrency You can join as well and collect your #Bitcoin for FREE >>> http://ift.tt/1TKc1pU,0,0,0,False
384,need-bitcoin.com@need_bitcoin,Law Enforcement Still Monitors Bitcoin To Arrest Deep Web Users http://ift.tt/29vvYOe #bitcoin #cryptocurrency,0,0,0,False
385,need-bitcoin.com@need_bitcoin,UK Gov’t is Trialling the Blockchain for Welfare & Pensions http://ift.tt/29yMMYl #bitcoin #cryptocurrency,0,0,0,False
386,Julia Vaingurt@julia_vaingurt,"Bitcoin Versus Ethereum: Room For Both? - Huffington Post ➤ http://cur.lv/10clvt
 | #bitcoin #crypto #Anonymous",2,0,0,False
387,Bitcoin Catcher@bitcoin_catcher,"CLAIM for 3500 #Satoshi Reward > http://buff.ly/29x1gYD
#crypto #Cryptocurrency #faucet #bitcoin #btc #bitnews",1,0,0,False
388,NE Patriots Dynasty@NEPatsDynasty,Money Talks. Time to #invest #Stocks #Money #Gold #Crypto go to http://MoneyTalks.ilgamos.com The money and payment system of future.,1,2,0,False
389,ILbotCrypto@LbotCrypto,Time to check on #edoncoin's development! http://ow.ly/WbHMN #btc #altcoin #ltc #dogecoin #bitcoin #edoncoin #ltc,0,0,0,False
390,Edward Labarge@Edward_Labarge,National Security Agency's Crypto Challenge of the Week http://tinyurl.com/gr4gsox #crypto #education #cyber,0,0,0,False
391,CryptoCoinsMarket@ccoinmarket,UK Gov’t is Trialling the Blockchain for Welfare & Pensions http://ift.tt/29MgZEg http://ift.tt/29HmuBr #crypto #bitcoin,2,0,0,False
392,Bitcoin City™#฿TC@Bitcoin_City,#btc Insurance is ready for an upgrade:  Insurance may be widely perceived as a sleepy backw... http://bit.ly/29EKaHO #bitcoin #crypto,1,0,0,False
393,Cryptocoin Radar@cryptocoinradar,"game/btc: +6% value, +19% volume in 1 hour (http://cryptocoinradar.com monitored #trading #altcoin #cryptocoin)",0,0,0,False
394,tekybot@tekypromo,How Distributed Ledgers Impact Post-Trade in a Dodd-Frank World http://ift.tt/29MgzxM #tekypromo #TP #NEWS #cryptocurrency,0,0,0,False
395,Team 300FPS ︻╦̵̵̿╤─@300FPSGAMING,How Distributed Ledgers Impact Post-Trade in a Dodd-Frank World http://btcf.co/29vJhUa #bitcoin #bitcoinnews #btc #cryptocurrency,0,0,0,False
396,Bitcoin City™#฿TC@Bitcoin_City,#btc Coinbase plans to shut down support for Canadian customers:       submitted by    /u/bg... http://bit.ly/29ZyP2V #bitcoin #cryptoCoinbase plans to shut down support for Canadian customersPosted in r/Bitcoin by u/bgsand • 4 points and 3 commentsreddit.com,0,0,0,False
397,Bitcoin City™#฿TC@Bitcoin_City,#btc Pound sterling becomes more unstable than Bitcoin after Brexit:       submitted by    /... http://bit.ly/29Zyq0D #bitcoin #cryptoPound sterling becomes more unstable than Bitcoin after BrexitPosted in r/Bitcoin by u/_smudger_ • 285 points and 42 commentsreddit.com,0,0,0,False
411,Bitcoin City™#฿TC@Bitcoin_City,#btc Sweden tests blockchain technology for land registry:       submitted by    /u/possible... http://bit.ly/29EJimF #bitcoin #cryptoSweden tests blockchain technology for land registryPosted in r/Bitcoin by u/possiblelion • 58 points and 23 commentsreddit.com,0,0,0,False
412,BitcoinAgile@bitcoinagile,Law Enforcement Still Monitors #bitcoin To Arrest Deep Web Users #blockchain #crypto #news http://bit.ly/29sG1mj,1,7,0,False
413,Bitcoin Hourly@bitcoin_hourly,"Price Update: 1 #Bitcoin = $646.9700

#cryptocurrency source http://yhoo.it/1PH2nON (via @Flutter_HQ)",0,0,0,False
414,BitcoinBuzz vega9@BitcoinBuzzV9,http://bitcoinbuzz.vega9.com - Hot topics: #bitcoin #price #blockchain #btc #crypto #fintech,1,0,0,False
415,BitcoinAgile@bitcoinagile,"#bitcoin mining just became more difficult, on purpose #cryptocurrency #culture #currency #gear #internet #kncminer http://bit.ly/29sEBZ7",1,2,0,False
416,Denny McEnroe@McEnroeDenny,Re: █ ★☆★777Coin★☆★ █  Full Range of Games  Instant Withdraw  Free mBTC! http://cur.lv/10ckua #bitcoin #crypto,0,0,0,False
417,Denny McEnroe@McEnroeDenny,Re:  Is Holding Bitcoin a long time good way to make money? http://cur.lv/10cku9 #bitcoin #crypto,2,0,0,False
418,Denny McEnroe@McEnroeDenny,"Re: http://C-CEX.com Trusted, Secure & Friendly Exchange Since 2013. 100+ Alts,USD,Low Fees http://cur.lv/10cku7 #bitcoin #crypto",2,0,0,False
419,Denny McEnroe@McEnroeDenny,Re:   zazarb's Micro-Loans & escrow  http://cur.lv/10cku5 #bitcoin #crypto,1,0,0,False
420,Denny McEnroe@McEnroeDenny,Re: What What is your favorite sport ? http://cur.lv/10cku2 #bitcoin #crypto,0,0,0,False
421,Andrew Roth@808Andrew,#Cryptocurrency & #Blockchain: The power of digital tech & IoT to revolutionize payment systems https://accenture.com/us-en/service-accenture-mobility-internet-of-things#block-multimedia…,3,2,0,False
422,AlertCo.in@AlertCoin,"#Bitcoin last trade

@bitfinex $646.34
@btcecom $634.90

Set #crypto #price #alerts at http://AlertCo.in",0,0,0,False
423,AlertCo.in@AlertCoin,"#Bitcoin last trade

@bitstamp $646.97
@coinbase $650.85

Set #crypto #price #alerts at http://AlertCo.in",0,0,0,False
425,YDX @YDXMyfriend,"The Chinese are taking notice of Nxt 2.0: #Ardor!
http://wanbizu.com/xinbi/201607107156.html…
#blockchain #NXT #cryptocurrency #fintech",18,18,0,False
426,Breakout Coin@BreakoutCoin,"#Bitcoin experts comment on block reward #halving - http://goo.gl/alerts/zcPwq #GoogleAlerts #BTC #CryptoNews #CryptocurrencyBitcoin experts comment on block reward halving - CoinReportToday marks a major milestone in the world of bitcoin: block reward halving. According to bitcoinblockhalf.com, the bitcoin blocking mining reward halves everycoinreport.net",0,0,0,False
427,Crypto Trader@cryptoprofit,#Bitcoin #Crypto #BTCUSD H1 100SMA_BTCUSD_2016.7.10.15.8,0,0,0,False
428,Gabor Venczel@ujtrend,"Donald Trump Presidency Could Be a Boost to Bitcoin #cryptocurrency, bitcoin, octacoin, http://soco.space/qpczAY",0,0,0,False
429,Crypto Yoyo@cryptoyoyo,"Bitcoin mining just became more difficult, on purpose http://bit.ly/29wukya #bitcoin #crypto #news",0,0,0,False
430,MiningField@miningfield,"DGC (X11) Pool Boosting!
2% income boost for 1 hour!
http://dgcx11.miningfield.com
#dgc #digitalcoin @DigitalcoinDGC #altcoin #cryptocurrency",1,0,0,False
431,SwagSociety.me@SwagSociety_me,Artist Captures Bitcoin’s History And Uniqueness http://bit.ly/29FKVSI #SwagBucks #altcoin,0,0,0,False
432,tekybot@tekypromo,Etherparty Nears Beta Phase To Enable Non-Developers Create Smart Contracts http://ift.tt/29FKKn4 #tekypromo #TP #NEWS #cryptocurrency,0,0,0,False
433,Sleeping Horse #BRG@Hunting_Bitcoin,Claim your free Doge Coin every one hour just at http://freedoge.co.in/?r=314242 claim up to 900k doge coin #faucet #altcoin,0,0,0,False
434,Cam.Sexy @globalcoiners,"http://BitcoinINS.com   on #Sale at #sedo
https://sedo.com/search/details.php4?partnerid=14456&language=it&et_cid=15&et_lid=16727&domain=bitcoinins.com&et_sub=1042&origin=parking…
#domain #bitcoin #bitcoins #cyber #biz #insurance #insure #btc #Crypto",0,0,0,False
435,Bitcoin@crypto_bitcoins,Etherparty Nears Beta Phase To Enable Non-Developers Create Smart Contracts http://cointelegraph.com/news/etherparty-nears-beta-phase-to-enable-non-developers-create-smart-contracts… #crypto #bitcoin,3,0,0,False
436,Cointon@CointonDotCom,Etherparty Nears Beta Phase To Enable Non-Developers Create Smart Contracts http://cointelegraph.com/news/etherparty-nears-beta-phase-to-enable-non-developers-create-smart-contracts… #crypto #bitcoin,1,0,0,False
437,Ameer Rosic@AmeerRosic,#Cryptocurrency: A New Economy For The Future http://dld.bz/eEbgr #bitcoin #blockchain #ethereum,1,0,0,False
438,need-bitcoin.com@need_bitcoin,Artist Captures Bitcoin’s History And Uniqueness http://ift.tt/29wZogb #bitcoin #cryptocurrency,0,0,0,False
439,Bitcoin Hourly@bitcoin_hourly,"Price Update: 1 #Bitcoin = $645.4400

#cryptocurrency source http://yhoo.it/1PH2nON (via @Flutter_HQ)",0,0,0,False
440,BitcoinBuzz vega9@BitcoinBuzzV9,http://bitcoinbuzz.vega9.com - Hot topics: #bitcoin #blockchain #btc #crypto #bitlive,0,0,0,False
445,SeekOutFreedom@SeekOutFreedom,"#BitcoinAlternative #YOCoin, a New #Cryptocurrency With #MainstreamAppeal http://finance.yahoo.com/news/bitcoin-alternative-yocoin-cryptocurrency-mainstream-164300496.html?soc_src=mediacontentstory&soc_trk=tw… via @YahooFinance",1,1,1,False
446,NE Patriots Dynasty@NEPatsDynasty,#Bitcoin at 700 #Crypto #ILCOIN #ILGamos The Future of #Money Register Here FREE  http://dld.bz/dBkzq use the 4 in 1 TRADING SYSTEM,1,0,0,False
447,Crypto Yoyo@cryptoyoyo,Technology and internet changing the nature of financial services http://bit.ly/29wXrAb #bitcoin #crypto #news,0,0,0,False
448,Crypto Yoyo@cryptoyoyo,Dark Clouds Gather Over Deutsche Bank As Collapse Looms http://bit.ly/29vCD09 #bitcoin #crypto #news,3,0,0,False
449,Crypto Yoyo@cryptoyoyo,Artist Captures Bitcoin's History And Uniqueness http://bit.ly/29wXGeK #bitcoin #crypto #news,0,0,0,False
450,need-bitcoin.com@need_bitcoin,Dark Clouds Gather Over Deutsche Bank As Collapse Looms http://ift.tt/29EADR5 #bitcoin #cryptocurrency,0,0,0,False
451,Denny McEnroe@McEnroeDenny,Re:  ICO CLOSEDLETITRIDEDICEINVESTMENT460+BTC INVESTED http://cur.lv/10ciuv #bitcoin #crypto,1,0,0,False
452,Denny McEnroe@McEnroeDenny,Re: Bitcointalk is a good way to get information about Bitcoins? http://cur.lv/10ciuu #bitcoin #crypto,1,0,0,False
453,Denny McEnroe@McEnroeDenny,Re: [http://BIT-X.com] Earn Bitcoins by Posting | Signature Campaign http://cur.lv/10cius #bitcoin #crypto,0,0,0,False
454,NE Patriots Dynasty@NEPatsDynasty,Quadruple your investment.  #Money #stocks #Gold #crypto 4 in 1 trading system for Partners only. http://ilgamosilcoin.com/home.html,0,0,0,False
455,Crypto Yoyo@cryptoyoyo,bitcoin/bitcoin http://bit.ly/29pv9e1 #bitcoin #crypto #news,0,0,0,False
456,Ameer Rosic@AmeerRosic,5 Benefits of #Cryptocurrency: A New Economy For The Future http://dld.bz/eEbgr #bitcoin #blockchain,0,0,0,False
457,Altcoinspekulant@Altcoinspekulan,#IOTA will go live tomorrow! First 3rd Generation #Cryptocurrency with #tangle instead a #blockchain! #Bitcoin #IOT,2,3,1,False
458,Bitcoin@crypto_bitcoins,MakerDAO Founder Claims “Absolutely Zero” Obligation to DAO… http://dlvr.it/LmGXR3 #bitcoin #bitcoinnews #crypto,0,0,0,False
459,Cointon@CointonDotCom,MakerDAO Founder Claims “Absolutely Zero” Obligation to DAO… http://dlvr.it/LmGXR3 #bitcoin #bitcoinnews #crypto,0,0,0,False
460,Crypto Trader@cryptoprofit,"#crypto OPENED 
 #ETHUSD Buy  10.83000 
 SL 0.00000 
 TP 0.00000",0,0,0,False
461,Jesse James@btce4,Artist Captures Bitcoins History And Uniqueness http://dlvr.it/LmHh0X #crypto #bitcoin,0,0,0,False
462,Bitcoin For The Rest@BitForCoin,Artist Captures Bitcoins History And Uniqueness http://dlvr.it/LmHh0V #crypto #bitcoin,0,0,0,False
467,Jesse James@btce4,MakerDAO Founder Claims Absolutely Zero Obligation to DAO Investors In Interview http://dlvr.it/LmHh0L #crypto #bitcoin,0,0,0,False
468,Bitcoin For The Rest@BitForCoin,MakerDAO Founder Claims Absolutely Zero Obligation to DAO Investors In Interview http://dlvr.it/LmHh0K #crypto #bitcoin,0,0,0,False
469,Bitcoin For The Rest@BitForCoin,Price Report Bitcoin is Dominating Argentina http://dlvr.it/LmHh05 #crypto #bitcoin,0,0,0,False
470,Jesse James@btce4,Price Report Bitcoin is Dominating Argentina http://dlvr.it/LmHh06 #crypto #bitcoin,0,0,0,False
471,Julia Vaingurt@julia_vaingurt,"MakerDAO Founder Claims Absolutely Zero Obligation to DAO Investors In Interview http://cur.lv/10ciea
#crypto #bitcoin",0,0,0,False
472,Born Pitcoin@PornBitcoin,Artist Captures Bitcoins History And Uniqueness http://dlvr.it/LmHgd7 #crypto #bitcoin,0,0,0,False
473,Bitcoin Press@BitcoinPressX,Artist Captures Bitcoins History And Uniqueness http://dlvr.it/LmHgd1 #crypto #bitcoin,0,0,0,False
474,Maria Juana@Mariaj_Hyip,Artist Captures Bitcoins History And Uniqueness http://dlvr.it/LmHgcm #crypto #bitcoin,0,0,0,False
475,CryptoTorNews@CryptoTorNews,Artist Captures Bitcoins History And Uniqueness http://dlvr.it/LmHgcj #crypto #bitcoin,0,0,0,False
476,Born Pitcoin@PornBitcoin,MakerDAO Founder Claims Absolutely Zero Obligation to DAO Investors In Interview http://dlvr.it/LmHgc2 #crypto #bitcoin,0,0,0,False
477,Bitcoin Press@BitcoinPressX,MakerDAO Founder Claims Absolutely Zero Obligation to DAO Investors In Interview http://dlvr.it/LmHgcK #crypto #bitcoin,0,0,0,False
478,Maria Juana@Mariaj_Hyip,MakerDAO Founder Claims Absolutely Zero Obligation to DAO Investors In Interview http://dlvr.it/LmHgc0 #crypto #bitcoin,1,0,0,False
479,CryptoTorNews@CryptoTorNews,MakerDAO Founder Claims Absolutely Zero Obligation to DAO Investors In Interview http://dlvr.it/LmHgbz #crypto #bitcoin,1,0,0,False
480,Bitcoin Press@BitcoinPressX,Price Report Bitcoin is Dominating Argentina http://dlvr.it/LmHgZS #crypto #bitcoin,0,0,0,False
481,Maria Juana@Mariaj_Hyip,Price Report Bitcoin is Dominating Argentina http://dlvr.it/LmHgZD #crypto #bitcoin,0,0,0,False
482,Born Pitcoin@PornBitcoin,Price Report Bitcoin is Dominating Argentina http://dlvr.it/LmHgZG #crypto #bitcoin,0,0,0,False
483,CryptoTorNews@CryptoTorNews,Price Report Bitcoin is Dominating Argentina http://dlvr.it/LmHgYc #crypto #bitcoin,0,0,0,False
484,Cryptolized™@Cryptolized,"#rimbit #crypto The Human Cost of Zoning in Indian Cities: Years ago, I worked for a magazi... http://bit.ly/29vidiB #decentralization",1,0,0,False
485,PumpingAltcoin@PumpingAltcoin,#Altcoin News and #Pump Tips is out! http://paper.li/PumpingAltcoin/1399763175?edition_id=5ac52a30-468e-11e6-bfc9-0cc47a0d1609… #Freebitcoin #Crypto #BTC #Mintpal Stories via @bryan8winter @devnullius,0,0,0,False
486,need-bitcoin.com@need_bitcoin,MakerDAO Founder Claims “Absolutely Zero” Obligation to DAO Investors In Interview http://ift.tt/29ptNzT #bitcoin #cryptocurrency,0,0,0,False
487,need-bitcoin.com@need_bitcoin,Price Report: Bitcoin is Dominating Argentina http://ift.tt/29qFTVx #bitcoin #cryptocurrency,0,0,0,False
488,coinOK@coinok,Win $150 in Dogecoins every hour! http://freedoge.co.in/?r=98385 #doge #dogecoin #btc #bitcoin #ltc #altcoin #cryptocurrency,1,0,0,False
489,Crypto Trader@cryptoprofit,#Bitcoin #Crypto #BTCUSD H1 100SMA_BTCUSD_2016.7.10.14.1,0,0,0,False
490,BitcoinAgile@bitcoinagile,Dark Clouds Gather Over Deutsche Bank As Collapse Looms #blockchain #bitcoin #crypto #news http://bit.ly/29suALv,2,4,0,False
491,Bitcoin Hourly@bitcoin_hourly,"Price Update: 1 #Bitcoin = $645.9500

#cryptocurrency source http://yhoo.it/1PH2nON (via @Flutter_HQ)",0,0,0,False
495,BitcoinBuzz vega9@BitcoinBuzzV9,http://bitcoinbuzz.vega9.com - Hot topics: #bitcoin #btc #blockchain #crypto #bitlive #fintech,0,0,0,False
496,Gabor Venczel@ujtrend,"Dutch Central Bank to Open Blockchain Campus #cryptocurrency, bitcoin, octacoin, http://soco.space/n-qKx2",0,0,0,False
497,tekybot@tekypromo,Artist Captures Bitcoins History And Uniqueness http://ift.tt/29qxDUO #tekypromo #TP #NEWS #cryptocurrency,0,0,0,False
498,need-bitcoin.com@need_bitcoin,Bitcoin Grows in Colombia with 300 New Coinapult BTMs http://ift.tt/29M3dRX #bitcoin #cryptocurrency,0,0,0,False
499,Team 300FPS ︻╦̵̵̿╤─@300FPSGAMING,Artist Captures Bitcoin’s History And Uniqueness http://btcf.co/29vys4h #bitcoin #bitcoinnews #btc #cryptocurrency,0,0,0,False
500,Bitcoin City™#฿TC@Bitcoin_City,#btc Artist Captures Bitcoin’s History And Uniqueness: Artist Pierre Bourque embodies the sp... http://bit.ly/29FzGq1 #bitcoin #crypto,0,0,0,False
501,Crypto Yoyo@cryptoyoyo,Pound sterling becomes more unstable than Bitcoin after Brexit http://bit.ly/29M2b8o #bitcoin #crypto #news,0,0,0,False
502,Crypto Yoyo@cryptoyoyo,Price Report: Bitcoin is Dominating Argentina http://bit.ly/29Fzl77 #bitcoin #crypto #news,0,0,0,False
503,Pravin Bhudiya@pravin_bhudiya,"[BRXT] BREXIT COIN LAUNCH details:http://goo.gl/Mlinm4
#brexit #altcoin #bitcoin #btc #scrypt #cryptocurrency http://fb.me/7iQ4dTH0c",1,2,0,False
504,Pravin Bhudiya@pravin_bhudiya,"C++ DEV Update – July edition details:http://goo.gl/Wf8rbH
#ethereum #eth #dev #altcoin #cryptocurrency http://fb.me/80o7JunUM",1,0,0,False
505,Crypto Trader@cryptoprofit,#Bitcoin #Crypto #BTCUSD H1 Trendline_BTCUSD_2016.7.10.13.10,0,0,0,False
506,Pravin Bhudiya@pravin_bhudiya,"Rimbit Giveaway (july 2016) details:http://goo.gl/wzEuNy
#rimbit #rbt #giveaway #altcoin #bitcoin #btc... http://fb.me/2SF90apmq",2,0,0,False
507,Brave New Coin@bravenewcoin,Top 5 #Altcoins by 24hr Volume (USD) from the BNC markets http://eepurl.com/b8Ne-5,0,0,0,False
508,Bitcoin City™#฿TC@Bitcoin_City,#btc Eli5 How does bitcoin's price go up or down?: If every sale of bitcoin for fiat is some... http://bit.ly/29FCKG5 #bitcoin #crypto,1,0,0,False
509,Pravin Bhudiya@pravin_bhudiya,"Siacoin Open Mining Pool Now Available from Nanopool details:http://goo.gl/91rtWU
#Siacoin #altcoin #miningpool",1,0,0,False
510,Denny McEnroe@McEnroeDenny,Re: [6.99$][OVER 4BTC WON]►►►SatoshiminesBOT►►►[NEW BOT][AUTOPILOT][150+ CUSTOMERS] http://cur.lv/10ch0m #bitcoin #crypto,0,0,0,False
511,Denny McEnroe@McEnroeDenny,Re: When gambling makes you cry. http://cur.lv/10ch0l #bitcoin #crypto,0,0,0,False
512,Denny McEnroe@McEnroeDenny,"Re: [Have]Paypal,  [Need] BTC http://cur.lv/10ch0k #bitcoin #crypto",1,0,0,False
513,Denny McEnroe@McEnroeDenny,Re: * My New Faucet *  Earn 888 Satoshi http://cur.lv/10ch0h #bitcoin #crypto,0,0,0,False
514,NE Patriots Dynasty@NEPatsDynasty,Great Blog on #crypto #cryptocurrency Click http://juddbagley.io/bitcoin/blockchain/nasdaq-is-joining-the-blockchain-trading-party/… SHARE,1,1,0,False
524,Julia Vaingurt@julia_vaingurt,"Price Report: Bitcoin is Dominating Argentina -… http://cur.lv/10cgvo
#bitcoin #fintech #btc #crypto http://cur.lv/10cgvp",3,0,0,False
525,CryptoCoinsMarket@ccoinmarket,Bitcoin Grows in Colombia with 300 New Coinapult BTMs http://ift.tt/29ZhCGJ http://ift.tt/29vcskN #crypto #bitcoin,1,0,0,False
526,Bitcoin City™#฿TC@Bitcoin_City,"#btc MakerDAO Founder Claims “Absolutely Zero” Obligation to DAO Investors In Interview: 

... http://bit.ly/29sq1Ro #bitcoin #crypto",1,0,0,False
527,Bitcoin City™#฿TC@Bitcoin_City,"#btc Price Report: Bitcoin is Dominating Argentina: 

Another small rise is in the books... http://bit.ly/29AcFGc #bitcoin #crypto",1,0,0,False
528,BitcoinAgile@bitcoinagile,#bitcoin XT: What Is It and Why Was It Released? #BitcoinXT #cryptocurrency http://bloomberg.com/news/videos/2015-08-19/bitcoin-xt-what-is-it-and-why-was-it-released-…,4,0,0,False
529,WhaleFund@WhaleFund,Good profits to realize today. It's #altcoin season again! Don't try to jump on trains you've missed! Choose some cheap coins and accumulate,3,2,0,False
530,NE Patriots Dynasty@NEPatsDynasty,#ILGamos and their NEW #ILCoin. 4 in 1 Trading platform. Stock up 35%.  http://INVEST.ilgamos.com/buy?buy_type=1 #Crypto #Nasdaq #ETRADE,0,0,0,False
531,TheUltraAliens@TheUltraAliens,In an #ICO why you only see the #CEO #openyoureyes #Friends #PartnersIn #bitcoin #altcoin,0,0,0,False
532,Tech Junkie@techjunkiejh,How China Took Center Stage in #Bitcoin ’s Civil War http://buff.ly/297eLdi #cryptocurrency,2,0,0,False
533,Farah K. Miraza@farahkaifa,#cryptocurrency #crypto Ethereum Price Weekly Analysis: Forming Base for Next High Move http://ow.ly/zYJt502fvNn,0,0,0,False
534,Bitcoin@crypto_bitcoins,Screw paper currency. #bitcoin #bitcoinhalving #crypto #crytocurrency,1,0,0,False
535,Cointon@CointonDotCom,Screw paper currency. #bitcoin #bitcoinhalving #crypto #crytocurrency,0,0,0,False
536,Bitcoin Hourly@bitcoin_hourly,"Price Update: 1 #Bitcoin = $648.1000

#cryptocurrency source http://yhoo.it/1PH2nON (via @Flutter_HQ)",0,0,0,False
537,Bitcoin For The Rest@BitForCoin,MakerDAO Founder Claims “Absolutely Zero” Obligation to DAO… http://dlvr.it/LmGXR2 #bitcoin #bitcoinnews #crypto,0,0,0,False
538,Born Pitcoin@PornBitcoin,MakerDAO Founder Claims “Absolutely Zero” Obligation to DAO… http://dlvr.it/LmGXQs #bitcoin #bitcoinnews #crypto,0,0,0,False
539,CryptoTorNews@CryptoTorNews,MakerDAO Founder Claims “Absolutely Zero” Obligation to DAO… http://dlvr.it/LmGXQb #bitcoin #bitcoinnews #crypto,0,0,0,False
540,Bitcoin Press@BitcoinPressX,MakerDAO Founder Claims “Absolutely Zero” Obligation to DAO… http://dlvr.it/LmGXQc #bitcoin #bitcoinnews #crypto,0,0,0,False
541,CryptoRSS@CryptoRSS,"Deepweb Firearms Sale Lead to Arrests in Germany: Today, the 5th of July, Stuttgart prosecutors have ... http://bit.ly/29ZgxPc #crypto",2,2,0,False
542,International CCC@Int_CCC,Today's Crypto Chronicle! News about #bitcoin #cryptocurrency and more! http://paper.li/Int_CCC/1409392381?edition_id=10881540-4684-11e6-a975-002590a5ba2d…,0,0,0,False
543,Pravin Bhudiya@pravin_bhudiya,"C++ DEV Update – July edition DETAILS:http://goo.gl/Wf8rbH
#ethereum #eth #dao #altcoin #cryptocurrency #dev",1,0,0,False
544,Crypto Yoyo@cryptoyoyo,The Eight Blockchain Startups At Nexus Squared Demo Day – Part II http://bit.ly/29EpsrH #bitcoin #crypto #news,1,1,0,False
545,Catalin Cimpanu@campuscodi,EU Gets Closer to Ending Anonymous Bitcoin Trading http://buff.ly/29HGIh4 #cryptocurrency #bitcoin #anonymous,5,6,1,False
546,tekybot@tekypromo,Price Report Bitcoin is Dominating Argentina http://ift.tt/29Enrfl #tekypromo #TP #NEWS #cryptocurrency,0,0,0,False
547,BlockChannel@BlockChannel,"BCN News: bitcoinist ""Price Report: Bitcoin is Dominating Argentina http://ift.tt/29ypFNs #bitcoin #blockchain #btc #cryptocurrency #alt…",0,0,0,False
548,Bitcoinist.com@bitcoinist,Price Report: Bitcoin is Dominating Argentina http://ift.tt/29ypFNs #bitcoin #blockchain #btc #cryptocurrency #altcoins #money #freebitc…,1,1,0,False
549,Bitcoin Catcher@bitcoin_catcher,"Play #Games and #Gamble at Crypto-Games #Casino!
> http://buff.ly/29uWKZx
#bitcoin #crypto #bitcointalk #CryptoGames #altcoin #earn #money",1,0,0,False
550,CryptoTorNews@CryptoTorNews,Price Report: Bitcoin is Dominating Argentina http://dlvr.it/LmG4vw #bitcoin #bitcoinnews #crypto,2,0,0,False
551,Born Pitcoin@PornBitcoin,Price Report: Bitcoin is Dominating Argentina http://dlvr.it/LmG4vy #bitcoin #bitcoinnews #crypto,2,0,0,False
552,Bitcoin For The Rest@BitForCoin,Price Report: Bitcoin is Dominating Argentina http://dlvr.it/LmG4vc #bitcoin #bitcoinnews #crypto,0,0,0,False
553,Bitcoin City™#฿TC@Bitcoin_City,"#btc Why there's no open source ASICs?: Bitcoin mining ASICs still controlled by big compani... http://bit.ly/29FxPVs #bitcoin #cryptoWhy there's no open source ASICs?Bitcoin mining ASICs still controlled by big companies. People talk about 2MB blocks favoring big miners, but nobody talks about mining...reddit.com",1,1,0,False
554,Bitcoin City™#฿TC@Bitcoin_City,#btc Why did the halving not affect the hash rate?: I expected a drop (even a little...) in ... http://bit.ly/29Fqfal #bitcoin #cryptoWhy did the halving not affect the hash rate?I expected a drop (even a little...) in the hash rate. But it looks *completely* unaffected. (Pretty amazing IMO) Any theories/explanations?reddit.com,0,0,0,False
555,Team 300FPS ︻╦̵̵̿╤─@300FPSGAMING,Price Report: Bitcoin is Dominating Argentina http://btcf.co/29vrAUw #bitcoin #bitcoinnews #btc #cryptocurrency,0,0,0,False
556,Crypto Trader@cryptoprofit,#Bitcoin #Crypto #BTCUSD H1 100SMA_BTCUSD_2016.7.10.12.2,0,0,0,False
557,Julia Vaingurt@julia_vaingurt,"Start getting your cheap #ESP #ESPERS now on http://cur.lv/10cfkn
 … #altcoins #bitcoin #btc",0,0,0,False
560,Farah K. Miraza@farahkaifa,#cryptocurrency #crypto Bitcoin Price Weekly Analysis: Striving to Break Gain Obstacle http://ow.ly/mfFc502fsXQ,0,0,0,False
561,Bitcoin@crypto_bitcoins,The Halving: What Bitcoin’s Block Reward Milestone Means - http://bit.ly/29EQlKy - #bitcoin #crypto,1,0,0,False
562,Cointon@CointonDotCom,The Halving: What Bitcoin’s Block Reward Milestone Means - http://bit.ly/29EQlKy - #bitcoin #crypto,0,0,0,False
563,Bitcoin Hourly@bitcoin_hourly,"Price Update: 1 #Bitcoin = $644.1600

#cryptocurrency source http://yhoo.it/1PH2nON (via @Flutter_HQ)",0,0,0,False
564,BitcoinBuzz vega9@BitcoinBuzzV9,http://bitcoinbuzz.vega9.com - Hot topics: #bitcoin #btc #blockchain #crypto #bitlive #news,0,0,0,False
565,Eugene Zavarzin@ADZ4BIZ,"#Crypto currencies are perfect for micro-payments, as they are #P2P payments.",1,5,0,False
566,FailCommunity@FAILCommunity,Pump on #MMNXT. Up with more than 600%. https://poloniex.com/exchange#btc_mmnxt… via @Poloniex #cryptocurrency #pump,0,0,0,False
567,AlertCo.in@AlertCoin,"#Bitcoin last trade

@bitstamp $644.49
@coinbase $650.48

Set #crypto #price #alerts at http://AlertCo.in",2,0,0,False
568,AlertCo.in@AlertCoin,"#Bitcoin last trade

@bitfinex $646.44
@btcecom $636.00

Set #crypto #price #alerts at http://AlertCo.in",0,0,0,False
569,Crypto Trader@cryptoprofit,#Bitcoin #Crypto #BTCUSD H1 100SMA_BTCUSD_2016.7.10.11.32,0,0,0,False
572,Cryptocoin Radar@cryptocoinradar,"bts/btc: +8% value, +48% volume (http://cryptocoinradar.com monitored #trading #altcoin #cryptocoin)",0,0,0,False
573,Gabor Venczel@ujtrend,"The Bitcoin Halving Will Trigger a Fear of Missing Out #cryptocurrency, bitcoin, octacoin, http://soco.space/th.7Pn",0,0,0,False
574,Crypto Yoyo@cryptoyoyo,Japan's Largest Bank Joins $10.5m Funding Round in US Exchange Coinbase http://bit.ly/29A5JJa #bitcoin #crypto #news,0,0,0,False
575,NE Patriots Dynasty@NEPatsDynasty,Looking for #Crypto #investors #entrepreneur #Investing in the Money of the future and online payment system Join http://GoldNews.ilgamos.com,0,0,0,False
576,Crypto Trader@cryptoprofit,#Bitcoin #Crypto #BTCUSD H1 100SMA_BTCUSD_2016.7.10.11.10,0,0,0,False
577,Rimbit @rimbit,New Group Created - Usa Elections http://rimbit.com/threads/new-group-created-usa-elections.5592/… #crypto,0,0,0,False
578,YOCoin@YOC_Crypto,"Travel Portal on #yocoin  soon, our team still fixing the orphan blocks, no need to worry.

#yocoin #bitcoin #altcoin #cryptocurrency #eth",7,6,1,False
579,Bitcoin City™#฿TC@Bitcoin_City,#btc Global Central Bank balance sheet grew 10x from $2.1T to $21 Trillion in just 20 years.... http://bit.ly/29sfTYF #bitcoin #crypto,0,0,0,False
580,Bitcoin City™#฿TC@Bitcoin_City,#btc I need Bitcoin help.: Hello all. I have tried to work things out on my own but I now kn... http://bit.ly/29sfC84 #bitcoin #cryptoI need Bitcoin help.Hello all. I have tried to work things out on my own but I now know I need to ask for help. My first problem started when I made my wallet about...reddit.com,2,0,0,False
581,Bitcoin City™#฿TC@Bitcoin_City,"#btc Bitcoin Cashier for the lazy: Hi guys, first and foremost, I want to make clear that I ... http://bit.ly/29sfIfT #bitcoin #cryptoBitcoin Cashier for the lazyHi guys, first and foremost, I want to make clear that I am not here to promote the site. I am here to learn from you guys where you think I've...reddit.com",2,0,0,False
582,Denny McEnroe@McEnroeDenny,NEW BItcoin Forum now online http://cur.lv/10cdxf #bitcoin #crypto,0,0,0,False
583,Denny McEnroe@McEnroeDenny,Re: Newbie sa mining. penge po tips please :) http://cur.lv/10cdxe #bitcoin #crypto,0,0,0,False
584,Denny McEnroe@McEnroeDenny,Re: How to make money on bitcointalk? http://cur.lv/10cdx8 #bitcoin #crypto,0,0,0,False
585,Cryptocoin Radar@cryptocoinradar,"bitcny/btc: +17% value, +4% volume in 12 minutes (http://cryptocoinradar.com monitored #trading #altcoin #cryptocoin)",0,0,0,False
586,Bitcoin Hourly@bitcoin_hourly,"Price Update: 1 #Bitcoin = $646.9600

#cryptocurrency source http://yhoo.it/1PH2nON (via @Flutter_HQ)",0,0,0,False
587,BitcoinBuzz vega9@BitcoinBuzzV9,http://bitcoinbuzz.vega9.com - Hot topics: #bitcoin #blockchain #btc #crypto #bitlive #fintech,0,0,0,False
588,Twatter caused Trump@lbutlr,"#Public #key #crypto has to be abandoned, it is less than worthless since it requires trusting thousands of untrustworthy CAs",0,0,0,False
589,Julia Vaingurt@julia_vaingurt,"Coincloud2u Mining,Features include unlimited gain and daily payouts.
Starts low as 0.0001 BTC. http://cur.lv/10cdhq
#cryptocurrency",0,0,0,False
590,CryptoRSS@CryptoRSS,"Ethereum Price Weekly Analysis – Can ETH Gain Further?: Key Highlights
Ethereum price after heavy los... http://bit.ly/29FqSns #crypto",0,0,0,False
591,Crypto Yoyo@cryptoyoyo,by Maged H Ibrahim http://bit.ly/29Z4H7I #bitcoin #crypto #news,0,0,0,False
603,BitcoinAgile@bitcoinagile,"#bitcoin mining just became more difficult, on purpose #cryptocurrency #culture http://bit.ly/29sbrcH",1,5,0,False
604,Christian eBuddy@christianebuddy,"Bitcoin mining just became more difficult, on purpose http://goo.gl/JVMqIN #bitcoin #cryptocurrency #culture",1,0,0,False
605,PinkMona@pinkmona_org,#bitcoin #altcoin #dogecoin Let's Hentai! Come on PinkMona!→http://pinkmona.org,0,0,0,False
606,Cryptolized™@Cryptolized,"#rimbit #crypto George Soros predicts riots, police state and civil war for America: We Are... http://bit.ly/29E5e1g #decentralization",0,0,0,False
607,Bitcoin Hourly@bitcoin_hourly,"Price Update: 1 #Bitcoin = $645.7300

#cryptocurrency source http://yhoo.it/1PH2nON (via @Flutter_HQ)",0,0,0,False
608,Denny McEnroe@McEnroeDenny,Re: Eth will skyrocket the next days http://cur.lv/10cc7p #bitcoin #crypto,1,0,0,False
609,Denny McEnroe@McEnroeDenny,Re: If i give you 10 BTC what will you do? http://cur.lv/10cc7o #bitcoin #crypto,1,0,0,False
610,Denny McEnroe@McEnroeDenny,Re: [ANN][CRX]ChronosCoin /Scrypt POW/POS / Airdrop / Launched http://cur.lv/10cc7n #bitcoin #crypto,1,0,0,False
611,Denny McEnroe@McEnroeDenny,Re: 2016/17 NBA Off-Season http://cur.lv/10cc7m #bitcoin #crypto,1,0,0,False
612,DK Matai♛@DKMatai,"IF Euro-Swiss Bank Crisis ⇒ Euro↓CHF↓ Which #Cryptocurrency takes billions? #Bitcoin #Ethereum #FinTech #BlockchainQuote TweetDK Matai♛@DKMatai · Jul 9, 2016POLL: IF Lehmanx5 Event: Buy Which CRYPTO? #FinTech #InsurTech #InsTech #Blockchain #Bitcoin #Litecoin #ethereumShow this poll",5,14,0,False
613,MakingWave$@CryptoWave3000,"From wavesplatform: https://twitter.com/wavesplatform/status/752029014873804800… RT ExeiosNews: #wavesplatform could be huge. This #cryptocurrency cou…Quote TweetWaves Tech@wavesprotocol · Jul 9, 2016#RT WAVES Weekly No. 2 https://medium.com/@wavesplatform/waves-weekly-no-2-b487272a9230#.rk8na4rsx… #wavesplatform #blockchain #fintech #startup #bitcoin",1,0,0,False
614,BitcoinAgile@bitcoinagile,#bitcoin Halving Barely Registers on Price Chart  Finance Magnates #crypto #news http://bit.ly/29s8VTJ,7,0,0,False
615,Crypto Yoyo@cryptoyoyo,Bitcoin Halving Barely Registers on Price Chart http://bit.ly/29FnEAw #bitcoin #crypto #news,0,0,0,False
616,Lyn Lim@lynlimly,Chaptr on #CryptoCurrency arnd #Bitcoin & #BlockChain is  The Industries of the Future by @AlecJRoss #LynGoodReadsThe Industries of the Future by Alec J. RossThe Industries of the Future book. Read 642 reviews from the world's largest community for readers. This book answers the question: 'What's next?' The In...goodreads.com,2,1,1,False
621,need-bitcoin.com@need_bitcoin,Bitcoin Price Weekly Analysis – Can BTC/USD Break Higher? http://ift.tt/29F8E26 #bitcoin #cryptocurrency,0,0,0,False
623,DomainsZen@DomainsZen,"#FinTech #CryptoCurrency by @YogeshMalik is out!  http://bit.ly/FinTech_YM Stories via @retrait2p @Elisabeth_DMS @MXenabledGoldman Sachs CEO talks bitcoin and cryptocurrency during earnings calltheblockcrypto.com ""We continue to look for ways to expand our capabilities to support our clients needs,"" the bank chief said.paper.li",2,0,0,False
624,BitsharesBreakout@btsBreakout,New Blockchain Social Media Platform STEEMIT Pays You To Post and Vote Online! https://steemit.com/?r=xeldal #cryptocurrency #altcoin #bitcoin,0,0,0,False
625,Bitcoin Hourly@bitcoin_hourly,"Price Update: 1 #Bitcoin = $645.4200

#cryptocurrency source http://yhoo.it/1PH2nON (via @Flutter_HQ)",0,0,0,False
626,BitcoinBuzz vega9@BitcoinBuzzV9,http://bitcoinbuzz.vega9.com - Hot topics: #earn #bitcoin #blockchain #btc #bitlive #crypto,0,0,0,False
627,Bitcoin City™#฿TC@Bitcoin_City,"#btc Bitcoin mining just became more difficult, on purpose:       submitted by    /u/Jean-J ... http://bit.ly/29y9EXK #bitcoin #cryptoBitcoin mining just became more difficult, on purposePosted in r/Bitcoin by u/Jean-J • 21 points and 10 commentsreddit.com",0,0,0,False
628,Crypto Yoyo@cryptoyoyo,Bitcoin Price Weekly Analysis – Can BTC/USD Break Higher? http://bit.ly/29qnzfv #bitcoin #crypto #news,0,0,0,False
629,Bitcoin@crypto_bitcoins,The Halving: Then & Now - a Bitcoin Magazine Infographic - http://bit.ly/29DVAKB - #bitcoin #crypto,1,0,0,False
630,Cointon@CointonDotCom,The Halving: Then & Now - a Bitcoin Magazine Infographic - http://bit.ly/29DVAKB - #bitcoin #crypto,2,0,0,False
631,need-bitcoin.com@need_bitcoin,Ethereum Price Weekly Analysis – Can ETH Gain Further? http://ift.tt/29y668c #bitcoin #cryptocurrency,0,0,0,False
632,Crypto Trader@cryptoprofit,#Bitcoin #Crypto #BTCUSD H1 100SMA_BTCUSD_2016.7.10.7.41,0,0,0,False
633,Bitcoin Hourly@bitcoin_hourly,"Price Update: 1 #Bitcoin = $645.0000

#cryptocurrency source http://yhoo.it/1PH2nON (via @Flutter_HQ)",0,0,0,False
634,BitcoinBuzz vega9@BitcoinBuzzV9,http://bitcoinbuzz.vega9.com - Hot topics: #earn #bitcoin #blockchain #btc #crypto #bitlive,0,0,0,False
640,AlertCo.in@AlertCoin,"#Bitcoin last trade

@bitfinex $645.13
@btcecom $635.83

Set #crypto #price #alerts at http://AlertCo.in",2,0,0,False
641,AlertCo.in@AlertCoin,"#Bitcoin last trade

@bitstamp $645.21
@coinbase $650.44

Set #crypto #price #alerts at http://AlertCo.in",1,0,0,False
642,Denny McEnroe@McEnroeDenny,Re: It's Halving Day! What Can You Say? http://cur.lv/10c97f #bitcoin #crypto,0,0,0,False
643,Denny McEnroe@McEnroeDenny,Re: Do you actively spend your bitcoins? http://cur.lv/10c97d #bitcoin #crypto,0,0,0,False
644,Denny McEnroe@McEnroeDenny,Re: Bitcoin to be international currency http://cur.lv/10c97c #bitcoin #crypto,0,0,0,False
645,Cryptolized™@Cryptolized,#rimbit #crypto Activist Deray Mckesson Arrested While Livestreaming In Baton Rouge: We Are... http://bit.ly/29YRPyL #decentralization,0,0,0,False
646,Crypto Yoyo@cryptoyoyo,Bitcoin 'Mining” Outlook Uncertain http://bit.ly/29LuBiP #bitcoin #crypto #news,0,0,0,False
647,NE Patriots Dynasty@NEPatsDynasty,Time to #invest #Stocks #Money #Gold #Crypto go to http://GoldNews.ilgamos.com Send money to ALL Partners instantly with no Fees.,0,0,0,False
648,Luke Salamone@LukeASalamone,NIST needs to get on this. Google shouldn't act alone. #crypto http://arstechnica.com/security/2016/07/https-crypto-is-on-the-brink-of-collapse-google-has-a-plan-to-fix-it/…,1,0,0,False
650,Bitcoin City™#฿TC@Bitcoin_City,#btc ABRA Launched in US - An App based on Bitcoin Blockchain Technology:       submitted by... http://bit.ly/29Fd1Oc #bitcoin #cryptoABRA Launched in US - An App based on Bitcoin Blockchain TechnologyPosted in r/Bitcoin by u/schopra30 • 18 points and 5 commentsreddit.com,2,1,0,False
651,infocrowler@infocrowler,"New post: #bitcoin #cryptocurrency #Culture #Currency #Gear Bitcoin mining just became more difficult, on purpose http://infocrowler.com/uncategorized/bitcoin-mining-just-became-more-difficult-on-purpose.html?utm_campaign=twitter&utm_medium=twitter&utm_source=twitter…",0,0,0,False
652,Bitcoin Hourly@bitcoin_hourly,"Price Update: 1 #Bitcoin = $649.6300

#cryptocurrency source http://yhoo.it/1PH2nON (via @Flutter_HQ)",0,0,0,False
653,XBTFreelancer.com@XBTFreelancer,I need a writer to re-write articles #crypto #hiring http://xbtfreelancer.com/prj/1684/i-need-a-writer-to-re-write-articles… #bitcoin #income #cash #freelancewriter,0,0,0,False
654,BitcoinBuzz vega9@BitcoinBuzzV9,http://bitcoinbuzz.vega9.com - Hot topics: #earn #bitcoin #blockchain #btc #crypto #fintech,0,0,0,False
