,user,text,likes,retweets,replies,is_thread
0,InsidersCrypto@insiderscrypt0,"Do you all need more proof about $Buzz fever?

#ilovepos #pos #staking #altcoin #CryptoNews",0,0,0,False
1,Datacoin@DatacoinX,"Datacoin (DTC)

Graymines Mining pool https://dtc.graymines.net
#Datacoin #bitcoin #cryptocurrency",1,0,0,False
2,Australian FinTech@austfintech,"#Bitcoin ‘more than just a fad,’ @MorganStanley CEO says https://australianfintech.com.au/bitcoin-more-than-just-a-fad-morgan-stanley-ceo-says/… #BTC #fintech #blockchain #cryptocurrency #digitalcurrencyBitcoin ‘more than just a fad,’ Morgan Stanley CEO saysBitcoin is “certainly something more than just a fad,” Morgan Stanley CEO James Gorman said Wednesday at an event held by the Wall Street Journal.australianfintech.com.au",3,4,0,False
3,Coinaware@coinaware,"""CryptoMaps: Cryptocurrency Market State"" #fintech #blockchain #crypto http://ift.tt/2xBgNzJ",0,0,0,False
4,Blockchain Cards @BlockchainCards,Here is the Clean Dark Version https://amazon.com/dp/B075ZJ9LNV #no2x #litecoin #bitcoin #blockchain #cryptocurrency,2,0,0,False
5,FORTUNE420.COM ®@Fortune420Group,#MustWeed Colorado Continues to Put Cannabis Taxes to Good Use http://Fortune420.com/News #Cannabis #Stocks & #Crypto,1,0,0,False
6,FORTUNE420.COM ®@Fortune420Group,#MustWeed San Francisco Won’t Allow Legal Marijuana Sales at the Same Time... http://Fortune420.com/News #Cannabis #Stocks & #Crypto,2,0,0,False
7,FORTUNE420.COM ®@Fortune420Group,"#MustWeed Neighbors report fire, cops find home grow of 150 plants, arrest t... http://Fortune420.com/News #Cannabis #Stocks & #Crypto",1,0,0,False
8,FORTUNE420.COM ®@Fortune420Group,"#MustWeed 4 Days After Pot Arrest, Young Thug Is Still Sitting in Jail http://Fortune420.com/News #Cannabis #Stocks & #Crypto",1,0,0,False
9,FORTUNE420.COM ®@Fortune420Group,#MustWeed Holy Grail Kush: An Award-Winning Hybrid That Delivers Pure Joy http://Fortune420.com/News #Cannabis #Stocks & #Crypto,0,0,0,False
10,FORTUNE420.COM ®@Fortune420Group,#MustWeed Interior Designer Megan Stone’s 10 Best Dispensary Design Tips http://Fortune420.com/News #Cannabis #Stocks & #Crypto,0,0,0,False
11,ChartMill@ChartMill,$RES showing  the best technicals its sector http://stockcharts.chartmill.com/u/SkgZfjnKsb #cryptocurrency #indexinvesting,0,0,0,False
12,AltsBryan@AltsBryan,"#Crypto Rules
1. Never over trade
2. #DYOR 
3. Greed to buy low, never greed to sell too  high. 
4. Set stop lost
5. Enjoy profit",2,0,0,False
13,Brian D. Colwell@BColwell_Invest,"#Developers are in the center of #Golem’s #ecosystem
https://briandcolwell.com/2017/08/golem-infrastructure-as-a-service-iaas-meets-platform-as-a-service-paas/.html… @golemproject #blockchain #crypto #cryptocurrencies #IoT #IAAS",0,0,0,False
14,Coinaware@coinaware,"""MobileGo Price Technical Analysis for 09/28/2017 – Chalking Up Gains!"" #fintech #blockchain #crypto http://ift.tt/2xLfUH1",0,0,0,False
15,Investors Europe@onlineplatforms,Three #Russian #Bitcoin Sellers Arrested for Evading #Taxes. #Russia #Fintech #BTC #Crypto #Tax #Taxing #Russia http://rocktrader.eu/p/4084276443/2017/09/05/three-russian-bitcoin-sellers-arrested-for-evading-taxes-russia-fintech-btc-crypto-tax-taxing-russia?utm_medium=social&utm_source=twitter…,0,0,0,False
16,Crypto by Devvie@devnullius,$STeX offers stop loss and conditional orders based on technical indicators. Nobody in #crypto does that! #RT,0,0,0,False
17,CryptoFxWorks $TRX $DICE $IGG@CryptoFxWorks,"Let""Highlighted Part"" SINK IN a BIT $XVG #RealPrivacyCrypto #cryptocurrencies #cryptocurrency #bitcoin #ALTCOINS #BITTREX #FutureOfCrypto",10,10,0,False
18,Tech News@NewsDoses,"#Staking #Sidechains? New #Paper #Proposes #Twist on ...
#Blockchainnews #Cryptocurrency #Cryptocurrencynews
Bitcoin, CryptoCurrency, ...",0,0,0,False
19,CryptoNewswire @CryptoNewswire,ARDR/BTC 1.5 Month High - Ardor (ARDR) price reaches 1.5 Month High on Poloniex - $ARDR $BTC #ardor #markets #cryptocurrency,1,0,0,False
20,CryptoPanic@CryptoPanicCom, +1 Introducing dYdX - The Protocol for Decentralized Derivatives https://cryptopanic.com/news/41598/Introducing-dYdX-The-Protocol-for-Decentralized-Derivatives?utm_source=notifications&utm_medium=twitter&utm_campaign=Twitter+Trending… #cryptocurrency,0,0,0,False
21,BrianDColwell (Quotidian Marketing)@BrianDColwell,Just updated & added #StellarLumens --> A Growing #Cryptocurrency #Resource http://bit.ly/2tjX0D1 via @BrianDColwell #fintech #investing,0,0,0,False
22,Tech BitCoin@tech_bitcoin,"""MobileGo Price Technical Analysis for 09/28/2017 – Chalking Up Gains!"" http://ift.tt/eA8V8J #bitcoin #cryptoMobileGo Price Technical Analysis for 09/28/2017MobileGo has chalked up significant losses against bitcoin and ethereum as these regained a positive light from the investing community.newsbtc.com",0,0,0,False
24,Robo Trader AI@robotrader_ai,"1.01% arbitrage on BTC_EUR right now: buy on Kraken sell on GDAX, see more on https://robo-trader.ai/robots/arb $btc $eth #crypto #bitcoin",0,0,0,False
25,The Clairvoyant@clairvoyant_the,OpDevSec: RT onlineplatforms: #TrickBot Banking #Trojan Now Targets #Coinbase Users. #Fintech #Trojans #Crypto #Ha… http://rocktrader.eu/p/4084276412/2017/09/05/trickbot-banking-trojan-now-targets-coinbase-users-fintech-trojans-crypto-hacking-malware-exchange?utm_medium=social&utm_source=twitter…,0,0,0,False
26,Son of a Tech@SonOfATech,Get started living the #cryptocurrency dream with my mining playlist https://youtube.com/playlist?list=PLxV5dldYJZlsP3pqoozwzNuZu3SsZoHDu…,3,1,0,False
27,Russell Smith @rhs,"Thinking of buying a #bitcoin #cryptocurrency hardware wallet? Checkout my guide to setting up a @LedgerHQ Nano SSetting up & Testing a Bitcoin Hardware Wallet ProperlyI’ve been asked a few times by friends how to setup a hardware wallet for crypto “properly”. There are many different ways to do this, but…medium.com",3,2,0,False
28,HungryHungryCrypto@Hungry4Crypto,Get in on $KNC before it breaks $2! $BTC $ETH $LTC $Crypto #bitcoin $OMG $NEO $WTC #cryptocurrency,5,0,0,False
29,CryptoNewswire @CryptoNewswire,MobileGo Price Technical Analysis for 09/28/2017 Chalking Up Gains! - http://newsbtc.com/2017/09/28/mobilego-price-technical-analysis-09282017-chalking-gains/… $ETH $BTC $MGO #altcoins #investing #financeMobileGo Price Technical Analysis for 09/28/2017MobileGo has chalked up significant losses against bitcoin and ethereum as these regained a positive light from the investing community.newsbtc.com,0,0,0,False
30,Makebitcoins@makebitcoins,The resolution of the Bitcoin experiment #fintech #currency #crypto #cryptocurrency http://makebitcoins.de/the-resolution-of-the-bitcoin-experiment…,0,0,0,False
31,Brian D. Colwell@BColwell_Invest,EPIC #Cryptocurrency #Resource https://briandcolwell.com/2017/07/a-growing-cryptocurrency-resource/.html… #bitcoin #litecoin #ethereum #ripple #IOTA #NEM #DASH #NEO #Monero #investing #4IR,7,7,0,False
32,Brendan Gunn@BrendanGunn_,New #trading & settlement technology dev. that may be about to change the #financial landscape. #Cryptocurrency https://buff.ly/2xGHc0U,0,0,0,False
33,Coinaware@coinaware,"""US Government Awards $750k in New Blockchain Startup Grant"" #fintech #blockchain #crypto http://ift.tt/2ythJFL",0,0,0,False
34,Coinaware@coinaware,"""Exclusive: Royal Bank of Canada using blockchain for US/Canada payments - executive"" #fintech #blockchain #crypto http://ift.tt/2wWxlVO",0,0,0,False
35,Logikblok Projects@logikblokproj,"logikblok: This is great. HARVEST – Mining #cryptocurrency with wind to fund climate research …Quote TweetSuraj@logikblok · Sep 27, 2017This is great. HARVEST – Mining #cryptocurrency with wind to fund climate research https://buff.ly/2xBxm0u",0,0,0,False
36,mitta Ƀ@moolaland,"$RDD BTC 720min, unfortunately yest did not move higher and has returned to more soft action. #rdd #crypto https://tradingview.com/x/lzNMK8Fa/",3,1,0,True
37,Mike Sallese@FinTechNames,Yesterday's #crypto #DomainNames Sales inc BitcoinConsumers•com #blockchain #fintech #VC #Domains #cryptocurrency https://namebio.com/blog/daily-market-report-for-september-26th-2017/…,0,0,0,False
38,Caleb Hawk@calebhawk,"Heads up:
@WolfOfCalls is not @WolfOfPoloniex. The “Wolf Pack” telegram he’s selling for 0.1 is just a rehash of Wolf’s tweets #crypto #scam",0,0,0,False
39,Daniel@HelpDanRoach322,"Motivating #Crypto
#LTCUSD
#BTC
#ETHQuote TweetDaniel@HelpDanRoach322 · Sep 17, 2017They are all buying, #institutionalinvestors, #hedgefunds and #ETF's are coming soon......volume will be off the charts! https://twitter.com/CharlieShrem/status/908056848590405632…",0,0,0,False
40,qoinbook@qoinbook,"""Bitcoin Exchange BTCC Sets Deadline for Yuan Withdrawals"" https://coindesk.com/bitcoin-exchange-btcc-sets-deadline-yuan-withdrawals/… #cryptocurrency #bitcoin $btcBitcoin Exchange BTCC Sets Deadline for Yuan Withdrawals - CoinDeskChina's oldest bitcoin exchange has released new details on how it will end yuan trading following a crackdown by the domestic government.coindesk.com",0,0,0,False
41,Coinboard@Coinboard,Localbitcoins Trading Volume Sets New Global All-Time High http://twib.in/l/eAM9yb64EbdA via @BTCTN #cryptocurrency #bitcoin,1,1,0,False
42,Litecoin Price@LitecoinRates,LTC to GBP price £42.03 https://goo.gl/Vu8hLN #litecoin #ltc #cryptocurrency,1,0,0,False
43,Litecoin Price@LitecoinRates,LTC to BTC price B0.013406 https://goo.gl/xZ34Kb #litecoin #ltc #cryptocurrency,1,0,0,False
44,Litecoin Price@LitecoinRates,LTC to USD price $56.33 https://goo.gl/zUTVoK #litecoin #ltc #cryptocurrency,1,0,0,False
45,Nick@Iqubik,"Grab them while they last, 100 free DAT Tokens here https://datum.network #datumnetwork #ico #cryptocurrency",0,0,0,False
46,Ruben Moser@Rubencoin,Ethereum Infographic #fintech #currency #crypto #blockchain #startups http://makebitcoins.de/ethereum-infographic…,3,0,0,False
47,Ruben Moser@Rubencoin,5 Things We Learned From Analysing the Location of 950+ Blockchain Startups #fintech #currency #crypto http://makebitcoins.de/things-we-learned-from-analysing-the-location-of-blockchain-startups…,0,0,0,False
48,Ruben Moser@Rubencoin,What is Bitcoin Mining? #fintech #currency #crypto #blockchain #startups http://makebitcoins.de/what-is-bitcoin-mining…,0,0,0,False
49,Kevin Monserrat@kevinmonserrat,"Multi #Cryptocurrency Payment Gateway, Explained https://cointelegraph.com/explained/multi-cryptocurrency-payment-gateway-explained…",0,0,0,False
50,Mike Sallese@FinTechNames,@Overstock to enter #cryptocurrency business #blockchain #Crypto #ICO #tech #investing #finance #TokenSale #VC $OSTK https://cnbc.com/2017/09/27/overstock-com-says-its-entering-digital-coin-trading-business.html…,0,0,0,False
51,Coinboard@Coinboard,Blockchain Powers Shift To Decentralization In Media http://twib.in/l/A59AgLr7q4Mq via @CoinTelegraph #cryptocurrency #bitcoin,1,1,0,False
52,CoinVedi@CoinVedi,"MobileGo Price Technical Analysis for 09/28/2017 – Chalking Up ...
https://coinvedi.com/mobilego-price-technical-analysis-for-09282017-chalking-up-gains/…
#Bitcoin #Blockchain #Cryptocurrency #Ethereum",0,0,0,False
53,crypto edutainment@dafamousdj,"#cryptocurrency market full in green, are we going for another leg up again? #bitcoin #iota $btc $iotaBitcoin & IOTA: Are we going for another leg up?It seems that the cryptocurrency market is heading in the right direction, or are we being fooled? Banks, governments, but also thought leaders from differen...youtube.com",1,0,0,False
54,Altcoinbot.IO@Altcoinbot_IO,"TARGET REACHED (0.00004236375), sold $ARDR position for 37% PROFIT. (1991) #altcoin #trading #bitcoin 00:48:02",0,0,0,False
55,Crypto Insider X@CryptoInsiderX,"Something I shared with my group. I hope it can help you guys too

#Crypto $BTC #BTC #altcoins #bitcoin $OMG $NEO $AdEX $ETH $XRP $QTUM $ltc",26,10,8,False
56,Roscoe@PrintPainter,Ship Painter #art #contemporaryart #halloween #modernart #business #tech #film #crypto #painting… https://instagram.com/p/BZkDyY7FTAQ/,0,0,0,False
57,BitcoinCash v Stocks@bch_vs_stocks," Bitcoin Cash ($7.604B) is now worth more than F5 Networks, Inc. ($7.602B) $BCH $FFIV #crypto #marketcap",0,0,0,False
58,Danny Bennett@Danny17B,Holding NEO since the beginning. #NEO #crypto,2,0,0,False
59,Darlan O Cortes@darlancortes,#Ledger Nano S hardewallet is back in stock. https://btcwallets.com.au/ledger-nano-s #BTC #BITCOIN #CRYPTO #LedgerWallet https://btcwallets.com.au/ledger-nano-s,1,0,0,False
60,BrianDColwell (Quotidian Marketing)@BrianDColwell,"The #CAMCrypto30 #Index: top 30 #crypto #currencies by #marketcap
https://briandcolwell.com/2017/08/crypto-asset-fund-llc-putting-the-cool-back-in-hedge-funds/.html… #CRYPTO30 #HedgeFund #investing #hedgefunds",0,0,0,False
61,Proxy Card@Proxy_Card,Curious where we're heading? Check out our #roadmap! #Ethereum #Bitcoin #ICO #TokenSale #Altcoin #Cryptocurrency #ProxyCard $PRXY,8,9,0,False
62,The CyberWire@thecyberwire,"Coverage: #blockchain panel with @WellsFargo, @ManceHarmon, @Swirlds, & @ciphertrace. @ChertoffGroup #cryptocurrencyBoards and blockchains.Blockchain and related technologies are still in their infancy, but for many businesses they seem attractive, inevitable, and mysterious. How boards should be helped to work their way through the...thecyberwire.com",0,0,0,False
63,Coinranking@coinranking,"Bitcoin reached $ 4,200.00 #bitcoin $BTC #cryptocurrency https://coinranking.com/c/btc/7d",2,0,0,False
64,Ashlee Dixon@Ashlee__Dixon,The U.S. government is interested in #Bitcoin. Here's why -- http://bit.ly/2frnxrO by @johnwasik #Cryptocurrency #blockchainWhy U.S. Is Probing Bitcoin ScamsThe U.S. government recently stepped in to shut down an alleged Ponzi scheme involving Bitcoin. Here's what you need to know.forbes.com,3,0,0,False
65,Kai@wkying79,"Have to agree here that is the USD was a #cryptocurrency it would prob be a SHITCOIN.  $BTC #hodl
https://cointelegraph.com/news/what-if-us-dollar-was-just-another-cryptocurrency-expert-blog…",0,0,0,False
66,CryptoWhaleCall@CryptoWhaleCall,"3 DAYS left until our 1 BTC giveaway! 
Follow, Like and Retweet to participate! 
Goodluck to everyone who is participating in the giveaway! 
$BTC $ETH $crypto $alts $MTL $EMC2 $PAY $LTC $NEO $STRAT $TKN $OMG #BTC #ETH #cryptocurrency $QTUM $iotaQuote TweetCryptoWhaleCall@CryptoWhaleCall · Sep 15, 20171 BTC giveaway! Follow, like and retweet this page! Giveaway ends at 1 October at 1 pm EDT. $crypto $alts $btc $eth $sc #cryptocurrency #BTC",28,28,7,False
67,mitta Ƀ@moolaland,"$NEO BTC 60min, the #crypto gods must have read my notes I'm thinking a big big sideways pause #neo #cryptocurrency https://tradingview.com/x/RIi0Zzkf/",5,2,0,True
68,Investors Europe@onlineplatforms,#TrickBot Banking #Trojan Now Targets #Coinbase Users. #Fintech #Trojans #Crypto #Hacking #Malware #Exchange http://rocktrader.eu/p/4084276412/2017/09/05/trickbot-banking-trojan-now-targets-coinbase-users-fintech-trojans-crypto-hacking-malware-exchange?utm_medium=social&utm_source=twitter…,1,3,0,False
69,Senior Crown@CrownSenior,"Nice video on #cryptocurrency & #Gold from Kitco News with Gerald Celente.

https://youtube.com/watch?v=GRMOnTS_FVg…",0,0,0,False
70,✞ CoinDevil ✞@CryptoCoinDevil,See this? Reports: Showtime Websites Used to Secretly Mine ##Cryptocurrency https://goo.gl/2znVSd,0,0,0,False
71,jayjie.eth | Human Being@jim380,"TA is (un)educated guess work.
#crypto $btc $eth $ltc $neo $wtc",2,0,0,False
72,All Bitcoin News@allbitcoin_news,"Now called Bread, Breadwallet releases a revamped bitcoin wallet app  #BTC #Bitcoin #Crypto-http://allcryptocurrencies.news/bitcoin/now-called-br…...",1,0,0,False
73,Son of a Tech@SonOfATech,Some great Mining Rig upgrades watch on #YT for details http://youtube.com/watch?v=bDvMwdNI3oo… #ethereum #bitcoin #ubiq #crypto #cryptocurrency,10,3,1,False
74,CryptoWhaleCall@CryptoWhaleCall,"Buy the expected correction of AdEX! It will correct and bounce back up, easy and free money!

$BTC $ETH $crypto $alts $MTL $sc $EMC2 $PAY $LTC $NEO $STRAT $TKN $OMG #BTC #ETH #cryptocurrency $OMG",4,1,1,False
75,Richard Parker #DHB@UPSPWNAGE,Congrats @SigtOfficial on the staking. Fun community #SIGT $sigt #bitcoin #cryptocurrency,1,0,0,False
76,Nightingwhalè@nightingwhale,the chart has spoken and the bears be like #cryptoGIF,0,0,0,False
77,Bitcoin News@BestBitcoinNews,Qtum gives a first glance at their Satellite node being developed with Space Chain #crypto #markets #cryptocurrencyBITCOIN CASH | Short ExplanationPODCAST | Difference between Bitcoin Cash and Bitcoin | Practical Explanation of the Hard Forkyoutube.com,0,0,0,False
78,Barry Dutton | #Liberty Maximalist $BTC $CEL $ETH@BarryDutton,#Bitcoin Price Update: Rises back past $4220 $USD + $5252 $CAD Today.  #CryptoCurrency $BTC $XBT #BTC #XBT #LibertyBitcoin Price Update: BTC SMASHES BACK THRU the $4220 $USD mark today / $5252 $CAD - Sept. 27th...I love it. $BTC just continues to crash the boards like some good Old Time Hockey here in the Police State of… by barryduttonsteemit.com,6,2,2,False
79,Mr. Hodl@Kotucocukk1,"#btc #cryptocurrency  if everyone hodl thats damn price will be stop, buy something...",0,0,0,False
80,Gayatri Sarkar @GS_VCactivist,@twentyminutevc why #Litecoin founder @SatoshiLite thinks #ICO are biggest threat to #cryptocurrency.  https://itunes.apple.com/us/podcast/20vc-litecoin-founder-charlie-lee-on-why-icos-are-biggest/id958230465?i=1000392279702&mt=2…,1,0,0,False
81,qoinbook@qoinbook,"""Morgan Stanley CEO: Bitcoin Is 'More Than Just A Fad'"" https://coindesk.com/morgan-stanley-ceo-bitcoin-just-fad/… #cryptocurrency #bitcoin $btc",0,0,0,False
82,NH Carreon@eirencarreon,"Like it or not, #bitcoin takes #fintech by storm n cant just be destroyed. It'll always be ready 4 take off. #blockchain #cryptocurrency",1,0,0,False
83,MoneyHealth &Finance@MoneyhealthF,"Amazon beefs up Echo line-up and Alexa skills Thu, Sep 28, 2017 – 6:59 AM [SAN ... http://twib.in/l/Bg88G8XGKAKo #stocks #cryptocurrency #bigdata",0,0,0,False
84,BrianDColwell (Quotidian Marketing)@BrianDColwell,"#Steem can process 1000s of transactions/second
https://briandcolwell.com/2017/08/what-makes-steem-think-steem-has-steam-where-gamification-blockchain-meet-social-media/.html… #crypto @steemit #blockchain #fintech #payments #cryptography #IoT",0,0,0,False
85,Namecoin Market@MarketNmc,1 Namecoin = 1.5022 USD. Namecoin has changed by -0.0025 USD in 30 mins.  #namecoin #nmc #cryptocurrency,0,0,0,False
86,Peercoin Market@PeercoinMarket,1 Peercoin = 1.4236 USD. Peercoin has increased by 0.0046 USD in 30 mins.  #peercoin #ppc #cryptocurrency,1,0,0,False
87,echinus@echinus_1,"European Central Bank President, Mario Draghi: we can not stop #bitcoin
https://youtube.com/watch?v=c99O1ki5ilk…
#ECB #Crypto #cryptocurrencyEuropean Central Bank President Mario Draghi about Bitcoins and...Mario Draghi, President of the ECB, at the ECON committee of the European Parliament, Brussels, 25 September 2017""It would centantly not be in our powers to ...youtube.com",1,0,0,False
88,Bitcoin Lootbox@BitcoinLootbox,"Are you ready for the New #Bitcoin World Order  #Cryptocurrency #Blockchain #Trading #Stocks #Forex $SPY $QQQ
http://1Foxy.com/Signup/GIF",0,0,0,False
89,qoinbook@qoinbook,"""Localbitcoins Trading Volume Sets New Global All-Time High"" https://news.bitcoin.com/localbitcoins-trading-volume-reaches-new-global-time-high/… #cryptocurrency #cryptotrading",0,0,0,False
90,Lou-ville@Louiehugh42,Watching this money slip away  #cryptocurrency #neo #btc,1,0,0,False
99,Papa Crypto@iampapacrypto,"This isn't advice, this is just to set the record. #pepe cash $.20-$.50 in 2018. 
#cryptocurrency #Crypto",0,0,0,False
100,Ratan Jyoti@reach2ratan,"State of #Bitcoin
https://buff.ly/2xGefCi
#Blockchain #Fintech #makeyourownlane #Mpgvip #cryptocurrency #defstar5 #ethereum #cybersecurity",43,47,0,False
101,Coin Watcher Bot@CoinWatcherBot,"Worst returns (24h):
1. @IO_Coin -11.2% $IOC
2. @The_Blocknet -6.8% $BLOCK
3. @BitPopulous -6.1% $PPT
#blockchain #altcoins",0,0,0,False
102,Menno Pietersen 𝕊@MennoPP,Seriously @ForbesCrypto @laurashin you start beginners guide to #crypto with FREAKING how to buy #ICO? #BTC #ETH $BTC $ETH #BITCOIN @Forbes,1,0,0,True
103,MAKERDEMY@makerdemy,Learn how to mine your own bitcoin #bitcoin #Udemy #crypto #fintech http://bit.ly/2vZhuCr,0,0,0,False
104,Richard Parker #DHB@UPSPWNAGE,It is cute when everyone gets deep about #crypto when we all are up 50 percent in a day. #bitcoin #future #Decentralized #emoGIF,2,1,0,False
105, Monsieur Bitcoin@Mr__Bitcoin,Hedge Token Announces the Launch of the #cryptocurrency Top 30 Index (CCX30) http://bitcoinist.com/hedge-token-announces-launch-cryptocurrency-top-30-index-ccx30/…,1,0,0,False
106,My2Centrist  [I  Bitcoin CASH]@toomuch72,"@Kik CEO going""all in""on #cryptocurrency.Re-Designing platform to be driven by @kin_foundation token. He gets it. https://youtube.com/watch?v=-40W4BRFGtE…",1,1,0,False
107,Dahboo7@dahboo7,"#Japan Plans to Eliminate Cash by Launching Own #CryptoCurrency, Get Free Coins #Breaking #Crypto #News $btc http://youtu.be/G7V2N2VYBcA?a",26,33,2,True
108,Berkley R. Bruce@DragonShadowLV,Mens Bitcoin Crypto trader T-Shirt great #HODL... by #Cryptocurrency Blockchain M... http://amzn.to/2fpxHN4     via @amazon,2,2,0,False
109,Rottweil@RottweilTop,Time couldn't be better to buy! #Bitcoin #Compucoin #ICO #Business #Crypto #CryptoCurrency $BTC $CPN https://goo.gl/uW3Ffk,1,1,0,False
110,Zertn.com@Zertn_com,Time couldn't be better to buy! #Bitcoin #Compucoin #ICO #Business #Crypto #CryptoCurrency $BTC $CPN https://goo.gl/uW3Ffk,0,0,0,False
111,Naked Sheep@bestcryptomoney,Time couldn't be better to buy! #Bitcoin #Compucoin #ICO #Business #Crypto #CryptoCurrency $BTC $CPN https://goo.gl/uW3Ffk,0,0,0,False
112,Matthew James Lawler @MJLCreative,There is something so liberating about brushing thick black #ink on #paper. Sketch warm up : ) #crypto $BTC $XVG $NXS #banks $NEO,1,0,0,False
113,Alpha Team@Alpha_Token,"pack your bags... the $synx ship is done sinking 
#etc #ltc #btc #bittrex #poloniex #bcc #xrp #bitcoin #altcoins #coinbase #okcoin #ptoy",6,1,2,False
114,Ethereum vs Stocks@eth_vs_stocks, Ethereum ($29.14B) is now worth more than TE Connectivity Ltd. New Switze ($29.13B) $ETH $TEL #crypto #marketcap,0,0,0,False
115,Chris Nguyen@whitecollargent,"Its happening thats ehat happening #cryptocurrency $eth $btcQuote TweetChris Nguyen@whitecollargent · Sep 25, 2017$ETH make or break in the next few days. Sometimes you just gotta believe and wait #cryptocurrencyGIF",0,0,0,False
116,Investors Europe@onlineplatforms,#NobelPrize Winner Uses #Bitcoin As Example of Irrational Exuberance. #Yale #Shiller #marketing #crypto #BTC  http://rocktrader.eu/p/4084275489/2017/09/05/nobelprize-winner-uses-bitcoin-as-example-of-irrational-exuberance-yale-shiller-marketing-crypto-btc?utm_medium=social&utm_source=twitter…,1,0,0,False
117,InsidersCrypto@insiderscrypt0,"You can't stop things like BTC. It will leave it's mark wherever it goes. 

#BTC #cryptonews #blockchain #ilovebtc #Crypto",1,0,0,False
118,Ellen Gambua@ellen_gambua,"Grab them while they last, 100 free DAT Tokens here https://datum.network #datumnetwork #ico #cryptocurrency",0,0,0,False
119,Jimmy@Jimchang5,"Bitcoin, Ethereum, Bitcoin Cash, Ripple, Litecoin #BTC #ETH #bch #XRP #LTC #Crypto : Price Analysis, September 27Bitcoin, Ethereum, Bitcoin Cash, Ripple, Litecoin: Price Analysis, September 27Latest trading review on most popular cryptocurrenciescointelegraph.com",1,1,0,False
120,Saeed Valadbaygi@SaeedBaygi,Kik Raised Nearly $100 Million by Selling Its Own Cryptocurrency - http://Inc.com http://dlvr.it/Pqvrbh #Crypto #BitCoin,0,0,0,False
121,The Global Centre for Risk and Innovation (GCRI)@RiskCentre,Kik Raised Nearly $100 Million by Selling Its Own Cryptocurrency - http://Inc.com http://dlvr.it/PqvrLh #Crypto #BitCoin,0,0,0,False
122,Vicky Georgiadis@VickyGeorgiadis,"Governments Are Testing Their Own Cryptocurrencies

#cryptocurrency #government #network http://fb.me/BRbNq7Fj",0,0,0,False
123,BIG CHAN@_ulove_chan,I'm about that #cryptocurrency life ,0,0,0,False
124,Zertn.com@Zertn_com,In Crypto We Trust! #cryptocurrency #bitcoin #compucoin #roi #ICO http://compucoin.org,0,0,0,False
125,Naked Sheep@bestcryptomoney,In Crypto We Trust! #cryptocurrency #bitcoin #compucoin #roi #ICO http://compucoin.org,0,0,0,False
126,Rottweil@RottweilTop,In Crypto We Trust! #cryptocurrency #bitcoin #compucoin #roi #ICO http://compucoin.org,0,0,0,False
127,Stephen McLean@sfm_42,"I just bought more digital currency on Coinbase - try it! https://coinbase.com/join/5993917739e5ce024dd7a785?src=twitter…
#cryptocurrency #Bitcoin #Litecoin #Ethereum",0,0,0,False
128,Harry Goodnight@harry_goodnight,"#blockchain #supplychain #cryptocurrency Sweetbridge, Inc. we'll be there! Mac McGary @ryancharleston!!!! https://lnkd.in/d7S-Kqg",0,0,0,False
129,All Bitcoin News@allbitcoin_news,"Bitcoin Investment Trust (GBTC: OTCQX U.S.) | Grayscale Investments, L...  #BTC #Bitcoin #Crypto-http://allcryptocurrencies.news/bitcoin/bitcoin-…...",0,0,0,False
130,Saddam hossain@sk_saddam12,WIT is the currency backed by knowledge. @witcoin_io token pre-sale is coming with 30% bonus! #movetheknowledge #cryptocurrency #blockchain,1,0,0,False
131,Automatski@theautomatski,Global Crypto Wallet for POS. http://bit.ly/2w0xR4g #venturecapital #initialcoinofferings #Startups #china #crypto #asia #ITOs #money #ETH,0,0,0,False
132,BitcoinGatherer.com@BitcoinGatherer,News: (It's Political: Why China Hates Bitcoin and ...) - http://bit.ly/2y9GBWV #bitcoin #bAgile #blockchain #litecoin #cryptocurrency,0,0,0,False
133,Jonel Cordero@jonelcordero,@cburniske Any thoughts on the Disney #cryptocurrency @dragonchaingang #ico coming up?,1,1,0,False
134,Infidel Angel@angel_infidel,$NEO on the reversal  #Crypto #cryptocurrencies #cryptocurrency,2,1,1,True
135,SurvivalGear@SurvivalTopGear,#HODL Your #Crypto in a #Ledgerwallet Nano S - For Ease of Mind https://goo.gl/fBp958 via @survivaltopgear,0,0,0,False
136,PathTradingPartners@Path_Trading,"#RIPPLE ""TOOK OFF!""-9-27 #CryptoCurrency : Watch -> https://youtu.be/W43jyb9-PmA #Technical #Analysis",1,1,0,False
137,cryptopert@vvol13,"$DGB Mid term for 800 sat
Profit on 2nd october for sure
#altcoin #cryptocurrency
https://youtu.be/OwXRy5xJdes?t=573…",3,1,0,False
138,sliema bugiba@sliemabugiba,Argentina to allow advisors to invest citizens' funds overseas #money #is #king #crypto or #fiat,0,0,0,False
139,Bitcoin News@BestBitcoinNews,New trading thoughts on ETH from Valemount #crypto #markets #cryptocurrencyBITCOIN CASH | Short ExplanationPODCAST | Difference between Bitcoin Cash and Bitcoin | Practical Explanation of the Hard Forkyoutube.com,0,0,0,False
140,BRRRRRR@EternalBTC,"Bitcoin to ATH in the near future? I thinks so! 
#crypto #bitcoin #unstoppable",0,0,0,False
141,Makebitcoins@makebitcoins,Blockchain startup CrowdWiz puts a decentralized spin on fund management #fintech #currency #crypto #ethereum http://makebitcoins.de/blockchain-startup-crowdwiz-puts-a-decentralized-spin-on-fund-management…,0,0,0,False
142,Makebitcoins@makebitcoins,"A hacker stole $31M of Ether — how it happened, and what it means for Ethereum #fintech #currency #crypto http://makebitcoins.de/a-hacker-stole-m-of-ether-how-it-happened-and-what-it-means-for-ethereum…",0,0,0,False
143,OpenDataMonkey @OpenDataMonkey,#HODL Your #Crypto in a #Ledgerwallet Nano S - For Ease of Mind https://goo.gl/fBp958 via @opendatamonkey,0,0,0,False
144,BrianDColwell (Quotidian Marketing)@BrianDColwell,"""#Bitcoin is #Currency of Resistance"" #MaxKeiser https://crypto-asset-management.com/blog/2017/8/24/74-great-quotes-on-bitcoin-cryptocurrencies-and-cryptography… #Cryptography #cryptocurrency #futurefintech #btc #iot #4IR #iiot",0,0,0,False
145,Jonel Cordero@jonelcordero,@tailopez Since you've been on a #crypto knowledge run! What do you think of the Disney @dragonchaingang #ICO coming up?,1,1,0,False
146,JC@Cryptoelite,Crypto Elite News is out! http://paper.li/Cryptoelite/1426551318?edition_id=bfdaaea0-a3d9-11e7-a2ed-0cc47a0d1605… #Bitcoin #Altcoin #Cryptocurrency @coinigy $CRYPTO #crypto #bitcoin,2,0,0,False
147,YearMillion@BrunoPro79,"#Reddcoin - Blastoff within 4/12h

https://coinigy.com/s/i/59cc2f87f286e/…
#trading #RDD #cryptocurrency #Bittrex #poloniex $RDD #coinigy",3,2,1,False
148,Crypto Is Currency@CryptoIsCurrenc,Want to get in on a great #cryptocurrency AND a great community? Meet @Dashpay for #CryptoIsCurrency Day - https://cryptoiscurrency.com/2017/09/26/partner-spotlight-dash/…,0,0,0,False
154,CryptoReport@cryptoreportcom,"SingularDTV up 4.22% last hour to $0.177179 $SNGLS https://cryptoreport.com/singulardtv/SNGLS… @SingularDTV #cryptocurrencySingularDTV Price $0.034003 (SNGLS) - Crypto ReportLive cryptocurrency SingularDTV price, live charts, market cap and other data stats for SNGLS crypto coin.cryptoreport.com",0,0,0,False
155,Howard Hecht@HowardHecht,What will be the market impact of whatever country is the1st mover on deployment of a #fiat #cryptocurrency http://bit.ly/2xF8XqA,0,0,0,False
156,Zeus@GoldZeusX,Localbitcoins Trading Volume Sets New Global All-Time High http://bit.ly/2xGCDUc | #Bitcoin #cryptocurrency,0,0,0,False
157,InsidersCrypto@insiderscrypt0,"With the launch of UPPA, $Litra is setting up another milestone.
http://uppa.io
#ico #token #tokensale #blockchain #cryto #altcoin",4,2,1,False
158,Sam Power@SamuelPower39,"3 months or so...

$NEO #BTC $ETH $GBTC #Blockchain #cryptocurrency #BREAKING #Altcoins #fintech $neocoin $XLF $JPM
https://ethnews.com/cme-not-ready-to-introduce-bitcoin-futures-cboe-plans-to-pending-ctfc-review…",3,4,0,False
159,FloatingCities@gl0bal1st,Anyone able to access the @electroneum ICO right now? Site crashed for me. #ICO #Electroneum #ETH #BTC #Bitcoin #altcoin #crypto,1,0,0,False
160,Joey@ThotLeaderJoey,We #pumpin or we #dumpin tonight? I say #HODL #Crypto #cryptocurrencies,0,0,0,False
161,icoquality@icoquality,Localbitcoins Trading Volume Sets New Global All-Time High #ico #cryptocurrency #token,0,0,0,False
162,BitcoinCash v Stocks@bch_vs_stocks, Bitcoin Cash ($7.584B) is now worth more than Liberty Media Corporation - Ser ($7.577B) $BCH $FWONA #crypto #marketcap,0,0,0,False
163,BrianDColwell (Quotidian Marketing)@BrianDColwell,"#XMR is based on #BCN’s #code. #MONERO
https://briandcolwell.com/2017/07/monero-the-cryptic-in-crypto/.html… #fintech #iot #iiot #cybersecurity #crypto #cash @monerocurrency #blockchain",0,0,0,False
164,OkcashTalk@okcashtalk,"[updt] Re: Okcash Awareness + Adoption Giveaway - Win 1 OK for easy task! at https://okcashtalk.org/index.php/topic,1953.msg3165.html#msg3165… #Okcash $OK #Bitcoin #Altcoins #okcas…",5,2,0,False
165,Jimmy@Jimchang5,SBI's virtual 'coin' to slash payment costs #fintech #Blockchain #Crypto @yoshitaka_kitao - Nikkei Asian ReviewSBI's virtual 'coin' to slash payment costsNew planned currency to enable instant transactionsasia.nikkei.com,14,15,1,False
166,CryptoNewswire @CryptoNewswire,"Localbitcoins Trading Volume Sets New Global All-Time High - https://news.bitcoin.com/localbitcoins-trading-volume-reaches-new-global-time-high/… $BTC #bitcoin #cryptocurrency #financeLocalbitcoins Trading Volume Sets New Global All-Time HighPeer-to-peer (P2P) bitcoin trading on localbitcoins has established a new global all-time high, largely driven by an exodus of capital from China’s cryptocurrency markets. The spike in global P2P...news.bitcoin.com",3,1,0,False
174,Dave Van de Walle@Area224,"Daily reminder for #crypto people - we're looking at #passiveincome opps on the site, warts and all.Passive IncomeOn this page, the Metacoin team will keep tabs on some of the ""Passive Incomemetacoin.co",1,1,0,False
175,Bitcoin News@BestBitcoinNews,A Blockchain Solution to Counterfeit Drugs – Decentralize Today #crypto #markets #cryptocurrencyBITCOIN CASH | Short ExplanationPODCAST | Difference between Bitcoin Cash and Bitcoin | Practical Explanation of the Hard Forkyoutube.com,0,0,0,False
176,We Trust Bitcoin@AltcoinsBank,"http://wetrustbitcoin.info/faucet/ Want to gain some Satochis? Check out our faucet 
#bitcoin #cryptocurrency #blockchain #faucet",0,0,0,False
177,BitcoinAgile@bitcoinagile,#bitcoin Behind Best Performing Hedge Fund #Cryptocurrency #Gold https://finews.asia/finance/25620-bitcoin-behind-best-performing-hedge-fund…,0,0,0,False
178,Poindextrous @imsyedwaqar,"RT my tweet. If I get 1000 followers by tomorrow I will send free $NUDES to everybody 

$BTC #cryptoCurrency #Crypto #BitcoinGIF",1,3,0,False
179,MoneyHealth &Finance@MoneyhealthF,"Goldman Sachs, United Technologies Dominate DJIA Wednesday September 27, 2017:... http://twib.in/l/65nnKyy7erg7 #cryptocurrency #business #stocks",0,0,0,False
180,Linux Cryptography@linuxcrypto,#linux #crypto Re: DMA error when sg->offset value is greater than PAGE_SIZE in Intel IOMMU https://goo.gl/fb/5rgvAF,0,0,0,False
184,Linux Cryptography@linuxcrypto,#linux #crypto Re: DMA error when sg->offset value is greater than PAGE_SIZE in Intel IOMMU https://goo.gl/fb/PbZum5,0,0,0,False
185,Linux Cryptography@linuxcrypto,#linux #crypto Re: DMA error when sg->offset value is greater than PAGE_SIZE in Intel IOMMU https://goo.gl/fb/QPuiyS,0,0,0,False
186,finews_asia@finews_asia,Bitcoin Behind Best Performing Hedge Fund #Bitcoin #Cryptocurrency #Gold http://tinyurl.com/y7ed7l5c,1,0,0,False
187,Tech News@NewsDoses,"#Blockchain #Powers #Shift To #Decentralization In #Media
#Blockchainnews #Cryptocurrency #Cryptocurrencynews
CryptoCurrency, ...",0,0,0,False
188,PathTradingPartners@Path_Trading,#LITECOIN : #MONERO Update-9-27 #CryptoCurrency : Watch -> https://youtu.be/5-9lZh3cevQ #Technical #Analysis : Path Chat,1,1,0,False
189,iCandy Interactive@iCandyInteract_,"Good read..
While China Bans Bitcoin Exchanges, Japanese Government Embraces Them
https://cointelegraph.com/news/while-china-bans-bitcoin-exchanges-japanese-government-embraces-them…
#iCandy #ICI #Nitro #NOX #CryptoWhile China Bans Bitcoin Exchanges, Japanese Government Embraces ThemJapanese Bitcoin exchanges will be fully surveilled and investigated by local authorities. This is a measure of a larger initiative to create a more regulated Bitcoin exchange market.cointelegraph.com",2,1,0,False
190,BrianDColwell (Quotidian Marketing)@BrianDColwell,"2012: #Google #Scholar articles published on #Bitcoin: 424
https://briandcolwell.com/2017/06/a-giant-sized-history-of-bitcoin/.html… #fintech #blockchain #crypto #bitcoin #btc #ico #iot",0,0,0,False
191,Your daily Retweet@YourDailyRT,Invite people to #Crypto #Altcoin #InflationCoin #Chat Channel https://discord.gg/aDa2emh,1,0,0,False
192,Namecoin Market@MarketNmc,1 Namecoin = 1.5046 USD. Namecoin has changed by -0.005 USD in 30 mins.  #namecoin #nmc #cryptocurrency,0,0,0,False
193,Peercoin Market@PeercoinMarket,1 Peercoin = 1.4189 USD. Peercoin has changed by -0.006 USD in 30 mins.  #peercoin #ppc #cryptocurrency,0,0,0,False
194,Sam Power@SamuelPower39,"Only a matter of time...

$NEO $ETH $HTC $GBTC #Blockchain #cryptocurrency #ICO #IoT #Altcoins #bitcoin #NEOcoin
https://ethnews.com/guidelines-for-balanced-ethereum-token-issuance-interactive-coin-offerings…",2,0,0,False
195,Cryptoinfogirl @cryptoinfogirl,$salt out now. $15. Wow  #ico #cryptocurrency,2,0,0,False
196,CryptoWhaleCall@CryptoWhaleCall,"TenX (PAY) slowly increasing further! Steady upwards trendline! Quality coin!

$BTC $ETH $crypto $alts $MTL $sc $EMC2 $PAY $LTC $NEO $STRAT $TKN $OMG #BTC #ETH #cryptocurrency $QTUM $iota",9,1,0,False
197,MoneyHealthFinance@MoneyHealthFina,Senators want probe of Allergan transfer deal with tribe: letter (Reuters) – Four... http://twib.in/l/geMMpzXMEbde #cryptocurrency #tech #fintech,0,0,0,False
199,Blockgeeks@Blockgks,What is Cryptoeconomics? The Ultimate Beginners Guide http://dld.bz/gaVnM #Crypto #Ethereum,2,1,0,False
200,BrianDColwell (Quotidian Marketing)@BrianDColwell,"#BITCOIN #investors should embrace #volatility. #HODL
https://briandcolwell.com/bitcoin-basics #cryptocurrencies #crypto #IoT #blockchain #investing #BTC",0,0,0,False
201,CoinVedi@CoinVedi,"Localbitcoins Trading Volume Sets New Global All-Time High
https://coinvedi.com/localbitcoins-trading-volume-sets-new-global-all-time-high/…
#Bitcoin #Blockchain #Cryptocurrency #Ethereum",0,0,0,False
202,CryptoWhaleCall@CryptoWhaleCall,"Bitcoin went past $4200! Will we see $5000 this week?  
Any bad news can bring it back down, so pray for no news or at least good news!

$BTC $ETH $crypto $alts $MTL $sc $EMC2 $PAY $LTC $NEO $STRAT $TKN $OMG #BTC #ETH #cryptocurrency $OMG",8,3,1,False
203,analyst5@analyst5_bot,"#crypto price changes last hour


$MCO +7.93%
$NEO +7.50%
$VOX +6.53%


$DOPE -6.55%
$DCT -6.19%
$EXP -5.76%

#altcoins",1,1,0,False
204,CryptoBlackHole@CryptoBlackHole,$ark #Crypto  we are going downGIF,0,0,0,False
205,Cryptocoin Radar@cryptocoinradar,"$mco / $btc: +8% value, +31% volume in 1 hour at #Bittrex (#Monaco / #Bitcoin, @monaco_card, #altcoin, http://cryptocoinradar.com/#mco)",3,3,0,False
206,SGP@Pillai_Sunil,"135 #Blockchain #Startups with #ICOs
#CyberSecurity #cryptocurrency #infosec #fintech... by #evankirstel",0,0,0,False
207,All Bitcoin News@allbitcoin_news,Cayman Investment Forum to focus on bitcoin and gold  #BTC #Bitcoin #Crypto-http://allcryptocurrencies.news/bitcoin/cayman-investment-forum-to-fo…...,1,0,0,False
208,Brave New Coin@bravenewcoin,"Want to implement an #oracle, but too afraid to try? We provide custom Oracles for #digitalasset & #cryptocurrency http://bit.ly/2wDhT0c",2,0,0,False
209,All Bitcoin News@allbitcoin_news,"Grayscale Investments, LLC : Announces Withdrawal of Rule 19b-4 Applic...  #BTC #Bitcoin #Crypto-http://allcryptocurrencies.news/bitcoin/grayscal…...",0,0,0,False
210,ArtByte@ArtByteMe,"Buying Bitcoin And Crypto Assets: The Ultimate Guide http://bit.ly/2xDwurR #bitcoin #blockchain #fintech #crypto #cryptocurrencyForbes Marketplace: Buying Bitcoin And Crypto Assets: The Ultimate GuideSafely Invest in Cryptocurrencies Free Report: An Intrepid Investor’s Guide To Buying Bitcoin And Other Crypto Assets  Cryptocurrencies are the latest investing craze, attracting everyone from...forbes.com",6,17,0,False
211,CrowdConscious    @CrowdConscious,"$BTS Buy - come vote #Bitshares community! @bitshares
#Cryptocurrency #Traders #Investing #Decentralized #Exchange Fastest #Blockchain #RT https://twitter.com/Alberto_Casas_O/status/913160792991772672…This Tweet is unavailable.",3,1,0,False
212,LatinAmerican Post@latampost,#Cryptocurrency: The fierce battle in the cryptocurrency arena: high risk is high reward. http://ow.ly/ez2n30ft4ta #Economy #Bitcoin #ICO,0,0,0,False
213,CryptoNewswire @CryptoNewswire,Altcoin Aggregate Bid/Ask Ratio - 4hr: 0.992:1; 24hr: 1.028:1 #altcoins #cryptocurrency #fintech #finance,0,0,0,False
214,Tim-Frederik Kohler@tfkohler,"135 #Blockchain #Startups with #ICOs
#CyberSecurity #cryptocurrency #infosec #fintech... by #evankirstel",3,0,0,False
215,CryptoNewswire @CryptoNewswire,Top 6 BTC/USD Exchange Orderbooks: Resistance til $4400:$27.4M; Support til $4000:$29.3M $BTC $BTCUSD #bitcoin #orderbook #trading #crypto,1,0,0,False
216,Trade Team@TradeTeamUS,Blockchain Powers Shift To Decentralization In Media #crypto http://tradeteam.us/blockchain-powers-shift-to-decentralization-in-media/…,0,0,0,False
217,Ethereum vs Stocks@eth_vs_stocks," Ethereum ($29.04B) is now worth more than Illumina, Inc. ($28.99B) $ETH $ILMN #crypto #marketcap",0,0,0,False
218,Monero price $XMR@XMRprice,"Current Monero price:
1 XMR = $100.87 USD

Market capitalisation:
$1,527,353,737 

$XMR #XMR #Monero #Cryptocurrency",0,0,0,False
219,crypto Hourly@CryptoHourly,"Total #CryptoCurrency Market Cap is $145,289,709,945, with Total 24 hr. volume of $3,979,788,798",0,0,0,False
220,Free money info@Free_money_info,Invite :) people to #Crypto #Altcoin #InflationCoin Chat Channel https://discord.gg/aDa2emh,1,1,0,False
221,Coinboard@Coinboard,Morgan Stanley CEO: ##Bitcoin Is 'More Than Just A Fad' http://twib.in/l/E599r9REKnR5 via @coindesk #cryptocurrency,0,0,0,False
222,PERUFOODIE@PeruFoodie,#crypto #foodtruck on the works! We'll be takin #btc #eth #dash #ltc ! #cash is boring What else do u suggest? #blockchain #payments,1,0,0,False
223,BitcoinAgile@bitcoinagile,A #blockchain Solution to Counterfeit Drugs  Decentralize Today #crypto #pharmaceuticals https://medium.com/@cryptoginger/a-blockchain-solution-to-counterfeit-drugs-770b66376dde#---0-263…,0,0,0,False
224,Don Jon@PurpleSuede22,“A Blockchain Solution to Counterfeit Drugs” #crypto #pharmaceuticals https://medium.com/@cryptoginger/a-blockchain-solution-to-counterfeit-drugs-770b66376dde#---0-263…,2,3,0,False
225,Transhuman Tees@TranshumanTees,"The Wolf of Wall St Thinks Jamie Dimon is Right - Okay Then! https://steemit.com/bitcoin/@futuristgear/the-wolf-of-wall-st-thinks-jamie-dimon-is-right-okay-then…
#bitcoin #btc #crypto #cryptocurrencyThe Wolf of Wall St Thinks Jamie Dimon is Right - Okay Then... — SteemitThe Wolf of Wall St Agrees with Dimon? Huh? Jordan Belfort has come out and said he agrees with Jamie Dimon .… by futuristgearsteemit.com",0,0,0,False
226,Investors Europe@onlineplatforms,"Suddenly, #Bitcoin Breaks into #UK #Housing Market as Down Payment. #BTC #BCH #XRP #ETH #Crypto #CryptoNews http://rocktrader.eu/p/4084270925/2017/09/05/suddenly-bitcoin-breaks-into-uk-housing-market-as-down-payment-btc-bch-xrp-eth-crypto-cryptonews?utm_medium=social&utm_source=twitter…",1,1,0,False
227,FORTUNE420.COM ®@Fortune420Group,"#MustWeed Former Miss Iowa Launches Blockchain, Cryptocurrency for the Canna... http://Fortune420.com/News #Cannabis #Stocks & #Crypto",0,0,0,False
228,FORTUNE420.COM ®@Fortune420Group,#MustWeed Pennsylvania medical cannabis firm kicks off $500K marketing push http://Fortune420.com/News #Cannabis #Stocks & #Crypto,0,0,0,False
229,FORTUNE420.COM ®@Fortune420Group,#MustWeed Wisconsin Cities Are Legalizing Marijuana Themselves http://Fortune420.com/News #Cannabis #Stocks & #Crypto,0,0,0,False
230,FORTUNE420.COM ®@Fortune420Group,#MustWeed That Time Lady Gaga Smoked Too Much Weed In Front Of Beyonce http://Fortune420.com/News #Cannabis #Stocks & #Crypto,0,0,0,False
231,FORTUNE420.COM ®@Fortune420Group,#MustWeed Marijuana dispensaries banned in Delray Beach – Sun Sentinel http://Fortune420.com/News #Cannabis #Stocks & #Crypto,0,0,0,False
232,FORTUNE420.COM ®@Fortune420Group,#MustWeed 10 Best Weed Strains To Grow In Dry Climates http://Fortune420.com/News #Cannabis #Stocks & #Crypto,0,0,0,False
233,Nadeem Ansari FCIM F IDM@nadeemansary,Why Blockchain Could Kill Your Bank | 1st In SEO #Blockchain #cryptocurrency- http://bit.ly/2tiM6vK https://pic.twitter.com/kxbUQSnqLpWhy Blockchain Could Kill Your Bank | 1st In SEOBitcoin has exploded in popularity. Its value has doubled every year since its inception in 2009 and now one coin is worth somewhere between $2500 and $3000 depending on what time of day it is....1stinseo.com,0,0,0,False
234,BrianDColwell (Quotidian Marketing)@BrianDColwell,"“#Stratus’ greatest value is in putting #Blockchain into the hands of regular #developers""
https://briandcolwell.com/2017/07/stratis-blockchain-as-a-service-baas/.html…
#fintech #cryptocurrency",0,0,0,False
235,Ethereum vs Stocks@eth_vs_stocks," Ethereum ($28.97B) is now worth less than Illumina, Inc. ($28.99B) $ETH $ILMN #crypto #marketcap",1,0,0,False
236,Crypto Mining God@MiningGod,The #crypto economy has become filled with a bunch of morons who were too broke to meet the account minimum on Scott trade.,0,0,0,False
237,Makebitcoins@makebitcoins,The Wolf of Wall Street Jordan Belfort speaks on Bitcoin and Ethereum!! #fintech #currency #crypto #bitcoin http://makebitcoins.de/the-wolf-of-wall-street-jordan-belfort-speaks-on-bitcoin-and-ethereum…,0,0,0,False
238,Makebitcoins@makebitcoins,Why Everyone Missed the Most Mind-Blowing Feature of Cryptocurrency #fintech #currency #crypto #bitcoin #mining http://makebitcoins.de/why-everyone-missed-the-most-mindblowing-feature-of-cryptocurrency…,0,0,0,False
239,MiningField@miningfield,"17 #DMD #masternode shares now available to buy after removing non payed shares.
This is your chance!
https://dmdmn.miningfield.com
#altcoin",1,2,0,False
240,Brian D. Colwell@BColwell_Invest,"#TenX #wallet: #Decentralized and #trustless storage.
https://briandcolwell.com/2017/08/tenx-is-connecting-blockchains-with-the-tenx-wallet-x-marks-the-spot-or-a-map-to-nowhere/.html… @tenxwallet #crypto #blockchain #cryptocurrencies #payments",1,0,0,False
241,MonDSkiEZ™@TheMonDSkiEZ,The #coinmarketcap is finally getting out of the slump  #bitcoin #litecoin #ripple #dash #monero #crypto #blockchain #cryptocurrency,1,0,0,False
242,The Industry Spread@industryspread,New #trading & settlement technology dev. that may be about to change the #financial landscape. #Cryptocurrency https://buff.ly/2xGIIAe,0,0,0,False
251,TheNextAltcoin@thenextaltcoin,"Complex AI trading algorithms for advanced capital gains #news #altcoin #bitcoin
http://openlink.azurewebsites.net/aHR0cHM6Ly93d3cuY3J5cHRvLW5ld3MubmV0L2NvbXBsZXgtYWktdHJhZGluZy1hbGdvcml0aG1zLWFyZS1hdmFpbGFibGUtbm93Lw==/aHR0cHM6Ly93d3cuY3J5cHRvLW5ld3MubmV0L3dwLWNvbnRlbnQvdXBsb2Fkcy8yMDE3LzA5L3RpZXMuZ2lm/Q29tcGxleCBBSSB0cmFkaW5nIGFsZ29yaXRobXMgZm9yIGFkdmFuY2VkIGNhcGl0YWwgZ2FpbnMgICAg/VHJ5aW5nIHRvIGltYWdpbmUgdGhlIGlkZWFsIHRyYWRpbmcgYWR2aXNvciwgeW91IHNlZSBzb21lb25lIHdpdGggdW5saW1pdGVkIHJlc291cmNlcyBpbiBoYW5kcywgd2hvIGF2b2lkcyB0aGUgaHVtYW4gZmFjdG9yLCBjYXRjaGluZyB1cCBvbiBhY3Rpdml0aWVzIG9mIG90aGVyIHRyYWRlcnMsIGFuYWx5c3RzIGFuZCBoZWRnZS1mdW5kIG0=…",0,0,0,False
252,BlackBullTradingPost ₿   @BlackBullTradn,RT thee_wolf: The next big feature for OpenBazaar should be: #cryptocurrency #digital #smartcontracts #InBlockchainWeTrust,0,0,0,False
253,Litecoin Price@LitecoinRates,LTC to GBP price £41.55 https://goo.gl/FAhUak #litecoin #ltc #cryptocurrency,0,0,0,False
254,Litecoin Price@LitecoinRates,LTC to BTC price B0.013289 https://goo.gl/55Jnpz #litecoin #ltc #cryptocurrency,1,0,0,False
255,Litecoin Price@LitecoinRates,LTC to USD price $55.69 https://goo.gl/VncXen #litecoin #ltc #cryptocurrency,0,0,0,False
256,BitcoinCash v Stocks@bch_vs_stocks, Bitcoin Cash ($7.572B) is now worth less than Liberty Media Corporation - Ser ($7.577B) $BCH $FWONA #crypto #marketcap,0,0,0,False
257,BitcoinCash v Stocks@bch_vs_stocks," Bitcoin Cash ($7.572B) is now worth less than F5 Networks, Inc. ($7.602B) $BCH $FFIV #crypto #marketcap",0,0,0,False
258,Ali dinson@bitlogin,"Grab them while they last, 100 free DAT Tokens here https://datum.network #datumnetwork #ico #cryptocurrency",0,0,0,False
259,Crypto Mining God@MiningGod,It blows my mind when people cash out their #crypto for fiat and then call themselves investors. What the fuck are you investing in?,0,0,0,False
260,Mobilearth@mobilearth,"Interesting article on #cryptocurrency as this market evolves. #currency #digitalcurrencyQuote TweetBusiness Insider Partners@BIContributors · Sep 27, 2017Cryptocurrency may be so elusive that it cannot be easily inherited —via @Fortune http://read.bi/2xFMMAu",0,0,0,False
261,GenesisEX@GenesisEX_com,List Of High Profile #Cryptocurrency Hacks So Far #bitcoin #ethereum https://buff.ly/2xGws2p,3,0,0,False
262,Stev Jack@stevjack4,@banditdesigner Appreciate the follow good info you are sharing on #cryptocurrency,1,1,0,False
263,Trading Signal@tradingsignalio,"Signals : $BTCUSD (60min)
#cryptocurrency #bitcoin #xbtusd #tradingsignal

Get it here: https://buff.ly/2wXPvlk",0,0,0,False
264,3CEPS@3CEPSsolutions,"Some are for #Bitcoin and others not so much...which way do you lean?

#3CEPS #IT #Tech #Finance #News #China #Banking #CryptocurrencyQuote TweetCoinDesk@CoinDesk · Sep 27, 2017It's Political: Why China Hates Bitcoin and Loves the Blockchain http://bit.ly/2xwK1Cf",0,0,0,False
265,sliema bugiba@sliemabugiba,"Pimco Total Return Bond Fund, since Gross exit, outperforms most peers #money #is #king #crypto or #fiat",0,0,0,False
266,Simeon Udoh ∞@TechviberNG,#Proofsuite — Buy Tokenized real world assets using a feature-packed Dashboard! Learn More: https://proofsuite.com #Crypto #Blockchain,0,0,0,False
267,Crypto Savior@crypto_savior,Singapore-Based Bitcoin Startups Deal With Bank Account Closures http://cstu.co/2cf8f9 #cryptocurrency $BTC $ETH,0,0,0,False
268,#1c0@GO1c0,"Ambitious project for supply chain. #Ambrosus will change food and #pharma. #ICO: http://bit.ly/go_tge
#crypto #blockchain #swiss #eth",0,0,0,False
269,Nick Hoang@nick_hoang,"Whoa.   #blockchain #bitcoin #cryptocurrency #ico #token
https://news.secureidentityledger.com/2017/09/27/secure-identity-ledger-press-release/…",1,0,0,False
270,Digital Deals@Digital_Deals_,$399.99 AntMiner S4+ ~2570Gh/s @ 0.58W/Gh 28nm ASIC Bitcoin Miner #Bitcoin #Mining #Cryptocurrency http://bit.ly/2yuyArK,0,0,0,False
271,Ebay Allstars@Ebay_Allstars,"#Bitcoin is great, but don't you feel you might be missing out on other great #altcoins? #BTC http://bit.ly/2qTpMvC",0,0,0,False
272,Boohaa@BoohaaCrypto,@zimmzamma https://discord.gg/y32JTj free chat join up #crypto,0,0,0,False
273,Daily Cryptocurrency@DailyCryptos,"Did you miss part three of our series? Cloud Mining with Hashnest: Good, Bad, & Ugly http://dailycryptocurrency.com/hashnest-cloud-mining/… #Bitcoin #Blockchain #Crypto",0,0,0,False
274,CryptoStoner@CryptoStoner,"Ohhhh RICK! You were right about $ADX @AdEx_Network 
Look at that Rocket Ship of GAINS. To the Moon!
#crypto #adxtoken #btc",2,1,0,False
275,Let's make money@yourcryptotips,Remember $PRO? Running today after a @WSJ piece from yesterday. 2nd best token on @Liqui_Exchange today! Get in ASAP #propy #crypto,1,0,0,True
276,Bitcoin Lootbox@BitcoinLootbox,"Are you Bullish or Bearish on #Twitter? Start #Trading $TWTR with #Bitcoin #Cryptocurrency #Stocks $QQQ
http://1Foxy.com/BTC-TWTR/GIF",0,0,0,False
278,Chad Alberda@paymentschadder,"#Payments will evolve. #blockchain #cryptocurrency 
http://tsys.com/news-innovation/whats-new/Articles-and-Blogs/nGenuity-Journal/block-by-block-an-update-on-merchants-acceptance-of-cryptocurrencies.html…",0,0,0,False
279,Danny Brown Wolf@Dannyhbrown,#Cryptocurrency and #blockchain @iAngelsCrowd event. Fascinating! Founder Shelly Hod says it's this decades' opportunity to create wealth!,2,0,0,False
280,mohamed hassan @mohamed90298671,"Grab them while they last, 100 free DAT Tokens here https://datum.network #datumnetwork #ico #cryptocurrency",0,0,0,False
281,BitcoinAgile@bitcoinagile,"Institutionally Supported Cryptocurrency Will Overtake #bitcoin, Says Wolf Of Wall Street #BTC #Crypto http://allcryptocurrencies.news/all-crypto-currencies/institutionally-supported-cryptocurrency-will-overtake-bitcoin-says-wolf-of-wall-street…",0,0,0,False
282,All Bitcoin News@allbitcoin_news,"Institutionally Supported Cryptocurrency Will Overtake Bitcoin, Says W...  #BTC #Bitcoin #Crypto-http://allcryptocurrencies.news/bitcoin/institut…...",0,0,0,False
283,Double Tops@2xtops,How many #altcoins are you holding? $cryptoLess than 526.4%5 to 1028.9%11 to 2022.8%More than 2021.8%197 votes·Final results,2,0,0,False
284,analyst5@analyst5_bot,"#crypto mkt cap last hour


$BTC +230.744m
$ETH +177.309m
$NEO +34.745m


$XRP -47.623m
$DASH -27.683m
$XMR -9.414m

#altcoins",1,0,0,False
285,Crypto Yoyo@cryptoyoyo,Morgan Stanley CEO: Bitcoin Is 'More Than Just A Fad' http://bit.ly/2fSMnl3 #bitcoin #crypto #news,1,0,0,False
286,Crypto Yoyo@cryptoyoyo,Staking Sidechains? New Paper Proposes Twist on Bitcoin Tech http://bit.ly/2xxqaTN #bitcoin #crypto #news,0,0,0,False
287,PathTradingPartners@Path_Trading,#BITCOIN : #BITCOINCASH Update-9-27 #CryptoCurrency : Watch -> https://youtu.be/lbnvhncBlwY #Technical #Analysis : #btc #btcc,2,1,0,False
288,Muchamad Aldi Ananta@_dimox,#Jibrelnetwork Good idea that the team is asking for feedback from the community. https://jibrel.network #cryptocurrency #blockchain,0,0,0,False
289,Bitcoin News@BestBitcoinNews,Look how I'm making technic analysis and also you can make money !! Make traffic… #crypto #markets #cryptocurrencyBITCOIN CASH | Short ExplanationPODCAST | Difference between Bitcoin Cash and Bitcoin | Practical Explanation of the Hard Forkyoutube.com,0,0,0,False
290,gMAK@gMAKcrypto,"$ADX Another call I made currently at 87% profit. Told you it wasn't done at 30%. 

#HappyToHelp
$BTC #altcoinsQuote TweetgMAK@gMAKcrypto · Sep 25, 2017FYI - I called $ADX at 13k sats.
Went to 17.7k sats 30% Profit.

but HODL THIS ONE. I'ts not done.

$BTC $ETH $XZC $OMG $PTOY $CRB $BCY https://twitter.com/gMAK_88/status/911361359367081984…",1,0,0,False
291,innmindcom@InnMindcom,http://innmind.com/articles/829 Get #Blockchain #MarketReport by @InnMindcom #crypto #tokens #BlockchainStartup #CryptoStartup #coinstartup,0,0,0,False
292,Matthew James Lawler @MJLCreative,"You're financial advisor telling you the stock market is fine, stay away from #Bitcoin  and #crypto. #asshole #cryptocurrency $BTC $NEO $XVG",2,0,0,False
293,Digital Deals@Digital_Deals_,"$2,450.00 Pre - Order Antminer S9 BTC 14TH/s DECEMBER BATCH! 1-10! Fast shipping! #Bitcoin #Mining #Cryptocurrency http://bit.ly/2ytHwxt",0,0,0,False
294,blue ghosties@blueghosties,Decentralized currency. All the bankers go away. No more economy based on debt and false scarcity. #cryptocurrency,0,0,0,False
295,BitSharesOfficial@BitSharesReview,"What it Means to be ""The Hottest Woman"" #cryptocurrency #digtitalcurrency #newworld order https://buff.ly/2hxg5vT",1,0,0,False
296,Chart Davidson - Crypto Ren of Coinverse@ChartDavidson,"Wedge is clear now on #bitcoin. Waiting for re-entry.
#etherium
#monero
#ripple
#litecoin
#crypto
#stellar",0,0,0,False
297,Fintech Prowler@FintechProwler,"Cryptolocator, an Altcoin Trading Marketplace, Announces Platform Launch - Live Bitcoin News http://ift.tt/2xGTbvs #altcoin",2,0,0,False
298,MoneyHealth &Finance@MoneyhealthF,"After Hours Most Active for Sep 27, 2017 : CNDT, AABA, CSCO, QQQ, T, HPQ, MDL... http://twib.in/l/eAMMqGR8pEba #business #cryptocurrency #fintech",0,0,0,False
299,MoneyHealth &Finance@MoneyhealthF,"Mandarin Oriental shares dive as Excelsior sale shelved Singapore, Hong Kong LUXURY ... http://twib.in/l/bd55oEgkXdEb #tech #news #cryptocurrency",0,0,0,False
300,MoneyHealth &Finance@MoneyhealthF,"Cuphead gameplay — watch us run, gun, and fight bosses Cuphead is due out i... http://twib.in/l/8Xddk8XnE4aq #bigdata #cryptocurrency #realestate",0,0,0,False
301,KICK ECOSYSTEM@KickEcosystem,"Finally, everyone will get their KickCoins (KICK). Soon on exchanges! https://medium.com/@kickico/voila-your-kickcoins-are-served-fcbab6d44ca5… #kickico #ico #blockchain #cryptocurrencyVoila! Your KickCoins are served.YES! There are hurricanes in the Atlantic and in CryptoSpace as well, namely, FUD hurricanes! The KICKICO’s ICO has been completed only for…kickecosystem.medium.com",107,48,12,False
302,Matt DeCarr@CryptoKatMatt,Demo: Create an Ethereum Smart Contract http://slninja.com/Svzv #cryptocurrency #bitcoin #coolness,0,0,0,False
303,Namecoin Market@MarketNmc,1 Namecoin = 1.5096 USD. Namecoin has changed by -0.012 USD in 30 mins.  #namecoin #nmc #cryptocurrency,0,0,0,False
304,Peercoin Market@PeercoinMarket,1 Peercoin = 1.4249 USD. Peercoin has increased by 0.0074 USD in 30 mins.  #peercoin #ppc #cryptocurrency,0,0,0,False
305,Ralf P. Gerteis@Ralf_Gerteis,"Regulated ICOs Arrive: Overstock to Open Exchange for Legal Token Trading
#Blockchain #ICO #CryptoCurrency #Token
http://bit.ly/2xFviV9",1,1,0,False
306,CryptoReporting.com@CryptoReporting,"#Overstock launching #cryptocurrency exchange?

#crypto #cryptonews #cryptocoins #bitcoin #btc #ethereum #eth
https://cryptoreporting.com/overstock-com-announces-legal-coin-exchange-for-regulated-icos-stock-pops-24/…",1,1,0,False
307,MoneyHealthFinance@MoneyHealthFina,Siemens and Alstom Form European Train Giant to Beat Chinese Competition FRANKFURT —... http://twib.in/l/Rnjj8nbo8M9n #cryptocurrency #tech #data,0,0,0,False
316,MoneyHealthFinance@MoneyHealthFina,Close Update: Equities Advance With Dow Snapping Four-Day Skid as Trump's Tax ... http://twib.in/l/Bg88pgRybnzo #tech #realestate #cryptocurrency,0,0,0,False
317,CoinPay@CoinPay_in,#Crypto #Bitcoin LON Becomes First Regulated Bank in the World to Sell… http://dlvr.it/PqvS6D #News #Bitcoin #Crypto #Blog #btc #India,1,2,0,False
318,Mandeep@mandeepsdhull,"Stratis roadmap within week: https://stratisplatform.com/2017/09/26/stratis-roadmap-work-progress/… $BTC $ADX $ETH $TRIG $OKCASH $DCT $STRAT $LTC $XRP #Blockchain #cryptocurrency #CryptoStratis Roadmap: Work in Progress - Stratis PlatformDear Stratis community, We are very aware of the urgency for the updated Stratis roadmap, and it is indeed THE priority for Stratis. But it’s proven to be the most challenging task as an organizati...stratisplatform.com",1,2,0,False
319,CryptoReporting.com@CryptoReporting,"@Overstock to launch #cryptocurrency exchange?

#crypto #cryptonews #cryptocoins #bitcoin #btc #ethereum #eth #ltc
https://cryptoreporting.com/overstock-com-announces-legal-coin-exchange-for-regulated-icos-stock-pops-24/…",1,1,0,False
320,Bitcoin Lootbox@BitcoinLootbox,"Are you Bullish or Bearish on #Facebook? Start #Trading $FB with #Bitcoin #Cryptocurrency #Stocks $QQQ
http://1Foxy.com/BTC-FB/GIF",0,0,0,False
321,RadicalTransparency@RadicalTMovie,First in a series of #MeetTheTeam @v7vladski #VladLodzinski #boss #documentary #4thIndustrialRevolution #crypto #ai #blockchain #humor,1,5,0,False
322,BTC Bros@BTCBros,"Cryptocurrency above $3900 amid Hong Kong ICO: Bitcoin latest update
https://buff.ly/2y4EVOB
#cryptocurrency #bitcoin btcbros #ico #hongkongBitcoin price latest update: Cryptocurrency above $3,900 amid Hong Kong ICOBITCOIN'S price leapt above $3,900 mark amid news that a company based in Hong Kong plans to launch an Initial Coin Offering (ICO) - despite China's ban on the fundraisers.express.co.uk",0,0,0,False
323,BitcoinCash v Stocks@bch_vs_stocks, Bitcoin Cash ($7.627B) is now worth less than News Corporation ($7.629B) $BCH $NWSA #crypto #marketcap,0,0,0,False
324,Ethereum vs Stocks@eth_vs_stocks, Ethereum ($29.11B) is now worth less than TE Connectivity Ltd. New Switze ($29.13B) $ETH $TEL #crypto #marketcap,0,0,0,False
325,Disruptor Daily@DisruptorDaily,"#Cryptocurrency: The reputation that was built by Spondoolies is still very much alive today. The secret? Quality
http://ow.ly/oCZf30fsWWd",0,0,0,False
326,Money Morning@moneymorning,"Mario #Draghi Says #ECB Has ""No Power"" to Regulate #Bitcoin http://bit.ly/2yHzGkK #BitcoinNews #Crypto #CryptoNews",2,0,0,False
328,Trevor Sumner@trevorsumner,Japan is launching digital currency to replace cash called J-Coin in 2020.  Massive validation for #cryptocurrency https://technologyreview.com/the-download/608963/japanese-banks-are-planning-to-launch-j-coin-a-digital-currency-meant-to-kill/…,2,0,0,False
329,ProgrammableWeb@programmableweb,24 recent #cryptocurrency #APIs http://bit.ly/2xxmDoj,1,1,0,False
330,Anton Aksenov@AntonAksenow,Team LevelNet gives interviews on TechCrunch Disrupt 2017 @levelnetwork #ico #cryptocurrency… https://instagram.com/p/BZj68QNhBm3/,1,1,0,False
331,Bits To Freedom@Bits_To_Freedom,"#BitsToFreedom
http://BitsToFreedom.com
$Crypto #Crypto $BTC #BTC #BlockChain
#Bitcoin #DayTrading #cryptocurrency https://twitter.com/cryptopicasso/status/913168217396404225…This Tweet is unavailable.",0,0,0,False
332,Cryptbuzz@cryptbuzz,Blockchain Powers Shift To Decentralization In Media http://ift.tt/2y9L6kd #altcoin,0,0,0,False
333,Sergii@ritmoinvst,$NEO WILL BE SOON! https://coinnest.co.kr/gonggao/71.html #altcoins,1,0,0,False
334,Peacefull Man@Mylovejaku,Not all investments are equal...Litra is investment to be proud of  http://litra.site #Coin #ICO #ICOs #TokenSale #Crypto #EHT #BTC,0,0,0,False
335,Nick Hoang@nick_hoang,"This company looks amazing!  #blockchain #ico #token #cryptocurrency #digitalidentity
https://secureidentityledger.com",0,0,0,False
336,FloatingCities@gl0bal1st,Replying to @blocksafeLmao classic $trig #crypto #altcoin #btc #eth #getyourshittogether,1,0,0,False
337,BitcoinCash v Stocks@bch_vs_stocks, Bitcoin Cash ($7.633B) is now worth less than Veeva Systems Inc. Class A ($7.642B) $BCH $VEEV #crypto #marketcap,0,0,0,False
338,Sean@seandotau,What If US Dollar Was Just Another #Cryptocurrency?  https://buff.ly/2fRB1ha @LingyAu88 @sulufiti @adirajgupta @mersham_gary @Efficiencydude,4,2,0,False
339,SphereLabs@SphereApps,"#Trade #BitCoin #Crypto 

+ #Foreign #Currency 

Check Out #Forex #Free #Signals #Bot Too!

Easy Sign Up ---->Here!

http://sphereapps.simdif.com",0,0,0,False
340,CryptoNewswire @CryptoNewswire,LON Becomes First Regulated Bank in the World to Sell Bitcoin Through ATMs - http://bitcoinschannel.com/lon-becomes-first-regulated-bank-in-the-world-to-sell-bitcoin-through-atms/… $BTC #news #trading #crypto,2,2,0,False
341,Bitcoin News@BestBitcoinNews,We're building a crypto trading game that runs in our discord chatroom and we're… #crypto #markets #cryptocurrencyBITCOIN CASH | Short ExplanationPODCAST | Difference between Bitcoin Cash and Bitcoin | Practical Explanation of the Hard Forkyoutube.com,0,0,0,False
342,Automatski@theautomatski,15%-32% Early Bird Bonus. See http://bit.ly/2w0xR4g Curated Worldclass ICOs & ITOs. #bitcoin #cryptocurrency #startup #FinTech #ICOs #ETH,0,0,0,False
343,XRP Street Team@XRPstreetTEAM,What or who got you into @Ripple's $XRP? We'd like to hear your story. #ripple #bitcoin $BTC #cryptocurrency #altcoins #HODL #XRPstreetTEAM,50,24,15,False
344,Bitcoin Lootbox@BitcoinLootbox,"Are you Bullish or Bearish on #Amazon? Start #Trading $AMZN with #Bitcoin #Cryptocurrency #Stocks $QQQ
http://1Foxy.comGIF",0,0,0,False
345,BlockchainDaily@blockchain____,Regulated ICOs Arrive: @Overstock to Open Exchange for Legal Token Trading https://buff.ly/2fR4Sq9 #crypto #bitcoin,0,0,0,False
346,Laura Gregory@lauragreatguns,Ads don't work so websites are using your electricity to pay the bills #cryptocurrency https://theguardian.com/technology/2017/sep/27/pirate-bay-showtime-ads-websites-electricity-pay-bills-cryptocurrency-bitcoin?CMP=share_btn_tw…,0,0,0,False
347,MascapDK@mascapdk,"Upon opening the exchange retail investor influx will push #cryptocurrency prices #ToTheMoonQuote TweetCoinDesk@CoinDesk · Sep 27, 2017BREAKING – Regulated ICOs Arrive: Overstock to Open Exchange for Legal Token Trading http://bit.ly/2xK5c3C",0,0,0,False
348,BitcoinAgile@bitcoinagile,LON Becomes First Regulated Bank in the World to Sell #bitcoin Through ATMs #cryptocurrency #XBT $BTC https://cryptopanic.com/news/42869/LON-Becomes-First-Regulated-Bank-in-the-World-to-Sell-Bitcoin-Through-ATMs…,0,0,0,False
349,CryptoPanic@CryptoPanicCom, +1 LON Becomes First Regulated Bank in the World to Sell Bitcoin Through ATMs https://cryptopanic.com/news/42869/LON-Becomes-First-Regulated-Bank-in-the-World-to-Sell-Bitcoin-Through-ATMs?utm_source=notifications&utm_medium=twitter&utm_campaign=Twitter+Trending… $BTC #bitcoin #cryptocurrency #XBT,0,0,0,False
350,BrianDColwell (Quotidian Marketing)@BrianDColwell,"August 13, 2016: #Stratis passed #marketcap #USD $1,000,000.
https://briandcolwell.com/2017/07/stratis-blockchain-as-a-service-baas/.html… #fintech #cryptocurrency #blockchain #iot #iiot #cloud",0,0,0,False
351,BitcoinCash v Stocks@bch_vs_stocks, Bitcoin Cash ($7.647B) is now worth more than Veeva Systems Inc. Class A ($7.642B) $BCH $VEEV #crypto #marketcap,0,0,0,False
352,BitcoinCash v Stocks@bch_vs_stocks, Bitcoin Cash ($7.647B) is now worth more than News Corporation ($7.629B) $BCH $NWSA #crypto #marketcap,0,0,0,False
353,BitcoinCash v Stocks@bch_vs_stocks," Bitcoin Cash ($7.647B) is now worth more than F5 Networks, Inc. ($7.602B) $BCH $FFIV #crypto #marketcap",0,0,0,False
354,Investors Europe@onlineplatforms,#Singapore Becomes Favored #ICO Destination for #Blockchain Companies. #ICOs #Crypto #XRP #BTC #ETH #Dash http://rocktrader.eu/p/4084275433/2017/09/05/singapore-becomes-favored-ico-destination-for-blockchain-companies-icos-crypto-xrp-btc-eth-dash?utm_medium=social&utm_source=twitter…,0,0,0,False
355,Automatski@theautomatski,'Friendable' The Worlds Social Network. http://bit.ly/2w0xR4g #kickstarter #icotracker #venture #fund #cryptocurrency #china #blockchain,0,0,0,False
356,CryptoMorpheus@MorpheusCrypto,Bye Felicia (#China)!  #Crypto will do fine without you.GIF,0,0,0,False
357,Steve Kaplan@HiSteveKaplan,#fomo #btc #cryptocurrency l think I just missed the boat.,1,0,0,False
