,user,text,likes,retweets,replies,is_thread
0,Cyrus The Great@mdfir212,"Building Your Own Bitcoin Satellite Node: Part 1 — #Hardware Assembly.
https://medium.com/@notgrubles/building-your-own-bitcoin-satellite-node-6061d3c93e7…
#DIY #Bitcoin #SatelliteTechnology #Crypto",1,0,0,False
1,Amanda Goetz@AmandaMGoetz,So proud of @matthewgoetz for rocking it on Bloomberg today #cryptocurrency https://bloomberg.com/news/videos/2017-09-18/how-to-invest-in-cryptocurrencies-securely-video…,1,0,0,False
2,Crypto Caleb@cryptocaleb802,"This is just hilarious. #cryptocurrencyQuote TweetFuck Token@FuckToken · Sep 18, 2017FUCK Token Tip Bot is now LIVE on Reddit!  Get started by commenting on this thread, we're giving out 10 free FUCKs:
https://reddit.com/r/FuckToken/comments/70xl5t/celebrating_the_tip_bot_release_free_fucks_for/?utm_content=title&utm_medium=hot&utm_source=reddit&utm_name=FuckToken…",0,0,0,False
3,MoneyHealth &Finance@MoneyhealthF,The Biggest Loser: Mattel Tumbles 6.2% Mattel (MAT) tumbled to the bottom of the S&P ... http://twib.in/l/9E7ga7jypAkE #tech #cryptocurrency #iot,0,0,0,False
4,DeWayne Reeves@CFRN,"Tomorrow Stream the Show - LIVE

#emini #futures #trading #sp500 #cryptocurrency #bitcoin #gold #crude #euro...S&P500 Emini Futures Daily Live BroadcastLearn to Trade Emini Futures!https://EminiFuturesTrading.com​https://EminiTrainingSchool.com​Past performance is not necessarily indicative of future perform...youtube.com",0,0,0,False
5,Crypto Chad@CryptoBroChad,"$IOPBTC trying to break up, ascending triangle w/ descending volume. first target at 46000 sats $IOP $BTC $XBT $crypto #cryptocurrency #TA",2,1,0,False
6,Reena Khadgi@ReenaKhadgi02,"Grab them while they last, 100 free DAT Tokens here https://datum.network #datumnetwork #ico #cryptocurrency",0,0,0,False
7,BlackBullTradingPost ₿   @BlackBullTradn,OpenBazaar 2.0 has one of the smoothest #cryptocurrency checkout experiences! Try the beta now at… https://twitter.com/i/web/status/909926769620340736… #cryptocurrency…,0,0,0,False
8,CryptoNewswire @CryptoNewswire,"Wirex launches multi-asset off-chain liquidity network 'W-Pay' - https://cryptoninjas.net/2017/09/18/wirex-launches-multi-asset-off-chain-liquidity-network-w-pay/#comments… $BTC #altcoin #trading #cryptoWirex launches multi-asset off-chain liquidity network 'W-Pay' » CryptoNinjasWirex Limited, a bitcoin and cryptocurrency banking app today announced their new 100% in-house built payment network called 'W-Pay.'  The service wascryptoninjas.net",1,0,0,False
9,Coin Spectator - Real-time cryptocurrency news@coinspectator,The Pirate Bay caught secretly hijacking YOUR computer in order to boost its r... #crypto #eth #altcoins https://coinspectator.com/news/61154/the-pirate-bay-caught-secretly-hijacking-your-computer-in-order-to-boost-its-revenue-thaivisa-news…,0,0,0,False
10,Coin Spectator - Real-time cryptocurrency news@coinspectator,Why Has China Declared War on Bitcoin and Digital Currencies? - TheStreet.c... #blockchain #altcoin #ico https://coinspectator.com/news/61145/why-has-china-declared-war-on-bitcoin-and-digital-currencies-thestreetcom…,0,0,0,False
11,Coin Spectator - Real-time cryptocurrency news@coinspectator,Bitcoin Secretly Being Used for Money-Laundering? - TheStreet - http://TheStreet.com #altcoins #altcoin #ico https://coinspectator.com/news/61143/bitcoin-secretly-being-used-for-money-laundering-thestreet-thestreetcom…,0,0,0,False
12,C. | Prosperity Magnet@Conscious,Watching this $NEO.X #Crypto,0,0,0,False
13,Investing@investingchanel,#china widens #bitcion crack down beyond commercial trading.  #blockchain #cryptocurrency #IoT #tech #btc $btc #bigdata #fintech #crypto,2,1,0,False
14,Litecoin Price@LitecoinRates,LTC to GBP price £41.01 https://goo.gl/sCA83T #litecoin #ltc #cryptocurrency,0,0,0,False
15,Litecoin Price@LitecoinRates,LTC to BTC price B0.013553 https://goo.gl/rtKE8q #litecoin #ltc #cryptocurrency,0,0,0,False
16,Litecoin Price@LitecoinRates,LTC to USD price $55.31 https://goo.gl/QJi7Xz #litecoin #ltc #cryptocurrency,0,0,0,False
17,Poynt by GoDaddy@Poynt,South African Pick n Pay is Testing Bitcoin Payments https://buff.ly/2fvRaZx #bitcoin #cryptocurrency #brickandmortar,1,0,0,False
18,Bitcoin Garden (Not Giving Away ETH)@BitcoinGarden,Top 6 ICOs Which Sold out Really Quickly https://bitcoingarden.org/forum/index.php?topic=19474.0… tnx @themerklenews | #Crypto #News,5,9,1,False
19,Fabrizio Bustamante@Fabriziobustama,"#Bitcoin Exchange #bitFlyer Hopes to Win Big With the Japanese Bankers Association
http://m.nasdaq.com/article/bitcoin-exchange-bitflyer-hopes-to-win-big-with-the-japanese-bankers-association-cm847465… #fintech #cryptocurrency #Japan",2,0,0,False
20,Automatski@theautomatski,'SmartNET' The Worlds Low Power Wide Area Network. http://bit.ly/2w0xR4g #cryptocurrency #TokenSales #platform #cryptocurrency #funding,0,0,0,False
21,Ruben Moser@Rubencoin,Difference between BitCoin & Blockchain: Fintech Silicon Valley Dec 2016 #crypto #currency #fintech http://makebitcoins.de/difference-between-bitcoin-u-blockchain-fintech-silicon-valley-dec…,0,0,0,False
22,Ruben Moser@Rubencoin,The resolution of the Bitcoin experiment #crypto #currency #fintech #cryptocurrency http://makebitcoins.de/the-resolution-of-the-bitcoin-experiment…,0,0,0,False
23,woxio@WorkExchange,"It's crazy to think #Ethereum can scale up to #visa in just a few years. 

#crypto #bitcoin #ico #techcrunch
https://buff.ly/2xd9m1A",5,2,0,False
24,Coin Spectator - Real-time cryptocurrency news@coinspectator,Ethereum Suffers Amidst Sudden Anti-Cryptocurrency Movement G... #bitcoin #altcoin #ico #crypto_currency https://coinspectator.com/news/61141/ethereum-suffers-amidst-sudden-anti-cryptocurrency-movement-globally…,0,0,0,False
25,Coin Spectator - Real-time cryptocurrency news@coinspectator,"Bitcoin Trades near $4000, Soars 30% From Friday's Low - FX Empire #cryptocurrency #crypto #fintech https://coinspectator.com/news/61133/bitcoin-trades-near-4000-soars-30-from-fridays-low-fx-empire…",0,0,0,False
26,SCOTCOIN™@ScotcoinProject,"Replying to @CryptoCracker and @Sheldorrv2-v3 migration will be by smart contract. v2 holders will receive a TBD bonus on migration. 
#NoOneLeftBehind
#scotcoin
#crypto",1,0,0,False
27,Gary Hudson@HudsonBlueLLC,Bitcoin’s Wild Ride Shows The Truth - The Wall Street Journal $BTCUSD #cryptocurrency #bitcoin https://apple.news/A5cHQYSi0TGGyZblb4aaUUQ…,0,0,0,False
28,Crypto Insider X@CryptoInsiderX,"#STATUS has struggled but Im not worried. I bought #SNT 5x from 1600-600 SATS

When it picks up, Im doin the Carlton dance. #Crypto #bitcoinGIF",2,1,1,False
29,Tiffany Trading@TiffanyTrades,Multi million $ apartment complex Aston Plaza in Dubai priced in BITCOIN.Real estate using crypto!#BTC #CRYPTO https://cnbc.com/2017/09/05/dubai-real-estate-project-first-to-be-priced-in-bitcoin-michelle-mone.html… ,5,3,0,False
30,OpenBazaar@openbazaar,OpenBazaar 2.0 has one of the smoothest #cryptocurrency checkout experiences! Try the beta now at https://openbazaar.org/downloadGIF,56,28,1,False
31,CryptoNewswire @CryptoNewswire,Bitcoin Exchange bitFlyer Hopes to Win Big With the Japanese Bankers Association - http://nasdaq.com/article/bitcoin-exchange-bitflyer-hopes-to-win-big-with-the-japanese-bankers-association-cm847465… $BTC #fintech #cryptocurrencyBitcoin Exchange bitFlyer Hopes to Win Big With the Japanese Bankers Associationnasdaq.com,1,0,0,False
32,CryptoNewswire @CryptoNewswire,Op Ed: How Blockchain Technology Will Disrupt Digital Content Distribution - http://nasdaq.com/article/op-ed-how-blockchain-technology-will-disrupt-digital-content-distribution-cm847467… #trading #altcoin #finance,0,0,0,False
33,MoneyHealthFinance@MoneyHealthFina,"Boeing, Goldman Sachs Dominate DJIA Monday September 18, 2017: Markets opened h... http://twib.in/l/Kz9Kbr78B6Ez #finance #career #cryptocurrency",0,0,0,False
34,Coin Spectator - Real-time cryptocurrency news@coinspectator,Wirex launches multi-asset off-chain liquidity network ‘W-Pay... #cryptocurrency #eth #fintech #payments https://coinspectator.com/news/61123/wirex-launches-multi-asset-off-chain-liquidity-network-w-pay…,0,0,0,False
35,BrianDColwell (Quotidian Marketing)@BrianDColwell,"""Not afraid of heights- afraid of widths."" #ThomasStGermain https://crypto-asset-management.com/blog/2017/8/24/74-great-quotes-on-bitcoin-cryptocurrencies-and-cryptography… #cryptocurrency #bitcoin #digital #iot #futurefintech",0,0,0,False
36,Bit • ΞTH Finder@bitethfinder,"REALLY PAYS! Get Free #Cryptocurrency by watching videos, downloading apps & more with EarnCrypto - https://buff.ly/2ykvs2i #makemoney",0,0,0,False
37,Investing@investingchanel,Yes your 100 percent correct.  #bitcoin will come like the Gold for #crypto. So it will last.,0,0,0,False
38,Automatski@theautomatski,15%-32% Early Bird Bonus. See http://bit.ly/2w0xR4g Curated Worldclass ICOs & ITOs. #crypto #platform #bonus #blockchain #deals #money #vc,0,0,0,False
39,Bootes.@cryptonebula,$SYS exit long -7% $crypto #renko #cryptocurrency #btc #bitcoin,0,0,0,False
46,CryptoNinjas@crypto_ninjas,@Wirexapp launches multi-asset off-chain liquidity network 'W-Pay' #bitcoin #cryptocurrency #blockchain | https://goo.gl/7e2d5P,1,0,0,False
47,Pinnacle Managers AML@PM_AML,"https://goo.gl/K9snwC Filecoin Provides Details on Huge #ICO on #CoinList #blockchain #tokensale #ethereum #cryptocurrencyFilecoin Provides Details on Huge ICO on CoinListFilecoin, by Protocol Labs, closed their Initial Coin Offering on September 7th but it appears it has taken some time to regroup and count all of the digital coin that flooded into the first ICO to...crowdfundinsider.com",0,0,0,False
48,IOV.tips@xrptips,"To date, a very small percentage of the #global population owns and uses #cryptocurrency. We're a long way from the top.",21,11,3,False
49,MoneyHealth &Finance@MoneyhealthF,Three quick sorting tips for Access and Excel Image: iStock/phototechno Access... http://twib.in/l/p5yE9E9x7E6E #business #cryptocurrency #stocks,0,0,0,False
50,Han Soldlow@HanSoldlow,"Replying to @TulaneTerry and @RealCryptoTradenever lose sight of the ""big picture"" which is about a week for #crypto",0,0,0,False
51,Coin Spectator - Real-time cryptocurrency news@coinspectator,Op Ed: How Blockchain Technology Will Disrupt Digital Content Distribut... #blockchain #ethereum #crypto https://coinspectator.com/news/61121/op-ed-how-blockchain-technology-will-disrupt-digital-content-distribution-nasdaq…,0,0,0,False
52,CryptoNewswire @CryptoNewswire,Op Ed: How Blockchain Technology Will Disrupt Digital Content Distribution Bitcoin Magazine - https://bitcoinmagazine.com/articles/op-ed-how-blockchain-technology-will-disrupt-digital-content-distribution/… $BTC #cryptocurrency,1,0,0,False
53,CryptoNewswire @CryptoNewswire,bitFlyer Hopes to Win Big With the Japanese Bankers Association - https://bitcoinmagazine.com/articles/bitcoin-exchange-bitflyer-hopes-win-big-japanese-bankers-association/… $BTC #trading #finance #crypto,2,1,0,False
54,#ShortFiatLong₿CashFlow QueenKenet'ra@cashflow_queen,"Rise up women and take your positions in this historical global event called the #bitcoin #blockchain #crypto movement!Quote TweetTiffany Yu (she/her)@ImTiffanyYu · Sep 18, 2017Where are our women in blockchain? Cc @tonilanec #TCdisrupt @VitalikButerin @naval",2,1,0,False
55,DeWayne Reeves@CFRN,Today's #Emini & #Cryptocurrency #Trading Live Broadcast http://fb.me/2fdDzkZSH,0,0,0,False
56,Coin Spectator - Real-time cryptocurrency news@coinspectator,Price of Bitcoin Shoots Back Up As Emotions Calm Down - Type Board #ethereum #crypto #fintech https://coinspectator.com/news/61110/price-of-bitcoin-shoots-back-up-as-emotions-calm-down-type-board…,0,0,0,False
57,Coin Spectator - Real-time cryptocurrency news@coinspectator,Jamie Fox Joins The Cryptocurrency Business - Type Board #cryptocurrency #eth #altcoins https://coinspectator.com/news/61109/jamie-fox-joins-the-cryptocurrency-business-type-board…,0,0,0,False
58,Alluminate@Alluminate_io,"#crypto remains a highly speculative marketplace. Stay tuned, we have a solution for you @coindesk @Cointelegraph https://techcrunch.com/2017/09/18/the-early-days-of-icos-are-even-more-speculative-than-the-dot-com-bubble/…",5,3,0,False
59,@JOELDAVIS,"Wonder who's been paying off @WSJ for all the #crypto FUD lately? My bets are on @jpmorgan..

#BTC #ETH #LTC",0,0,0,False
60,"Dr. Mehdi Sarsar, PMP®@msarsar",#IBM far outranks #Microsoft as #blockchain industry http://cnbc.com.convey.pro/l/PaL4ZK1 #CyberSecurity #IoT #cryptocurrency... by #InfoSecurity99,0,0,0,False
61,Coin Spectator - Real-time cryptocurrency news@coinspectator,Bitcoin scam alert: ICO fraud warning for investors from watchdog - Expres... #crypto #altcoins #altcoin https://coinspectator.com/news/61098/bitcoin-scam-alert-ico-fraud-warning-for-investors-from-watchdog-expresscouk…,0,0,0,False
62,Coin Spectator - Real-time cryptocurrency news@coinspectator,"World's central banks can't ignore the bitcoin boom, BIS says - The Ed... #cryptocurrency #ethereum #btc https://coinspectator.com/news/61094/worlds-central-banks-cant-ignore-the-bitcoin-boom-bis-says-the-edge-markets-my…",0,0,0,False
63,Coin Spectator - Real-time cryptocurrency news@coinspectator,What Jamie Dimon got wrong about bitcoin and tulips - The Edge Mar... #cryptocurrency #ethereum #altcoin https://coinspectator.com/news/61093/what-jamie-dimon-got-wrong-about-bitcoin-and-tulips-the-edge-markets-my…,0,0,0,False
64,Coin Spectator - Real-time cryptocurrency news@coinspectator,Nvidia hits another record high as AI takes centrestage - The Edge Markets MY #ethereum #crypto #ico https://coinspectator.com/news/61092/nvidia-hits-another-record-high-as-ai-takes-centrestage-the-edge-markets-my…,0,0,0,False
69,Namecoin Market@MarketNmc,1 Namecoin = 1.5351 USD. Namecoin has increased by 0.0326 USD in 30 mins.  #namecoin #nmc #cryptocurrency,0,0,0,False
70,Peercoin Market@PeercoinMarket,1 Peercoin = 1.4866 USD. Peercoin has increased by 0.0075 USD in 30 mins.  #peercoin #ppc #cryptocurrency,0,0,0,False
71,Blockchain & Crypto Currency News@mabling,European Central Bank Criticizes Estonian National #Cryptocurrency Plans http://dierotepille.com/index.php?id=14&url=668980…,0,0,0,False
72,Bitcoin Lootbox@BitcoinLootbox,"Are you Bullish or Bearish on #Gold? Start #Trading $XAUUSD with #Bitcoin #Cryptocurrency $GC $GLD $GDX $NUGT
http://1Foxy.comGIF",0,0,0,False
73,Julia Edling@bitcointonic,Sept 14th #Cryptocurrency News – #Bitcoin Continues to Struggle http://dlvr.it/PnvPb6,0,0,0,False
74,LiteCoin News@LiteCoinNews,#coinbase #LTCUSD #litecoin #crypto #Winning @jpmorgan suck it.,67,15,2,False
75,Zach Ferres@zcferres,"Bitcoin in the Browser: Google, Apple and More Adopting Crypto-Compatible API - CoinDesk https://buff.ly/2y8c5J7 #cryptocurrency #payments",6,2,0,False
76,CoinVedi@CoinVedi,"Bitcoin Exchange bitFlyer Hopes to Win Big With the Japanese ...
https://coinvedi.com/bitcoin-exchange-bitflyer-hopes-to-win-big-with-the-japanese-bankers-association/…
#Bitcoin #Blockchain #Cryptocurrency #Ethereum",0,0,0,False
77,Marcus S.@MarcusSpillane,Truly excellent! Kudos @msuster “Want to Really Understand What all the Hype of #Cryptocurrency is About?” https://bothsidesofthetable.com/the-case-for-against-cryptocurrencies-101-c8d71c444fe0…,2,0,0,False
78,Coin Spectator - Real-time cryptocurrency news@coinspectator,JP Morgan Helps to Buy Bitcoin - http://finews.asia #altcoin #fintech #ico https://coinspectator.com/news/61064/jp-morgan-helps-to-buy-bitcoin-finewsasia…,0,0,0,False
79,Shifayet Barsatie@shifayet,"https://bitpetite.com/?aff=shifayet receive 147% to 180% #ROI on your #Cryptocurrency
#Btc #Ltc #Eth
#Join #TheFreeMoneyTeam
https://bitpetite.com/?aff=shifayet",0,0,0,False
80,Coin Spectator - Real-time cryptocurrency news@coinspectator,"Global Central Banks Can't Ignore the Bitcoin Boom, BIS Says - Bloomberg #crypto #eth #fintech https://coinspectator.com/news/61051/global-central-banks-cant-ignore-the-bitcoin-boom-bis-says-bloomberg…",0,0,0,False
81,Coin Spectator - Real-time cryptocurrency news@coinspectator,What Last Week Tells Us About Bitcoin - Bloomberg #cryptocurrency #ethereum #eth https://coinspectator.com/news/61050/what-last-week-tells-us-about-bitcoin-bloomberg…,0,0,0,False
82,Coin Spectator - Real-time cryptocurrency news@coinspectator,The Bitcoin Rally Is Back - Bloomberg #crypto #btc #altcoins https://coinspectator.com/news/61049/the-bitcoin-rally-is-back-bloomberg…,0,0,0,False
83,Lastline@lastlineinc,The Pirate Bay Caught Running #Cryptocurrency Mining Script https://buff.ly/2fvh0gg via @HackRead,1,0,0,False
84,Clive™@CliveMurton,"Looking for a 5/10% dip in $BAY to add to my bag. Someone #FUD $BAY, please?

$BTC #Bitcoin #crypto",2,0,0,False
85,Ashwin Agastyaraju@agastya_ash,"http://bit.ly/2gOKKYP a must read for people like me. #cryptocurrency #bitcoin #fintechWhy Marketers Need to Pay Attention to Cryptocurrency -- NowWhat is cryptocurrency, and why is it going to interfere with your current marketing model?entrepreneur.com",0,0,0,False
86,Automatski@theautomatski,Global Crypto Wallet for POS. http://bit.ly/2w0xR4g #investing #tokenlaunches #funds #iot #venturecapital #cryptocurrency #icoalert #ICOs,3,0,0,False
87,Bitcoin News@BestBitcoinNews,Crypt Alpha Live Stream - Back At It Like A Crack Addict - YouTube #crypto #markets #cryptocurrencyCENSORSHIP ON REDDIT | r/Bitcoin | FULL STORYPODCAST | Censorship on r/Bitcoin exposed | FULL BACKGROUNDyoutube.com,0,0,0,False
88,Dima Zaitsev@forinnovDot,"Our Weekly #Cryptocurrency and #ICOMarketAnalysis [September 4-10, 2017], published on #CoinSpeaker, #ICOBox, #ICOs: https://coinspeaker.com/2017/09/12/weekly-cryptocurrency-ico-market-analysis-september-4-10-2017/…",2,3,0,False
89,Coinboard@Coinboard,US Senator Warren Proposes Bill To Let Consumers Freeze Credit Histo... http://twib.in/l/LR4Bq6B4L7bz via @CoinTelegraph #cryptocurrency #bitcoin,1,0,0,False
90,Coin Spectator - Real-time cryptocurrency news@coinspectator,"Bitcoin has risks, but it isn't a 'fraud' - The Hill #cryptocurrency #btc #fintech https://coinspectator.com/news/61024/bitcoin-has-risks-but-it-isnt-a-fraud-the-hill…",0,0,0,False
91,Coin Spectator - Real-time cryptocurrency news@coinspectator,Should central banks issue their own bitcoins? - MarketWatch #blockchain #ethereum #altcoin https://coinspectator.com/news/61023/should-central-banks-issue-their-own-bitcoins-marketwatch…,0,0,0,False
92,✞ CoinDevil ✞@CryptoCoinDevil,Looking forward to participating in the new @cobinhood Token! ZERO fee trading! ###Cryptocurrency ##Bitcoin… https://goo.gl/7Qf7Lk,1,0,0,False
93,Pee Wise@Cryptonoypi,"Let's break that resistance $LSK
$BTC #cryptocurrency #cryptotrading",3,1,0,False
94,NH Carreon@eirencarreon,"#fintech #infotech #socialmedia whatever, we r enjoying d fruits of others. #twitter #facebook #blockchain #cryptocurrency",1,0,0,False
95,Cyrus The Great@mdfir212,"Building Your Own #Bitcoin Satellite Node: Part 2 — Software Installation.
https://medium.com/@notgrubles/building-your-own-bitcoin-satellite-node-part-2-software-installation-a94a0b85d089… via @notgrubles #Linux #Crypto #DIY",1,1,0,False
96,MoneyHealth &Finance@MoneyhealthF,Pivotal Greenplum Analytic Database Adds Multicloud Support http://twib.in/l/LR4z6jKEGaAz #bigdata #finance #cryptocurrency,0,0,0,False
97,Miranda@mmiranda027,"$BAT Looking good, new platform release in 3 days, broke downtrend. I see big potential. $crypto $BTC #cryptocurrency #basicattentiontoken",10,8,1,False
98,Bitcoin Lootbox@BitcoinLootbox,"Are you Bullish or Bearish on the NASDAQ 100? Start #Trading with #Bitcoin #Cryptocurrency #Stocks $QQQ $NQ
http://1Foxy.comGIF",0,0,0,False
99,Peter Gasca@petergasca,It is giving rise to #cryptocurrency. Facts about the #marijuana industry you need to know. #legalize @incThese Facts Show The Marijuana Industry Is Impacting Far More Than Your BuzzIndustry leaders share their thoughts on why marijuana is causing a buzz for more reasons than you think.inc.com,0,0,0,False
100,The Rich Wells@ThirstyWells,Go do this for less pain acquiring #Coin Click> http://4.goldflow.us/my-money-line #PassiveIncome #LoveBitcoin #Gold #Crypto #cryptocurrency https://twitter.com/GrowYourBitcoin/status/907033456659529728…This Tweet is unavailable.,0,0,0,False
103,Automatski@theautomatski,Global Crypto Wallet for POS. http://bit.ly/2w0xR4g #cryptocurrency #funds #ico #startup #technews #venturecapital #Ethereum #ITOs #fund,0,0,0,False
104,MoneyHealthFinance@MoneyHealthFina,The Hot Stock: CF Industries Jumps 6.7% CF Industries (CF) soared to the top of th... http://twib.in/l/oaqzXKoL6xeL #wealth #data #cryptocurrency,0,0,0,False
105,Benjamin bitcoin@BenjaminBitcoin,$ARK $STRAT $NEO $MTL $UBQ $VIa $Ptoy #Hodlers next year #Bitcoin #Ethereum #robot #iot #fintech #rich #yabadabadoo $crypto $Boss #crypto,5,3,0,False
106,BitcoinAgile@bitcoinagile,"#bitcoin SOARS TO $4,000  Heres what you need to know - Bitcoin Explained #fintech #crypto http://makebitcoins.de/2017/09/18/bitcoin-soars-to-heres-what-you-need-to-know…",0,0,0,False
107,Blockchain Dude@blockchaindude,"First Aid Coin, new ICO! Tenx, Monaco, Bitpay, Shift https://youtu.be/tUsXdCc6oBM #tenx #ico #monaco #bitpay #shift #blockchain #crypto #coinsFirst Aid Coin, new ICO! Tenx, Monaco, Bitpay, Shift…A could should be ICO for first aid and fund raising projects. Use the power of Blockchain to empower people. Please Like and Subscribe!www.facebook.com/theb...youtube.com",2,0,0,False
108,MoneyHealthFinance@MoneyHealthFina,Here's why Congress can create bipartisan fix to flood insurance this year In an u... http://twib.in/l/geM6GgpBezya #tech #wealth #cryptocurrency,0,0,0,False
109,Makebitcoins@makebitcoins,"BITCOIN SOARS TO $4,000 | Here's what you need to know #crypto #currency #fintech #bitcoin http://makebitcoins.de/bitcoin-soars-to-heres-what-you-need-to-know…",0,0,0,False
110,Clive™@CliveMurton,"Thinned out my portfolio, moved things about - took profit here, took loss there. Shifting more $BTC in to $XVG at mid 150's

#Crypto",7,5,0,False
111,Easy Crypto@iameasycrypto,Bitcoin to the Moon #bitcoin #crypto #cryptocurrency #ethereum #blockchain #btc #wealth… https://instagram.com/p/BZM1HM6gPfT/,0,0,0,False
112,JC@Cryptoelite,Crypto Elite News is out! http://paper.li/Cryptoelite/1426551318?edition_id=5737a920-9cc7-11e7-bec5-0cc47a0d1605… #Bitcoin #Altcoin #Cryptocurrency @coinigy $CRYPTO #crypto #blockchain,2,1,0,False
113,Giulio Mariani@Giulio__Mariani,"The Bitcoin Rally Is Back

https://bloomberg.com/news/articles/2017-09-18/bitcoin-roars-back-from-chinese-regulation-spurred-swoon?cmpid=socialflow-facebook-btechnology&utm_content=btechnology&utm_campaign=socialflow-organic&utm_source=facebook&utm_medium=social…
#Bitcoin #CryptoCurrency #MarketsThe Bitcoin Rally Is BackThe bitcoin rally is proving hard to stop.bloomberg.com",0,0,0,False
114,CryptoReport@cryptoreportcom,"Bytom up 3.35% last hour to $0.051675 $BTM https://cryptoreport.com/bytom/BTM #cryptocurrencyBytom Price $0.234989 (BTM) - Crypto ReportLive cryptocurrency Bytom price, live charts, market cap and other data stats for BTM crypto coin.cryptoreport.com",0,0,0,False
115,CryptoQueen@CryptoisSexy,Made a lot of money in #crypto? Foreclosure Listings Canada | Bank Foreclosures & Foreclosed Homes for Sale …http://39aa76xv-f0h1h0wo50eo730ur.hop.clickbank.net,0,0,0,False
116,Coin Spectator - Real-time cryptocurrency news@coinspectator,China Shutting Down All Domestic Cryptocurrency Exchanges - China M... #cryptocurrency #bitcoin #fintech https://coinspectator.com/news/60945/china-shutting-down-all-domestic-cryptocurrency-exchanges-china-money-network…,0,0,0,False
118,inteligensa@inteligensa,#BIS says #cryptocurrency risks still not fully assessed. Details: http://bit.ly/2fePAOQ.,0,0,0,False
119,Coinaware@coinaware,"""September's Bitcoin Market Madness: When Panic Selling and FOMO Ensues"" #fintech #blockchain #crypto http://ift.tt/2ffPpTm",0,0,0,False
120,Coin Spectator - Real-time cryptocurrency news@coinspectator,"Before Investing in Any ICO, Do This One Thing - Money Morning #blockchain #altcoin #ico https://coinspectator.com/news/60938/before-investing-in-any-ico-do-this-one-thing-money-morning…",1,0,0,False
121,Coin Spectator - Real-time cryptocurrency news@coinspectator,"Bitcoin Prices Today Climb Back Above $4000, but China Woes Linger - Money Morning #crypto #btc #ico https://coinspectator.com/news/60937/bitcoin-prices-today-climb-back-above-4000-but-china-woes-linger-money-morning…",0,0,0,False
122,MoneyHealth &Finance@MoneyhealthF,Intel has invested more than $1 billion in #AI companies Intel CEO Brian Krzan... http://twib.in/l/9E7g4rRgqpAg #cryptocurrency #realestate #tech,0,0,0,False
123,Thomas Manning@BUtomCAT,Perfect breakdown of the last 2 weeks of china and JP Morgan garbage! #bitcoin #cryptocurrency #JPMorgan https://l.facebook.com/l.php?u=https%3A%2F%2Fyoutu.be%2FKaEyHmlzg3I&h=ATPwyOnoZIpMvXQR7qqazuyKsPx_ibrE9Kqe5HKGrRGAurNv4VIACU0pC2FKMj05BoFaOCLiYNrvvSPe844frwMoR93YCvYIrajs06puv4FnK6ox_MzrI6tTvrvleJdd6XWnEitDYDRu2po2JtfD6U0lrwFX03Hn77z_HyeGDnhaokH0_o75ioiArwe4HNVYFOyGhv6dklYMnYIte2TcCF4nGwqdafDydmZMERGqcXERoOLir-eFtaYbWr7GFlzPSffUeb685hDLvA_BWdhQroFpRg…,2,1,0,False
124,MoneyHealth &Finance@MoneyhealthF,The Government’s Next Target: Your 401(k)? President Trumps proposed tax reform p... http://twib.in/l/LR4z6xogjR6z #ai #business #cryptocurrency,0,0,0,False
125,Alberto Soto@AlbertoSoto57,"$NEO needs $1,889,494,460 more in its market cap in order to see a beautiful $58.00 per $NEO #cryptocurrency ",2,0,0,False
126,Cyrus The Great@mdfir212,"Building Your Own #Bitcoin Satellite Node: Part 3 — Dish Alignment 
https://medium.com/@notgrubles/building-your-own-bitcoin-satellite-node-part-3-dish-alignment-1306b4c21326… via @notgrubles #crypto #Blockchain #DIY #Tech",2,0,0,False
127,BrianDColwell (Quotidian Marketing)@BrianDColwell,"#ICONOMI: A #Digital #Assets #Management #Platform For The #Distributed #Economy
https://briandcolwell.com/2017/08/iconomi-a-digital-assets-management-platform-for-the-distributed-economy/.html… @iconominet #blockchain #crypto",0,0,0,False
128,Sava360@sava360com,"#Ethereum will replace Visa in a “couple of years” says founder http://flip.it/IKF3_g #cryptocurrencyEthereum will match Visa in scale in a ‘couple of years’ says founderThe mind behind Ethereum, Vitalik Buterin, is matter-of-fact about the crypto. In short, he believes what interviewer Naval Ravikant called “brain virus” is the true future of security and economics...flip.it",0,0,0,False
129,CryptoNini@CryptoNini,"$QTUM will touch 27k sat at some point this week(Now at 23k)
Opportunity for #trading
#blockchain #pumpit #buyit #bitcoin #fintech #Crypto",2,1,0,False
130,Bitcoin Auto Trader@auto_bitcoin,Today in Bitcoin (2017-07-26) - Mt. Gox Hack Solved?  BTC-E Down... http://slninja.com/5Wyv #bitcoin #cryptocurrency,0,0,0,False
131,John Wise@JohnWiseCrypto,Bitcoin and Blockchain: Hype or Fundamental Financial Revolution? - http://fxstreet.com/analysis/bitco… $BTC #investing #markets #cryptocurrency,0,0,0,False
132,Automatski@theautomatski,'SmartNET' The Worlds Low Power Wide Area Network. http://bit.ly/2w0xR4g #ether #crypto #funding #blockchain #venture,0,0,0,False
133,Mark Lynd CISSP ISSMP ISSMP@mclynd,"Proof-of-Work vs Proof-of-Stake
[@Cointelegraph]

#blockchain #CyberSecurity #infosec #DLT #fintech #Crypto #ethereum #bitcoin @Fisher85MQuote TweetMichael Fisher@Fisher85M · Sep 18, 2017Proof-of-Work vs Proof-of-Stake
[@Cointelegraph]

#blockchain #CyberSecurity #infosec #DLT #BTC #fintech #Crypto #ethereum #bitcoin",5,14,0,False
134,The Fool@DannyTodd,"Cool that #Crypto is blowing up with celebrity flagging.

Not sure if I'd recommend a celebrity #ICO.
Best of luck, though.
#BTC #ETH #LTCQuote TweetJamie Foxx@iamjamiefoxx · Sep 18, 2017Looking forward to participating in the new @cobinhood Token! ZERO fee trading! #CryptoCurrency #BitCoin #ETH – http://cobinhood.com",0,0,0,False
135,DEVPAR@schwarzweisz,"Bitcoin percentage of market cap: 48.1 %
#BPOMC #Bitcoin #Altcoin #Blockchain #Cryptocurrency #Dominance",1,0,0,False
136,𝙅𝙤𝙝𝙣 𝙓 𝙉𝙁𝙏@bitcoin_army,"Watch: DeepOnion advantage and features. Free Airdrops:  http://bit.ly/2xMZwTX#DeepOnionx… #cryptocurrencyDeep Onion Advantages and FeaturesVideo that outlines some of the Advantages of using the DeepOnion cryptocurrency, as well as some of the built in features of the coin.DeepOnion is the first...youtube.com",1,0,0,False
137,BlackBullTradingPost ₿   @BlackBullTradn,"Monero, Ethereum, Bitcoin, and More! #cryptocurrency #news #ethereum #monero #09182017 http://youtu.be/VmAB8BWDFXs?a #Ether #cryptocurrency #dig…Metropolis Today! / Piratebay Secretly Mining Monero On Your PC /... 𝙏𝙝𝙖𝙣𝙠 𝙔𝙤𝙪 𝙁𝙤𝙧 𝙒𝙖𝙩𝙘𝙝𝙞𝙣𝙜!  Remember to subscribe and hit the bell """" icon, so you don't miss your daily cryptocurrency news!-~-~~-~~~...youtube.com",0,0,0,False
138,Gabriele Donati@_gabrieledonati,"Battle between Titans.

My money is on @officialmcafee
#bitcoin #cryptocurrency #Crypto #blockchain # verge #vergecurrency #fintechQuote TweetJohn McAfee@officialmcafee · Sep 17, 2017https://applancer.co/blog/jamie-how-does-it-feel…",0,0,0,False
139,CryptoR฿ @CryptoRB,Market capitalization of #cryptocurrencies can reach $5 trillion by 2025 #crypto #bitcoin http://bit.ly/2xgJWBJ,1,1,0,False
140,Buy Bitcoin@Buy_Bit_coin,"Buy Bitcoin now: http://tinyurl.com/buy-bitcoin-en&s=88003…
#btc #bitcoin #buybitcoin #coin #BTCJPY #tech #invest #dollar #BTCCNY #crypto #price",0,0,0,False
141,Omar Bham (Crypt0)@crypt0snews,"Monero, Ethereum, Bitcoin, and More! #cryptocurrency #news #ethereum #monero #09182017Metropolis Today! / Piratebay Secretly Mining Monero On Your PC /... 𝙏𝙝𝙖𝙣𝙠 𝙔𝙤𝙪 𝙁𝙤𝙧 𝙒𝙖𝙩𝙘𝙝𝙞𝙣𝙜!  Remember to subscribe and hit the bell """" icon, so you don't miss your daily cryptocurrency news!-~-~~-~~~...youtube.com",9,3,1,False
142,Coin Spectator - Real-time cryptocurrency news@coinspectator,DIGI Token Takes Aim at the Digital Goods Market #btc #altcoins #altcoin #crypto https://coinspectator.com/news/60900/digi-token-takes-aim-at-the-digital-goods-market…,0,0,0,False
143,Avant Bellwether @AvantBellwether,"Call now! Only 2 slots left for SLC,UT #BTC ATM hosting! Get Paid up to $500 to $Easy #cryptocurrency #bitcoin #BTC https://goo.gl/U4Tnkz",0,0,0,False
144,Infidel Angel@angel_infidel,"Good Morning

$GRS Nice hourly candle just closed. Keep watching here IMO
#crytpo #cryptocurrencies #cryptocurrency",4,1,0,True
145,Peter Nayland Kust@pnkust,"#China is banning #bitcoin within its borders.  Seems they fear #cryptocurrency more than they fear human rights.China’s three largest bitcoin exchanges will all stop offering local tradingWell, that didn’t take long. Yesterday, China’s longest running bitcoin exchange, BTC China, announced it will suspend its local trading service at the end of this month, and today the country’s two...techcrunch.com",0,0,0,False
146,Namecoin Market@MarketNmc,1 Namecoin = 1.5025 USD. Namecoin has changed by -0.0284 USD in 30 mins.  #namecoin #nmc #cryptocurrency,0,0,0,False
152,Peercoin Market@PeercoinMarket,1 Peercoin = 1.4791 USD. Peercoin has changed by -0.0085 USD in 30 mins.  #peercoin #ppc #cryptocurrency,0,0,0,False
153,BitcoinAgile@bitcoinagile,Cryptocurrency Supported Electronic ESR Wallet Announces Crowdsale #altcoin #Bitcoin #ICO http://bitcoinagile.com/1313537/cryptocurrency-supported-electronic-esr-wallet-announces-crowdsale_stream…,0,0,0,False
154,Harry Goodnight@harry_goodnight,"#blockchain #supplychain #cryptocurrency Sweetbridge, Inc.  @lcecere https://lnkd.in/gd5F79b",0,0,0,False
155,Bulls on Wall Street@bullsonwallst,@kunal00 isn't the only one dishing out great alerts in our #cryptocurrency #trading room. #Cryptostreet is filled with great traders!,1,0,0,False
156,Chris Burniske@cburniske,"Some of the best #crypto traders in the business Quote TweetBobby Cho@robertjcho · Sep 18, 2017we're expanding and looking to further round out the growing team at @Cumberland_BTC  / @DRWTrading
https://boards.greenhouse.io/drw/jobs/828800",12,1,0,False
157,Saeed Valadbaygi@SaeedBaygi,Satoshi vs. Uncle Sam: What Happens When Governments Issue Cryptocurrencies? - American Institute… http://dlvr.it/Pnv9Pl #Crypto #BitCoin,0,0,0,False
158,The Global Centre for Risk and Innovation (GCRI)@RiskCentre,Satoshi vs. Uncle Sam: What Happens When Governments Issue Cryptocurrencies? - American Institute… http://dlvr.it/Pnv9NR #Crypto #BitCoin,0,0,0,False
159,Coin Spectator - Real-time cryptocurrency news@coinspectator,"Bold Q4 2017 Prediction for Bitcoin, the Dollar, and Gold... - Energy a... #cryptocurrency #bitcoin #eth https://coinspectator.com/news/60882/bold-q4-2017-prediction-for-bitcoin-the-dollar-and-gold-energy-and-capital…",0,0,0,False
160,Bootes.@cryptonebula,$BAT exit long +11% $crypto #renko #cryptocurrency #btc #bitcoin,0,0,0,False
161,Bitcoins Future@bitcoins_future,Bitcoin will do to banks what email did to the postal industry #bitcoin #crypto,1,0,0,False
162,Coin Spectator - Real-time cryptocurrency news@coinspectator,"True, Bitcoin May Become Corrupt. But Banks Already Are. - Futurism #blockchain #ethereum #crypto https://coinspectator.com/news/60872/true-bitcoin-may-become-corrupt-but-banks-already-are-futurism…",0,0,0,False
163,Coin Spectator - Real-time cryptocurrency news@coinspectator,Doom Index Issues “Extreme Warning” - Capital & Conflict #ethereum #crypto #eth https://coinspectator.com/news/60863/doom-index-issues-extreme-warning-capital-conflict…,0,0,0,False
164,HotHardware@HotHardware,What Is #Blockchain And Why You Should Care #cryptocurrency #security https://hothardware.com/news/what-is-blockchain-and-why-you-should-care… via @HotHardwareWhat Is Blockchain And Why You Should CareWhat Is Blockchain And Why You Should Carehothardware.com,0,0,0,False
165,MoneyHealthFinance@MoneyHealthFina,"Mattel, CenturyLink Dive into Monday’s 52-Week Low Club September 18, 2017: H... http://twib.in/l/65nE8bqr6qpE #business #cryptocurrency #bigdata",0,0,0,False
166,ComplyZoom | Measurable Compliance@ComplyZoom,Bank for central banks admits decentralised #cryptocurrency are a pretty good idea https://theregister.co.uk/2017/09/18/bank_for_central_banks_consider_cryptocurrency/… #Bitcoin #blockchain #FintechBank for central banks admits decentralised cryptocurrencies are a pretty good idea'Fact that they're even talking about it is quite significant'theregister.com,2,6,0,False
167,Coin Spectator - Real-time cryptocurrency news@coinspectator,Neblio Development Update 1 (September 19 2017) #ethereum #crypto #eth #development_updates https://coinspectator.com/news/60860/neblio-development-update-1-september-19-2017…,0,0,0,False
168,TooCurious@reviewalts,"Because License wasn't obtained on scheduled day, 18th, $edg was oversold in Panic. Great buy in opportunity! #crypto #nextinvestment",3,1,0,False
169,Coin Watcher Bot@CoinWatcherBot,"Best returns (24h):
1. @ethstatus +31.5% $SNT
2. @SiaTechHQ +28.0% $SC
3. @BitShares +25.4% $BTS
#blockchain #altcoins",1,1,0,False
170,MonDSkiEZ™@TheMonDSkiEZ,The Pirate Bay runs Cryptocurrency Miner https://goo.gl/ZwWrK2 #thepiratebay #crypto #miner #install #monero #blockchain #tpb,0,0,0,False
171,Ed Brown@EdFreeme46319,"#cryptocurrency education system
earn $100 #bitcoin to your bitcoin 
wallet per sighup! Simple and Fast!
http://crypto1up.com/lp1.php?user=jakeb…",1,0,0,False
172,ArtByte@ArtByteMe,Gold and Blockchain: An Unlikely Power Couple http://bit.ly/2wkKAj1#bitcoin #blockchain #fintech #crypto #cryptocurrency,9,21,0,False
173,All Bitcoin News@allbitcoin_news,"True, Bitcoin May Become Corrupt. But Banks Already Are.  #BTC #Bitcoin #Crypto-http://allcryptocurrencies.news/bitcoin/true-bitcoin-may-become-c…...",0,0,0,False
174,LDJ Capital@LDJCapital,"#experty opens the world to #experts via #blockchain & #cryptocurrency!
Watch how: http://bit.ly/2vEwDbfExperty explaineryoutube.com",0,0,0,False
175,ChipIn@Chipin,"Understand the #Blockchain, #Ethereum, and #Bitcoin in 20 Minutes https://chipin.com/understand-blockchain-ethereum-bitcoin/… #cryptocurrency",1,0,0,False
176,CryptoNewswire @CryptoNewswire,Altcoin Aggregate Bid/Ask Ratio - 4hr: 0.917:1; 24hr: 0.983:1 #altcoins #markets #blockchain #cryptocurrency,0,0,0,False
177,Hillstone Networks@Hillstone_Net,#Cryptocurrency will make it more difficult to identify the original of hackers and to protect from it. http://bit.ly/2yctJfl,1,2,0,False
181,Free BTC Directory@freebitcoindir,Key Findings From Cambridge Cryptocurrency Study  #Crypto https://cointelegraph.com/news/key-findings-from-cambridge-cryptocurrency-study…,0,0,0,False
182,#MarketRanger 618@marketranger,China Will Heavily Crack Down on All Bitcoin Trades #affluencenetwork #ethereum #cryptocurrency #bitcoin https://marketranger.com/china-will-heavily-crack-down-on-all-bitcoin-trades…,0,0,0,False
183,Monero price $XMR@XMRprice,"Current Monero price:
1 XMR = $100.11 USD

Market capitalisation:
$1,511,826,885 

$XMR #XMR #Monero #Cryptocurrency",0,0,0,False
184,crypto Hourly@CryptoHourly,"Total #CryptoCurrency Market Cap is $139,423,387,739, with Total 24 hr. volume of $5,096,511,985",1,0,0,False
185,LITechNews Posts@LITechNewsPosts,#LITechNews: Keiser Report: Crypto in the Age of Trump (E1023) #Crypto #Facebook #Google https://longislandtechnologynews.com/2017/01/keiser-report-crypto-in-the-age-of-trump-e1023/…,0,0,0,False
186,Coin Spectator - Real-time cryptocurrency news@coinspectator,Central bank mediator warns against ignoring bitcoin growth - The Globe... #cryptocurrency #crypto #ico https://coinspectator.com/news/60852/central-bank-mediator-warns-against-ignoring-bitcoin-growth-the-globe-and-mail…,0,0,0,False
187,Flycast Processes@FlycastProcess,Have you been hacked? Read our blog post by Greg Gielda! | https://buff.ly/2xfKeJ5 | #Cybersecurity #Technology #IOT #Cryptocurrency #IT,1,3,0,False
188,Coin Spectator - Real-time cryptocurrency news@coinspectator,"Marine Insurance Industry Shaken and Rattled, but Ready to Roll - The Ma... #cryptocurrency #crypto #btc https://coinspectator.com/news/60851/marine-insurance-industry-shaken-and-rattled-but-ready-to-roll-the-maritime-executive…",0,0,0,False
189,Crypto Is Currency@CryptoIsCurrenc,"What do you think, is a #cryptocurrency that moves more secure &/or valuable than one that primarily sits?Quote TweetBryce Nofomo@BryceWeiner · Sep 16, 2017It's easier to ban a store of value than it is to ban an entire section of a national economy. 

#Bitcoin #CryptoIsCurrencyShow this thread",4,0,0,False
190,Kris Day@daykris,Bitcoin just might be forming a top when... your 68-year-old dad paints a picture of it.  Want one.  #crypto http://on.mktw.net/2hcJVsY,0,0,0,False
191,cryptodude@CryptoDudeOFC,Want to start mining? I show you how to make a profit! #bitcoin #crypto #ether http://youtu.be/REhX60xuiYM?a,1,0,0,False
192,Coin Spectator - Real-time cryptocurrency news@coinspectator,The Pirate Bay used visitors' computers to mine cryptocurrency - The Star Onlin... #bitcoin #crypto #btc https://coinspectator.com/news/60841/the-pirate-bay-used-visitors-computers-to-mine-cryptocurrency-the-star-online…,0,0,0,False
193,Team Moonshot@moonshotcrypto,#MoonshotAlerts version 0.2.4.3 released (and now live) #cryptocurrency,0,0,0,False
194,Nadeem Ansari FCIM F IDM@nadeemansary,Why Blockchain Could Kill Your Bank | 1st In SEO #Blockchain #cryptocurrency- http://bit.ly/2tiM6vK https://pic.twitter.com/WzVDD1e3O4Why Blockchain Could Kill Your Bank | 1st In SEOBitcoin has exploded in popularity. Its value has doubled every year since its inception in 2009 and now one coin is worth somewhere between $2500 and $3000 depending on what time of day it is....1stinseo.com,1,0,0,False
195,BitcoinAgile@bitcoinagile,First #bitcoin Real Estate Purchase Recorded in Texas #cryptocurrency $BTC https://cryptopanic.com/news/33510/First-Bitcoin-Real-Estate-Purchase-Recorded-in-Texas…,0,0,0,False
196,CryptoPanic@CryptoPanicCom, +2 First Bitcoin Real Estate Purchase Recorded in Texas https://cryptopanic.com/news/33510/First-Bitcoin-Real-Estate-Purchase-Recorded-in-Texas… $BTC #bitcoin #cryptocurrency,3,1,0,False
197,KWH Renewable Energy@KwhCoin,"Legendary tech entrepreneur John McAfee supports KWHCoin and a decentralized future -> https://twitter.com/officialmcafee/status/894791600894877696… #crypto #eth #btc #fintechQuote TweetJohn McAfee@officialmcafee · Aug 8, 2017Most awesome forward thinking cryptocurrency for an independent world: https://twitter.com/KwhCoin/status/894752943139831808…",1,2,0,False
198,Jengo@CryptoTrips,$btc $eth $neo #bitcoin #crypto Why bitcoin may really scare Wall Street: Overstock CEO |Why bitcoin may really scare Wall Street: Overstock CEOJPMorgan CEO Jamie Dimon called bitcoin “a fraud” last week but Overstock.com CEO Patrick Byrne told FOX Business the cryptocurrency is useful.foxbusiness.com,2,1,0,False
199,Paul Murray@pauljmurray,Russian Central Bank Strikes Restrictive Tone on #Cryptocurrency https://buff.ly/2xfP89e,0,0,0,False
200,Amanda Darcangelo@AmandaDarc_,"China bans #cryptocurrency exchanges& #btcchina announces 9/30 trade stop; will bans have influence on actual trade?
http://fortune.com/2017/09/15/china-shutting-down-beijing-bitcoin-cryptocurrency-exchanges/…",0,0,0,False
