,user,text,likes,retweets,replies,is_thread
0,Andrew Cox@andrewwcox,"Turns out Venezuela’s Oil-Backed #Petro #Cryptocurrency is Real after All
https://ccn.com/turns-out-venezuelas-oil-backed-petro-cryptocurrency-is-real-after-all/…
#VenezuelaTurns out Venezuela's Oil-Backed Petro Cryptocurrency is Real after AllContrary to speculation, Venezeula's petro cryptocurrency actually does exist. But with Maduro on the ropes, does that even matter?ccn.com",2,0,0,False
1,Peetoose@peetoose,"Some merit. This was the most important occasion of the room, and lifted him up. #twitterbot #crypto #cryptocurrency #bitcoin #ethereum",2,0,0,False
2,Bill Archer@BillArcherBHAFC,#Millwall fans sell Bitcoin's in record amounts. #HODL #BTC #Crypto,1,0,0,False
3,Cryptoactive Traders@CryptoactiveT,From the UK to Malaysia: How Countries Have Been Classifying Crypto Across the World #cryptonews #crypto #ct #blockchain http://bit.ly/2RgzrFj,0,0,0,False
4,Pro Forex Trading Group@Proforextrade10,The future is coming whether you are ready or not  Id rather be on this side of the fence #Forex #Bitcoin #CryptoCurrency,6,0,0,False
5,Game Library@gamelibrary_tr,"Iran May Unveil State-Backed Cryptocurrency ... 
Read News = https://play.google.com/store/apps/details?id=com.vipcryptosignals.free… #bitcoin #cryptocurrency #crypto #ripple #xrp #binance #ethereum #news #tron #litecoin #okex #Bithumb #Bittrex #Bittrex #Poloniex #BitMEX",1,0,0,False
6,MINE.FARM.BUY@minefarmbuy,"Getting #newpacs with $BTC? Get discounted shipping, maybe, I think. I don't really know, someone else does the math here. #mineon
#wearenotretail http://minefarmbuy.com/shopbtc/gekko $BTC #bitcoin #altcoin #asics",0,0,0,False
7,TronSpark@TronSpark,"BTT ICO performed like an ICO in late 2017. Gone in a flash! People are recognizing the potential of Project Atlas. 

#tron #trx #tronics #bitcoin #btc #ethereum #ltc #litecoin #cryptocurrencies #crypto #blockchain #TronSR #DASH #xrp #coinmarketcap #BinanceLaunchpad #bnb #BTT",40,8,4,False
9,Eli Crypto@Eli1Law,"Replying to @rogerkver @GC_YUKIZAKI and 9 othersJust made some money and you wanna invest in Crypto? Spread your investments, look for solid low cap coins like $scriv and buy #Crypto #masternode",0,0,0,False
10,The Cardano Report™@_Cardano_ADA,"Bitcoin Price Analysis: Major Support Broken on Expanding Volume and Spread
https://thecryptoreporter.net/2019/01/bitcoin-price-analysis-major-support.html…
#Blockchain #Crypto #Cryptocurrency #Altcoin",0,0,0,False
11,The Cardano Report™@_Cardano_ADA,"Living on Bitcoin Day 7: A Supposedly Fun Thing I’d Definitely Do Again
https://thecryptoreporter.net/2019/01/living-on-bitcoin-day-7-supposedly-fun.html…
#Blockchain #Crypto #Cryptocurrency #Altcoin",0,0,0,False
12,J.Lewell@Lewell82,"Our projections show that by 2022, almost 50% of online stores in the #USA will accept #bitcoin as payment - by 2025 almost all.

#crypto #blockchain #technology #money #trade #business",0,0,0,False
13,Peetoose@peetoose,"Him once more the people seemed prosperous, so he decided to ask me for your mortar? #twitterbot #crypto #cryptocurrency #bitcoin #ethereum",0,0,0,False
14,Cryptosites.co@cysites,"Current Top 3 Dapps by Daily Active Users (DAU)

1. ForkDelta (1843)
2. IDEX (1761)
3. CryptoKitties (1737)

For more details. Please visit
http://cryptosites.co
#crypto #blockchain #ether #technology #BTC #cryptonews #ethereum #currency
#business #entrepreneur",0,0,0,False
15,Remi Vee @Remi_Vladuceanu,"BTC Stable Around $3,600, Bitcoin ETF Withdraw Barely Impacts Markets
https://tribetica.com/btc-stable-around-3600-bitcoin-etf-withdraw-barely-impacts-markets/…

http://reddit.com/r/tribetica
#newsoftheweek #Bitcoin #blockchain #crypto",2,0,0,False
16,Trish Kendrick@trish_kendrick,"Join me to get @Listia's new $XNK #cryptocurrency for free! Use code ""BTWYDD"" for an extra 100 XNK. Just got this with my Ink, thank you stickers https://listia.com/r2i8n2k/BTWYDD",0,0,0,False
17,rajats@rajats,Formal analysis of the Signal protocol https://eprint.iacr.org/2016/1013.pdf thanks @ashishdarbari #crypto #formalverification,0,0,0,False
18,CoinsChroinicle.com - crypto info@CoinsChronicle,"1.f/ #Crypto is not a scam, just a good ponzi scheme. 
Source - Quote TweetNeedacoin@needacoin · Jan 28, 2019My twitter feed from the beginning:

2014- Crypto is a scam!
2015- Crypto is a scam!
2016- Crypto is a scam!
2017- I'm a professional trader and will be opening a paid group. 
2018- Crypto is scam!
2019- Crypto is a scam!",1,0,0,True
19,Global Crypto News@gcnews_io,"2019 January - February Special Campaign : #FREE PUBLICATION! #NoFees 100% Free of charge!  #GlobalCryptoNews publishes your #article and promotes it for free. #Crypto projects are welcome! Get in contact for details!
#RETWEEET #RetweeetPlease",34,8,0,False
20,Coinboard@Coinboard,"BitTorrent Tokens Sold Out in Under 15 Minutes, Netting Over $7 Mln http://twib.in/l/GB4zkbq6qgx7 via @CoinTelegraph #cryptocurrency #bitcoin",0,0,0,False
21,RupeeCoin@RupeeCoinOffic,Replying to @KeyoCoin and @sozelliWe have to keep our spirits up and offer support to everyone who wishes to embrace #crypto! ,2,0,0,False
22,MINE.FARM.BUY@minefarmbuy,"2% does get us lambos, just not what you're thinking. #mineon #wearenotretail http://minefarmbuy.com $BTC #bitcoin #altcoin #asicsGIF",0,0,0,False
23,Eric Bass@ItsEricBass,"QuadrigaCX, whose customers have been unable to withdraw funds for months, has unexpectedly gone offline. http://ow.ly/xaCB50knrjr #crypto #cryptocurrency",0,0,0,False
24,AlgoryProject@AlgoryProject,"Vexchange enables liquidity staking in preparation for VeChain’s mainnet launch

Read more: https://app.algory.io/app/cryptonews/488646/vexchange-enables-liquidity-staking-in…
#cryptocurrency #cryptonews #crypto #algory #VEN #VeChain #blockchain",0,0,0,False
25,Peetoose@peetoose,"Lake and I never show it to him. He could wait no longer, for she was the matter. #twitterbot #crypto #cryptocurrency #bitcoin #ethereum",0,0,0,False
26,Jasons House of Crypto@jasonshoc,"Swiss Private Bank Introduces Direct Transfers of #Bitcoin, Litecoin, Ether & Bitcoin Cash http://cryptopilot.info/index.php/news/3988/Altcoin-News/January-28-2019/Swiss-Private-Bank-Introduces-Direct-Transfers-of-Bitcoin%2C-Litecoin%2C-Ether-and-Bitcoin-Cash… #crypto",0,0,0,False
27,The Cardano Report™@_Cardano_ADA,"Troubled Crypto Exchange QuadrigaCX Goes Offline for ‘Maintenance’
https://cryptoinvestornews.net/post/182383763881…
#Blockchain #Crypto #Cryptocurrency #Altcoin",0,0,0,False
28,MINE.FARM.BUY@minefarmbuy,"Market takes a dip and the charts come out. Market climbs and the cheerleaders come out. Bitcoin does bitcoin and doesn't give a fuck, that's what I'm happiest about. #mineon #wearenotretail http://minefarmbuy.com $BTC #bitcoin #altcoin #asicsBitcoin Asic Mining Hardware - MINE.FARM.BUY - HomePremire Bitcoin and altcoin ASIC mining hardware and product sourcing specialists for enterprise, business, and consumer grade electronics worldwide.minefarmbuy.com",0,0,0,False
29,MacQ@Mac88Q,"If #bitcoin were a human would you be friends...?

I wouldn't, constantly changing (its mind), interesting, but stressful even for more than a year at a time, and probably more expensive in maintenance as time passes.

#crypto #blockchain #relationship #tech #fintech",1,1,0,False
30,Domain Address Info@DomainAddress4u,ZkDAI - A fully private DAI transaction using ZKSnarks ! via /r/ethereum http://bit.ly/2HxuLeG hot  in #reddit #ethereum #eth #cryptoZkDAI - A fully private DAI transaction using ZKSnarks !Posted in r/ethereum by u/Crypto_Economist42 • 133 points and 11 commentsreddit.com,0,0,0,False
31,KrakenPrices@KrakenPrices," Prices update in $USD (1 hour):

$BTC - 3433.2 $  (+0.13 %)
$ETH - 105.26 $  (+0.49 %)
$XRP - 0.29 $    (+0.61 %)
$BCH - 111.3 $   (+1.27 %)
$BSV - 64.7 $    (+0.15 %)
$LTC - 30.92 $   (+1.41 %)

#BTC #ETH #XRP #BCH #BSV #LTC #Trading #Crypto #Bitcoin",1,0,0,False
32,KrakenPrices@KrakenPrices," Prices update in $USD (1 hour):

$EOS - 2.23 $     (+1.6 %)
$DASH - 66.84 $    (+0.35 %)
$XLM - 0.09 $     (+0.93 %)
$ETC - 3.9 $      (+0.36 %)
$XMR - 43.31 $    (+0.51 %)
$ZEC - 49.02 $    (+0.7 %)

#EOS #DASH #XLM #ETC #XMR #ZEC #Trading #Crypto #Altcoins",0,0,0,False
33,Fauzi Okni@OkniFauzi,Replying to @eth_LiteGood project #EthereumLite #ETL #airdrop #ETH #crypto #Airdrop,2,0,0,False
34,CryptoMining4Vets@mining4vets,"UPDATE!!
72 hours free (around 100kh)
2 Rigs total
Must be CN-Turtle
Winner will be picked at random

Like/Retweet
Follow

Winner randomly chosen once we reach 500 followers
not giving up. we will reach this goal. #crypto #cryptocurrencies #CryptopiaHack #Monero #xmr #resistasics",29,20,5,True
35,"Cryptofy "" Alexei ""@CryptofyA","IMPORTANT :
Only 2 days remaining until the first stage of the #Airdrop ends :
Buy more than 0.05 #btc and get 30 % #CTF bonus

#Gifts : You need to buy at least 0.2 btc to win the #Cryptofy gifts
#ICO #bitcoin #ERC20 #bountyhunter #bounty #ethereum #cryptocurrency #livecoin $ETH",17,24,1,False
36,Cryptos Drops@CryptosDrops,"New Airdrop 

Name : Kuverit
URL : http://t.me/Kuverit_Airdrop_Bot?start=589402897…
Token : 20 KUV | 20$

Note : 

#airdrop #bounty #token #crypto #currency #cryptocurrency #bitcoin #ethereumKuverit Airdrop Bothttps://www.kuverit.iot.me",1,0,0,False
37,Avocado by Proof@AvocadoByProof,"Results are in for the last 10 minutes: the best crypto performer is #Maker (0.4%), while the biggest loser is #Lisk (-0.8%). ||| Greatest overall change (price or volume) is: #Maker with a 1.1% negative change in volume #crypto https://bit.ly/2zPNY7s",0,0,0,False
38,Cryptoknocks.com@cryptoknocks,"BTC-CVC AskRate: 0.00001403 #Bittrex #CVC $CVC #Civic #altcoin #crypto #cryptocurrency
 FOLLOW for PROFIT",1,1,0,False
39,FreeCrypto@freecryptoio," NEW AIRDROP PUBLISHED!

Vechain (by OceanEx) - $20
Actions Required: #Email #KYC #SignUp
 https://free-crypto.io/airdrops/vechain-by-oceanex/…
#free #crypto #airdrop #bounty #giveaway #freecrypto",0,0,0,False
40,Lynx Wallet@Lynxwallet,"We welcome Trybe into the Lynx community. This new social media platform will allow you to stay informed and share content with the crypto world. Get Trybe tokens today and benefit from our special Lynx offer (+5% bonus on your purchase) @trybe_social
#Crypto #eosio #SocialMedia",8,1,0,False
41,Coinboard@Coinboard,#Bitcoin Price Analysis: Major Support Broken on Expanding Volume and Spread http://twib.in/l/bgy4MErarA8d via @BitcoinMagazine #cryptocurrency,0,0,0,False
42,Gotcha Event Photography@GotchaArt,"Earning #cryptocurrency for selling my stuff on @Listia! Join me using code ""DGTGWH"" for an extra 100 XNK. I just listed this:  Blue Sapphire Heart Wedding Engagement Claddagh Ring Size 10   #12 https://listia.com/r2i8n7m/DGTGWH",0,0,0,False
43,CryptoCoinsMarket@ccoinmarket,"Canadian crypto exchange QuadrigaCX, whose customers have been unable to withdraw funds for months, has been inaccessible for several hours. ""Troubled Crypto Exchange QuadrigaCX Goes Offline for ‘Maintenance’"" http://bit.ly/2MDjV5T #Bitcoin #crypto",0,0,0,False
44,WILLPOWERENT@willpowerentllc,@willpowerent Get all you #MUSIC needs satisfied #Mix #Mastering #Recording & #Video done with some of #NyC top engineers call 718-536-4300 @willpowerstudios #NewBROOKLYN #CRYPTO #LONELY #THEWOLFOFFLOSSSTREET #WHATITSGONNABE #RSKTKRS,1,0,0,False
45,Criptomonedaseico@Criptomonedaico,"#CriptoMonedaseICO TRON and Binance Optimistic on BitTorrent But Analyst Says it Could be Overplayed - http://tinyurl.com/ya2eeg8y
 -  
By @criptomonedaseico - 
#trader #trading #altcoin #decentralize #hashrate #bitcoins #bitcoin #cryptocurrency #blockchain #newspictures",0,0,0,False
46,John C. Maxwell III@maxjcm,"Two Groups Account for $1 Billion in Cryptocurrency Hacks, New Report Says 

#fintech #banking #finserv #cryptocurrency #finance #banks #blockchain #regtech #Insurtech @MikeQuindazzi @FGraillot @topcybernews @socialfave @d_zimnoch @SilvelloAndrea
https://drumup.io/s/Lik0SC",7,2,2,True
47,Dave Lerner@MotorcycleTwitt,"#Blockchain & #Bitcoin
#FinTech #IoT #SmartCity #startups #APIs #Security @Fisher85M @ravikikan @mclynd #DataScience #BigData #BTC #infosec #HealthTech #digital #Cybersecurity #cryptocurrency #Infographics HT @MikeQuindazzi #AI #IoT #BigData #infographic #ai #deeplearning CC:",6,5,0,False
48,Eli Crypto@Eli1Law,"Replying to @justinsuntron and @BitTorrentJust made some money and you wanna invest in Crypto? Spread your investments, look for solid low cap coins like $scriv and buy #Crypto #masternode",0,0,0,False
49,PhoenixCoin  $XRP@PhoenixSquawk,"Read #Crypto & #Forex news: https://bitcoin.cartel.click

China's industrial profits due at the bottom of the hour https://forexlive.com/news/!/chinas-industrial-profits-yoy-for-december-18-vs-18-last-month-20190128… #Bitcoin #Btc #CryptocurrencyChina's industrial profits due at the bottom of the hourChina's industrial profits for December Profits can lead to higher investment.   Lower profits are a problem for investment.forexlive.com",0,0,0,False
50,PhoenixCoin  $XRP@PhoenixSquawk,"Read #Crypto & #Forex news: https://bitcoin.cartel.click

China's industrial profits for December YoY -1.9% vs -1.8% in November https://forexlive.com/news/!/chinas-industrial-profits-for-december-yoy-18-vs-18-in-november-20190128… #Bitcoin #Btc #CryptocurrencyChina's industrial profits for December YoY -1.9% vs -1.8% in NovemberChina's industrial profits for December. - YoY -1.9% vs -1.8% in November - Dec Profit 680.8B yuan - Jan-Dec profits come in at 10.3% Y/Y to 6.64t yuan. forexlive.com",0,0,0,False
51,PhoenixCoin  $XRP@PhoenixSquawk,"Read #Crypto & #Forex news: https://bitcoin.cartel.click

Chinese stocks open with solid gains https://forexlive.com/news/!/chinese-stocks-open-with-solid-gains-20190128… #Bitcoin #Btc #CryptocurrencyChinese stocks open with solid gainsMajor indices are higher in Chinaforexlive.com",0,0,0,False
52,Jonden666888@jonden666888,"Earning #cryptocurrency for selling my stuff on @Listia! Join me using code ""DQCLWQ"" for an extra 100 XNK. I just listed this: Vintage Fire Fighter Quartz Pocket Watch Necklace https://listia.com/r2i8n6v/DQCLWQ",0,0,0,False
53,Dan Gonzales@gonzadan,"#Bitcoin Drops to Lowest in a Month to $2156, as cost of mining bitcoin puts many miners underwater. Will only a lower cost #cryptocurrency make sense going forward?Bitcoin Drops to Lowest in a Month as 2018's Agony Keeps GoingBitcoin’s painful 2018 crash continues, with the original cryptocurrency touching the lowest in more than a month on Monday.bloomberg.com",0,0,0,False
54,James Christian ❁@Jameskaguo,"Please send amount to bitcoin address.
 bitcoin://1MwWciM8p4r931StjfBCRcxmhmNpGnDnew?amount=0

Sharing is caring, I need to pay rent, 
#bitcoin #egg #richandpoor #money #address #cryptocurrency",2,1,0,True
55,The Blockchain@TheBlockchain,Bitcoin Price Analysis: Major Support Broken on Expanding Volume and Spread http://bit.ly/2FVQqLQ #blockchain #bitcoin #crypto,1,0,0,False
56,The Blockchain@TheBlockchain,Living on Bitcoin Day 7: A Supposedly Fun Thing I’d Definitely Do Again http://bit.ly/2RWaDYA #blockchain #bitcoin #crypto,0,0,0,False
57,Crypto Millionaire App@eagletwitt3r,Did you know you can share you diversification score and relative #crypto holdings without revealing any actual amounts? Find out how well diversified your holdings are with the Crypto Millionaire app! #Bitcoin #Crypto #Ethereum #Litecoin #Ripple #EOS,0,0,0,False
58,PatriotBen@bjammerboy," HUUGE #CONTEST ANNOUNCEMENT! 

10,000 HTS @HotShotCoin #GIVEAWAY & #BOUNTY
 ENTER HERE: https://hotshot.bjammerboy.info
 TAG 2 FRIENDS 

 LIKE & RETWEET

Thanks to everyone who enters my contest & bounties! #MondayMood
#cryptocurrency #news #technews #blockchain #bitcoin",3,5,3,False
59,Gary24@Gary24y,"Bora is the great website in the world ..

Bora can make the crypto currency make incredible for everyone.  

So join bora to get reward and be the winner for your life. #Borabounty program! Earn #BORA tokens by performing bounty  #blockchain #crypto https://gleam.io/lfYAd/bora-ecosystem-bounty…",0,0,0,False
60,AlgoryProject@AlgoryProject,"Litecoin’s (LTC) New Logo and Refined Vision for 2019 and Beyond

Read more: https://app.algory.io/app/cryptonews/488638/litecoins-ltc-new-logo-and-refined…
#cryptocurrency #cryptonews #crypto #algory #BTC #LTC #Bitcoin #Litecoin",0,0,0,False
61,Coin Spectator - Real-time cryptocurrency news@coinspectator,Litecoin’s (LTC) New Logo and Refined Vision for 2019 and Bey... #cryptocurrency #ethereum #altcoins LTC https://coinspectator.com/news/1218790/litecoins-ltc-new-logo-and-refined-vision-for-2019-and-beyond…,0,0,0,False
62,bitsmart.io@bitsmart_io,Venezuela Bitcoin Trading Sets Giant All-Time High #venezuela #bitcoin #localbitcoins #nicolasmaduro #cryptocurrency #bitsmartVenezuela Bitcoin Trading Sets Giant All-Time High :: bitsmartVenezuela traded more bolivars for bitcoins than ever before last week. Volumes on P2P trading platform Localbitcoins reaching 15.7 billion VES ($10 Venezuela traded more bolivars for bitcoins than...bitsmart.io,0,0,0,False
63,Wilson Sonsini@wilsonsonsini,Yesterday #WSGR & @WilmerHale kicked off the 46th @Northwesternlaw SRI (#Securities #Regulation Institute) Reception & today WSGR partners Rob Rosenblum & Steve Bochner had the pleasure of moderating panels on #cryptocurrency & #blockchain + #capitalmarkets (resp.),5,2,0,False
64,Peetoose@peetoose,"Get it, but in spite of all kinds of medicines both internally and externally. #twitterbot #crypto #cryptocurrency #bitcoin #ethereum",0,0,0,False
70,Eli Crypto@Eli1Law,"Replying to @justinsuntron @binance and @cz_binanceJust made some money and you wanna invest in Crypto? Spread your investments, look for solid low cap coins like $scriv and buy #Crypto #masternode",0,0,0,False
71,AlgoryProject@AlgoryProject,"Forget About Scalability: Charlie Lee is Working to Add Condifendital Transactions to Litecoin

Read more: https://app.algory.io/app/cryptonews/488636/forget-about-scalability-charlie-lee-is…
#cryptocurrency #cryptonews #crypto #algory #BTC #LTC #PIVX #Bitcoin #Litecoin #PIVX #blockchain",0,0,0,False
72,BitcoinsChannel@bitcoinschannel,"Bitcoiners Increasingly Dumping Bitcoin for Gold Investments in 2019 - https://goo.gl/fejQX2
#Bitcoin #Crypto #News #Blockchain #ICO #RT",1,0,0,False
73,Bitsbetrippin@BitsBeTrippin,BBT will be back #livestreaming this Sunday Feb3 - on family vacation until 2 Feb : Take the time with your family and kids - it's the whole point of the grind #Bitcoin #Blockchain #cryptocurrency,11,0,0,False
74,Coin Spectator - Real-time cryptocurrency news@coinspectator,Crypto Update: Top Coins Break Support as Consolidation Period Ends #bitcoin #btc #altcoins Eos/usd https://coinspectator.com/news/1218788/crypto-update-top-coins-break-support-as-consolidation-period-ends…,0,0,0,False
75,AMBCrypto@CryptoAmb,"Bitcoin [BTC] and other cryptocurrencies can now be credited to Uber app
https://ambcrypto.com/bitcoin-btc-and-other-cryptocurrencies-can-now-be-credited-to-uber-app/…
$BTC #ETH $ETH #Ripple #BTC #Bitcoin #Ethereum $xrp #BitcoinCash #Altcoins",6,4,1,False
76,pzi onic@pil8920,Nice artwork #bitcoin #cryptocurrency $btc,0,0,0,False
77,Remi Vee @Remi_Vladuceanu,"Tron Price Analysis: TRX Absorb Sell Pressure, up 7.4%
https://tribetica.com/tron-price-analysis-trx-absorb-sell-pressure-up-7-4/…

http://reddit.com/r/tribetica
#newsoftheweek #Bitcoin #blockchain #crypto",2,1,0,False
78,Viet NGUYEN@VietWin087,#ETC will pump fast and strong above $100 soon. The wake-up of a sleeper will coming for real. #ethereumclassic will bring up a great news after all projects that they have done. Dont be late. #crypto #cryptocurrency #CryptoNews #Vergecurrency #ethereum #bitcoin,1,0,0,False
79,Cryptocurrencies / USD@cryptosUSD," Prices update in $USD (1 hour):

$BTC - 3438.8 $  (+0.37 %)
$ETH - 105.73 $  (+1.16 %)
$XRP - 0.29 $    (+1.76 %)
$BCH - 111.3 $   (+1.46 %)
$BSV - 64.6 $    (+0.31 %)
$LTC - 31.02 $   (+1.97 %)

#USD #Dollar #BTC #ETH #XRP #BCH #BSV #LTC #Trading #Crypto #Bitcoin #Ethereum",1,0,0,False
80,Teresa Rollins@Trease_5,"Stop procrastinating. 
Free registration at 
http://therealmoney.online/trease5/#karatbars… #gold #cryptocurrency #savingingold #tokens #freedom #win #goldismoney #millionaire #entrepreneur #bitcoin #kcb #KBC #stayathomemom #homebasebusiness
#LevelUpTime
#NextLevelBusiness
https://youtu.be/upYQPudZRtE",1,0,0,False
81,Cryptocurrencies / USD@cryptosUSD," Prices update in $USD (1 hour):

$EOS - 2.23 $        (+1.6 %)
$IOT - 0.26 $        (+0.02 %)
$ETC - 3.9 $         (+1.11 %)
$NEO - 7.05 $        (-0.06 %)
$DASH - 66.96 $       (+0.53 %)

#USD #Dollar #EOS #IOT #ETC #NEO #DASH #Trading #Crypto #Altcoins",0,0,0,False
82,"Steven Hatzakis, Fintech Researcher & Consultant@shatzakis",Troubled Crypto Exchange QuadrigaCX Goes Offline for ‘Maintenance’: http://bit.ly/2FUNRdi via @coindesk #cryptocurrency #crypto,0,0,0,False
83,Understanding Fintech@UnderstandingF4,Troubled Crypto Exchange QuadrigaCX Goes Offline for ‘Maintenance’ http://bit.ly/2MDjV5T #blockchain #fintech #crypto #finance #tech,0,0,0,False
84,WILLPOWERENT@willpowerentllc,Reduced monthly rates available with a WILL POWER MEMBERSHIP hit us up at info@willpowerent.com for more info. @willpowerstudios #WP @willpowerentllc #NewBROOKLYN #NYC #CRYPTO #KAYA #LONELY #Music,1,1,0,False
85,ChaE YounG@ChaEYou53800684,"#Uptherium contributes to #cryptocurrency society and can improve it. 
@UpTherium @http://twitter.com/Upthinity #blockchain #crypto #cryptohub #BTC
https://uptherium.io",0,0,0,False
86,The Blockchain@TheBlockchain,Troubled Crypto Exchange QuadrigaCX Goes Offline for ‘Maintenance’ http://bit.ly/2MDjV5T #blockchain #bitcoin #crypto,1,0,0,False
87,Rika Sukenik@RikaSukenik,Welcoming feedback on my new personal website. Thank you! http://about.me/rikasukenik #Blockchain #productmanagement #Crypto,1,1,0,False
88,Peetoose@peetoose,Lang. They have stood outside this house through the water upon the shores of Japan. #twitterbot #crypto #cryptocurrency #bitcoin #ethereum,0,0,0,False
89,YieldFarmerKenB@YieldFarmerKenB,"Replying to @vinceg_444Hell yeah!  http://ApolloCurrency.com!
#APL @ApolloCurrency is THE #cryptocurrency for the good of the #world!
#APL KenBAPL4LifeBaby!!! $APLApollo Currency - Apollo FintechApollo Currency Apollo Currency has accomplished its goal to become the World’s fastest cryptocurrency with a sustainable blockchain, as well as one of the most feature-rich. Apollo was built with...aplfintech.com",4,3,0,False
90,Coin Spectator - Real-time cryptocurrency news@coinspectator,Tangem to produce physical notes for Marshall Islands’ SOV cryptocurrency #crypto #eth #ico https://coinspectator.com/news/1218786/tangem-to-produce-physical-notes-for-marshall-islands-sov-cryptocurrency…,0,0,0,False
91,Coin Spectator - Real-time cryptocurrency news@coinspectator,Troubled Crypto Exchange QuadrigaCX Goes Offline for ‘Maintenance’ #blockchain #eth #altcoins https://coinspectator.com/news/1218783/troubled-crypto-exchange-quadrigacx-goes-offline-for-maintenance…,0,0,0,False
98,Reinvent Time@ReinventTime,"Earning #cryptocurrency for selling my stuff on @Listia! Join me using code ""CCPDJP"" for an extra 100 XNK. I just listed this: Simply Vera Wang NWOT Women's Elegant Mock Layered Chiffon Racerback TopSimply Vera Wang NWOT Women's Elegant Mock Layered Chiffon Racerback TopNoticed a small hole in bottom layer while taking photos, it is unseen when the layers are dropped (see last photo) Tags removed, never worn. Size: Xsmall Color: Light gray chiffon, sky blue, ivory...listia.com",0,0,0,False
99,Coin Spectator - Real-time cryptocurrency news@coinspectator,"Ripple makes 2 massive transfers today, one to Bitstamp, one to mystery... #blockchain #bitcoin #altcoin https://coinspectator.com/news/1218782/ripple-makes-2-massive-transfers-today-one-to-bitstamp-one-to-mystery-wallet…",0,0,0,False
100,Kräftig Crypto @KraftigCrypto,The new @LedgerHQ Live app is dope! Ready to pair it with the Nano X. Great work! #crypto #wallet #coldstorage #BTC,1,0,0,False
101,ChaE YounG@ChaEYou53800684,"#Javvy Crypto is sufficient for investor support and the team is more active in promoting the project. 
@javvycrypto #crypto #blockchain #ICOBest Crypto Exchange to Buy, Sell, & Convert Bitcoin & Crypto | JavvyJavvy is the first truly easy way to buy, sell, & manage all major cryptocurrencies within a single, secure application.javvy.com",0,0,0,False
102,Rachael McCrary@rachaelbydesign,"Decentralization is great for letting the people hold all the power for their own funds. #procrypto Have questions about #crypto Ladies? Just ask me. When we take control over our finances we control our money instead of it controlling us. #mondaymotivationQuote TweetBUTTON Wallet@ButtonWallet · Jan 28, 2019Your funds, your rules. #paymentstothepeople",1,0,0,False
103,Bitcoin News Bull@BitcoinNewsBull,"S Korean Crypto Exchanges Team up to Fight Money Laundering, Illegal Trading Activities -
https://bitcoinnewsbull.com/2019/01/28/s-korean-crypto-exchanges-team-up-to-fight-money-laundering-illegal-trading-activities/…
#Bitcoin #Cryptocurrency #Blockchain",0,0,0,False
104,Cryptos Drops@CryptosDrops,"New Airdrop 

Name : KRONN
URL : http://t.me/Kronn_Airdrop_Bot…
Token : 10 KREX | 1.2$

Note : 


Description : 
You can use ""59NFD"" for referral question.

#airdrop #bounty #token #crypto #currency #cryptocurrency #bitcoin #ethereumKronn Airdrop BotYou can contact @Kronn_Airdrop_Bot right away.t.me",1,0,0,False
105,Cryptocurrency & Blockchain News@cryptoicobull,Troubled Crypto Exchange QuadrigaCX Goes Offline for ‘Maintenance’. #cryptocurrency #crypto #cryptocurrencies http://bit.ly/2MDjV5T,1,0,0,False
106,Coin Market Recap@coinmarketrecap,"Crypto This Week: Bitcoin ETF Withdrawn, CEO of Ripple Compares XRP & Bitcoin And More - https://coinmarketrecap.com/crypto/crypto-this-week-bitcoin-etf-withdrawn-ceo-of-ripple-compares-xrp-bitcoin-and-more/… #cryptocurrency #crypto #coinmarketrecap #technews",0,0,0,False
107,CoinCodex@CoinCodex,Total volume in the #cryptocurrency market is up by 20% in the last 24 hours thanks to the sell-off that hit coins across the board in the morning. $BTC dominance saw a slight uptick.,0,0,0,False
108,InfiniteX@Infinit_xchange,"Something to look forward to. Definitely making progress there
#crypto #cryptocurrency #cryptocurrencies #CryptoNews #Blockchain #blockchaintechnology #cryptotwitter #NASDAQ #adoption #progress #bitcoin #BTC #ETHEREUM #ETH #coins #digitalCurrency #investNasdaq Invest in Blockchain Technology, Pushing For Crypto And Blockchain Adoption - Ethereum World...Nasdaq has decided to take a step forward in the push for blockchain technologies and adoption of cryptocurrencies, investing a substantial amount of money recently in the financing of a startup that...ethereumworldnews.com",1,0,0,False
109,Peetoose@peetoose,"Assure you that called me just now! Was it you, Mr. Hare? #twitterbot #crypto #cryptocurrency #bitcoin #ethereum",1,0,0,False
110,The Bitcoin News ₿@TheBitcoinNews,"Living on Bitcoin Day 7: A Supposedly Fun Thing I’d Definitely Do Again - http://bit.ly/2RnRnhl
#bitcoin #btc #bitcoinnews #cryptocurrency #blockchain #cryptocurrencynews",1,0,0,False
111,The Bitcoin News ₿@TheBitcoinNews,"Bitcoin Price Analysis: Major Support Broken on Expanding Volume and Spread - http://bit.ly/2Rk9Vix
#bitcoin #btc #bitcoinnews #cryptocurrency #blockchain #cryptocurrencynews",1,0,0,False
112,Criptomonedaseico@Criptomonedaico,"#CriptoMonedaseICO Ethereum [ETH] Constantinople delay post-mortem: Vulnerability could have been discovered earlier - http://tinyurl.com/y739t4jq
 -  
By @criptomonedaseico - 
#trader #trading #altcoin #decentralize #hashrate #bitcoins #bitcoin #cryptocurrency",0,0,0,False
113,Nils Smith@NilsSmith,"#Cryptocurrency assets are being regulated, and it may hamper #innovation. Here’s why: https://news.bitcoin.com/us-law-professor-confusing-cryptocurrency-regulations-will-hamper-innovation…",2,1,0,False
114,"Steven Hatzakis, Fintech Researcher & Consultant@shatzakis","""Bitcoin Price Analysis: Major Support Broken on Expanding Volume and Spread"" http://bit.ly/2RXcrAs #crypto #forex",0,0,0,False
115,"Steven Hatzakis, Fintech Researcher & Consultant@shatzakis","""Living on Bitcoin Day 7: A Supposedly Fun Thing I’d Definitely Do Again"" http://bit.ly/2CPZ6zB #crypto #forex",1,0,0,False
116,MacQ@Mac88Q,"I think the market can recover back to over 3000 USD even if we drop to the 2.5-2.7 zone. 
#bitcoin #crypto #trading 

If we go to 2k it may take a really long while though.

It's becasue the whales want to make money and the distribution of wallet power

https://ccn.com/why-a-sub-3000-drop-will-mean-bitcoin-has-entered-nuclear-winter/…",0,0,0,False
117,BitcoinBaller @bitcoinballer23,"#crypto #btcusd watch these support levels. The bears are losing steam, reversal coming soon.Quote TweetBitcoinBaller @bitcoinballer23 · Jan 24, 2019Replying to @PhilakoneCryptoEvery bear flag since $4200 has been rejected in the bounce zone $3200-$3400. The $3000 mark is much stronger to break than people expect. In fact it marks the end of the last bear market and start of the 2017 ATH.",0,0,0,False
118,AlgoryProject@AlgoryProject,"Dash Community Troubles: People Accuse Project’s Merchant Team In Venezuela of Embezzlement

Read more: https://app.algory.io/app/cryptonews/488632/dash-community-troubles-people-accuse…
#cryptocurrency #cryptonews #crypto #algory #BTC #DASH #Bitcoin #Dash",0,0,0,False
119,Chiefmonkey  #FreeAssange #Privacy #bitcoin@HodlrDotRocks,"Check out the original, a tribute to “Hal Finney“ very clever, like the man himself... the auctions just gone over 9BTC 

If you can’t afford that get a print:

https://cryptograffiti.com/products/running-bitcoin-print…

Just put my order in, can’t wait  #halfinney #bitcoin #cryptoart #art #bitcoin #cryptoQuote Tweetcryptograffiti@cryptograffiti · Jan 28, 2019Running bitcoin prints going out soon.  Thanks for your patience!",6,1,1,False
120,Konstantinos Av@L2Krv,"I have just joined the @CoinMarketApp and @EtherWorldNews #giveaway to win a TrezorOne #hardware #wallet from @Trezor 
Check it out  https://gleam.io/IOZZV/trezor-one-white-x5-coinmarketappethereumworldnews-giveaway… 
#security #cryptocurrency #Trezor #crypto",0,0,0,False
121,Peetoose@peetoose,"Mother's memory, saw that he had succeeded in his throat. #twitterbot #crypto #cryptocurrency #bitcoin #ethereum",1,0,0,False
122,Coin Spectator - Real-time cryptocurrency news@coinspectator,Razy Trojan Installs Malicious Browser Extensions to Ste... #cryptocurrency #bitcoin #ico Cryptocurrency https://coinspectator.com/news/1218779/razy-trojan-installs-malicious-browser-extensions-to-steal-cryptocurrency…,2,0,0,False
123,CryptoZilla@KryptoZilla,Troubled Crypto Exchange QuadrigaCX Goes Offline for ‘Maintenance’ http://bit.ly/2MDjV5T #crypto #cryptocurrency #investing,0,0,0,False
124,AlgoryProject@AlgoryProject,"Crypto Update: Top Coins Break Support as Consolidation Period Ends

Read more: https://app.algory.io/app/cryptonews/488629/crypto-update-top-coins-break-support…
#cryptocurrency #cryptonews #crypto #algory",0,0,0,False
125,CrixFeed@CrixFeed,Bitcoin Price Analysis: Major Support Broken on Expanding Volume and Spread - read more : http://bit.ly/2CNVMFg #cryptocurrency #crypto #blockchain #bitocoin #btc #cryptocurrencynews #cryptoexchange #cryptotrading,0,0,0,False
126,CrixFeed@CrixFeed,Living on Bitcoin Day 7: A Supposedly Fun Thing I’d Definitely Do Again - read more : http://bit.ly/2RWExfk #cryptocurrency #crypto #blockchain #bitocoin #btc #cryptocurrencynews #cryptoexchange #cryptotrading,0,0,0,False
127,CryptoNinjas@crypto_ninjas,"http://bit.ly/2MDKLdX | @Tangem to produce physical notes for Marshall Islands' $SOV #cryptocurrencyTangem to produce physical notes for Marshall Islands' SOV cryptocurrency » CryptoNinjasTangem, the producer of blockchain smart card wallets, announced today it will issue the physical banknotes of the sovereign (SOV) - the Republic ofcryptoninjas.net",0,0,0,False
128,AlgoryProject@AlgoryProject,"Tangem to produce physical notes for Marshall Islands’ SOV cryptocurrency

Read more: https://app.algory.io/app/cryptonews/488628/tangem-to-produce-physical-notes-for…
#cryptocurrency #cryptonews #crypto #algory #blockchain",0,0,0,False
