,user,text,likes,retweets,replies,is_thread
0,Avocado by Proof@AvocadoByProof,"Results are in for the last 10 minutes: the best crypto performer is #Dogecoin (1%), while the biggest loser is #Maker (-2.6%). ||| Greatest overall change (price or volume) is: #Maker with a 2.6% negative change in price #crypto https://bit.ly/2zPNY7s",0,0,0,False
1,Richard Ellis@richardlellisjr,"#Bitcoin is going to zero. One problem, when it all disappears, who do ask to get your money back?  https://fxn.ws/2SapDlJ #crypto",2,0,0,False
2,Simon Willis@EuroAffiliate,"This is how easy it is to use FREGA 
￼

1. Register Now @ http://bit.ly/_frega  
￼
2. Find a mentor   
￼
3. Profit  
￼

#crypto #blockchain",0,0,0,False
3,Sense Chat@SenseChat,"Check out the new @EverythingEOSio episode: https://youtube.com/watch?v=sZ_-2Gi_EiE…

""@crystalrose is an OG! She's been in the #crypto space basically forever."" - @finchify
#OGEntrepreneur #makesense #CryptoNews",15,1,1,False
4,BitcoinAgile@bitcoinagile,r/dogecoin - Nasgo Is The Next Bitconnect Pyramid Scheme #reddit #dogecoin #doge #cryptoNasgo Is The Next Bitconnect Pyramid SchemePosted in r/dogecoin by u/mrsotkogaming • 10 points and 0 commentsreddit.com,1,1,0,False
5,The Blockchain@TheBlockchain,BitTorrent’s Token Price Spikes 600 Percent Since ICO http://bit.ly/2t5HJqb #blockchain #bitcoin #crypto,4,0,0,False
6,Domain Address Info@DomainAddress4u,Nasgo Is The Next Bitconnect Pyramid Scheme via /r/dogecoin http://bit.ly/2RBw3Ff hot  in #reddit #dogecoin #doge #crypto much wow!Nasgo Is The Next Bitconnect Pyramid SchemePosted in r/dogecoin by u/mrsotkogaming • 10 points and 0 commentsreddit.com,0,0,0,False
7,Sherif Othman@sherifothman1,"Gerald Cotten was always security conscious, #encrypting everything used to run his #crypto exchange. Unfortunately, he died, leaving $145 million in tokens inaccessible.",1,0,0,False
8,Anton Oyo@DAO_dude,Our savior Andreas Antonopoulos has spoken! by /u/braincrowd #bitcoin #btc #eth #ethereum #crypto #cryptocurrency #memes #dankmemes,3,0,0,False
9,cryptokernel @kerneloverdrive,"Here's me hoping we can do events like this in the Philippines @Dash_Nation @Dashpay $DASH @coinsph
#FinTech #Cryptocurrency #Blockchain #Bitcoin #Dash #TechNewsQuote TweetDash Thailand@DashinThailand · Feb 3, 2019Great result of the panel discussion at WeWork with DASH Thailands Ambassador Kawin Rungsimuntakul-  next to Aunchisa Tapanakornvut- Director of the SEC Thailand and many more. Thanks to Sharkaroo and all attendees. @Dash_Nation @DashpayNews @Dashpay @DashDecentral @DashDinheiro",6,0,0,False
10,Coin Spectator - Real-time cryptocurrency news@coinspectator,$200 Million Crypto Trader: 'Big Players' Will Eventuall... #blockchain #altcoins #fintech Market Cycles https://coinspectator.com/news/1230621/200-million-crypto-trader-big-players-will-eventually-enter-the-market…,2,0,0,False
11,Remi Vee @Remi_Vladuceanu,"January Crypto Roundup: Tron Surged, While Bitcoin Cash, SV, Stellar, IOTA and NEM Dumped
https://tribetica.com/january-crypto-roundup-tron-surged-while-bitcoin-cash-sv-stellar-iota-and-nem-dumped/…

http://reddit.com/r/tribetica
#newsoftheweek #Bitcoin #blockchain #crypto",1,0,0,False
12,GAMbIT Magazine@GAMbIT_Magazine,#Cryptocurrency exchange can't repay clients due to death of their founder. http://gambitmag.com/2019/02/cryptocurrency-exchange-cant-pay-clients-after-founder-dies-with-only-password/…,0,0,0,False
13,KrakenPrices@KrakenPrices," Prices update in $USD (1 hour):

$BTC - 3413.7 $  (+0.13 %)
$ETH - 106.03 $  (-0.07 %)
$XRP - 0.29 $    (+0.21 %)
$BCH - 117.2 $   (+0.43 %)
$BSV - 62.1 $    (0.0 %)
$LTC - 33.69 $   (+0.27 %)

#BTC #ETH #XRP #BCH #BSV #LTC #Trading #Crypto #Bitcoin",0,0,0,False
14,KrakenPrices@KrakenPrices," Prices update in $USD (1 hour):

$EOS - 2.36 $     (0.0 %)
$DASH - 65.73 $    (+0.09 %)
$XLM - 0.08 $     (-0.39 %)
$ETC - 3.81 $     (+0.24 %)
$XMR - 42.14 $    (+0.1 %)
$ZEC - 47.82 $    (+0.29 %)

#EOS #DASH #XLM #ETC #XMR #ZEC #Trading #Crypto #Altcoins",0,0,0,False
15,☆JeninaCrypto☆@jeninacrypto,"Drawing
.
.
#art #funny #cartoons #crypto #steemit #steem #caricature #drawing #ilustration #boys #insta https://instagram.com/p/BtejJGaHXXs/?utm_source=ig_twitter_share&igshid=btrdt3fu8yab…",2,0,0,False
16,Lucifer@Luciferwhh,"#Kraken Completes Biggest #Crypto Deal in 2019: Massive $100M Acquisition That May Boost Europe #Trading
https://coinfi.com/news/457548/kraken-completes-biggest-crypto-deal-in-2019-massive-100m-acquisition-that-may-boost-europe…",0,0,0,False
17,Cryptosites.co@cysites,"Current Top 3 Dapps by Daily Active Users (DAU)

1. Dai Stability System (1742)
2. STOX (1426)
3. ForkDelta (1415)

For more details. Please visit
http://cryptosites.co
#crypto #blockchain #ether #technology #BTC #cryptonews #ethereum #currency
#business #entrepreneur",2,0,0,False
18,Affiliyfuture 1@Affiliyfuture1,"SEC to Surveil Crypto Transactions on Leading Ledgers – Are Bitcoin, XRP and Ethereum Fair Game? https://dailyhodl.com/2019/02/04/sec-to-surveil-crypto-transactions-on-leading-ledgers-are-bitcoin-xrp-and-ethereum-fair-game/… #SEC #Crypto #Transactions #Ledgers #Bitcoin #XRP #Ethereum #Blockchain #Tracking #Data #Volumes #Bitinfocharts #Crypto #DigitalAssets #WalletAddress #DLT #CLTSEC to Surveil Crypto Transactions on Leading Ledgers – Are Bitcoin, XRP and Ethereum Fair Game? |...The US Securities and Exchange Commission is planning to track the most widely used crypto ledgers. According to an announcement, the SEC is attempting to figure out how to read blockchain data more...dailyhodl.com",1,1,0,False
19,Coin Spectator - Real-time cryptocurrency news@coinspectator,QuadrigaCX owes its clients $250 million CAD that the company cann... #blockchain #altcoins #ico fintech https://coinspectator.com/news/1230618/quadrigacx-owes-its-clients-250-million-cad-that-the-company-cannot-access…,1,0,0,False
20,CryptFund News@cryptFund,#Bitcoin Price Trades Sideways as #Crypto Market Pines for More Volatility https://ccn.com/bitcoin-price-trades-sideways-as-crypto-market-pines-for-more-volatility…,0,0,0,False
21,Coin Spectator - Real-time cryptocurrency news@coinspectator,"$1 Billion Crypto Fund CEO: This Bear Market is Different, Already... #ethereum #altcoins #fintech News https://coinspectator.com/news/1230616/1-billion-crypto-fund-ceo-this-bear-market-is-different-already-sees-first-100m-deal…",1,0,0,False
22,CryptoNewswire @CryptoNewswire,ternity Ventures calls on applications as 2019 Starfleet Accelerator opens - https://cryptonewswire.com/ternity-ventures-calls-on-applications-as-2019-starfleet-accelerator-opens… #altcoins #markets #trading,0,0,0,False
23,Jeremy D. Fay@jeremy__fay,"Separating the tragedy from all this, does anyone else find this amusing?

#cryptocurrency #QuadrigaCX #quadriga #GeraldCotten
https://foxnews.com/tech/cryptocurrency-exchange-chief-dies-with-passwords-needed-to-unlock-customers-190m-reports-say…",1,1,0,False
24,ProjectX - XtradeBOT@xtradebot,"NEW TRADE
Exchange: #Binance
#XLMBTC
Buy Date : 2019-02-05 00:53:40
Sell Date : 2019-02-05 00:53:40
Buy : 0.00002269
Sell : 0.00002268
Profit : -0.04%

#XLM #bitcoin #projectxonline #probot #trading #tradebot #btc #cryptocurrency #blockchain #crypto #altcoin",0,0,0,False
25,ProjectX - XtradeBOT@xtradebot,"NEW TRADE
Exchange: #Binance
#XLMBTC
Buy Date : 2019-02-05 00:52:55
Sell Date : 2019-02-05 00:52:55
Buy : 0.00002271
Sell : 0.00002269
Profit : -0.09%

#XLM #bitcoin #projectxonline #probot #trading #tradebot #btc #cryptocurrency #blockchain #crypto #altcoin",0,0,0,False
26,Emma Hudson@hudson_chatbots,"#Blockchain & #Bitcoin In different ages !
#FinTech #IoT #SmartCity #startups #Security #DataScience #BigData #infosec #HealthTech #digital #Cybersecurity #cryptocurrency #Infographics #AI #IoT #BigData #infographic #ai #deeplearning #data HT @MikeQuindazzi Cc @antgrasso #ai #de",9,13,0,False
27,AlphaMaven Hedge Funds@AlphaMavenHF,"Lack Of Technical Knowledge Can Make Bitcoin Riskier - #Crypto Daily https://hedgemaven.com/news/crypto/lack-of-technical-knowledge-can-make-bitcoin-riskier-crypto-daily… #HedgeFundLack Of Technical Knowledge Can Make Bitcoin Riskier - Crypto DailyLack Of Technical Knowledge Can Make Bitcoin Riskier  Crypto Daily The well-known Bitcoin proponent and author of Mastering Bitcoin, Andreas Antonopoulos has spoken about one of the most important...alpha-maven.com",0,0,0,False
28,Potentiam@Potentiam_io,"Beliefs are choices. First you choose your beliefs. Then your beliefs affect your choices.
#cryptocurrencyGIF",27,21,1,False
29,PhoenixCoin  $XRP@PhoenixSquawk,"Read #Crypto & #Forex news: https://bitcoin.cartel.click

JP Morgan says China efforts to revive economy have been ineffective, needs to do more https://forexlive.com/news/!/jp-morgan-says-china-efforts-to-revive-economy-have-been-ineffective-needs-to-do-more-20190204… #Bitcoin #Btc #CryptocurrencyJP Morgan says China efforts to revive economy have been ineffective, needs to do moreCNBC carry a piece on comments today from .P. Morgan Private Bank's head of investment strategy for Asia He is not convinced they will do much dramatic, expecting 'incrementalism'.forexlive.com",0,0,0,False
30,Lucifer@Luciferwhh,"#æternity Ventures, the investment arm of decentralized smart contracts platform æternity, has today opened applications for a new round of its Starfleet Accelerator Program. $AE #crypto #blockchain #cryptonewsæternity Ventures calls on applications as 2019 Starfleet Accelerator opensCryptoNinjas æternity Ventures, the investment arm of decentralized smart contracts platform æternity, has today opened applications for a new round of its Starfleet Accelerator Program. Following...coinfi.com",1,0,0,False
31,digital mine @digital_mine_,Daily profit for HODLING BTC since 2013 Data taken since 29/10/2018 @ 10:45am (UTC) Updated every hour #bitcoin #btc #cryptocurrency #blockchain #cryptotrade #profit,0,0,0,False
32,Coin Spectator - Real-time cryptocurrency news@coinspectator,Regulatory Bodies Fear Cryptocurrency’s Impact on Rupee #crypto #altcoins #altcoin News https://coinspectator.com/news/1230612/regulatory-bodies-fear-cryptocurrencys-impact-on-rupee…,0,0,0,False
33,Alert Logic@alertlogic,Why #Crypto Fraud Doesn't Have To Be Your Worst Nightmare http://ow.ly/7hqI30nyvmp #fintech #infosec #cryptocurrency #cryptomining,6,0,0,False
34,reinstall@reinstallGamin,"anyone still interested in crypto currencies?? what is the future of it!
https://marketwatch.com/story/crypto-exchange-customers-cant-access-190-million-after-ceo-dies-with-sole-password-2019-02-04…
#crypto
#bitcoin
#ethereum https://gab.ai/Reinstallgamin/posts/47912404…",1,0,0,False
35,Avocado by Proof@AvocadoByProof,"Results are in for the last 10 minutes: the best crypto performer is #Zilliqa (0.7%), while the biggest loser is #Maker (-6.4%). ||| Greatest overall change (price or volume) is: #Maker with a 6.4% negative change in price #crypto https://bit.ly/2zPNY7s",0,0,0,False
36,Remi Vee @Remi_Vladuceanu,"Living on Bitcoin for a Week in San Francisco
https://tribetica.com/living-on-bitcoin-for-a-week-in-san-francisco/…

http://reddit.com/r/tribetica
#newsoftheweek #Bitcoin #blockchain #crypto",6,1,0,False
37,Gotcha Event Photography@GotchaArt,"Earning #cryptocurrency for selling my stuff on @Listia! Join me using code ""DGTGWH"" for an extra 100 XNK. I just listed this:  Blue Sapphire Heart Wedding Engagement Claddagh Ring Size 10   #12Blue Sapphire Heart Wedding Engagement Claddagh Ring Size 10 #12Please read this description fully and study all the pictures. If you have any questions,please ask before you place a Bid or GIN. Silver plated with blue Sapphire crystal Heart Wedding Engagement...listia.com",0,0,0,False
38,Andrew Carnegie@ACPCarnegie,"Coiled like an xspring
Inwardly investing
Read like an open book
Each careful move considered
Establishment shook
Ripples through the fabric
Hyperledger & R3
Only a matter of moments
Premier XRP!

#micropoetry #XRPcommunity #xrp #cryptocurrencynews #crypto #cryptocurrency #Crypto",1,1,0,False
39,Algowave App@algowavepredict,"Check out #Endor big #news!!

https://cointelegraph.com/news/cardano-and-ethereum-co-founder-charles-hoskinson-joins-predictive-analytics-firm…
#CryptoCardano and Ethereum Co-Founder Charles Hoskinson Joins Predictive Analytics FirmPredictive analytics firm Endor has onboarded Charles Hoskinson, who will deliver guidance and counsel in respect to the cryptocurrency and blockchain industries.cointelegraph.com",4,0,0,False
40,Coin Spectator - Real-time cryptocurrency news@coinspectator,Crypto Winter Far From Over? Experts Weigh In with their Opin... #crypto #altcoin #fintech crypto winter https://coinspectator.com/news/1230607/crypto-winter-far-from-over-experts-weigh-in-with-their-opinions…,0,0,0,False
41,EvoNodes@EvoNodesDotCom,"We are proud to announce @1x2_coin $1X2 has been added to our growing list of Shared #masternode Pools! 
We are EvoNodes, and we're killin' it over here! #Masternodes #Staking #Community #Crypto #CryptoNews #cryptocurrencies #HODL #1X2 #altcoins #btc #invest #MoonShot #MakinWaves",1,1,0,False
42,Remi Vee @Remi_Vladuceanu,"Using The Blockchain To Crackdown on Healthcare Fraud, One Iris-Scan at a Time
https://tribetica.com/using-the-blockchain-to-crackdown-on-healthcare-fraud-one-iris-scan-at-a-time/…

http://reddit.com/r/tribetica
#newsoftheweek #Bitcoin #blockchain #crypto",1,0,0,False
43,Ȼɍɏᵽŧø Łøvɇ@effectivedream,"Replying to @PundiX_ClassicGreat project !!!!
#XPetroleum #XPL #airdrop #Blockchain #ETH #crypto #Airdrop https://xpetroleum.com",0,0,0,False
44,djwizzthewaxxkutta@djwizzz,Do you see how #BTT is moving right now   #hodl mode with the #hodlgang #pivx #crypto #cryptocurrency #binance #bitcoin #dgd #numbers #graphs #altcoins #lambo #coinbasewallet… https://instagram.com/p/BtepJWVl6y8/?utm_source=ig_twitter_share&igshid=ira4e2pi0pk2…,1,0,0,False
45,CrixFeed@CrixFeed,First Cinema in Brazil to Accept Bitcoin for Tickets - read more : http://bit.ly/2SkQefh #cryptocurrency #crypto #blockchain #bitocoin #btc #cryptocurrencynews #cryptoexchange #cryptotrading,0,0,0,False
46,CrixFeed@CrixFeed,Could Low Issuance Rate on Ethereum Mean Higher Prices? - read more : http://bit.ly/2GlXml2 #cryptocurrency #crypto #blockchain #bitocoin #btc #cryptocurrencynews #cryptoexchange #cryptotrading,0,0,0,False
47,Crypto Millionaire App@eagletwitt3r,Did you know you can share you diversification score and relative #crypto holdings without revealing any actual amounts? Find out how well diversified your holdings are with the Crypto Millionaire app! #Bitcoin #Crypto #Ethereum #Litecoin #Ripple #EOS,0,0,0,False
48,FiduLink@FiduLink,"COMPANIES FORMATION ONLINE 
http://fidulink.com

Europe Asia Africa America Oceania 

START UP BOX 
Company 
Bank account 
Mail Box  
Virtual Office 
#trading #cryptocurrency #Traders #Ethereum #altcoin #Zcash #monero #Bitcoin #BitcoinCash #GoodNews #investments #Millionaire",1,1,1,True
49,Alex Jiménez@RAlexJimenez,"Canadian #crypto exchange @QuadrigaCoinEx reportedly loses $190 million of customers’ money after founder dies 

http://ow.ly/j2yY30nzt6I
#cryptocurrency #cryptoassets #fintech #finserv #payments #in",1,1,0,False
50,Bolko Rawicz@Bolko_Rawicz,Blockchain’s Main Strengths Are Transparency and Instantaneity: HSBC Exec: http://cryptonewstoday.us/2019/02/blockchains-main-strengths-are-transparency-and-instantaneity-hsbc-exec/… #cryptocurrency #Blockchain #bitcoin #ETHEREUM #Altcoins #Cryptoassets #cryptocoins #tokens #Coins #investing #HODL #Hodlers #cryptoinvestor #investor,0,0,0,False
51,Lastline@lastlineinc,#Cryptocurrency Firm Losses $145 Million After CEO Dies With Only Password https://buff.ly/2Ga8br2 via @TheHackersNews #CryptoNews,1,0,0,False
52,Isabelle@isaddictive,"Earning #cryptocurrency for selling my stuff on @Listia! Join me using code ""DNCNST"" for an extra 100 XNK. I just listed this: 4"" Plastic Pokeball Pokemon https://listia.com/r2ibplk/DNCNST",0,0,0,False
53,Jeff@JeffYoung202,"SunLink Introduces TechTrack Single Axis Solar Tracker
#cleanenergy
Read Here: http://dld.bz/fx7EH  #smarthouse #Crypto #ICO",0,0,0,False
54,Bolko Rawicz@Bolko_Rawicz,"A Closer Look at Lightning Network Enabled Bitcoin Payment Processor OpenNode | CryptoGlobe https://cryptoglobe.com/latest/2019/02/a-closer-look-at-lightning-network-enabled-bitcoin-payment-processor-opennode/#.XFjOLGS3nX8.twitter… #cryptocurrency #Blockchain #bitcoin #ETHEREUM #Altcoins #Cryptoassets #cryptocoins #tokens #Coins #investing #HODL #Hodlers #cryptoinvestor #investorA Closer Look at Lightning Network Enabled Bitcoin Payment Processor OpenNodeThis article takes a closer look at Bitcoin-only payment processor OpenNode, in particular its support for the Lightning Network, how it compares with competitor BTCPay Server, and why it rejected...cryptoglobe.com",1,0,0,False
55,BitcoinBaller @bitcoinballer23,#bitcoin #blockchain #crypto Happy Year of the PigGIF,1,0,0,False
56,Bolko Rawicz@Bolko_Rawicz,There will never be 21 million Bitcoins — Steemit https://steemit.com/bitcoin/@jrcornel/there-will-never-be-21-million-bitcoins… #cryptocurrency #Blockchain #bitcoin #ETHEREUM #Altcoins #Cryptoassets #cryptocoins #tokens #Coins #investing #HODL #Hodlers #cryptoinvestor #investorThere will never be 21 million Bitcoins — SteemitRecent news events serve as a very good reminder of why that is... Recent events out of Canada remind us why the… by jrcornelsteemit.com,1,1,0,False
57,Monterey Threat Financing Forum@threat_forum,"#Bitcoin is not untraceable, but let’s let criminals continue to think that it is. Join us as two #blockchain #forensics firms demonstrate how to trace #cryptocurrency transactions using actual cases of #terrorismfinancing and Iranian-linked #cryptowallets
https://eventbrite.com/e/monterey-threat-financing-forum-tickets-53200868229…",0,0,0,False
58,Blockchain tech Fan@bitallcoins,Bitcoin Price Trades Sideways as Crypto Market Pines for More Volatility http://bit.ly/2SnjAtr #bitallcoins #cryptocurrency #bitcoin #blockchain #crypto #ethereum #btc #litecoin #money #trading #forex #bitcoinmining #eth #bitcoins #investing #mining #cryptonews #icos,0,0,0,False
59,Bolko Rawicz@Bolko_Rawicz,"Cardano and Ethereum Co-Founder Charles Hoskinson Joins Predictive Analytics Firm https://cointelegraph.com/news/cardano-and-ethereum-co-founder-charles-hoskinson-joins-predictive-analytics-firm… #cryptocurrency #Blockchain #bitcoin #ETHEREUM #Altcoins #Cryptoassets #cryptocoins #tokens #Coins #investing #HODL #Hodlers #cryptoinvestor #investor #cardanoCardano and Ethereum Co-Founder Charles Hoskinson Joins Predictive Analytics FirmPredictive analytics firm Endor has onboarded Charles Hoskinson, who will deliver guidance and counsel in respect to the cryptocurrency and blockchain industries.cointelegraph.com",1,1,0,False
60,Coinstack@coinstackapp,"Don't worry, you're safe with us! 
https://miamiherald.com/news/nation-world/world/article225501940.html…
#cryptocurrency #crypto #blockchain #bitcoin #btcBitcoin investors may be out $190 million after the only guy with the password dies, firm saysA Canadian crypto-currency exchange says the only password to investor accounts worth up to $190 million has been lost after its co-founder died unexpectedly in India.miamiherald.com",6,1,0,False
61,MasterCrypto5000@MCrypto5000,"Agreed. 
>
>
#btc #bitcoin #beginner #blockchain #news #crypto #green #money #value #valentines #monday #motivationalquotes #funny #sunny #day #true #knowledge #laugh #hello #train #trade… https://instagram.com/p/Bteovu3A9mV/?utm_source=ig_twitter_share&igshid=matapxobu293…",1,0,0,False
62,Klimatas B.V.@KlimatasCrypto,"Which one's your #Masternode project of the week?

As a just started project, being on the same poll as well established ones alone is a great sign for #Klimatas!

$KTS #cryptocurrency #YourvotecountQuote TweetCoinvasity@coinvasity · Feb 4, 2019VOTING IS NOW OPEN!! 

These are the most popular #Masternode coins this week. Vote for your favorite. 

@MONKEYPROJECT_ @giant_coin @kalkulus_team @KlimatasCrypto
#mnbags #mn #pos #crypto #cryptocurrency
Show this poll",2,1,2,False
63,Coin Spectator - Real-time cryptocurrency news@coinspectator,æternity Ventures calls on applications as 2019 Starfleet Accelera... #cryptocurrency #ethereum #fintech https://coinspectator.com/news/1230603/aeternity-ventures-calls-on-applications-as-2019-starfleet-accelerator-opens…,0,0,0,False
65,Cryptocurrency & Blockchain News@cryptoicobull,"Bitcoin, Ripple, Ethereum, EOS, Bitcoin Cash, Litecoin, Tron, Stellar, Bitcoin SV, Cardano: Price Analysis, Feb. 4. #cryptocurrencies #crypto #cryptocurrencyBitcoin, Ripple, Ethereum, EOS, Bitcoin Cash, Litecoin, Tron, Stellar, Bitcoin SV, Cardano: Price...Bitcoin, Ripple, Ethereum, EOS, Bitcoin Cash, Litecoin, Tron, Stellar, Bitcoin SV, Cardano: Price Analysis, Feb. 4za.investing.com",1,0,0,False
66,MET@MET_Community,"MET Curation Journal #13 - Week of 1/20/2019 — Whaleshares https://whaleshares.io/met/@met/met-curation-journal-13-week-of-1-20-2019… Another week, another great show of curation efforts! I am so proud of the team! #met #business #whaleshares #cryptocurrency #blockchain #btc #steemit",2,0,0,False
67,AlgoryProject@AlgoryProject,"Crypto Winter Far From Over? Experts Weigh In with their Opinions

Read more: https://app.algory.io/app/cryptonews/502658/crypto-winter-far-from-over-experts…
#cryptocurrency #cryptonews #crypto #algory",0,0,0,False
68,Alona Sumanting@sumanting,"I just published Greater benefit and creative control for independent artists
#artchain #artcoin #artico #altcoin #cryptocurrency #blockchainsQuote Tweetartcoin.ai@ArtcoinAI · Feb 4, 2019I just published Greater benefit and creative control for independent artists https://link.medium.com/osjNz08aUT",0,0,0,False
69,Coin Spectator - Real-time cryptocurrency news@coinspectator,Bitcoin Price Trades Sideways as Crypto Market Pines for More Volatilit... #altcoin #fintech #ico ripple https://coinspectator.com/news/1230602/bitcoin-price-trades-sideways-as-crypto-market-pines-for-more-volatility-ccn…,5,1,0,False
70,Data Security & Tech@MPBarry_law,Major problem (in the form of $190M in #cryptocurrency) when founder dies without releasing password. Investors may be out of luck https://foxnews.com/tech/cryptocurrency-exchange-chief-dies-with-passwords-needed-to-unlock-customers-190m-reports-say…,0,0,0,False
71,Schubert Laforest@schubline,"Read how disruptive technologies such as artificial intelligence, blockchain, and 5G will impact Indian firms. @Akamai @livemint #AI #blockchain #crypto #tech http://bit.ly/2Bm40Ev",0,0,0,False
72,Cryptocurrency News@ccrypto_news,Mt. Gox Restitution Process Frozen Due to One Man's $16B Claim #cryptocurrency #bitcoin #ethereum #ico https://itradeico.com/2019/02/mt-gox-restitution-process-frozen-due-to-one-mans-16b-claim/43402…,0,0,0,False
73,Avocado by Proof@AvocadoByProof,"Results are in for the last 10 minutes: the best crypto performer is #TRON (0.5%), while the biggest loser is #Augur (-0.4%). ||| Greatest overall change (price or volume) is: #Lisk with a 1.3% negative change in volume #crypto https://bit.ly/2zPNY7s",0,0,0,False
74,Cryptocurrency News@ccrypto_news,"Navigating Bitcoin, Ethereum, XRP: How Google Is Quietly Making Blockchains Searchable #cryptocurrency #bitcoin #ethereum #ico https://itradeico.com/2019/02/navigating-bitcoin-ethereum-xrp-how-google-is-quietly-making-blockchains-searchable/43395…",0,0,0,False
75,Alona Sumanting@sumanting,"I just published Art education and inclusion
#artchainAI #artcoin #artico #altcoin #cryptocurrency #blockchainsQuote Tweetartcoin.ai@ArtcoinAI · Feb 4, 2019I just published Art education and inclusion https://link.medium.com/0aoM0hbV1T",0,0,0,False
76,Coin Spectator - Real-time cryptocurrency news@coinspectator,Kraken Acquires Crypto Derivates Startup for at Least $100 Million #blockchain #ethereum #crypto https://coinspectator.com/news/1230600/kraken-acquires-crypto-derivates-startup-for-at-least-100-million…,1,0,0,False
77,Cryptocurrency News@ccrypto_news,"Overstock Blockchain Subsidiary to Develop Land Registry in Tulum, Mexico #cryptocurrency #bitcoin #ethereum #ico https://itradeico.com/2019/02/overstock-blockchain-subsidiary-to-develop-land-registry-in-tulum-mexico/43391…",0,0,0,False
78,MG@macaddress007,Replying to @cburniskeSo #Bitcoin is the FaceSpace of #crypto?,0,0,0,False
79,FiduLink@FiduLink,"Replying to @TahitienDuSudDISCOVER CAXI NEW ICO 

BECOME PARTNERS 
http://mycaxi.com 
Contact : info@mycaxi.com 

#trading #cryptocurrency #Traders #Ethereum #altcoin #Zcash #monero #Bitcoin #BitcoinCash #GoodNews #investments #Millionaire",1,1,0,False
81,AlgoryProject@AlgoryProject,"Kraken Acquires Crypto Derivates Startup for at Least $100 Million

Read more: https://app.algory.io/app/cryptonews/502656/kraken-acquires-crypto-derivates-startup…
#cryptocurrency #cryptonews #crypto #algory #trading #cryptotrading",0,0,0,False
82,Cryptocurrency News@ccrypto_news,Crypto Valley Assoc. Pres.: Switzerland Must Be ‘Open and Easy’ for Blockchain Investors #cryptocurrency #bitcoin #ethereum #ico https://itradeico.com/2019/02/crypto-valley-assoc-pres-switzerland-must-be-open-and-easy-for-blockchain-investors/43387…,0,0,0,False
83,CryptoNewswire @CryptoNewswire,Regulatory Bodies Fear Cryptocurrency's Impact on Rupee - https://cryptonewswire.com/regulatory-bodies-fear-cryptocurrency-s-impact-on-rupee… $BTC #altcoins #trading #bitcoin,0,0,0,False
84,CryptoNewswire @CryptoNewswire,Australian bitcoin exchange Independent Reserve adds insurance protection - https://cryptonewswire.com/australian-bitcoin-exchange-independent-reserve-adds-insurance-protection… $BTC #blockchain #cryptocurrency #bitcoin,0,0,0,False
85,Coin Spectator - Real-time cryptocurrency news@coinspectator,Crossroads with a certain bullish fragrance #bitcoin #ethereum #altcoins trade bitcoins https://coinspectator.com/news/1230599/crossroads-with-a-certain-bullish-fragrance…,0,0,0,False
86,Hisham Dalle@hishamdalle,"The longer the #crypto bear market, the better. People need to forget it exists before the next bull run",2,1,0,False
87,Census K Lo-liyong@censk,"To my #cryptocurrency #bitcoin , please explain the way forward.Quote TweetSky News@SkyNews · Feb 4, 2019Canada cryptocurrency firm says it cannot repay $190m to clients after its founder died with their passwords http://po.st/CYM8La",0,0,0,False
88,Andrew Cox@andrewwcox,"Why the #Bitcoin Price Will Reject the #Bulls and Crash Even Lower
https://ccn.com/why-the-bitcoin-price-will-reject-the-bulls-and-crash-even-lower…
#Cryptocurrency #bearmarket",1,0,0,False
89,cash Card CRYPTO ⟠@CashCardCrypto,"@primotoys ~ hey there! We #love http://pigzbe.com so wanted to let you know there's a typo on your https://kickstarter.com/projects/primotoys/pigzbe… page ... ""chord"" > ""cord""!
Oh and Hi5 for using #USB-C 
#Bitcoin #crypto #ethereum 
PS: @wirexapp & @tokencard_io are EPIC",1,0,0,False
90,Paul Leary@paulleary,"#Cryptocurrency Exchange Says It Can't Access Millions After CEO Unexpectedly Died : NPR https://npr.org/2019/02/04/691296170/cryptocurrency-exchange-says-it-cant-access-millions-after-founder-s-unexpected… @QuadrigaCoinEx CEO's laptop is encrypted, and he didn't share the password with anyone. — has anyone tried C:\del *.*",0,0,0,False
91,Coin Spectator - Real-time cryptocurrency news@coinspectator,Crypto CEO dies with the password to unlock $200+ million of customer... #bitcoin #altcoin #ico Business https://coinspectator.com/news/1230597/crypto-ceo-dies-with-the-password-to-unlock-200-million-of-customers-bitcoin-boing-boing…,3,0,0,False
92,FiduLink@FiduLink,"DISCOVER CAXI NEW ICO 

BECOME PARTNERS 
http://mycaxi.com 
Contact : info@mycaxi.com 

#trading #cryptocurrency #Traders #Ethereum #altcoin #Zcash #monero #Bitcoin #BitcoinCash #GoodNews #investments #Millionaire #StockMarket #WallStreet",2,2,1,True
93,Pizzawo1f@Pizzawo1f,"Turn your phone into a hardware-like, secure blockchain wallet - https://enjinwallet.io #enjinwallet #ethereum #bitcoin #litecoin #cryptocurrency #cryptowallet",0,0,0,False
94,WarnerPB@Boutonski,"Crypto exchange @Krakenfx acquires @CryptoFLtd - @romaindillet
#fintech #cryptocurrency #digitalcurrency #blockchain
https://tcrn.ch/2t12eUS",1,0,0,False
95,AMBCrypto@CryptoAmb,"Bitcoin [BTC] prices could skyrocket by 84% by the end of the year, says Ben Ritchie
https://ambcrypto.com/bitcoin-btc-prices-could-skyrocket-by-84-by-the-end-of-the-year-says-ben-ritchie/…
$BTC #ETH $ETH #Ripple #BTC #Bitcoin #Ethereum $xrp #BitcoinCash #Altcoins",3,2,0,False
96,The Currency Scene@CurrenScene,"#currency #cryptocurrency Profiling the technology used by Facebook to mark its 15th birthday: Technology is key to almost any endeavour in this day and age, and this is no different with one of business’ greatest success stories http://tinyurl.com/y7y2rjlk",0,0,0,False
97,digital mine @digital_mine_,"Historical performance of #BITCOIN against #EURO:
first price:97.0
last price:2991.7
EARNINGS:2984.23%
1.51% per day
10.59% per week
45.38% per month
544.51% per year
PERIOD:
5.48 years
65.77 months
281.86 weeks
1972.99 days
#BTC #BLOCKCHAIN #CRYPTOCURRENCY",0,0,0,False
98,Ty (s@) Sign @bitficus,"From a ""non-technical"" perspective,  changing the block size limit seems like such an elementary change to the bitcoin protocol. 

If you're going to make a #bitcoin hardfork, at least try a little harder.

#crypto #cryptocurrency #ICO",1,0,0,False
99,Remi Vee @Remi_Vladuceanu,"Crypto Wallet Says It Offers ‘World’s Fastest Bitcoin Transfer’ as New Feature Launches
https://tribetica.com/crypto-wallet-says-it-offers-worlds-fastest-bitcoin-transfer-as-new-feature-launches/…

http://reddit.com/r/tribetica
#newsoftheweek #Bitcoin #blockchain #crypto",3,0,0,False
100,ℭ𝔥𝔯𝔦𝔰𝔱𝔦𝔫𝔢@ChrisHODL,"Apple MacBook PRO 13 (Early 2011)16GBRAM 1TBHDD Customized LowPrice #Jailbreak #Bitcoin #Coinbase #Blockchain #Cydia #Crypto #binance #tron #xlm #litecoin ⁠⁠ #BirdBoxChallenge #younetflix ⁠#Xrp #tpay #TedBundyTapes #VelvetBuzzsaw #Amazon #netflixApple MacBook Pro A1278  13.3"" Laptop - MC700LL/A (February, 2011) for sale online | eBayFind many great new & used options and get the best deals for Apple MacBook Pro A1278  13.3"" Laptop - MC700LL/A (February, 2011) at the best online prices at eBay! Free shipping for many products!ebay.com",1,0,0,False
101,Coinboard@Coinboard,TurboTax Officially Adds #Cryptocurrency Implementation http://twib.in/l/gEnnzrBykMba via @InsideBitcoins #bitcoin,1,0,0,False
102,Coach AKA Dvs Mak@CoachAKADvsMak,"Musicoin Mobile App Download. Both Android And IOS Links Right Here.
#Musicoin #CryptoCurrency
#AppPaysMusicians #MusicStreamingQuote TweetRawhiphopmagazine@RawHipHopMag · Feb 4, 2019Download The New #Musicoin #MobileApp It’s Available For Android Or IOS.  Tipping In The App Really Pays The Musician, And At No Cost 2 U. #MusicCryptocurrency
http://bit.ly/MusicoinApple
http://bit.ly/MusicoinGoogle",4,0,0,False
103,BFM@mracinginc,"Join me to get @Listia's new $XNK #cryptocurrency for free! Use code ""BBFRYL"" for an extra 100 XNK. Just got this with my Ink, 1984 topps Ray bourque hockey card  https://listia.com/r2ia6sb/BBFRYL",0,0,0,False
104,Coinboard@Coinboard,"#Bitcoin, Ripple, Ethereum, EOS, Bitcoin Cash, Litecoin, Tron, Stellar, Bitcoin SV, Cardano: Price Analysis, Feb. 4 http://twib.in/l/qj55Adqo6prG via @CoinTelegraph #cryptocurrency",0,0,0,False
109,CoinPath@coinpath,"Tron [TRX] becomes the only coin to register growth over 30 days, finds report https://news.coinpath.io/tron-trx-becomes-the-only-coin-to-register-growth-over-30-days-finds-report/… ##TRX #Altcoins #HideCryptopanic #News #Social #TRON",0,0,0,False
110,CoinPath@coinpath,"Bitcoin [BTC] prices could skyrocket by 84% by the end of the year, says Ben Ritchie https://news.coinpath.io/bitcoin-btc-prices-could-skyrocket-by-84-by-the-end-of-the-year-says-ben-ritchie/… #BenRitchie #Bitcoin #BTC #Cryptocurrency #HideCryptopanic #News #Social",0,0,0,False
111,Yuliya S@YuliyaTagan,I believe this project will reach high results. Take part in it right now! Don't miss this! @NotmPlatform and #crypto #investments https://notm.io @NotmPlatform,0,0,0,False
112,AlgoryProject@AlgoryProject,"Alphacat expands ACAT Store and adds user reviews in January development

Read more: https://app.algory.io/app/cryptonews/502652/alphacat-expands-acat-store-and-adds…
#cryptocurrency #cryptonews #crypto #algory #NEO #ACAT #BOT #ACE #NEO #Alphacat #Bodhi #Ace",0,0,0,False
113,CryptoStare@CryptoStare,"If you are considering buying #Stellar #XLM right now, take a look at our statistics first - https://buff.ly/2jBSNXe. As for now, #Stellar #XLM is close to its 30 days low with current price around $0.0803643332067. #cryptostare, #cryptocurrency, #red",0,0,0,False
114,William H@William74929069,"Earning #cryptocurrency for selling my stuff on @Listia! Join me using code ""DFJFGQ"" for an extra 100 XNK. I just listed this: WWE NXT Refractor Lot (9) https://listia.com/r2ibpir/DFJFGQ",0,0,0,False
115,Kelly Crypto@kellysiqili,"#CRYPTO is shooting up! Use https://cryptolume.co to find where COINS are moving. Track crypto with HIGH buyers and moving in PRICE!

#BTC #ETH $B2G $MKR $NPXS $ETP $THETA $BNB $TRX $WTC $GNT $IOST $HOT $AION $MCO $LTC $PIVX $MAID $XVG $ODE",1,0,0,False
116,"James A. Todaro, Former CPA@JamesATodaro","@StandsReady.  Thank you for the RT.  I just added 24,000 (an extra 12,000 for the RT vs the DM) to ProLife at https://powervote.io/the-vote-count. These PowerVotes #crypto coins are yours and you can have them back at any time.  Thank you!THE SCOREBOARD | PowerVotepowervote.io",1,0,0,True
117,Substratum@SubstratumNet,"Discovering Blockchain in Software Solutions - Equal Access For All by @Forbes featuring @overridepro 

https://forbes.com/sites/geraldfenech/2019/02/04/discovering-blockchain-in-software-solutions-equal-access-for-all/…
#substratum $sub #cryptocurrency #blockchain #technology #NetNeutrality #internetcensorshipDiscovering Blockchain In Software Solutions - Equal Access For AllJustin Tabb is CEO of Substratum which is looking at blockchain technology as a way to improve web hosting as well as new software solutions. His ambitious plans make for interesting reading.forbes.com",136,63,9,False
118,Coin News Data@coinnewsdatacom,Local Media: Iran Reportedly in Talks With 8 Countries to Use Crypto Transactions https://cointelegraph.com/news/local-media-iran-reportedly-in-talks-with-8-countries-to-use-crypto-transactions… #cryptocurrency #blockchain #coinnewsLocal Media: Iran Reportedly in Talks With 8 Countries to Use Crypto TransactionsIran is reportedly in negotiations with eight countries to use cryptocurrencies for international transactions.cointelegraph.com,1,0,0,False
119,Niklas Feurstein@FeursteinP2P,Bitcoin Price Trades Sideways as Crypto Market Pines for More Volatility #cryptocurrency #altcoin https://ccn.com/bitcoin-price-trades-sideways-as-crypto-market-pines-for-more-volatility…,2,1,0,False
120,Coin Spectator - Real-time cryptocurrency news@coinspectator,Australian bitcoin exchange Independent Reserve adds insurance protection #btc #altcoins #ico https://coinspectator.com/news/1230594/australian-bitcoin-exchange-independent-reserve-adds-insurance-protection…,0,0,0,False
121,TheStartupFounder.com (Alejandro Brega)@founder_startup,"Cryptos Are Crashing, the 2019 prices hit an all-time low #cryptocurrency #bitcoin #money https://thestartupfounder.com/cryptos-are-crashing-the-2019-prices-hit-an-all-time-low/…",1,0,0,False
122,Cimit Girl@Si_Bounty_Girl,"Great interesting and promising project. I follow the news, it is a good profesional team, I wish good 
with @joinPozess
#Pozess #PozesslCO #PozessToken #Crypto",1,0,0,False
123,Criptomonedaseico@Criptomonedaico,"#CriptoMonedaseICO Could Low Issuance Rate on Ethereum Mean Higher Prices? - http://tinyurl.com/y9s73ew4
 -  
By @criptomonedaseico - 
#trader #trading #altcoin #decentralize #hashrate #bitcoins #bitcoin #cryptocurrency #blockchain #newspictures #btc #bitcoinnews #crypto",0,0,0,False
124,CoinSpotter.eu@CoinSpotterEU,"Institutional-Grade Crypto Exchange Lists XRP, EOS, Tron and Stellar, Paired With Bitcoin, Ethereum and Fiat https://coinspotter.eu/2019/02/04/institutional-grade-crypto-exchange-lists-xrp-eos-tron-and-stellar-paired-with-bitcoin-ethereum-and-fiat/… #cryptocurrency #bitcoin #eth #btc #ICO #news",0,0,0,False
132,CoinSpotter.eu@CoinSpotterEU,"SEC to Surveil Crypto Transactions on Leading Ledgers – Are Bitcoin, XRP and Ethereum Fair Game? https://coinspotter.eu/2019/02/04/sec-to-surveil-crypto-transactions-on-leading-ledgers-are-bitcoin-xrp-and-ethereum-fair-game/… #cryptocurrency #bitcoin #eth #btc #ICO #news",0,0,0,False
133,CryptoNewswire @CryptoNewswire,GAS/BTC 1.5 Month Low - Gas (GAS) price reaches 1.5 Month Low - $GAS $BTC #gas #fintech #altcoins,2,0,0,False
134,Get Ur Solution@GetUrSolution,Bitcoin Price Trades Sideways as Crypto Market Pines for More Volatility https://ccn.com/bitcoin-price-trades-sideways-as-crypto-market-pines-for-more-volatility… #cryptonews #crypto #blockchain #news via CryptoCoinsNews,0,0,0,False
135,AlgoryProject@AlgoryProject,"Kraken Acquires Futures Provider Crypto Facilities

Read more: https://app.algory.io/app/cryptonews/502646/kraken-acquires-futures-provider-crypto…
#cryptocurrency #cryptonews #crypto #algory #trading",0,0,0,False
136,AlgoryProject@AlgoryProject,"Bitcoin Price Trades Sideways as Crypto Market Pines for More Volatility

Read more: https://app.algory.io/app/cryptonews/502645/bitcoin-price-trades-sideways-as-crypto…
#cryptocurrency #cryptonews #crypto #algory #BTC #BCH #Bitcoin #BitcoinCash",0,0,0,False
137,WolfpackBOT@TheWolfpackBOT,"With WolfpackBOT and the Wolfcoin Blockchain, you get the all-in-one trading solution to maximize your #cryptocurrency trading potential.  

These are the results of 24 hours of successful trading with  WolfpackBOT Automated Trading Software, the world's fastest trading bot.",13,16,1,False
138,Robostopia™@robostopia," #Robostopia Smart #CryptoCurrency Trader Bot for #Binance and #Bittrex
 Trailing Stop-Loss, Buy or Sell #altcoins / BTC pairs.
 Auto Renew Orders
 Profit / Loss notifications by transactions.
 Completed Order notifications and many more..
 http://robostopia.com",0,0,0,False
139,Avocado by Proof@AvocadoByProof,"Results are in for the last 10 minutes: the best crypto performer is #Maker (7.8%), while the biggest loser is #Dogecoin (-0.6%). ||| Greatest overall change (price or volume) is: #Maker with a 7.8% positive change in price #crypto https://bit.ly/2zPNY7s",0,0,0,False
140,Bad Boys of Tech #podcast@BadBoysofTech,"Nearly 80% Of Attendees At #Crypto-Focused Events Are Male! Let's change this! Who are the Women in Crypto out there? Like, comment & RT this!  @Rachelwolf00 latest @forbes article: https://buff.ly/2REcmN7 #blockchain #cryptocurrency #CryptoChicks #TheCryptoChick #StayBad",6,2,4,False
141,BlockNine@BlockNineAgency,"Will #Amazon develop their own #altcoin? 

#CZ from #Binance thinks it is inevitable - ensuring easier and faster payments.

What do you think? Will #Crypto, specifically #bitcoin, become the default currency for the internet?Amazon ‘Will Have to’ Create Its Own Crypto in Future, Binance CEO SaysRetail behemoth Amazon will have no choice but to leverage cryptocurrency payments, Binance’s Changpeng Zhao forecast.cointelegraph.com",0,0,0,False
142,Donald @DonaldPorterJM,States Dipping Toes in #Crypto & #Blockchain https://youtu.be/h-xtcLaE7To via @cryptomentor99States Dipping Toes in Crypto & Blockchainhttps://www.forbes.com/sites/tedknutson/2019/02/04/state-dipping-toes-into-crypto-blockchain/#5e80fb87131dVideo on Honor & Respect: https://www.youtube.com/w...youtube.com,1,0,0,False
143,Domain Address Info@DomainAddress4u,I made a simple alternative to Remix IDE. PRs and suggestions are welcome! via /r/ethereum http://bit.ly/2UICfgN hot  in #reddit #ethereum #eth #cryptoI made a simple alternative to Remix IDE. PRs and suggestions are...Posted in r/ethereum by u/ImAFlyingPancake • 33 points and 8 commentsreddit.com,0,0,0,False
144,Matthew Tumbokon@MattTumbokon,"Join me to get @Listia's new $XNK #cryptocurrency for free! Use code ""DKGMLJ"" for an extra 100 XNK. Just got this with my Ink, MEDIUM FLAT RATE BOX FULL OF SPORTS CARDS!!!!!MEDIUM FLAT RATE BOX FULL OF SPORTS CARDS!!!!!A medium flat rate box full of memorabilia cards, autograph cards, serial numbered cards,and some commons. Includes football, baseball, basketball and some others.listia.com",0,0,0,False
145,Affiliyfuture 1@Affiliyfuture1,"Tron Releases Weekly Dapp Report: Total Number of Dapps Increases to Over 180 In the Past Year https://blokt.com/news/tron-releases-weekly-dapp-report-total-number-of-dapps-increases-to-over-180-in-the-past-year… via @bloktcrypto #Tron #EOS #Dapp #Decentralized #Apps #Network #Crypto #PROCHAIN #TronFoundationTron Releases Weekly Dapp Report: Total Number of Dapps Increases to Over 180 In the Past YearThe number of decentralized applications deployed on the Tron blockchain increased to 180, notes Tron in its weekly Dapp report.blokt.com",2,0,0,False
146,Mamavagna792@mamavagna792,"#margintoken #crypto #blockchain #ICO
@Pioneer58313387 is the project is very promising and progressive. Good and active work of the team is visible. I want to wish everyone great success.
http://margintoken.info",0,0,0,False
147,Coin Spectator - Real-time cryptocurrency news@coinspectator,What is Litecoin Halving? #blockchain #ethereum #crypto Round The Block https://coinspectator.com/news/1230590/what-is-litecoin-halving…,0,0,0,False
148,Steve Arquillo@starquillo,"Turn your phone into a hardware-like, secure blockchain wallet - https://enjinwallet.io #enjinwallet #ethereum #bitcoin #litecoin #cryptocurrency #cryptowallet",0,0,0,False
149,Yuliya S@YuliyaTagan,This project is immaculate! I can't find anything what I don't enjoy about it. This is nothing but outstanding! @NotmPlatform and #crypto #investments https://notm.io @NotmPlatform,0,0,0,False
150,LazyMF@LazyMFofficial,"LONG Bullish_Hammer BTCUSD TF[30] | 2019.02.05 01:13
  Powered BY: http://bit.ly/HulkSmashMF Join:https://t.me/ScalpingMF for real time updates with charts #Bitcoin #Crypto #bitmex #trading #HulkSmash #BitcoinMFThe following media includes potentially sensitive content. Change settingsView",0,0,0,False
151,SatoshLuk   ₿ ⟠  @satoshluk,"I find that Onex is one of the most original and highly attractive #crypto projects made recently and its #Bounty campaign is definitely something not to be missed! 
#onexQuote TweetONEX Network@onexnet · Feb 4, 2019We are announcing a partnership with #Bounty0x to host ONEX #bounty. ONEX Network a Proof-of-Stake #ERC223 token on the #ETC Network.
https://beta.bounty0x.io/hosts/ONEXNetwork…",1,0,0,False
152,Coin ShakeDown@CoinShakedown,"Major Blockchain Investors Arrington XRP, NEO Global Back DEX-Focused Startup

https://cointelegraph.com/news/major-blockchain-investors-arrington-xrp-neo-global-back-dex-focused-startup…
#btc #bitcoin #crypto #cryptocurrencies #blockchain #ico #eth #xrp #airdrop #ethereum #news #price #ltc #trading #mining #kodak #usd #cryptocurrencymarket #ripple #altcoi",3,0,0,False
153,AlgoryProject@AlgoryProject,"Australian bitcoin exchange Independent Reserve adds insurance protection

Read more: https://app.algory.io/app/cryptonews/502639/australian-bitcoin-exchange-independent…
#cryptocurrency #cryptonews #crypto #algory #BTC #Bitcoin",0,0,0,False
154,Jayden Crypto @jayden_crypto,"Facebook Makes First Blockchain Acquisition With Chainspace $BTC $ETH #crypto
https://cheddar.com/videos/facebook-blockchain-acquisition-chainspace…",9,2,1,False
155,The Cardano Report™@_Cardano_ADA,"At least 4 EMURGO executives will fly in for a special NYC Cardano meetup! Join us at the dLab/EMURGO Fellowship and Accelerator inaugural kickoff meetup in NYC on Feb. 13! Click for details. https://meetup.com/NYC-Cardano-Blockchain-Group/events/258623347/… …
https://twitter.com/emurgo_io/status/1092553776609873920…
#Blockchain #Crypto #Cryptocurre…Quote TweetEMURGO@emurgo_io · Feb 4, 2019At least 4 EMURGO executives will fly in for a special NYC Cardano meetup!  Join us at the dLab/EMURGO Fellowship and Accelerator inaugural kickoff meetup in NYC on Feb. 13! Click for details. https://meetup.com/NYC-Cardano-Blockchain-Group/events/258623347/…",2,0,0,False
156,HM@hmoskovits,Finally someone with a secure password! https://foxnews.com/tech/cryptocurrency-exchange-chief-dies-with-passwords-needed-to-unlock-customers-190m-reports-say… #Crypto,1,0,0,False
157,Fat Pig Signals@fatpigsignals,"26-1 February  - Although we have endured some losses due to market conditions, many of our third and second targets were achieved, including Target 3 on Moeda Loyalty Points, Target 3 on Selfkey, and Target 2 on Populous. Overall, us in VIP are still gaining a lot. #crypto #btc",7,7,1,False
158,bro@avi_mizrahi,"Bitcoin Cash Clothing Charity Expands to a Dozen Cities Across Canada #bitcoin #cryptocurrency #blockchain #ethereum #ICOBitcoin Cash Clothing Charity Expands to a Dozen Cities Across Canada – Services Bitcoin NewsCoins 4 Clothes, a cryptocurrency charity that rewards people with bitcoin cash (BCH) for donating gently used items of clothing, has announced the Coins 4 Clothes, a cryptocurrency charity that...news.bitcoin.com",1,0,0,False
159,BTC21@21BitcoinBitch,"2k20 Bitcoin
#bitcoin #Crypto #cryptocurrency1000,00 $0%10.000,00 $80%100.000,00 €20%Bit...what?0%5 votes·Final results",0,0,0,False
160,Sunny Muneeta@SunnyMuneeta,How to calculate Liquid Bees gains? http://dlvr.it/QyBQVp #tradingtips #trading #stocks #traderwisdom #future #crypto,1,0,0,False
161,CryptoLauren@otc_cyborg,QuadrigaCX Can’t Access $190 Million in Crypto After Founder Dies http://bit.ly/2BjN2qm #bitcoin #blockchain #cryptocurrency #BTC #ICO #ethereum #eth #doge #xrp #ltc #crypto #fintech @BIGMONEYMIKE6 @justinsuntron #TEAMBILLIONAIRE #BMM #MONEYGANG #profits #forex #mmj $AAPL #st…,0,0,0,False
162,Denilson Andrade@andradenig,"654888 USDT  Airdrop Are Waiting 
Register Now To Get Airdrop
Scan & Register to claim your candy
My promo code: y7px59

#digifinex #Airdrop #Airdrops #airdropwallet #USDT #exchange #cryptocurrency #Crypto",0,0,0,False
163,Coin Spectator - Real-time cryptocurrency news@coinspectator,Alchemint reports smooth operations since MainNet launch in Januar... #ethereum #altcoins #fintech SDUSD https://coinspectator.com/news/1230587/alchemint-reports-smooth-operations-since-mainnet-launch-in-january-update…,0,0,0,False
164,Callum Roxburgh@CMRoxburgh,"@LucreToken  token which will track the performance of the Algo. The price will be updated regularly to accurately reflect the value of the underlying Crypto assets being traded by the Algo. 
#crypto #ICO #Lucre #LCR
https://lucretoken.com",0,0,0,False
165,Coin Spectator - Real-time cryptocurrency news@coinspectator,Blockchain in Fintech Market to 2027- Global... #cryptocurrency #ethereum #altcoin The Insight Partners https://coinspectator.com/news/1230585/blockchain-in-fintech-market-to-2027-global-analysis-and-forecasts-by-provider-application-and-end-use…,0,0,0,False
166,CryptoNewswire @CryptoNewswire,Bitcoin Cash Clothing Charity Expands to a Dozen Cities Across Canada - https://cryptonewswire.com/bitcoin-cash-clothing-charity-expands-to-a-dozen-cities-across-canada… $BCH $BTC #altcoin #crypto #news,0,0,0,False
167,Mamavagna792@mamavagna792,Help change the way we trade with @BeLLPlatform security platform! #BeLLCoin #BeLLPlatform #BeLLDEX #blockchain #ethereum #bitcoin #cryptocurrency #ICO #tokensale,0,0,0,False
168,BitStash@bitstashco,"Over 1,200+ Products Available to Purchase with $STASH #STASH #Cryptocurrency #CRYPTO #BITSTASH #CryptoMarket https://bitstash.co/over-1200-products-available-to-purchase-with-stash/…",10,1,1,False
169,BitcoinAgile@bitcoinagile,r/cryptocurrencymemes - Our savior Andreas Antonopoulos has spoken! #Bitcoin #Cryptocurrency #Blockchain $BTCOur savior Andreas Antonopoulos has spoken!Posted in r/cryptocurrencymemes by u/braincrowd • 12 points and 4 commentsreddit.com,0,0,0,False
170,Saurabh Gunjal  Minis@SaurabhPGunjal,Our savior Andreas Antonopoulos has spoken! http://bit.ly/2Ty3fiE #Bitcoin $BTC #Cryptocurrency #Blockchain #Crypto,1,0,0,False
171,Saurabh Gunjal  Minis@SaurabhPGunjal,Our savior Andreas Antonopoulos has spoken! http://bit.ly/2BeejdR #Bitcoin $BTC #Cryptocurrency #Blockchain #Crypto,0,0,0,False
172,The Bitcoin News ₿@TheBitcoinNews,"Bitcoin Cash Clothing Charity Expands to a Dozen Cities Across Canada - http://bit.ly/2WFQ2Xc
#bitcoin #btc #bitcoinnews #cryptocurrency #blockchain #cryptocurrencynews",0,0,0,False
173,New_Profit_Coins@new_profit,"Ichiba

Discord:
https://discord.gg/kQCE4h

Website :
https://ichiba.io

Twitter  : 
https://twitter.com/IchibaCoin

Bitcointalk thread  : 
https://bitcointalk.org/index.php?topic=5101947…

Telegram Community : 
https://t.me/IchibaCoin

Explorer :
http://explorer.ichiba.io
#cryptocurrency",0,0,0,False
174,Crypto Signaler@Crypto_Signaler,Weekly Report #Crypto #Signaler #Signal #Cryptocurrency #Coin #Bitcoin #BTC #Blockchain #Binance #Trade #Exchange #NULS #LINK #WAVES #POE #BTS #EOS #SC #GO #DCR,0,0,0,False
175,Coin Spectator - Real-time cryptocurrency news@coinspectator,India: Regulatory Bodies Fear Cryptocurrency’s Impact on Rupee #bitcoin #altcoin #fintech fiat https://coinspectator.com/news/1230582/india-regulatory-bodies-fear-cryptocurrencys-impact-on-rupee…,0,0,0,False
176,The Cardano Report™@_Cardano_ADA,"A Court Date for QuadrigaCX: What to Expect at Tomorrow’s Hearing
https://cryptoinvestornews.net/post/182564343081…
#Blockchain #Crypto #Cryptocurrency #Altcoin",0,0,0,False
177,AlgoryProject@AlgoryProject,"Crypto Update: Bearish Drift Continues in Crypto-Land

Read more: https://app.algory.io/app/cryptonews/502635/crypto-update-bearish-drift-continues…
#cryptocurrency #cryptonews #crypto #algory #trading",0,0,0,False
178,Criptomonedaseico@Criptomonedaico,"#CriptoMonedaseICO Bitbuy Continues to Scale Despite Recent Events in the Cryptocurrency Industry - http://tinyurl.com/yd33q299
 -  
By @criptomonedaseico - 
#trader #trading #altcoin #decentralize #hashrate #bitcoins #bitcoin #cryptocurrency #blockchain #newspictures",0,0,0,False
179,Ferdie Buying@FerdieBuying,"Guess what..Dagcoin has it all!
#crypto #Cryptocurrency #opportunity #dagit #business #dagtechnology #MLM",0,0,0,False
180,Blockchain tech Fan@bitallcoins,Bitcoin Cash Clothing Charity Expands to a Dozen Cities Across Canada http://bit.ly/2WDHAHU #bitallcoins #cryptocurrency #bitcoin #blockchain #crypto #ethereum #btc #litecoin #money #trading #forex #bitcoinmining #eth #bitcoins #investing #mining #cryptonews #icos,1,0,0,False
181,The Artist Formerly Known As Sheriff@pawnshoppuppet,"Thread.  #CryptoQuote TweetCharles McGarraugh@CMcgarraugh · Feb 4, 20191/27 The lender of last resort has a challenge when called on to act. Backstopping system wide asset-liability mismatch requires a differentiation between ""liquidity problem"" and ""solvency problem.""",0,0,0,True
182,Jason Pittam@mikaelpittam,Early access to automated #crypto investing + $10 match for your first #investment https://buff.ly/2QslOr6,0,0,0,False
183,Cryptocurrency Alert@Cryptoc46572563,"Cryptocurrency top gainers(04,Feb 18:20)

[Crypviser(CVCOIN)]  12.1 times
[Monero Gold(XMRG)]  10 times
[Webcoin(WEB)]  10 times
[HiCoin(XHI)]  3.7 times
[MyToken(MT*)]  3.3 times
*Last 24hour max

Learn more -> https://coins.lat/top-gainers
#Cryptocurrency #bitcoin",0,0,0,False
184,Colmore Fx@ColmoreFx,Could Low Issuance Rate on Ethereum Mean Higher Prices #Crypto #CryptoNews #cryptocurrency #cryptotrading https://buff.ly/2WG3UAF,0,0,0,False
185,Remi Vee @Remi_Vladuceanu,"Visualizing Bitcoin Adoption Across the Globe
https://tribetica.com/visualizing-bitcoin-adoption-across-the-globe/…

http://reddit.com/r/tribetica
#newsoftheweek #Bitcoin #blockchain #crypto",1,0,0,False
186,Colmore Fx@ColmoreFx,A Court Date for QuadrigaCX: What to Expect at Tomorrows Hearing #Crypto #CryptoNews #cryptocurrency #cryptotrading https://buff.ly/2REb84t,0,0,0,False
187,Cryptocurrency Alert@Cryptoc46572563,"Major Cryptocurrency latest prices(04,Feb 18:20)

[Bitcoin(BTC)]  3,430.10 USD
[Ethereum(ETH)]  106.83 USD
[XRP(XRP)]  0.30 USD
[Bitcoin Cash(BCH)]  117.82 USD
[Litecoin(LTC)]  34.05 USD

Learn more -> https://coins.lat
#Cryptocurrency #bitcoin",0,0,0,False
188,Brent@blockchainblitz,"Great interview of @CredibleCrypto - a guy I highly respect in #crypto for his objectivity and clear thinking. Def worth a read!
@ClearHeadCrypt0Quote TweetClear Head Crypt0@ClearHeadCrypt0 · Feb 2, 2019If you're interested in learning about foundational concepts of trading and thoughts on the crypto markets, check out my interview with @CredibleCrypto! 

“Price Wars: The Pillars of Trading” by Clear Head Crypto
 https://link.medium.com/U3UGD9qxZT",9,3,1,False
189,moneyblockchain@moneyblockchain,"Name: Moeda Loyalty Points
Symbol: MDA
Volume 24hr: 1,111,793.91406
Marketcap: 14,051,390.0977
Percent Change 1hr: -0.06
Price: $0.71585 USD
URL: http://coinmarketcap.com/currencies/moeda-loyalty-points…
#crypto #bitcoin #adk #aidoskuneenMoeda Loyalty Points price today, MDA live marketcap, chart, and info | CoinMarketCapGet the latest Moeda Loyalty Points price, MDA market cap, trading pairs, charts and data today from the world’s number one cryptocurrency price-tracking websitecoinmarketcap.com",0,0,0,False
190,Colmore Fx@ColmoreFx,Bitcoin Cash Clothing Charity Expands to a Dozen Cities Across Canada #Crypto #CryptoNews #cryptocurrency #cryptotrading https://buff.ly/2REnppo,0,0,0,False
191,AlgoryProject@AlgoryProject,"Alchemint reports smooth operations since MainNet launch in January update

Read more: https://app.algory.io/app/cryptonews/502633/alchemint-reports-smooth-operations…
#cryptocurrency #cryptonews #crypto #algory #USDT #NEO #TUSD #SWTH #SOUL #Tether #NEO #TrueUSD #Switcheo #Phantasma #blockchain #trading",0,0,0,False
192,Coin Spectator - Real-time cryptocurrency news@coinspectator,Bitcoin Cash Clothing Charity Expands to a Dozen Cities Across Canada #blockchain #crypto #altcoins https://coinspectator.com/news/1230580/bitcoin-cash-clothing-charity-expands-to-a-dozen-cities-across-canada…,1,0,0,False
193,Avocado by Proof@AvocadoByProof,"Results are in for the last 10 minutes: the best crypto performer is #Dogecoin (0.6%), while the biggest loser is #Maker (-2.8%). ||| Greatest overall change (price or volume) is: #IOTA with a 28.2% positive change in volume #crypto https://bit.ly/2zPNY7s",0,0,0,False
194, Bull Flag Group @BullFlagGroup,"Typical Monday - More #Facebook #Crypto Rumors. But this might actually be something. 

#Crypto #Bitcoin #facebook
https://ccn.com/breaking-facebook-crypto-project-acquires-blockchain-startup-specializing-in-smart-contracts…",1,0,0,False
195,Max @MaximusConSec,I think a small run is about to start #crypto #bullrun #Blockchain #XRPCommunity,4,2,0,False
196,ReadBTC@readbtc,"#Facebook #Crypto Project Acquires #Blockchain #Startup Specializing in #SmartContracts.

Source: https://bit.ly/2t70hX2
#cryptocurrencymarket #CryptoTwitter #CryptoNews #cryptocurrencies #btc #altcoins #cryptocurrencyGIF",2,0,0,False
197,null2ten@null2ten,https://arxiv.org is a great place to find out how to do research and how to create cutting edge apps and more. Research should be accessible to people that need and should be made open whenever possible. #openresearch #research #science #education #compsci #cryptocurrency,1,0,0,False
198,Jeff@JeffYoung202,"Pacifico Energy Commences Construction of 42 MW Mega #SolarPower Plant in Iwaki, #Fukushima  #smarthouse #Crypto #ICO",0,0,0,False
199,Ricch@RicchLondon,"Check out Novitec’s tuned Mcclaren 720s here : https://google.co.uk/amp/s/www.topgear.com/car-news/modified/novitecs-tuned-mclaren-720s-nearly-extreme-senna%3famp…
#ff
#followfriday
#followback
#giveaway
#contest
#win
#competition
#crypto
#ico
#bitcoin
#funny
#photography
#pets
#happybirthday
#birthday
#influencer
#influencermarketing
#medicare
#healthinsurance
#RICCH",4,0,0,False
200,Nautica Ninja @NauticaNinja,"People can kill movements by trying to distinguish themselves too early. Forget the attention. Show love and keep building. The product will speak for itself

#crypto #hiphop #sports #culture",3,0,0,False
201,Analia Vulich@anacanob,"Join me to get @Listia's new $XNK #cryptocurrency for free! Use code ""BFJZKY"" for an extra 100 XNK. Just got this with my Ink, NWOT Goldtone Stud Earrings for Sensitive Ears https://listia.com/r2i8mzn/BFJZKY",0,0,0,False
202,Serghei Pogor@SergheiPogor,"Bitcoin Cash Clothing Charity Expands to a Dozen Cities Across Canada
#BTCPeek  Ways to Earn #free #bitcoin
#FreeBitcoin #BTC #FreeBTC #Money #cryptocurrency #crypto #blockchain #CaptainMarvel #NATO #moratoire",5,0,0,False
203,The Blockchain@TheBlockchain,A Court Date for QuadrigaCX: What to Expect at Tomorrow’s Hearing http://bit.ly/2HPRBi0 #blockchain #bitcoin #crypto,1,0,0,False
204,cyber chick@itsmcyberchick,"When you dont have a plan B; #Digital exchange loses $137 million as founder takes passwords to the grave https://arstechnica.com/?post_type=post&p=1450287…
#cryptocurrency #QuadrigaCX #encryption #IoT #PlanB #Continuity plan
#DR #ITSMC #ITSM #cybersecurity",3,0,0,False
205,Crypto Crunch@CryptoCptKrunch,$B2G is for Apple. 95.97% in past 24h Hours is for Jacks. Rising. #Cryptocurrency #Crypto #blockchain #altcoin #cryptolife #bitcointalk #decentralized,0,0,0,False
206,Envy Michaels@FadeToKaos,"Join me to get @Listia's new $XNK #cryptocurrency for free! Use code ""DMZQNS"" for an extra 100 XNK. Just got this with my Ink, Pokemon Plush Toy Leafeon 8"" Nintendo Game Cute Stuffed Animal Doll https://listia.com/r2i9zi6/DMZQNS",0,0,0,False
207,Coin Spectator - Real-time cryptocurrency news@coinspectator,Blockchain Identity Management market outloo... #bitcoin #crypto #fintech Blockchain Identity Management https://coinspectator.com/news/1230577/blockchain-identity-management-market-outlook-to-2027-scrutinized-in-new-research…,0,0,0,False
208,Krium - cryptocurrency@Kriumproject,#Krium is a #decentralized core that develops #software solutions for mobile #apps. The services on the App will have as our payment method our #cryptocurrency $KUM. more users = increasing and scalable market price . #BusinessIntelligence,5,1,0,False
209,Crypcited@crypcited,First Cinema in Brazil to Accept Bitcoin for Tickets https://cryptopanic.com/news/4472785/First-Cinema-in-Brazil-to-Accept-Bitcoin-for-Tickets… $BTC #cryptonews #crypto,4,3,0,False
210,CoinOK Crypto Exchange@coinok,Order your secure and smart BTC/ETH/Altcoin hardware wallet - Only 94.80 EUR https://ledgerwallet.com/r/4518?path=/products/ledger-nano-s… #bitcoin #btc #eth #altcoin 18:17,1,0,0,False
211,AlgoryProject@AlgoryProject,"Bitcoin Cash Clothing Charity Expands to a Dozen Cities Across Canada

Read more: https://app.algory.io/app/cryptonews/502631/bitcoin-cash-clothing-charity-expands-to…
#cryptocurrency #cryptonews #crypto #algory #BTC #BCH #RED #Bitcoin #BitcoinCash #RED",0,0,0,False
216,Free Audio Books@FreeBooksAudio,"FREE!!! #cryptocurrency #Audiobook valued at $19.95... Get your #bitcoin #ethereum #blockchain game up… don’t get left behind! http://bit.ly/cryptobig1 #btc #FreeBitcoin #crypto #FinTech #Bitcoins #eth #ico #passiveincome #investing #passive #income #future #futuresCryptocurrency: 4 Books in 1: Cryptocurrency, Bitcoin, Blockchain & Ethereum for BeginnersCheck out this great listen on Audible.com. This four-in-one bundle of FinTech Publishing's mind-blowing cryptocurrency series is all you need to learn all you need to get started on a lucrative path...audible.com",0,0,0,False
217,Bitcoin Florida Gator@gator_bitcoin,"Let’s see, how high am I right now? #Bitcoin #Btc #crypto @SouthPark @coinbase",8,1,2,True
218,Litecoin Cash (LCC)@LitecoinCash,"986 Blocks left before Hive is Live and you can Buy BEES!  Approx. 41 Hours. Make sure to read about Hive Mining before here:
https://hive.litecoinca.sh/guide/
#LCC #Blockchain #Crypto #BTC",41,16,2,False
219,Monero price $XMR@XMRprice,"Current Monero price:
1 XMR = 42.7549493841 USD

Market capitalisation:
$717003243.286

$XMR #XMR #Monero #Cryptocurrency",0,0,0,False
220,Crypto Millionaire App@eagletwitt3r,It sure would be a shame! Save your wealth in Crypto! #Bitcoin #Cryptocurrency #MAGA #Crypto #Ethereum #Litecoin #Ripple #EOS,0,0,0,False
221,alibabavb@alibabavb1,"#Decentraland is the first virtual platform owned by its users. Using a #VR #headset (or a web browser), you can interact with an immersive 3D world. #AliveCasino plans to build a casino component in this world #Alivecasino #VR gambling experience #Blockchain #cryptocurrency",1,0,0,False
222,Anil Kumar Gupta@hitechit,Exchange of Legal Money Tender or #Currency in Each Country into #Bitcoin or #Altcoins. https://localbitcoins.com/buy_bitcoins,0,0,0,False
223,Bit • ΞTH Finder@bitethfinder,High paying #Bitcoin #faucet & 50% lifetime referral commission https://buff.ly/2lPgqQ1 #makemoneyonline #btc #cryptocurrency,0,0,0,False
