,user,text,likes,retweets,replies,is_thread
0,Avocado by Proof@AvocadoByProof,"Results are in for the last 10 minutes: the best crypto performer is #Lisk (0.4%), while the biggest loser is #Steem (-1.3%). ||| Greatest overall change (price or volume) is: #Lisk with a 2% positive change in volume #crypto https://bit.ly/2zPNY7s",0,0,0,False
1,AlgoryProject@AlgoryProject,"NEO Colorado meetup to discuss NEO’s path to network decentralization

Read more: https://app.algory.io/app/cryptonews/473392/neo-colorado-meetup-to-discuss-neos…
#cryptocurrency #cryptonews #crypto #algory #NEO #NEO #blockchain",0,0,0,False
2,Adachi@SpectreAdachi,"Get yourself some XSPC from these exchanges!
InstantBitex: https://instantbitex.com/trade/pair/XSPC_BTC…
FinexBox: https://finexbox.com/market/pair/XSPC-BTC.html…
Lionbit: https://lionbit.exchange/market/67
Discord: http://discord.gg/9XCqN6k
@CoinSpectre
#cryptocurrency #masternode #altcoin #xspc #SpectreSecurity #bitcoin #EXCHANGE #buySpectreSecurity |XSPC-bitcoin digital assets Bitcoin/Ethereum/Litecoin/DogeCoin ExchangeFinexBox provides top level digital currency trading services for bitcoin, litecoin,ethereum,ripple,eos and more.invest worldwide digital assets Bitcoin/Ethereum/Litecoin/DogeCoin Exchangefinexbox.com",1,0,0,False
3,Cryptoactive Traders@CryptoactiveT,Leaders of South Korean Crypto Exchange Komid Jailed for Faking Volume #cryptonews #crypto #ct #blockchainLeaders of South Korean Crypto Exchange Komid Jailed for Faking Volume: Local MediaTwo leaders of South Korean cryptocurrency exchange Komid were reportedly sentenced to serve jail time for faking exchange volumes.cointelegraph.com,0,0,0,False
4,Cynthia T - AKA Bitcoin Mafia@Bitcoin_Mafia,@BitcoinerXcom is pleased to announce that we have been added as a media partner for London #Blockchain Week 2019 which is being held from February 8 - 14th. https://bitcoinerx.com/event/london-blockchain-week-2019/… Be sure to use promo code BCX20 for a 20% discount when you register! @FinTechWeek #Crypto,3,2,0,False
5,nah@mknjhill,"Join me to get @Listia's new $XNK #cryptocurrency for free! Use code ""DPYDRM"" for an extra 100 XNK. Just got this with my Ink, Narcos season 1. VuduNarcos season 1. VuduVerified Vudu code No discs includedlistia.com",1,0,0,False
6,KrakenPrices@KrakenPrices," Prices update in $USD (1 hour):

$BTC - 3533.1 $  (+0.06 %)
$ETH - 115.81 $  (+0.11 %)
$XRP - 0.32 $    (+0.42 %)
$BCH - 121.3 $   (0.0 %)
$BSV - 74.2 $    (+0.27 %)
$LTC - 30.91 $   (+0.36 %)

#BTC #ETH #XRP #BCH #BSV #LTC #Trading #Crypto #Bitcoin",1,0,0,False
7,matthew_rinaldo@CryptoRinaldo,"Replying to @sasha35625https://youtu.be/I2IZAKAuy90Many interesting points made in this 20min video . Layer 1 freedoms and web 2.0 social platforms evolved and dominated near the end of that era with smart phones not at the start. #blockchain #web3 #freedom #crypto #encryption #DataProtection #socialnetworkThe Grand Opportunities Of Web 3.0 (Juan Benet, Jutta Steiner,...youtube.com",0,0,0,False
8,Remi Vee @Remi_Vladuceanu,"Why Facebook Should Not be Trusted With Cryptocurrency
https://tribetica.com/why-facebook-should-not-be-trusted-with-cryptocurrency/…

http://reddit.com/r/tribetica
#newsoftheweek #Bitcoin #blockchain #crypto",2,1,0,False
9,Echezonam@Jcrazyish,"Join me to get @Listia's new $XNK #cryptocurrency for free! Use code ""DNZVSM"" for an extra 100 XNK. Just got this with my Ink, Steam Key - RandomSteam Key - RandomOne Unknown Random Steam Key.listia.com",0,0,0,False
10,CoinSpotter.eu@CoinSpotterEU,Digital Securities Platform Joins IBM Blockchain Accelerator Program https://coinspotter.eu/2019/01/21/digital-securities-platform-joins-ibm-blockchain-accelerator-program/… #cryptocurrency #bitcoin #eth #btc #ICO #news,0,0,0,False
11,DERO friends@Dero_Friends,"How some people just freak out about a tweet. Hilarious! 
#DYOR and invest in $dero if you feel comfortable. If not? Just look for some other coins. Doesn't matter either... But freaking out about a tweet is making our day. 
#childplay #BlueMonday #dero #crypto",5,0,0,False
12,Mark S. Nelson Cryptocurrency/Handbells@iowanelson,"http://Coin360.com • Market State• Coins and tokens • 1 day performance• Market cap https://coin360.com/sharing/8edhhvtxy3_1547717896354… #cryptocurrency #marketcapCrypto Heat Map with Prices, Market Cap at undefined - COIN360Check out COIN360's cryptomarket heat map as of undefined. Find up to date cryptocurrency prices, market capitalization, volume, news.coin360.com",0,0,0,False
13,"Scott Ingram CPA, CA@areacode416","I did a #googletrends search on ""cryptocurrency"" because I haven't heard much about it lately. Current number is 6, which is lowest it's been since May 2017. (These are US, but Canada was same pattern). #cryptocurrency",5,2,0,False
14,CryptoBuzzRead@cryptobuzzread,Tangem Crypto Wallet | Japan's SBI Group Invests $15 Million #Crypto #Group #Invests #Japans #Million #SBI #Tangem #Wallet https://cryptobuzzread.com/tangem-crypto-wallet-japans-sbi-group-invests-15-million/…,0,0,0,False
15,Cryptoactive Traders@CryptoactiveT,Gods Unchained — The Blockchain-based Hearthstone competitor?  #cryptonews #crypto #ct #blockchain http://bit.ly/2R0TpUH,1,1,1,False
16,Cryptosites.co@cysites,"Current Top 3 Dapps by Daily Active Users (DAU)

1. CryptoKitties (1735)
2. STOX (1426)
3. ForkDelta (1377)

For more details. Please visit
http://cryptosites.co
#crypto #blockchain #ether #technology #BTC #cryptonews #ethereum #currency
#business #entrepreneur",1,0,0,False
17,FomoHunt@FomoHunt,"At FomoHunt, our core mission is to connect people through educational events & drive #crypto adoption through face to face interactions.

We strive on building something the community believes in.

Which type of revenue model do you prefer in platforms? 

Yes we accept $BTC Freemium (Tierd Features)32%Free (Ad Based Revenue)58%Subscription Only8%Other (Please Comment)2%50 votes·Final results",4,3,2,False
18,CrixFeed@CrixFeed,"Crypto is Worthless, Fails Basic Financial Tests: Bank of England Adviser - read more : http://bit.ly/2DpOIQx #cryptocurrency #bitocoin",0,0,0,False
19,Serghei Pogor@SergheiPogor,"Bitcoin, Ripple, Ethereum, Bitcoin Cash, EOS, Stellar, Litecoin, TRON, Bitcoin SV, Cardano: Price Analysis, Jan. 21
Where to Earn #free #bitcoins  BTCPeek
#Bitcoin #BTCPeek #FreeBitcoin #BTC #FreeBTC #Money #cryptocurrency #crypto #blockchain #Hezbollah #FelizMartes #Tuesda…",0,0,0,False
20,XTRABYTES™@XTRABYTES,"We have updated our #bounty program for the new age! The Social Blitz bounty program is now so simple it’s practically an #airdrop, so make sure you check it out and don't miss out! #crypto #cryptocurrency #blockchain $XBY
https://loom.ly/7_pGsek",24,13,0,False
21,Ian Brillembourg@EdgeCaser,"What would you do with ten thousand dollars in crypto? We at Storm would love to know, and help you achieve it. Find out more about our $10,000 Storm Play Campaign https://blog.stormtoken.com/10-000-storm-play-campaign-27464c915b05… @SimonYuSEA @StormPlayApp
#bitcoin #ETHEREUM #cryptocurrency",6,1,0,False
22,Impulse Bitcoin@impulsebitcoin,"Bitcoin, Ripple, Ethereum, Bitcoin Cash, EOS, Stellar, Litecoin, TRON, Bitcoin SV, Cardano: Price Analysis, Jan. 21 https://cointelegraph.com/news/bitcoin-ripple-ethereum-bitcoin-cash-eos-stellar-litecoin-tron-bitcoin-sv-cardano-price-analysis-jan-21… #Bitcoin #Crypto",0,0,0,False
23,AlgoryProject@AlgoryProject,"Episode 47: Using Blockchain To Update Human Rights With IBM Collaborator http://Hu-manity.co [Podcast]

Read more: https://app.algory.io/app/cryptonews/473388/episode-47-using-blockchain-to-update…
#cryptocurrency #cryptonews #crypto #algory #blockchain",0,0,0,False
24,The Chart Connoisseur@thechartconn,"That is it for Today's Daily #Crypto Update 1/21/2019. 
 
 It makes me happy to see hard work pay off and for my followers to benefit from my updates as well. 
 
 Check out yesterday's daily #Crypto Update:Quote TweetThe Chart Connoisseur@thechartconn · Jan 20, 2019#Shitcoin Sunday 1/20/2019 

Today is the day where I take a look at some smaller cap coins and loosely talk about them on the market. Today I am going to be looking at HitBTC and seeing how they are doing...

#Cryptocurrency #Blockchain #BitcoinShow this thread",1,0,0,True
25,.@BitcoinBabeAU,"New year new blog post for 2019! #blogging #crypto #bankingNew year, New BSB! – Does the “Crypto Friendly” bank really exist?Happy new year fellow Bitcoiners, and welcome to 2019! Do you know what else you’ll more than likely be welcoming this year? A closure notice from the bank youbitcoin-babe.com",1,0,0,False
26,Coinboard@Coinboard,"#Bitcoin, Ripple, Ethereum, Bitcoin Cash, EOS, Stellar, Litecoin, TRON, Bitcoin SV, Cardano: Price Analysis, Jan. 21 http://twib.in/l/8LpBzdne7q8q via @CoinTelegraph #cryptocurrency",0,0,0,False
27,The Chart Connoisseur@thechartconn,"Daily #Crypto Update 1/21/2019
 
 Do not let your self drink from the fountain of self. If to much consumption occurs, you will become self intoxicated. Allow your judgement to be sober of thy self. 
 
 #Blockchain #Cryptocurrency #Bitcoin",2,2,1,True
28,MetroBlockChain@DreNYC_,"(If we were a sailor on a voyage)

Its in the Air...I smell somthing..I see something over that Horizon...its coming closer,... what is it?
#crypto #XRPcommunity #btcRipple Partner SBI Invests $15 Million to Expand Crypto Ecosystem for Mass Adoption | The Daily HodlJapanese investment giant and Ripple partner SBI Holdings (SBI) has invested $15 million in the blockchain smart card wallet producer Tangem, through its subsidiary SBI Crypto Investment Ltd. The...dailyhodl.com",1,0,0,False
29,CryptoGator.co | Crypto and Forex News Aggregator@eBargainsToday,#ethereum #cryptocurrency Elastos: The Flexible Fortress of the dApp World http://dlvr.it/QxBQ0f  | http://bit.ly/etsydeals,1,1,0,False
30,digital mine @digital_mine_,"Here a simple #python program that allows to integrate cryptocurrencies payments in websites 
#bitcoin #btc #cryptocurrency #programming #DigitalMineNetwork
https://github.com/digital-mine/Cryptocurrencies_website_payment… cdigital-mine/Cryptocurrencies_website_paymentSimple Python script to accept cryptocurrencies payment for website owner - digital-mine/Cryptocurrencies_website_paymentgithub.com",4,1,0,False
31,CryptoNewswire @CryptoNewswire,Blockchain-based Ride-Hailing Application Lands in Vietnam - https://cryptonewswire.com/blockchain-based-ride-hailing-application-lands-in-vietnam… $BTC #crypto #cryptocurrencies #investing,1,0,0,False
32,The Blockchain@TheBlockchain,"Bitcoin, Ripple, Ethereum, Bitcoin Cash, EOS, Stellar, Litecoin, TRON, Bitcoin SV, Cardano: Price Analysis, Jan. 21 http://bit.ly/2FUopnt #blockchain #bitcoin #crypto",0,0,0,False
33,CryptoZilla@KryptoZilla,"Bitcoin, Ripple, Ethereum, Bitcoin Cash, EOS, Stellar, Litecoin, TRON, Bitcoin SV, Cardano: Price Analysis, Jan. 21 http://bit.ly/2FUopnt #crypto #cryptocurrency #investing",0,0,0,False
34,Cryptoify@cryptoify,"CoinZark: Buy, Sell and Swap #Cryptocurrency Token Exchange

https://bitcoinexchangeguide.com/coinzark/",0,0,0,False
35,Chau Free Coin@Chaufreecoin,"Earning #cryptocurrency for selling my stuff on @Listia! Join me using code ""DQDDSB"" for an extra 100 XNK. I just listed this: Silver Blue Sapphire Wedding Engagement Drop Dangle Earrings Fashion Jewelry https://listia.com/r2i4t9z/DQDDSB",0,0,0,False
36,etherfox@etherfox,Two Korean #crypto exchange operators have been imprisoned for defrauding investors by inflating the volume of transactions taking place on their exchange platform and making false electronic records. http://ow.ly/BXaT30noLXw,0,0,0,False
37,Robo Trader AI@robotrader_ai,"1.27% arbitrage on BTC_USD right now: buy on GDAX sell on Bitfinex, see more on https://robo-trader.ai/robots/arb $btc $eth #crypto #bitcoin",0,0,0,False
38,Remi Vee @Remi_Vladuceanu,"Op Ed: Bitcoin Mining Attacks Are Overblown
https://tribetica.com/op-ed-bitcoin-mining-attacks-are-overblown/…

http://reddit.com/r/tribetica
#newsoftheweek #Bitcoin #blockchain #crypto",1,0,0,False
39,Joshua@iamjoshuabruce,NEW PODCAST UP! You should take alt coins seriously !!! LISTEN TO IT HERE https://iamjoshuabruce.com/podcast/joshua-talks-podcast-ep-143-you-should-take-alt-coins-seriously… #altcoins #blockchain #technology #cryptocurrency,9,1,1,False
40,Berkley R. Bruce@DragonShadowLV,Shop online at #AliExpress and earn 3% #cashback or $DASH back https://rewards.com/linkcopy/goshopping?id=56287223&mem=UTYX57U… #crypto #deals,0,0,0,False
41,Macauley Taylor@MacauleyTaylor,"Bitcoin, Ripple, Ethereum, Bitcoin Cash, EOS, Stellar, Litecoin, TRON, Bitcoin SV, Cardano: Price Analysis, Jan. 21 http://bit.ly/2FUopnt #Crypto #News #CryptoNews",0,0,0,False
42,Block Decentral@BlockDecentral,"got a whole bunch of different character classes for the game, gotta limit it to the best ones and start working on the coding for them, then to add in battles and everything else. Long road ahead. Gotta learn eventually #crypto #blockchaingame",0,0,0,False
43,TezosMars@TezosMars,"Preparing from Nomadic Labs First Amendment Proposals!!
https://blog.nomadic-labs.com/meanwhile-at-nomadic-labs-1.html…
#TezosMars #Tezos #Blockchain #Delegate #XTZ
#Crypto #Baking",1,0,0,False
44,YouCanSeeIt@PlagueTimesNow,Replying to @cryptoifyDidn't the Swedish Gov't adopt a #cryptocurrency ? #cryptocurrencynews,0,0,0,False
45,socrtwo@socrtwo,"Earning #cryptocurrency for selling my stuff on @Listia! Join me using code ""BBBGZP"" for an extra 100 XNK. I just listed this: 10 Random Silver (1932-1964) Washington Quarters - $2.50 Face Value in 90% Silver Coins10 Random Silver (1932-1964) Washington Quarters - $2.50 Face Value in 90% Silver CoinsThis listing is for 10 random silver Washington quarters dated 1932-1964 with random mintmarks. The coins have average circulation but may also occasionally be BU. This listing is for $2.50 face...listia.com",0,0,0,False
46,Avocado by Proof@AvocadoByProof,"Results are in for the last 10 minutes: the best crypto performer is #Dogecoin (0.8%), while the biggest loser is #Augur (-0.4%). ||| Greatest overall change (price or volume) is: #Maker with a 1.8% positive change in volume #crypto https://bit.ly/2zPNY7s",0,0,0,False
47,ken@ken_cadima,"Learned a bit about #crypto custody solutions this afternoon. Here's a quick bit about it.

https://theblockcrypto.com/2018/10/04/mapping-out-crypto-custody-solutions/…",0,0,0,False
48,Cryptoify@cryptoify,"Russian Institutions Back Proposal to Let Companies Use #Cryptocurrency
https://news.bitcoin.com/russian-institutions-back-proposal-to-let-companies-use-cryptocurrency/…",1,0,0,False
49,ETHNews@ETHNews_,Two Korean #crypto exchange operators have been imprisoned for defrauding investors by inflating the volume of transactions taking place on their exchange platform and making false electronic records. http://ow.ly/BXaT30noLXw,1,1,0,False
50,Coinboard@Coinboard,Living on #Bitcoin Day 5: An In-Store Buy At Last (Spoiler: It’s Pot-Related) http://twib.in/l/LLAy87MxB4kd via @BitcoinMagazine #cryptocurrency,0,0,0,False
51,Gotcha Event Photography@GotchaArt,"Earning #cryptocurrency for selling my stuff on @Listia! Join me using code ""DGTGWH"" for an extra 100 XNK. I just listed this:  Blue Sapphire Heart Wedding Engagement Claddagh Ring Size 10   #12Blue Sapphire Heart Wedding Engagement Claddagh Ring Size 10 #12Please read this description fully and study all the pictures. If you have any questions,please ask before you place a Bid or GIN. Silver plated with blue Sapphire crystal Heart Wedding Engagement...listia.com",0,0,0,False
52,Remi Vee @Remi_Vladuceanu,"Crypto Arbitrage Today: BTC, ETH, TRX, XRP, XLM, DOGE
https://tribetica.com/crypto-arbitrage-today-btc-eth-trx-xrp-xlm-doge/…

http://reddit.com/r/tribetica
#newsoftheweek #Bitcoin #blockchain #crypto",2,0,0,False
53,AlgoryProject@AlgoryProject,"Bitcoin, Ripple, Ethereum, Bitcoin Cash, EOS, Stellar, Litecoin, TRON, Bitcoin SV,…

Read more: https://app.algory.io/app/cryptonews/473379/bitcoin-ripple-ethereum-bitcoin-cash…
#cryptocurrency #cryptonews #crypto #algory #BTC #ETH #XRP #BCH #EOS #LTC #XLM #TRX #Bitcoin #Ethereum #Ripple #BitcoinCash #EOS #Litecoin #Stellar #TRON",0,0,0,False
54, Paleo by Leo  International Food Blogger@paleobyleo,Maybe Bitcoin Hardware Wallets Aren’t the Best Idea After All https://twi.li/LcXywb #Bitcoin #blockchain #crypto,1,0,0,False
55,BQ.net@BitsdaqExchange,"Bitsdaq pre-registration airdrop is now on! Come and grab your 2000 $BXBC #Airdrops today, and the #deadline of #Airdrop is Jan 28, 2019. Join Airdrop Now: English version: http://airdrop.bitsdaq.com/en/  & Chinese version: http://airdrop.bitsdaq.com
#Blockchain #Crypto",14,10,3,False
56,Bitcoin Trading Made Easy [{ Bitmex Formula }]@BitcoinTME,#BitMEX #BitMEXSignals #bitcoin #daily #crypto Looks like this daily is going to close above 3500 so I am closing my short,0,0,0,False
57,Crypto Millionaire App@eagletwitt3r,Did you know you can share you diversification score and relative #crypto holdings without revealing any actual amounts? Find out how well diversified your holdings are with the Crypto Millionaire app! #Bitcoin #Crypto #Ethereum #Litecoin #Ripple #EOS,1,0,0,False
58,Robet@robet247,Tonight's #NBA #MLK lines generated by #ROBET Floating Margin Protocol (FMP) #BostonCeltics #miami #HEATCulture #Celtics #Lakers #GSW #LAL #LALakers #Boston #Warriors #Rockets #HoustonRockets #Philly #76ers #MLKDay #basketball #RoBET #ROBETCOIN #Crypto #bitcoin,3,0,0,False
59,Fat Pig Signals@fatpigsignals,PPT/BTC TARGET 1 ACHIEVED +4.9% #ppt #trading #bitcoin #altcoins #money,1,1,0,False
60,BitcoinsChannel@bitcoinschannel,"Falcon Private Bank Launches Crypto Wallet - https://goo.gl/mhMJij
#Bitcoin #Crypto #News #Blockchain #ICO #RT",0,0,0,False
61,CoinPath@coinpath,Avoid These Exchanges If You Want to Keep Your Bitcoins https://news.coinpath.io/avoid-these-exchanges-if-you-want-to-keep-your-bitcoins/… #Altcoins #Bitcoin #BitcoinExchange #CER #cryptoexchanges #cybersecurity #cybersecuritytop100cryptoexchanges #Hacken #News #Newsteaser,0,0,0,False
62,Olivier Salomon@SalomonOli,What Threats are Cryptocurrency Exchanges Currently Struggling With? https://twi.li/lvtXIO #CryptoCurrency #CryptocurrencyExchanges #coinidol,1,0,0,False
63,ふじこいにすた（相互フォロー）@fujicoin1,"You can buy Fujicoin at Bleutrade.
https://bleutrade.com ##Fujicoin #Crypto #Bitcoin #Altcoin $FJC #相互フォロー #sougo #followbackBleutrade Cryptocurrency Exchange | Bleutrade. Your Cryptoplace to TradeBleutrade is Your Cryptoplace to Trade | Bleutrade is the ideal cryptoplace where you buy and sell cryptocurrency in a reliable, intuitive and easy way.bleutrade.com",0,0,0,False
64,Cryptocurrencies / USD@cryptosUSD," Prices update in $USD (1 hour):

$BTC - 3535.0 $  (+0.51 %)
$ETH - 115.99 $  (+0.9 %)
$XRP - 0.32 $    (+1.07 %)
$BCH - 121.3 $   (+0.25 %)
$BSV - 74.3 $    (+0.68 %)
$LTC - 30.93 $   (+1.05 %)

#USD #Dollar #BTC #ETH #XRP #BCH #BSV #LTC #Trading #Crypto #Bitcoin #Ethereum",0,0,0,False
65,Cryptocurrencies / USD@cryptosUSD," Prices update in $USD (1 hour):

$EOS - 2.33 $         (+1.02 %)
$IOT - 0.3 $          (+1.21 %)
$ETC - 4.21 $         (+0.43 %)
$NEO - 7.53 $         (+1.05 %)
$DASH - 68.6 $         (+0.74 %)

#USD #Dollar #EOS #IOT #ETC #NEO #DASH #Trading #Crypto #Altcoins",0,0,0,False
66,Crypto squawk@SquawkCrypto,"The member in NWSL100 crypto index with the biggest jump in our ranking last week was Power Ledger (POWR).  Since the start of Christmas rally, its price performance is 37% better than NWSL100.
https://2100news.com/2019/01/21/2100news-weekly-crypto-report-14/… …
#Crypto #CryptoNews #cryptotrading @PowerLedger_io",1,0,0,False
67,ProjectX - XtradeBOT@xtradebot,"NEW TRADE
Exchange: #Binance
#LOOMBTC
Buy Date : 2019-01-20 13:01:24
Sell Date : 2019-01-22 00:42:15
Buy : 0.00001242
Sell : 0.00001249
Profit : 0.56%

#LOOM #bitcoin #projectxonline #probot #trading #tradebot #btc #cryptocurrency #blockchain #crypto #altcoin",1,0,0,False
68,Reinvent Time@ReinventTime,"Earning #cryptocurrency for selling my stuff on @Listia! Join me using code ""CCPDJP"" for an extra 100 XNK. I just listed this: BUCKLE Brand Long Length Silver Knotted Rhinestone Necklace 35""+ 3"" ExtensionBUCKLE Brand Long Length Silver Knotted Rhinestone Necklace 35""+ 3"" ExtensionExcellent Condition! Heavy weight Size: 35""+ 3"" Extension Material: CZ Rhinestones Closure: Lobster Clasp *********************************** If I missed any specific details or if you have any...listia.com",0,0,0,False
69,RedBullSM@RedBullSMCK,Will be support again?!! @TheBigXP #XP #tradesatoshi @TradeSatoshi #binance #coinbase #TRON #TRX #BITCOIN #Crypto #cryptocurrencies #blockchain,3,0,0,False
70,bitfudge@bitfudge,"Two executives from #SouthKorea #cryptocurrency exchange #Komid jailed for faking #trading volume and #deception. 

#cryptolegalQuote TweetCoinDesk@CoinDesk · Jan 21, 2019Two execs from South Korean crypto exchange Komid have been given jail time for faking trading volume and deceiving investors. http://ow.ly/M4Mc30noKcC",0,0,0,False
71,The Cardano Report™@_Cardano_ADA,"Living on Bitcoin Day 5: An In-Store Buy At Last (Spoiler: It’s Pot-Related)
https://thecryptoreporter.net/2019/01/living-on-bitcoin-day-5-in-store-buy-at.html…
#Blockchain #Crypto #Cryptocurrency #Altcoin",4,1,0,False
72,Anabell Hilarski@AnabellHilarski,"First rule of Steemit!
➞ https://goo.gl/qotpt2
#bitcoin #cryptocurrency",0,0,0,False
73,ＤＲＥＡＤ ＢＯＮＧＯ @DreadBong0,"$BTC entered oversold conditions on 10th December 2018

The only other time $BTCUSD dipped below 30 on the Weekly RSI was 12th January 2015

That was the bottom of the 14/15 bear market

Could this signal that the bottom is in on #Bitcoin?

#crypto #blockchain $qnt #DLT",2,1,0,False
74,Criptomonedaseico@Criptomonedaico,"#CriptoMonedaseICO Ripple partners with Chinese research institute for Blockchain Technology Research Scholarship program - http://tinyurl.com/yb78t442
 -  
By @criptomonedaseico - 
#trader #trading #altcoin #decentralize #hashrate #bitcoins #bitcoin #cryptocurrency",0,0,0,False
75,Yuichi Azzam@yuichi_azzam,"#Pozess token reward system coupled with the utility of the token allows consumers, and businesses to create a self-sustaining transactional value system. Join now with @joinPozess #Pozess #PozesslCO #crypto",1,0,0,False
76,Colmore Fx@ColmoreFx,Digital Securities Platform Joins IBM Blockchain Accelerator Program #Crypto #CryptoNews #cryptocurrency #cryptotrading https://buff.ly/2CEpKv1,0,0,0,False
77,antonio Carlos@tonyfraguglia,"I have just joined the @CoinMarketApp and @EtherWorldNews #giveaway to win a TrezorOne #hardware #wallet from @Trezor 
Check it out  https://gleam.io/IOZZV/trezor-one-white-x5-coinmarketappethereumworldnews-giveaway… 
#security #cryptocurrency #Trezor #crypto",0,0,0,False
78,The Blockchain@TheBlockchain,"Living on Bitcoin Day 5: An In-Store Buy At Last (Spoiler: It’s Pot-Related) http://bit.ly/2REe5qy #blockchain #bitcoin #cryptoLiving on Bitcoin Day 5: An In-Store Buy At Last (Spoiler: It’s Pot-Related)Reporter Colin Harper finally makes a point-of-sale purchase with bitcoin, hunts for Coinbase headquarters, and chats with a young entrepreneur.bitcoinmagazine.com",1,1,0,False
79,Avocado by Proof@AvocadoByProof,"Results are in for the last 10 minutes: the best crypto performer is #Augur (0.7%), while the biggest loser is #Lisk (-1%). ||| Greatest overall change (price or volume) is: #Lisk with a 2.6% negative change in volume #crypto https://bit.ly/2zPNY7s",0,0,0,False
80,Bitcoin Price@coinpricenow,"1 Bitcoin ( #BTC )
Dollar: 3535.09$ 

1 Bitcoin Cash ( #BCH )
Dollar: 1,21.38$ 

1 Ethereum ( #ETH )
Dollar: 116.01$ 

1 Ripple ( #XRP )
Dollar: 0.31890$ 

Date: 21 Jan 2019 23:39

#Bitcoin #Ethereum #cryptocurrency #crypto #altcoin #Blockchain #Ripple",0,0,0,False
81,austen martin@austens_martin,"i took $bch off @coinbase 's chart. i hate trading bch because its trash but whatever. this chart is telling me volume has been slowing down while price action is falling. that is usually a bullish sign.

$BTC $ETH $LTC $NEO $VEN $ADA $TRX #cryptocurrency #FOMO #FUD #bitcoin",1,1,0,True
82,Blockchain tech Fan@bitallcoins,"Crypto is Worthless, Fails Basic Financial Tests: Bank of England Adviser http://bit.ly/2RHY3Mc #bitallcoins #cryptocurrency #bitcoin #blockchain #crypto #ethereum #btc #litecoin #money #trading #forex #bitcoinmining #eth #bitcoins #investing #mining #cryptonews #icos",2,1,0,False
83,MINE.FARM.BUY@minefarmbuy,If you're not buying with $BTC with us right now. I'm going to highly recommend it. #mineon #wearenotretial http://minefarmbuy.com $BTC #bitcoin #altcoin #asics,2,1,0,False
84,Laura Culpepper@MissusCulpepper,"Earning #cryptocurrency for selling my stuff on @Listia! Join me using code ""BMGPMT"" for an extra 100 XNK. I just listed this: Resin Picture frame setResin Picture frame setThis is in great condition, the picture openings are about 2""x3"", landscape.listia.com",0,0,0,False
85,CryptoCunnie@CryptoCunnie,"BIT FUN. #Play #games, have #fun, earn bitcoin!. http://bitfun.co/?ref=CA2D1F41DF23… #bitcoin #faucet via @bitfunfaucet #crypto #free",0,0,0,False
86,ProjectX - XtradeBOT@xtradebot,"NEW TRADE
Exchange: #Binance
#GOBTC
Buy Date : 2019-01-21 23:29:13
Sell Date : 2019-01-22 00:38:29
Buy : 0.00000606
Sell : 0.00000610
Profit : 0.66%

#GO #bitcoin #projectxonline #probot #trading #tradebot #btc #cryptocurrency #blockchain #crypto #altcoin",0,0,0,False
87,CryptoNewswire @CryptoNewswire,Digital Securities Platform Joins IBM Blockchain Accelerator Program - https://cryptonewswire.com/digital-securities-platform-joins-ibm-blockchain-accelerator-program… #finance #bitcoin #crypto,0,0,0,False
88,ChaE YounG@ChaEYou53800684,"#Uptherium will be a solution not only to cryptocurrency but also to all the issues we are facing now. 
@UpTherium @http://twitter.com/Upthinity #blockchain #crypto #cryptohub #BTC
https://uptherium.io",0,0,0,False
89,Vishous@KrypticWzrd,This #cryptocurrency bleed is the ultimate test of patience.,1,0,0,False
90,MINE.FARM.BUY@minefarmbuy,"Be informed. Whether you buy here or not. #mineon #wearenotretail http://minefarmbuy.com $BTC #bitcoin #altcoin #asicsBitcoin Asic Mining Hardware - MINE.FARM.BUY - HomePremire Bitcoin and altcoin ASIC mining hardware and product sourcing specialists for enterprise, business, and consumer grade electronics worldwide.minefarmbuy.com",0,0,0,False
91,BitcoinAgile@bitcoinagile,r/CryptoCurrency - An Update On The Cryptopia Hack #blockchain #cryptocurrency #cryptoAn Update On The Cryptopia HackPosted in r/CryptoCurrency by u/mrsotkogaming • 0 points and 2 commentsreddit.com,1,0,0,False
92,Coin Spectator - Real-time cryptocurrency news@coinspectator,Is Apollo (APL) a Scam? Evidence Mounts to Suggest So #crypto #btc #fintech cryptocurrency https://coinspectator.com/news/1206035/is-apollo-apl-a-scam-evidence-mounts-to-suggest-so…,0,0,0,False
93,Domain Address Info@DomainAddress4u,A new Captcha for your Dogecoin sites! via /r/dogecoin http://bit.ly/2RIcCj8 hot  in #reddit #dogecoin #doge #crypto much wow!,1,0,0,False
94,Venkat@Arigatovenky,"Digital Securities Platform Joins IBM Blockchain Accelerator Program http://bit.ly/2MoslOu #bitcoin #cryptocurrency #blockchainDigital Securities Platform Joins IBM Blockchain Accelerator ProgramDigital securities platform Securitize has joined the IBM Blockchain Accelerator program, aiming to address debt issuance using blockchain technology.cointelegraph.com",0,0,0,False
95,Dissolution@DissolutionGame,"AI is now live on Dissolution! Link in Bio, Free to Play

#gaming #bitcoin #ethereum #blockchain #freetoplay #free #cryptocurrency #bitcoinworld #new #cryptonews #community #future #ai #bitcoinmining #ftp #ethereumclassic #fps #garagestudios #discord",7,1,0,False
96,GF-ACCORD | A.I. era Global Business Consulting@GFACCORD,#invest in #cryptocurrency with our help @gfaccord http://youtu.be/PiMJG_pA9yMGIF,1,0,0,False
97,ChaE YounG@ChaEYou53800684,"#Javvy Crypto undoubtedly this will be a great opportunity for all investors to join wonderful. 
@javvycrypto #crypto #blockchain #ICOBest Crypto Exchange to Buy, Sell, & Convert Bitcoin & Crypto | JavvyJavvy is the first truly easy way to buy, sell, & manage all major cryptocurrencies within a single, secure application.javvy.com",0,0,0,False
98,Hanzer@OzerHakkican,"My refcode: MF6KEAYLUZKP
Hey there! Haven't you got your free 100+ #glad_coin yet? 
You can register and get your up to 100+ #glad_coin
@glad_coin #glad_coin #airdrop #cryptocurrency #freetokens #freecoins #altcoins https://glad.network/register?ref_code=MF6KEAYLUZKP…",0,0,0,False
99,$XVG is NOT a fork of Doge!!! Stop that.@CryptoKaku,Would you like to listen to Thomas Jefferson (@ClayJenkinson) interview @aantonop about the #Bitcoin #Crypto Revolution on @jefferson_hour?Of course #HamiltonSucks!45.5%No54.5%11 votes·Final results,1,1,1,True
100,Inputspike@inputspike,"BTC/BRD (Binance) lost 6.08% in the last 20 min. 0.19252907USD, 0.00005315Ƀ $BRD #Bread #cryptocurrency https://app.inputspike.com/t?x=binance&b=BTC&q=BRD…",0,0,0,False
101,Cash Tech News @CashTechNews,"Bank of England Adviser: Cryptocurrencies Fail Basic Financial Tests, Lack Value #banking #bloomberg #bankofengland #exchange #cryptoBank of England Adviser: Cryptocurrencies Fail Basic Financial Tests, Lack ValueSenior adviser to Bank of England Governor Mark Carney said that cryptocurrencies are slow, lack value and fail basic financial tests. Huw vcashtechnews.com",0,0,0,False
102,Cash Tech News @CashTechNews,"Digital Securities Platform Joins IBM Blockchain Accelerator Program #ibm #blockchain #hyperledger #fraud #cryptoDigital Securities Platform Joins IBM Blockchain Accelerator ProgramDigital securities platform Securitize has joined the IBM Blockchain Accelerator program, aiming to address debt issuance using blockchain technology.cashtechnews.com",1,1,0,False
103,bitcoinadvice.com@BitcoinAdvice_,Digital Securities Platform Joins IBM Blockchain Accelerator Program by Aaron Wood : aggregated via http://bitcoinadvice.com #bitcoin $BTC #crypto,0,0,0,False
104,Coin Spectator - Real-time cryptocurrency news@coinspectator,Will Institutional Traders Finally Embrace Crypto With The New LGO Markets-... #btc #altcoin #ico C_Buzz https://coinspectator.com/news/1206033/will-institutional-traders-finally-embrace-crypto-with-the-new-lgo-markets-xtrd-partnership…,2,1,0,False
105,digital mine @digital_mine_,"My main website the home of my network
https://digitalmine.tk
#bitcoin #btc #cryptocurrency #blockchain #AI #DigitalMineNetwork c",0,0,0,False
106,Remi Vee @Remi_Vladuceanu,"Bakkt Makes First Expansion Acquisition to Prepare Crypto Platform
https://tribetica.com/bakkt-makes-first-expansion-acquisition-to-prepare-crypto-platform/…

http://reddit.com/r/tribetica
#newsoftheweek #Bitcoin #blockchain #crypto",2,2,1,False
115,CryptoZilla@KryptoZilla,Digital Securities Platform Joins IBM Blockchain Accelerator Program http://bit.ly/2MoslOu #crypto #cryptocurrency #investing,0,0,0,False
116,Amplify Art@AmplifyArt,Digital Securities Platform Joins IBM Blockchain Accelerator Program http://bit.ly/2MoslOu #crypto #blockchain,0,0,0,False
117,mactom @MaciejTomczyk3,"Earn coins with @BitTubeApp. Install extension for your browser and earn money while surfing internet http://bittubeapp.com/?ref#!2JP16EAJ7
$TUBE #BitTube #Crypto #cryptocurrency",2,0,0,False
118,arrrtdesignbySF@artdesignbySF,"Replying to @TheCryptoLarkIts hard to see truth within the noise of the #crypto sphere. Most maximalist have very coherent reasons as to why #bitcoin will be the standard while adding nuance admitting there is no certainty, just degrees of probability. MHO: odds favor $BTC by orders of magnitude.",2,0,0,False
119,Virtual Money News@VMoneyNews,"(Living on Bitcoin Day 5: An In-Store Buy At Last (Spoiler: It’s Pot-Related)) has been published on Virtual ... - https://virtualmoneysnews.com/living-on-bitcoin-day-5-an-in-store-buy-at-last-spoiler-its-pot-related/…
#crypto #ethereum #bitcoin #litecoin #btc #crypto currency #forex #binance #etc #lotecoin #ripple #finance #markets #m #luxury #LTC",1,0,0,False
120,Crypto News 24x7@crypto_news_24,"Crypto is Worthless, Fails Basic Financial Tests: Bank of England Adviser https://ccn.com/crypto-is-worthless-fails-basic-financial-tests-bank-of-england-adviser/… #cryptonews #crypto #blockchain #news via CryptoCoinsNews",1,0,0,False
121,Laura Culpepper@MissusCulpepper,"Earning #cryptocurrency for selling my stuff on @Listia! Join me using code ""BMGPMT"" for an extra 100 XNK. I just listed this: Baby shower stuff https://listia.com/r2i4t45/BMGPMT",0,0,0,False
125,ProjectX - XtradeBOT@xtradebot,"NEW TRADE
Exchange: #Binance
#LENDBTC
Buy Date : 2019-01-21 15:59:07
Sell Date : 2019-01-22 00:32:15
Buy : 0.00000225
Sell : 0.00000227
Profit : 0.89%

#LEND #bitcoin #projectxonline #probot #trading #tradebot #btc #cryptocurrency #blockchain #crypto #altcoin",1,0,0,False
126,Niklas Feurstein@FeursteinP2P,"Crypto is Worthless, Fails Basic Financial Tests: Bank of England Adviser #cryptocurrency #altcoin https://ccn.com/crypto-is-worthless-fails-basic-financial-tests-bank-of-england-adviser/…",1,1,0,False
127,AlphaMaven Hedge Funds@AlphaMavenHF,Is There a Future for Cryptocurrencies in the Online Casinos? - Coindoo https://hedgemaven.com/news/crypto/is-there-a-future-for-cryptocurrencies-in-the-online-casinos-coindoo… #Crypto #Cryptocurrency,0,0,0,False
128,Andrew Cox@andrewwcox,"Crypto is Worthless, Fails Basic Financial Tests: Bank of England Adviser
https://ccn.com/crypto-is-worthless-fails-basic-financial-tests-bank-of-england-adviser/…
#Cryptocurrency #Value #Worth #Cryptotrading",2,0,0,False
129,CrixFeed@CrixFeed,Living on Bitcoin Day 5: An In-Store Buy At Last (Spoiler: It’s Pot-Related) - read more : http://bit.ly/2CyY4I9 #cryptocurrency #bitocoin,0,0,0,False
130,CoinPath@coinpath,Litecoin [LTC] Technical Analysis: Bears retain the upper hand as bulls offer weak resistance https://news.coinpath.io/litecoin-ltc-technical-analysis-bears-retain-the-upper-hand-as-bulls-offer-weak-resistance/… #Analysis #Blockchain #Cryptocurrency #Litecoin #LTC #News,0,0,0,False
131,AlgoryProject@AlgoryProject,"Crypto is Worthless, Fails Basic Financial Tests: Bank of England Adviser

Read more: https://app.algory.io/app/cryptonews/473359/crypto-is-worthless-fails-basic…
#cryptocurrency #cryptonews #crypto #algory",0,0,0,False
132,FreeCrypto@freecryptoio," NEW AIRDROP PUBLISHED!

KRATOS - $8.5
Actions Required: #Email #SignUp
 https://free-crypto.io/airdrops/kratos/…
#free #crypto #airdrop #bounty #giveaway #freecryptoKRATOS Airdrop – Free Crypto – Claim your cryptocurrency airdrop!Create an account on Trade.io before 12 PM EST on Tuesday, 22nd January On23rd January, you will be airdropped 75 KTOS tokens to your account   Join Airdropfree-crypto.io",0,0,0,False
133,Impulse Bitcoin@impulsebitcoin,Digital Securities Platform Joins IBM Blockchain Accelerator Program https://cointelegraph.com/news/digital-securities-platform-joins-ibm-blockchain-accelerator-program… #Bitcoin #Crypto,0,0,0,False
134,BOLD Awards@Bold_Awards,Cryptocurrencies are massively disrupting the financial sector. Does your business create and share more value? Keep breaking boundaries and enter the ICO / Cryptocurrency category! https://bold-awards.com/boldest-ico/ #crypto #cryptocurrency #ICO BOLDAwards BOLDAwardsGlobalGIF,0,0,0,False
135,bit.trail@roccodallas,Is Apollo (APL) a Scam? Evidence Mounts to Suggest So https://goo.gl/oAdr9o #Crypto #OpinionThe following media includes potentially sensitive content. Change settingsView,0,0,0,False
136,Crypto Price Trading 30m@CryptoPriceCall,"$BTC : +0.37% 3577$
Top (last h):
$DGD : +5.20% 541739st
$NPXS : +3.97% 14st
$XIN : +2.16% 3595196st
$STEEM : +2.06% 11235st
Worst (last h):
$AOA : -2.74% 262st
$HC : -2.10% 30192st
$MKR : -1.61% 11997652st
#cryptocurrency #blockchain",0,0,0,False
137,Eche@king_echee,"#Covatoken aims at uplifting the security system of the internet protocol to a more formidable height 
$COVA #Covatoken #Crypto #CryptoCurrency #Blockchain",3,0,0,False
138,Avocado by Proof@AvocadoByProof,"Results are in for the last 10 minutes: the best crypto performer is #Steem (1%), while the biggest loser is #Dogecoin (-0.5%). ||| Greatest overall change (price or volume) is: #Steem with a 1.7% positive change in volume #crypto https://bit.ly/2zPNY7s",0,0,0,False
139,Coin Spectator - Real-time cryptocurrency news@coinspectator,How To Invest In Ethereum in 2019? #cryptocurrency #altcoin #ico Round The Block https://coinspectator.com/news/1206029/how-to-invest-in-ethereum-in-2019…,0,0,0,False
140,Coin Spectator - Real-time cryptocurrency news@coinspectator,Falcon Private Bank Launches Crypto Wallet #cryptocurrency #crypto #btc News https://coinspectator.com/news/1206028/falcon-private-bank-launches-crypto-wallet…,0,0,0,False
141,Coin Spectator - Real-time cryptocurrency news@coinspectator,UN Report Praises Crypto as “New Frontier” of Global Finan... #cryptocurrency #bitcoin #ethereum Binance https://coinspectator.com/news/1206027/un-report-praises-crypto-as-new-frontier-of-global-finance…,2,1,0,False
142,Mark Brinkerhoff@mbrinkerhoff,How billionaire Mark Cuban went from a #crypto skeptic to an avid investor https://cryptomenow.com/how-billionaire-mark-cuban-went-from-a-crypto-skeptic-to-an-avid-investor… #5milesapp #blockchain #CyberMiles,5,0,0,False
150,Tom@Tom_MG_,"#crypto #Ethereum $ETH tests of liquidity having been convincing with strong buybacks at HTF support. 4H close back above the Range EQ and $119.40 would give me confidence, currently long on $BTC from 3493.",1,0,0,True
151, Robin Bloor @robinbloor,Will Data Privacy Be The Death of Facebook? (Maybe…) Blog. Click http://ow.ly/STRz30j3ScD Please retweet. #Crypto #blockchain #economics #bitcoin #adtech,0,0,0,False
152,Jeff@JeffYoung202,"Sullivan #Solar Power Voted #SanDiego 's Best Solar Company
renewableenergy
Read Here: http://dld.bz/fx7DW  #smarthouse #Crypto #ICO",0,0,0,False
153,InitialCoinList@InitialCoinList,"Please Don't Hurt Us! BIS Report Proves Central Bankers Fear Bitcoin 
Read it here: https://initialcoinlist.com/please-dont-hurt-us-bis-report-proves-central-bankers-fear-bitcoin/…
#Cryptocurrency #blockchain #ico #initialcoinoffering #bitcoin",0,0,0,False
154,bounty@DionTriAgustia4,"DACC New Airdrop  2019
ðParticipants earn 2000 DACC + 300 Refer

 No KYC request

DACC Already listed on #Kucoin

Start Telegram Bot
http://t.me/DACCairBot
@kaka089922
@aninur9922
@airdropalemi
#Airdrops #DACC #Cryptocurrency",0,0,0,False
