,real,predicted
0,1.0,0.6758228
1,0.0,0.6680106
2,1.0,0.7710617
3,0.0,0.52540225
4,0.0,0.5162684
5,0.0,0.5610211
6,1.0,0.54443973
7,0.0,0.20830107
8,1.0,0.58661604
9,0.0,0.38470644
10,1.0,0.5723893
11,0.0,0.6359973
12,1.0,0.63997424
13,0.0,0.46844652
14,0.0,0.5199129
15,1.0,0.72588676
16,1.0,0.5963904
17,1.0,0.34970695
18,1.0,0.14867952
19,1.0,0.5239172
20,1.0,0.5916167
21,0.0,0.43189755
22,1.0,0.49505228
23,1.0,0.68188083
24,0.0,0.56634957
25,1.0,0.86509323
26,1.0,0.6061374
27,0.0,0.5152791
28,0.0,0.39052063
29,0.0,0.7150361
30,0.0,0.6201032
31,1.0,0.70039207
32,1.0,0.6423303
33,0.0,0.71364313
34,0.0,0.41837683
35,0.0,0.9954076
36,1.0,0.2553859
37,1.0,0.038734406
38,1.0,0.13330314
39,0.0,0.4750033
40,1.0,0.8908239
41,1.0,0.35304976
42,1.0,0.75571764
43,0.0,0.72656757
44,0.0,0.65959406
45,0.0,0.44959107
46,1.0,0.8769443
47,1.0,0.60397065
48,0.0,0.30265415
49,1.0,0.6252813
50,0.0,0.6754621
51,1.0,0.6563461
52,1.0,0.6011935
53,1.0,0.6051785
54,1.0,0.6215384
55,0.0,0.61068845
56,1.0,0.7152312
57,0.0,0.5917059
58,1.0,0.6790391
59,1.0,0.6223834
60,0.0,0.6562568
61,1.0,0.633557
62,1.0,0.3749016
63,1.0,0.5456064
64,0.0,0.48569697
65,1.0,0.49474207
66,0.0,0.6615524
67,1.0,0.7583789
68,1.0,0.3724212
69,0.0,0.37572914
70,0.0,0.39650786
71,1.0,0.5600497
72,0.0,0.7298853
73,0.0,0.6602508
74,0.0,0.56891245
75,1.0,0.7062095
76,0.0,0.5129541
77,1.0,0.6023127
78,1.0,0.66462266
79,0.0,0.511528
80,0.0,0.28180975
81,0.0,0.5813776
82,0.0,0.6862092
83,1.0,0.6109644
84,1.0,0.51231164
85,0.0,0.22832811
86,1.0,0.6790457
87,0.0,0.5231567
88,0.0,0.6113085
89,1.0,0.72339046
90,0.0,0.5432208
91,1.0,0.52405745
92,0.0,0.65314156
93,1.0,0.61711055
94,0.0,0.70062435
95,0.0,0.64576614
96,0.0,0.61049724
97,1.0,0.72300595
98,0.0,0.0927532
99,1.0,0.60772634
100,0.0,0.6121878
101,0.0,0.52534455
102,0.0,0.6426556
103,1.0,0.6703702
104,1.0,0.59774387
105,0.0,0.4852164
106,1.0,0.5400632
107,1.0,0.58020973
108,1.0,0.5031004
109,1.0,0.57659584
110,1.0,0.61017776
111,1.0,0.5336089
112,1.0,0.566914
113,0.0,0.8125938
114,1.0,0.6592666
115,1.0,0.54762655
116,1.0,0.5782453
117,1.0,0.6386008
118,0.0,0.6101932
119,1.0,0.79516137
120,1.0,0.6606068
121,1.0,0.59582156
122,0.0,0.47233188
123,0.0,0.5270977
124,1.0,0.787056
125,0.0,0.61367744
126,1.0,0.5805471
127,0.0,0.7633493
128,1.0,0.69845515
129,1.0,0.48262084
130,1.0,0.52033985
131,0.0,0.418126
132,1.0,0.11571315
133,0.0,0.3606487
134,0.0,0.59493124
135,0.0,0.8778657
136,1.0,0.8592572
137,0.0,0.7685205
138,1.0,0.8328574
139,0.0,0.46247345
140,1.0,0.37303054
141,0.0,0.44628778
142,1.0,0.7323296
143,0.0,0.49101332
144,1.0,0.52212465
145,1.0,0.73514205
146,1.0,0.44552806
147,1.0,0.47213334
148,1.0,0.50697756
149,0.0,0.52564806
150,0.0,0.778572
151,1.0,0.9040946
152,0.0,0.21690741
153,1.0,0.75650644
154,0.0,0.5488817
155,0.0,0.40518332
156,1.0,0.55773777
157,1.0,0.41026875
158,1.0,0.8683146
159,1.0,0.59018457
160,0.0,0.3969856
161,1.0,0.6151194
162,0.0,0.22489724
163,1.0,0.5616253
164,1.0,0.1982359
165,0.0,0.4666313
166,1.0,0.2736487
167,0.0,0.28210264
168,0.0,0.5988773
169,1.0,0.80502486
170,0.0,0.59213346
171,1.0,0.7030583
172,1.0,0.6689
173,1.0,0.6426022
174,1.0,0.42272857
175,0.0,0.5149468
176,1.0,0.51660186
177,1.0,0.68765485
178,0.0,0.40939522
179,0.0,0.80357766
180,1.0,0.7086284
181,1.0,0.70661557
182,1.0,0.22208926
183,0.0,0.5553189
184,1.0,0.523936
185,1.0,0.6057013
186,1.0,0.6379025
187,1.0,0.6281076
188,1.0,0.46953863
189,1.0,0.4450367
190,0.0,0.69512916
191,0.0,0.49816447
192,0.0,0.6602534
193,0.0,0.5055781
194,1.0,0.8315598
