,real,predicted
0,1.0,0.5000071
1,0.0,0.50000876
2,1.0,0.5000119
3,0.0,0.5000131
4,0.0,0.5000172
5,0.0,0.50001717
6,1.0,0.50001687
7,0.0,0.5000145
8,1.0,0.5000166
9,0.0,0.500017
10,1.0,0.500023
11,0.0,0.50002295
12,1.0,0.50002295
13,0.0,0.50002205
14,0.0,0.50001985
15,1.0,0.5000174
16,1.0,0.50001186
17,1.0,0.5000167
18,1.0,0.5000122
19,1.0,0.5000078
20,1.0,0.50001097
21,0.0,0.5000122
22,1.0,0.5000094
23,1.0,0.50000864
24,0.0,0.5000061
25,1.0,0.5000055
26,1.0,0.50000614
27,0.0,0.500006
28,0.0,0.50000286
29,0.0,0.49999905
30,0.0,0.49999642
31,1.0,0.49999818
32,1.0,0.5000026
33,0.0,0.5000034
34,0.0,0.5000044
35,0.0,0.500005
36,1.0,0.5000044
37,1.0,0.5000044
38,1.0,0.50000626
39,0.0,0.5000056
40,1.0,0.50000733
41,1.0,0.50000674
42,1.0,0.500008
43,0.0,0.50000405
44,0.0,0.50000715
45,0.0,0.50000656
46,1.0,0.5000111
47,1.0,0.50000983
48,0.0,0.50000876
49,1.0,0.5000015
50,0.0,0.5000009
51,1.0,0.50000185
52,1.0,0.50000215
53,1.0,0.50000453
54,1.0,0.5000029
55,0.0,0.5000065
56,1.0,0.5000063
57,0.0,0.50000393
58,1.0,0.5000044
59,1.0,0.5000078
60,0.0,0.5000038
61,1.0,0.50000584
62,1.0,0.500006
63,1.0,0.500004
64,0.0,0.5000046
65,1.0,0.50000495
66,0.0,0.5000041
67,1.0,0.5000045
68,1.0,0.50000423
69,0.0,0.5000023
70,0.0,0.50000125
71,1.0,0.5000016
72,0.0,0.49999848
73,0.0,0.4999975
74,0.0,0.49999776
75,1.0,0.49999827
76,0.0,0.49999756
77,1.0,0.5000016
78,1.0,0.5000018
79,0.0,0.50000143
80,0.0,0.500004
81,0.0,0.49999967
82,0.0,0.50000316
83,1.0,0.5000046
84,1.0,0.5000037
85,0.0,0.50000167
86,1.0,0.5000008
87,0.0,0.5000007
88,0.0,0.5000014
89,1.0,0.49999928
90,0.0,0.49999943
91,1.0,0.5000005
92,0.0,0.5000038
93,1.0,0.50000197
94,0.0,0.4999998
95,0.0,0.49999967
96,0.0,0.49999943
97,1.0,0.49999803
98,0.0,0.49999958
99,1.0,0.5000017
100,0.0,0.500002
101,0.0,0.5000039
102,0.0,0.50000215
103,1.0,0.50000125
104,1.0,0.50000155
105,0.0,0.49999884
106,1.0,0.50000024
107,1.0,0.5
108,1.0,0.50000083
109,1.0,0.5000015
110,1.0,0.50000226
111,1.0,0.5000049
112,1.0,0.5000088
113,0.0,0.50001246
114,1.0,0.500019
115,1.0,0.5000252
116,1.0,0.50003153
117,1.0,0.50003326
118,0.0,0.50003797
119,1.0,0.50004137
120,1.0,0.5000394
121,1.0,0.5000349
122,0.0,0.50002867
123,0.0,0.5000233
124,1.0,0.50001824
125,0.0,0.50001514
126,1.0,0.5000099
127,0.0,0.500008
128,1.0,0.5000089
129,1.0,0.50000817
130,1.0,0.5000066
131,0.0,0.50000536
132,1.0,0.5000075
133,0.0,0.50000596
134,0.0,0.5000067
135,0.0,0.5000082
136,1.0,0.500012
137,0.0,0.5000145
138,1.0,0.50001025
139,0.0,0.5000085
140,1.0,0.5000073
141,0.0,0.50000876
142,1.0,0.5000043
143,0.0,0.5000034
144,1.0,0.5000048
145,1.0,0.50000054
146,1.0,0.50000405
147,1.0,0.5000063
148,1.0,0.5000093
149,0.0,0.50001013
150,0.0,0.5000077
151,1.0,0.5000111
152,0.0,0.5000082
153,1.0,0.5000133
154,0.0,0.5000166
155,0.0,0.5000218
156,1.0,0.50001943
157,1.0,0.5000257
158,1.0,0.5000369
159,1.0,0.50004494
160,0.0,0.50005025
161,1.0,0.5000555
162,0.0,0.5000592
163,1.0,0.5000579
164,1.0,0.50005484
165,0.0,0.5000318
166,1.0,0.5000357
167,0.0,0.5000107
168,0.0,0.50000536
169,1.0,0.50000453
170,0.0,0.5000029
171,1.0,0.500001
172,1.0,0.50000334
173,1.0,0.50000393
174,1.0,0.50000423
175,0.0,0.5000017
176,1.0,0.50000465
177,1.0,0.50000584
178,0.0,0.5000093
179,0.0,0.5000103
180,1.0,0.5000145
181,1.0,0.50001454
182,1.0,0.50001013
183,0.0,0.5000019
184,1.0,0.50000215
185,1.0,0.49999794
186,1.0,0.49999988
187,1.0,0.5000008
188,1.0,0.5000007
189,1.0,0.500001
190,0.0,0.50000167
191,0.0,0.50000256
192,0.0,0.50000256
193,0.0,0.500001
194,1.0,0.49999812
