,real,predicted
0,1.0,0.5121371
1,0.0,0.407709
2,1.0,0.5893772
3,0.0,0.40581667
4,0.0,0.62175435
5,0.0,0.71019495
6,1.0,0.37740403
7,0.0,0.400465
8,1.0,0.5337859
9,0.0,0.45158473
10,1.0,0.64191747
11,0.0,0.36804813
12,1.0,0.4234355
13,0.0,0.25811198
14,0.0,0.451821
15,1.0,0.7610674
16,1.0,0.44506466
17,1.0,0.26984107
18,1.0,0.2586415
19,1.0,0.49688885
20,1.0,0.4168584
21,0.0,0.37924218
22,1.0,0.40995556
23,1.0,0.540869
24,0.0,0.32177684
25,1.0,0.6695337
26,1.0,0.52456737
27,0.0,0.40946692
28,0.0,0.60630876
29,0.0,0.61506474
30,0.0,0.5041616
31,1.0,0.6686621
32,1.0,0.36577815
33,0.0,0.44660905
34,0.0,0.44421166
35,0.0,0.9741701
36,1.0,0.03359565
37,1.0,0.13075605
38,1.0,0.11765891
39,0.0,0.13353693
40,1.0,0.5755218
41,1.0,0.35600904
42,1.0,0.39179915
43,0.0,0.52698034
44,0.0,0.48176438
45,0.0,0.4450409
46,1.0,0.58675814
47,1.0,0.471027
48,0.0,0.3948129
49,1.0,0.62585086
50,0.0,0.4507504
51,1.0,0.52731204
52,1.0,0.48368835
53,1.0,0.43574494
54,1.0,0.47996986
55,0.0,0.42613438
56,1.0,0.5737831
57,0.0,0.50870436
58,1.0,0.58226824
59,1.0,0.59369093
60,0.0,0.504595
61,1.0,0.535845
62,1.0,0.4813335
63,1.0,0.4446075
64,0.0,0.46550143
65,1.0,0.502863
66,0.0,0.46446306
67,1.0,0.60283875
68,1.0,0.33133405
69,0.0,0.4848891
70,0.0,0.5789913
71,1.0,0.54733586
72,0.0,0.5563539
73,0.0,0.5242968
74,0.0,0.51945335
75,1.0,0.53799605
76,0.0,0.4731359
77,1.0,0.43957365
78,1.0,0.46435052
79,0.0,0.36944714
80,0.0,0.53544325
81,0.0,0.37477362
82,0.0,0.43551892
83,1.0,0.5740904
84,1.0,0.50091463
85,0.0,0.11510241
86,1.0,0.51358557
87,0.0,0.4929526
88,0.0,0.50143665
89,1.0,0.540654
90,0.0,0.47618043
91,1.0,0.53777295
92,0.0,0.49236003
93,1.0,0.4330598
94,0.0,0.54017925
95,0.0,0.48022833
96,0.0,0.45712525
97,1.0,0.42996413
98,0.0,0.4000849
99,1.0,0.51488215
100,0.0,0.42190167
101,0.0,0.42475677
102,0.0,0.46969527
103,1.0,0.43896404
104,1.0,0.36257982
105,0.0,0.39166865
106,1.0,0.4794459
107,1.0,0.44709605
108,1.0,0.33352593
109,1.0,0.38440263
110,1.0,0.4245754
111,1.0,0.34308535
112,1.0,0.4319023
113,0.0,0.44378603
114,1.0,0.55445725
115,1.0,0.5318171
116,1.0,0.4535014
117,1.0,0.40088964
118,0.0,0.39764592
119,1.0,0.56886184
120,1.0,0.5568863
121,1.0,0.41414094
122,0.0,0.4203675
123,0.0,0.47464213
124,1.0,0.60990757
125,0.0,0.45502445
126,1.0,0.5098847
127,0.0,0.50118
128,1.0,0.61825204
129,1.0,0.4826506
130,1.0,0.4273239
131,0.0,0.43805173
132,1.0,0.6610209
133,0.0,0.34379157
134,0.0,0.43130127
135,0.0,0.5439689
136,1.0,0.5616455
137,0.0,0.4016685
138,1.0,0.61221457
139,0.0,0.347673
140,1.0,0.51970327
141,0.0,0.46223098
142,1.0,0.6556389
143,0.0,0.43872878
144,1.0,0.5523141
145,1.0,0.4851092
146,1.0,0.4170583
147,1.0,0.38235283
148,1.0,0.41002536
149,0.0,0.3673846
150,0.0,0.6250151
151,1.0,0.9373754
152,0.0,0.08524656
153,1.0,0.63863444
154,0.0,0.3623649
155,0.0,0.4454689
156,1.0,0.55051434
157,1.0,0.4245725
158,1.0,0.63880163
159,1.0,0.25740057
160,0.0,0.22595218
161,1.0,0.5171778
162,0.0,0.43185735
163,1.0,0.47949114
164,1.0,0.5011316
165,0.0,0.37605304
166,1.0,0.38648787
167,0.0,0.47700274
168,0.0,0.58173805
169,1.0,0.6828244
170,0.0,0.30216914
171,1.0,0.75005555
172,1.0,0.45790663
173,1.0,0.5091943
174,1.0,0.48582813
175,0.0,0.4276761
176,1.0,0.50330323
177,1.0,0.58579576
178,0.0,0.4779424
179,0.0,0.5547717
180,1.0,0.5687643
181,1.0,0.5471693
182,1.0,0.39067066
183,0.0,0.43347114
184,1.0,0.56857854
185,1.0,0.5516301
186,1.0,0.39180407
187,1.0,0.4242114
188,1.0,0.39704347
189,1.0,0.46913382
190,0.0,0.42163977
191,0.0,0.47451946
192,0.0,0.5833417
193,0.0,0.4548125
194,1.0,0.5451148
