,real,predicted
0,1.0,0.8896006
1,0.0,0.67499065
2,1.0,0.8961811
3,0.0,0.49856985
4,0.0,0.8013818
5,0.0,0.45591328
6,1.0,0.8495059
7,0.0,0.6029025
8,1.0,0.59689593
9,0.0,0.11447649
10,1.0,0.8931419
11,0.0,0.5483623
12,1.0,0.47451055
13,0.0,0.24433787
14,0.0,0.80692995
15,1.0,0.2342504
16,1.0,0.53360003
17,1.0,0.52766305
18,1.0,0.6543214
19,1.0,0.5015987
20,1.0,0.46986243
21,0.0,0.7391791
22,1.0,0.5233978
23,1.0,0.43606526
24,0.0,0.47396
25,1.0,0.8082959
26,1.0,0.8050971
27,0.0,0.13452537
28,0.0,0.77574325
29,0.0,0.8071832
30,0.0,0.45858663
31,1.0,0.5469886
32,1.0,0.28741673
33,0.0,0.3759285
34,0.0,0.28007114
35,0.0,0.5779139
36,1.0,0.5479901
37,1.0,0.29090938
38,1.0,0.43097886
39,0.0,0.62719005
40,1.0,0.34932432
41,1.0,0.6989929
42,1.0,0.87016803
43,0.0,0.8956047
44,0.0,0.29891518
45,0.0,0.8640517
46,1.0,0.4131511
47,1.0,0.92424303
48,0.0,0.66858494
49,1.0,0.52150613
50,0.0,0.3995554
51,1.0,0.5212131
52,1.0,0.34998095
53,1.0,0.25735065
54,1.0,0.88178223
55,0.0,0.5340712
56,1.0,0.33975077
57,0.0,0.6032674
58,1.0,0.34274518
59,1.0,0.63820815
60,0.0,0.4972248
61,1.0,0.7273651
62,1.0,0.33536977
63,1.0,0.6704014
64,0.0,0.88665307
65,1.0,0.54094535
66,0.0,0.6201368
67,1.0,0.8609862
68,1.0,0.67107016
69,0.0,0.7264001
70,0.0,0.40357158
71,1.0,0.79503244
72,0.0,0.45251694
73,0.0,0.5374405
74,0.0,0.4091181
75,1.0,0.57233167
76,0.0,0.31468156
77,1.0,0.25238842
78,1.0,0.55668646
79,0.0,0.56043035
80,0.0,0.2597485
81,0.0,0.87819284
82,0.0,0.16425802
83,1.0,0.5886576
84,1.0,0.69310063
85,0.0,0.45502886
86,1.0,0.6118179
87,0.0,0.40582904
88,0.0,0.8906027
89,1.0,0.49626526
90,0.0,0.8407463
91,1.0,0.7103505
92,0.0,0.21743262
93,1.0,0.3096586
94,0.0,0.91455734
95,0.0,0.37221596
96,0.0,0.6902822
97,1.0,0.57063705
98,0.0,0.39240202
99,1.0,0.79716915
100,0.0,0.74318606
101,0.0,0.5445176
102,0.0,0.47484866
103,1.0,0.5744568
104,1.0,0.2970022
105,0.0,0.35193506
106,1.0,0.35939062
107,1.0,0.74212664
108,1.0,0.6972419
109,1.0,0.45421845
110,1.0,0.7626125
111,1.0,0.5043307
112,1.0,0.5989367
113,0.0,0.6720801
114,1.0,0.65288854
115,1.0,0.73817307
116,1.0,0.717841
117,1.0,0.45738065
118,0.0,0.28742263
119,1.0,0.78029174
120,1.0,0.841842
121,1.0,0.7741131
122,0.0,0.52728647
123,0.0,0.4115863
124,1.0,0.94448525
125,0.0,0.21639243
126,1.0,0.70494616
127,0.0,0.5841466
128,1.0,0.6331655
129,1.0,0.66620666
130,1.0,0.6704678
131,0.0,0.61276513
132,1.0,0.7370635
133,0.0,0.48512906
134,0.0,0.72465163
135,0.0,0.5473587
136,1.0,0.9423429
137,0.0,0.4237287
138,1.0,0.7445802
139,0.0,0.4706767
140,1.0,0.647001
141,0.0,0.5577329
142,1.0,0.91922015
143,0.0,0.50927466
144,1.0,0.6393447
145,1.0,0.73386735
146,1.0,0.70926636
147,1.0,0.7477876
148,1.0,0.61798674
149,0.0,0.7355579
150,0.0,0.92924213
151,1.0,0.92059225
152,0.0,0.92574173
153,1.0,0.7670248
154,0.0,0.4322599
155,0.0,0.7632415
156,1.0,0.9425967
157,1.0,0.7482481
158,1.0,0.6921314
159,1.0,0.9779613
160,0.0,0.43115693
161,1.0,0.79889
162,0.0,0.7193573
163,1.0,0.6091716
164,1.0,0.5904538
165,0.0,0.41315407
166,1.0,0.1689525
167,0.0,0.8134913
168,0.0,0.33417934
169,1.0,0.9794391
170,0.0,0.7258226
171,1.0,0.61864936
172,1.0,0.73516476
173,1.0,0.7033979
174,1.0,0.7401091
175,0.0,0.5561593
176,1.0,0.6123295
177,1.0,0.9207972
178,0.0,0.3519882
179,0.0,0.7360176
180,1.0,0.56825054
181,1.0,0.77253044
182,1.0,0.54701
183,0.0,0.4324518
184,1.0,0.2754541
185,1.0,0.779459
186,1.0,0.56283134
187,1.0,0.757607
188,1.0,0.91006374
189,1.0,0.80891526
190,0.0,0.9563484
191,0.0,0.30891728
192,0.0,0.59376955
193,0.0,0.69192076
194,1.0,0.7118838
