,real,predicted
0,1.0,0.77874506
1,0.0,0.99997497
2,1.0,0.99994075
3,0.0,0.98569125
4,0.0,0.9995018
5,0.0,0.5756274
6,1.0,0.3459539
7,0.0,0.27445248
8,1.0,0.8707398
9,0.0,0.4907603
10,1.0,0.56804866
11,0.0,0.98485583
12,1.0,0.93296736
13,0.0,0.6354848
14,0.0,0.3388107
15,1.0,0.931604
16,1.0,0.09768785
17,1.0,0.019853203
18,1.0,0.11289697
19,1.0,0.05297241
20,1.0,0.9831888
21,0.0,0.99961984
22,1.0,0.79173464
23,1.0,0.17485553
24,0.0,0.61607224
25,1.0,0.999303
26,1.0,0.9995915
27,0.0,0.9982222
28,0.0,0.99654573
29,0.0,0.2737177
30,0.0,0.9703415
31,1.0,0.7038702
32,1.0,0.92306155
33,0.0,0.19057572
34,0.0,0.94047517
35,0.0,0.9905308
36,1.0,0.998458
37,1.0,0.2012465
38,1.0,0.56643933
39,0.0,0.8478773
40,1.0,0.5135787
41,1.0,0.80710685
42,1.0,0.56500214
43,0.0,0.47423252
44,0.0,0.3155171
45,0.0,0.834207
46,1.0,0.08931824
47,1.0,0.81060445
48,0.0,0.22093382
49,1.0,0.722706
50,0.0,0.07342016
51,1.0,0.65364826
52,1.0,0.47403902
53,1.0,0.4067805
54,1.0,0.25640348
55,0.0,0.6161627
56,1.0,0.19740565
57,0.0,0.08911228
58,1.0,0.6625354
59,1.0,0.8005928
60,0.0,0.31603405
61,1.0,0.87986296
62,1.0,0.7607862
63,1.0,0.4558768
64,0.0,0.64605254
65,1.0,0.7670387
66,0.0,0.40980202
67,1.0,0.67169994
68,1.0,0.377169
69,0.0,0.734333
70,0.0,0.12300994
71,1.0,0.7724169
72,0.0,0.42011136
73,0.0,0.5700496
74,0.0,0.39683077
75,1.0,0.93187517
76,0.0,0.22690375
77,1.0,0.13044205
78,1.0,0.7191769
79,0.0,0.69666296
80,0.0,0.1412393
81,0.0,0.6759604
82,0.0,0.33729333
83,1.0,0.78944707
84,1.0,0.6637968
85,0.0,0.2941861
86,1.0,0.6672747
87,0.0,0.44326597
88,0.0,0.448168
89,1.0,0.5294023
90,0.0,0.77044195
91,1.0,0.5410549
92,0.0,0.18866403
93,1.0,0.6907075
94,0.0,0.7452785
95,0.0,0.66505027
96,0.0,0.27261972
97,1.0,0.5957672
98,0.0,0.29591566
99,1.0,0.74008775
100,0.0,0.8645866
101,0.0,0.23032571
102,0.0,0.8504579
103,1.0,0.42633823
104,1.0,0.18638991
105,0.0,0.190045
106,1.0,0.36067203
107,1.0,0.5154255
108,1.0,0.92669255
109,1.0,0.06023962
110,1.0,0.6980368
111,1.0,0.18866661
112,1.0,0.65068066
113,0.0,0.19029427
114,1.0,0.6463462
115,1.0,0.76028305
116,1.0,0.57412803
117,1.0,0.5711728
118,0.0,0.26348907
119,1.0,0.6264639
120,1.0,0.22439672
121,1.0,0.9038718
122,0.0,0.22681457
123,0.0,0.53002906
124,1.0,0.7786867
125,0.0,0.041765667
126,1.0,0.22892153
127,0.0,0.07112656
128,1.0,0.95267636
129,1.0,0.5465826
130,1.0,0.4492041
131,0.0,0.06860352
132,1.0,0.44426847
133,0.0,0.54956615
134,0.0,0.7266815
135,0.0,0.48672873
136,1.0,0.67228997
137,0.0,0.15143272
138,1.0,0.6671033
139,0.0,0.33026114
140,1.0,0.1845313
141,0.0,0.3817262
142,1.0,0.8530991
143,0.0,0.13359657
144,1.0,0.24677016
145,1.0,0.902669
146,1.0,0.14396028
147,1.0,0.68272203
148,1.0,0.15231106
149,0.0,0.6343987
150,0.0,0.8782419
151,1.0,0.73562926
152,0.0,0.7963199
153,1.0,0.92157733
154,0.0,0.57371444
155,0.0,0.78106636
156,1.0,0.79996055
157,1.0,0.83981985
158,1.0,0.6608158
159,1.0,0.9686623
160,0.0,0.25169465
161,1.0,0.7378199
162,0.0,0.6610246
163,1.0,0.35375032
164,1.0,0.63394976
165,0.0,0.22617128
166,1.0,0.07106232
167,0.0,0.8596273
168,0.0,0.79371905
169,1.0,0.9714585
170,0.0,0.36328843
171,1.0,0.3499194
172,1.0,0.7592617
173,1.0,0.8915398
174,1.0,0.7709337
175,0.0,0.23318847
176,1.0,0.54215974
177,1.0,0.78681827
178,0.0,0.17515327
179,0.0,0.43220326
180,1.0,0.07817585
181,1.0,0.48825276
182,1.0,0.61833245
183,0.0,0.036908634
184,1.0,0.21288227
185,1.0,0.65718913
186,1.0,0.52854735
187,1.0,0.5455774
188,1.0,0.8987591
189,1.0,0.79578644
190,0.0,0.5560138
191,0.0,0.038260743
192,0.0,0.39350656
193,0.0,0.46426955
194,1.0,0.50377613
