,real,predicted
0,1.0,0.62466186
1,0.0,0.46755588
2,1.0,0.7439325
3,0.0,0.62046444
4,0.0,0.7467765
5,0.0,0.81318545
6,1.0,0.68274057
7,0.0,0.5890997
8,1.0,0.72782356
9,0.0,0.6378212
10,1.0,0.76470304
11,0.0,0.45129812
12,1.0,0.67089415
13,0.0,0.5275742
14,0.0,0.7048578
15,1.0,0.65430874
16,1.0,0.5528803
17,1.0,0.3884415
18,1.0,0.4190302
19,1.0,0.4238646
20,1.0,0.45873952
21,0.0,0.25390905
22,1.0,0.2817126
23,1.0,0.32312465
24,0.0,0.2727654
25,1.0,0.3357005
26,1.0,0.29836994
27,0.0,0.21055663
28,0.0,0.3637709
29,0.0,0.3420611
30,0.0,0.42762575
31,1.0,0.7749574
32,1.0,0.32778513
33,0.0,0.4948189
34,0.0,0.22541395
35,0.0,0.9143387
36,1.0,0.73291856
37,1.0,0.29637247
38,1.0,0.24126074
39,0.0,0.32110512
40,1.0,0.38302898
41,1.0,0.4240088
42,1.0,0.54275393
43,0.0,0.44588014
44,0.0,0.38175952
45,0.0,0.5849962
46,1.0,0.67752266
47,1.0,0.41305172
48,0.0,0.45768124
49,1.0,0.53338534
50,0.0,0.48209476
51,1.0,0.5453503
52,1.0,0.40348107
53,1.0,0.38357377
54,1.0,0.37772396
55,0.0,0.37855685
56,1.0,0.5600552
57,0.0,0.3768402
58,1.0,0.57523364
59,1.0,0.49391907
60,0.0,0.48446825
61,1.0,0.41692093
62,1.0,0.34114754
63,1.0,0.38896292
64,0.0,0.5667139
65,1.0,0.5039386
66,0.0,0.54451287
67,1.0,0.70559454
68,1.0,0.45737016
69,0.0,0.63095164
70,0.0,0.72113323
71,1.0,0.5890702
72,0.0,0.544756
73,0.0,0.5066947
74,0.0,0.5119019
75,1.0,0.45397863
76,0.0,0.47576153
77,1.0,0.46493632
78,1.0,0.32810545
79,0.0,0.42945802
80,0.0,0.4962569
81,0.0,0.4794482
82,0.0,0.46363032
83,1.0,0.5817138
84,1.0,0.4255567
85,0.0,0.25766855
86,1.0,0.45779437
87,0.0,0.49061844
88,0.0,0.5537021
89,1.0,0.5356054
90,0.0,0.48428246
91,1.0,0.5213855
92,0.0,0.33661574
93,1.0,0.47668043
94,0.0,0.49973825
95,0.0,0.46907017
96,0.0,0.49024904
97,1.0,0.5392286
98,0.0,0.44462478
99,1.0,0.5171171
100,0.0,0.4559024
101,0.0,0.47273436
102,0.0,0.45906088
103,1.0,0.44433588
104,1.0,0.42538264
105,0.0,0.4501569
106,1.0,0.40557098
107,1.0,0.38471872
108,1.0,0.4610317
109,1.0,0.38631508
110,1.0,0.52055115
111,1.0,0.50246036
112,1.0,0.5372269
113,0.0,0.49180543
114,1.0,0.6962316
115,1.0,0.6422389
116,1.0,0.5501067
117,1.0,0.5186888
118,0.0,0.38368684
119,1.0,0.62106776
120,1.0,0.5751655
121,1.0,0.5060522
122,0.0,0.56214374
123,0.0,0.56798196
124,1.0,0.73094034
125,0.0,0.49258164
126,1.0,0.61184514
127,0.0,0.3957243
128,1.0,0.6028938
129,1.0,0.53983194
130,1.0,0.5194061
131,0.0,0.45827577
132,1.0,0.58534235
133,0.0,0.5203455
134,0.0,0.5618545
135,0.0,0.5754806
136,1.0,0.6484109
137,0.0,0.50791895
138,1.0,0.53656036
139,0.0,0.4529311
140,1.0,0.47475433
141,0.0,0.3815481
142,1.0,0.5973622
143,0.0,0.33574158
144,1.0,0.5182667
145,1.0,0.46568716
146,1.0,0.48814896
147,1.0,0.44320494
148,1.0,0.4878617
149,0.0,0.48073858
150,0.0,0.7378372
151,1.0,0.8595374
152,0.0,0.4375437
153,1.0,0.8668798
154,0.0,0.35755038
155,0.0,0.47630137
156,1.0,0.55724233
157,1.0,0.31903088
158,1.0,0.41428626
159,1.0,0.37549683
160,0.0,0.331268
161,1.0,0.5415212
162,0.0,0.4316256
163,1.0,0.5448577
164,1.0,0.5251381
165,0.0,0.5332173
166,1.0,0.6504046
167,0.0,0.58049846
168,0.0,0.62480503
169,1.0,0.7184323
170,0.0,0.5458647
171,1.0,0.7212189
172,1.0,0.47278768
173,1.0,0.53902584
174,1.0,0.47571838
175,0.0,0.53181744
176,1.0,0.6124196
177,1.0,0.535939
178,0.0,0.4936798
179,0.0,0.43575925
180,1.0,0.5809005
181,1.0,0.5401054
182,1.0,0.46934414
183,0.0,0.54123473
184,1.0,0.6127041
185,1.0,0.59054446
186,1.0,0.51827455
187,1.0,0.52943945
188,1.0,0.508529
189,1.0,0.51353645
190,0.0,0.40077135
191,0.0,0.5571561
192,0.0,0.6054938
193,0.0,0.48894697
194,1.0,0.5291267
