,real,predicted
0,1.0,0.6615378
1,0.0,0.6497076
2,1.0,0.6619355
3,0.0,0.44035372
4,0.0,0.7581697
5,0.0,0.7228134
6,1.0,0.6178664
7,0.0,0.66038865
8,1.0,0.59295434
9,0.0,0.5696693
10,1.0,0.53918433
11,0.0,0.700771
12,1.0,0.60652053
13,0.0,0.7102691
14,0.0,0.5940999
15,1.0,0.37010437
16,1.0,0.61091614
17,1.0,0.55592984
18,1.0,0.55540735
19,1.0,0.5148207
20,1.0,0.56949717
21,0.0,0.5773202
22,1.0,0.3482811
23,1.0,0.46265343
24,0.0,0.45569077
25,1.0,0.36791807
26,1.0,0.6317975
27,0.0,0.33706847
28,0.0,0.6802458
29,0.0,0.6130335
30,0.0,0.63257295
31,1.0,0.5807501
32,1.0,0.5152865
33,0.0,0.67103165
34,0.0,0.48661324
35,0.0,0.54338884
36,1.0,0.3655813
37,1.0,0.46650952
38,1.0,0.61959475
39,0.0,0.5361071
40,1.0,0.48200595
41,1.0,0.52531475
42,1.0,0.5532268
43,0.0,0.47257996
44,0.0,0.55313426
45,0.0,0.56317663
46,1.0,0.49341735
47,1.0,0.6700632
48,0.0,0.5684065
49,1.0,0.5953591
50,0.0,0.41539246
51,1.0,0.43920094
52,1.0,0.57556516
53,1.0,0.5191006
54,1.0,0.61975276
55,0.0,0.45083028
56,1.0,0.52073115
57,0.0,0.40971708
58,1.0,0.5822716
59,1.0,0.50983095
60,0.0,0.44135308
61,1.0,0.6415041
62,1.0,0.5600143
63,1.0,0.5662924
64,0.0,0.52806634
65,1.0,0.51399225
66,0.0,0.5656157
67,1.0,0.56796086
68,1.0,0.5420476
69,0.0,0.6036172
70,0.0,0.43348297
71,1.0,0.5460509
72,0.0,0.46794486
73,0.0,0.39578336
74,0.0,0.49525878
75,1.0,0.685728
76,0.0,0.4550059
77,1.0,0.43219706
78,1.0,0.52218115
79,0.0,0.49930978
80,0.0,0.3281652
81,0.0,0.61258143
82,0.0,0.5040168
83,1.0,0.5716058
84,1.0,0.5328226
85,0.0,0.4535428
86,1.0,0.5397551
87,0.0,0.5997717
88,0.0,0.67472416
89,1.0,0.61828715
90,0.0,0.5829606
91,1.0,0.5414149
92,0.0,0.54839677
93,1.0,0.4658225
94,0.0,0.551603
95,0.0,0.48168367
96,0.0,0.5875806
97,1.0,0.5012983
98,0.0,0.5032382
99,1.0,0.6046733
100,0.0,0.52700347
101,0.0,0.4395835
102,0.0,0.6380788
103,1.0,0.54112315
104,1.0,0.52310985
105,0.0,0.5334079
106,1.0,0.41519088
107,1.0,0.5901018
108,1.0,0.6204131
109,1.0,0.48458007
110,1.0,0.5719065
111,1.0,0.4226966
112,1.0,0.531941
113,0.0,0.43753973
114,1.0,0.55675274
115,1.0,0.5062352
116,1.0,0.4492935
117,1.0,0.47830546
118,0.0,0.4892257
119,1.0,0.5602016
120,1.0,0.5324089
121,1.0,0.58865964
122,0.0,0.4935762
123,0.0,0.58748937
124,1.0,0.7040119
125,0.0,0.4096593
126,1.0,0.51054937
127,0.0,0.5620715
128,1.0,0.66740704
129,1.0,0.51241493
130,1.0,0.57739323
131,0.0,0.5371955
132,1.0,0.5716724
133,0.0,0.5265419
134,0.0,0.4121323
135,0.0,0.49158725
136,1.0,0.69428855
137,0.0,0.44371277
138,1.0,0.4731679
139,0.0,0.49120268
140,1.0,0.52513707
141,0.0,0.5682888
142,1.0,0.5743387
143,0.0,0.48335263
144,1.0,0.5091964
145,1.0,0.5992425
146,1.0,0.53167045
147,1.0,0.6023903
148,1.0,0.5596007
149,0.0,0.5542133
150,0.0,0.7192839
151,1.0,0.69776094
152,0.0,0.55618125
153,1.0,0.6928014
154,0.0,0.52644724
155,0.0,0.6050711
156,1.0,0.563152
157,1.0,0.5665067
158,1.0,0.56944627
159,1.0,0.6736385
160,0.0,0.46410492
161,1.0,0.6380242
162,0.0,0.4931006
163,1.0,0.6463008
164,1.0,0.5494481
165,0.0,0.4689259
166,1.0,0.46316418
167,0.0,0.5921067
168,0.0,0.5063141
169,1.0,0.73275584
170,0.0,0.58387995
171,1.0,0.49247706
172,1.0,0.6678882
173,1.0,0.5513601
174,1.0,0.5223281
175,0.0,0.5441405
176,1.0,0.5204848
177,1.0,0.58660114
178,0.0,0.45774257
179,0.0,0.6115494
180,1.0,0.67344075
181,1.0,0.60981566
182,1.0,0.64854056
183,0.0,0.57170427
184,1.0,0.58179355
185,1.0,0.5912305
186,1.0,0.5115978
187,1.0,0.53830314
188,1.0,0.73980176
189,1.0,0.57567245
190,0.0,0.63821197
191,0.0,0.45142138
192,0.0,0.5242768
193,0.0,0.5041834
194,1.0,0.6169589
