,real,predicted
0,1.0,0.85203296
1,0.0,0.6504725
2,1.0,0.8570182
3,0.0,0.60474247
4,0.0,0.75936526
5,0.0,0.32433495
6,1.0,0.49079463
7,0.0,0.8441474
8,1.0,0.65691864
9,0.0,0.55347264
10,1.0,0.5482787
11,0.0,0.7094419
12,1.0,0.7851962
13,0.0,0.8269427
14,0.0,0.5322986
15,1.0,0.63442236
16,1.0,0.5609839
17,1.0,0.62717026
18,1.0,0.6481954
19,1.0,0.50532776
20,1.0,0.4073899
21,0.0,0.38639033
22,1.0,0.44104913
23,1.0,0.15941435
24,0.0,0.3733721
25,1.0,0.2644691
26,1.0,0.71068215
27,0.0,0.28873345
28,0.0,0.5292194
29,0.0,0.62734795
30,0.0,0.3186695
31,1.0,0.47927904
32,1.0,0.3009958
33,0.0,0.37386188
34,0.0,0.35904357
35,0.0,0.33172852
36,1.0,0.40902743
37,1.0,0.467518
38,1.0,0.5235196
39,0.0,0.46625397
40,1.0,0.5157354
41,1.0,0.5628849
42,1.0,0.53686374
43,0.0,0.59443563
44,0.0,0.4553625
45,0.0,0.5896154
46,1.0,0.44750914
47,1.0,0.62659407
48,0.0,0.5442813
49,1.0,0.5862414
50,0.0,0.3914322
51,1.0,0.52225894
52,1.0,0.6000321
53,1.0,0.47975224
54,1.0,0.62900764
55,0.0,0.43032962
56,1.0,0.41131967
57,0.0,0.3532585
58,1.0,0.4940199
59,1.0,0.368226
60,0.0,0.41669926
61,1.0,0.54064685
62,1.0,0.5722767
63,1.0,0.507684
64,0.0,0.5110516
65,1.0,0.57021713
66,0.0,0.5537241
67,1.0,0.6105476
68,1.0,0.58136857
69,0.0,0.4875724
70,0.0,0.50854117
71,1.0,0.6340546
72,0.0,0.4648268
73,0.0,0.51827806
74,0.0,0.5816288
75,1.0,0.59003305
76,0.0,0.44226667
77,1.0,0.4853979
78,1.0,0.5551907
79,0.0,0.5373039
80,0.0,0.45148975
81,0.0,0.5828542
82,0.0,0.5005793
83,1.0,0.53177804
84,1.0,0.541609
85,0.0,0.59462446
86,1.0,0.51463985
87,0.0,0.4703554
88,0.0,0.6405347
89,1.0,0.5607106
90,0.0,0.49389756
91,1.0,0.56581974
92,0.0,0.44941097
93,1.0,0.6240545
94,0.0,0.5620839
95,0.0,0.41339016
96,0.0,0.55173814
97,1.0,0.46367326
98,0.0,0.46833497
99,1.0,0.54896474
100,0.0,0.46006823
101,0.0,0.48997918
102,0.0,0.5957164
103,1.0,0.5116822
104,1.0,0.519188
105,0.0,0.47755256
106,1.0,0.5354208
107,1.0,0.5824096
108,1.0,0.6781755
109,1.0,0.4700858
110,1.0,0.6252734
111,1.0,0.44113374
112,1.0,0.47976562
113,0.0,0.47729617
114,1.0,0.519495
115,1.0,0.5611859
116,1.0,0.45368198
117,1.0,0.5788704
118,0.0,0.5844122
119,1.0,0.5682778
120,1.0,0.57419896
121,1.0,0.56300133
122,0.0,0.5151355
123,0.0,0.5891527
124,1.0,0.6575671
125,0.0,0.41057426
126,1.0,0.57998943
127,0.0,0.6277093
128,1.0,0.6359579
129,1.0,0.52228004
130,1.0,0.5313287
131,0.0,0.5117352
132,1.0,0.59304523
133,0.0,0.47492608
134,0.0,0.5399922
135,0.0,0.48611176
136,1.0,0.64756095
137,0.0,0.4720076
138,1.0,0.5724358
139,0.0,0.4430247
140,1.0,0.4800813
141,0.0,0.6257086
142,1.0,0.5480389
143,0.0,0.5464743
144,1.0,0.50199133
145,1.0,0.5882092
146,1.0,0.5958359
147,1.0,0.5636032
148,1.0,0.50181353
149,0.0,0.6811065
150,0.0,0.55961233
151,1.0,0.6199987
152,0.0,0.48443595
153,1.0,0.5218602
154,0.0,0.526871
155,0.0,0.53115743
156,1.0,0.5079072
157,1.0,0.4547441
158,1.0,0.5462778
159,1.0,0.61309445
160,0.0,0.535714
161,1.0,0.59243107
162,0.0,0.4260351
163,1.0,0.5724864
164,1.0,0.4466894
165,0.0,0.44146478
166,1.0,0.43627417
167,0.0,0.5520687
168,0.0,0.5887399
169,1.0,0.621992
170,0.0,0.5437421
171,1.0,0.60573775
172,1.0,0.5897303
173,1.0,0.61875457
174,1.0,0.5614238
175,0.0,0.47139946
176,1.0,0.60124385
177,1.0,0.6195934
178,0.0,0.49314684
179,0.0,0.6000608
180,1.0,0.54560643
181,1.0,0.5619068
182,1.0,0.63202107
183,0.0,0.66554046
184,1.0,0.590435
185,1.0,0.5749792
186,1.0,0.5038257
187,1.0,0.5549604
188,1.0,0.7388464
189,1.0,0.5350646
190,0.0,0.571121
191,0.0,0.4249452
192,0.0,0.5944927
193,0.0,0.52399004
194,1.0,0.5495916
