,real,predicted
0,1.0,0.5002483
1,0.0,0.4997251
2,1.0,0.5002201
3,0.0,0.49996766
4,0.0,0.50016475
5,0.0,0.5002662
6,1.0,0.5009445
7,0.0,0.5012208
8,1.0,0.5022961
9,0.0,0.5028765
10,1.0,0.5037035
11,0.0,0.5036433
12,1.0,0.50387007
13,0.0,0.5034779
14,0.0,0.5029132
15,1.0,0.502809
16,1.0,0.50318
17,1.0,0.50316983
18,1.0,0.5023544
19,1.0,0.5012093
20,1.0,0.50043875
21,0.0,0.49996582
22,1.0,0.4992944
23,1.0,0.49902624
24,0.0,0.49847838
25,1.0,0.49861005
26,1.0,0.49834672
27,0.0,0.49848711
28,0.0,0.4988414
29,0.0,0.49925828
30,0.0,0.49993673
31,1.0,0.5014094
32,1.0,0.5024607
33,0.0,0.5028613
34,0.0,0.5032677
35,0.0,0.50535774
36,1.0,0.5072357
37,1.0,0.50848246
38,1.0,0.5083382
39,0.0,0.50742507
40,1.0,0.50670147
41,1.0,0.5055779
42,1.0,0.504303
43,0.0,0.5027061
44,0.0,0.50195
45,0.0,0.50105655
46,1.0,0.50138366
47,1.0,0.50169283
48,0.0,0.50154626
49,1.0,0.5009484
50,0.0,0.5006689
51,1.0,0.50089747
52,1.0,0.5008256
53,1.0,0.5006851
54,1.0,0.5000653
55,0.0,0.49992025
56,1.0,0.49940678
57,0.0,0.49936888
58,1.0,0.4990235
59,1.0,0.4984259
60,0.0,0.49810365
61,1.0,0.49817616
62,1.0,0.4984902
63,1.0,0.49853167
64,0.0,0.49853843
65,1.0,0.49863002
66,0.0,0.49874717
67,1.0,0.49926278
68,1.0,0.49975964
69,0.0,0.49968052
70,0.0,0.5001725
71,1.0,0.5001401
72,0.0,0.50075805
73,0.0,0.5012476
74,0.0,0.50185466
75,1.0,0.50244325
76,0.0,0.503159
77,1.0,0.5034689
78,1.0,0.5037169
79,0.0,0.50313044
80,0.0,0.50282055
81,0.0,0.502258
82,0.0,0.50176823
83,1.0,0.501602
84,1.0,0.5010755
85,0.0,0.4998671
86,1.0,0.49907184
87,0.0,0.4979568
88,0.0,0.49699214
89,1.0,0.49659947
90,0.0,0.4964366
91,1.0,0.49691802
92,0.0,0.49692693
93,1.0,0.49748906
94,0.0,0.49745345
95,0.0,0.49771735
96,0.0,0.4981086
97,1.0,0.49850118
98,0.0,0.49899906
99,1.0,0.5005064
100,0.0,0.5010281
101,0.0,0.5015254
102,0.0,0.50204754
103,1.0,0.50266254
104,1.0,0.50326777
105,0.0,0.5032852
106,1.0,0.50401497
107,1.0,0.5042509
108,1.0,0.5042305
109,1.0,0.50393367
110,1.0,0.5032072
111,1.0,0.5026219
112,1.0,0.5023997
113,0.0,0.5019169
114,1.0,0.501552
115,1.0,0.5012514
116,1.0,0.5009391
117,1.0,0.50031
118,0.0,0.5001829
119,1.0,0.50005424
120,1.0,0.49965492
121,1.0,0.49950776
122,0.0,0.49930888
123,0.0,0.49928543
124,1.0,0.4993997
125,0.0,0.49946427
126,1.0,0.5000593
127,0.0,0.50069904
128,1.0,0.5013577
129,1.0,0.5020885
130,1.0,0.50218856
131,0.0,0.50203204
132,1.0,0.5019403
133,0.0,0.5022114
134,0.0,0.5023708
135,0.0,0.50321364
136,1.0,0.5040959
137,0.0,0.50469124
138,1.0,0.50511
139,0.0,0.5057024
140,1.0,0.50613654
141,0.0,0.5060826
142,1.0,0.50609094
143,0.0,0.5063537
144,1.0,0.5069488
145,1.0,0.5071077
146,1.0,0.50562036
147,1.0,0.5047094
148,1.0,0.5036988
149,0.0,0.50288826
150,0.0,0.5022939
151,1.0,0.5025527
152,0.0,0.5027632
153,1.0,0.50402075
154,0.0,0.5049041
155,0.0,0.5054796
156,1.0,0.5058045
157,1.0,0.5059369
158,1.0,0.50577635
159,1.0,0.5055314
160,0.0,0.5048907
161,1.0,0.50428444
162,0.0,0.5037582
163,1.0,0.5032356
164,1.0,0.50273204
165,0.0,0.5018053
166,1.0,0.5017311
167,0.0,0.5010987
168,0.0,0.50076604
169,1.0,0.5015412
170,0.0,0.5020768
171,1.0,0.50274307
172,1.0,0.5030232
173,1.0,0.50323296
174,1.0,0.50355
175,0.0,0.5029903
176,1.0,0.5025819
177,1.0,0.50234073
178,0.0,0.50181437
179,0.0,0.50166553
180,1.0,0.50169903
181,1.0,0.5018772
182,1.0,0.501847
183,0.0,0.50124204
184,1.0,0.50144553
185,1.0,0.5012971
186,1.0,0.50109047
187,1.0,0.50093347
188,1.0,0.50052434
189,1.0,0.50021863
190,0.0,0.49981225
191,0.0,0.49955574
192,0.0,0.50007665
193,0.0,0.50040644
194,1.0,0.5011162
