,real,predicted
0,1.0,0.99997425
1,0.0,0.9970306
2,1.0,0.9957588
3,0.0,0.0011111498
4,0.0,0.85029984
5,0.0,0.17371503
6,1.0,0.99993515
7,0.0,0.9999989
8,1.0,0.9023427
9,0.0,0.99963975
10,1.0,0.64240295
11,0.0,0.98916185
12,1.0,0.9999844
13,0.0,0.9999993
14,0.0,0.9998852
15,1.0,0.007991999
16,1.0,0.9999968
17,1.0,0.9090182
18,1.0,0.9268199
19,1.0,0.97803175
20,1.0,0.91188955
21,0.0,0.9971448
22,1.0,0.99947095
23,1.0,0.99996233
24,0.0,0.99958694
25,1.0,0.9999813
26,1.0,0.9999752
27,0.0,0.9999856
28,0.0,0.99999493
29,0.0,0.9586214
30,0.0,0.9998456
31,1.0,0.9999893
32,1.0,0.9999957
33,0.0,0.99673426
34,0.0,0.9999991
35,0.0,1.202163e-18
36,1.0,0.94679236
37,1.0,0.001691848
38,1.0,0.002488315
39,0.0,7.5207627e-06
40,1.0,0.3149991
41,1.0,0.57907706
42,1.0,0.005001098
43,0.0,0.019130737
44,0.0,0.01073733
45,0.0,0.8875857
46,1.0,0.18202758
47,1.0,0.009148568
48,0.0,0.98317075
49,1.0,0.022420526
50,0.0,0.08603892
51,1.0,0.047514826
52,1.0,0.85643804
53,1.0,0.006806135
54,1.0,0.22287568
55,0.0,0.999781
56,1.0,0.80165327
57,0.0,0.09227359
58,1.0,0.8182086
59,1.0,0.17593262
60,0.0,0.45821947
61,1.0,0.506614
62,1.0,0.9869486
63,1.0,0.44438517
64,0.0,0.99879384
65,1.0,0.81199276
66,0.0,0.12425351
67,1.0,0.8739313
68,1.0,0.15001184
69,0.0,0.64018714
70,0.0,0.11925697
71,1.0,0.7264908
72,0.0,0.9744487
73,0.0,0.6934247
74,0.0,0.22170863
75,1.0,0.98381275
76,0.0,0.94721484
77,1.0,0.49843407
78,1.0,0.35703215
79,0.0,0.7763059
80,0.0,0.6570928
81,0.0,0.8871658
82,0.0,0.1352101
83,1.0,0.57658005
84,1.0,0.14865193
85,0.0,0.009626031
86,1.0,0.050356716
87,0.0,0.26876068
88,0.0,0.91157293
89,1.0,0.7293675
90,0.0,0.9710735
91,1.0,0.5862886
92,0.0,0.9979765
93,1.0,0.60332584
94,0.0,0.37069118
95,0.0,0.007261008
96,0.0,0.00014045835
97,1.0,0.8938947
98,0.0,0.19488433
99,1.0,0.026740015
100,0.0,0.12835354
101,0.0,0.58732885
102,0.0,0.36625937
103,1.0,0.20221499
104,1.0,0.614974
105,0.0,0.895761
106,1.0,0.99944496
107,1.0,0.18144506
108,1.0,0.9975797
109,1.0,0.8463559
110,1.0,0.7964801
111,1.0,0.36202788
112,1.0,0.5561908
113,0.0,0.0048958063
114,1.0,0.8946963
115,1.0,0.9210208
116,1.0,0.9831686
117,1.0,0.9999913
118,0.0,0.99980235
119,1.0,0.99978185
120,1.0,0.9994309
121,1.0,0.99999964
122,0.0,0.6136034
123,0.0,0.8092841
124,1.0,0.22980139
125,0.0,0.13960716
126,1.0,0.62463236
127,0.0,0.026968807
128,1.0,0.0482603
129,1.0,0.18970287
130,1.0,0.20069587
131,0.0,0.06234905
132,1.0,0.041224003
133,0.0,0.94766533
134,0.0,0.026902765
135,0.0,0.26270348
136,1.0,0.06353611
137,0.0,0.015306085
138,1.0,0.2286135
139,0.0,0.44998205
140,1.0,0.18947291
141,0.0,0.16656482
142,1.0,0.69850695
143,0.0,0.43127212
144,1.0,0.624447
145,1.0,0.58598137
146,1.0,0.92568934
147,1.0,0.55540675
148,1.0,0.59225065
149,0.0,0.6640243
150,0.0,0.16462836
151,1.0,0.860427
152,0.0,0.04500833
153,1.0,0.4672372
154,0.0,9.81212e-05
155,0.0,0.43002775
156,1.0,0.50883096
157,1.0,0.9997824
158,1.0,0.91359437
159,1.0,0.9953884
160,0.0,0.99028665
161,1.0,0.9526039
162,0.0,0.9898062
163,1.0,0.9999947
164,1.0,0.996555
165,0.0,0.98804736
166,1.0,0.90059084
167,0.0,0.97363967
168,0.0,0.99583024
169,1.0,0.042114407
170,0.0,0.9968107
171,1.0,0.9821466
172,1.0,0.9966722
173,1.0,0.9951679
174,1.0,0.9933024
175,0.0,0.9965697
176,1.0,0.9566046
177,1.0,0.99637955
178,0.0,0.9837041
179,0.0,0.8815212
180,1.0,0.99096036
181,1.0,0.99351156
182,1.0,0.9982221
183,0.0,0.98635256
184,1.0,0.7544627
185,1.0,0.99696314
186,1.0,0.95104504
187,1.0,0.9917152
188,1.0,0.9899311
189,1.0,0.9921062
190,0.0,0.97709894
191,0.0,0.9581125
192,0.0,0.9689244
193,0.0,0.9787545
194,1.0,0.6724
