,real,predicted
0,1.0,0.50000143
1,0.0,0.5000009
2,1.0,0.49999902
3,0.0,0.4999977
4,0.0,0.49999753
5,0.0,0.50000143
6,1.0,0.50000095
7,0.0,0.5000003
8,1.0,0.50000024
9,0.0,0.49999887
10,1.0,0.50000066
11,0.0,0.5000009
12,1.0,0.50000095
13,0.0,0.4999992
14,0.0,0.4999988
15,1.0,0.5000009
16,1.0,0.5
17,1.0,0.50000054
18,1.0,0.5000009
19,1.0,0.50000066
20,1.0,0.5
21,0.0,0.500001
22,1.0,0.5000007
23,1.0,0.50000095
24,0.0,0.5000014
25,1.0,0.50000095
26,1.0,0.5000003
27,0.0,0.49999917
28,0.0,0.50000066
29,0.0,0.49999952
30,0.0,0.5000012
31,1.0,0.5000004
32,1.0,0.5000007
33,0.0,0.4999981
34,0.0,0.49999917
35,0.0,0.4999995
36,1.0,0.49999934
37,1.0,0.49999818
38,1.0,0.5000011
39,0.0,0.500001
40,1.0,0.500001
41,1.0,0.50000036
42,1.0,0.49999982
43,0.0,0.4999996
44,0.0,0.49999982
45,0.0,0.49999976
46,1.0,0.50000054
47,1.0,0.5000007
48,0.0,0.5000003
49,1.0,0.4999999
50,0.0,0.49999994
51,1.0,0.5000002
52,1.0,0.50000167
53,1.0,0.5000009
54,1.0,0.5000006
55,0.0,0.50000036
56,1.0,0.50000066
57,0.0,0.50000083
58,1.0,0.4999996
59,1.0,0.499999
60,0.0,0.49999925
61,1.0,0.5000009
62,1.0,0.5
63,1.0,0.5000001
64,0.0,0.5000006
65,1.0,0.50000006
66,0.0,0.50000113
67,1.0,0.5000017
68,1.0,0.5000014
69,0.0,0.50000113
70,0.0,0.500001
71,1.0,0.5000006
72,0.0,0.5000013
73,0.0,0.500002
74,0.0,0.50000113
75,1.0,0.5000008
76,0.0,0.50000024
77,1.0,0.50000083
78,1.0,0.50000054
79,0.0,0.50000054
80,0.0,0.50000125
81,0.0,0.5000015
82,0.0,0.5000015
83,1.0,0.50000304
84,1.0,0.5000017
85,0.0,0.50000125
86,1.0,0.50000197
87,0.0,0.5000031
88,0.0,0.5000004
89,1.0,0.5000008
90,0.0,0.5000016
91,1.0,0.5000014
92,0.0,0.50000054
93,1.0,0.50000036
94,0.0,0.5000015
95,0.0,0.50000066
96,0.0,0.5000016
97,1.0,0.5000001
98,0.0,0.500001
99,1.0,0.5000004
100,0.0,0.5000011
101,0.0,0.5000015
102,0.0,0.500001
103,1.0,0.5000022
104,1.0,0.5000015
105,0.0,0.50000095
106,1.0,0.5000004
107,1.0,0.5000004
108,1.0,0.5
109,1.0,0.5000004
110,1.0,0.50000125
111,1.0,0.50000095
112,1.0,0.5000005
113,0.0,0.5000006
114,1.0,0.5000015
115,1.0,0.5000004
116,1.0,0.5000017
117,1.0,0.50000197
118,0.0,0.50000155
119,1.0,0.50000167
120,1.0,0.5000004
121,1.0,0.5000006
122,0.0,0.5000001
123,0.0,0.50000095
124,1.0,0.50000036
125,0.0,0.5000004
126,1.0,0.50000054
127,0.0,0.5000003
128,1.0,0.49999967
129,1.0,0.5000011
130,1.0,0.5000003
131,0.0,0.5000014
132,1.0,0.500001
133,0.0,0.49999866
134,0.0,0.49999428
135,0.0,0.50000197
136,1.0,0.50000143
137,0.0,0.5000013
138,1.0,0.5000004
139,0.0,0.5000001
140,1.0,0.50000083
141,0.0,0.5000007
142,1.0,0.5000002
143,0.0,0.5000005
144,1.0,0.5000007
145,1.0,0.5000005
146,1.0,0.5000006
147,1.0,0.5000007
148,1.0,0.5000009
149,0.0,0.5000015
150,0.0,0.5000014
151,1.0,0.5000016
152,0.0,0.5000003
153,1.0,0.50000215
154,0.0,0.5000004
155,0.0,0.49999583
156,1.0,0.49999988
157,1.0,0.50000125
158,1.0,0.500001
159,1.0,0.50000066
160,0.0,0.5000027
161,1.0,0.5000008
162,0.0,0.5000005
163,1.0,0.5000005
164,1.0,0.5000005
165,0.0,0.5000009
166,1.0,0.5000005
167,0.0,0.4999987
168,0.0,0.49999723
169,1.0,0.5000015
170,0.0,0.5000013
171,1.0,0.50000125
172,1.0,0.5000008
173,1.0,0.50000024
174,1.0,0.50000036
175,0.0,0.49999988
176,1.0,0.5000007
177,1.0,0.5000005
178,0.0,0.50000066
179,0.0,0.5000014
180,1.0,0.50000143
181,1.0,0.5000016
182,1.0,0.5000016
183,0.0,0.50000083
184,1.0,0.50000036
185,1.0,0.49999997
186,1.0,0.50000095
187,1.0,0.5000003
188,1.0,0.49999988
189,1.0,0.5000001
190,0.0,0.5000003
191,0.0,0.50000083
192,0.0,0.5000003
193,0.0,0.5000008
194,1.0,0.50000125
