,real,predicted
0,1.0,0.500562310218811
1,1.0,0.5042369961738586
2,0.0,0.5052935481071472
3,1.0,0.5071649551391602
4,1.0,0.5087796449661255
5,0.0,0.5061395764350891
6,1.0,0.5192856192588806
7,0.0,0.5034914612770081
8,0.0,0.5064315795898438
9,1.0,0.5045986771583557
10,0.0,0.51176917552948
11,0.0,0.520472526550293
12,0.0,0.520146906375885
13,1.0,0.4985609948635101
14,1.0,0.5021302103996277
15,0.0,0.5165791511535645
16,1.0,0.5042329430580139
17,1.0,0.508357048034668
18,1.0,0.5126556754112244
19,1.0,0.50322425365448
20,0.0,0.5105832815170288
21,1.0,0.5076022744178772
22,0.0,0.5114286541938782
23,1.0,0.5146801471710205
24,1.0,0.5101168751716614
25,0.0,0.501710057258606
26,1.0,0.509377121925354
27,0.0,0.5085367560386658
28,0.0,0.5115108489990234
29,1.0,0.507063627243042
30,1.0,0.5073062777519226
31,0.0,0.5049439668655396
32,0.0,0.5056599974632263
33,1.0,0.5055609345436096
34,1.0,0.5055791735649109
35,1.0,0.5129239559173584
36,1.0,0.5028976798057556
37,0.0,0.5081716775894165
38,0.0,0.505689263343811
39,0.0,0.5023587942123413
40,0.0,0.5110406875610352
41,1.0,0.5083789229393005
42,1.0,0.514077365398407
43,1.0,0.5150221586227417
44,0.0,0.5090309977531433
45,1.0,0.512415885925293
46,1.0,0.4984276294708252
47,0.0,0.510189414024353
48,1.0,0.508947491645813
49,1.0,0.512255072593689
50,0.0,0.5074641704559326
51,0.0,0.5034143924713135
52,1.0,0.5041265487670898
53,0.0,0.5083238482475281
54,0.0,0.5175666809082031
55,1.0,0.5001779794692993
56,1.0,0.5111133456230164
57,0.0,0.5073580145835876
58,1.0,0.503332257270813
59,1.0,0.5080583691596985
60,1.0,0.5206786394119263
61,1.0,0.5028362274169922
62,1.0,0.5221918821334839
63,0.0,0.5103263258934021
64,0.0,0.506003737449646
65,1.0,0.5131272673606873
66,0.0,0.5050385594367981
67,1.0,0.52096027135849
68,1.0,0.5175623297691345
69,1.0,0.5124014616012573
70,1.0,0.5119819641113281
71,1.0,0.5100935101509094
72,1.0,0.5075240731239319
73,1.0,0.5069034099578857
74,0.0,0.5138766169548035
75,0.0,0.5155155658721924
76,1.0,0.5045390725135803
77,1.0,0.5034769177436829
78,1.0,0.5062136054039001
79,1.0,0.502143919467926
80,1.0,0.5096923112869263
81,1.0,0.5150171518325806
82,0.0,0.5217218399047852
83,1.0,0.5086984038352966
84,0.0,0.5095395445823669
85,0.0,0.5123991966247559
86,0.0,0.5134848952293396
87,1.0,0.5145805478096008
88,1.0,0.519981861114502
89,0.0,0.51466965675354
90,1.0,0.5102046132087708
91,0.0,0.5138567686080933
92,1.0,0.5061008930206299
93,1.0,0.5122005343437195
94,1.0,0.5114229321479797
95,0.0,0.5150924324989319
96,1.0,0.5098727941513062
97,0.0,0.5191790461540222
98,1.0,0.5081396102905273
99,0.0,0.5109516978263855
100,1.0,0.5067118406295776
101,0.0,0.5174786448478699
102,1.0,0.5111032128334045
103,1.0,0.5134701132774353
104,0.0,0.5061185956001282
105,0.0,0.5143150091171265
106,1.0,0.5103750228881836
107,1.0,0.5075072646141052
108,1.0,0.504122793674469
109,0.0,0.5081559419631958
110,1.0,0.5085776448249817
111,0.0,0.5087571740150452
112,0.0,0.5208945870399475
113,1.0,0.5135968923568726
114,1.0,0.5126644372940063
115,0.0,0.5165931582450867
116,1.0,0.5074147582054138
117,1.0,0.5127816200256348
118,0.0,0.5145712494850159
119,0.0,0.5107423663139343
120,0.0,0.51811683177948
121,1.0,0.5140836834907532
122,1.0,0.5154891610145569
123,1.0,0.5169808268547058
124,1.0,0.5167732834815979
125,0.0,0.5172026753425598
126,1.0,0.5084166526794434
127,0.0,0.5090551972389221
128,0.0,0.5120503306388855
129,1.0,0.5126605033874512
130,0.0,0.5117571949958801
131,0.0,0.5170694589614868
132,1.0,0.5109692811965942
133,0.0,0.5096989274024963
134,1.0,0.5136566162109375
135,0.0,0.5122746825218201
136,1.0,0.513144314289093
137,0.0,0.5175392627716064
138,0.0,0.5110422372817993
139,1.0,0.5120687484741211
140,1.0,0.5148761868476868
141,1.0,0.513523519039154
142,1.0,0.5083953738212585
143,0.0,0.506274938583374
144,1.0,0.511173665523529
145,0.0,0.510371744632721
146,1.0,0.5141633749008179
147,0.0,0.5144591927528381
148,0.0,0.5219165682792664
149,1.0,0.5175921320915222
150,1.0,0.5138784050941467
151,0.0,0.5102018117904663
152,1.0,0.5017130374908447
153,0.0,0.5116814374923706
154,0.0,0.5127016305923462
155,0.0,0.5089235901832581
156,0.0,0.5190332531929016
157,0.0,0.5154542326927185
158,1.0,0.5137606263160706
159,1.0,0.5065145492553711
160,1.0,0.5197935104370117
161,0.0,0.5121850967407227
162,1.0,0.5189568996429443
163,1.0,0.5166103839874268
164,1.0,0.5177199244499207
165,1.0,0.5143854022026062
166,1.0,0.5084800720214844
167,0.0,0.5122709274291992
168,1.0,0.5103210210800171
169,1.0,0.5082693696022034
170,1.0,0.516115665435791
171,0.0,0.5144522786140442
172,1.0,0.512349545955658
173,0.0,0.5202254056930542
174,1.0,0.5183946490287781
175,1.0,0.5125299096107483
176,0.0,0.5097052454948425
177,1.0,0.523057758808136
178,1.0,0.5088409185409546
179,1.0,0.5242868065834045
180,0.0,0.5095180869102478
181,0.0,0.5060415267944336
182,0.0,0.5153424739837646
183,0.0,0.5185744166374207
184,1.0,0.5135177969932556
185,1.0,0.5185618996620178
186,1.0,0.5098883509635925
187,0.0,0.5081110000610352
188,0.0,0.5157917141914368
189,1.0,0.5159857273101807
190,1.0,0.5109989047050476
191,1.0,0.5115588307380676
192,1.0,0.5042444467544556
193,1.0,0.5199692845344543
194,1.0,0.5186477303504944
