,real,predicted
0,1.0,0.49989155
1,0.0,0.50114226
2,1.0,0.50146276
3,0.0,0.5014686
4,0.0,0.50092655
5,0.0,0.500354
6,1.0,0.5004586
7,0.0,0.5004153
8,1.0,0.500143
9,0.0,0.50027454
10,1.0,0.500045
11,0.0,0.5009397
12,1.0,0.5010081
13,0.0,0.5011979
14,0.0,0.5006541
15,1.0,0.50060916
16,1.0,0.50026155
17,1.0,0.50048876
18,1.0,0.5005353
19,1.0,0.50064
20,1.0,0.50049305
21,0.0,0.49994713
22,1.0,0.50032294
23,1.0,0.5002825
24,0.0,0.5010525
25,1.0,0.5012986
26,1.0,0.50112045
27,0.0,0.49999407
28,0.0,0.49950787
29,0.0,0.49980018
30,0.0,0.5001015
31,1.0,0.5000722
32,1.0,0.5005749
33,0.0,0.5006608
34,0.0,0.5002257
35,0.0,0.50043863
36,1.0,0.5007432
37,1.0,0.5005622
38,1.0,0.49977085
39,0.0,0.5003303
40,1.0,0.50052506
41,1.0,0.5006036
42,1.0,0.5002144
43,0.0,0.49995044
44,0.0,0.49990067
45,0.0,0.5001381
46,1.0,0.50029296
47,1.0,0.5003836
48,0.0,0.5001232
49,1.0,0.4997614
50,0.0,0.5001612
51,1.0,0.5002799
52,1.0,0.5002531
53,1.0,0.50073355
54,1.0,0.50053906
55,0.0,0.5011636
56,1.0,0.5008833
57,0.0,0.5010714
58,1.0,0.50076884
59,1.0,0.5003167
60,0.0,0.5002075
61,1.0,0.49970603
62,1.0,0.5001036
63,1.0,0.5001648
64,0.0,0.49983567
65,1.0,0.50011665
66,0.0,0.4998672
67,1.0,0.5005953
68,1.0,0.5005841
69,0.0,0.50022054
70,0.0,0.49961916
71,1.0,0.4999022
72,0.0,0.50019073
73,0.0,0.500008
74,0.0,0.4998239
75,1.0,0.5000427
76,0.0,0.50005287
77,1.0,0.5001295
78,1.0,0.50054175
79,0.0,0.50058573
80,0.0,0.5006694
81,0.0,0.50010294
82,0.0,0.5002582
83,1.0,0.50017637
84,1.0,0.50032085
85,0.0,0.50018084
86,1.0,0.50006473
87,0.0,0.50042
88,0.0,0.50037515
89,1.0,0.5001401
90,0.0,0.50018615
91,1.0,0.5001639
92,0.0,0.5010632
93,1.0,0.5008402
94,0.0,0.5009462
95,0.0,0.500181
96,0.0,0.50014865
97,1.0,0.4999184
98,0.0,0.50006187
99,1.0,0.500274
100,0.0,0.50042677
101,0.0,0.5001066
102,0.0,0.49998865
103,1.0,0.50013006
104,1.0,0.50012034
105,0.0,0.5001926
106,1.0,0.5002482
107,1.0,0.50070333
108,1.0,0.50088227
109,1.0,0.5010324
110,1.0,0.50061196
111,1.0,0.5011546
112,1.0,0.50067616
113,0.0,0.50107163
114,1.0,0.5010831
115,1.0,0.5004887
116,1.0,0.500083
117,1.0,0.50007296
118,0.0,0.5009993
119,1.0,0.50133634
120,1.0,0.5012929
121,1.0,0.5007005
122,0.0,0.49989825
123,0.0,0.5002524
124,1.0,0.50007325
125,0.0,0.50016534
126,1.0,0.5001386
127,0.0,0.49994043
128,1.0,0.50073713
129,1.0,0.5008315
130,1.0,0.5013322
131,0.0,0.5008079
132,1.0,0.50054246
133,0.0,0.50027233
134,0.0,0.50058866
135,0.0,0.50005716
136,1.0,0.5002522
137,0.0,0.5004922
138,1.0,0.50052345
139,0.0,0.5001317
140,1.0,0.5002176
141,0.0,0.49982902
142,1.0,0.5005644
143,0.0,0.5007207
144,1.0,0.50062644
145,1.0,0.5001053
146,1.0,0.5002108
147,1.0,0.50045055
148,1.0,0.50090754
149,0.0,0.5014004
150,0.0,0.50142515
151,1.0,0.5012183
152,0.0,0.50103104
153,1.0,0.5019801
154,0.0,0.5019918
155,0.0,0.5014329
156,1.0,0.4999566
157,1.0,0.5000529
158,1.0,0.50051856
159,1.0,0.5005341
160,0.0,0.5007766
161,1.0,0.49978745
162,0.0,0.49983627
163,1.0,0.50017583
164,1.0,0.4999085
165,0.0,0.50039303
166,1.0,0.5001114
167,0.0,0.49969372
168,0.0,0.4996233
169,1.0,0.5001797
170,0.0,0.5005966
171,1.0,0.50044775
172,1.0,0.50052625
173,1.0,0.5007442
174,1.0,0.49994367
175,0.0,0.5002574
176,1.0,0.5000023
177,1.0,0.50022703
178,0.0,0.5001772
179,0.0,0.4999688
180,1.0,0.50010794
181,1.0,0.50015527
182,1.0,0.49988097
183,0.0,0.4998947
184,1.0,0.5006169
185,1.0,0.50019187
186,1.0,0.5003329
187,1.0,0.5002899
188,1.0,0.50049734
189,1.0,0.50004596
190,0.0,0.50020665
191,0.0,0.5003004
192,0.0,0.5004652
193,0.0,0.5001182
194,1.0,0.50005925
