,real,predicted
0,1.0,0.6147077679634094
1,1.0,0.3578144609928131
2,0.0,0.5556392669677734
3,1.0,0.9273442625999452
4,1.0,0.6238343119621277
5,0.0,0.4441144466400146
6,1.0,0.583245575428009
7,0.0,0.5797544121742249
8,0.0,0.505456268787384
9,1.0,0.3461216986179352
10,0.0,0.4199608564376831
11,0.0,0.5503482818603516
12,0.0,0.5627264380455017
13,1.0,0.5491073131561279
14,1.0,0.502135694026947
15,0.0,0.5302174091339111
16,1.0,0.6076211333274841
17,1.0,0.5505507588386536
18,1.0,0.4838086366653442
19,1.0,0.6726857423782349
20,0.0,0.4763619005680084
21,1.0,0.5301896929740906
22,0.0,0.531065046787262
23,1.0,0.3629023730754852
24,1.0,0.486793577671051
25,0.0,0.4199286997318268
26,1.0,0.5349006056785583
27,0.0,0.4335329532623291
28,0.0,0.6872273683547974
29,1.0,0.5116841793060303
30,1.0,0.680167555809021
31,0.0,0.6471226215362549
32,0.0,0.486687034368515
33,1.0,0.5444177985191345
34,1.0,0.4675443470478058
35,1.0,0.5909408926963806
36,1.0,0.5839835405349731
37,0.0,0.4742719233036041
38,0.0,0.5603569149971008
39,0.0,0.3204570114612579
40,0.0,0.898834764957428
41,1.0,0.1255427896976471
42,1.0,0.4396657645702362
43,1.0,0.3694032430648803
44,0.0,0.1391527652740478
45,1.0,0.576178789138794
46,1.0,0.4111706018447876
47,0.0,0.5197658538818359
48,1.0,0.5735673308372498
49,1.0,0.384375661611557
50,0.0,0.3310739994049072
51,0.0,0.3998712599277496
52,1.0,0.7333104610443115
53,0.0,0.5167381167411804
54,0.0,0.6463946104049683
55,1.0,0.5326758623123169
56,1.0,0.5567278861999512
57,0.0,0.5269598364830017
58,1.0,0.516646146774292
59,1.0,0.4838593304157257
60,1.0,0.5218561291694641
61,1.0,0.6734658479690552
62,1.0,0.5162324905395508
63,0.0,0.6853635311126709
64,0.0,0.4991923570632934
65,1.0,0.5381024479866028
66,0.0,0.7938209772109985
67,1.0,0.4963669180870056
68,1.0,0.3742820918560028
69,1.0,0.4003568291664123
70,1.0,0.5033710598945618
71,1.0,0.5220736265182495
72,1.0,0.3492579162120819
73,1.0,0.5331082344055176
74,0.0,0.5304884910583496
75,0.0,0.4395374953746795
76,1.0,0.5217275023460388
77,1.0,0.6037609577178955
78,1.0,0.8084902763366699
79,1.0,0.4701908826828003
80,1.0,0.0884457826614379
81,1.0,0.3865050077438354
82,0.0,0.4041956663131714
83,1.0,0.6040454506874084
84,0.0,0.5503685474395752
85,0.0,0.7099832892417908
86,0.0,0.6805669665336609
87,1.0,0.2413657903671264
88,1.0,0.0523377284407615
89,0.0,0.4932466447353363
90,1.0,0.4479773044586181
91,0.0,0.0926865190267562
92,1.0,0.5960848927497864
93,1.0,0.4171686470508575
94,1.0,0.5089722275733948
95,0.0,0.8148877620697021
96,1.0,0.8593581914901733
97,0.0,0.4565889239311218
98,1.0,0.64223313331604
99,0.0,0.6618992686271667
100,1.0,0.720302939414978
101,0.0,0.6700454354286194
102,1.0,0.7421380877494812
103,1.0,0.8982685208320618
104,0.0,0.5578857064247131
105,0.0,0.6752343773841858
106,1.0,0.7725294232368469
107,1.0,0.6592468023300171
108,1.0,0.4624405205249786
109,0.0,0.4761794209480285
110,1.0,0.4337908327579498
111,0.0,0.5249575972557068
112,0.0,0.5980483889579773
113,1.0,0.4687716662883758
114,1.0,0.3741610944271087
115,0.0,0.4413971900939941
116,1.0,0.4837859272956848
117,1.0,0.5087712407112122
118,0.0,0.4719299077987671
119,0.0,0.5210499167442322
120,0.0,0.7075607776641846
121,1.0,0.4781453013420105
122,1.0,0.4930092692375183
123,1.0,0.5395348072052002
124,1.0,0.519668459892273
125,0.0,0.5782060027122498
126,1.0,0.5291749238967896
127,0.0,0.4809231162071228
128,0.0,0.656133234500885
129,1.0,0.52972012758255
130,0.0,0.4464036226272583
131,0.0,0.560867190361023
132,1.0,0.5138099789619446
133,0.0,0.6579065322875977
134,1.0,0.8795292377471924
135,0.0,0.5976423025131226
136,1.0,0.5634799599647522
137,0.0,0.4462294280529022
138,0.0,0.6428927779197693
139,1.0,0.4500084817409515
140,1.0,0.6110661029815674
141,1.0,0.5625846982002258
142,1.0,0.3486735224723816
143,0.0,0.6067540645599365
144,1.0,0.4630942642688751
145,0.0,0.5610491633415222
146,1.0,0.5394132137298584
147,0.0,0.6377881169319153
148,0.0,0.5850674510002136
149,1.0,0.442943811416626
150,1.0,0.5417278409004211
151,0.0,0.4944261908531189
152,1.0,0.4935363531112671
153,0.0,0.329814076423645
154,0.0,0.6655300259590149
155,0.0,0.5041224956512451
156,0.0,0.6558941602706909
157,0.0,0.5800368785858154
158,1.0,0.481751948595047
159,1.0,0.5510914921760559
160,1.0,0.3219703733921051
161,0.0,0.5796604752540588
162,1.0,0.8109137415885925
163,1.0,0.5170593857765198
164,1.0,0.5153794288635254
165,1.0,0.5508337020874023
166,1.0,0.5382832288742065
167,0.0,0.5011367797851562
168,1.0,0.6123918890953064
169,1.0,0.6179796457290649
170,1.0,0.3534568846225738
171,0.0,0.5013342499732971
172,1.0,0.5423029065132141
173,0.0,0.4840558171272278
174,1.0,0.5859266519546509
175,1.0,0.5413087606430054
176,0.0,0.5089917182922363
177,1.0,0.5354450941085815
178,1.0,0.542238175868988
179,1.0,0.4041657149791717
180,0.0,0.4930420815944671
181,0.0,0.7031654715538025
182,0.0,0.4959536790847778
183,0.0,0.5316702127456665
184,1.0,0.661510705947876
185,1.0,0.5876197814941406
186,1.0,0.6318054795265198
187,0.0,0.2873747050762176
188,0.0,0.5310373902320862
189,1.0,0.6488687992095947
190,1.0,0.3984227776527405
191,1.0,0.041241779923439
192,1.0,0.3936898112297058
193,1.0,0.6044921875
194,1.0,0.5230474472045898
