,real,predicted
0,1.0,1.0
1,1.0,1.0
2,0.0,0.9815952777862548
3,1.0,1.0
4,1.0,1.0
5,0.0,1.0
6,1.0,1.0
7,0.0,1.0
8,0.0,0.5194559097290039
9,1.0,0.5448113679885864
10,0.0,0.5033893585205078
11,0.0,0.5695798397064209
12,0.0,0.770740807056427
13,1.0,0.5232989192008972
14,1.0,1.0
15,0.0,0.0
16,1.0,1.0
17,1.0,1.0
18,1.0,1.5780658756783954e-37
19,1.0,0.6753484606742859
20,0.0,0.0
21,1.0,1.0
22,0.0,1.0
23,1.0,0.6804783344268799
24,1.0,1.0
25,0.0,0.0
26,1.0,1.0
27,0.0,0.5152617692947388
28,0.0,1.0
29,1.0,0.0
30,1.0,1.0
31,0.0,0.0
32,0.0,1.1047055578858604e-15
33,1.0,0.0
34,1.0,1.5428099822205625e-22
35,1.0,1.0
36,1.0,0.0
37,0.0,0.5133883357048035
38,0.0,0.0017352460417896
39,0.0,0.0
40,0.0,1.0
41,1.0,0.0
42,1.0,0.0
43,1.0,0.0
44,0.0,0.0
45,1.0,0.6765214800834656
46,1.0,0.6028831601142883
47,0.0,0.691074550151825
48,1.0,1.0
49,1.0,0.0
50,0.0,0.5557876229286194
51,0.0,0.5080257058143616
52,1.0,1.0
53,0.0,0.9999955892562866
54,0.0,0.999881148338318
55,1.0,0.5806635618209839
56,1.0,0.5082682371139526
57,0.0,0.5340256094932556
58,1.0,0.5118369460105896
59,1.0,0.6162405014038086
60,1.0,0.0
61,1.0,0.6455308794975281
62,1.0,0.6569131016731262
63,0.0,1.0
64,0.0,0.4192174077033996
65,1.0,1.0
66,0.0,0.5115304589271545
67,1.0,0.0
68,1.0,1.0
69,1.0,0.7421349287033081
70,1.0,1.0
71,1.0,0.0
72,1.0,2.149517839587843e-15
73,1.0,0.7627328038215637
74,0.0,0.0
75,0.0,0.0
76,1.0,0.6217755079269409
77,1.0,1.0
78,1.0,1.0
79,1.0,1.0
80,1.0,0.0
81,1.0,0.5185251235961914
82,0.0,1.0
83,1.0,0.0
84,0.0,1.0
85,0.0,0.0
86,0.0,0.9081291556358336
87,1.0,0.0
88,1.0,0.0
89,0.0,1.0
90,1.0,0.0
91,0.0,0.0
92,1.0,6.31611187922459e-33
93,1.0,0.0
94,1.0,1.0
95,0.0,0.5462390780448914
96,1.0,1.0
97,0.0,6.7654901659782745e-15
98,1.0,1.0
99,0.0,1.0
100,1.0,0.3600593507289886
101,0.0,1.0
102,1.0,0.3464137315750122
103,1.0,1.0
104,0.0,1.0
105,0.0,0.4621996283531189
106,1.0,0.0
107,1.0,1.0
108,1.0,0.4983350932598114
109,0.0,1.0
110,1.0,0.0
111,0.0,0.4870544075965881
112,0.0,1.0
113,1.0,0.0
114,1.0,0.5190723538398743
115,0.0,0.6033639907836914
116,1.0,0.0
117,1.0,0.0265489537268877
118,0.0,0.5103905200958252
119,0.0,0.6382240056991577
120,0.0,0.0
121,1.0,9.362858795561313e-13
122,1.0,0.7531033158302307
123,1.0,0.0
124,1.0,0.0
125,0.0,0.0
126,1.0,0.0
127,0.0,0.0
128,0.0,0.3876392543315887
129,1.0,0.0
130,0.0,0.0
131,0.0,1.0
132,1.0,0.6279668211936951
133,0.0,0.970457136631012
134,1.0,1.0
135,0.0,0.5846666097640991
136,1.0,0.0
137,0.0,0.0
138,0.0,0.4548126757144928
139,1.0,0.5065833926200867
140,1.0,0.4209417104721069
141,1.0,0.0
142,1.0,0.0
143,0.0,1.0
144,1.0,0.0
145,0.0,0.5224707126617432
146,1.0,0.0
147,0.0,1.0
148,0.0,1.0
149,1.0,0.5208374857902527
150,1.0,0.7036893367767334
151,0.0,1.0
152,1.0,0.4442108273506164
153,0.0,0.0
154,0.0,6.320498227455956e-18
155,0.0,0.000478707574075
156,0.0,1.0
157,0.0,1.0
158,1.0,0.5330252051353455
159,1.0,0.5168678164482117
160,1.0,0.0
161,0.0,0.5936897397041321
162,1.0,0.7741098999977112
163,1.0,1.0
164,1.0,0.0
165,1.0,0.5033714175224304
166,1.0,0.0
167,0.0,0.0
168,1.0,0.7426766753196716
169,1.0,0.9999457597732544
170,1.0,0.0
171,0.0,0.5156375169754028
172,1.0,0.0
173,0.0,1.0
174,1.0,1.0
175,1.0,1.0
176,0.0,0.0
177,1.0,0.9999998807907104
178,1.0,0.4823735356330871
179,1.0,0.0
180,0.0,1.0
181,0.0,1.0
182,0.0,0.0
183,0.0,1.0
184,1.0,1.0
185,1.0,1.0
186,1.0,1.0
187,0.0,0.0
188,0.0,0.515058159828186
189,1.0,1.0
190,1.0,0.5413382649421692
191,1.0,1.0
192,1.0,0.4134438931941986
193,1.0,0.0
194,1.0,1.0
