,real,predicted
0,1.0,0.5390527844429016
1,1.0,0.5606423020362854
2,0.0,0.4206661880016327
3,1.0,0.5742172598838806
4,1.0,0.4771709442138672
5,0.0,0.5460027456283569
6,1.0,0.5462774634361267
7,0.0,0.5159868597984314
8,0.0,0.5620077848434448
9,1.0,0.5183107852935791
10,0.0,0.6371767520904541
11,0.0,0.5468072295188904
12,0.0,0.4234075546264648
13,1.0,0.6186920404434204
14,1.0,0.4919955134391784
15,0.0,0.5361272096633911
16,1.0,0.515415608882904
17,1.0,0.5685924887657166
18,1.0,0.5598422288894653
19,1.0,0.422607809305191
20,0.0,0.5206273198127747
21,1.0,0.4995360970497131
22,0.0,0.4646233916282654
23,1.0,0.5613144040107727
24,1.0,0.4697165787220001
25,0.0,0.5215080380439758
26,1.0,0.6370185017585754
27,0.0,0.5299503803253174
28,0.0,0.6551851034164429
29,1.0,0.5126513242721558
30,1.0,0.5376577377319336
31,0.0,0.5526519417762756
32,0.0,0.4945467114448547
33,1.0,0.6031597256660461
34,1.0,0.4477401971817016
35,1.0,0.4759999513626098
36,1.0,0.5063521265983582
37,0.0,0.4731029868125915
38,0.0,0.5067448616027832
39,0.0,0.516049325466156
40,0.0,0.5589020848274231
41,1.0,0.725928544998169
42,1.0,0.6457591652870178
43,1.0,0.5014522075653076
44,0.0,0.4226454496383667
45,1.0,0.5544530153274536
46,1.0,0.5128558874130249
47,0.0,0.5321099758148193
48,1.0,0.5956194400787354
49,1.0,0.5155067443847656
50,0.0,0.7147239446640015
51,0.0,0.5106591582298279
52,1.0,0.5285627245903015
53,0.0,0.5657022595405579
54,0.0,0.6049075126647949
55,1.0,0.4853970110416412
56,1.0,0.5526721477508545
57,0.0,0.5126911401748657
58,1.0,0.5562657713890076
59,1.0,0.4629741311073303
60,1.0,0.4479112923145294
61,1.0,0.4584662914276123
62,1.0,0.5601628422737122
63,0.0,0.4568587243556976
64,0.0,0.487613707780838
65,1.0,0.5382867455482483
66,0.0,0.6620959639549255
67,1.0,0.5886030197143555
68,1.0,0.5273228287696838
69,1.0,0.5333817601203918
70,1.0,0.48607137799263
71,1.0,0.3988511860370636
72,1.0,0.6131514310836792
73,1.0,0.5330842137336731
74,0.0,0.6406506299972534
75,0.0,0.563943088054657
76,1.0,0.603266716003418
77,1.0,0.5267769694328308
78,1.0,0.3992998600006103
79,1.0,0.6033341288566589
80,1.0,0.3846953213214874
81,1.0,0.4504772126674652
82,0.0,0.6246799826622009
83,1.0,0.5918567180633545
84,0.0,0.6827355027198792
85,0.0,0.6402752995491028
86,0.0,0.541148841381073
87,1.0,0.6761799454689026
88,1.0,0.4843869805335998
89,0.0,0.5201684832572937
90,1.0,0.5581550598144531
91,0.0,0.4936511516571045
92,1.0,0.416462779045105
93,1.0,0.4702013432979584
94,1.0,0.4898325204849243
95,0.0,0.5596991777420044
96,1.0,0.6371968984603882
97,0.0,0.4534946382045746
98,1.0,0.7039011716842651
99,0.0,0.4153410494327545
100,1.0,0.5691772103309631
101,0.0,0.4660377204418182
102,1.0,0.6245792508125305
103,1.0,0.3387612104415893
104,0.0,0.5102138519287109
105,0.0,0.6090345978736877
106,1.0,0.6020683646202087
107,1.0,0.4868614971637726
108,1.0,0.5308080911636353
109,0.0,0.5873303413391113
110,1.0,0.4819422662258148
111,0.0,0.4128483533859253
112,0.0,0.5929194688796997
113,1.0,0.5117146372795105
114,1.0,0.5904169678688049
115,0.0,0.6426265835762024
116,1.0,0.4962389469146728
117,1.0,0.5278853178024292
118,0.0,0.5472422242164612
119,0.0,0.5555146336555481
120,0.0,0.5981572270393372
121,1.0,0.5564489364624023
122,1.0,0.5233566761016846
123,1.0,0.5966067314147949
124,1.0,0.5868457555770874
125,0.0,0.4414422214031219
126,1.0,0.4592762887477875
127,0.0,0.5595360398292542
128,0.0,0.5874797701835632
129,1.0,0.62729811668396
130,0.0,0.6603183746337891
131,0.0,0.530163586139679
132,1.0,0.3294615745544433
133,0.0,0.6974996328353882
134,1.0,0.432111531496048
135,0.0,0.4336453676223755
136,1.0,0.6241556406021118
137,0.0,0.4943775534629822
138,0.0,0.5100666284561157
139,1.0,0.5273637771606445
140,1.0,0.5327552556991577
141,1.0,0.5377809405326843
142,1.0,0.519098162651062
143,0.0,0.5505048036575317
144,1.0,0.5364742279052734
145,0.0,0.4478131532669067
146,1.0,0.6226627230644226
147,0.0,0.4586465060710907
148,0.0,0.6402369737625122
149,1.0,0.4470385015010834
150,1.0,0.5840240120887756
151,0.0,0.5401902794837952
152,1.0,0.5224350690841675
153,0.0,0.5094674229621887
154,0.0,0.5500730872154236
155,0.0,0.5362489223480225
156,0.0,0.5914544463157654
157,0.0,0.5078408122062683
158,1.0,0.5200671553611755
159,1.0,0.4624462127685547
160,1.0,0.5633763670921326
161,0.0,0.5528693199157715
162,1.0,0.4515688121318817
163,1.0,0.4347847402095794
164,1.0,0.5780192613601685
165,1.0,0.4832063913345337
166,1.0,0.5811110138893127
167,0.0,0.5059100985527039
168,1.0,0.5105763077735901
169,1.0,0.494816243648529
170,1.0,0.6009417176246643
171,0.0,0.5551730394363403
172,1.0,0.5717208385467529
173,0.0,0.5625278949737549
174,1.0,0.5998870134353638
175,1.0,0.4236786663532257
176,0.0,0.5995469689369202
177,1.0,0.5795774459838867
178,1.0,0.4748968780040741
179,1.0,0.461233913898468
180,0.0,0.5721318125724792
181,0.0,0.4674614071846008
182,0.0,0.6005008816719055
183,0.0,0.4597860872745514
184,1.0,0.5211930871009827
185,1.0,0.4864143133163452
186,1.0,0.6094139218330383
187,0.0,0.3906435668468475
188,0.0,0.4544923007488251
189,1.0,0.5449490547180176
190,1.0,0.4442233443260193
191,1.0,0.4861306250095367
192,1.0,0.5745646953582764
193,1.0,0.5197356939315796
194,1.0,0.39635464549064636
