,real,predicted
0,1.0,0.5017748475074768
1,1.0,0.501143753528595
2,0.0,0.4992731809616089
3,1.0,0.5014740824699402
4,1.0,0.5012305378913879
5,0.0,0.5023242831230164
6,1.0,0.4990104436874389
7,0.0,0.5017764568328857
8,0.0,0.5000283718109131
9,1.0,0.500625729560852
10,0.0,0.5015590786933899
11,0.0,0.5002727508544922
12,0.0,0.4996234774589538
13,1.0,0.5014023184776306
14,1.0,0.5011945366859436
15,0.0,0.4994861483573913
16,1.0,0.5020890831947327
17,1.0,0.5023138523101807
18,1.0,0.5009544491767883
19,1.0,0.5042332410812378
20,0.0,0.5019180774688721
21,1.0,0.4999275207519531
22,0.0,0.500251293182373
23,1.0,0.5030114650726318
24,1.0,0.5013148188591003
25,0.0,0.5019218921661377
26,1.0,0.5013612508773804
27,0.0,0.5021690130233765
28,0.0,0.5040387511253357
29,1.0,0.5012837052345276
30,1.0,0.4982974827289581
31,0.0,0.5037199258804321
32,0.0,0.5021886229515076
33,1.0,0.4972840547561645
34,1.0,0.5007744431495667
35,1.0,0.5031587481498718
36,1.0,0.5018828511238098
37,0.0,0.5014326572418213
38,0.0,0.5031824111938477
39,0.0,0.4997137188911438
40,0.0,0.5032191276550293
41,1.0,0.5013138651847839
42,1.0,0.5011596083641052
43,1.0,0.4982790648937225
44,0.0,0.4995513558387756
45,1.0,0.5036945939064026
46,1.0,0.4991463720798492
47,0.0,0.5029661655426025
48,1.0,0.5032991766929626
49,1.0,0.5011578798294067
50,0.0,0.5027788877487183
51,0.0,0.5027449131011963
52,1.0,0.5015407800674438
53,0.0,0.500061571598053
54,0.0,0.5041199326515198
55,1.0,0.5031956434249878
56,1.0,0.5020989179611206
57,0.0,0.5010219812393188
58,1.0,0.5033577680587769
59,1.0,0.5029895901679993
60,1.0,0.5017082691192627
61,1.0,0.5055774450302124
62,1.0,0.5018410682678223
63,0.0,0.5017316937446594
64,0.0,0.501498818397522
65,1.0,0.5003402829170227
66,0.0,0.5009042024612427
67,1.0,0.5009678602218628
68,1.0,0.5031012296676636
69,1.0,0.5007055401802063
70,1.0,0.5004678964614868
71,1.0,0.5020204782485962
72,1.0,0.5036237835884094
73,1.0,0.505707323551178
74,0.0,0.5009749531745911
75,0.0,0.5023370981216431
76,1.0,0.5027024745941162
77,1.0,0.500106155872345
78,1.0,0.5042130351066589
79,1.0,0.5062727332115173
80,1.0,0.5018837451934814
81,1.0,0.5024887919425964
82,0.0,0.503671407699585
83,1.0,0.5038265585899353
84,0.0,0.504780650138855
85,0.0,0.5017267465591431
86,0.0,0.5040786266326904
87,1.0,0.5027613639831543
88,1.0,0.5017452836036682
89,0.0,0.5033820271492004
90,1.0,0.5035445094108582
91,0.0,0.5010567307472229
92,1.0,0.498550146818161
93,1.0,0.503831148147583
94,1.0,0.5013517737388611
95,0.0,0.5026196241378784
96,1.0,0.5043281316757202
97,0.0,0.5020452737808228
98,1.0,0.5001726746559143
99,0.0,0.5015435814857483
100,1.0,0.5046547055244446
101,0.0,0.5007450580596924
102,1.0,0.5049210786819458
103,1.0,0.5035592913627625
104,0.0,0.5021780729293823
105,0.0,0.5027668476104736
106,1.0,0.5024360418319702
107,1.0,0.5020824670791626
108,1.0,0.5024316310882568
109,0.0,0.5035957098007202
110,1.0,0.5007426738739014
111,0.0,0.5021350979804993
112,0.0,0.502301037311554
113,1.0,0.5019753575325012
114,1.0,0.502084493637085
115,0.0,0.5027905106544495
116,1.0,0.5013577938079834
117,1.0,0.5040513277053833
118,0.0,0.5010653138160706
119,0.0,0.5020934343338013
120,0.0,0.5020968914031982
121,1.0,0.5013644695281982
122,1.0,0.5015096068382263
123,1.0,0.5016554594039917
124,1.0,0.5019273161888123
125,0.0,0.4998575747013092
126,1.0,0.502830445766449
127,0.0,0.5006486177444458
128,0.0,0.5051801204681396
129,1.0,0.5026998519897461
130,0.0,0.5021759271621704
131,0.0,0.5047734379768372
132,1.0,0.50050950050354
133,0.0,0.5043273568153381
134,1.0,0.5072770714759827
135,0.0,0.5002903342247009
136,1.0,0.5009298920631409
137,0.0,0.5022100806236267
138,0.0,0.5027841329574585
139,1.0,0.5009870529174805
140,1.0,0.5019421577453613
141,1.0,0.5027311444282532
142,1.0,0.5016319155693054
143,0.0,0.5026870965957642
144,1.0,0.5014375448226929
145,0.0,0.5015178322792053
146,1.0,0.5008810758590698
147,0.0,0.5008865594863892
148,0.0,0.5017067790031433
149,1.0,0.5023351311683655
150,1.0,0.501476526260376
151,0.0,0.500580906867981
152,1.0,0.5021934509277344
153,0.0,0.5000467300415039
154,0.0,0.5010852217674255
155,0.0,0.5008042454719543
156,0.0,0.5012145042419434
157,0.0,0.5018312335014343
158,1.0,0.5026738047599792
159,1.0,0.5019100904464722
160,1.0,0.5010900497436523
161,0.0,0.5016492009162903
162,1.0,0.4997296631336212
163,1.0,0.5011082291603088
164,1.0,0.5010913014411926
165,1.0,0.5016788244247437
166,1.0,0.5016995072364807
167,0.0,0.5028839111328125
168,1.0,0.5044584274291992
169,1.0,0.502945065498352
170,1.0,0.5019695162773132
171,0.0,0.5035147666931152
172,1.0,0.5000881552696228
173,0.0,0.5032631158828735
174,1.0,0.5014941096305847
175,1.0,0.5026237368583679
176,0.0,0.5018208026885986
177,1.0,0.5021699666976929
178,1.0,0.5004673600196838
179,1.0,0.5019348859786987
180,0.0,0.5019994974136353
181,0.0,0.5017287731170654
182,0.0,0.5016697645187378
183,0.0,0.5007790327072144
184,1.0,0.5015020370483398
185,1.0,0.5014780163764954
186,1.0,0.504766583442688
187,0.0,0.498850017786026
188,0.0,0.5025724768638611
189,1.0,0.501883864402771
190,1.0,0.5031352043151855
191,1.0,0.5054399371147156
192,1.0,0.5022122263908386
193,1.0,0.5024542212486267
194,1.0,0.5032549500465393
