,real,predicted
0,1.0,0.4041881561279297
1,1.0,0.2753718793392181
2,0.0,0.1727296859025955
3,1.0,0.2849029898643493
4,1.0,0.3919470012187958
5,0.0,0.8664982914924622
6,1.0,0.9752124547958374
7,0.0,0.1601895242929458
8,0.0,0.916757881641388
9,1.0,0.5779833197593689
10,0.0,0.5813004374504089
11,0.0,0.8468611836433411
12,0.0,0.2191588580608368
13,1.0,0.2721260488033294
14,1.0,0.0572477504611015
15,0.0,0.1728671491146087
16,1.0,0.2894242703914642
17,1.0,0.0172267369925975
18,1.0,0.1385964751243591
19,1.0,0.94250750541687
20,0.0,0.8807119727134705
21,1.0,0.8970378041267395
22,0.0,0.2595386803150177
23,1.0,0.7353755831718445
24,1.0,0.4789410233497619
25,0.0,0.0021837707608938
26,1.0,0.5023037195205688
27,0.0,0.3994615972042084
28,0.0,0.9524939060211182
29,1.0,0.4599777162075043
30,1.0,0.98548823595047
31,0.0,0.9549840092658995
32,0.0,0.9606391787528992
33,1.0,0.978540539741516
34,1.0,0.962220013141632
35,1.0,0.2673757076263428
36,1.0,0.6606944799423218
37,0.0,0.0021142452023923
38,0.0,0.9722087383270264
39,0.0,0.98136305809021
40,0.0,0.9975842237472534
41,1.0,0.2790704667568207
42,1.0,0.2551741302013397
43,1.0,0.9407795071601868
44,0.0,0.0069214296527206
45,1.0,0.9999843835830688
46,1.0,0.6052542328834534
47,0.0,0.8167977929115295
48,1.0,0.9993228912353516
49,1.0,0.1350453346967697
50,0.0,0.0337320938706398
51,0.0,0.3805524110794067
52,1.0,0.4204919636249542
53,0.0,0.0487325899302959
54,0.0,0.1360048651695251
55,1.0,0.6634936332702637
56,1.0,0.9944013953208924
57,0.0,0.0004873381985817
58,1.0,0.1528676003217697
59,1.0,0.7566618919372559
60,1.0,0.2863554954528808
61,1.0,0.2618648409843445
62,1.0,0.0002437298826407
63,0.0,0.0546781048178672
64,0.0,0.1576756983995437
65,1.0,0.999996304512024
66,0.0,0.9645398855209352
67,1.0,0.0369472317397594
68,1.0,0.3423311412334442
69,1.0,0.0647024363279342
70,1.0,0.0102021861821413
71,1.0,0.9860381484031676
72,1.0,0.9960588216781616
73,1.0,0.7350527048110962
74,0.0,0.9927369356155396
75,0.0,0.0172940902411937
76,1.0,0.5509404540061951
77,1.0,0.0956049710512161
78,1.0,0.1669510602951049
79,1.0,0.0149526828899979
80,1.0,0.0002477839007042
81,1.0,0.000652379298117
82,0.0,0.990380048751831
83,1.0,0.0034479924943298
84,0.0,0.9988676309585572
85,0.0,0.9755315780639648
86,0.0,0.9940087795257568
87,1.0,0.5641346573829651
88,1.0,0.0529064908623695
89,0.0,0.8405099511146545
90,1.0,0.8477223515510559
91,0.0,0.954724669456482
92,1.0,0.7920398116111755
93,1.0,0.3386406898498535
94,1.0,0.9713594913482666
95,0.0,0.9990159273147584
96,1.0,0.0649790838360786
97,0.0,0.4919615685939789
98,1.0,0.9317345023155212
99,0.0,0.9060516953468324
100,1.0,0.7552748322486877
101,0.0,0.9999122619628906
102,1.0,0.9995914101600648
103,1.0,0.987761616706848
104,0.0,0.999360740184784
105,0.0,0.4647591114044189
106,1.0,0.9807500243186952
107,1.0,0.2198486328125
108,1.0,0.3531791567802429
109,0.0,0.3827356696128845
110,1.0,0.9071504473686218
111,0.0,0.2290328592061996
112,0.0,0.0062318672426044
113,1.0,0.3482894003391266
114,1.0,0.8156439661979675
115,0.0,0.979528784751892
116,1.0,0.3043754696846008
117,1.0,0.0025721106212586
118,0.0,0.9986831545829772
119,0.0,0.7790862917900085
120,0.0,0.9989612102508544
121,1.0,0.0567662417888641
122,1.0,0.8956963419914246
123,1.0,0.9659955501556396
124,1.0,0.9999881982803344
125,0.0,0.9151841402053832
126,1.0,0.9956640601158142
127,0.0,0.803078830242157
128,0.0,0.1792288720607757
129,1.0,0.1758227348327636
130,0.0,0.0094494512304663
131,0.0,0.9787552952766418
132,1.0,0.690050482749939
133,0.0,0.9079866409301758
134,1.0,0.9975537657737732
135,0.0,0.0003327511367388
136,1.0,0.8060904741287231
137,0.0,0.9971683621406556
138,0.0,0.3968088924884796
139,1.0,0.9080927968025208
140,1.0,0.9865663647651672
141,1.0,0.0032134053763002
142,1.0,0.5912734866142273
143,0.0,0.0902329310774803
144,1.0,0.0082640405744314
145,0.0,0.9523215293884276
146,1.0,0.9997146725654602
147,0.0,0.5971924662590027
148,0.0,0.9635754823684692
149,1.0,0.9787200093269348
150,1.0,0.9818991422653198
151,0.0,0.1830717623233795
152,1.0,0.8106128573417664
153,0.0,0.3442229330539703
154,0.0,0.9604767560958862
155,0.0,0.9195078015327454
156,0.0,0.9418665170669556
157,0.0,0.8545160293579102
158,1.0,0.8803249597549438
159,1.0,0.7297815680503845
160,1.0,0.7273612022399902
161,0.0,0.2681582570075989
162,1.0,0.98507958650589
163,1.0,1.2706476809398737e-05
164,1.0,0.9257046580314636
165,1.0,0.9628286361694336
166,1.0,0.8365405797958374
167,0.0,0.8529679775238037
168,1.0,0.6764784455299377
169,1.0,0.1882043927907943
170,1.0,0.0167816188186407
171,0.0,0.9953201413154602
172,1.0,0.156673863530159
173,0.0,0.4621731042861938
174,1.0,0.8758219480514526
175,1.0,0.1284540146589279
176,0.0,0.9953681230545044
177,1.0,0.6375734806060791
178,1.0,0.8835128545761108
179,1.0,0.6954716444015503
180,0.0,0.7566137313842773
181,0.0,0.7845433950424194
182,0.0,0.9993475079536438
183,0.0,0.0168548505753278
184,1.0,0.3614083230495453
185,1.0,0.9996261596679688
186,1.0,0.0075822374783456
187,0.0,0.9687275290489196
188,0.0,0.9999104738235474
189,1.0,0.9415203332901
190,1.0,0.0181243848055601
191,1.0,0.7834373712539673
192,1.0,0.0840113759040832
193,1.0,0.4372404217720032
194,1.0,0.8821816444396973
