,real,predicted
0,1.0,0.49945712
1,0.0,0.49477774
2,1.0,0.49761745
3,0.0,0.5003422
4,0.0,0.50116104
5,0.0,0.5078888
6,1.0,0.50538707
7,0.0,0.5054753
8,1.0,0.5072352
9,0.0,0.5061436
10,1.0,0.5052277
11,0.0,0.498249
12,1.0,0.50026536
13,0.0,0.5011007
14,0.0,0.50227815
15,1.0,0.5078123
16,1.0,0.50762427
17,1.0,0.50601363
18,1.0,0.5064877
19,1.0,0.50870216
20,1.0,0.51027906
21,0.0,0.5093481
22,1.0,0.5116729
23,1.0,0.5114004
24,0.0,0.49995565
25,1.0,0.5040851
26,1.0,0.5070723
27,0.0,0.50737387
28,0.0,0.51068467
29,0.0,0.51161325
30,0.0,0.50916153
31,1.0,0.5086397
32,1.0,0.50669444
33,0.0,0.50805104
34,0.0,0.5090532
35,0.0,0.51685613
36,1.0,0.51162183
37,1.0,0.5087559
38,1.0,0.5052951
39,0.0,0.50114065
40,1.0,0.5023145
41,1.0,0.50358003
42,1.0,0.5024514
43,0.0,0.5088569
44,0.0,0.50869185
45,0.0,0.5088282
46,1.0,0.5113155
47,1.0,0.510184
48,0.0,0.5099772
49,1.0,0.51086986
50,0.0,0.5099724
51,1.0,0.50705594
52,1.0,0.50537246
53,1.0,0.5045033
54,1.0,0.5052585
55,0.0,0.50438005
56,1.0,0.5049239
57,0.0,0.5036617
58,1.0,0.5062148
59,1.0,0.50491697
60,0.0,0.5059937
61,1.0,0.508203
62,1.0,0.50987643
63,1.0,0.5094384
64,0.0,0.5112102
65,1.0,0.51110065
66,0.0,0.5104826
67,1.0,0.5139666
68,1.0,0.51343095
69,0.0,0.5145703
70,0.0,0.51277435
71,1.0,0.51558304
72,0.0,0.5142892
73,0.0,0.51227295
74,0.0,0.50992155
75,1.0,0.5099137
76,0.0,0.50844264
77,1.0,0.50539565
78,1.0,0.506247
79,0.0,0.50655836
80,0.0,0.50983506
81,0.0,0.50765306
82,0.0,0.5077462
83,1.0,0.50783104
84,1.0,0.5057069
85,0.0,0.49416143
86,1.0,0.49605018
87,0.0,0.4953576
88,0.0,0.49717164
89,1.0,0.49621373
90,0.0,0.49688482
91,1.0,0.49938753
92,0.0,0.4938565
93,1.0,0.49566087
94,0.0,0.4912479
95,0.0,0.49589968
96,0.0,0.49701014
97,1.0,0.49771488
98,0.0,0.49970677
99,1.0,0.5035271
100,0.0,0.50410163
101,0.0,0.50234306
102,0.0,0.50292295
103,1.0,0.5025598
104,1.0,0.50328976
105,0.0,0.50178635
106,1.0,0.5033432
107,1.0,0.5027755
108,1.0,0.50507295
109,1.0,0.5091049
110,1.0,0.5149125
111,1.0,0.51584893
112,1.0,0.51634157
113,0.0,0.5140799
114,1.0,0.5152367
115,1.0,0.5157077
116,1.0,0.51433897
117,1.0,0.5128598
118,0.0,0.51163846
119,1.0,0.51569855
120,1.0,0.5166596
121,1.0,0.517278
122,0.0,0.5173287
123,0.0,0.5169117
124,1.0,0.51685077
125,0.0,0.5131215
126,1.0,0.5134083
127,0.0,0.5126665
128,1.0,0.51663285
129,1.0,0.5138119
130,1.0,0.5120485
131,0.0,0.5139986
132,1.0,0.51461333
133,0.0,0.51426435
134,0.0,0.51442784
135,0.0,0.5135716
136,1.0,0.513152
137,0.0,0.51035064
138,1.0,0.5142302
139,0.0,0.510482
140,1.0,0.5084652
141,0.0,0.50630796
142,1.0,0.5103391
143,0.0,0.5097504
144,1.0,0.5089227
145,1.0,0.5089268
146,1.0,0.50988317
147,1.0,0.51009613
148,1.0,0.5123061
149,0.0,0.51347256
150,0.0,0.5148848
151,1.0,0.5188016
152,0.0,0.5114626
153,1.0,0.5076622
154,0.0,0.50260305
155,0.0,0.50500065
156,1.0,0.50314534
157,1.0,0.50297505
158,1.0,0.50079525
159,1.0,0.50447434
160,0.0,0.5086915
161,1.0,0.5113694
162,0.0,0.5119518
163,1.0,0.50943846
164,1.0,0.5099239
165,0.0,0.51013297
166,1.0,0.5099605
167,0.0,0.50838447
168,0.0,0.50781435
169,1.0,0.5125798
170,0.0,0.5081816
171,1.0,0.5078718
172,1.0,0.5024166
173,1.0,0.50259584
174,1.0,0.5045837
175,0.0,0.50635403
176,1.0,0.5059043
177,1.0,0.50715584
178,0.0,0.50540364
179,0.0,0.50812155
180,1.0,0.5084884
181,1.0,0.5068971
182,1.0,0.5030772
183,0.0,0.5029337
184,1.0,0.50566083
185,1.0,0.5061613
186,1.0,0.5025651
187,1.0,0.49938777
188,1.0,0.50012475
189,1.0,0.50044924
190,0.0,0.49461457
191,0.0,0.49651214
192,0.0,0.49837735
193,0.0,0.4993168
194,1.0,0.5016139
