,real,predicted
0,1.0,0.53484595
1,0.0,0.5335963
2,1.0,0.55724335
3,0.0,0.5551569
4,0.0,0.560521
5,0.0,0.56205577
6,1.0,0.5383442
7,0.0,0.53553736
8,1.0,0.5309361
9,0.0,0.5282696
10,1.0,0.52918375
11,0.0,0.5158105
12,1.0,0.5259304
13,0.0,0.5201647
14,0.0,0.5272187
15,1.0,0.5205549
16,1.0,0.50490713
17,1.0,0.5038386
18,1.0,0.51604867
19,1.0,0.5181013
20,1.0,0.5233786
21,0.0,0.5302068
22,1.0,0.5310288
23,1.0,0.5317689
24,0.0,0.5381885
25,1.0,0.5536629
26,1.0,0.5407107
27,0.0,0.5454102
28,0.0,0.54505897
29,0.0,0.5381729
30,0.0,0.5300477
31,1.0,0.52020645
32,1.0,0.5125752
33,0.0,0.51739746
34,0.0,0.5180449
35,0.0,0.55124897
36,1.0,0.50818014
37,1.0,0.5048977
38,1.0,0.50372463
39,0.0,0.5098425
40,1.0,0.5222346
41,1.0,0.5150926
42,1.0,0.5138403
43,0.0,0.52276886
44,0.0,0.52115816
45,0.0,0.51367307
46,1.0,0.52055424
47,1.0,0.50179505
48,0.0,0.5116228
49,1.0,0.51698524
50,0.0,0.50627476
51,1.0,0.5117491
52,1.0,0.5060022
53,1.0,0.5077719
54,1.0,0.51962686
55,0.0,0.52147114
56,1.0,0.53084135
57,0.0,0.5246966
58,1.0,0.53301275
59,1.0,0.5200322
60,0.0,0.5264841
61,1.0,0.52549636
62,1.0,0.52157116
63,1.0,0.52381635
64,0.0,0.52446437
65,1.0,0.52283156
66,0.0,0.5197489
67,1.0,0.5344664
68,1.0,0.5036303
69,0.0,0.50371575
70,0.0,0.5046827
71,1.0,0.5049163
72,0.0,0.49727705
73,0.0,0.4996967
74,0.0,0.5003762
75,1.0,0.5013709
76,0.0,0.49886507
77,1.0,0.49868497
78,1.0,0.50172806
79,0.0,0.51122254
80,0.0,0.5139481
81,0.0,0.50855726
82,0.0,0.5108804
83,1.0,0.5067779
84,1.0,0.50092715
85,0.0,0.52483726
86,1.0,0.5219828
87,0.0,0.52009875
88,0.0,0.5195754
89,1.0,0.5133969
90,0.0,0.5143543
91,1.0,0.51154697
92,0.0,0.51551217
93,1.0,0.5168428
94,0.0,0.52218235
95,0.0,0.5238573
96,0.0,0.5179035
97,1.0,0.51299834
98,0.0,0.5134046
99,1.0,0.51378113
100,0.0,0.5121385
101,0.0,0.50820076
102,0.0,0.5068543
103,1.0,0.5025636
104,1.0,0.5041056
105,0.0,0.50776744
106,1.0,0.5092894
107,1.0,0.5096308
108,1.0,0.509895
109,1.0,0.5221305
110,1.0,0.529394
111,1.0,0.53266233
112,1.0,0.5466029
113,0.0,0.55646646
114,1.0,0.5617647
115,1.0,0.55546564
116,1.0,0.55336016
117,1.0,0.5563457
118,0.0,0.5569301
119,1.0,0.56597626
120,1.0,0.5456796
121,1.0,0.54960823
122,0.0,0.5445756
123,0.0,0.5431386
124,1.0,0.5318705
125,0.0,0.512689
126,1.0,0.51401854
127,0.0,0.5138979
128,1.0,0.5235355
129,1.0,0.5095818
130,1.0,0.5093975
131,0.0,0.5171398
132,1.0,0.51596874
133,0.0,0.5163578
134,0.0,0.517986
135,0.0,0.5161345
136,1.0,0.513301
137,0.0,0.49949542
138,1.0,0.5204104
139,0.0,0.49957153
140,1.0,0.50237703
141,0.0,0.5038348
142,1.0,0.5233958
143,0.0,0.5062832
144,1.0,0.51213133
145,1.0,0.5025143
146,1.0,0.5102889
147,1.0,0.5071218
148,1.0,0.5169461
149,0.0,0.5207979
150,0.0,0.53302157
151,1.0,0.55043733
152,0.0,0.5038151
153,1.0,0.525665
154,0.0,0.47213605
155,0.0,0.49479097
156,1.0,0.5099312
157,1.0,0.48963144
158,1.0,0.50745773
159,1.0,0.51647073
160,0.0,0.51063156
161,1.0,0.52338725
162,0.0,0.50455827
163,1.0,0.5160259
164,1.0,0.5103241
165,0.0,0.51012444
166,1.0,0.52045834
167,0.0,0.5176984
168,0.0,0.52200973
169,1.0,0.52872455
170,0.0,0.5031763
171,1.0,0.52529126
172,1.0,0.49639472
173,1.0,0.51230586
174,1.0,0.5138492
175,0.0,0.5160967
176,1.0,0.51815873
177,1.0,0.5134061
178,0.0,0.5237798
179,0.0,0.5286394
180,1.0,0.5266416
181,1.0,0.52279097
182,1.0,0.5240576
183,0.0,0.5293269
184,1.0,0.5288928
185,1.0,0.52347696
186,1.0,0.52499783
187,1.0,0.52665895
188,1.0,0.53184986
189,1.0,0.5360996
190,0.0,0.5370963
191,0.0,0.54039794
192,0.0,0.5241479
193,0.0,0.52434856
194,1.0,0.5292996
